{
"type": "FeatureCollection",
"features": [
{ "type": "Feature", "properties": { "value": 0.0001 }, "geometry": { "type": "Point", "coordinates": [ 129.343079, 35.481457, 2650.0 ] } },
{ "type": "Feature", "properties": { "value": 0.0003 }, "geometry": { "type": "Point", "coordinates": [ 129.344177, 35.481453, 2650.0 ] } },
{ "type": "Feature", "properties": { "value": 0.0003 }, "geometry": { "type": "Point", "coordinates": [ 129.345291, 35.481453, 2650.0 ] } },
{ "type": "Feature", "properties": { "value": 0.0006 }, "geometry": { "type": "Point", "coordinates": [ 129.34639, 35.481449, 2650.0 ] } },
{ "type": "Feature", "properties": { "value": 0.0006 }, "geometry": { "type": "Point", "coordinates": [ 129.347488, 35.481445, 2650.0 ] } },
{ "type": "Feature", "properties": { "value": 0.0006 }, "geometry": { "type": "Point", "coordinates": [ 129.348587, 35.481441, 2650.0 ] } },
{ "type": "Feature", "properties": { "value": 0.0003 }, "geometry": { "type": "Point", "coordinates": [ 129.349686, 35.481438, 2650.0 ] } },
{ "type": "Feature", "properties": { "value": 0.0002 }, "geometry": { "type": "Point", "coordinates": [ 129.3508, 35.481434, 2650.0 ] } },
{ "type": "Feature", "properties": { "value": 0.0001 }, "geometry": { "type": "Point", "coordinates": [ 129.351898, 35.481434, 2650.0 ] } },
{ "type": "Feature", "properties": { "value": 0.0001 }, "geometry": { "type": "Point", "coordinates": [ 129.339783, 35.482368, 2650.0 ] } },
{ "type": "Feature", "properties": { "value": 0.0003 }, "geometry": { "type": "Point", "coordinates": [ 129.340881, 35.482365, 2650.0 ] } },
{ "type": "Feature", "properties": { "value": 0.0006 }, "geometry": { "type": "Point", "coordinates": [ 129.34198, 35.482361, 2650.0 ] } },
{ "type": "Feature", "properties": { "value": 0.0008 }, "geometry": { "type": "Point", "coordinates": [ 129.343079, 35.482361, 2650.0 ] } },
{ "type": "Feature", "properties": { "value": 0.001 }, "geometry": { "type": "Point", "coordinates": [ 129.344193, 35.482357, 2650.0 ] } },
{ "type": "Feature", "properties": { "value": 0.0011 }, "geometry": { "type": "Point", "coordinates": [ 129.345291, 35.482353, 2650.0 ] } },
{ "type": "Feature", "properties": { "value": 0.0012 }, "geometry": { "type": "Point", "coordinates": [ 129.34639, 35.482349, 2650.0 ] } },
{ "type": "Feature", "properties": { "value": 0.0012 }, "geometry": { "type": "Point", "coordinates": [ 129.347488, 35.482346, 2650.0 ] } },
{ "type": "Feature", "properties": { "value": 0.0012 }, "geometry": { "type": "Point", "coordinates": [ 129.348602, 35.482342, 2650.0 ] } },
{ "type": "Feature", "properties": { "value": 0.0011 }, "geometry": { "type": "Point", "coordinates": [ 129.349701, 35.482342, 2650.0 ] } },
{ "type": "Feature", "properties": { "value": 0.001 }, "geometry": { "type": "Point", "coordinates": [ 129.3508, 35.482338, 2650.0 ] } },
{ "type": "Feature", "properties": { "value": 0.0009 }, "geometry": { "type": "Point", "coordinates": [ 129.351898, 35.482334, 2650.0 ] } },
{ "type": "Feature", "properties": { "value": 0.0007 }, "geometry": { "type": "Point", "coordinates": [ 129.352997, 35.48233, 2650.0 ] } },
{ "type": "Feature", "properties": { "value": 0.0002 }, "geometry": { "type": "Point", "coordinates": [ 129.354111, 35.482327, 2650.0 ] } },
{ "type": "Feature", "properties": { "value": 0.0003 }, "geometry": { "type": "Point", "coordinates": [ 129.338684, 35.483273, 2650.0 ] } },
{ "type": "Feature", "properties": { "value": 0.0006 }, "geometry": { "type": "Point", "coordinates": [ 129.339783, 35.483269, 2650.0 ] } },
{ "type": "Feature", "properties": { "value": 0.0009 }, "geometry": { "type": "Point", "coordinates": [ 129.340881, 35.483265, 2650.0 ] } },
{ "type": "Feature", "properties": { "value": 0.0012 }, "geometry": { "type": "Point", "coordinates": [ 129.34198, 35.483265, 2650.0 ] } },
{ "type": "Feature", "properties": { "value": 0.0014 }, "geometry": { "type": "Point", "coordinates": [ 129.343094, 35.483261, 2650.0 ] } },
{ "type": "Feature", "properties": { "value": 0.0017 }, "geometry": { "type": "Point", "coordinates": [ 129.344193, 35.483257, 2650.0 ] } },
{ "type": "Feature", "properties": { "value": 0.0019 }, "geometry": { "type": "Point", "coordinates": [ 129.345291, 35.483253, 2650.0 ] } },
{ "type": "Feature", "properties": { "value": 0.002 }, "geometry": { "type": "Point", "coordinates": [ 129.34639, 35.48325, 2650.0 ] } },
{ "type": "Feature", "properties": { "value": 0.0021 }, "geometry": { "type": "Point", "coordinates": [ 129.347504, 35.48325, 2650.0 ] } },
{ "type": "Feature", "properties": { "value": 0.002 }, "geometry": { "type": "Point", "coordinates": [ 129.348602, 35.483246, 2650.0 ] } },
{ "type": "Feature", "properties": { "value": 0.0019 }, "geometry": { "type": "Point", "coordinates": [ 129.349701, 35.483242, 2650.0 ] } },
{ "type": "Feature", "properties": { "value": 0.0017 }, "geometry": { "type": "Point", "coordinates": [ 129.3508, 35.483238, 2650.0 ] } },
{ "type": "Feature", "properties": { "value": 0.0015 }, "geometry": { "type": "Point", "coordinates": [ 129.351898, 35.483234, 2650.0 ] } },
{ "type": "Feature", "properties": { "value": 0.0012 }, "geometry": { "type": "Point", "coordinates": [ 129.353012, 35.483231, 2650.0 ] } },
{ "type": "Feature", "properties": { "value": 0.001 }, "geometry": { "type": "Point", "coordinates": [ 129.354111, 35.483227, 2650.0 ] } },
{ "type": "Feature", "properties": { "value": 0.0008 }, "geometry": { "type": "Point", "coordinates": [ 129.355209, 35.483227, 2650.0 ] } },
{ "type": "Feature", "properties": { "value": 0.0002 }, "geometry": { "type": "Point", "coordinates": [ 129.356308, 35.483223, 2650.0 ] } },
{ "type": "Feature", "properties": { "value": 0.0001 }, "geometry": { "type": "Point", "coordinates": [ 129.336487, 35.48418, 2650.0 ] } },
{ "type": "Feature", "properties": { "value": 0.0004 }, "geometry": { "type": "Point", "coordinates": [ 129.337585, 35.484177, 2650.0 ] } },
{ "type": "Feature", "properties": { "value": 0.0008 }, "geometry": { "type": "Point", "coordinates": [ 129.338684, 35.484173, 2650.0 ] } },
{ "type": "Feature", "properties": { "value": 0.0012 }, "geometry": { "type": "Point", "coordinates": [ 129.339783, 35.484173, 2650.0 ] } },
{ "type": "Feature", "properties": { "value": 0.0016 }, "geometry": { "type": "Point", "coordinates": [ 129.340897, 35.484169, 2650.0 ] } },
{ "type": "Feature", "properties": { "value": 0.002 }, "geometry": { "type": "Point", "coordinates": [ 129.341995, 35.484165, 2650.0 ] } },
{ "type": "Feature", "properties": { "value": 0.0024 }, "geometry": { "type": "Point", "coordinates": [ 129.343094, 35.484161, 2650.0 ] } },
{ "type": "Feature", "properties": { "value": 0.0028 }, "geometry": { "type": "Point", "coordinates": [ 129.344193, 35.484158, 2650.0 ] } },
{ "type": "Feature", "properties": { "value": 0.0031 }, "geometry": { "type": "Point", "coordinates": [ 129.345291, 35.484154, 2650.0 ] } },
{ "type": "Feature", "properties": { "value": 0.0033 }, "geometry": { "type": "Point", "coordinates": [ 129.346405, 35.484154, 2650.0 ] } },
{ "type": "Feature", "properties": { "value": 0.0034 }, "geometry": { "type": "Point", "coordinates": [ 129.347504, 35.48415, 2650.0 ] } },
{ "type": "Feature", "properties": { "value": 0.0034 }, "geometry": { "type": "Point", "coordinates": [ 129.348602, 35.484146, 2650.0 ] } },
{ "type": "Feature", "properties": { "value": 0.0032 }, "geometry": { "type": "Point", "coordinates": [ 129.349701, 35.484142, 2650.0 ] } },
{ "type": "Feature", "properties": { "value": 0.0029 }, "geometry": { "type": "Point", "coordinates": [ 129.3508, 35.484138, 2650.0 ] } },
{ "type": "Feature", "properties": { "value": 0.0025 }, "geometry": { "type": "Point", "coordinates": [ 129.351913, 35.484135, 2650.0 ] } },
{ "type": "Feature", "properties": { "value": 0.0021 }, "geometry": { "type": "Point", "coordinates": [ 129.353012, 35.484135, 2650.0 ] } },
{ "type": "Feature", "properties": { "value": 0.0016 }, "geometry": { "type": "Point", "coordinates": [ 129.354111, 35.484131, 2650.0 ] } },
{ "type": "Feature", "properties": { "value": 0.0012 }, "geometry": { "type": "Point", "coordinates": [ 129.355209, 35.484127, 2650.0 ] } },
{ "type": "Feature", "properties": { "value": 0.0009 }, "geometry": { "type": "Point", "coordinates": [ 129.356323, 35.484123, 2650.0 ] } },
{ "type": "Feature", "properties": { "value": 0.0003 }, "geometry": { "type": "Point", "coordinates": [ 129.357422, 35.484119, 2650.0 ] } },
{ "type": "Feature", "properties": { "value": 0.0001 }, "geometry": { "type": "Point", "coordinates": [ 129.335388, 35.485085, 2650.0 ] } },
{ "type": "Feature", "properties": { "value": 0.0005 }, "geometry": { "type": "Point", "coordinates": [ 129.336487, 35.485081, 2650.0 ] } },
{ "type": "Feature", "properties": { "value": 0.0009 }, "geometry": { "type": "Point", "coordinates": [ 129.337585, 35.485077, 2650.0 ] } },
{ "type": "Feature", "properties": { "value": 0.0013 }, "geometry": { "type": "Point", "coordinates": [ 129.338684, 35.485077, 2650.0 ] } },
{ "type": "Feature", "properties": { "value": 0.0019 }, "geometry": { "type": "Point", "coordinates": [ 129.339798, 35.485073, 2650.0 ] } },
{ "type": "Feature", "properties": { "value": 0.0025 }, "geometry": { "type": "Point", "coordinates": [ 129.340897, 35.485069, 2650.0 ] } },
{ "type": "Feature", "properties": { "value": 0.0031 }, "geometry": { "type": "Point", "coordinates": [ 129.341995, 35.485065, 2650.0 ] } },
{ "type": "Feature", "properties": { "value": 0.0038 }, "geometry": { "type": "Point", "coordinates": [ 129.343094, 35.485062, 2650.0 ] } },
{ "type": "Feature", "properties": { "value": 0.0044 }, "geometry": { "type": "Point", "coordinates": [ 129.344193, 35.485062, 2650.0 ] } },
{ "type": "Feature", "properties": { "value": 0.005 }, "geometry": { "type": "Point", "coordinates": [ 129.345306, 35.485058, 2650.0 ] } },
{ "type": "Feature", "properties": { "value": 0.0053 }, "geometry": { "type": "Point", "coordinates": [ 129.346405, 35.485054, 2650.0 ] } },
{ "type": "Feature", "properties": { "value": 0.0055 }, "geometry": { "type": "Point", "coordinates": [ 129.347504, 35.48505, 2650.0 ] } },
{ "type": "Feature", "properties": { "value": 0.0054 }, "geometry": { "type": "Point", "coordinates": [ 129.348602, 35.485046, 2650.0 ] } },
{ "type": "Feature", "properties": { "value": 0.0051 }, "geometry": { "type": "Point", "coordinates": [ 129.349716, 35.485043, 2650.0 ] } },
{ "type": "Feature", "properties": { "value": 0.0046 }, "geometry": { "type": "Point", "coordinates": [ 129.350815, 35.485043, 2650.0 ] } },
{ "type": "Feature", "properties": { "value": 0.004 }, "geometry": { "type": "Point", "coordinates": [ 129.351913, 35.485039, 2650.0 ] } },
{ "type": "Feature", "properties": { "value": 0.0033 }, "geometry": { "type": "Point", "coordinates": [ 129.353012, 35.485035, 2650.0 ] } },
{ "type": "Feature", "properties": { "value": 0.0026 }, "geometry": { "type": "Point", "coordinates": [ 129.354111, 35.485031, 2650.0 ] } },
{ "type": "Feature", "properties": { "value": 0.002 }, "geometry": { "type": "Point", "coordinates": [ 129.355225, 35.485027, 2650.0 ] } },
{ "type": "Feature", "properties": { "value": 0.0015 }, "geometry": { "type": "Point", "coordinates": [ 129.356323, 35.485023, 2650.0 ] } },
{ "type": "Feature", "properties": { "value": 0.001 }, "geometry": { "type": "Point", "coordinates": [ 129.357422, 35.48502, 2650.0 ] } },
{ "type": "Feature", "properties": { "value": 0.0006 }, "geometry": { "type": "Point", "coordinates": [ 129.358521, 35.48502, 2650.0 ] } },
{ "type": "Feature", "properties": { "value": 0.0004 }, "geometry": { "type": "Point", "coordinates": [ 129.335388, 35.485985, 2650.0 ] } },
{ "type": "Feature", "properties": { "value": 0.0009 }, "geometry": { "type": "Point", "coordinates": [ 129.336487, 35.485981, 2650.0 ] } },
{ "type": "Feature", "properties": { "value": 0.0014 }, "geometry": { "type": "Point", "coordinates": [ 129.337585, 35.485981, 2650.0 ] } },
{ "type": "Feature", "properties": { "value": 0.0021 }, "geometry": { "type": "Point", "coordinates": [ 129.338699, 35.485977, 2650.0 ] } },
{ "type": "Feature", "properties": { "value": 0.0028 }, "geometry": { "type": "Point", "coordinates": [ 129.339798, 35.485973, 2650.0 ] } },
{ "type": "Feature", "properties": { "value": 0.0038 }, "geometry": { "type": "Point", "coordinates": [ 129.340897, 35.48597, 2650.0 ] } },
{ "type": "Feature", "properties": { "value": 0.0048 }, "geometry": { "type": "Point", "coordinates": [ 129.341995, 35.485966, 2650.0 ] } },
{ "type": "Feature", "properties": { "value": 0.0058 }, "geometry": { "type": "Point", "coordinates": [ 129.343094, 35.485966, 2650.0 ] } },
{ "type": "Feature", "properties": { "value": 0.0068 }, "geometry": { "type": "Point", "coordinates": [ 129.344208, 35.485962, 2650.0 ] } },
{ "type": "Feature", "properties": { "value": 0.0076 }, "geometry": { "type": "Point", "coordinates": [ 129.345306, 35.485958, 2650.0 ] } },
{ "type": "Feature", "properties": { "value": 0.0081 }, "geometry": { "type": "Point", "coordinates": [ 129.346405, 35.485954, 2650.0 ] } },
{ "type": "Feature", "properties": { "value": 0.0083 }, "geometry": { "type": "Point", "coordinates": [ 129.347504, 35.48595, 2650.0 ] } },
{ "type": "Feature", "properties": { "value": 0.0082 }, "geometry": { "type": "Point", "coordinates": [ 129.348618, 35.485947, 2650.0 ] } },
{ "type": "Feature", "properties": { "value": 0.0077 }, "geometry": { "type": "Point", "coordinates": [ 129.349716, 35.485947, 2650.0 ] } },
{ "type": "Feature", "properties": { "value": 0.007 }, "geometry": { "type": "Point", "coordinates": [ 129.350815, 35.485943, 2650.0 ] } },
{ "type": "Feature", "properties": { "value": 0.006 }, "geometry": { "type": "Point", "coordinates": [ 129.351913, 35.485939, 2650.0 ] } },
{ "type": "Feature", "properties": { "value": 0.005 }, "geometry": { "type": "Point", "coordinates": [ 129.353012, 35.485935, 2650.0 ] } },
{ "type": "Feature", "properties": { "value": 0.004 }, "geometry": { "type": "Point", "coordinates": [ 129.354126, 35.485931, 2650.0 ] } },
{ "type": "Feature", "properties": { "value": 0.003 }, "geometry": { "type": "Point", "coordinates": [ 129.355225, 35.485928, 2650.0 ] } },
{ "type": "Feature", "properties": { "value": 0.0022 }, "geometry": { "type": "Point", "coordinates": [ 129.356323, 35.485928, 2650.0 ] } },
{ "type": "Feature", "properties": { "value": 0.0016 }, "geometry": { "type": "Point", "coordinates": [ 129.357422, 35.485924, 2650.0 ] } },
{ "type": "Feature", "properties": { "value": 0.0011 }, "geometry": { "type": "Point", "coordinates": [ 129.358536, 35.48592, 2650.0 ] } },
{ "type": "Feature", "properties": { "value": 0.0007 }, "geometry": { "type": "Point", "coordinates": [ 129.359634, 35.485916, 2650.0 ] } },
{ "type": "Feature", "properties": { "value": 0.0003 }, "geometry": { "type": "Point", "coordinates": [ 129.33429, 35.486889, 2650.0 ] } },
{ "type": "Feature", "properties": { "value": 0.0009 }, "geometry": { "type": "Point", "coordinates": [ 129.335388, 35.486889, 2650.0 ] } },
{ "type": "Feature", "properties": { "value": 0.0014 }, "geometry": { "type": "Point", "coordinates": [ 129.336487, 35.486885, 2650.0 ] } },
{ "type": "Feature", "properties": { "value": 0.0021 }, "geometry": { "type": "Point", "coordinates": [ 129.337601, 35.486881, 2650.0 ] } },
{ "type": "Feature", "properties": { "value": 0.003 }, "geometry": { "type": "Point", "coordinates": [ 129.338699, 35.486877, 2650.0 ] } },
{ "type": "Feature", "properties": { "value": 0.0042 }, "geometry": { "type": "Point", "coordinates": [ 129.339798, 35.486874, 2650.0 ] } },
{ "type": "Feature", "properties": { "value": 0.0055 }, "geometry": { "type": "Point", "coordinates": [ 129.340897, 35.486874, 2650.0 ] } },
{ "type": "Feature", "properties": { "value": 0.007 }, "geometry": { "type": "Point", "coordinates": [ 129.341995, 35.48687, 2650.0 ] } },
{ "type": "Feature", "properties": { "value": 0.0085 }, "geometry": { "type": "Point", "coordinates": [ 129.343109, 35.486866, 2650.0 ] } },
{ "type": "Feature", "properties": { "value": 0.0099 }, "geometry": { "type": "Point", "coordinates": [ 129.344208, 35.486862, 2650.0 ] } },
{ "type": "Feature", "properties": { "value": 0.0111 }, "geometry": { "type": "Point", "coordinates": [ 129.345306, 35.486858, 2650.0 ] } },
{ "type": "Feature", "properties": { "value": 0.0119 }, "geometry": { "type": "Point", "coordinates": [ 129.346405, 35.486855, 2650.0 ] } },
{ "type": "Feature", "properties": { "value": 0.0122 }, "geometry": { "type": "Point", "coordinates": [ 129.347519, 35.486855, 2650.0 ] } },
{ "type": "Feature", "properties": { "value": 0.012 }, "geometry": { "type": "Point", "coordinates": [ 129.348618, 35.486851, 2650.0 ] } },
{ "type": "Feature", "properties": { "value": 0.0113 }, "geometry": { "type": "Point", "coordinates": [ 129.349716, 35.486847, 2650.0 ] } },
{ "type": "Feature", "properties": { "value": 0.0102 }, "geometry": { "type": "Point", "coordinates": [ 129.350815, 35.486843, 2650.0 ] } },
{ "type": "Feature", "properties": { "value": 0.0088 }, "geometry": { "type": "Point", "coordinates": [ 129.351913, 35.486839, 2650.0 ] } },
{ "type": "Feature", "properties": { "value": 0.0073 }, "geometry": { "type": "Point", "coordinates": [ 129.353027, 35.486835, 2650.0 ] } },
{ "type": "Feature", "properties": { "value": 0.0058 }, "geometry": { "type": "Point", "coordinates": [ 129.354126, 35.486835, 2650.0 ] } },
{ "type": "Feature", "properties": { "value": 0.0044 }, "geometry": { "type": "Point", "coordinates": [ 129.355225, 35.486832, 2650.0 ] } },
{ "type": "Feature", "properties": { "value": 0.0033 }, "geometry": { "type": "Point", "coordinates": [ 129.356323, 35.486828, 2650.0 ] } },
{ "type": "Feature", "properties": { "value": 0.0023 }, "geometry": { "type": "Point", "coordinates": [ 129.357437, 35.486824, 2650.0 ] } },
{ "type": "Feature", "properties": { "value": 0.0016 }, "geometry": { "type": "Point", "coordinates": [ 129.358536, 35.48682, 2650.0 ] } },
{ "type": "Feature", "properties": { "value": 0.001 }, "geometry": { "type": "Point", "coordinates": [ 129.359634, 35.486816, 2650.0 ] } },
{ "type": "Feature", "properties": { "value": 0.0004 }, "geometry": { "type": "Point", "coordinates": [ 129.360733, 35.486813, 2650.0 ] } },
{ "type": "Feature", "properties": { "value": 0.0001 }, "geometry": { "type": "Point", "coordinates": [ 129.333191, 35.487793, 2650.0 ] } },
{ "type": "Feature", "properties": { "value": 0.0008 }, "geometry": { "type": "Point", "coordinates": [ 129.33429, 35.487793, 2650.0 ] } },
{ "type": "Feature", "properties": { "value": 0.0012 }, "geometry": { "type": "Point", "coordinates": [ 129.335388, 35.487789, 2650.0 ] } },
{ "type": "Feature", "properties": { "value": 0.0019 }, "geometry": { "type": "Point", "coordinates": [ 129.336502, 35.487785, 2650.0 ] } },
{ "type": "Feature", "properties": { "value": 0.0029 }, "geometry": { "type": "Point", "coordinates": [ 129.337601, 35.487782, 2650.0 ] } },
{ "type": "Feature", "properties": { "value": 0.0042 }, "geometry": { "type": "Point", "coordinates": [ 129.338699, 35.487778, 2650.0 ] } },
{ "type": "Feature", "properties": { "value": 0.0058 }, "geometry": { "type": "Point", "coordinates": [ 129.339798, 35.487778, 2650.0 ] } },
{ "type": "Feature", "properties": { "value": 0.0077 }, "geometry": { "type": "Point", "coordinates": [ 129.340912, 35.487774, 2650.0 ] } },
{ "type": "Feature", "properties": { "value": 0.0098 }, "geometry": { "type": "Point", "coordinates": [ 129.34201, 35.48777, 2650.0 ] } },
{ "type": "Feature", "properties": { "value": 0.0119 }, "geometry": { "type": "Point", "coordinates": [ 129.343109, 35.487766, 2650.0 ] } },
{ "type": "Feature", "properties": { "value": 0.0139 }, "geometry": { "type": "Point", "coordinates": [ 129.344208, 35.487762, 2650.0 ] } },
{ "type": "Feature", "properties": { "value": 0.0155 }, "geometry": { "type": "Point", "coordinates": [ 129.345306, 35.487759, 2650.0 ] } },
{ "type": "Feature", "properties": { "value": 0.0166 }, "geometry": { "type": "Point", "coordinates": [ 129.34642, 35.487759, 2650.0 ] } },
{ "type": "Feature", "properties": { "value": 0.0171 }, "geometry": { "type": "Point", "coordinates": [ 129.347519, 35.487755, 2650.0 ] } },
{ "type": "Feature", "properties": { "value": 0.0168 }, "geometry": { "type": "Point", "coordinates": [ 129.348618, 35.487751, 2650.0 ] } },
{ "type": "Feature", "properties": { "value": 0.0158 }, "geometry": { "type": "Point", "coordinates": [ 129.349716, 35.487747, 2650.0 ] } },
{ "type": "Feature", "properties": { "value": 0.0143 }, "geometry": { "type": "Point", "coordinates": [ 129.350815, 35.487743, 2650.0 ] } },
{ "type": "Feature", "properties": { "value": 0.0124 }, "geometry": { "type": "Point", "coordinates": [ 129.351929, 35.48774, 2650.0 ] } },
{ "type": "Feature", "properties": { "value": 0.0103 }, "geometry": { "type": "Point", "coordinates": [ 129.353027, 35.48774, 2650.0 ] } },
{ "type": "Feature", "properties": { "value": 0.0082 }, "geometry": { "type": "Point", "coordinates": [ 129.354126, 35.487736, 2650.0 ] } },
{ "type": "Feature", "properties": { "value": 0.0062 }, "geometry": { "type": "Point", "coordinates": [ 129.355225, 35.487732, 2650.0 ] } },
{ "type": "Feature", "properties": { "value": 0.0046 }, "geometry": { "type": "Point", "coordinates": [ 129.356339, 35.487728, 2650.0 ] } },
{ "type": "Feature", "properties": { "value": 0.0033 }, "geometry": { "type": "Point", "coordinates": [ 129.357437, 35.487724, 2650.0 ] } },
{ "type": "Feature", "properties": { "value": 0.0022 }, "geometry": { "type": "Point", "coordinates": [ 129.358536, 35.48772, 2650.0 ] } },
{ "type": "Feature", "properties": { "value": 0.0014 }, "geometry": { "type": "Point", "coordinates": [ 129.359634, 35.48772, 2650.0 ] } },
{ "type": "Feature", "properties": { "value": 0.0009 }, "geometry": { "type": "Point", "coordinates": [ 129.360733, 35.487717, 2650.0 ] } },
{ "type": "Feature", "properties": { "value": 0.0001 }, "geometry": { "type": "Point", "coordinates": [ 129.361847, 35.487713, 2650.0 ] } },
{ "type": "Feature", "properties": { "value": 0.0004 }, "geometry": { "type": "Point", "coordinates": [ 129.333191, 35.488697, 2650.0 ] } },
{ "type": "Feature", "properties": { "value": 0.001 }, "geometry": { "type": "Point", "coordinates": [ 129.33429, 35.488693, 2650.0 ] } },
{ "type": "Feature", "properties": { "value": 0.0017 }, "geometry": { "type": "Point", "coordinates": [ 129.335403, 35.488689, 2650.0 ] } },
{ "type": "Feature", "properties": { "value": 0.0026 }, "geometry": { "type": "Point", "coordinates": [ 129.336502, 35.488686, 2650.0 ] } },
{ "type": "Feature", "properties": { "value": 0.0039 }, "geometry": { "type": "Point", "coordinates": [ 129.337601, 35.488682, 2650.0 ] } },
{ "type": "Feature", "properties": { "value": 0.0056 }, "geometry": { "type": "Point", "coordinates": [ 129.338699, 35.488682, 2650.0 ] } },
{ "type": "Feature", "properties": { "value": 0.0078 }, "geometry": { "type": "Point", "coordinates": [ 129.339813, 35.488678, 2650.0 ] } },
{ "type": "Feature", "properties": { "value": 0.0103 }, "geometry": { "type": "Point", "coordinates": [ 129.340912, 35.488674, 2650.0 ] } },
{ "type": "Feature", "properties": { "value": 0.0131 }, "geometry": { "type": "Point", "coordinates": [ 129.34201, 35.48867, 2650.0 ] } },
{ "type": "Feature", "properties": { "value": 0.016 }, "geometry": { "type": "Point", "coordinates": [ 129.343109, 35.488667, 2650.0 ] } },
{ "type": "Feature", "properties": { "value": 0.0186 }, "geometry": { "type": "Point", "coordinates": [ 129.344208, 35.488667, 2650.0 ] } },
{ "type": "Feature", "properties": { "value": 0.0208 }, "geometry": { "type": "Point", "coordinates": [ 129.345322, 35.488663, 2650.0 ] } },
{ "type": "Feature", "properties": { "value": 0.0223 }, "geometry": { "type": "Point", "coordinates": [ 129.34642, 35.488659, 2650.0 ] } },
{ "type": "Feature", "properties": { "value": 0.0229 }, "geometry": { "type": "Point", "coordinates": [ 129.347519, 35.488655, 2650.0 ] } },
{ "type": "Feature", "properties": { "value": 0.0225 }, "geometry": { "type": "Point", "coordinates": [ 129.348618, 35.488651, 2650.0 ] } },
{ "type": "Feature", "properties": { "value": 0.0213 }, "geometry": { "type": "Point", "coordinates": [ 129.349731, 35.488647, 2650.0 ] } },
{ "type": "Feature", "properties": { "value": 0.0192 }, "geometry": { "type": "Point", "coordinates": [ 129.35083, 35.488647, 2650.0 ] } },
{ "type": "Feature", "properties": { "value": 0.0166 }, "geometry": { "type": "Point", "coordinates": [ 129.351929, 35.488644, 2650.0 ] } },
{ "type": "Feature", "properties": { "value": 0.0138 }, "geometry": { "type": "Point", "coordinates": [ 129.353027, 35.48864, 2650.0 ] } },
{ "type": "Feature", "properties": { "value": 0.011 }, "geometry": { "type": "Point", "coordinates": [ 129.354126, 35.488636, 2650.0 ] } },
{ "type": "Feature", "properties": { "value": 0.0085 }, "geometry": { "type": "Point", "coordinates": [ 129.35524, 35.488632, 2650.0 ] } },
{ "type": "Feature", "properties": { "value": 0.0062 }, "geometry": { "type": "Point", "coordinates": [ 129.356339, 35.488628, 2650.0 ] } },
{ "type": "Feature", "properties": { "value": 0.0044 }, "geometry": { "type": "Point", "coordinates": [ 129.357437, 35.488628, 2650.0 ] } },
{ "type": "Feature", "properties": { "value": 0.003 }, "geometry": { "type": "Point", "coordinates": [ 129.358536, 35.488625, 2650.0 ] } },
{ "type": "Feature", "properties": { "value": 0.0019 }, "geometry": { "type": "Point", "coordinates": [ 129.35965, 35.488621, 2650.0 ] } },
{ "type": "Feature", "properties": { "value": 0.0012 }, "geometry": { "type": "Point", "coordinates": [ 129.360748, 35.488617, 2650.0 ] } },
{ "type": "Feature", "properties": { "value": 0.0007 }, "geometry": { "type": "Point", "coordinates": [ 129.361847, 35.488613, 2650.0 ] } },
{ "type": "Feature", "properties": { "value": 0.0001 }, "geometry": { "type": "Point", "coordinates": [ 129.332092, 35.489601, 2650.0 ] } },
{ "type": "Feature", "properties": { "value": 0.0008 }, "geometry": { "type": "Point", "coordinates": [ 129.333191, 35.489597, 2650.0 ] } },
{ "type": "Feature", "properties": { "value": 0.0013 }, "geometry": { "type": "Point", "coordinates": [ 129.334305, 35.489594, 2650.0 ] } },
{ "type": "Feature", "properties": { "value": 0.0021 }, "geometry": { "type": "Point", "coordinates": [ 129.335403, 35.48959, 2650.0 ] } },
{ "type": "Feature", "properties": { "value": 0.0033 }, "geometry": { "type": "Point", "coordinates": [ 129.336502, 35.48959, 2650.0 ] } },
{ "type": "Feature", "properties": { "value": 0.005 }, "geometry": { "type": "Point", "coordinates": [ 129.337601, 35.489586, 2650.0 ] } },
{ "type": "Feature", "properties": { "value": 0.0073 }, "geometry": { "type": "Point", "coordinates": [ 129.338715, 35.489582, 2650.0 ] } },
{ "type": "Feature", "properties": { "value": 0.01 }, "geometry": { "type": "Point", "coordinates": [ 129.339813, 35.489578, 2650.0 ] } },
{ "type": "Feature", "properties": { "value": 0.0133 }, "geometry": { "type": "Point", "coordinates": [ 129.340912, 35.489574, 2650.0 ] } },
{ "type": "Feature", "properties": { "value": 0.0169 }, "geometry": { "type": "Point", "coordinates": [ 129.34201, 35.489571, 2650.0 ] } },
{ "type": "Feature", "properties": { "value": 0.0206 }, "geometry": { "type": "Point", "coordinates": [ 129.343109, 35.489571, 2650.0 ] } },
{ "type": "Feature", "properties": { "value": 0.024 }, "geometry": { "type": "Point", "coordinates": [ 129.344223, 35.489567, 2650.0 ] } },
{ "type": "Feature", "properties": { "value": 0.0268 }, "geometry": { "type": "Point", "coordinates": [ 129.345322, 35.489563, 2650.0 ] } },
{ "type": "Feature", "properties": { "value": 0.0287 }, "geometry": { "type": "Point", "coordinates": [ 129.34642, 35.489559, 2650.0 ] } },
{ "type": "Feature", "properties": { "value": 0.0295 }, "geometry": { "type": "Point", "coordinates": [ 129.347519, 35.489555, 2650.0 ] } },
{ "type": "Feature", "properties": { "value": 0.029 }, "geometry": { "type": "Point", "coordinates": [ 129.348633, 35.489555, 2650.0 ] } },
{ "type": "Feature", "properties": { "value": 0.0274 }, "geometry": { "type": "Point", "coordinates": [ 129.349731, 35.489552, 2650.0 ] } },
{ "type": "Feature", "properties": { "value": 0.0247 }, "geometry": { "type": "Point", "coordinates": [ 129.35083, 35.489548, 2650.0 ] } },
{ "type": "Feature", "properties": { "value": 0.0214 }, "geometry": { "type": "Point", "coordinates": [ 129.351929, 35.489544, 2650.0 ] } },
{ "type": "Feature", "properties": { "value": 0.0178 }, "geometry": { "type": "Point", "coordinates": [ 129.353027, 35.48954, 2650.0 ] } },
{ "type": "Feature", "properties": { "value": 0.0142 }, "geometry": { "type": "Point", "coordinates": [ 129.354141, 35.489536, 2650.0 ] } },
{ "type": "Feature", "properties": { "value": 0.0109 }, "geometry": { "type": "Point", "coordinates": [ 129.35524, 35.489532, 2650.0 ] } },
{ "type": "Feature", "properties": { "value": 0.008 }, "geometry": { "type": "Point", "coordinates": [ 129.356339, 35.489532, 2650.0 ] } },
{ "type": "Feature", "properties": { "value": 0.0056 }, "geometry": { "type": "Point", "coordinates": [ 129.357437, 35.489529, 2650.0 ] } },
{ "type": "Feature", "properties": { "value": 0.0038 }, "geometry": { "type": "Point", "coordinates": [ 129.358551, 35.489525, 2650.0 ] } },
{ "type": "Feature", "properties": { "value": 0.0025 }, "geometry": { "type": "Point", "coordinates": [ 129.35965, 35.489521, 2650.0 ] } },
{ "type": "Feature", "properties": { "value": 0.0015 }, "geometry": { "type": "Point", "coordinates": [ 129.360748, 35.489517, 2650.0 ] } },
{ "type": "Feature", "properties": { "value": 0.0009 }, "geometry": { "type": "Point", "coordinates": [ 129.361847, 35.489513, 2650.0 ] } },
{ "type": "Feature", "properties": { "value": 0.0001 }, "geometry": { "type": "Point", "coordinates": [ 129.362946, 35.48951, 2650.0 ] } },
{ "type": "Feature", "properties": { "value": 0.0003 }, "geometry": { "type": "Point", "coordinates": [ 129.332092, 35.490501, 2650.0 ] } },
{ "type": "Feature", "properties": { "value": 0.0009 }, "geometry": { "type": "Point", "coordinates": [ 129.333206, 35.490498, 2650.0 ] } },
{ "type": "Feature", "properties": { "value": 0.0016 }, "geometry": { "type": "Point", "coordinates": [ 129.334305, 35.490494, 2650.0 ] } },
{ "type": "Feature", "properties": { "value": 0.0026 }, "geometry": { "type": "Point", "coordinates": [ 129.335403, 35.490494, 2650.0 ] } },
{ "type": "Feature", "properties": { "value": 0.0041 }, "geometry": { "type": "Point", "coordinates": [ 129.336502, 35.49049, 2650.0 ] } },
{ "type": "Feature", "properties": { "value": 0.0062 }, "geometry": { "type": "Point", "coordinates": [ 129.337616, 35.490486, 2650.0 ] } },
{ "type": "Feature", "properties": { "value": 0.009 }, "geometry": { "type": "Point", "coordinates": [ 129.338715, 35.490482, 2650.0 ] } },
{ "type": "Feature", "properties": { "value": 0.0124 }, "geometry": { "type": "Point", "coordinates": [ 129.339813, 35.490479, 2650.0 ] } },
{ "type": "Feature", "properties": { "value": 0.0164 }, "geometry": { "type": "Point", "coordinates": [ 129.340912, 35.490479, 2650.0 ] } },
{ "type": "Feature", "properties": { "value": 0.0209 }, "geometry": { "type": "Point", "coordinates": [ 129.34201, 35.490475, 2650.0 ] } },
{ "type": "Feature", "properties": { "value": 0.0254 }, "geometry": { "type": "Point", "coordinates": [ 129.343124, 35.490471, 2650.0 ] } },
{ "type": "Feature", "properties": { "value": 0.0296 }, "geometry": { "type": "Point", "coordinates": [ 129.344223, 35.490467, 2650.0 ] } },
{ "type": "Feature", "properties": { "value": 0.0331 }, "geometry": { "type": "Point", "coordinates": [ 129.345322, 35.490463, 2650.0 ] } },
{ "type": "Feature", "properties": { "value": 0.0355 }, "geometry": { "type": "Point", "coordinates": [ 129.34642, 35.490459, 2650.0 ] } },
{ "type": "Feature", "properties": { "value": 0.0364 }, "geometry": { "type": "Point", "coordinates": [ 129.347534, 35.490459, 2650.0 ] } },
{ "type": "Feature", "properties": { "value": 0.0358 }, "geometry": { "type": "Point", "coordinates": [ 129.348633, 35.490456, 2650.0 ] } },
{ "type": "Feature", "properties": { "value": 0.0338 }, "geometry": { "type": "Point", "coordinates": [ 129.349731, 35.490452, 2650.0 ] } },
{ "type": "Feature", "properties": { "value": 0.0305 }, "geometry": { "type": "Point", "coordinates": [ 129.35083, 35.490448, 2650.0 ] } },
{ "type": "Feature", "properties": { "value": 0.0264 }, "geometry": { "type": "Point", "coordinates": [ 129.351929, 35.490444, 2650.0 ] } },
{ "type": "Feature", "properties": { "value": 0.0219 }, "geometry": { "type": "Point", "coordinates": [ 129.353043, 35.49044, 2650.0 ] } },
{ "type": "Feature", "properties": { "value": 0.0175 }, "geometry": { "type": "Point", "coordinates": [ 129.354141, 35.49044, 2650.0 ] } },
{ "type": "Feature", "properties": { "value": 0.0134 }, "geometry": { "type": "Point", "coordinates": [ 129.35524, 35.490437, 2650.0 ] } },
{ "type": "Feature", "properties": { "value": 0.0098 }, "geometry": { "type": "Point", "coordinates": [ 129.356339, 35.490433, 2650.0 ] } },
{ "type": "Feature", "properties": { "value": 0.0069 }, "geometry": { "type": "Point", "coordinates": [ 129.357452, 35.490429, 2650.0 ] } },
{ "type": "Feature", "properties": { "value": 0.0047 }, "geometry": { "type": "Point", "coordinates": [ 129.358551, 35.490425, 2650.0 ] } },
{ "type": "Feature", "properties": { "value": 0.003 }, "geometry": { "type": "Point", "coordinates": [ 129.35965, 35.490421, 2650.0 ] } },
{ "type": "Feature", "properties": { "value": 0.0019 }, "geometry": { "type": "Point", "coordinates": [ 129.360748, 35.490417, 2650.0 ] } },
{ "type": "Feature", "properties": { "value": 0.0011 }, "geometry": { "type": "Point", "coordinates": [ 129.361847, 35.490417, 2650.0 ] } },
{ "type": "Feature", "properties": { "value": 0.0005 }, "geometry": { "type": "Point", "coordinates": [ 129.362961, 35.490414, 2650.0 ] } },
{ "type": "Feature", "properties": { "value": 0.0004 }, "geometry": { "type": "Point", "coordinates": [ 129.332108, 35.491402, 2650.0 ] } },
{ "type": "Feature", "properties": { "value": 0.0011 }, "geometry": { "type": "Point", "coordinates": [ 129.333206, 35.491398, 2650.0 ] } },
{ "type": "Feature", "properties": { "value": 0.0019 }, "geometry": { "type": "Point", "coordinates": [ 129.334305, 35.491398, 2650.0 ] } },
{ "type": "Feature", "properties": { "value": 0.0031 }, "geometry": { "type": "Point", "coordinates": [ 129.335403, 35.491394, 2650.0 ] } },
{ "type": "Feature", "properties": { "value": 0.0049 }, "geometry": { "type": "Point", "coordinates": [ 129.336517, 35.49139, 2650.0 ] } },
{ "type": "Feature", "properties": { "value": 0.0073 }, "geometry": { "type": "Point", "coordinates": [ 129.337616, 35.491386, 2650.0 ] } },
{ "type": "Feature", "properties": { "value": 0.0106 }, "geometry": { "type": "Point", "coordinates": [ 129.338715, 35.491383, 2650.0 ] } },
{ "type": "Feature", "properties": { "value": 0.0146 }, "geometry": { "type": "Point", "coordinates": [ 129.339813, 35.491383, 2650.0 ] } },
{ "type": "Feature", "properties": { "value": 0.0194 }, "geometry": { "type": "Point", "coordinates": [ 129.340927, 35.491379, 2650.0 ] } },
{ "type": "Feature", "properties": { "value": 0.0247 }, "geometry": { "type": "Point", "coordinates": [ 129.342026, 35.491375, 2650.0 ] } },
{ "type": "Feature", "properties": { "value": 0.03 }, "geometry": { "type": "Point", "coordinates": [ 129.343124, 35.491371, 2650.0 ] } },
{ "type": "Feature", "properties": { "value": 0.035 }, "geometry": { "type": "Point", "coordinates": [ 129.344223, 35.491367, 2650.0 ] } },
{ "type": "Feature", "properties": { "value": 0.0391 }, "geometry": { "type": "Point", "coordinates": [ 129.345322, 35.491367, 2650.0 ] } },
{ "type": "Feature", "properties": { "value": 0.0419 }, "geometry": { "type": "Point", "coordinates": [ 129.346436, 35.491364, 2650.0 ] } },
{ "type": "Feature", "properties": { "value": 0.0431 }, "geometry": { "type": "Point", "coordinates": [ 129.347534, 35.49136, 2650.0 ] } },
{ "type": "Feature", "properties": { "value": 0.0424 }, "geometry": { "type": "Point", "coordinates": [ 129.348633, 35.491356, 2650.0 ] } },
{ "type": "Feature", "properties": { "value": 0.04 }, "geometry": { "type": "Point", "coordinates": [ 129.349731, 35.491352, 2650.0 ] } },
{ "type": "Feature", "properties": { "value": 0.0361 }, "geometry": { "type": "Point", "coordinates": [ 129.350845, 35.491348, 2650.0 ] } },
{ "type": "Feature", "properties": { "value": 0.0311 }, "geometry": { "type": "Point", "coordinates": [ 129.351944, 35.491348, 2650.0 ] } },
{ "type": "Feature", "properties": { "value": 0.0259 }, "geometry": { "type": "Point", "coordinates": [ 129.353043, 35.491344, 2650.0 ] } },
{ "type": "Feature", "properties": { "value": 0.0207 }, "geometry": { "type": "Point", "coordinates": [ 129.354141, 35.491341, 2650.0 ] } },
{ "type": "Feature", "properties": { "value": 0.0158 }, "geometry": { "type": "Point", "coordinates": [ 129.35524, 35.491337, 2650.0 ] } },
{ "type": "Feature", "properties": { "value": 0.0116 }, "geometry": { "type": "Point", "coordinates": [ 129.356354, 35.491333, 2650.0 ] } },
{ "type": "Feature", "properties": { "value": 0.0082 }, "geometry": { "type": "Point", "coordinates": [ 129.357452, 35.491329, 2650.0 ] } },
{ "type": "Feature", "properties": { "value": 0.0055 }, "geometry": { "type": "Point", "coordinates": [ 129.358551, 35.491325, 2650.0 ] } },
{ "type": "Feature", "properties": { "value": 0.0036 }, "geometry": { "type": "Point", "coordinates": [ 129.35965, 35.491325, 2650.0 ] } },
{ "type": "Feature", "properties": { "value": 0.0022 }, "geometry": { "type": "Point", "coordinates": [ 129.360764, 35.491322, 2650.0 ] } },
{ "type": "Feature", "properties": { "value": 0.0013 }, "geometry": { "type": "Point", "coordinates": [ 129.361862, 35.491318, 2650.0 ] } },
{ "type": "Feature", "properties": { "value": 0.0008 }, "geometry": { "type": "Point", "coordinates": [ 129.362961, 35.491314, 2650.0 ] } },
{ "type": "Feature", "properties": { "value": 0.0007 }, "geometry": { "type": "Point", "coordinates": [ 129.332108, 35.492306, 2650.0 ] } },
{ "type": "Feature", "properties": { "value": 0.0013 }, "geometry": { "type": "Point", "coordinates": [ 129.333206, 35.492302, 2650.0 ] } },
{ "type": "Feature", "properties": { "value": 0.0021 }, "geometry": { "type": "Point", "coordinates": [ 129.334305, 35.492298, 2650.0 ] } },
{ "type": "Feature", "properties": { "value": 0.0035 }, "geometry": { "type": "Point", "coordinates": [ 129.335419, 35.492294, 2650.0 ] } },
{ "type": "Feature", "properties": { "value": 0.0055 }, "geometry": { "type": "Point", "coordinates": [ 129.336517, 35.49229, 2650.0 ] } },
{ "type": "Feature", "properties": { "value": 0.0083 }, "geometry": { "type": "Point", "coordinates": [ 129.337616, 35.49229, 2650.0 ] } },
{ "type": "Feature", "properties": { "value": 0.012 }, "geometry": { "type": "Point", "coordinates": [ 129.338715, 35.492287, 2650.0 ] } },
{ "type": "Feature", "properties": { "value": 0.0166 }, "geometry": { "type": "Point", "coordinates": [ 129.339828, 35.492283, 2650.0 ] } },
{ "type": "Feature", "properties": { "value": 0.022 }, "geometry": { "type": "Point", "coordinates": [ 129.340927, 35.492279, 2650.0 ] } },
{ "type": "Feature", "properties": { "value": 0.0279 }, "geometry": { "type": "Point", "coordinates": [ 129.342026, 35.492275, 2650.0 ] } },
{ "type": "Feature", "properties": { "value": 0.034 }, "geometry": { "type": "Point", "coordinates": [ 129.343124, 35.492271, 2650.0 ] } },
{ "type": "Feature", "properties": { "value": 0.0397 }, "geometry": { "type": "Point", "coordinates": [ 129.344223, 35.492271, 2650.0 ] } },
{ "type": "Feature", "properties": { "value": 0.0444 }, "geometry": { "type": "Point", "coordinates": [ 129.345337, 35.492268, 2650.0 ] } },
{ "type": "Feature", "properties": { "value": 0.0475 }, "geometry": { "type": "Point", "coordinates": [ 129.346436, 35.492264, 2650.0 ] } },
{ "type": "Feature", "properties": { "value": 0.0488 }, "geometry": { "type": "Point", "coordinates": [ 129.347534, 35.49226, 2650.0 ] } },
{ "type": "Feature", "properties": { "value": 0.048 }, "geometry": { "type": "Point", "coordinates": [ 129.348633, 35.492256, 2650.0 ] } },
{ "type": "Feature", "properties": { "value": 0.0452 }, "geometry": { "type": "Point", "coordinates": [ 129.349747, 35.492252, 2650.0 ] } },
{ "type": "Feature", "properties": { "value": 0.0406 }, "geometry": { "type": "Point", "coordinates": [ 129.350845, 35.492252, 2650.0 ] } },
{ "type": "Feature", "properties": { "value": 0.0352 }, "geometry": { "type": "Point", "coordinates": [ 129.351944, 35.492249, 2650.0 ] } },
{ "type": "Feature", "properties": { "value": 0.0293 }, "geometry": { "type": "Point", "coordinates": [ 129.353043, 35.492245, 2650.0 ] } },
{ "type": "Feature", "properties": { "value": 0.0234 }, "geometry": { "type": "Point", "coordinates": [ 129.354141, 35.492241, 2650.0 ] } },
{ "type": "Feature", "properties": { "value": 0.0179 }, "geometry": { "type": "Point", "coordinates": [ 129.355255, 35.492237, 2650.0 ] } },
{ "type": "Feature", "properties": { "value": 0.0131 }, "geometry": { "type": "Point", "coordinates": [ 129.356354, 35.492233, 2650.0 ] } },
{ "type": "Feature", "properties": { "value": 0.0093 }, "geometry": { "type": "Point", "coordinates": [ 129.357452, 35.492233, 2650.0 ] } },
{ "type": "Feature", "properties": { "value": 0.0063 }, "geometry": { "type": "Point", "coordinates": [ 129.358551, 35.492229, 2650.0 ] } },
{ "type": "Feature", "properties": { "value": 0.0041 }, "geometry": { "type": "Point", "coordinates": [ 129.359665, 35.492226, 2650.0 ] } },
{ "type": "Feature", "properties": { "value": 0.0025 }, "geometry": { "type": "Point", "coordinates": [ 129.360764, 35.492222, 2650.0 ] } },
{ "type": "Feature", "properties": { "value": 0.0015 }, "geometry": { "type": "Point", "coordinates": [ 129.361862, 35.492218, 2650.0 ] } },
{ "type": "Feature", "properties": { "value": 0.0009 }, "geometry": { "type": "Point", "coordinates": [ 129.362961, 35.492214, 2650.0 ] } },
{ "type": "Feature", "properties": { "value": 0.0008 }, "geometry": { "type": "Point", "coordinates": [ 129.332108, 35.493206, 2650.0 ] } },
{ "type": "Feature", "properties": { "value": 0.0014 }, "geometry": { "type": "Point", "coordinates": [ 129.333206, 35.493202, 2650.0 ] } },
{ "type": "Feature", "properties": { "value": 0.0023 }, "geometry": { "type": "Point", "coordinates": [ 129.33432, 35.493198, 2650.0 ] } },
{ "type": "Feature", "properties": { "value": 0.0038 }, "geometry": { "type": "Point", "coordinates": [ 129.335419, 35.493195, 2650.0 ] } },
{ "type": "Feature", "properties": { "value": 0.006 }, "geometry": { "type": "Point", "coordinates": [ 129.336517, 35.493195, 2650.0 ] } },
{ "type": "Feature", "properties": { "value": 0.009 }, "geometry": { "type": "Point", "coordinates": [ 129.337616, 35.493191, 2650.0 ] } },
{ "type": "Feature", "properties": { "value": 0.013 }, "geometry": { "type": "Point", "coordinates": [ 129.33873, 35.493187, 2650.0 ] } },
{ "type": "Feature", "properties": { "value": 0.018 }, "geometry": { "type": "Point", "coordinates": [ 129.339828, 35.493183, 2650.0 ] } },
{ "type": "Feature", "properties": { "value": 0.0239 }, "geometry": { "type": "Point", "coordinates": [ 129.340927, 35.493179, 2650.0 ] } },
{ "type": "Feature", "properties": { "value": 0.0303 }, "geometry": { "type": "Point", "coordinates": [ 129.342026, 35.493179, 2650.0 ] } },
{ "type": "Feature", "properties": { "value": 0.0369 }, "geometry": { "type": "Point", "coordinates": [ 129.343124, 35.493176, 2650.0 ] } },
{ "type": "Feature", "properties": { "value": 0.0431 }, "geometry": { "type": "Point", "coordinates": [ 129.344238, 35.493172, 2650.0 ] } },
{ "type": "Feature", "properties": { "value": 0.0482 }, "geometry": { "type": "Point", "coordinates": [ 129.345337, 35.493168, 2650.0 ] } },
{ "type": "Feature", "properties": { "value": 0.0516 }, "geometry": { "type": "Point", "coordinates": [ 129.346436, 35.493164, 2650.0 ] } },
{ "type": "Feature", "properties": { "value": 0.053 }, "geometry": { "type": "Point", "coordinates": [ 129.347534, 35.49316, 2650.0 ] } },
{ "type": "Feature", "properties": { "value": 0.0521 }, "geometry": { "type": "Point", "coordinates": [ 129.348648, 35.49316, 2650.0 ] } },
{ "type": "Feature", "properties": { "value": 0.0487 }, "geometry": { "type": "Point", "coordinates": [ 129.349747, 35.493156, 2650.0 ] } },
{ "type": "Feature", "properties": { "value": 0.044 }, "geometry": { "type": "Point", "coordinates": [ 129.350845, 35.493153, 2650.0 ] } },
{ "type": "Feature", "properties": { "value": 0.0382 }, "geometry": { "type": "Point", "coordinates": [ 129.351944, 35.493149, 2650.0 ] } },
{ "type": "Feature", "properties": { "value": 0.0318 }, "geometry": { "type": "Point", "coordinates": [ 129.353043, 35.493145, 2650.0 ] } },
{ "type": "Feature", "properties": { "value": 0.0254 }, "geometry": { "type": "Point", "coordinates": [ 129.354156, 35.493141, 2650.0 ] } },
{ "type": "Feature", "properties": { "value": 0.0194 }, "geometry": { "type": "Point", "coordinates": [ 129.355255, 35.493141, 2650.0 ] } },
{ "type": "Feature", "properties": { "value": 0.0143 }, "geometry": { "type": "Point", "coordinates": [ 129.356354, 35.493137, 2650.0 ] } },
{ "type": "Feature", "properties": { "value": 0.0101 }, "geometry": { "type": "Point", "coordinates": [ 129.357452, 35.493134, 2650.0 ] } },
{ "type": "Feature", "properties": { "value": 0.0068 }, "geometry": { "type": "Point", "coordinates": [ 129.358566, 35.49313, 2650.0 ] } },
{ "type": "Feature", "properties": { "value": 0.0044 }, "geometry": { "type": "Point", "coordinates": [ 129.359665, 35.493126, 2650.0 ] } },
{ "type": "Feature", "properties": { "value": 0.0027 }, "geometry": { "type": "Point", "coordinates": [ 129.360764, 35.493122, 2650.0 ] } },
{ "type": "Feature", "properties": { "value": 0.0016 }, "geometry": { "type": "Point", "coordinates": [ 129.361862, 35.493118, 2650.0 ] } },
{ "type": "Feature", "properties": { "value": 0.0009 }, "geometry": { "type": "Point", "coordinates": [ 129.362961, 35.493118, 2650.0 ] } },
{ "type": "Feature", "properties": { "value": 0.0003 }, "geometry": { "type": "Point", "coordinates": [ 129.364075, 35.493114, 2650.0 ] } },
{ "type": "Feature", "properties": { "value": 0.0008 }, "geometry": { "type": "Point", "coordinates": [ 129.332108, 35.494106, 2650.0 ] } },
{ "type": "Feature", "properties": { "value": 0.0014 }, "geometry": { "type": "Point", "coordinates": [ 129.333221, 35.494102, 2650.0 ] } },
{ "type": "Feature", "properties": { "value": 0.0024 }, "geometry": { "type": "Point", "coordinates": [ 129.33432, 35.494099, 2650.0 ] } },
{ "type": "Feature", "properties": { "value": 0.004 }, "geometry": { "type": "Point", "coordinates": [ 129.335419, 35.494099, 2650.0 ] } },
{ "type": "Feature", "properties": { "value": 0.0062 }, "geometry": { "type": "Point", "coordinates": [ 129.336517, 35.494095, 2650.0 ] } },
{ "type": "Feature", "properties": { "value": 0.0094 }, "geometry": { "type": "Point", "coordinates": [ 129.337631, 35.494091, 2650.0 ] } },
{ "type": "Feature", "properties": { "value": 0.0135 }, "geometry": { "type": "Point", "coordinates": [ 129.33873, 35.494087, 2650.0 ] } },
{ "type": "Feature", "properties": { "value": 0.0187 }, "geometry": { "type": "Point", "coordinates": [ 129.339828, 35.494083, 2650.0 ] } },
{ "type": "Feature", "properties": { "value": 0.0248 }, "geometry": { "type": "Point", "coordinates": [ 129.340927, 35.494083, 2650.0 ] } },
{ "type": "Feature", "properties": { "value": 0.0316 }, "geometry": { "type": "Point", "coordinates": [ 129.342026, 35.49408, 2650.0 ] } },
{ "type": "Feature", "properties": { "value": 0.0384 }, "geometry": { "type": "Point", "coordinates": [ 129.34314, 35.494076, 2650.0 ] } },
{ "type": "Feature", "properties": { "value": 0.0449 }, "geometry": { "type": "Point", "coordinates": [ 129.344238, 35.494072, 2650.0 ] } },
{ "type": "Feature", "properties": { "value": 0.0502 }, "geometry": { "type": "Point", "coordinates": [ 129.345337, 35.494068, 2650.0 ] } },
{ "type": "Feature", "properties": { "value": 0.0538 }, "geometry": { "type": "Point", "coordinates": [ 129.346436, 35.494068, 2650.0 ] } },
{ "type": "Feature", "properties": { "value": 0.0551 }, "geometry": { "type": "Point", "coordinates": [ 129.347549, 35.494064, 2650.0 ] } },
{ "type": "Feature", "properties": { "value": 0.0537 }, "geometry": { "type": "Point", "coordinates": [ 129.348648, 35.494061, 2650.0 ] } },
{ "type": "Feature", "properties": { "value": 0.0505 }, "geometry": { "type": "Point", "coordinates": [ 129.349747, 35.494057, 2650.0 ] } },
{ "type": "Feature", "properties": { "value": 0.0458 }, "geometry": { "type": "Point", "coordinates": [ 129.350845, 35.494053, 2650.0 ] } },
{ "type": "Feature", "properties": { "value": 0.0397 }, "geometry": { "type": "Point", "coordinates": [ 129.351959, 35.494049, 2650.0 ] } },
{ "type": "Feature", "properties": { "value": 0.0331 }, "geometry": { "type": "Point", "coordinates": [ 129.353058, 35.494049, 2650.0 ] } },
{ "type": "Feature", "properties": { "value": 0.0264 }, "geometry": { "type": "Point", "coordinates": [ 129.354156, 35.494045, 2650.0 ] } },
{ "type": "Feature", "properties": { "value": 0.0202 }, "geometry": { "type": "Point", "coordinates": [ 129.355255, 35.494041, 2650.0 ] } },
{ "type": "Feature", "properties": { "value": 0.0149 }, "geometry": { "type": "Point", "coordinates": [ 129.356354, 35.494038, 2650.0 ] } },
{ "type": "Feature", "properties": { "value": 0.0105 }, "geometry": { "type": "Point", "coordinates": [ 129.357468, 35.494034, 2650.0 ] } },
{ "type": "Feature", "properties": { "value": 0.0071 }, "geometry": { "type": "Point", "coordinates": [ 129.358566, 35.49403, 2650.0 ] } },
{ "type": "Feature", "properties": { "value": 0.0046 }, "geometry": { "type": "Point", "coordinates": [ 129.359665, 35.494026, 2650.0 ] } },
{ "type": "Feature", "properties": { "value": 0.0028 }, "geometry": { "type": "Point", "coordinates": [ 129.360764, 35.494026, 2650.0 ] } },
{ "type": "Feature", "properties": { "value": 0.0017 }, "geometry": { "type": "Point", "coordinates": [ 129.361877, 35.494022, 2650.0 ] } },
{ "type": "Feature", "properties": { "value": 0.001 }, "geometry": { "type": "Point", "coordinates": [ 129.362976, 35.494019, 2650.0 ] } },
{ "type": "Feature", "properties": { "value": 0.0003 }, "geometry": { "type": "Point", "coordinates": [ 129.364075, 35.494015, 2650.0 ] } },
{ "type": "Feature", "properties": { "value": 0.0008 }, "geometry": { "type": "Point", "coordinates": [ 129.332123, 35.495007, 2650.0 ] } },
{ "type": "Feature", "properties": { "value": 0.0014 }, "geometry": { "type": "Point", "coordinates": [ 129.333221, 35.495007, 2650.0 ] } },
{ "type": "Feature", "properties": { "value": 0.0024 }, "geometry": { "type": "Point", "coordinates": [ 129.33432, 35.495003, 2650.0 ] } },
{ "type": "Feature", "properties": { "value": 0.0039 }, "geometry": { "type": "Point", "coordinates": [ 129.335419, 35.494999, 2650.0 ] } },
{ "type": "Feature", "properties": { "value": 0.0062 }, "geometry": { "type": "Point", "coordinates": [ 129.336533, 35.494995, 2650.0 ] } },
{ "type": "Feature", "properties": { "value": 0.0094 }, "geometry": { "type": "Point", "coordinates": [ 129.337631, 35.494991, 2650.0 ] } },
{ "type": "Feature", "properties": { "value": 0.0135 }, "geometry": { "type": "Point", "coordinates": [ 129.33873, 35.494991, 2650.0 ] } },
{ "type": "Feature", "properties": { "value": 0.0187 }, "geometry": { "type": "Point", "coordinates": [ 129.339828, 35.494987, 2650.0 ] } },
{ "type": "Feature", "properties": { "value": 0.0248 }, "geometry": { "type": "Point", "coordinates": [ 129.340942, 35.494984, 2650.0 ] } },
{ "type": "Feature", "properties": { "value": 0.0315 }, "geometry": { "type": "Point", "coordinates": [ 129.342041, 35.49498, 2650.0 ] } },
{ "type": "Feature", "properties": { "value": 0.0383 }, "geometry": { "type": "Point", "coordinates": [ 129.34314, 35.494976, 2650.0 ] } },
{ "type": "Feature", "properties": { "value": 0.0447 }, "geometry": { "type": "Point", "coordinates": [ 129.344238, 35.494972, 2650.0 ] } },
{ "type": "Feature", "properties": { "value": 0.05 }, "geometry": { "type": "Point", "coordinates": [ 129.345337, 35.494972, 2650.0 ] } },
{ "type": "Feature", "properties": { "value": 0.0535 }, "geometry": { "type": "Point", "coordinates": [ 129.346451, 35.494968, 2650.0 ] } },
{ "type": "Feature", "properties": { "value": 0.0544 }, "geometry": { "type": "Point", "coordinates": [ 129.347549, 35.494965, 2650.0 ] } },
{ "type": "Feature", "properties": { "value": 0.0534 }, "geometry": { "type": "Point", "coordinates": [ 129.348648, 35.494961, 2650.0 ] } },
{ "type": "Feature", "properties": { "value": 0.0504 }, "geometry": { "type": "Point", "coordinates": [ 129.349747, 35.494957, 2650.0 ] } },
{ "type": "Feature", "properties": { "value": 0.0457 }, "geometry": { "type": "Point", "coordinates": [ 129.350861, 35.494953, 2650.0 ] } },
{ "type": "Feature", "properties": { "value": 0.0397 }, "geometry": { "type": "Point", "coordinates": [ 129.351959, 35.494953, 2650.0 ] } },
{ "type": "Feature", "properties": { "value": 0.033 }, "geometry": { "type": "Point", "coordinates": [ 129.353058, 35.494949, 2650.0 ] } },
{ "type": "Feature", "properties": { "value": 0.0264 }, "geometry": { "type": "Point", "coordinates": [ 129.354156, 35.494946, 2650.0 ] } },
{ "type": "Feature", "properties": { "value": 0.0202 }, "geometry": { "type": "Point", "coordinates": [ 129.355255, 35.494942, 2650.0 ] } },
{ "type": "Feature", "properties": { "value": 0.0148 }, "geometry": { "type": "Point", "coordinates": [ 129.356369, 35.494938, 2650.0 ] } },
{ "type": "Feature", "properties": { "value": 0.0105 }, "geometry": { "type": "Point", "coordinates": [ 129.357468, 35.494934, 2650.0 ] } },
{ "type": "Feature", "properties": { "value": 0.0071 }, "geometry": { "type": "Point", "coordinates": [ 129.358566, 35.494934, 2650.0 ] } },
{ "type": "Feature", "properties": { "value": 0.0046 }, "geometry": { "type": "Point", "coordinates": [ 129.359665, 35.49493, 2650.0 ] } },
{ "type": "Feature", "properties": { "value": 0.0028 }, "geometry": { "type": "Point", "coordinates": [ 129.360779, 35.494926, 2650.0 ] } },
{ "type": "Feature", "properties": { "value": 0.0017 }, "geometry": { "type": "Point", "coordinates": [ 129.361877, 35.494923, 2650.0 ] } },
{ "type": "Feature", "properties": { "value": 0.001 }, "geometry": { "type": "Point", "coordinates": [ 129.362976, 35.494919, 2650.0 ] } },
{ "type": "Feature", "properties": { "value": 0.0003 }, "geometry": { "type": "Point", "coordinates": [ 129.364075, 35.494915, 2650.0 ] } },
{ "type": "Feature", "properties": { "value": 0.0008 }, "geometry": { "type": "Point", "coordinates": [ 129.332123, 35.495911, 2650.0 ] } },
{ "type": "Feature", "properties": { "value": 0.0013 }, "geometry": { "type": "Point", "coordinates": [ 129.333221, 35.495907, 2650.0 ] } },
{ "type": "Feature", "properties": { "value": 0.0023 }, "geometry": { "type": "Point", "coordinates": [ 129.33432, 35.495903, 2650.0 ] } },
{ "type": "Feature", "properties": { "value": 0.0038 }, "geometry": { "type": "Point", "coordinates": [ 129.335434, 35.495899, 2650.0 ] } },
{ "type": "Feature", "properties": { "value": 0.0059 }, "geometry": { "type": "Point", "coordinates": [ 129.336533, 35.495895, 2650.0 ] } },
{ "type": "Feature", "properties": { "value": 0.0089 }, "geometry": { "type": "Point", "coordinates": [ 129.337631, 35.495895, 2650.0 ] } },
{ "type": "Feature", "properties": { "value": 0.0129 }, "geometry": { "type": "Point", "coordinates": [ 129.33873, 35.495892, 2650.0 ] } },
{ "type": "Feature", "properties": { "value": 0.0179 }, "geometry": { "type": "Point", "coordinates": [ 129.339844, 35.495888, 2650.0 ] } },
{ "type": "Feature", "properties": { "value": 0.0237 }, "geometry": { "type": "Point", "coordinates": [ 129.340942, 35.495884, 2650.0 ] } },
{ "type": "Feature", "properties": { "value": 0.0301 }, "geometry": { "type": "Point", "coordinates": [ 129.342041, 35.49588, 2650.0 ] } },
{ "type": "Feature", "properties": { "value": 0.0367 }, "geometry": { "type": "Point", "coordinates": [ 129.34314, 35.49588, 2650.0 ] } },
{ "type": "Feature", "properties": { "value": 0.0428 }, "geometry": { "type": "Point", "coordinates": [ 129.344238, 35.495876, 2650.0 ] } },
{ "type": "Feature", "properties": { "value": 0.0478 }, "geometry": { "type": "Point", "coordinates": [ 129.345352, 35.495872, 2650.0 ] } },
{ "type": "Feature", "properties": { "value": 0.0507 }, "geometry": { "type": "Point", "coordinates": [ 129.346451, 35.495869, 2650.0 ] } },
{ "type": "Feature", "properties": { "value": 0.0519 }, "geometry": { "type": "Point", "coordinates": [ 129.347549, 35.495865, 2650.0 ] } },
{ "type": "Feature", "properties": { "value": 0.0511 }, "geometry": { "type": "Point", "coordinates": [ 129.348648, 35.495861, 2650.0 ] } },
{ "type": "Feature", "properties": { "value": 0.0483 }, "geometry": { "type": "Point", "coordinates": [ 129.349762, 35.495861, 2650.0 ] } },
{ "type": "Feature", "properties": { "value": 0.0437 }, "geometry": { "type": "Point", "coordinates": [ 129.350861, 35.495857, 2650.0 ] } },
{ "type": "Feature", "properties": { "value": 0.038 }, "geometry": { "type": "Point", "coordinates": [ 129.351959, 35.495853, 2650.0 ] } },
{ "type": "Feature", "properties": { "value": 0.0316 }, "geometry": { "type": "Point", "coordinates": [ 129.353058, 35.49585, 2650.0 ] } },
{ "type": "Feature", "properties": { "value": 0.0253 }, "geometry": { "type": "Point", "coordinates": [ 129.354156, 35.495846, 2650.0 ] } },
{ "type": "Feature", "properties": { "value": 0.0194 }, "geometry": { "type": "Point", "coordinates": [ 129.35527, 35.495842, 2650.0 ] } },
{ "type": "Feature", "properties": { "value": 0.0142 }, "geometry": { "type": "Point", "coordinates": [ 129.356369, 35.495838, 2650.0 ] } },
{ "type": "Feature", "properties": { "value": 0.01 }, "geometry": { "type": "Point", "coordinates": [ 129.357468, 35.495838, 2650.0 ] } },
{ "type": "Feature", "properties": { "value": 0.0068 }, "geometry": { "type": "Point", "coordinates": [ 129.358566, 35.495834, 2650.0 ] } },
{ "type": "Feature", "properties": { "value": 0.0044 }, "geometry": { "type": "Point", "coordinates": [ 129.35968, 35.495831, 2650.0 ] } },
{ "type": "Feature", "properties": { "value": 0.0027 }, "geometry": { "type": "Point", "coordinates": [ 129.360779, 35.495827, 2650.0 ] } },
{ "type": "Feature", "properties": { "value": 0.0016 }, "geometry": { "type": "Point", "coordinates": [ 129.361877, 35.495823, 2650.0 ] } },
{ "type": "Feature", "properties": { "value": 0.0009 }, "geometry": { "type": "Point", "coordinates": [ 129.362976, 35.495819, 2650.0 ] } },
{ "type": "Feature", "properties": { "value": 0.0003 }, "geometry": { "type": "Point", "coordinates": [ 129.36409, 35.495815, 2650.0 ] } },
{ "type": "Feature", "properties": { "value": 0.0007 }, "geometry": { "type": "Point", "coordinates": [ 129.332123, 35.496811, 2650.0 ] } },
{ "type": "Feature", "properties": { "value": 0.0012 }, "geometry": { "type": "Point", "coordinates": [ 129.333221, 35.496807, 2650.0 ] } },
{ "type": "Feature", "properties": { "value": 0.0021 }, "geometry": { "type": "Point", "coordinates": [ 129.334335, 35.496803, 2650.0 ] } },
{ "type": "Feature", "properties": { "value": 0.0035 }, "geometry": { "type": "Point", "coordinates": [ 129.335434, 35.496799, 2650.0 ] } },
{ "type": "Feature", "properties": { "value": 0.0054 }, "geometry": { "type": "Point", "coordinates": [ 129.336533, 35.496799, 2650.0 ] } },
{ "type": "Feature", "properties": { "value": 0.0082 }, "geometry": { "type": "Point", "coordinates": [ 129.337631, 35.496796, 2650.0 ] } },
{ "type": "Feature", "properties": { "value": 0.0118 }, "geometry": { "type": "Point", "coordinates": [ 129.338745, 35.496792, 2650.0 ] } },
{ "type": "Feature", "properties": { "value": 0.0164 }, "geometry": { "type": "Point", "coordinates": [ 129.339844, 35.496788, 2650.0 ] } },
{ "type": "Feature", "properties": { "value": 0.0217 }, "geometry": { "type": "Point", "coordinates": [ 129.340942, 35.496784, 2650.0 ] } },
{ "type": "Feature", "properties": { "value": 0.0276 }, "geometry": { "type": "Point", "coordinates": [ 129.342041, 35.496784, 2650.0 ] } },
{ "type": "Feature", "properties": { "value": 0.0336 }, "geometry": { "type": "Point", "coordinates": [ 129.34314, 35.49678, 2650.0 ] } },
{ "type": "Feature", "properties": { "value": 0.0391 }, "geometry": { "type": "Point", "coordinates": [ 129.344254, 35.496777, 2650.0 ] } },
{ "type": "Feature", "properties": { "value": 0.0434 }, "geometry": { "type": "Point", "coordinates": [ 129.345352, 35.496773, 2650.0 ] } },
{ "type": "Feature", "properties": { "value": 0.0464 }, "geometry": { "type": "Point", "coordinates": [ 129.346451, 35.496769, 2650.0 ] } },
{ "type": "Feature", "properties": { "value": 0.0477 }, "geometry": { "type": "Point", "coordinates": [ 129.347549, 35.496765, 2650.0 ] } },
{ "type": "Feature", "properties": { "value": 0.0469 }, "geometry": { "type": "Point", "coordinates": [ 129.348663, 35.496765, 2650.0 ] } },
{ "type": "Feature", "properties": { "value": 0.0443 }, "geometry": { "type": "Point", "coordinates": [ 129.349762, 35.496761, 2650.0 ] } },
{ "type": "Feature", "properties": { "value": 0.0401 }, "geometry": { "type": "Point", "coordinates": [ 129.350861, 35.496758, 2650.0 ] } },
{ "type": "Feature", "properties": { "value": 0.0349 }, "geometry": { "type": "Point", "coordinates": [ 129.351959, 35.496754, 2650.0 ] } },
{ "type": "Feature", "properties": { "value": 0.029 }, "geometry": { "type": "Point", "coordinates": [ 129.353073, 35.49675, 2650.0 ] } },
{ "type": "Feature", "properties": { "value": 0.0232 }, "geometry": { "type": "Point", "coordinates": [ 129.354172, 35.496746, 2650.0 ] } },
{ "type": "Feature", "properties": { "value": 0.0178 }, "geometry": { "type": "Point", "coordinates": [ 129.35527, 35.496746, 2650.0 ] } },
{ "type": "Feature", "properties": { "value": 0.0131 }, "geometry": { "type": "Point", "coordinates": [ 129.356369, 35.496742, 2650.0 ] } },
{ "type": "Feature", "properties": { "value": 0.0092 }, "geometry": { "type": "Point", "coordinates": [ 129.357468, 35.496738, 2650.0 ] } },
{ "type": "Feature", "properties": { "value": 0.0062 }, "geometry": { "type": "Point", "coordinates": [ 129.358582, 35.496735, 2650.0 ] } },
{ "type": "Feature", "properties": { "value": 0.004 }, "geometry": { "type": "Point", "coordinates": [ 129.35968, 35.496731, 2650.0 ] } },
{ "type": "Feature", "properties": { "value": 0.0025 }, "geometry": { "type": "Point", "coordinates": [ 129.360779, 35.496727, 2650.0 ] } },
{ "type": "Feature", "properties": { "value": 0.0015 }, "geometry": { "type": "Point", "coordinates": [ 129.361877, 35.496723, 2650.0 ] } },
{ "type": "Feature", "properties": { "value": 0.0009 }, "geometry": { "type": "Point", "coordinates": [ 129.362991, 35.496723, 2650.0 ] } },
{ "type": "Feature", "properties": { "value": 0.0001 }, "geometry": { "type": "Point", "coordinates": [ 129.36409, 35.496719, 2650.0 ] } },
{ "type": "Feature", "properties": { "value": 0.0004 }, "geometry": { "type": "Point", "coordinates": [ 129.332123, 35.497711, 2650.0 ] } },
{ "type": "Feature", "properties": { "value": 0.0011 }, "geometry": { "type": "Point", "coordinates": [ 129.333237, 35.497707, 2650.0 ] } },
{ "type": "Feature", "properties": { "value": 0.0018 }, "geometry": { "type": "Point", "coordinates": [ 129.334335, 35.497707, 2650.0 ] } },
{ "type": "Feature", "properties": { "value": 0.003 }, "geometry": { "type": "Point", "coordinates": [ 129.335434, 35.497704, 2650.0 ] } },
{ "type": "Feature", "properties": { "value": 0.0048 }, "geometry": { "type": "Point", "coordinates": [ 129.336533, 35.4977, 2650.0 ] } },
{ "type": "Feature", "properties": { "value": 0.0072 }, "geometry": { "type": "Point", "coordinates": [ 129.337646, 35.497696, 2650.0 ] } },
{ "type": "Feature", "properties": { "value": 0.0104 }, "geometry": { "type": "Point", "coordinates": [ 129.338745, 35.497692, 2650.0 ] } },
{ "type": "Feature", "properties": { "value": 0.0144 }, "geometry": { "type": "Point", "coordinates": [ 129.339844, 35.497692, 2650.0 ] } },
{ "type": "Feature", "properties": { "value": 0.019 }, "geometry": { "type": "Point", "coordinates": [ 129.340942, 35.497688, 2650.0 ] } },
{ "type": "Feature", "properties": { "value": 0.0242 }, "geometry": { "type": "Point", "coordinates": [ 129.342041, 35.497684, 2650.0 ] } },
{ "type": "Feature", "properties": { "value": 0.0295 }, "geometry": { "type": "Point", "coordinates": [ 129.343155, 35.497681, 2650.0 ] } },
{ "type": "Feature", "properties": { "value": 0.0342 }, "geometry": { "type": "Point", "coordinates": [ 129.344254, 35.497677, 2650.0 ] } },
{ "type": "Feature", "properties": { "value": 0.0381 }, "geometry": { "type": "Point", "coordinates": [ 129.345352, 35.497673, 2650.0 ] } },
{ "type": "Feature", "properties": { "value": 0.0408 }, "geometry": { "type": "Point", "coordinates": [ 129.346451, 35.497673, 2650.0 ] } },
{ "type": "Feature", "properties": { "value": 0.0419 }, "geometry": { "type": "Point", "coordinates": [ 129.347565, 35.497669, 2650.0 ] } },
{ "type": "Feature", "properties": { "value": 0.0413 }, "geometry": { "type": "Point", "coordinates": [ 129.348663, 35.497665, 2650.0 ] } },
{ "type": "Feature", "properties": { "value": 0.039 }, "geometry": { "type": "Point", "coordinates": [ 129.349762, 35.497662, 2650.0 ] } },
{ "type": "Feature", "properties": { "value": 0.0354 }, "geometry": { "type": "Point", "coordinates": [ 129.350861, 35.497658, 2650.0 ] } },
{ "type": "Feature", "properties": { "value": 0.0307 }, "geometry": { "type": "Point", "coordinates": [ 129.351974, 35.497654, 2650.0 ] } },
{ "type": "Feature", "properties": { "value": 0.0256 }, "geometry": { "type": "Point", "coordinates": [ 129.353073, 35.497654, 2650.0 ] } },
{ "type": "Feature", "properties": { "value": 0.0204 }, "geometry": { "type": "Point", "coordinates": [ 129.354172, 35.49765, 2650.0 ] } },
{ "type": "Feature", "properties": { "value": 0.0157 }, "geometry": { "type": "Point", "coordinates": [ 129.35527, 35.497646, 2650.0 ] } },
{ "type": "Feature", "properties": { "value": 0.0115 }, "geometry": { "type": "Point", "coordinates": [ 129.356369, 35.497643, 2650.0 ] } },
{ "type": "Feature", "properties": { "value": 0.0081 }, "geometry": { "type": "Point", "coordinates": [ 129.357483, 35.497639, 2650.0 ] } },
{ "type": "Feature", "properties": { "value": 0.0055 }, "geometry": { "type": "Point", "coordinates": [ 129.358582, 35.497635, 2650.0 ] } },
{ "type": "Feature", "properties": { "value": 0.0036 }, "geometry": { "type": "Point", "coordinates": [ 129.35968, 35.497631, 2650.0 ] } },
{ "type": "Feature", "properties": { "value": 0.0022 }, "geometry": { "type": "Point", "coordinates": [ 129.360779, 35.497631, 2650.0 ] } },
{ "type": "Feature", "properties": { "value": 0.0013 }, "geometry": { "type": "Point", "coordinates": [ 129.361893, 35.497627, 2650.0 ] } },
{ "type": "Feature", "properties": { "value": 0.0008 }, "geometry": { "type": "Point", "coordinates": [ 129.362991, 35.497623, 2650.0 ] } },
{ "type": "Feature", "properties": { "value": 0.0009 }, "geometry": { "type": "Point", "coordinates": [ 129.333237, 35.498611, 2650.0 ] } },
{ "type": "Feature", "properties": { "value": 0.0016 }, "geometry": { "type": "Point", "coordinates": [ 129.334335, 35.498608, 2650.0 ] } },
{ "type": "Feature", "properties": { "value": 0.0025 }, "geometry": { "type": "Point", "coordinates": [ 129.335434, 35.498604, 2650.0 ] } },
{ "type": "Feature", "properties": { "value": 0.004 }, "geometry": { "type": "Point", "coordinates": [ 129.336548, 35.4986, 2650.0 ] } },
{ "type": "Feature", "properties": { "value": 0.006 }, "geometry": { "type": "Point", "coordinates": [ 129.337646, 35.498596, 2650.0 ] } },
{ "type": "Feature", "properties": { "value": 0.0087 }, "geometry": { "type": "Point", "coordinates": [ 129.338745, 35.498596, 2650.0 ] } },
{ "type": "Feature", "properties": { "value": 0.0121 }, "geometry": { "type": "Point", "coordinates": [ 129.339844, 35.498592, 2650.0 ] } },
{ "type": "Feature", "properties": { "value": 0.016 }, "geometry": { "type": "Point", "coordinates": [ 129.340958, 35.498589, 2650.0 ] } },
{ "type": "Feature", "properties": { "value": 0.0204 }, "geometry": { "type": "Point", "coordinates": [ 129.342056, 35.498585, 2650.0 ] } },
{ "type": "Feature", "properties": { "value": 0.0248 }, "geometry": { "type": "Point", "coordinates": [ 129.343155, 35.498581, 2650.0 ] } },
{ "type": "Feature", "properties": { "value": 0.0288 }, "geometry": { "type": "Point", "coordinates": [ 129.344254, 35.498581, 2650.0 ] } },
{ "type": "Feature", "properties": { "value": 0.0322 }, "geometry": { "type": "Point", "coordinates": [ 129.345352, 35.498577, 2650.0 ] } },
{ "type": "Feature", "properties": { "value": 0.0345 }, "geometry": { "type": "Point", "coordinates": [ 129.346466, 35.498573, 2650.0 ] } },
{ "type": "Feature", "properties": { "value": 0.0354 }, "geometry": { "type": "Point", "coordinates": [ 129.347565, 35.498569, 2650.0 ] } },
{ "type": "Feature", "properties": { "value": 0.0349 }, "geometry": { "type": "Point", "coordinates": [ 129.348663, 35.498566, 2650.0 ] } },
{ "type": "Feature", "properties": { "value": 0.033 }, "geometry": { "type": "Point", "coordinates": [ 129.349762, 35.498562, 2650.0 ] } },
{ "type": "Feature", "properties": { "value": 0.0299 }, "geometry": { "type": "Point", "coordinates": [ 129.350876, 35.498562, 2650.0 ] } },
{ "type": "Feature", "properties": { "value": 0.0259 }, "geometry": { "type": "Point", "coordinates": [ 129.351974, 35.498558, 2650.0 ] } },
{ "type": "Feature", "properties": { "value": 0.0216 }, "geometry": { "type": "Point", "coordinates": [ 129.353073, 35.498554, 2650.0 ] } },
{ "type": "Feature", "properties": { "value": 0.0173 }, "geometry": { "type": "Point", "coordinates": [ 129.354172, 35.49855, 2650.0 ] } },
{ "type": "Feature", "properties": { "value": 0.0132 }, "geometry": { "type": "Point", "coordinates": [ 129.35527, 35.498547, 2650.0 ] } },
{ "type": "Feature", "properties": { "value": 0.0097 }, "geometry": { "type": "Point", "coordinates": [ 129.356384, 35.498543, 2650.0 ] } },
{ "type": "Feature", "properties": { "value": 0.0069 }, "geometry": { "type": "Point", "coordinates": [ 129.357483, 35.498539, 2650.0 ] } },
{ "type": "Feature", "properties": { "value": 0.0046 }, "geometry": { "type": "Point", "coordinates": [ 129.358582, 35.498539, 2650.0 ] } },
{ "type": "Feature", "properties": { "value": 0.003 }, "geometry": { "type": "Point", "coordinates": [ 129.35968, 35.498535, 2650.0 ] } },
{ "type": "Feature", "properties": { "value": 0.0019 }, "geometry": { "type": "Point", "coordinates": [ 129.360794, 35.498531, 2650.0 ] } },
{ "type": "Feature", "properties": { "value": 0.0011 }, "geometry": { "type": "Point", "coordinates": [ 129.361893, 35.498528, 2650.0 ] } },
{ "type": "Feature", "properties": { "value": 0.0005 }, "geometry": { "type": "Point", "coordinates": [ 129.362991, 35.498524, 2650.0 ] } },
{ "type": "Feature", "properties": { "value": 0.0007 }, "geometry": { "type": "Point", "coordinates": [ 129.333237, 35.499512, 2650.0 ] } },
{ "type": "Feature", "properties": { "value": 0.0013 }, "geometry": { "type": "Point", "coordinates": [ 129.334335, 35.499508, 2650.0 ] } },
{ "type": "Feature", "properties": { "value": 0.0021 }, "geometry": { "type": "Point", "coordinates": [ 129.335449, 35.499504, 2650.0 ] } },
{ "type": "Feature", "properties": { "value": 0.0032 }, "geometry": { "type": "Point", "coordinates": [ 129.336548, 35.4995, 2650.0 ] } },
{ "type": "Feature", "properties": { "value": 0.0049 }, "geometry": { "type": "Point", "coordinates": [ 129.337646, 35.4995, 2650.0 ] } },
{ "type": "Feature", "properties": { "value": 0.007 }, "geometry": { "type": "Point", "coordinates": [ 129.338745, 35.499496, 2650.0 ] } },
{ "type": "Feature", "properties": { "value": 0.0097 }, "geometry": { "type": "Point", "coordinates": [ 129.339859, 35.499493, 2650.0 ] } },
{ "type": "Feature", "properties": { "value": 0.0129 }, "geometry": { "type": "Point", "coordinates": [ 129.340958, 35.499489, 2650.0 ] } },
{ "type": "Feature", "properties": { "value": 0.0165 }, "geometry": { "type": "Point", "coordinates": [ 129.342056, 35.499485, 2650.0 ] } },
{ "type": "Feature", "properties": { "value": 0.02 }, "geometry": { "type": "Point", "coordinates": [ 129.343155, 35.499485, 2650.0 ] } },
{ "type": "Feature", "properties": { "value": 0.0233 }, "geometry": { "type": "Point", "coordinates": [ 129.344254, 35.499481, 2650.0 ] } },
{ "type": "Feature", "properties": { "value": 0.0261 }, "geometry": { "type": "Point", "coordinates": [ 129.345367, 35.499477, 2650.0 ] } },
{ "type": "Feature", "properties": { "value": 0.0279 }, "geometry": { "type": "Point", "coordinates": [ 129.346466, 35.499474, 2650.0 ] } },
{ "type": "Feature", "properties": { "value": 0.0287 }, "geometry": { "type": "Point", "coordinates": [ 129.347565, 35.49947, 2650.0 ] } },
{ "type": "Feature", "properties": { "value": 0.0282 }, "geometry": { "type": "Point", "coordinates": [ 129.348663, 35.499466, 2650.0 ] } },
{ "type": "Feature", "properties": { "value": 0.0267 }, "geometry": { "type": "Point", "coordinates": [ 129.349777, 35.499466, 2650.0 ] } },
{ "type": "Feature", "properties": { "value": 0.0242 }, "geometry": { "type": "Point", "coordinates": [ 129.350876, 35.499462, 2650.0 ] } },
{ "type": "Feature", "properties": { "value": 0.021 }, "geometry": { "type": "Point", "coordinates": [ 129.351974, 35.499458, 2650.0 ] } },
{ "type": "Feature", "properties": { "value": 0.0175 }, "geometry": { "type": "Point", "coordinates": [ 129.353073, 35.499454, 2650.0 ] } },
{ "type": "Feature", "properties": { "value": 0.014 }, "geometry": { "type": "Point", "coordinates": [ 129.354187, 35.499451, 2650.0 ] } },
{ "type": "Feature", "properties": { "value": 0.0107 }, "geometry": { "type": "Point", "coordinates": [ 129.355286, 35.499447, 2650.0 ] } },
{ "type": "Feature", "properties": { "value": 0.0079 }, "geometry": { "type": "Point", "coordinates": [ 129.356384, 35.499447, 2650.0 ] } },
{ "type": "Feature", "properties": { "value": 0.0056 }, "geometry": { "type": "Point", "coordinates": [ 129.357483, 35.499443, 2650.0 ] } },
{ "type": "Feature", "properties": { "value": 0.0038 }, "geometry": { "type": "Point", "coordinates": [ 129.358582, 35.499439, 2650.0 ] } },
{ "type": "Feature", "properties": { "value": 0.0024 }, "geometry": { "type": "Point", "coordinates": [ 129.359695, 35.499435, 2650.0 ] } },
{ "type": "Feature", "properties": { "value": 0.0015 }, "geometry": { "type": "Point", "coordinates": [ 129.360794, 35.499432, 2650.0 ] } },
{ "type": "Feature", "properties": { "value": 0.0009 }, "geometry": { "type": "Point", "coordinates": [ 129.361893, 35.499428, 2650.0 ] } },
{ "type": "Feature", "properties": { "value": 0.0003 }, "geometry": { "type": "Point", "coordinates": [ 129.362991, 35.499424, 2650.0 ] } },
{ "type": "Feature", "properties": { "value": 0.0001 }, "geometry": { "type": "Point", "coordinates": [ 129.333237, 35.500412, 2650.0 ] } },
{ "type": "Feature", "properties": { "value": 0.001 }, "geometry": { "type": "Point", "coordinates": [ 129.334351, 35.500408, 2650.0 ] } },
{ "type": "Feature", "properties": { "value": 0.0016 }, "geometry": { "type": "Point", "coordinates": [ 129.335449, 35.500408, 2650.0 ] } },
{ "type": "Feature", "properties": { "value": 0.0025 }, "geometry": { "type": "Point", "coordinates": [ 129.336548, 35.500404, 2650.0 ] } },
{ "type": "Feature", "properties": { "value": 0.0038 }, "geometry": { "type": "Point", "coordinates": [ 129.337646, 35.500401, 2650.0 ] } },
{ "type": "Feature", "properties": { "value": 0.0054 }, "geometry": { "type": "Point", "coordinates": [ 129.33876, 35.500397, 2650.0 ] } },
{ "type": "Feature", "properties": { "value": 0.0075 }, "geometry": { "type": "Point", "coordinates": [ 129.339859, 35.500393, 2650.0 ] } },
{ "type": "Feature", "properties": { "value": 0.0101 }, "geometry": { "type": "Point", "coordinates": [ 129.340958, 35.500393, 2650.0 ] } },
{ "type": "Feature", "properties": { "value": 0.0128 }, "geometry": { "type": "Point", "coordinates": [ 129.342056, 35.500389, 2650.0 ] } },
{ "type": "Feature", "properties": { "value": 0.0155 }, "geometry": { "type": "Point", "coordinates": [ 129.343155, 35.500385, 2650.0 ] } },
{ "type": "Feature", "properties": { "value": 0.0181 }, "geometry": { "type": "Point", "coordinates": [ 129.344269, 35.500381, 2650.0 ] } },
{ "type": "Feature", "properties": { "value": 0.0202 }, "geometry": { "type": "Point", "coordinates": [ 129.345367, 35.500378, 2650.0 ] } },
{ "type": "Feature", "properties": { "value": 0.0217 }, "geometry": { "type": "Point", "coordinates": [ 129.346466, 35.500374, 2650.0 ] } },
{ "type": "Feature", "properties": { "value": 0.0223 }, "geometry": { "type": "Point", "coordinates": [ 129.347565, 35.500374, 2650.0 ] } },
{ "type": "Feature", "properties": { "value": 0.0219 }, "geometry": { "type": "Point", "coordinates": [ 129.348679, 35.50037, 2650.0 ] } },
{ "type": "Feature", "properties": { "value": 0.0207 }, "geometry": { "type": "Point", "coordinates": [ 129.349777, 35.500366, 2650.0 ] } },
{ "type": "Feature", "properties": { "value": 0.0188 }, "geometry": { "type": "Point", "coordinates": [ 129.350876, 35.500362, 2650.0 ] } },
{ "type": "Feature", "properties": { "value": 0.0163 }, "geometry": { "type": "Point", "coordinates": [ 129.351974, 35.500359, 2650.0 ] } },
{ "type": "Feature", "properties": { "value": 0.0136 }, "geometry": { "type": "Point", "coordinates": [ 129.353088, 35.500355, 2650.0 ] } },
{ "type": "Feature", "properties": { "value": 0.0109 }, "geometry": { "type": "Point", "coordinates": [ 129.354187, 35.500355, 2650.0 ] } },
{ "type": "Feature", "properties": { "value": 0.0083 }, "geometry": { "type": "Point", "coordinates": [ 129.355286, 35.500351, 2650.0 ] } },
{ "type": "Feature", "properties": { "value": 0.0061 }, "geometry": { "type": "Point", "coordinates": [ 129.356384, 35.500347, 2650.0 ] } },
{ "type": "Feature", "properties": { "value": 0.0043 }, "geometry": { "type": "Point", "coordinates": [ 129.357483, 35.500343, 2650.0 ] } },
{ "type": "Feature", "properties": { "value": 0.0029 }, "geometry": { "type": "Point", "coordinates": [ 129.358597, 35.50034, 2650.0 ] } },
{ "type": "Feature", "properties": { "value": 0.0019 }, "geometry": { "type": "Point", "coordinates": [ 129.359695, 35.500336, 2650.0 ] } },
{ "type": "Feature", "properties": { "value": 0.0012 }, "geometry": { "type": "Point", "coordinates": [ 129.360794, 35.500332, 2650.0 ] } },
{ "type": "Feature", "properties": { "value": 0.0007 }, "geometry": { "type": "Point", "coordinates": [ 129.361893, 35.500332, 2650.0 ] } },
{ "type": "Feature", "properties": { "value": 0.0007 }, "geometry": { "type": "Point", "coordinates": [ 129.334351, 35.501312, 2650.0 ] } },
{ "type": "Feature", "properties": { "value": 0.0012 }, "geometry": { "type": "Point", "coordinates": [ 129.335449, 35.501308, 2650.0 ] } },
{ "type": "Feature", "properties": { "value": 0.0018 }, "geometry": { "type": "Point", "coordinates": [ 129.336548, 35.501305, 2650.0 ] } },
{ "type": "Feature", "properties": { "value": 0.0028 }, "geometry": { "type": "Point", "coordinates": [ 129.337662, 35.501301, 2650.0 ] } },
{ "type": "Feature", "properties": { "value": 0.004 }, "geometry": { "type": "Point", "coordinates": [ 129.33876, 35.501297, 2650.0 ] } },
{ "type": "Feature", "properties": { "value": 0.0057 }, "geometry": { "type": "Point", "coordinates": [ 129.339859, 35.501297, 2650.0 ] } },
{ "type": "Feature", "properties": { "value": 0.0075 }, "geometry": { "type": "Point", "coordinates": [ 129.340958, 35.501293, 2650.0 ] } },
{ "type": "Feature", "properties": { "value": 0.0095 }, "geometry": { "type": "Point", "coordinates": [ 129.342056, 35.501289, 2650.0 ] } },
{ "type": "Feature", "properties": { "value": 0.0116 }, "geometry": { "type": "Point", "coordinates": [ 129.34317, 35.501286, 2650.0 ] } },
{ "type": "Feature", "properties": { "value": 0.0135 }, "geometry": { "type": "Point", "coordinates": [ 129.344269, 35.501282, 2650.0 ] } },
{ "type": "Feature", "properties": { "value": 0.0151 }, "geometry": { "type": "Point", "coordinates": [ 129.345367, 35.501278, 2650.0 ] } },
{ "type": "Feature", "properties": { "value": 0.0161 }, "geometry": { "type": "Point", "coordinates": [ 129.346466, 35.501278, 2650.0 ] } },
{ "type": "Feature", "properties": { "value": 0.0166 }, "geometry": { "type": "Point", "coordinates": [ 129.34758, 35.501274, 2650.0 ] } },
{ "type": "Feature", "properties": { "value": 0.0163 }, "geometry": { "type": "Point", "coordinates": [ 129.348679, 35.50127, 2650.0 ] } },
{ "type": "Feature", "properties": { "value": 0.0154 }, "geometry": { "type": "Point", "coordinates": [ 129.349777, 35.501266, 2650.0 ] } },
{ "type": "Feature", "properties": { "value": 0.014 }, "geometry": { "type": "Point", "coordinates": [ 129.350876, 35.501263, 2650.0 ] } },
{ "type": "Feature", "properties": { "value": 0.0122 }, "geometry": { "type": "Point", "coordinates": [ 129.35199, 35.501259, 2650.0 ] } },
{ "type": "Feature", "properties": { "value": 0.0101 }, "geometry": { "type": "Point", "coordinates": [ 129.353088, 35.501259, 2650.0 ] } },
{ "type": "Feature", "properties": { "value": 0.0081 }, "geometry": { "type": "Point", "coordinates": [ 129.354187, 35.501255, 2650.0 ] } },
{ "type": "Feature", "properties": { "value": 0.0062 }, "geometry": { "type": "Point", "coordinates": [ 129.355286, 35.501251, 2650.0 ] } },
{ "type": "Feature", "properties": { "value": 0.0046 }, "geometry": { "type": "Point", "coordinates": [ 129.3564, 35.501247, 2650.0 ] } },
{ "type": "Feature", "properties": { "value": 0.0032 }, "geometry": { "type": "Point", "coordinates": [ 129.357498, 35.501244, 2650.0 ] } },
{ "type": "Feature", "properties": { "value": 0.0022 }, "geometry": { "type": "Point", "coordinates": [ 129.358597, 35.50124, 2650.0 ] } },
{ "type": "Feature", "properties": { "value": 0.0014 }, "geometry": { "type": "Point", "coordinates": [ 129.359695, 35.50124, 2650.0 ] } },
{ "type": "Feature", "properties": { "value": 0.0009 }, "geometry": { "type": "Point", "coordinates": [ 129.360794, 35.501236, 2650.0 ] } },
{ "type": "Feature", "properties": { "value": 0.0003 }, "geometry": { "type": "Point", "coordinates": [ 129.361908, 35.501232, 2650.0 ] } }
]
}
