{
"type": "FeatureCollection",
"features": [
{ "type": "Feature", "properties": { "value": 11.056 }, "geometry": { "type": "Point", "coordinates": [ 129.32756, 35.458969, 10.0 ] } },
{ "type": "Feature", "properties": { "value": 85.09 }, "geometry": { "type": "Point", "coordinates": [ 129.32756, 35.459869, 10.0 ] } },
{ "type": "Feature", "properties": { "value": 54.56 }, "geometry": { "type": "Point", "coordinates": [ 129.327576, 35.46077, 10.0 ] } },
{ "type": "Feature", "properties": { "value": 47.747 }, "geometry": { "type": "Point", "coordinates": [ 129.327576, 35.461674, 10.0 ] } },
{ "type": "Feature", "properties": { "value": 57.637 }, "geometry": { "type": "Point", "coordinates": [ 129.327576, 35.462574, 10.0 ] } },
{ "type": "Feature", "properties": { "value": 58.388 }, "geometry": { "type": "Point", "coordinates": [ 129.327576, 35.463474, 10.0 ] } },
{ "type": "Feature", "properties": { "value": 0.9936 }, "geometry": { "type": "Point", "coordinates": [ 129.32869, 35.46347, 10.0 ] } },
{ "type": "Feature", "properties": { "value": 52.062 }, "geometry": { "type": "Point", "coordinates": [ 129.327591, 35.464375, 10.0 ] } },
{ "type": "Feature", "properties": { "value": 6.0149 }, "geometry": { "type": "Point", "coordinates": [ 129.32869, 35.464375, 10.0 ] } },
{ "type": "Feature", "properties": { "value": 33.794 }, "geometry": { "type": "Point", "coordinates": [ 129.327591, 35.465279, 10.0 ] } },
{ "type": "Feature", "properties": { "value": 9.9808 }, "geometry": { "type": "Point", "coordinates": [ 129.32869, 35.465275, 10.0 ] } },
{ "type": "Feature", "properties": { "value": 21.361 }, "geometry": { "type": "Point", "coordinates": [ 129.327591, 35.466179, 10.0 ] } },
{ "type": "Feature", "properties": { "value": 10.632 }, "geometry": { "type": "Point", "coordinates": [ 129.32869, 35.466175, 10.0 ] } },
{ "type": "Feature", "properties": { "value": 17.326 }, "geometry": { "type": "Point", "coordinates": [ 129.327591, 35.467079, 10.0 ] } },
{ "type": "Feature", "properties": { "value": 13.127 }, "geometry": { "type": "Point", "coordinates": [ 129.328705, 35.467075, 10.0 ] } },
{ "type": "Feature", "properties": { "value": 15.962 }, "geometry": { "type": "Point", "coordinates": [ 129.327606, 35.467983, 10.0 ] } },
{ "type": "Feature", "properties": { "value": 16.164 }, "geometry": { "type": "Point", "coordinates": [ 129.328705, 35.467979, 10.0 ] } },
{ "type": "Feature", "properties": { "value": 17.313 }, "geometry": { "type": "Point", "coordinates": [ 129.327606, 35.468884, 10.0 ] } },
{ "type": "Feature", "properties": { "value": 20.718 }, "geometry": { "type": "Point", "coordinates": [ 129.328705, 35.46888, 10.0 ] } },
{ "type": "Feature", "properties": { "value": 0.0701 }, "geometry": { "type": "Point", "coordinates": [ 129.329803, 35.468876, 10.0 ] } },
{ "type": "Feature", "properties": { "value": 22.198 }, "geometry": { "type": "Point", "coordinates": [ 129.327606, 35.469784, 10.0 ] } },
{ "type": "Feature", "properties": { "value": 28.756 }, "geometry": { "type": "Point", "coordinates": [ 129.328705, 35.46978, 10.0 ] } },
{ "type": "Feature", "properties": { "value": 0.8074 }, "geometry": { "type": "Point", "coordinates": [ 129.329819, 35.469776, 10.0 ] } },
{ "type": "Feature", "properties": { "value": 28.389 }, "geometry": { "type": "Point", "coordinates": [ 129.327606, 35.470684, 10.0 ] } },
{ "type": "Feature", "properties": { "value": 44.706 }, "geometry": { "type": "Point", "coordinates": [ 129.32872, 35.470684, 10.0 ] } },
{ "type": "Feature", "properties": { "value": 2.7556 }, "geometry": { "type": "Point", "coordinates": [ 129.329819, 35.47068, 10.0 ] } },
{ "type": "Feature", "properties": { "value": 0.4257 }, "geometry": { "type": "Point", "coordinates": [ 129.326508, 35.471588, 10.0 ] } },
{ "type": "Feature", "properties": { "value": 29.706 }, "geometry": { "type": "Point", "coordinates": [ 129.327621, 35.471588, 10.0 ] } },
{ "type": "Feature", "properties": { "value": 62.538 }, "geometry": { "type": "Point", "coordinates": [ 129.32872, 35.471584, 10.0 ] } },
{ "type": "Feature", "properties": { "value": 5.6196 }, "geometry": { "type": "Point", "coordinates": [ 129.329819, 35.471581, 10.0 ] } },
{ "type": "Feature", "properties": { "value": 0.1912 }, "geometry": { "type": "Point", "coordinates": [ 129.326523, 35.472492, 10.0 ] } },
{ "type": "Feature", "properties": { "value": 12.466 }, "geometry": { "type": "Point", "coordinates": [ 129.327621, 35.472488, 10.0 ] } },
{ "type": "Feature", "properties": { "value": 28.381 }, "geometry": { "type": "Point", "coordinates": [ 129.32872, 35.472485, 10.0 ] } },
{ "type": "Feature", "properties": { "value": 2.6186 }, "geometry": { "type": "Point", "coordinates": [ 129.329819, 35.472481, 10.0 ] } },
{ "type": "Feature", "properties": { "value": 0.855 }, "geometry": { "type": "Point", "coordinates": [ 129.327621, 35.473389, 10.0 ] } },
{ "type": "Feature", "properties": { "value": 1.8306 }, "geometry": { "type": "Point", "coordinates": [ 129.32872, 35.473385, 10.0 ] } },
{ "type": "Feature", "properties": { "value": 0.1562 }, "geometry": { "type": "Point", "coordinates": [ 129.329819, 35.473385, 10.0 ] } }
]
}
