{
"type": "FeatureCollection",
"features": [
{ "type": "Feature", "properties": { "value": 0.0004 }, "geometry": { "type": "Point", "coordinates": [ 129.327576, 35.46077, 115.0 ] } },
{ "type": "Feature", "properties": { "value": 0.0075 }, "geometry": { "type": "Point", "coordinates": [ 129.327576, 35.461674, 115.0 ] } },
{ "type": "Feature", "properties": { "value": 0.0162 }, "geometry": { "type": "Point", "coordinates": [ 129.327576, 35.462574, 115.0 ] } },
{ "type": "Feature", "properties": { "value": 0.0284 }, "geometry": { "type": "Point", "coordinates": [ 129.327576, 35.463474, 115.0 ] } },
{ "type": "Feature", "properties": { "value": 0.0016 }, "geometry": { "type": "Point", "coordinates": [ 129.32869, 35.46347, 115.0 ] } },
{ "type": "Feature", "properties": { "value": 0.0597 }, "geometry": { "type": "Point", "coordinates": [ 129.327591, 35.464375, 115.0 ] } },
{ "type": "Feature", "properties": { "value": 0.0062 }, "geometry": { "type": "Point", "coordinates": [ 129.32869, 35.464375, 115.0 ] } },
{ "type": "Feature", "properties": { "value": 0.2088 }, "geometry": { "type": "Point", "coordinates": [ 129.327591, 35.465279, 115.0 ] } },
{ "type": "Feature", "properties": { "value": 0.055 }, "geometry": { "type": "Point", "coordinates": [ 129.32869, 35.465275, 115.0 ] } },
{ "type": "Feature", "properties": { "value": 0.6524 }, "geometry": { "type": "Point", "coordinates": [ 129.327591, 35.466179, 115.0 ] } },
{ "type": "Feature", "properties": { "value": 0.3785 }, "geometry": { "type": "Point", "coordinates": [ 129.32869, 35.466175, 115.0 ] } },
{ "type": "Feature", "properties": { "value": 1.4143 }, "geometry": { "type": "Point", "coordinates": [ 129.327591, 35.467079, 115.0 ] } },
{ "type": "Feature", "properties": { "value": 1.1095 }, "geometry": { "type": "Point", "coordinates": [ 129.328705, 35.467075, 115.0 ] } },
{ "type": "Feature", "properties": { "value": 0.0001 }, "geometry": { "type": "Point", "coordinates": [ 129.317688, 35.468006, 115.0 ] } },
{ "type": "Feature", "properties": { "value": 2.4235 }, "geometry": { "type": "Point", "coordinates": [ 129.327606, 35.467983, 115.0 ] } },
{ "type": "Feature", "properties": { "value": 2.1305 }, "geometry": { "type": "Point", "coordinates": [ 129.328705, 35.467979, 115.0 ] } },
{ "type": "Feature", "properties": { "value": 0.0818 }, "geometry": { "type": "Point", "coordinates": [ 129.317688, 35.46891, 115.0 ] } },
{ "type": "Feature", "properties": { "value": 3.2254 }, "geometry": { "type": "Point", "coordinates": [ 129.327606, 35.468884, 115.0 ] } },
{ "type": "Feature", "properties": { "value": 3.0216 }, "geometry": { "type": "Point", "coordinates": [ 129.328705, 35.46888, 115.0 ] } },
{ "type": "Feature", "properties": { "value": 0.2085 }, "geometry": { "type": "Point", "coordinates": [ 129.316589, 35.469814, 115.0 ] } },
{ "type": "Feature", "properties": { "value": 1.6065 }, "geometry": { "type": "Point", "coordinates": [ 129.317688, 35.46981, 115.0 ] } },
{ "type": "Feature", "properties": { "value": 0.0813 }, "geometry": { "type": "Point", "coordinates": [ 129.318787, 35.469807, 115.0 ] } },
{ "type": "Feature", "properties": { "value": 0.0488 }, "geometry": { "type": "Point", "coordinates": [ 129.326508, 35.469788, 115.0 ] } },
{ "type": "Feature", "properties": { "value": 3.1851 }, "geometry": { "type": "Point", "coordinates": [ 129.327606, 35.469784, 115.0 ] } },
{ "type": "Feature", "properties": { "value": 3.1996 }, "geometry": { "type": "Point", "coordinates": [ 129.328705, 35.46978, 115.0 ] } },
{ "type": "Feature", "properties": { "value": 2.387 }, "geometry": { "type": "Point", "coordinates": [ 129.316589, 35.470715, 115.0 ] } },
{ "type": "Feature", "properties": { "value": 6.3539 }, "geometry": { "type": "Point", "coordinates": [ 129.317688, 35.470711, 115.0 ] } },
{ "type": "Feature", "properties": { "value": 0.3886 }, "geometry": { "type": "Point", "coordinates": [ 129.318802, 35.470707, 115.0 ] } },
{ "type": "Feature", "properties": { "value": 0.0635 }, "geometry": { "type": "Point", "coordinates": [ 129.326508, 35.470688, 115.0 ] } },
{ "type": "Feature", "properties": { "value": 2.6179 }, "geometry": { "type": "Point", "coordinates": [ 129.327606, 35.470684, 115.0 ] } },
{ "type": "Feature", "properties": { "value": 2.258 }, "geometry": { "type": "Point", "coordinates": [ 129.32872, 35.470684, 115.0 ] } },
{ "type": "Feature", "properties": { "value": 0.0255 }, "geometry": { "type": "Point", "coordinates": [ 129.329819, 35.47068, 115.0 ] } },
{ "type": "Feature", "properties": { "value": 0.6232 }, "geometry": { "type": "Point", "coordinates": [ 129.315491, 35.471619, 115.0 ] } },
{ "type": "Feature", "properties": { "value": 9.1422 }, "geometry": { "type": "Point", "coordinates": [ 129.316605, 35.471615, 115.0 ] } },
{ "type": "Feature", "properties": { "value": 12.502 }, "geometry": { "type": "Point", "coordinates": [ 129.317703, 35.471615, 115.0 ] } },
{ "type": "Feature", "properties": { "value": 1.0621 }, "geometry": { "type": "Point", "coordinates": [ 129.318802, 35.471611, 115.0 ] } },
{ "type": "Feature", "properties": { "value": 0.0708 }, "geometry": { "type": "Point", "coordinates": [ 129.326508, 35.471588, 115.0 ] } },
{ "type": "Feature", "properties": { "value": 1.6071 }, "geometry": { "type": "Point", "coordinates": [ 129.327621, 35.471588, 115.0 ] } },
{ "type": "Feature", "properties": { "value": 0.8431 }, "geometry": { "type": "Point", "coordinates": [ 129.32872, 35.471584, 115.0 ] } },
{ "type": "Feature", "properties": { "value": 0.0105 }, "geometry": { "type": "Point", "coordinates": [ 129.329819, 35.471581, 115.0 ] } },
{ "type": "Feature", "properties": { "value": 3.754 }, "geometry": { "type": "Point", "coordinates": [ 129.315506, 35.472519, 115.0 ] } },
{ "type": "Feature", "properties": { "value": 21.394 }, "geometry": { "type": "Point", "coordinates": [ 129.316605, 35.472519, 115.0 ] } },
{ "type": "Feature", "properties": { "value": 19.013 }, "geometry": { "type": "Point", "coordinates": [ 129.317703, 35.472515, 115.0 ] } },
{ "type": "Feature", "properties": { "value": 1.978 }, "geometry": { "type": "Point", "coordinates": [ 129.318802, 35.472511, 115.0 ] } },
{ "type": "Feature", "properties": { "value": 0.0671 }, "geometry": { "type": "Point", "coordinates": [ 129.326523, 35.472492, 115.0 ] } },
{ "type": "Feature", "properties": { "value": 0.7919 }, "geometry": { "type": "Point", "coordinates": [ 129.327621, 35.472488, 115.0 ] } },
{ "type": "Feature", "properties": { "value": 0.275 }, "geometry": { "type": "Point", "coordinates": [ 129.32872, 35.472485, 115.0 ] } },
{ "type": "Feature", "properties": { "value": 0.0064 }, "geometry": { "type": "Point", "coordinates": [ 129.329819, 35.472481, 115.0 ] } },
{ "type": "Feature", "properties": { "value": 0.8891 }, "geometry": { "type": "Point", "coordinates": [ 129.314407, 35.473423, 115.0 ] } },
{ "type": "Feature", "properties": { "value": 11.539 }, "geometry": { "type": "Point", "coordinates": [ 129.315506, 35.473423, 115.0 ] } },
{ "type": "Feature", "properties": { "value": 36.284 }, "geometry": { "type": "Point", "coordinates": [ 129.316605, 35.473419, 115.0 ] } },
{ "type": "Feature", "properties": { "value": 24.623 }, "geometry": { "type": "Point", "coordinates": [ 129.317703, 35.473415, 115.0 ] } },
{ "type": "Feature", "properties": { "value": 3.0424 }, "geometry": { "type": "Point", "coordinates": [ 129.318802, 35.473412, 115.0 ] } },
{ "type": "Feature", "properties": { "value": 0.1156 }, "geometry": { "type": "Point", "coordinates": [ 129.326523, 35.473392, 115.0 ] } },
{ "type": "Feature", "properties": { "value": 0.6864 }, "geometry": { "type": "Point", "coordinates": [ 129.327621, 35.473389, 115.0 ] } },
{ "type": "Feature", "properties": { "value": 0.2884 }, "geometry": { "type": "Point", "coordinates": [ 129.32872, 35.473385, 115.0 ] } },
{ "type": "Feature", "properties": { "value": 0.023 }, "geometry": { "type": "Point", "coordinates": [ 129.329819, 35.473385, 115.0 ] } },
{ "type": "Feature", "properties": { "value": 3.4121 }, "geometry": { "type": "Point", "coordinates": [ 129.314407, 35.474327, 115.0 ] } },
{ "type": "Feature", "properties": { "value": 22.944 }, "geometry": { "type": "Point", "coordinates": [ 129.315506, 35.474323, 115.0 ] } },
{ "type": "Feature", "properties": { "value": 47.85 }, "geometry": { "type": "Point", "coordinates": [ 129.316605, 35.474319, 115.0 ] } },
{ "type": "Feature", "properties": { "value": 27.438 }, "geometry": { "type": "Point", "coordinates": [ 129.317703, 35.474316, 115.0 ] } },
{ "type": "Feature", "properties": { "value": 3.8491 }, "geometry": { "type": "Point", "coordinates": [ 129.318817, 35.474316, 115.0 ] } },
{ "type": "Feature", "properties": { "value": 0.186 }, "geometry": { "type": "Point", "coordinates": [ 129.326523, 35.474293, 115.0 ] } },
{ "type": "Feature", "properties": { "value": 0.7279 }, "geometry": { "type": "Point", "coordinates": [ 129.327621, 35.474289, 115.0 ] } },
{ "type": "Feature", "properties": { "value": 0.4733 }, "geometry": { "type": "Point", "coordinates": [ 129.328735, 35.474289, 115.0 ] } },
{ "type": "Feature", "properties": { "value": 0.0829 }, "geometry": { "type": "Point", "coordinates": [ 129.329834, 35.474285, 115.0 ] } },
{ "type": "Feature", "properties": { "value": 0.5672 }, "geometry": { "type": "Point", "coordinates": [ 129.313309, 35.475231, 115.0 ] } },
{ "type": "Feature", "properties": { "value": 8.3188 }, "geometry": { "type": "Point", "coordinates": [ 129.314407, 35.475227, 115.0 ] } },
{ "type": "Feature", "properties": { "value": 34.946 }, "geometry": { "type": "Point", "coordinates": [ 129.315506, 35.475224, 115.0 ] } },
{ "type": "Feature", "properties": { "value": 53.91 }, "geometry": { "type": "Point", "coordinates": [ 129.316605, 35.47522, 115.0 ] } },
{ "type": "Feature", "properties": { "value": 27.593 }, "geometry": { "type": "Point", "coordinates": [ 129.317719, 35.47522, 115.0 ] } },
{ "type": "Feature", "properties": { "value": 4.279 }, "geometry": { "type": "Point", "coordinates": [ 129.318817, 35.475216, 115.0 ] } },
{ "type": "Feature", "properties": { "value": 0.2137 }, "geometry": { "type": "Point", "coordinates": [ 129.326523, 35.475193, 115.0 ] } },
{ "type": "Feature", "properties": { "value": 0.816 }, "geometry": { "type": "Point", "coordinates": [ 129.327637, 35.475193, 115.0 ] } },
{ "type": "Feature", "properties": { "value": 0.7144 }, "geometry": { "type": "Point", "coordinates": [ 129.328735, 35.475189, 115.0 ] } },
{ "type": "Feature", "properties": { "value": 0.1848 }, "geometry": { "type": "Point", "coordinates": [ 129.329834, 35.475185, 115.0 ] } },
{ "type": "Feature", "properties": { "value": 2.5211 }, "geometry": { "type": "Point", "coordinates": [ 129.313309, 35.476131, 115.0 ] } },
{ "type": "Feature", "properties": { "value": 16.371 }, "geometry": { "type": "Point", "coordinates": [ 129.314407, 35.476128, 115.0 ] } },
{ "type": "Feature", "properties": { "value": 45.951 }, "geometry": { "type": "Point", "coordinates": [ 129.315506, 35.476124, 115.0 ] } },
{ "type": "Feature", "properties": { "value": 56.574 }, "geometry": { "type": "Point", "coordinates": [ 129.31662, 35.476124, 115.0 ] } },
{ "type": "Feature", "properties": { "value": 26.876 }, "geometry": { "type": "Point", "coordinates": [ 129.317719, 35.47612, 115.0 ] } },
{ "type": "Feature", "properties": { "value": 4.622 }, "geometry": { "type": "Point", "coordinates": [ 129.318817, 35.476116, 115.0 ] } },
{ "type": "Feature", "properties": { "value": 0.3162 }, "geometry": { "type": "Point", "coordinates": [ 129.326538, 35.476097, 115.0 ] } },
{ "type": "Feature", "properties": { "value": 1.5192 }, "geometry": { "type": "Point", "coordinates": [ 129.327637, 35.476093, 115.0 ] } },
{ "type": "Feature", "properties": { "value": 1.3727 }, "geometry": { "type": "Point", "coordinates": [ 129.328735, 35.476089, 115.0 ] } },
{ "type": "Feature", "properties": { "value": 0.3386 }, "geometry": { "type": "Point", "coordinates": [ 129.329834, 35.476086, 115.0 ] } },
{ "type": "Feature", "properties": { "value": 5.9501 }, "geometry": { "type": "Point", "coordinates": [ 129.313309, 35.477032, 115.0 ] } },
{ "type": "Feature", "properties": { "value": 25.938 }, "geometry": { "type": "Point", "coordinates": [ 129.314407, 35.477028, 115.0 ] } },
{ "type": "Feature", "properties": { "value": 55.436 }, "geometry": { "type": "Point", "coordinates": [ 129.315521, 35.477028, 115.0 ] } },
{ "type": "Feature", "properties": { "value": 57.642 }, "geometry": { "type": "Point", "coordinates": [ 129.31662, 35.477024, 115.0 ] } },
{ "type": "Feature", "properties": { "value": 26.212 }, "geometry": { "type": "Point", "coordinates": [ 129.317719, 35.47702, 115.0 ] } },
{ "type": "Feature", "properties": { "value": 5.009 }, "geometry": { "type": "Point", "coordinates": [ 129.318817, 35.477016, 115.0 ] } },
{ "type": "Feature", "properties": { "value": 0.0198 }, "geometry": { "type": "Point", "coordinates": [ 129.325439, 35.477001, 115.0 ] } },
{ "type": "Feature", "properties": { "value": 0.617 }, "geometry": { "type": "Point", "coordinates": [ 129.326538, 35.476997, 115.0 ] } },
{ "type": "Feature", "properties": { "value": 3.2729 }, "geometry": { "type": "Point", "coordinates": [ 129.327637, 35.476994, 115.0 ] } },
{ "type": "Feature", "properties": { "value": 2.6525 }, "geometry": { "type": "Point", "coordinates": [ 129.328735, 35.47699, 115.0 ] } },
{ "type": "Feature", "properties": { "value": 0.4957 }, "geometry": { "type": "Point", "coordinates": [ 129.329834, 35.47699, 115.0 ] } },
{ "type": "Feature", "properties": { "value": 1.4256 }, "geometry": { "type": "Point", "coordinates": [ 129.31221, 35.477936, 115.0 ] } },
{ "type": "Feature", "properties": { "value": 9.8352 }, "geometry": { "type": "Point", "coordinates": [ 129.313324, 35.477932, 115.0 ] } },
{ "type": "Feature", "properties": { "value": 33.717 }, "geometry": { "type": "Point", "coordinates": [ 129.314423, 35.477932, 115.0 ] } },
{ "type": "Feature", "properties": { "value": 59.982 }, "geometry": { "type": "Point", "coordinates": [ 129.315521, 35.477928, 115.0 ] } },
{ "type": "Feature", "properties": { "value": 55.378 }, "geometry": { "type": "Point", "coordinates": [ 129.31662, 35.477924, 115.0 ] } },
{ "type": "Feature", "properties": { "value": 24.357 }, "geometry": { "type": "Point", "coordinates": [ 129.317719, 35.477921, 115.0 ] } },
{ "type": "Feature", "properties": { "value": 4.9695 }, "geometry": { "type": "Point", "coordinates": [ 129.318832, 35.477921, 115.0 ] } },
{ "type": "Feature", "properties": { "value": 0.0403 }, "geometry": { "type": "Point", "coordinates": [ 129.325439, 35.477901, 115.0 ] } },
{ "type": "Feature", "properties": { "value": 0.9188 }, "geometry": { "type": "Point", "coordinates": [ 129.326538, 35.477898, 115.0 ] } },
{ "type": "Feature", "properties": { "value": 4.0139 }, "geometry": { "type": "Point", "coordinates": [ 129.327637, 35.477894, 115.0 ] } },
{ "type": "Feature", "properties": { "value": 2.897 }, "geometry": { "type": "Point", "coordinates": [ 129.328735, 35.477894, 115.0 ] } },
{ "type": "Feature", "properties": { "value": 0.4462 }, "geometry": { "type": "Point", "coordinates": [ 129.329849, 35.47789, 115.0 ] } },
{ "type": "Feature", "properties": { "value": 2.0198 }, "geometry": { "type": "Point", "coordinates": [ 129.312225, 35.478836, 115.0 ] } },
{ "type": "Feature", "properties": { "value": 11.438 }, "geometry": { "type": "Point", "coordinates": [ 129.313324, 35.478836, 115.0 ] } },
{ "type": "Feature", "properties": { "value": 33.62 }, "geometry": { "type": "Point", "coordinates": [ 129.314423, 35.478832, 115.0 ] } },
{ "type": "Feature", "properties": { "value": 53.064 }, "geometry": { "type": "Point", "coordinates": [ 129.315521, 35.478828, 115.0 ] } },
{ "type": "Feature", "properties": { "value": 45.297 }, "geometry": { "type": "Point", "coordinates": [ 129.31662, 35.478825, 115.0 ] } },
{ "type": "Feature", "properties": { "value": 19.578 }, "geometry": { "type": "Point", "coordinates": [ 129.317734, 35.478825, 115.0 ] } },
{ "type": "Feature", "properties": { "value": 4.1939 }, "geometry": { "type": "Point", "coordinates": [ 129.318832, 35.478821, 115.0 ] } },
{ "type": "Feature", "properties": { "value": 0.0269 }, "geometry": { "type": "Point", "coordinates": [ 129.325439, 35.478802, 115.0 ] } },
{ "type": "Feature", "properties": { "value": 0.5123 }, "geometry": { "type": "Point", "coordinates": [ 129.326538, 35.478798, 115.0 ] } },
{ "type": "Feature", "properties": { "value": 1.7303 }, "geometry": { "type": "Point", "coordinates": [ 129.327637, 35.478798, 115.0 ] } },
{ "type": "Feature", "properties": { "value": 1.1674 }, "geometry": { "type": "Point", "coordinates": [ 129.328751, 35.478794, 115.0 ] } },
{ "type": "Feature", "properties": { "value": 0.1649 }, "geometry": { "type": "Point", "coordinates": [ 129.329849, 35.47879, 115.0 ] } },
{ "type": "Feature", "properties": { "value": 0.0672 }, "geometry": { "type": "Point", "coordinates": [ 129.311127, 35.47974, 115.0 ] } },
{ "type": "Feature", "properties": { "value": 1.734 }, "geometry": { "type": "Point", "coordinates": [ 129.312225, 35.47974, 115.0 ] } },
{ "type": "Feature", "properties": { "value": 8.7777 }, "geometry": { "type": "Point", "coordinates": [ 129.313324, 35.479736, 115.0 ] } },
{ "type": "Feature", "properties": { "value": 23.177 }, "geometry": { "type": "Point", "coordinates": [ 129.314423, 35.479733, 115.0 ] } },
{ "type": "Feature", "properties": { "value": 34.489 }, "geometry": { "type": "Point", "coordinates": [ 129.315521, 35.479729, 115.0 ] } },
{ "type": "Feature", "properties": { "value": 28.095 }, "geometry": { "type": "Point", "coordinates": [ 129.316635, 35.479729, 115.0 ] } },
{ "type": "Feature", "properties": { "value": 12.044 }, "geometry": { "type": "Point", "coordinates": [ 129.317734, 35.479725, 115.0 ] } },
{ "type": "Feature", "properties": { "value": 2.6513 }, "geometry": { "type": "Point", "coordinates": [ 129.318832, 35.479721, 115.0 ] } },
{ "type": "Feature", "properties": { "value": 0.0641 }, "geometry": { "type": "Point", "coordinates": [ 129.326553, 35.479702, 115.0 ] } },
{ "type": "Feature", "properties": { "value": 0.1923 }, "geometry": { "type": "Point", "coordinates": [ 129.327652, 35.479698, 115.0 ] } },
{ "type": "Feature", "properties": { "value": 0.1315 }, "geometry": { "type": "Point", "coordinates": [ 129.328751, 35.479694, 115.0 ] } },
{ "type": "Feature", "properties": { "value": 0.017 }, "geometry": { "type": "Point", "coordinates": [ 129.329849, 35.479691, 115.0 ] } },
{ "type": "Feature", "properties": { "value": 0.8907 }, "geometry": { "type": "Point", "coordinates": [ 129.312225, 35.48064, 115.0 ] } },
{ "type": "Feature", "properties": { "value": 4.3076 }, "geometry": { "type": "Point", "coordinates": [ 129.313324, 35.480637, 115.0 ] } },
{ "type": "Feature", "properties": { "value": 10.724 }, "geometry": { "type": "Point", "coordinates": [ 129.314423, 35.480633, 115.0 ] } },
{ "type": "Feature", "properties": { "value": 15.41 }, "geometry": { "type": "Point", "coordinates": [ 129.315536, 35.480633, 115.0 ] } },
{ "type": "Feature", "properties": { "value": 12.138 }, "geometry": { "type": "Point", "coordinates": [ 129.316635, 35.480629, 115.0 ] } },
{ "type": "Feature", "properties": { "value": 5.1278 }, "geometry": { "type": "Point", "coordinates": [ 129.317734, 35.480625, 115.0 ] } },
{ "type": "Feature", "properties": { "value": 1.1369 }, "geometry": { "type": "Point", "coordinates": [ 129.318832, 35.480621, 115.0 ] } },
{ "type": "Feature", "properties": { "value": 0.0036 }, "geometry": { "type": "Point", "coordinates": [ 129.327652, 35.480598, 115.0 ] } },
{ "type": "Feature", "properties": { "value": 0.2682 }, "geometry": { "type": "Point", "coordinates": [ 129.312225, 35.481541, 115.0 ] } },
{ "type": "Feature", "properties": { "value": 1.2962 }, "geometry": { "type": "Point", "coordinates": [ 129.313324, 35.481537, 115.0 ] } },
{ "type": "Feature", "properties": { "value": 3.2046 }, "geometry": { "type": "Point", "coordinates": [ 129.314438, 35.481537, 115.0 ] } },
{ "type": "Feature", "properties": { "value": 4.4224 }, "geometry": { "type": "Point", "coordinates": [ 129.315536, 35.481533, 115.0 ] } },
{ "type": "Feature", "properties": { "value": 3.3994 }, "geometry": { "type": "Point", "coordinates": [ 129.316635, 35.481529, 115.0 ] } },
{ "type": "Feature", "properties": { "value": 1.4419 }, "geometry": { "type": "Point", "coordinates": [ 129.317734, 35.481525, 115.0 ] } },
{ "type": "Feature", "properties": { "value": 0.2568 }, "geometry": { "type": "Point", "coordinates": [ 129.318848, 35.481525, 115.0 ] } },
{ "type": "Feature", "properties": { "value": 0.2375 }, "geometry": { "type": "Point", "coordinates": [ 129.313339, 35.482441, 115.0 ] } },
{ "type": "Feature", "properties": { "value": 0.5408 }, "geometry": { "type": "Point", "coordinates": [ 129.314438, 35.482437, 115.0 ] } },
{ "type": "Feature", "properties": { "value": 0.7963 }, "geometry": { "type": "Point", "coordinates": [ 129.315536, 35.482433, 115.0 ] } },
{ "type": "Feature", "properties": { "value": 0.532 }, "geometry": { "type": "Point", "coordinates": [ 129.316635, 35.48243, 115.0 ] } },
{ "type": "Feature", "properties": { "value": 0.2235 }, "geometry": { "type": "Point", "coordinates": [ 129.317749, 35.48243, 115.0 ] } },
{ "type": "Feature", "properties": { "value": 0.0446 }, "geometry": { "type": "Point", "coordinates": [ 129.314438, 35.483337, 115.0 ] } },
{ "type": "Feature", "properties": { "value": 0.056 }, "geometry": { "type": "Point", "coordinates": [ 129.315536, 35.483337, 115.0 ] } },
{ "type": "Feature", "properties": { "value": 0.0411 }, "geometry": { "type": "Point", "coordinates": [ 129.31665, 35.483334, 115.0 ] } }
]
}
