{
"type": "FeatureCollection",
"features": [
{ "type": "Feature", "properties": { "value": 0.0 }, "geometry": { "type": "Point", "coordinates": [ 129.294434, 35.438324, 10.0 ] } },
{ "type": "Feature", "properties": { "value": 53.011 }, "geometry": { "type": "Point", "coordinates": [ 129.295547, 35.43832, 10.0 ] } },
{ "type": "Feature", "properties": { "value": 110.02 }, "geometry": { "type": "Point", "coordinates": [ 129.296646, 35.43832, 10.0 ] } },
{ "type": "Feature", "properties": { "value": 3.4792 }, "geometry": { "type": "Point", "coordinates": [ 129.294449, 35.439224, 10.0 ] } },
{ "type": "Feature", "properties": { "value": 361.93 }, "geometry": { "type": "Point", "coordinates": [ 129.295547, 35.439224, 10.0 ] } },
{ "type": "Feature", "properties": { "value": 325.07 }, "geometry": { "type": "Point", "coordinates": [ 129.296646, 35.43922, 10.0 ] } },
{ "type": "Feature", "properties": { "value": 0.0 }, "geometry": { "type": "Point", "coordinates": [ 129.297745, 35.439217, 10.0 ] } },
{ "type": "Feature", "properties": { "value": 1.6391 }, "geometry": { "type": "Point", "coordinates": [ 129.29335, 35.440128, 10.0 ] } },
{ "type": "Feature", "properties": { "value": 88.91 }, "geometry": { "type": "Point", "coordinates": [ 129.294449, 35.440128, 10.0 ] } },
{ "type": "Feature", "properties": { "value": 272.68 }, "geometry": { "type": "Point", "coordinates": [ 129.295547, 35.440125, 10.0 ] } },
{ "type": "Feature", "properties": { "value": 23.289 }, "geometry": { "type": "Point", "coordinates": [ 129.296646, 35.440121, 10.0 ] } },
{ "type": "Feature", "properties": { "value": 1.0666 }, "geometry": { "type": "Point", "coordinates": [ 129.292252, 35.441032, 10.0 ] } },
{ "type": "Feature", "properties": { "value": 15.854 }, "geometry": { "type": "Point", "coordinates": [ 129.29335, 35.441029, 10.0 ] } },
{ "type": "Feature", "properties": { "value": 101.52 }, "geometry": { "type": "Point", "coordinates": [ 129.294449, 35.441029, 10.0 ] } },
{ "type": "Feature", "properties": { "value": 112.55 }, "geometry": { "type": "Point", "coordinates": [ 129.295547, 35.441025, 10.0 ] } },
{ "type": "Feature", "properties": { "value": 3.1625 }, "geometry": { "type": "Point", "coordinates": [ 129.296646, 35.441021, 10.0 ] } },
{ "type": "Feature", "properties": { "value": 0.5073 }, "geometry": { "type": "Point", "coordinates": [ 129.291153, 35.441936, 10.0 ] } },
{ "type": "Feature", "properties": { "value": 4.936 }, "geometry": { "type": "Point", "coordinates": [ 129.292252, 35.441933, 10.0 ] } },
{ "type": "Feature", "properties": { "value": 27.208 }, "geometry": { "type": "Point", "coordinates": [ 129.29335, 35.441933, 10.0 ] } },
{ "type": "Feature", "properties": { "value": 60.828 }, "geometry": { "type": "Point", "coordinates": [ 129.294449, 35.441929, 10.0 ] } },
{ "type": "Feature", "properties": { "value": 32.354 }, "geometry": { "type": "Point", "coordinates": [ 129.295547, 35.441925, 10.0 ] } },
{ "type": "Feature", "properties": { "value": 1.8003 }, "geometry": { "type": "Point", "coordinates": [ 129.296661, 35.441925, 10.0 ] } },
{ "type": "Feature", "properties": { "value": 0.1791 }, "geometry": { "type": "Point", "coordinates": [ 129.290054, 35.442841, 10.0 ] } },
{ "type": "Feature", "properties": { "value": 1.8475 }, "geometry": { "type": "Point", "coordinates": [ 129.291153, 35.442837, 10.0 ] } },
{ "type": "Feature", "properties": { "value": 9.5712 }, "geometry": { "type": "Point", "coordinates": [ 129.292252, 35.442837, 10.0 ] } },
{ "type": "Feature", "properties": { "value": 27.108 }, "geometry": { "type": "Point", "coordinates": [ 129.29335, 35.442833, 10.0 ] } },
{ "type": "Feature", "properties": { "value": 34.016 }, "geometry": { "type": "Point", "coordinates": [ 129.294464, 35.442829, 10.0 ] } },
{ "type": "Feature", "properties": { "value": 13.907 }, "geometry": { "type": "Point", "coordinates": [ 129.295563, 35.442829, 10.0 ] } },
{ "type": "Feature", "properties": { "value": 1.3722 }, "geometry": { "type": "Point", "coordinates": [ 129.296661, 35.442825, 10.0 ] } },
{ "type": "Feature", "properties": { "value": 0.6703 }, "geometry": { "type": "Point", "coordinates": [ 129.290054, 35.443741, 10.0 ] } },
{ "type": "Feature", "properties": { "value": 3.9324 }, "geometry": { "type": "Point", "coordinates": [ 129.291153, 35.443741, 10.0 ] } },
{ "type": "Feature", "properties": { "value": 13.377 }, "geometry": { "type": "Point", "coordinates": [ 129.292252, 35.443737, 10.0 ] } },
{ "type": "Feature", "properties": { "value": 24.537 }, "geometry": { "type": "Point", "coordinates": [ 129.293365, 35.443733, 10.0 ] } },
{ "type": "Feature", "properties": { "value": 21.657 }, "geometry": { "type": "Point", "coordinates": [ 129.294464, 35.443733, 10.0 ] } },
{ "type": "Feature", "properties": { "value": 8.0061 }, "geometry": { "type": "Point", "coordinates": [ 129.295563, 35.443729, 10.0 ] } },
{ "type": "Feature", "properties": { "value": 1.0881 }, "geometry": { "type": "Point", "coordinates": [ 129.296661, 35.443726, 10.0 ] } },
{ "type": "Feature", "properties": { "value": 0.2179 }, "geometry": { "type": "Point", "coordinates": [ 129.288956, 35.444645, 10.0 ] } },
{ "type": "Feature", "properties": { "value": 1.5566 }, "geometry": { "type": "Point", "coordinates": [ 129.290054, 35.444645, 10.0 ] } },
{ "type": "Feature", "properties": { "value": 6.3869 }, "geometry": { "type": "Point", "coordinates": [ 129.291153, 35.444641, 10.0 ] } },
{ "type": "Feature", "properties": { "value": 15.815 }, "geometry": { "type": "Point", "coordinates": [ 129.292267, 35.444637, 10.0 ] } },
{ "type": "Feature", "properties": { "value": 21.995 }, "geometry": { "type": "Point", "coordinates": [ 129.293365, 35.444637, 10.0 ] } },
{ "type": "Feature", "properties": { "value": 15.914 }, "geometry": { "type": "Point", "coordinates": [ 129.294464, 35.444633, 10.0 ] } },
{ "type": "Feature", "properties": { "value": 5.514 }, "geometry": { "type": "Point", "coordinates": [ 129.295563, 35.44463, 10.0 ] } },
{ "type": "Feature", "properties": { "value": 0.8465 }, "geometry": { "type": "Point", "coordinates": [ 129.296661, 35.444626, 10.0 ] } },
{ "type": "Feature", "properties": { "value": 0.6104 }, "geometry": { "type": "Point", "coordinates": [ 129.288956, 35.445549, 10.0 ] } },
{ "type": "Feature", "properties": { "value": 2.8445 }, "geometry": { "type": "Point", "coordinates": [ 129.290054, 35.445545, 10.0 ] } },
{ "type": "Feature", "properties": { "value": 8.7435 }, "geometry": { "type": "Point", "coordinates": [ 129.291168, 35.445541, 10.0 ] } },
{ "type": "Feature", "properties": { "value": 16.829 }, "geometry": { "type": "Point", "coordinates": [ 129.292267, 35.445541, 10.0 ] } },
{ "type": "Feature", "properties": { "value": 19.144 }, "geometry": { "type": "Point", "coordinates": [ 129.293365, 35.445538, 10.0 ] } },
{ "type": "Feature", "properties": { "value": 12.1 }, "geometry": { "type": "Point", "coordinates": [ 129.294464, 35.445534, 10.0 ] } },
{ "type": "Feature", "properties": { "value": 4.0098 }, "geometry": { "type": "Point", "coordinates": [ 129.295563, 35.44553, 10.0 ] } },
{ "type": "Feature", "properties": { "value": 0.6465 }, "geometry": { "type": "Point", "coordinates": [ 129.296677, 35.44553, 10.0 ] } },
{ "type": "Feature", "properties": { "value": 0.2126 }, "geometry": { "type": "Point", "coordinates": [ 129.287857, 35.446453, 10.0 ] } },
{ "type": "Feature", "properties": { "value": 1.1848 }, "geometry": { "type": "Point", "coordinates": [ 129.288956, 35.446449, 10.0 ] } },
{ "type": "Feature", "properties": { "value": 4.3006 }, "geometry": { "type": "Point", "coordinates": [ 129.29007, 35.446445, 10.0 ] } },
{ "type": "Feature", "properties": { "value": 10.566 }, "geometry": { "type": "Point", "coordinates": [ 129.291168, 35.446442, 10.0 ] } },
{ "type": "Feature", "properties": { "value": 16.749 }, "geometry": { "type": "Point", "coordinates": [ 129.292267, 35.446442, 10.0 ] } },
{ "type": "Feature", "properties": { "value": 16.33 }, "geometry": { "type": "Point", "coordinates": [ 129.293365, 35.446438, 10.0 ] } },
{ "type": "Feature", "properties": { "value": 9.3471 }, "geometry": { "type": "Point", "coordinates": [ 129.294464, 35.446434, 10.0 ] } },
{ "type": "Feature", "properties": { "value": 3.0261 }, "geometry": { "type": "Point", "coordinates": [ 129.295578, 35.446434, 10.0 ] } },
{ "type": "Feature", "properties": { "value": 0.5059 }, "geometry": { "type": "Point", "coordinates": [ 129.296677, 35.44643, 10.0 ] } },
{ "type": "Feature", "properties": { "value": 0.0313 }, "geometry": { "type": "Point", "coordinates": [ 129.286758, 35.447357, 10.0 ] } },
{ "type": "Feature", "properties": { "value": 0.424 }, "geometry": { "type": "Point", "coordinates": [ 129.287872, 35.447353, 10.0 ] } },
{ "type": "Feature", "properties": { "value": 1.8353 }, "geometry": { "type": "Point", "coordinates": [ 129.288971, 35.44735, 10.0 ] } },
{ "type": "Feature", "properties": { "value": 5.5126 }, "geometry": { "type": "Point", "coordinates": [ 129.29007, 35.447346, 10.0 ] } },
{ "type": "Feature", "properties": { "value": 11.357 }, "geometry": { "type": "Point", "coordinates": [ 129.291168, 35.447346, 10.0 ] } },
{ "type": "Feature", "properties": { "value": 15.502 }, "geometry": { "type": "Point", "coordinates": [ 129.292267, 35.447342, 10.0 ] } },
{ "type": "Feature", "properties": { "value": 13.482 }, "geometry": { "type": "Point", "coordinates": [ 129.293365, 35.447338, 10.0 ] } },
{ "type": "Feature", "properties": { "value": 7.2369 }, "geometry": { "type": "Point", "coordinates": [ 129.294479, 35.447338, 10.0 ] } },
{ "type": "Feature", "properties": { "value": 2.3275 }, "geometry": { "type": "Point", "coordinates": [ 129.295578, 35.447334, 10.0 ] } },
{ "type": "Feature", "properties": { "value": 0.4229 }, "geometry": { "type": "Point", "coordinates": [ 129.296677, 35.44733, 10.0 ] } },
{ "type": "Feature", "properties": { "value": 0.1014 }, "geometry": { "type": "Point", "coordinates": [ 129.286774, 35.448257, 10.0 ] } },
{ "type": "Feature", "properties": { "value": 0.6187 }, "geometry": { "type": "Point", "coordinates": [ 129.287872, 35.448254, 10.0 ] } },
{ "type": "Feature", "properties": { "value": 2.3043 }, "geometry": { "type": "Point", "coordinates": [ 129.288971, 35.44825, 10.0 ] } },
{ "type": "Feature", "properties": { "value": 5.9846 }, "geometry": { "type": "Point", "coordinates": [ 129.29007, 35.44825, 10.0 ] } },
{ "type": "Feature", "properties": { "value": 10.822 }, "geometry": { "type": "Point", "coordinates": [ 129.291168, 35.448246, 10.0 ] } },
{ "type": "Feature", "properties": { "value": 13.203 }, "geometry": { "type": "Point", "coordinates": [ 129.292267, 35.448242, 10.0 ] } },
{ "type": "Feature", "properties": { "value": 10.59 }, "geometry": { "type": "Point", "coordinates": [ 129.293381, 35.448242, 10.0 ] } },
{ "type": "Feature", "properties": { "value": 5.4574 }, "geometry": { "type": "Point", "coordinates": [ 129.294479, 35.448238, 10.0 ] } },
{ "type": "Feature", "properties": { "value": 1.7704 }, "geometry": { "type": "Point", "coordinates": [ 129.295578, 35.448235, 10.0 ] } },
{ "type": "Feature", "properties": { "value": 0.349 }, "geometry": { "type": "Point", "coordinates": [ 129.296677, 35.448235, 10.0 ] } },
{ "type": "Feature", "properties": { "value": 0.1427 }, "geometry": { "type": "Point", "coordinates": [ 129.286774, 35.449158, 10.0 ] } },
{ "type": "Feature", "properties": { "value": 0.7001 }, "geometry": { "type": "Point", "coordinates": [ 129.287872, 35.449154, 10.0 ] } },
{ "type": "Feature", "properties": { "value": 2.3163 }, "geometry": { "type": "Point", "coordinates": [ 129.288971, 35.449154, 10.0 ] } },
{ "type": "Feature", "properties": { "value": 5.4397 }, "geometry": { "type": "Point", "coordinates": [ 129.29007, 35.44915, 10.0 ] } },
{ "type": "Feature", "properties": { "value": 8.9303 }, "geometry": { "type": "Point", "coordinates": [ 129.291168, 35.449146, 10.0 ] } },
{ "type": "Feature", "properties": { "value": 10.067 }, "geometry": { "type": "Point", "coordinates": [ 129.292282, 35.449146, 10.0 ] } },
{ "type": "Feature", "properties": { "value": 7.6498 }, "geometry": { "type": "Point", "coordinates": [ 129.293381, 35.449142, 10.0 ] } },
{ "type": "Feature", "properties": { "value": 3.8571 }, "geometry": { "type": "Point", "coordinates": [ 129.294479, 35.449139, 10.0 ] } },
{ "type": "Feature", "properties": { "value": 1.27 }, "geometry": { "type": "Point", "coordinates": [ 129.295578, 35.449135, 10.0 ] } },
{ "type": "Feature", "properties": { "value": 0.2554 }, "geometry": { "type": "Point", "coordinates": [ 129.296677, 35.449135, 10.0 ] } },
{ "type": "Feature", "properties": { "value": 0.0097 }, "geometry": { "type": "Point", "coordinates": [ 129.285675, 35.450062, 10.0 ] } },
{ "type": "Feature", "properties": { "value": 0.1291 }, "geometry": { "type": "Point", "coordinates": [ 129.286774, 35.450058, 10.0 ] } },
{ "type": "Feature", "properties": { "value": 0.6051 }, "geometry": { "type": "Point", "coordinates": [ 129.287872, 35.450058, 10.0 ] } },
{ "type": "Feature", "properties": { "value": 1.8541 }, "geometry": { "type": "Point", "coordinates": [ 129.288971, 35.450054, 10.0 ] } },
{ "type": "Feature", "properties": { "value": 4.0178 }, "geometry": { "type": "Point", "coordinates": [ 129.290085, 35.45005, 10.0 ] } },
{ "type": "Feature", "properties": { "value": 6.1616 }, "geometry": { "type": "Point", "coordinates": [ 129.291183, 35.45005, 10.0 ] } },
{ "type": "Feature", "properties": { "value": 6.599 }, "geometry": { "type": "Point", "coordinates": [ 129.292282, 35.450047, 10.0 ] } },
{ "type": "Feature", "properties": { "value": 4.8543 }, "geometry": { "type": "Point", "coordinates": [ 129.293381, 35.450043, 10.0 ] } },
{ "type": "Feature", "properties": { "value": 2.4282 }, "geometry": { "type": "Point", "coordinates": [ 129.294479, 35.450039, 10.0 ] } },
{ "type": "Feature", "properties": { "value": 0.8033 }, "geometry": { "type": "Point", "coordinates": [ 129.295578, 35.450039, 10.0 ] } },
{ "type": "Feature", "properties": { "value": 0.1701 }, "geometry": { "type": "Point", "coordinates": [ 129.296692, 35.450035, 10.0 ] } },
{ "type": "Feature", "properties": { "value": 0.0082 }, "geometry": { "type": "Point", "coordinates": [ 129.285675, 35.450962, 10.0 ] } },
{ "type": "Feature", "properties": { "value": 0.0939 }, "geometry": { "type": "Point", "coordinates": [ 129.286774, 35.450962, 10.0 ] } },
{ "type": "Feature", "properties": { "value": 0.3979 }, "geometry": { "type": "Point", "coordinates": [ 129.287872, 35.450958, 10.0 ] } },
{ "type": "Feature", "properties": { "value": 1.1567 }, "geometry": { "type": "Point", "coordinates": [ 129.288986, 35.450954, 10.0 ] } },
{ "type": "Feature", "properties": { "value": 2.3948 }, "geometry": { "type": "Point", "coordinates": [ 129.290085, 35.450954, 10.0 ] } },
{ "type": "Feature", "properties": { "value": 3.5115 }, "geometry": { "type": "Point", "coordinates": [ 129.291183, 35.450951, 10.0 ] } },
{ "type": "Feature", "properties": { "value": 3.6098 }, "geometry": { "type": "Point", "coordinates": [ 129.292282, 35.450947, 10.0 ] } },
{ "type": "Feature", "properties": { "value": 2.5924 }, "geometry": { "type": "Point", "coordinates": [ 129.293381, 35.450943, 10.0 ] } },
{ "type": "Feature", "properties": { "value": 1.2942 }, "geometry": { "type": "Point", "coordinates": [ 129.294479, 35.450943, 10.0 ] } },
{ "type": "Feature", "properties": { "value": 0.4346 }, "geometry": { "type": "Point", "coordinates": [ 129.295593, 35.450939, 10.0 ] } },
{ "type": "Feature", "properties": { "value": 0.0832 }, "geometry": { "type": "Point", "coordinates": [ 129.296692, 35.450935, 10.0 ] } },
{ "type": "Feature", "properties": { "value": 0.0393 }, "geometry": { "type": "Point", "coordinates": [ 129.286774, 35.451862, 10.0 ] } },
{ "type": "Feature", "properties": { "value": 0.1914 }, "geometry": { "type": "Point", "coordinates": [ 129.287888, 35.451859, 10.0 ] } },
{ "type": "Feature", "properties": { "value": 0.5572 }, "geometry": { "type": "Point", "coordinates": [ 129.288986, 35.451855, 10.0 ] } },
{ "type": "Feature", "properties": { "value": 1.1181 }, "geometry": { "type": "Point", "coordinates": [ 129.290085, 35.451855, 10.0 ] } },
{ "type": "Feature", "properties": { "value": 1.5855 }, "geometry": { "type": "Point", "coordinates": [ 129.291183, 35.451851, 10.0 ] } },
{ "type": "Feature", "properties": { "value": 1.5907 }, "geometry": { "type": "Point", "coordinates": [ 129.292282, 35.451847, 10.0 ] } },
{ "type": "Feature", "properties": { "value": 1.1247 }, "geometry": { "type": "Point", "coordinates": [ 129.293381, 35.451847, 10.0 ] } },
{ "type": "Feature", "properties": { "value": 0.5497 }, "geometry": { "type": "Point", "coordinates": [ 129.294495, 35.451843, 10.0 ] } },
{ "type": "Feature", "properties": { "value": 0.1853 }, "geometry": { "type": "Point", "coordinates": [ 129.295593, 35.451839, 10.0 ] } },
{ "type": "Feature", "properties": { "value": 0.0286 }, "geometry": { "type": "Point", "coordinates": [ 129.296692, 35.451839, 10.0 ] } },
{ "type": "Feature", "properties": { "value": 0.0109 }, "geometry": { "type": "Point", "coordinates": [ 129.286789, 35.452763, 10.0 ] } },
{ "type": "Feature", "properties": { "value": 0.0694 }, "geometry": { "type": "Point", "coordinates": [ 129.287888, 35.452759, 10.0 ] } },
{ "type": "Feature", "properties": { "value": 0.1984 }, "geometry": { "type": "Point", "coordinates": [ 129.288986, 35.452759, 10.0 ] } },
{ "type": "Feature", "properties": { "value": 0.3945 }, "geometry": { "type": "Point", "coordinates": [ 129.290085, 35.452755, 10.0 ] } },
{ "type": "Feature", "properties": { "value": 0.5471 }, "geometry": { "type": "Point", "coordinates": [ 129.291183, 35.452751, 10.0 ] } },
{ "type": "Feature", "properties": { "value": 0.5395 }, "geometry": { "type": "Point", "coordinates": [ 129.292297, 35.452751, 10.0 ] } },
{ "type": "Feature", "properties": { "value": 0.3774 }, "geometry": { "type": "Point", "coordinates": [ 129.293396, 35.452747, 10.0 ] } },
{ "type": "Feature", "properties": { "value": 0.1795 }, "geometry": { "type": "Point", "coordinates": [ 129.294495, 35.452744, 10.0 ] } },
{ "type": "Feature", "properties": { "value": 0.0572 }, "geometry": { "type": "Point", "coordinates": [ 129.295593, 35.452744, 10.0 ] } },
{ "type": "Feature", "properties": { "value": 0.0123 }, "geometry": { "type": "Point", "coordinates": [ 129.287888, 35.453663, 10.0 ] } },
{ "type": "Feature", "properties": { "value": 0.0467 }, "geometry": { "type": "Point", "coordinates": [ 129.288986, 35.453659, 10.0 ] } },
{ "type": "Feature", "properties": { "value": 0.1004 }, "geometry": { "type": "Point", "coordinates": [ 129.290085, 35.453655, 10.0 ] } },
{ "type": "Feature", "properties": { "value": 0.1441 }, "geometry": { "type": "Point", "coordinates": [ 129.291199, 35.453655, 10.0 ] } },
{ "type": "Feature", "properties": { "value": 0.1406 }, "geometry": { "type": "Point", "coordinates": [ 129.292297, 35.453651, 10.0 ] } },
{ "type": "Feature", "properties": { "value": 0.0918 }, "geometry": { "type": "Point", "coordinates": [ 129.293396, 35.453648, 10.0 ] } },
{ "type": "Feature", "properties": { "value": 0.0386 }, "geometry": { "type": "Point", "coordinates": [ 129.294495, 35.453648, 10.0 ] } },
{ "type": "Feature", "properties": { "value": 0.0087 }, "geometry": { "type": "Point", "coordinates": [ 129.295593, 35.453644, 10.0 ] } },
{ "type": "Feature", "properties": { "value": 0.0072 }, "geometry": { "type": "Point", "coordinates": [ 129.288986, 35.454559, 10.0 ] } },
{ "type": "Feature", "properties": { "value": 0.0132 }, "geometry": { "type": "Point", "coordinates": [ 129.2901, 35.454559, 10.0 ] } },
{ "type": "Feature", "properties": { "value": 0.0252 }, "geometry": { "type": "Point", "coordinates": [ 129.291199, 35.454556, 10.0 ] } },
{ "type": "Feature", "properties": { "value": 0.0242 }, "geometry": { "type": "Point", "coordinates": [ 129.292297, 35.454552, 10.0 ] } },
{ "type": "Feature", "properties": { "value": 0.0114 }, "geometry": { "type": "Point", "coordinates": [ 129.293396, 35.454552, 10.0 ] } },
{ "type": "Feature", "properties": { "value": 35.248 }, "geometry": { "type": "Point", "coordinates": [ 129.326462, 35.458069, 10.0 ] } },
{ "type": "Feature", "properties": { "value": 31.099 }, "geometry": { "type": "Point", "coordinates": [ 129.32756, 35.458069, 10.0 ] } },
{ "type": "Feature", "properties": { "value": 106.33 }, "geometry": { "type": "Point", "coordinates": [ 129.326462, 35.458973, 10.0 ] } },
{ "type": "Feature", "properties": { "value": 145.33 }, "geometry": { "type": "Point", "coordinates": [ 129.32756, 35.458969, 10.0 ] } },
{ "type": "Feature", "properties": { "value": 123.89 }, "geometry": { "type": "Point", "coordinates": [ 129.326462, 35.459873, 10.0 ] } },
{ "type": "Feature", "properties": { "value": 187.32 }, "geometry": { "type": "Point", "coordinates": [ 129.32756, 35.459869, 10.0 ] } },
{ "type": "Feature", "properties": { "value": 104.28 }, "geometry": { "type": "Point", "coordinates": [ 129.326477, 35.460773, 10.0 ] } },
{ "type": "Feature", "properties": { "value": 167.67 }, "geometry": { "type": "Point", "coordinates": [ 129.327576, 35.46077, 10.0 ] } },
{ "type": "Feature", "properties": { "value": 5.7336 }, "geometry": { "type": "Point", "coordinates": [ 129.328674, 35.46077, 10.0 ] } },
{ "type": "Feature", "properties": { "value": 4.0901 }, "geometry": { "type": "Point", "coordinates": [ 129.325378, 35.461678, 10.0 ] } },
{ "type": "Feature", "properties": { "value": 87.031 }, "geometry": { "type": "Point", "coordinates": [ 129.326477, 35.461674, 10.0 ] } },
{ "type": "Feature", "properties": { "value": 138.86 }, "geometry": { "type": "Point", "coordinates": [ 129.327576, 35.461674, 10.0 ] } },
{ "type": "Feature", "properties": { "value": 13.591 }, "geometry": { "type": "Point", "coordinates": [ 129.328674, 35.46167, 10.0 ] } },
{ "type": "Feature", "properties": { "value": 7.2106 }, "geometry": { "type": "Point", "coordinates": [ 129.325378, 35.462578, 10.0 ] } },
{ "type": "Feature", "properties": { "value": 74.504 }, "geometry": { "type": "Point", "coordinates": [ 129.326477, 35.462578, 10.0 ] } },
{ "type": "Feature", "properties": { "value": 114.25 }, "geometry": { "type": "Point", "coordinates": [ 129.327576, 35.462574, 10.0 ] } },
{ "type": "Feature", "properties": { "value": 21.355 }, "geometry": { "type": "Point", "coordinates": [ 129.328674, 35.46257, 10.0 ] } },
{ "type": "Feature", "properties": { "value": 9.8319 }, "geometry": { "type": "Point", "coordinates": [ 129.325378, 35.463482, 10.0 ] } },
{ "type": "Feature", "properties": { "value": 64.493 }, "geometry": { "type": "Point", "coordinates": [ 129.326477, 35.463478, 10.0 ] } },
{ "type": "Feature", "properties": { "value": 93.103 }, "geometry": { "type": "Point", "coordinates": [ 129.327576, 35.463474, 10.0 ] } },
{ "type": "Feature", "properties": { "value": 27.275 }, "geometry": { "type": "Point", "coordinates": [ 129.32869, 35.46347, 10.0 ] } },
{ "type": "Feature", "properties": { "value": 1.7856 }, "geometry": { "type": "Point", "coordinates": [ 129.329788, 35.46347, 10.0 ] } },
{ "type": "Feature", "properties": { "value": 0.0651 }, "geometry": { "type": "Point", "coordinates": [ 129.32428, 35.464386, 10.0 ] } },
{ "type": "Feature", "properties": { "value": 11.083 }, "geometry": { "type": "Point", "coordinates": [ 129.325378, 35.464382, 10.0 ] } },
{ "type": "Feature", "properties": { "value": 54.194 }, "geometry": { "type": "Point", "coordinates": [ 129.326477, 35.464378, 10.0 ] } },
{ "type": "Feature", "properties": { "value": 75.635 }, "geometry": { "type": "Point", "coordinates": [ 129.327591, 35.464375, 10.0 ] } },
{ "type": "Feature", "properties": { "value": 30.325 }, "geometry": { "type": "Point", "coordinates": [ 129.32869, 35.464375, 10.0 ] } },
{ "type": "Feature", "properties": { "value": 3.7201 }, "geometry": { "type": "Point", "coordinates": [ 129.329788, 35.464371, 10.0 ] } },
{ "type": "Feature", "properties": { "value": 0.9337 }, "geometry": { "type": "Point", "coordinates": [ 129.32428, 35.465286, 10.0 ] } },
{ "type": "Feature", "properties": { "value": 11.477 }, "geometry": { "type": "Point", "coordinates": [ 129.325394, 35.465282, 10.0 ] } },
{ "type": "Feature", "properties": { "value": 44.255 }, "geometry": { "type": "Point", "coordinates": [ 129.326492, 35.465279, 10.0 ] } },
{ "type": "Feature", "properties": { "value": 61.54 }, "geometry": { "type": "Point", "coordinates": [ 129.327591, 35.465279, 10.0 ] } },
{ "type": "Feature", "properties": { "value": 30.717 }, "geometry": { "type": "Point", "coordinates": [ 129.32869, 35.465275, 10.0 ] } },
{ "type": "Feature", "properties": { "value": 5.8556 }, "geometry": { "type": "Point", "coordinates": [ 129.329788, 35.465271, 10.0 ] } },
{ "type": "Feature", "properties": { "value": 1.4267 }, "geometry": { "type": "Point", "coordinates": [ 129.324295, 35.466187, 10.0 ] } },
{ "type": "Feature", "properties": { "value": 11.347 }, "geometry": { "type": "Point", "coordinates": [ 129.325394, 35.466187, 10.0 ] } },
{ "type": "Feature", "properties": { "value": 36.63 }, "geometry": { "type": "Point", "coordinates": [ 129.326492, 35.466183, 10.0 ] } },
{ "type": "Feature", "properties": { "value": 51.011 }, "geometry": { "type": "Point", "coordinates": [ 129.327591, 35.466179, 10.0 ] } },
{ "type": "Feature", "properties": { "value": 29.761 }, "geometry": { "type": "Point", "coordinates": [ 129.32869, 35.466175, 10.0 ] } },
{ "type": "Feature", "properties": { "value": 7.8369 }, "geometry": { "type": "Point", "coordinates": [ 129.329803, 35.466171, 10.0 ] } },
{ "type": "Feature", "properties": { "value": 0.8985 }, "geometry": { "type": "Point", "coordinates": [ 129.330902, 35.466171, 10.0 ] } },
{ "type": "Feature", "properties": { "value": 1.8719 }, "geometry": { "type": "Point", "coordinates": [ 129.324295, 35.467091, 10.0 ] } },
{ "type": "Feature", "properties": { "value": 11.07 }, "geometry": { "type": "Point", "coordinates": [ 129.325394, 35.467087, 10.0 ] } },
{ "type": "Feature", "properties": { "value": 31.271 }, "geometry": { "type": "Point", "coordinates": [ 129.326492, 35.467083, 10.0 ] } },
{ "type": "Feature", "properties": { "value": 43.3 }, "geometry": { "type": "Point", "coordinates": [ 129.327591, 35.467079, 10.0 ] } },
{ "type": "Feature", "properties": { "value": 28.553 }, "geometry": { "type": "Point", "coordinates": [ 129.328705, 35.467075, 10.0 ] } },
{ "type": "Feature", "properties": { "value": 9.4829 }, "geometry": { "type": "Point", "coordinates": [ 129.329803, 35.467075, 10.0 ] } },
{ "type": "Feature", "properties": { "value": 1.6569 }, "geometry": { "type": "Point", "coordinates": [ 129.330902, 35.467072, 10.0 ] } },
{ "type": "Feature", "properties": { "value": 2.2146 }, "geometry": { "type": "Point", "coordinates": [ 129.324295, 35.467991, 10.0 ] } },
{ "type": "Feature", "properties": { "value": 10.858 }, "geometry": { "type": "Point", "coordinates": [ 129.325394, 35.467987, 10.0 ] } },
{ "type": "Feature", "properties": { "value": 27.541 }, "geometry": { "type": "Point", "coordinates": [ 129.326492, 35.467983, 10.0 ] } },
{ "type": "Feature", "properties": { "value": 37.356 }, "geometry": { "type": "Point", "coordinates": [ 129.327606, 35.467983, 10.0 ] } },
{ "type": "Feature", "properties": { "value": 27.09 }, "geometry": { "type": "Point", "coordinates": [ 129.328705, 35.467979, 10.0 ] } },
{ "type": "Feature", "properties": { "value": 10.766 }, "geometry": { "type": "Point", "coordinates": [ 129.329803, 35.467976, 10.0 ] } },
{ "type": "Feature", "properties": { "value": 2.4483 }, "geometry": { "type": "Point", "coordinates": [ 129.330902, 35.467972, 10.0 ] } },
{ "type": "Feature", "properties": { "value": 0.0962 }, "geometry": { "type": "Point", "coordinates": [ 129.332001, 35.467968, 10.0 ] } },
{ "type": "Feature", "properties": { "value": 0.1846 }, "geometry": { "type": "Point", "coordinates": [ 129.323196, 35.468895, 10.0 ] } },
{ "type": "Feature", "properties": { "value": 2.5813 }, "geometry": { "type": "Point", "coordinates": [ 129.324295, 35.468891, 10.0 ] } },
{ "type": "Feature", "properties": { "value": 10.457 }, "geometry": { "type": "Point", "coordinates": [ 129.325394, 35.468887, 10.0 ] } },
{ "type": "Feature", "properties": { "value": 24.3 }, "geometry": { "type": "Point", "coordinates": [ 129.326508, 35.468887, 10.0 ] } },
{ "type": "Feature", "properties": { "value": 32.684 }, "geometry": { "type": "Point", "coordinates": [ 129.327606, 35.468884, 10.0 ] } },
{ "type": "Feature", "properties": { "value": 25.459 }, "geometry": { "type": "Point", "coordinates": [ 129.328705, 35.46888, 10.0 ] } },
{ "type": "Feature", "properties": { "value": 11.706 }, "geometry": { "type": "Point", "coordinates": [ 129.329803, 35.468876, 10.0 ] } },
{ "type": "Feature", "properties": { "value": 3.2748 }, "geometry": { "type": "Point", "coordinates": [ 129.330902, 35.468872, 10.0 ] } },
{ "type": "Feature", "properties": { "value": 0.5118 }, "geometry": { "type": "Point", "coordinates": [ 129.332016, 35.468872, 10.0 ] } },
{ "type": "Feature", "properties": { "value": 0.459 }, "geometry": { "type": "Point", "coordinates": [ 129.323196, 35.469795, 10.0 ] } },
{ "type": "Feature", "properties": { "value": 2.9049 }, "geometry": { "type": "Point", "coordinates": [ 129.324295, 35.469791, 10.0 ] } },
{ "type": "Feature", "properties": { "value": 10.135 }, "geometry": { "type": "Point", "coordinates": [ 129.325409, 35.469791, 10.0 ] } },
{ "type": "Feature", "properties": { "value": 21.795 }, "geometry": { "type": "Point", "coordinates": [ 129.326508, 35.469788, 10.0 ] } },
{ "type": "Feature", "properties": { "value": 28.975 }, "geometry": { "type": "Point", "coordinates": [ 129.327606, 35.469784, 10.0 ] } },
{ "type": "Feature", "properties": { "value": 23.831 }, "geometry": { "type": "Point", "coordinates": [ 129.328705, 35.46978, 10.0 ] } },
{ "type": "Feature", "properties": { "value": 12.403 }, "geometry": { "type": "Point", "coordinates": [ 129.329819, 35.469776, 10.0 ] } },
{ "type": "Feature", "properties": { "value": 4.1747 }, "geometry": { "type": "Point", "coordinates": [ 129.330917, 35.469776, 10.0 ] } },
{ "type": "Feature", "properties": { "value": 0.8862 }, "geometry": { "type": "Point", "coordinates": [ 129.332016, 35.469772, 10.0 ] } },
{ "type": "Feature", "properties": { "value": 0.6575 }, "geometry": { "type": "Point", "coordinates": [ 129.323212, 35.470695, 10.0 ] } },
{ "type": "Feature", "properties": { "value": 3.1661 }, "geometry": { "type": "Point", "coordinates": [ 129.32431, 35.470695, 10.0 ] } },
{ "type": "Feature", "properties": { "value": 9.7853 }, "geometry": { "type": "Point", "coordinates": [ 129.325409, 35.470692, 10.0 ] } },
{ "type": "Feature", "properties": { "value": 19.725 }, "geometry": { "type": "Point", "coordinates": [ 129.326508, 35.470688, 10.0 ] } },
{ "type": "Feature", "properties": { "value": 25.912 }, "geometry": { "type": "Point", "coordinates": [ 129.327606, 35.470684, 10.0 ] } },
{ "type": "Feature", "properties": { "value": 22.35 }, "geometry": { "type": "Point", "coordinates": [ 129.32872, 35.470684, 10.0 ] } },
{ "type": "Feature", "properties": { "value": 12.844 }, "geometry": { "type": "Point", "coordinates": [ 129.329819, 35.47068, 10.0 ] } },
{ "type": "Feature", "properties": { "value": 4.9663 }, "geometry": { "type": "Point", "coordinates": [ 129.330917, 35.470676, 10.0 ] } },
{ "type": "Feature", "properties": { "value": 1.2768 }, "geometry": { "type": "Point", "coordinates": [ 129.332016, 35.470673, 10.0 ] } },
{ "type": "Feature", "properties": { "value": 0.0721 }, "geometry": { "type": "Point", "coordinates": [ 129.333115, 35.470669, 10.0 ] } },
{ "type": "Feature", "properties": { "value": 0.8281 }, "geometry": { "type": "Point", "coordinates": [ 129.323212, 35.4716, 10.0 ] } },
{ "type": "Feature", "properties": { "value": 3.3869 }, "geometry": { "type": "Point", "coordinates": [ 129.32431, 35.471596, 10.0 ] } },
{ "type": "Feature", "properties": { "value": 9.3798 }, "geometry": { "type": "Point", "coordinates": [ 129.325409, 35.471592, 10.0 ] } },
{ "type": "Feature", "properties": { "value": 17.797 }, "geometry": { "type": "Point", "coordinates": [ 129.326508, 35.471588, 10.0 ] } },
{ "type": "Feature", "properties": { "value": 23.179 }, "geometry": { "type": "Point", "coordinates": [ 129.327621, 35.471588, 10.0 ] } },
{ "type": "Feature", "properties": { "value": 20.797 }, "geometry": { "type": "Point", "coordinates": [ 129.32872, 35.471584, 10.0 ] } },
{ "type": "Feature", "properties": { "value": 12.855 }, "geometry": { "type": "Point", "coordinates": [ 129.329819, 35.471581, 10.0 ] } },
{ "type": "Feature", "properties": { "value": 5.5751 }, "geometry": { "type": "Point", "coordinates": [ 129.330917, 35.471577, 10.0 ] } },
{ "type": "Feature", "properties": { "value": 1.7274 }, "geometry": { "type": "Point", "coordinates": [ 129.332016, 35.471573, 10.0 ] } },
{ "type": "Feature", "properties": { "value": 0.326 }, "geometry": { "type": "Point", "coordinates": [ 129.33313, 35.471573, 10.0 ] } },
{ "type": "Feature", "properties": { "value": 0.083 }, "geometry": { "type": "Point", "coordinates": [ 129.322113, 35.472504, 10.0 ] } },
{ "type": "Feature", "properties": { "value": 0.9743 }, "geometry": { "type": "Point", "coordinates": [ 129.323212, 35.4725, 10.0 ] } },
{ "type": "Feature", "properties": { "value": 3.4955 }, "geometry": { "type": "Point", "coordinates": [ 129.32431, 35.472496, 10.0 ] } },
{ "type": "Feature", "properties": { "value": 8.8555 }, "geometry": { "type": "Point", "coordinates": [ 129.325409, 35.472492, 10.0 ] } },
{ "type": "Feature", "properties": { "value": 16.006 }, "geometry": { "type": "Point", "coordinates": [ 129.326523, 35.472492, 10.0 ] } },
{ "type": "Feature", "properties": { "value": 20.643 }, "geometry": { "type": "Point", "coordinates": [ 129.327621, 35.472488, 10.0 ] } },
{ "type": "Feature", "properties": { "value": 18.96 }, "geometry": { "type": "Point", "coordinates": [ 129.32872, 35.472485, 10.0 ] } },
{ "type": "Feature", "properties": { "value": 12.505 }, "geometry": { "type": "Point", "coordinates": [ 129.329819, 35.472481, 10.0 ] } },
{ "type": "Feature", "properties": { "value": 6.0048 }, "geometry": { "type": "Point", "coordinates": [ 129.330917, 35.472477, 10.0 ] } },
{ "type": "Feature", "properties": { "value": 2.1421 }, "geometry": { "type": "Point", "coordinates": [ 129.332031, 35.472477, 10.0 ] } },
{ "type": "Feature", "properties": { "value": 0.551 }, "geometry": { "type": "Point", "coordinates": [ 129.33313, 35.472473, 10.0 ] } },
{ "type": "Feature", "properties": { "value": 0.2072 }, "geometry": { "type": "Point", "coordinates": [ 129.322113, 35.473404, 10.0 ] } },
{ "type": "Feature", "properties": { "value": 1.0996 }, "geometry": { "type": "Point", "coordinates": [ 129.323212, 35.4734, 10.0 ] } },
{ "type": "Feature", "properties": { "value": 3.5187 }, "geometry": { "type": "Point", "coordinates": [ 129.32431, 35.473396, 10.0 ] } },
{ "type": "Feature", "properties": { "value": 8.1931 }, "geometry": { "type": "Point", "coordinates": [ 129.325424, 35.473396, 10.0 ] } },
{ "type": "Feature", "properties": { "value": 14.155 }, "geometry": { "type": "Point", "coordinates": [ 129.326523, 35.473392, 10.0 ] } },
{ "type": "Feature", "properties": { "value": 18.023 }, "geometry": { "type": "Point", "coordinates": [ 129.327621, 35.473389, 10.0 ] } },
{ "type": "Feature", "properties": { "value": 16.936 }, "geometry": { "type": "Point", "coordinates": [ 129.32872, 35.473385, 10.0 ] } },
{ "type": "Feature", "properties": { "value": 11.821 }, "geometry": { "type": "Point", "coordinates": [ 129.329819, 35.473385, 10.0 ] } },
{ "type": "Feature", "properties": { "value": 6.2171 }, "geometry": { "type": "Point", "coordinates": [ 129.330933, 35.473381, 10.0 ] } },
{ "type": "Feature", "properties": { "value": 2.5119 }, "geometry": { "type": "Point", "coordinates": [ 129.332031, 35.473377, 10.0 ] } },
{ "type": "Feature", "properties": { "value": 0.75 }, "geometry": { "type": "Point", "coordinates": [ 129.33313, 35.473373, 10.0 ] } },
{ "type": "Feature", "properties": { "value": 0.1319 }, "geometry": { "type": "Point", "coordinates": [ 129.334229, 35.47337, 10.0 ] } },
{ "type": "Feature", "properties": { "value": 0.302 }, "geometry": { "type": "Point", "coordinates": [ 129.322113, 35.474304, 10.0 ] } },
{ "type": "Feature", "properties": { "value": 1.2417 }, "geometry": { "type": "Point", "coordinates": [ 129.323212, 35.4743, 10.0 ] } },
{ "type": "Feature", "properties": { "value": 3.4845 }, "geometry": { "type": "Point", "coordinates": [ 129.324326, 35.4743, 10.0 ] } },
{ "type": "Feature", "properties": { "value": 7.4899 }, "geometry": { "type": "Point", "coordinates": [ 129.325424, 35.474297, 10.0 ] } },
{ "type": "Feature", "properties": { "value": 12.427 }, "geometry": { "type": "Point", "coordinates": [ 129.326523, 35.474293, 10.0 ] } },
{ "type": "Feature", "properties": { "value": 15.676 }, "geometry": { "type": "Point", "coordinates": [ 129.327621, 35.474289, 10.0 ] } },
{ "type": "Feature", "properties": { "value": 15.071 }, "geometry": { "type": "Point", "coordinates": [ 129.328735, 35.474289, 10.0 ] } },
{ "type": "Feature", "properties": { "value": 11.104 }, "geometry": { "type": "Point", "coordinates": [ 129.329834, 35.474285, 10.0 ] } },
{ "type": "Feature", "properties": { "value": 6.3316 }, "geometry": { "type": "Point", "coordinates": [ 129.330933, 35.474281, 10.0 ] } },
{ "type": "Feature", "properties": { "value": 2.8201 }, "geometry": { "type": "Point", "coordinates": [ 129.332031, 35.474277, 10.0 ] } },
{ "type": "Feature", "properties": { "value": 0.988 }, "geometry": { "type": "Point", "coordinates": [ 129.33313, 35.474274, 10.0 ] } },
{ "type": "Feature", "properties": { "value": 0.2576 }, "geometry": { "type": "Point", "coordinates": [ 129.334244, 35.474274, 10.0 ] } },
{ "type": "Feature", "properties": { "value": 0.3851 }, "geometry": { "type": "Point", "coordinates": [ 129.322113, 35.475208, 10.0 ] } },
{ "type": "Feature", "properties": { "value": 1.3254 }, "geometry": { "type": "Point", "coordinates": [ 129.323227, 35.475204, 10.0 ] } },
{ "type": "Feature", "properties": { "value": 3.4391 }, "geometry": { "type": "Point", "coordinates": [ 129.324326, 35.475201, 10.0 ] } },
{ "type": "Feature", "properties": { "value": 6.9781 }, "geometry": { "type": "Point", "coordinates": [ 129.325424, 35.475197, 10.0 ] } },
{ "type": "Feature", "properties": { "value": 11.195 }, "geometry": { "type": "Point", "coordinates": [ 129.326523, 35.475193, 10.0 ] } },
{ "type": "Feature", "properties": { "value": 14.009 }, "geometry": { "type": "Point", "coordinates": [ 129.327637, 35.475193, 10.0 ] } },
{ "type": "Feature", "properties": { "value": 13.708 }, "geometry": { "type": "Point", "coordinates": [ 129.328735, 35.475189, 10.0 ] } },
{ "type": "Feature", "properties": { "value": 10.533 }, "geometry": { "type": "Point", "coordinates": [ 129.329834, 35.475185, 10.0 ] } },
{ "type": "Feature", "properties": { "value": 6.3717 }, "geometry": { "type": "Point", "coordinates": [ 129.330933, 35.475182, 10.0 ] } },
{ "type": "Feature", "properties": { "value": 3.0825 }, "geometry": { "type": "Point", "coordinates": [ 129.332031, 35.475178, 10.0 ] } },
{ "type": "Feature", "properties": { "value": 1.2051 }, "geometry": { "type": "Point", "coordinates": [ 129.333145, 35.475178, 10.0 ] } },
{ "type": "Feature", "properties": { "value": 0.3643 }, "geometry": { "type": "Point", "coordinates": [ 129.334244, 35.475174, 10.0 ] } },
{ "type": "Feature", "properties": { "value": 0.037 }, "geometry": { "type": "Point", "coordinates": [ 129.32103, 35.476112, 10.0 ] } },
{ "type": "Feature", "properties": { "value": 0.4566 }, "geometry": { "type": "Point", "coordinates": [ 129.322128, 35.476109, 10.0 ] } },
{ "type": "Feature", "properties": { "value": 1.3984 }, "geometry": { "type": "Point", "coordinates": [ 129.323227, 35.476105, 10.0 ] } },
{ "type": "Feature", "properties": { "value": 3.3702 }, "geometry": { "type": "Point", "coordinates": [ 129.324326, 35.476101, 10.0 ] } },
{ "type": "Feature", "properties": { "value": 6.5402 }, "geometry": { "type": "Point", "coordinates": [ 129.325424, 35.476097, 10.0 ] } },
{ "type": "Feature", "properties": { "value": 10.2 }, "geometry": { "type": "Point", "coordinates": [ 129.326538, 35.476097, 10.0 ] } },
{ "type": "Feature", "properties": { "value": 12.673 }, "geometry": { "type": "Point", "coordinates": [ 129.327637, 35.476093, 10.0 ] } },
{ "type": "Feature", "properties": { "value": 12.573 }, "geometry": { "type": "Point", "coordinates": [ 129.328735, 35.476089, 10.0 ] } },
{ "type": "Feature", "properties": { "value": 9.9716 }, "geometry": { "type": "Point", "coordinates": [ 129.329834, 35.476086, 10.0 ] } },
{ "type": "Feature", "properties": { "value": 6.3337 }, "geometry": { "type": "Point", "coordinates": [ 129.330933, 35.476086, 10.0 ] } },
{ "type": "Feature", "properties": { "value": 3.276 }, "geometry": { "type": "Point", "coordinates": [ 129.332047, 35.476082, 10.0 ] } },
{ "type": "Feature", "properties": { "value": 1.3831 }, "geometry": { "type": "Point", "coordinates": [ 129.333145, 35.476078, 10.0 ] } },
{ "type": "Feature", "properties": { "value": 0.4776 }, "geometry": { "type": "Point", "coordinates": [ 129.334244, 35.476074, 10.0 ] } },
{ "type": "Feature", "properties": { "value": 0.0884 }, "geometry": { "type": "Point", "coordinates": [ 129.335342, 35.47607, 10.0 ] } },
{ "type": "Feature", "properties": { "value": 0.1191 }, "geometry": { "type": "Point", "coordinates": [ 129.32103, 35.477013, 10.0 ] } },
{ "type": "Feature", "properties": { "value": 0.5042 }, "geometry": { "type": "Point", "coordinates": [ 129.322128, 35.477009, 10.0 ] } },
{ "type": "Feature", "properties": { "value": 1.4361 }, "geometry": { "type": "Point", "coordinates": [ 129.323227, 35.477005, 10.0 ] } },
{ "type": "Feature", "properties": { "value": 3.2744 }, "geometry": { "type": "Point", "coordinates": [ 129.324326, 35.477005, 10.0 ] } },
{ "type": "Feature", "properties": { "value": 6.1002 }, "geometry": { "type": "Point", "coordinates": [ 129.325439, 35.477001, 10.0 ] } },
{ "type": "Feature", "properties": { "value": 9.272 }, "geometry": { "type": "Point", "coordinates": [ 129.326538, 35.476997, 10.0 ] } },
{ "type": "Feature", "properties": { "value": 11.448 }, "geometry": { "type": "Point", "coordinates": [ 129.327637, 35.476994, 10.0 ] } },
{ "type": "Feature", "properties": { "value": 11.449 }, "geometry": { "type": "Point", "coordinates": [ 129.328735, 35.47699, 10.0 ] } },
{ "type": "Feature", "properties": { "value": 9.3034 }, "geometry": { "type": "Point", "coordinates": [ 129.329834, 35.47699, 10.0 ] } },
{ "type": "Feature", "properties": { "value": 6.1596 }, "geometry": { "type": "Point", "coordinates": [ 129.330948, 35.476986, 10.0 ] } },
{ "type": "Feature", "properties": { "value": 3.3546 }, "geometry": { "type": "Point", "coordinates": [ 129.332047, 35.476982, 10.0 ] } },
{ "type": "Feature", "properties": { "value": 1.5087 }, "geometry": { "type": "Point", "coordinates": [ 129.333145, 35.476978, 10.0 ] } },
{ "type": "Feature", "properties": { "value": 0.5591 }, "geometry": { "type": "Point", "coordinates": [ 129.334244, 35.476974, 10.0 ] } },
{ "type": "Feature", "properties": { "value": 0.1611 }, "geometry": { "type": "Point", "coordinates": [ 129.335342, 35.476974, 10.0 ] } },
{ "type": "Feature", "properties": { "value": 0.1477 }, "geometry": { "type": "Point", "coordinates": [ 129.32103, 35.477913, 10.0 ] } },
{ "type": "Feature", "properties": { "value": 0.5239 }, "geometry": { "type": "Point", "coordinates": [ 129.322128, 35.477909, 10.0 ] } },
{ "type": "Feature", "properties": { "value": 1.415 }, "geometry": { "type": "Point", "coordinates": [ 129.323227, 35.477909, 10.0 ] } },
{ "type": "Feature", "properties": { "value": 3.0994 }, "geometry": { "type": "Point", "coordinates": [ 129.324341, 35.477905, 10.0 ] } },
{ "type": "Feature", "properties": { "value": 5.5788 }, "geometry": { "type": "Point", "coordinates": [ 129.325439, 35.477901, 10.0 ] } },
{ "type": "Feature", "properties": { "value": 8.3099 }, "geometry": { "type": "Point", "coordinates": [ 129.326538, 35.477898, 10.0 ] } },
{ "type": "Feature", "properties": { "value": 10.145 }, "geometry": { "type": "Point", "coordinates": [ 129.327637, 35.477894, 10.0 ] } },
{ "type": "Feature", "properties": { "value": 10.221 }, "geometry": { "type": "Point", "coordinates": [ 129.328735, 35.477894, 10.0 ] } },
{ "type": "Feature", "properties": { "value": 8.4734 }, "geometry": { "type": "Point", "coordinates": [ 129.329849, 35.47789, 10.0 ] } },
{ "type": "Feature", "properties": { "value": 5.8088 }, "geometry": { "type": "Point", "coordinates": [ 129.330948, 35.477886, 10.0 ] } },
{ "type": "Feature", "properties": { "value": 3.3075 }, "geometry": { "type": "Point", "coordinates": [ 129.332047, 35.477882, 10.0 ] } },
{ "type": "Feature", "properties": { "value": 1.5681 }, "geometry": { "type": "Point", "coordinates": [ 129.333145, 35.477879, 10.0 ] } },
{ "type": "Feature", "properties": { "value": 0.6113 }, "geometry": { "type": "Point", "coordinates": [ 129.334259, 35.477879, 10.0 ] } },
{ "type": "Feature", "properties": { "value": 0.1852 }, "geometry": { "type": "Point", "coordinates": [ 129.335358, 35.477875, 10.0 ] } },
{ "type": "Feature", "properties": { "value": 0.1543 }, "geometry": { "type": "Point", "coordinates": [ 129.32103, 35.478813, 10.0 ] } },
{ "type": "Feature", "properties": { "value": 0.5288 }, "geometry": { "type": "Point", "coordinates": [ 129.322128, 35.478813, 10.0 ] } },
{ "type": "Feature", "properties": { "value": 1.3345 }, "geometry": { "type": "Point", "coordinates": [ 129.323242, 35.478809, 10.0 ] } },
{ "type": "Feature", "properties": { "value": 2.8107 }, "geometry": { "type": "Point", "coordinates": [ 129.324341, 35.478806, 10.0 ] } },
{ "type": "Feature", "properties": { "value": 4.9204 }, "geometry": { "type": "Point", "coordinates": [ 129.325439, 35.478802, 10.0 ] } },
{ "type": "Feature", "properties": { "value": 7.1854 }, "geometry": { "type": "Point", "coordinates": [ 129.326538, 35.478798, 10.0 ] } },
{ "type": "Feature", "properties": { "value": 8.734 }, "geometry": { "type": "Point", "coordinates": [ 129.327637, 35.478798, 10.0 ] } },
{ "type": "Feature", "properties": { "value": 8.8388 }, "geometry": { "type": "Point", "coordinates": [ 129.328751, 35.478794, 10.0 ] } },
{ "type": "Feature", "properties": { "value": 7.4458 }, "geometry": { "type": "Point", "coordinates": [ 129.329849, 35.47879, 10.0 ] } },
{ "type": "Feature", "properties": { "value": 5.2321 }, "geometry": { "type": "Point", "coordinates": [ 129.330948, 35.478786, 10.0 ] } },
{ "type": "Feature", "properties": { "value": 3.0789 }, "geometry": { "type": "Point", "coordinates": [ 129.332047, 35.478786, 10.0 ] } },
{ "type": "Feature", "properties": { "value": 1.5183 }, "geometry": { "type": "Point", "coordinates": [ 129.33316, 35.478783, 10.0 ] } },
{ "type": "Feature", "properties": { "value": 0.6193 }, "geometry": { "type": "Point", "coordinates": [ 129.334259, 35.478779, 10.0 ] } },
{ "type": "Feature", "properties": { "value": 0.2107 }, "geometry": { "type": "Point", "coordinates": [ 129.335358, 35.478775, 10.0 ] } },
{ "type": "Feature", "properties": { "value": 0.011 }, "geometry": { "type": "Point", "coordinates": [ 129.336456, 35.478771, 10.0 ] } },
{ "type": "Feature", "properties": { "value": 0.0049 }, "geometry": { "type": "Point", "coordinates": [ 129.319931, 35.479717, 10.0 ] } },
{ "type": "Feature", "properties": { "value": 0.1603 }, "geometry": { "type": "Point", "coordinates": [ 129.32103, 35.479717, 10.0 ] } },
{ "type": "Feature", "properties": { "value": 0.4862 }, "geometry": { "type": "Point", "coordinates": [ 129.322144, 35.479713, 10.0 ] } },
{ "type": "Feature", "properties": { "value": 1.1758 }, "geometry": { "type": "Point", "coordinates": [ 129.323242, 35.47971, 10.0 ] } },
{ "type": "Feature", "properties": { "value": 2.4064 }, "geometry": { "type": "Point", "coordinates": [ 129.324341, 35.479706, 10.0 ] } },
{ "type": "Feature", "properties": { "value": 4.1182 }, "geometry": { "type": "Point", "coordinates": [ 129.325439, 35.479706, 10.0 ] } },
{ "type": "Feature", "properties": { "value": 5.9438 }, "geometry": { "type": "Point", "coordinates": [ 129.326553, 35.479702, 10.0 ] } },
{ "type": "Feature", "properties": { "value": 7.1886 }, "geometry": { "type": "Point", "coordinates": [ 129.327652, 35.479698, 10.0 ] } },
{ "type": "Feature", "properties": { "value": 7.2894 }, "geometry": { "type": "Point", "coordinates": [ 129.328751, 35.479694, 10.0 ] } },
{ "type": "Feature", "properties": { "value": 6.2041 }, "geometry": { "type": "Point", "coordinates": [ 129.329849, 35.479691, 10.0 ] } },
{ "type": "Feature", "properties": { "value": 4.436 }, "geometry": { "type": "Point", "coordinates": [ 129.330948, 35.479691, 10.0 ] } },
{ "type": "Feature", "properties": { "value": 2.6767 }, "geometry": { "type": "Point", "coordinates": [ 129.332062, 35.479687, 10.0 ] } },
{ "type": "Feature", "properties": { "value": 1.3607 }, "geometry": { "type": "Point", "coordinates": [ 129.33316, 35.479683, 10.0 ] } },
{ "type": "Feature", "properties": { "value": 0.5849 }, "geometry": { "type": "Point", "coordinates": [ 129.334259, 35.479679, 10.0 ] } },
{ "type": "Feature", "properties": { "value": 0.2026 }, "geometry": { "type": "Point", "coordinates": [ 129.335358, 35.479675, 10.0 ] } },
{ "type": "Feature", "properties": { "value": 0.0379 }, "geometry": { "type": "Point", "coordinates": [ 129.336456, 35.479675, 10.0 ] } },
{ "type": "Feature", "properties": { "value": 0.0171 }, "geometry": { "type": "Point", "coordinates": [ 129.319931, 35.480621, 10.0 ] } },
{ "type": "Feature", "properties": { "value": 0.1399 }, "geometry": { "type": "Point", "coordinates": [ 129.321045, 35.480618, 10.0 ] } },
{ "type": "Feature", "properties": { "value": 0.4113 }, "geometry": { "type": "Point", "coordinates": [ 129.322144, 35.480614, 10.0 ] } },
{ "type": "Feature", "properties": { "value": 0.9673 }, "geometry": { "type": "Point", "coordinates": [ 129.323242, 35.48061, 10.0 ] } },
{ "type": "Feature", "properties": { "value": 1.9243 }, "geometry": { "type": "Point", "coordinates": [ 129.324341, 35.48061, 10.0 ] } },
{ "type": "Feature", "properties": { "value": 3.2321 }, "geometry": { "type": "Point", "coordinates": [ 129.325455, 35.480606, 10.0 ] } },
{ "type": "Feature", "properties": { "value": 4.6053 }, "geometry": { "type": "Point", "coordinates": [ 129.326553, 35.480602, 10.0 ] } },
{ "type": "Feature", "properties": { "value": 5.545 }, "geometry": { "type": "Point", "coordinates": [ 129.327652, 35.480598, 10.0 ] } },
{ "type": "Feature", "properties": { "value": 5.6266 }, "geometry": { "type": "Point", "coordinates": [ 129.328751, 35.480595, 10.0 ] } },
{ "type": "Feature", "properties": { "value": 4.8171 }, "geometry": { "type": "Point", "coordinates": [ 129.329849, 35.480595, 10.0 ] } },
{ "type": "Feature", "properties": { "value": 3.4969 }, "geometry": { "type": "Point", "coordinates": [ 129.330963, 35.480591, 10.0 ] } },
{ "type": "Feature", "properties": { "value": 2.1551 }, "geometry": { "type": "Point", "coordinates": [ 129.332062, 35.480587, 10.0 ] } },
{ "type": "Feature", "properties": { "value": 1.1241 }, "geometry": { "type": "Point", "coordinates": [ 129.33316, 35.480583, 10.0 ] } },
{ "type": "Feature", "properties": { "value": 0.4962 }, "geometry": { "type": "Point", "coordinates": [ 129.334259, 35.480579, 10.0 ] } },
{ "type": "Feature", "properties": { "value": 0.1759 }, "geometry": { "type": "Point", "coordinates": [ 129.335358, 35.480579, 10.0 ] } },
{ "type": "Feature", "properties": { "value": 0.0411 }, "geometry": { "type": "Point", "coordinates": [ 129.336472, 35.480576, 10.0 ] } },
{ "type": "Feature", "properties": { "value": 0.0 }, "geometry": { "type": "Point", "coordinates": [ 129.318848, 35.481525, 10.0 ] } },
{ "type": "Feature", "properties": { "value": 37.679 }, "geometry": { "type": "Point", "coordinates": [ 129.319946, 35.481522, 10.0 ] } },
{ "type": "Feature", "properties": { "value": 145.76 }, "geometry": { "type": "Point", "coordinates": [ 129.321045, 35.481518, 10.0 ] } },
{ "type": "Feature", "properties": { "value": 0.3145 }, "geometry": { "type": "Point", "coordinates": [ 129.322144, 35.481514, 10.0 ] } },
{ "type": "Feature", "properties": { "value": 0.7236 }, "geometry": { "type": "Point", "coordinates": [ 129.323242, 35.481514, 10.0 ] } },
{ "type": "Feature", "properties": { "value": 1.4128 }, "geometry": { "type": "Point", "coordinates": [ 129.324356, 35.48151, 10.0 ] } },
{ "type": "Feature", "properties": { "value": 2.3336 }, "geometry": { "type": "Point", "coordinates": [ 129.325455, 35.481506, 10.0 ] } },
{ "type": "Feature", "properties": { "value": 3.2953 }, "geometry": { "type": "Point", "coordinates": [ 129.326553, 35.481503, 10.0 ] } },
{ "type": "Feature", "properties": { "value": 3.9431 }, "geometry": { "type": "Point", "coordinates": [ 129.327652, 35.481503, 10.0 ] } },
{ "type": "Feature", "properties": { "value": 4.0008 }, "geometry": { "type": "Point", "coordinates": [ 129.328751, 35.481499, 10.0 ] } },
{ "type": "Feature", "properties": { "value": 3.4494 }, "geometry": { "type": "Point", "coordinates": [ 129.329865, 35.481495, 10.0 ] } },
{ "type": "Feature", "properties": { "value": 2.5285 }, "geometry": { "type": "Point", "coordinates": [ 129.330963, 35.481491, 10.0 ] } },
{ "type": "Feature", "properties": { "value": 1.586 }, "geometry": { "type": "Point", "coordinates": [ 129.332062, 35.481487, 10.0 ] } },
{ "type": "Feature", "properties": { "value": 0.8425 }, "geometry": { "type": "Point", "coordinates": [ 129.33316, 35.481487, 10.0 ] } },
{ "type": "Feature", "properties": { "value": 0.38 }, "geometry": { "type": "Point", "coordinates": [ 129.334259, 35.481483, 10.0 ] } },
{ "type": "Feature", "properties": { "value": 0.1359 }, "geometry": { "type": "Point", "coordinates": [ 129.335373, 35.48148, 10.0 ] } },
{ "type": "Feature", "properties": { "value": 0.0339 }, "geometry": { "type": "Point", "coordinates": [ 129.336472, 35.481476, 10.0 ] } },
{ "type": "Feature", "properties": { "value": 0.0001 }, "geometry": { "type": "Point", "coordinates": [ 129.317749, 35.48243, 10.0 ] } },
{ "type": "Feature", "properties": { "value": 2.3238 }, "geometry": { "type": "Point", "coordinates": [ 129.318848, 35.482426, 10.0 ] } },
{ "type": "Feature", "properties": { "value": 509.34 }, "geometry": { "type": "Point", "coordinates": [ 129.319946, 35.482422, 10.0 ] } },
{ "type": "Feature", "properties": { "value": 468.42 }, "geometry": { "type": "Point", "coordinates": [ 129.321045, 35.482418, 10.0 ] } },
{ "type": "Feature", "properties": { "value": 0.2265 }, "geometry": { "type": "Point", "coordinates": [ 129.322144, 35.482418, 10.0 ] } },
{ "type": "Feature", "properties": { "value": 0.4877 }, "geometry": { "type": "Point", "coordinates": [ 129.323257, 35.482414, 10.0 ] } },
{ "type": "Feature", "properties": { "value": 0.9366 }, "geometry": { "type": "Point", "coordinates": [ 129.324356, 35.48241, 10.0 ] } },
{ "type": "Feature", "properties": { "value": 1.5409 }, "geometry": { "type": "Point", "coordinates": [ 129.325455, 35.482407, 10.0 ] } },
{ "type": "Feature", "properties": { "value": 2.1591 }, "geometry": { "type": "Point", "coordinates": [ 129.326553, 35.482407, 10.0 ] } },
{ "type": "Feature", "properties": { "value": 2.5787 }, "geometry": { "type": "Point", "coordinates": [ 129.327652, 35.482403, 10.0 ] } },
{ "type": "Feature", "properties": { "value": 2.6169 }, "geometry": { "type": "Point", "coordinates": [ 129.328766, 35.482399, 10.0 ] } },
{ "type": "Feature", "properties": { "value": 2.2623 }, "geometry": { "type": "Point", "coordinates": [ 129.329865, 35.482395, 10.0 ] } },
{ "type": "Feature", "properties": { "value": 1.6727 }, "geometry": { "type": "Point", "coordinates": [ 129.330963, 35.482391, 10.0 ] } },
{ "type": "Feature", "properties": { "value": 1.0599 }, "geometry": { "type": "Point", "coordinates": [ 129.332062, 35.482391, 10.0 ] } },
{ "type": "Feature", "properties": { "value": 0.5688 }, "geometry": { "type": "Point", "coordinates": [ 129.333176, 35.482388, 10.0 ] } },
{ "type": "Feature", "properties": { "value": 0.2589 }, "geometry": { "type": "Point", "coordinates": [ 129.334274, 35.482384, 10.0 ] } },
{ "type": "Feature", "properties": { "value": 0.0904 }, "geometry": { "type": "Point", "coordinates": [ 129.335373, 35.48238, 10.0 ] } },
{ "type": "Feature", "properties": { "value": 0.0187 }, "geometry": { "type": "Point", "coordinates": [ 129.336472, 35.482376, 10.0 ] } },
{ "type": "Feature", "properties": { "value": 1.0548 }, "geometry": { "type": "Point", "coordinates": [ 129.317749, 35.48333, 10.0 ] } },
{ "type": "Feature", "properties": { "value": 122.15 }, "geometry": { "type": "Point", "coordinates": [ 129.318848, 35.483326, 10.0 ] } },
{ "type": "Feature", "properties": { "value": 439.32 }, "geometry": { "type": "Point", "coordinates": [ 129.319946, 35.483322, 10.0 ] } },
{ "type": "Feature", "properties": { "value": 303.16 }, "geometry": { "type": "Point", "coordinates": [ 129.321045, 35.483322, 10.0 ] } },
{ "type": "Feature", "properties": { "value": 0.1304 }, "geometry": { "type": "Point", "coordinates": [ 129.322159, 35.483318, 10.0 ] } },
{ "type": "Feature", "properties": { "value": 0.2943 }, "geometry": { "type": "Point", "coordinates": [ 129.323257, 35.483315, 10.0 ] } },
{ "type": "Feature", "properties": { "value": 0.5559 }, "geometry": { "type": "Point", "coordinates": [ 129.324356, 35.483311, 10.0 ] } },
{ "type": "Feature", "properties": { "value": 0.9172 }, "geometry": { "type": "Point", "coordinates": [ 129.325455, 35.483311, 10.0 ] } },
{ "type": "Feature", "properties": { "value": 1.2748 }, "geometry": { "type": "Point", "coordinates": [ 129.326553, 35.483307, 10.0 ] } },
{ "type": "Feature", "properties": { "value": 1.5197 }, "geometry": { "type": "Point", "coordinates": [ 129.327667, 35.483303, 10.0 ] } },
{ "type": "Feature", "properties": { "value": 1.5441 }, "geometry": { "type": "Point", "coordinates": [ 129.328766, 35.483299, 10.0 ] } },
{ "type": "Feature", "properties": { "value": 1.3375 }, "geometry": { "type": "Point", "coordinates": [ 129.329865, 35.483295, 10.0 ] } },
{ "type": "Feature", "properties": { "value": 0.9964 }, "geometry": { "type": "Point", "coordinates": [ 129.330963, 35.483295, 10.0 ] } },
{ "type": "Feature", "properties": { "value": 0.6315 }, "geometry": { "type": "Point", "coordinates": [ 129.332077, 35.483292, 10.0 ] } },
{ "type": "Feature", "properties": { "value": 0.3433 }, "geometry": { "type": "Point", "coordinates": [ 129.333176, 35.483288, 10.0 ] } },
{ "type": "Feature", "properties": { "value": 0.1565 }, "geometry": { "type": "Point", "coordinates": [ 129.334274, 35.483284, 10.0 ] } },
{ "type": "Feature", "properties": { "value": 0.0512 }, "geometry": { "type": "Point", "coordinates": [ 129.335373, 35.48328, 10.0 ] } },
{ "type": "Feature", "properties": { "value": 0.0054 }, "geometry": { "type": "Point", "coordinates": [ 129.336472, 35.48328, 10.0 ] } },
{ "type": "Feature", "properties": { "value": 0.7414 }, "geometry": { "type": "Point", "coordinates": [ 129.31665, 35.484234, 10.0 ] } },
{ "type": "Feature", "properties": { "value": 30.261 }, "geometry": { "type": "Point", "coordinates": [ 129.317749, 35.48423, 10.0 ] } },
{ "type": "Feature", "properties": { "value": 233.06 }, "geometry": { "type": "Point", "coordinates": [ 129.318848, 35.48423, 10.0 ] } },
{ "type": "Feature", "properties": { "value": 307.98 }, "geometry": { "type": "Point", "coordinates": [ 129.319946, 35.484226, 10.0 ] } },
{ "type": "Feature", "properties": { "value": 46.256 }, "geometry": { "type": "Point", "coordinates": [ 129.32106, 35.484222, 10.0 ] } },
{ "type": "Feature", "properties": { "value": 0.0651 }, "geometry": { "type": "Point", "coordinates": [ 129.322159, 35.484219, 10.0 ] } },
{ "type": "Feature", "properties": { "value": 0.1488 }, "geometry": { "type": "Point", "coordinates": [ 129.323257, 35.484215, 10.0 ] } },
{ "type": "Feature", "properties": { "value": 0.2951 }, "geometry": { "type": "Point", "coordinates": [ 129.324356, 35.484215, 10.0 ] } },
{ "type": "Feature", "properties": { "value": 0.4879 }, "geometry": { "type": "Point", "coordinates": [ 129.325455, 35.484211, 10.0 ] } },
{ "type": "Feature", "properties": { "value": 0.6751 }, "geometry": { "type": "Point", "coordinates": [ 129.326569, 35.484207, 10.0 ] } },
{ "type": "Feature", "properties": { "value": 0.8008 }, "geometry": { "type": "Point", "coordinates": [ 129.327667, 35.484203, 10.0 ] } },
{ "type": "Feature", "properties": { "value": 0.8142 }, "geometry": { "type": "Point", "coordinates": [ 129.328766, 35.484203, 10.0 ] } },
{ "type": "Feature", "properties": { "value": 0.7089 }, "geometry": { "type": "Point", "coordinates": [ 129.329865, 35.4842, 10.0 ] } },
{ "type": "Feature", "properties": { "value": 0.53 }, "geometry": { "type": "Point", "coordinates": [ 129.330978, 35.484196, 10.0 ] } },
{ "type": "Feature", "properties": { "value": 0.3322 }, "geometry": { "type": "Point", "coordinates": [ 129.332077, 35.484192, 10.0 ] } },
{ "type": "Feature", "properties": { "value": 0.1837 }, "geometry": { "type": "Point", "coordinates": [ 129.333176, 35.484188, 10.0 ] } },
{ "type": "Feature", "properties": { "value": 0.0828 }, "geometry": { "type": "Point", "coordinates": [ 129.334274, 35.484188, 10.0 ] } },
{ "type": "Feature", "properties": { "value": 0.0228 }, "geometry": { "type": "Point", "coordinates": [ 129.335373, 35.484184, 10.0 ] } },
{ "type": "Feature", "properties": { "value": 0.5354 }, "geometry": { "type": "Point", "coordinates": [ 129.315552, 35.485138, 10.0 ] } },
{ "type": "Feature", "properties": { "value": 12.129 }, "geometry": { "type": "Point", "coordinates": [ 129.31665, 35.485134, 10.0 ] } },
{ "type": "Feature", "properties": { "value": 101.12 }, "geometry": { "type": "Point", "coordinates": [ 129.317749, 35.485134, 10.0 ] } },
{ "type": "Feature", "properties": { "value": 225.85 }, "geometry": { "type": "Point", "coordinates": [ 129.318848, 35.48513, 10.0 ] } },
{ "type": "Feature", "properties": { "value": 150.72 }, "geometry": { "type": "Point", "coordinates": [ 129.319962, 35.485126, 10.0 ] } },
{ "type": "Feature", "properties": { "value": 7.0314 }, "geometry": { "type": "Point", "coordinates": [ 129.32106, 35.485123, 10.0 ] } },
{ "type": "Feature", "properties": { "value": 0.0243 }, "geometry": { "type": "Point", "coordinates": [ 129.322159, 35.485119, 10.0 ] } },
{ "type": "Feature", "properties": { "value": 0.0668 }, "geometry": { "type": "Point", "coordinates": [ 129.323257, 35.485119, 10.0 ] } },
{ "type": "Feature", "properties": { "value": 0.1375 }, "geometry": { "type": "Point", "coordinates": [ 129.324371, 35.485115, 10.0 ] } },
{ "type": "Feature", "properties": { "value": 0.23 }, "geometry": { "type": "Point", "coordinates": [ 129.32547, 35.485111, 10.0 ] } },
{ "type": "Feature", "properties": { "value": 0.317 }, "geometry": { "type": "Point", "coordinates": [ 129.326569, 35.485107, 10.0 ] } },
{ "type": "Feature", "properties": { "value": 0.3754 }, "geometry": { "type": "Point", "coordinates": [ 129.327667, 35.485107, 10.0 ] } },
{ "type": "Feature", "properties": { "value": 0.3815 }, "geometry": { "type": "Point", "coordinates": [ 129.328766, 35.485104, 10.0 ] } },
{ "type": "Feature", "properties": { "value": 0.3327 }, "geometry": { "type": "Point", "coordinates": [ 129.32988, 35.4851, 10.0 ] } },
{ "type": "Feature", "properties": { "value": 0.2497 }, "geometry": { "type": "Point", "coordinates": [ 129.330978, 35.485096, 10.0 ] } },
{ "type": "Feature", "properties": { "value": 0.1546 }, "geometry": { "type": "Point", "coordinates": [ 129.332077, 35.485092, 10.0 ] } },
{ "type": "Feature", "properties": { "value": 0.0822 }, "geometry": { "type": "Point", "coordinates": [ 129.333176, 35.485092, 10.0 ] } },
{ "type": "Feature", "properties": { "value": 0.0335 }, "geometry": { "type": "Point", "coordinates": [ 129.334274, 35.485088, 10.0 ] } },
{ "type": "Feature", "properties": { "value": 0.0055 }, "geometry": { "type": "Point", "coordinates": [ 129.335388, 35.485085, 10.0 ] } },
{ "type": "Feature", "properties": { "value": 0.455 }, "geometry": { "type": "Point", "coordinates": [ 129.314453, 35.486042, 10.0 ] } },
{ "type": "Feature", "properties": { "value": 6.5719 }, "geometry": { "type": "Point", "coordinates": [ 129.315552, 35.486038, 10.0 ] } },
{ "type": "Feature", "properties": { "value": 47.967 }, "geometry": { "type": "Point", "coordinates": [ 129.31665, 35.486038, 10.0 ] } },
{ "type": "Feature", "properties": { "value": 144.24 }, "geometry": { "type": "Point", "coordinates": [ 129.317749, 35.486034, 10.0 ] } },
{ "type": "Feature", "properties": { "value": 162.91 }, "geometry": { "type": "Point", "coordinates": [ 129.318863, 35.486031, 10.0 ] } },
{ "type": "Feature", "properties": { "value": 50.966 }, "geometry": { "type": "Point", "coordinates": [ 129.319962, 35.486027, 10.0 ] } },
{ "type": "Feature", "properties": { "value": 1.2862 }, "geometry": { "type": "Point", "coordinates": [ 129.32106, 35.486027, 10.0 ] } },
{ "type": "Feature", "properties": { "value": 0.0055 }, "geometry": { "type": "Point", "coordinates": [ 129.322159, 35.486023, 10.0 ] } },
{ "type": "Feature", "properties": { "value": 0.024 }, "geometry": { "type": "Point", "coordinates": [ 129.323273, 35.486019, 10.0 ] } },
{ "type": "Feature", "properties": { "value": 0.0549 }, "geometry": { "type": "Point", "coordinates": [ 129.324371, 35.486015, 10.0 ] } },
{ "type": "Feature", "properties": { "value": 0.0914 }, "geometry": { "type": "Point", "coordinates": [ 129.32547, 35.486012, 10.0 ] } },
{ "type": "Feature", "properties": { "value": 0.1305 }, "geometry": { "type": "Point", "coordinates": [ 129.326569, 35.486012, 10.0 ] } },
{ "type": "Feature", "properties": { "value": 0.1542 }, "geometry": { "type": "Point", "coordinates": [ 129.327667, 35.486008, 10.0 ] } },
{ "type": "Feature", "properties": { "value": 0.1566 }, "geometry": { "type": "Point", "coordinates": [ 129.328781, 35.486004, 10.0 ] } },
{ "type": "Feature", "properties": { "value": 0.1369 }, "geometry": { "type": "Point", "coordinates": [ 129.32988, 35.486, 10.0 ] } },
{ "type": "Feature", "properties": { "value": 0.0992 }, "geometry": { "type": "Point", "coordinates": [ 129.330978, 35.485996, 10.0 ] } },
{ "type": "Feature", "properties": { "value": 0.0616 }, "geometry": { "type": "Point", "coordinates": [ 129.332077, 35.485996, 10.0 ] } },
{ "type": "Feature", "properties": { "value": 0.0276 }, "geometry": { "type": "Point", "coordinates": [ 129.333176, 35.485992, 10.0 ] } },
{ "type": "Feature", "properties": { "value": 0.0064 }, "geometry": { "type": "Point", "coordinates": [ 129.33429, 35.485989, 10.0 ] } },
{ "type": "Feature", "properties": { "value": 0.3692 }, "geometry": { "type": "Point", "coordinates": [ 129.313354, 35.486946, 10.0 ] } },
{ "type": "Feature", "properties": { "value": 4.2926 }, "geometry": { "type": "Point", "coordinates": [ 129.314453, 35.486942, 10.0 ] } },
{ "type": "Feature", "properties": { "value": 26.532 }, "geometry": { "type": "Point", "coordinates": [ 129.315552, 35.486942, 10.0 ] } },
{ "type": "Feature", "properties": { "value": 88.343 }, "geometry": { "type": "Point", "coordinates": [ 129.31665, 35.486938, 10.0 ] } },
{ "type": "Feature", "properties": { "value": 138.8 }, "geometry": { "type": "Point", "coordinates": [ 129.317764, 35.486935, 10.0 ] } },
{ "type": "Feature", "properties": { "value": 90.004 }, "geometry": { "type": "Point", "coordinates": [ 129.318863, 35.486931, 10.0 ] } },
{ "type": "Feature", "properties": { "value": 14.891 }, "geometry": { "type": "Point", "coordinates": [ 129.319962, 35.486931, 10.0 ] } },
{ "type": "Feature", "properties": { "value": 0.2587 }, "geometry": { "type": "Point", "coordinates": [ 129.32106, 35.486927, 10.0 ] } },
{ "type": "Feature", "properties": { "value": 0.0049 }, "geometry": { "type": "Point", "coordinates": [ 129.323273, 35.486919, 10.0 ] } },
{ "type": "Feature", "properties": { "value": 0.0176 }, "geometry": { "type": "Point", "coordinates": [ 129.324371, 35.486916, 10.0 ] } },
{ "type": "Feature", "properties": { "value": 0.0278 }, "geometry": { "type": "Point", "coordinates": [ 129.32547, 35.486916, 10.0 ] } },
{ "type": "Feature", "properties": { "value": 0.0461 }, "geometry": { "type": "Point", "coordinates": [ 129.326569, 35.486912, 10.0 ] } },
{ "type": "Feature", "properties": { "value": 0.0544 }, "geometry": { "type": "Point", "coordinates": [ 129.327682, 35.486908, 10.0 ] } },
{ "type": "Feature", "properties": { "value": 0.0553 }, "geometry": { "type": "Point", "coordinates": [ 129.328781, 35.486904, 10.0 ] } },
{ "type": "Feature", "properties": { "value": 0.0484 }, "geometry": { "type": "Point", "coordinates": [ 129.32988, 35.486904, 10.0 ] } },
{ "type": "Feature", "properties": { "value": 0.0301 }, "geometry": { "type": "Point", "coordinates": [ 129.330978, 35.4869, 10.0 ] } },
{ "type": "Feature", "properties": { "value": 0.0197 }, "geometry": { "type": "Point", "coordinates": [ 129.332092, 35.486897, 10.0 ] } },
{ "type": "Feature", "properties": { "value": 0.0055 }, "geometry": { "type": "Point", "coordinates": [ 129.333191, 35.486893, 10.0 ] } },
{ "type": "Feature", "properties": { "value": 0.3513 }, "geometry": { "type": "Point", "coordinates": [ 129.312256, 35.48785, 10.0 ] } },
{ "type": "Feature", "properties": { "value": 3.0762 }, "geometry": { "type": "Point", "coordinates": [ 129.313354, 35.487846, 10.0 ] } },
{ "type": "Feature", "properties": { "value": 16.643 }, "geometry": { "type": "Point", "coordinates": [ 129.314453, 35.487846, 10.0 ] } },
{ "type": "Feature", "properties": { "value": 56.558 }, "geometry": { "type": "Point", "coordinates": [ 129.315552, 35.487843, 10.0 ] } },
{ "type": "Feature", "properties": { "value": 106.25 }, "geometry": { "type": "Point", "coordinates": [ 129.316666, 35.487839, 10.0 ] } },
{ "type": "Feature", "properties": { "value": 100.06 }, "geometry": { "type": "Point", "coordinates": [ 129.317764, 35.487835, 10.0 ] } },
{ "type": "Feature", "properties": { "value": 39.187 }, "geometry": { "type": "Point", "coordinates": [ 129.318863, 35.487835, 10.0 ] } },
{ "type": "Feature", "properties": { "value": 4.0863 }, "geometry": { "type": "Point", "coordinates": [ 129.319962, 35.487831, 10.0 ] } },
{ "type": "Feature", "properties": { "value": 0.0051 }, "geometry": { "type": "Point", "coordinates": [ 129.32547, 35.487816, 10.0 ] } },
{ "type": "Feature", "properties": { "value": 0.007 }, "geometry": { "type": "Point", "coordinates": [ 129.326584, 35.487812, 10.0 ] } },
{ "type": "Feature", "properties": { "value": 0.012 }, "geometry": { "type": "Point", "coordinates": [ 129.327682, 35.487808, 10.0 ] } },
{ "type": "Feature", "properties": { "value": 0.0122 }, "geometry": { "type": "Point", "coordinates": [ 129.328781, 35.487808, 10.0 ] } },
{ "type": "Feature", "properties": { "value": 0.0072 }, "geometry": { "type": "Point", "coordinates": [ 129.32988, 35.487804, 10.0 ] } },
{ "type": "Feature", "properties": { "value": 0.0055 }, "geometry": { "type": "Point", "coordinates": [ 129.330994, 35.487801, 10.0 ] } },
{ "type": "Feature", "properties": { "value": 0.0036 }, "geometry": { "type": "Point", "coordinates": [ 129.332092, 35.487797, 10.0 ] } },
{ "type": "Feature", "properties": { "value": 0.3117 }, "geometry": { "type": "Point", "coordinates": [ 129.311157, 35.488754, 10.0 ] } },
{ "type": "Feature", "properties": { "value": 2.2131 }, "geometry": { "type": "Point", "coordinates": [ 129.312256, 35.48875, 10.0 ] } },
{ "type": "Feature", "properties": { "value": 10.834 }, "geometry": { "type": "Point", "coordinates": [ 129.313354, 35.48875, 10.0 ] } },
{ "type": "Feature", "properties": { "value": 36.602 }, "geometry": { "type": "Point", "coordinates": [ 129.314453, 35.488747, 10.0 ] } },
{ "type": "Feature", "properties": { "value": 77.279 }, "geometry": { "type": "Point", "coordinates": [ 129.315567, 35.488743, 10.0 ] } },
{ "type": "Feature", "properties": { "value": 94.143 }, "geometry": { "type": "Point", "coordinates": [ 129.316666, 35.488739, 10.0 ] } },
{ "type": "Feature", "properties": { "value": 58.457 }, "geometry": { "type": "Point", "coordinates": [ 129.317764, 35.488739, 10.0 ] } },
{ "type": "Feature", "properties": { "value": 14.785 }, "geometry": { "type": "Point", "coordinates": [ 129.318863, 35.488735, 10.0 ] } },
{ "type": "Feature", "properties": { "value": 1.095 }, "geometry": { "type": "Point", "coordinates": [ 129.319977, 35.488731, 10.0 ] } },
{ "type": "Feature", "properties": { "value": 0.1531 }, "geometry": { "type": "Point", "coordinates": [ 129.310059, 35.489658, 10.0 ] } },
{ "type": "Feature", "properties": { "value": 1.3694 }, "geometry": { "type": "Point", "coordinates": [ 129.311157, 35.489655, 10.0 ] } },
{ "type": "Feature", "properties": { "value": 6.7432 }, "geometry": { "type": "Point", "coordinates": [ 129.312256, 35.489655, 10.0 ] } },
{ "type": "Feature", "properties": { "value": 23.042 }, "geometry": { "type": "Point", "coordinates": [ 129.313354, 35.489651, 10.0 ] } },
{ "type": "Feature", "properties": { "value": 53.304 }, "geometry": { "type": "Point", "coordinates": [ 129.314468, 35.489647, 10.0 ] } },
{ "type": "Feature", "properties": { "value": 77.321 }, "geometry": { "type": "Point", "coordinates": [ 129.315567, 35.489643, 10.0 ] } },
{ "type": "Feature", "properties": { "value": 64.789 }, "geometry": { "type": "Point", "coordinates": [ 129.316666, 35.489643, 10.0 ] } },
{ "type": "Feature", "properties": { "value": 27.826 }, "geometry": { "type": "Point", "coordinates": [ 129.317764, 35.489639, 10.0 ] } },
{ "type": "Feature", "properties": { "value": 4.9905 }, "geometry": { "type": "Point", "coordinates": [ 129.318878, 35.489635, 10.0 ] } },
{ "type": "Feature", "properties": { "value": 0.1943 }, "geometry": { "type": "Point", "coordinates": [ 129.319977, 35.489632, 10.0 ] } },
{ "type": "Feature", "properties": { "value": 0.4754 }, "geometry": { "type": "Point", "coordinates": [ 129.310059, 35.490559, 10.0 ] } },
{ "type": "Feature", "properties": { "value": 3.1216 }, "geometry": { "type": "Point", "coordinates": [ 129.311157, 35.490559, 10.0 ] } },
{ "type": "Feature", "properties": { "value": 12.309 }, "geometry": { "type": "Point", "coordinates": [ 129.312271, 35.490555, 10.0 ] } },
{ "type": "Feature", "properties": { "value": 32.237 }, "geometry": { "type": "Point", "coordinates": [ 129.31337, 35.490551, 10.0 ] } },
{ "type": "Feature", "properties": { "value": 55.411 }, "geometry": { "type": "Point", "coordinates": [ 129.314468, 35.490547, 10.0 ] } },
{ "type": "Feature", "properties": { "value": 59.386 }, "geometry": { "type": "Point", "coordinates": [ 129.315567, 35.490547, 10.0 ] } },
{ "type": "Feature", "properties": { "value": 36.335 }, "geometry": { "type": "Point", "coordinates": [ 129.316666, 35.490543, 10.0 ] } },
{ "type": "Feature", "properties": { "value": 11.394 }, "geometry": { "type": "Point", "coordinates": [ 129.31778, 35.49054, 10.0 ] } },
{ "type": "Feature", "properties": { "value": 1.5395 }, "geometry": { "type": "Point", "coordinates": [ 129.318878, 35.490536, 10.0 ] } },
{ "type": "Feature", "properties": { "value": 0.0433 }, "geometry": { "type": "Point", "coordinates": [ 129.30896, 35.491463, 10.0 ] } },
{ "type": "Feature", "properties": { "value": 0.7107 }, "geometry": { "type": "Point", "coordinates": [ 129.310059, 35.491463, 10.0 ] } },
{ "type": "Feature", "properties": { "value": 4.1026 }, "geometry": { "type": "Point", "coordinates": [ 129.311172, 35.491459, 10.0 ] } },
{ "type": "Feature", "properties": { "value": 14.096 }, "geometry": { "type": "Point", "coordinates": [ 129.312271, 35.491455, 10.0 ] } },
{ "type": "Feature", "properties": { "value": 30.723 }, "geometry": { "type": "Point", "coordinates": [ 129.31337, 35.491451, 10.0 ] } },
{ "type": "Feature", "properties": { "value": 42.42 }, "geometry": { "type": "Point", "coordinates": [ 129.314468, 35.491451, 10.0 ] } },
{ "type": "Feature", "properties": { "value": 35.653 }, "geometry": { "type": "Point", "coordinates": [ 129.315567, 35.491447, 10.0 ] } },
{ "type": "Feature", "properties": { "value": 17.071 }, "geometry": { "type": "Point", "coordinates": [ 129.316681, 35.491444, 10.0 ] } },
{ "type": "Feature", "properties": { "value": 4.1843 }, "geometry": { "type": "Point", "coordinates": [ 129.31778, 35.49144, 10.0 ] } },
{ "type": "Feature", "properties": { "value": 0.4061 }, "geometry": { "type": "Point", "coordinates": [ 129.318878, 35.49144, 10.0 ] } },
{ "type": "Feature", "properties": { "value": 0.0439 }, "geometry": { "type": "Point", "coordinates": [ 129.30896, 35.492367, 10.0 ] } },
{ "type": "Feature", "properties": { "value": 0.627 }, "geometry": { "type": "Point", "coordinates": [ 129.310074, 35.492363, 10.0 ] } },
{ "type": "Feature", "properties": { "value": 3.3205 }, "geometry": { "type": "Point", "coordinates": [ 129.311172, 35.492359, 10.0 ] } },
{ "type": "Feature", "properties": { "value": 10.405 }, "geometry": { "type": "Point", "coordinates": [ 129.312271, 35.492355, 10.0 ] } },
{ "type": "Feature", "properties": { "value": 19.98 }, "geometry": { "type": "Point", "coordinates": [ 129.31337, 35.492355, 10.0 ] } },
{ "type": "Feature", "properties": { "value": 23.663 }, "geometry": { "type": "Point", "coordinates": [ 129.314468, 35.492352, 10.0 ] } },
{ "type": "Feature", "properties": { "value": 16.839 }, "geometry": { "type": "Point", "coordinates": [ 129.315582, 35.492348, 10.0 ] } },
{ "type": "Feature", "properties": { "value": 6.7401 }, "geometry": { "type": "Point", "coordinates": [ 129.316681, 35.492344, 10.0 ] } },
{ "type": "Feature", "properties": { "value": 1.3867 }, "geometry": { "type": "Point", "coordinates": [ 129.31778, 35.492344, 10.0 ] } },
{ "type": "Feature", "properties": { "value": 0.0261 }, "geometry": { "type": "Point", "coordinates": [ 129.308975, 35.493267, 10.0 ] } },
{ "type": "Feature", "properties": { "value": 0.3172 }, "geometry": { "type": "Point", "coordinates": [ 129.310074, 35.493263, 10.0 ] } },
{ "type": "Feature", "properties": { "value": 1.6365 }, "geometry": { "type": "Point", "coordinates": [ 129.311172, 35.493259, 10.0 ] } },
{ "type": "Feature", "properties": { "value": 4.8589 }, "geometry": { "type": "Point", "coordinates": [ 129.312271, 35.493259, 10.0 ] } },
{ "type": "Feature", "properties": { "value": 8.6297 }, "geometry": { "type": "Point", "coordinates": [ 129.31337, 35.493256, 10.0 ] } },
{ "type": "Feature", "properties": { "value": 9.2597 }, "geometry": { "type": "Point", "coordinates": [ 129.314484, 35.493252, 10.0 ] } },
{ "type": "Feature", "properties": { "value": 5.8634 }, "geometry": { "type": "Point", "coordinates": [ 129.315582, 35.493248, 10.0 ] } },
{ "type": "Feature", "properties": { "value": 2.0996 }, "geometry": { "type": "Point", "coordinates": [ 129.316681, 35.493248, 10.0 ] } },
{ "type": "Feature", "properties": { "value": 0.3896 }, "geometry": { "type": "Point", "coordinates": [ 129.31778, 35.493244, 10.0 ] } },
{ "type": "Feature", "properties": { "value": 0.0923 }, "geometry": { "type": "Point", "coordinates": [ 129.310074, 35.494164, 10.0 ] } },
{ "type": "Feature", "properties": { "value": 0.4733 }, "geometry": { "type": "Point", "coordinates": [ 129.311172, 35.494164, 10.0 ] } },
{ "type": "Feature", "properties": { "value": 1.3825 }, "geometry": { "type": "Point", "coordinates": [ 129.312271, 35.49416, 10.0 ] } },
{ "type": "Feature", "properties": { "value": 2.3642 }, "geometry": { "type": "Point", "coordinates": [ 129.313385, 35.494156, 10.0 ] } },
{ "type": "Feature", "properties": { "value": 2.3941 }, "geometry": { "type": "Point", "coordinates": [ 129.314484, 35.494152, 10.0 ] } },
{ "type": "Feature", "properties": { "value": 1.4126 }, "geometry": { "type": "Point", "coordinates": [ 129.315582, 35.494152, 10.0 ] } },
{ "type": "Feature", "properties": { "value": 0.4644 }, "geometry": { "type": "Point", "coordinates": [ 129.316681, 35.494148, 10.0 ] } },
{ "type": "Feature", "properties": { "value": 0.06 }, "geometry": { "type": "Point", "coordinates": [ 129.311172, 35.495064, 10.0 ] } },
{ "type": "Feature", "properties": { "value": 0.2392 }, "geometry": { "type": "Point", "coordinates": [ 129.312286, 35.49506, 10.0 ] } },
{ "type": "Feature", "properties": { "value": 0.3841 }, "geometry": { "type": "Point", "coordinates": [ 129.313385, 35.495056, 10.0 ] } },
{ "type": "Feature", "properties": { "value": 0.3604 }, "geometry": { "type": "Point", "coordinates": [ 129.314484, 35.495056, 10.0 ] } },
{ "type": "Feature", "properties": { "value": 0.1968 }, "geometry": { "type": "Point", "coordinates": [ 129.315582, 35.495052, 10.0 ] } },
{ "type": "Feature", "properties": { "value": 0.0307 }, "geometry": { "type": "Point", "coordinates": [ 129.316696, 35.495049, 10.0 ] } },
{ "type": "Feature", "properties": { "value": 0.0274 }, "geometry": { "type": "Point", "coordinates": [ 129.313385, 35.49596, 10.0 ] } },
{ "type": "Feature", "properties": { "value": 0.0239 }, "geometry": { "type": "Point", "coordinates": [ 129.314484, 35.495956, 10.0 ] } }
]
}
