{
"type": "FeatureCollection",
"features": [
{ "type": "Feature", "properties": { "value": 0.0 }, "geometry": { "type": "Point", "coordinates": [ 129.328705, 35.467979, 225.0 ] } },
{ "type": "Feature", "properties": { "value": 0.0 }, "geometry": { "type": "Point", "coordinates": [ 129.327606, 35.468884, 225.0 ] } },
{ "type": "Feature", "properties": { "value": 0.0 }, "geometry": { "type": "Point", "coordinates": [ 129.328705, 35.46888, 225.0 ] } },
{ "type": "Feature", "properties": { "value": 0.0 }, "geometry": { "type": "Point", "coordinates": [ 129.327606, 35.469784, 225.0 ] } },
{ "type": "Feature", "properties": { "value": 0.0 }, "geometry": { "type": "Point", "coordinates": [ 129.328705, 35.46978, 225.0 ] } },
{ "type": "Feature", "properties": { "value": 0.0 }, "geometry": { "type": "Point", "coordinates": [ 129.329819, 35.469776, 225.0 ] } },
{ "type": "Feature", "properties": { "value": 0.0 }, "geometry": { "type": "Point", "coordinates": [ 129.326508, 35.470688, 225.0 ] } },
{ "type": "Feature", "properties": { "value": 0.0 }, "geometry": { "type": "Point", "coordinates": [ 129.327606, 35.470684, 225.0 ] } },
{ "type": "Feature", "properties": { "value": 0.0 }, "geometry": { "type": "Point", "coordinates": [ 129.32872, 35.470684, 225.0 ] } },
{ "type": "Feature", "properties": { "value": 0.0 }, "geometry": { "type": "Point", "coordinates": [ 129.329819, 35.47068, 225.0 ] } },
{ "type": "Feature", "properties": { "value": 0.0 }, "geometry": { "type": "Point", "coordinates": [ 129.326508, 35.471588, 225.0 ] } },
{ "type": "Feature", "properties": { "value": 0.0 }, "geometry": { "type": "Point", "coordinates": [ 129.327621, 35.471588, 225.0 ] } },
{ "type": "Feature", "properties": { "value": 0.0 }, "geometry": { "type": "Point", "coordinates": [ 129.32872, 35.471584, 225.0 ] } },
{ "type": "Feature", "properties": { "value": 0.0 }, "geometry": { "type": "Point", "coordinates": [ 129.326523, 35.472492, 225.0 ] } },
{ "type": "Feature", "properties": { "value": 0.0 }, "geometry": { "type": "Point", "coordinates": [ 129.327621, 35.472488, 225.0 ] } },
{ "type": "Feature", "properties": { "value": 0.0 }, "geometry": { "type": "Point", "coordinates": [ 129.326523, 35.473392, 225.0 ] } },
{ "type": "Feature", "properties": { "value": 0.0 }, "geometry": { "type": "Point", "coordinates": [ 129.327621, 35.473389, 225.0 ] } },
{ "type": "Feature", "properties": { "value": 0.0 }, "geometry": { "type": "Point", "coordinates": [ 129.32872, 35.473385, 225.0 ] } },
{ "type": "Feature", "properties": { "value": 0.0 }, "geometry": { "type": "Point", "coordinates": [ 129.326523, 35.474293, 225.0 ] } },
{ "type": "Feature", "properties": { "value": 0.0 }, "geometry": { "type": "Point", "coordinates": [ 129.327621, 35.474289, 225.0 ] } },
{ "type": "Feature", "properties": { "value": 0.0 }, "geometry": { "type": "Point", "coordinates": [ 129.328735, 35.474289, 225.0 ] } },
{ "type": "Feature", "properties": { "value": 0.0 }, "geometry": { "type": "Point", "coordinates": [ 129.329834, 35.474285, 225.0 ] } },
{ "type": "Feature", "properties": { "value": 0.0 }, "geometry": { "type": "Point", "coordinates": [ 129.326523, 35.475193, 225.0 ] } },
{ "type": "Feature", "properties": { "value": 0.0 }, "geometry": { "type": "Point", "coordinates": [ 129.327637, 35.475193, 225.0 ] } },
{ "type": "Feature", "properties": { "value": 0.0 }, "geometry": { "type": "Point", "coordinates": [ 129.328735, 35.475189, 225.0 ] } },
{ "type": "Feature", "properties": { "value": 0.0 }, "geometry": { "type": "Point", "coordinates": [ 129.329834, 35.475185, 225.0 ] } },
{ "type": "Feature", "properties": { "value": 0.0 }, "geometry": { "type": "Point", "coordinates": [ 129.326538, 35.476097, 225.0 ] } },
{ "type": "Feature", "properties": { "value": 0.0001 }, "geometry": { "type": "Point", "coordinates": [ 129.327637, 35.476093, 225.0 ] } },
{ "type": "Feature", "properties": { "value": 0.0001 }, "geometry": { "type": "Point", "coordinates": [ 129.328735, 35.476089, 225.0 ] } },
{ "type": "Feature", "properties": { "value": 0.0001 }, "geometry": { "type": "Point", "coordinates": [ 129.329834, 35.476086, 225.0 ] } },
{ "type": "Feature", "properties": { "value": 0.0001 }, "geometry": { "type": "Point", "coordinates": [ 129.326538, 35.476997, 225.0 ] } },
{ "type": "Feature", "properties": { "value": 0.0015 }, "geometry": { "type": "Point", "coordinates": [ 129.327637, 35.476994, 225.0 ] } },
{ "type": "Feature", "properties": { "value": 0.0021 }, "geometry": { "type": "Point", "coordinates": [ 129.328735, 35.47699, 225.0 ] } },
{ "type": "Feature", "properties": { "value": 0.0007 }, "geometry": { "type": "Point", "coordinates": [ 129.329834, 35.47699, 225.0 ] } },
{ "type": "Feature", "properties": { "value": 0.0017 }, "geometry": { "type": "Point", "coordinates": [ 129.326538, 35.477898, 225.0 ] } },
{ "type": "Feature", "properties": { "value": 0.0195 }, "geometry": { "type": "Point", "coordinates": [ 129.327637, 35.477894, 225.0 ] } },
{ "type": "Feature", "properties": { "value": 0.0209 }, "geometry": { "type": "Point", "coordinates": [ 129.328735, 35.477894, 225.0 ] } },
{ "type": "Feature", "properties": { "value": 0.0042 }, "geometry": { "type": "Point", "coordinates": [ 129.329849, 35.47789, 225.0 ] } },
{ "type": "Feature", "properties": { "value": 0.0002 }, "geometry": { "type": "Point", "coordinates": [ 129.325439, 35.478802, 225.0 ] } },
{ "type": "Feature", "properties": { "value": 0.0131 }, "geometry": { "type": "Point", "coordinates": [ 129.326538, 35.478798, 225.0 ] } },
{ "type": "Feature", "properties": { "value": 0.0786 }, "geometry": { "type": "Point", "coordinates": [ 129.327637, 35.478798, 225.0 ] } },
{ "type": "Feature", "properties": { "value": 0.0714 }, "geometry": { "type": "Point", "coordinates": [ 129.328751, 35.478794, 225.0 ] } },
{ "type": "Feature", "properties": { "value": 0.0119 }, "geometry": { "type": "Point", "coordinates": [ 129.329849, 35.47879, 225.0 ] } },
{ "type": "Feature", "properties": { "value": 0.0014 }, "geometry": { "type": "Point", "coordinates": [ 129.325439, 35.479706, 225.0 ] } },
{ "type": "Feature", "properties": { "value": 0.0248 }, "geometry": { "type": "Point", "coordinates": [ 129.326553, 35.479702, 225.0 ] } },
{ "type": "Feature", "properties": { "value": 0.0815 }, "geometry": { "type": "Point", "coordinates": [ 129.327652, 35.479698, 225.0 ] } },
{ "type": "Feature", "properties": { "value": 0.076 }, "geometry": { "type": "Point", "coordinates": [ 129.328751, 35.479694, 225.0 ] } },
{ "type": "Feature", "properties": { "value": 0.0164 }, "geometry": { "type": "Point", "coordinates": [ 129.329849, 35.479691, 225.0 ] } },
{ "type": "Feature", "properties": { "value": 0.0016 }, "geometry": { "type": "Point", "coordinates": [ 129.325455, 35.480606, 225.0 ] } },
{ "type": "Feature", "properties": { "value": 0.0145 }, "geometry": { "type": "Point", "coordinates": [ 129.326553, 35.480602, 225.0 ] } },
{ "type": "Feature", "properties": { "value": 0.0384 }, "geometry": { "type": "Point", "coordinates": [ 129.327652, 35.480598, 225.0 ] } },
{ "type": "Feature", "properties": { "value": 0.0457 }, "geometry": { "type": "Point", "coordinates": [ 129.328751, 35.480595, 225.0 ] } },
{ "type": "Feature", "properties": { "value": 0.0147 }, "geometry": { "type": "Point", "coordinates": [ 129.329849, 35.480595, 225.0 ] } },
{ "type": "Feature", "properties": { "value": 0.0009 }, "geometry": { "type": "Point", "coordinates": [ 129.325455, 35.481506, 225.0 ] } },
{ "type": "Feature", "properties": { "value": 0.0081 }, "geometry": { "type": "Point", "coordinates": [ 129.326553, 35.481503, 225.0 ] } },
{ "type": "Feature", "properties": { "value": 0.031 }, "geometry": { "type": "Point", "coordinates": [ 129.327652, 35.481503, 225.0 ] } },
{ "type": "Feature", "properties": { "value": 0.0443 }, "geometry": { "type": "Point", "coordinates": [ 129.328751, 35.481499, 225.0 ] } },
{ "type": "Feature", "properties": { "value": 0.014 }, "geometry": { "type": "Point", "coordinates": [ 129.329865, 35.481495, 225.0 ] } },
{ "type": "Feature", "properties": { "value": 0.0007 }, "geometry": { "type": "Point", "coordinates": [ 129.325455, 35.482407, 225.0 ] } },
{ "type": "Feature", "properties": { "value": 0.01 }, "geometry": { "type": "Point", "coordinates": [ 129.326553, 35.482407, 225.0 ] } },
{ "type": "Feature", "properties": { "value": 0.0491 }, "geometry": { "type": "Point", "coordinates": [ 129.327652, 35.482403, 225.0 ] } },
{ "type": "Feature", "properties": { "value": 0.0596 }, "geometry": { "type": "Point", "coordinates": [ 129.328766, 35.482399, 225.0 ] } },
{ "type": "Feature", "properties": { "value": 0.0139 }, "geometry": { "type": "Point", "coordinates": [ 129.329865, 35.482395, 225.0 ] } },
{ "type": "Feature", "properties": { "value": 0.0013 }, "geometry": { "type": "Point", "coordinates": [ 129.325455, 35.483311, 225.0 ] } },
{ "type": "Feature", "properties": { "value": 0.0168 }, "geometry": { "type": "Point", "coordinates": [ 129.326553, 35.483307, 225.0 ] } },
{ "type": "Feature", "properties": { "value": 0.0573 }, "geometry": { "type": "Point", "coordinates": [ 129.327667, 35.483303, 225.0 ] } },
{ "type": "Feature", "properties": { "value": 0.0475 }, "geometry": { "type": "Point", "coordinates": [ 129.328766, 35.483299, 225.0 ] } },
{ "type": "Feature", "properties": { "value": 0.0109 }, "geometry": { "type": "Point", "coordinates": [ 129.329865, 35.483295, 225.0 ] } },
{ "type": "Feature", "properties": { "value": 0.0001 }, "geometry": { "type": "Point", "coordinates": [ 129.324356, 35.484215, 225.0 ] } },
{ "type": "Feature", "properties": { "value": 0.0028 }, "geometry": { "type": "Point", "coordinates": [ 129.325455, 35.484211, 225.0 ] } },
{ "type": "Feature", "properties": { "value": 0.0228 }, "geometry": { "type": "Point", "coordinates": [ 129.326569, 35.484207, 225.0 ] } },
{ "type": "Feature", "properties": { "value": 0.0441 }, "geometry": { "type": "Point", "coordinates": [ 129.327667, 35.484203, 225.0 ] } },
{ "type": "Feature", "properties": { "value": 0.0292 }, "geometry": { "type": "Point", "coordinates": [ 129.328766, 35.484203, 225.0 ] } },
{ "type": "Feature", "properties": { "value": 0.0082 }, "geometry": { "type": "Point", "coordinates": [ 129.329865, 35.4842, 225.0 ] } },
{ "type": "Feature", "properties": { "value": 0.0006 }, "geometry": { "type": "Point", "coordinates": [ 129.324371, 35.485115, 225.0 ] } },
{ "type": "Feature", "properties": { "value": 0.0077 }, "geometry": { "type": "Point", "coordinates": [ 129.32547, 35.485111, 225.0 ] } },
{ "type": "Feature", "properties": { "value": 0.0375 }, "geometry": { "type": "Point", "coordinates": [ 129.326569, 35.485107, 225.0 ] } },
{ "type": "Feature", "properties": { "value": 0.0528 }, "geometry": { "type": "Point", "coordinates": [ 129.327667, 35.485107, 225.0 ] } },
{ "type": "Feature", "properties": { "value": 0.0339 }, "geometry": { "type": "Point", "coordinates": [ 129.328766, 35.485104, 225.0 ] } },
{ "type": "Feature", "properties": { "value": 0.0082 }, "geometry": { "type": "Point", "coordinates": [ 129.32988, 35.4851, 225.0 ] } },
{ "type": "Feature", "properties": { "value": 0.0032 }, "geometry": { "type": "Point", "coordinates": [ 129.324371, 35.486015, 225.0 ] } },
{ "type": "Feature", "properties": { "value": 0.0273 }, "geometry": { "type": "Point", "coordinates": [ 129.32547, 35.486012, 225.0 ] } },
{ "type": "Feature", "properties": { "value": 0.0875 }, "geometry": { "type": "Point", "coordinates": [ 129.326569, 35.486012, 225.0 ] } },
{ "type": "Feature", "properties": { "value": 0.1034 }, "geometry": { "type": "Point", "coordinates": [ 129.327667, 35.486008, 225.0 ] } },
{ "type": "Feature", "properties": { "value": 0.0573 }, "geometry": { "type": "Point", "coordinates": [ 129.328781, 35.486004, 225.0 ] } },
{ "type": "Feature", "properties": { "value": 0.0097 }, "geometry": { "type": "Point", "coordinates": [ 129.32988, 35.486, 225.0 ] } },
{ "type": "Feature", "properties": { "value": 0.0002 }, "geometry": { "type": "Point", "coordinates": [ 129.323273, 35.486919, 225.0 ] } },
{ "type": "Feature", "properties": { "value": 0.0097 }, "geometry": { "type": "Point", "coordinates": [ 129.324371, 35.486916, 225.0 ] } },
{ "type": "Feature", "properties": { "value": 0.072 }, "geometry": { "type": "Point", "coordinates": [ 129.32547, 35.486916, 225.0 ] } },
{ "type": "Feature", "properties": { "value": 0.164 }, "geometry": { "type": "Point", "coordinates": [ 129.326569, 35.486912, 225.0 ] } },
{ "type": "Feature", "properties": { "value": 0.151 }, "geometry": { "type": "Point", "coordinates": [ 129.327682, 35.486908, 225.0 ] } },
{ "type": "Feature", "properties": { "value": 0.0639 }, "geometry": { "type": "Point", "coordinates": [ 129.328781, 35.486904, 225.0 ] } },
{ "type": "Feature", "properties": { "value": 0.009 }, "geometry": { "type": "Point", "coordinates": [ 129.32988, 35.486904, 225.0 ] } },
{ "type": "Feature", "properties": { "value": 0.0003 }, "geometry": { "type": "Point", "coordinates": [ 129.323273, 35.48782, 225.0 ] } },
{ "type": "Feature", "properties": { "value": 0.0108 }, "geometry": { "type": "Point", "coordinates": [ 129.324371, 35.48782, 225.0 ] } },
{ "type": "Feature", "properties": { "value": 0.0695 }, "geometry": { "type": "Point", "coordinates": [ 129.32547, 35.487816, 225.0 ] } },
{ "type": "Feature", "properties": { "value": 0.1349 }, "geometry": { "type": "Point", "coordinates": [ 129.326584, 35.487812, 225.0 ] } },
{ "type": "Feature", "properties": { "value": 0.11 }, "geometry": { "type": "Point", "coordinates": [ 129.327682, 35.487808, 225.0 ] } },
{ "type": "Feature", "properties": { "value": 0.0402 }, "geometry": { "type": "Point", "coordinates": [ 129.328781, 35.487808, 225.0 ] } },
{ "type": "Feature", "properties": { "value": 0.0049 }, "geometry": { "type": "Point", "coordinates": [ 129.32988, 35.487804, 225.0 ] } },
{ "type": "Feature", "properties": { "value": 0.0001 }, "geometry": { "type": "Point", "coordinates": [ 129.323273, 35.488724, 225.0 ] } },
{ "type": "Feature", "properties": { "value": 0.003 }, "geometry": { "type": "Point", "coordinates": [ 129.324371, 35.48872, 225.0 ] } },
{ "type": "Feature", "properties": { "value": 0.018 }, "geometry": { "type": "Point", "coordinates": [ 129.325485, 35.488716, 225.0 ] } },
{ "type": "Feature", "properties": { "value": 0.0371 }, "geometry": { "type": "Point", "coordinates": [ 129.326584, 35.488712, 225.0 ] } },
{ "type": "Feature", "properties": { "value": 0.0326 }, "geometry": { "type": "Point", "coordinates": [ 129.327682, 35.488712, 225.0 ] } },
{ "type": "Feature", "properties": { "value": 0.0124 }, "geometry": { "type": "Point", "coordinates": [ 129.328781, 35.488708, 225.0 ] } },
{ "type": "Feature", "properties": { "value": 0.0004 }, "geometry": { "type": "Point", "coordinates": [ 129.329895, 35.488705, 225.0 ] } },
{ "type": "Feature", "properties": { "value": 0.0001 }, "geometry": { "type": "Point", "coordinates": [ 129.324387, 35.48962, 225.0 ] } },
{ "type": "Feature", "properties": { "value": 0.0012 }, "geometry": { "type": "Point", "coordinates": [ 129.325485, 35.489616, 225.0 ] } },
{ "type": "Feature", "properties": { "value": 0.0033 }, "geometry": { "type": "Point", "coordinates": [ 129.326584, 35.489616, 225.0 ] } },
{ "type": "Feature", "properties": { "value": 0.0036 }, "geometry": { "type": "Point", "coordinates": [ 129.327682, 35.489613, 225.0 ] } },
{ "type": "Feature", "properties": { "value": 0.0013 }, "geometry": { "type": "Point", "coordinates": [ 129.328796, 35.489609, 225.0 ] } },
{ "type": "Feature", "properties": { "value": 0.0 }, "geometry": { "type": "Point", "coordinates": [ 129.325485, 35.49052, 225.0 ] } },
{ "type": "Feature", "properties": { "value": 0.0001 }, "geometry": { "type": "Point", "coordinates": [ 129.326584, 35.490517, 225.0 ] } },
{ "type": "Feature", "properties": { "value": 0.0001 }, "geometry": { "type": "Point", "coordinates": [ 129.327698, 35.490513, 225.0 ] } }
]
}
