{
"type": "FeatureCollection",
"features": [
{ "type": "Feature", "properties": { "value": 0.0001 }, "geometry": { "type": "Point", "coordinates": [ 129.295547, 35.439224, 30.0 ] } },
{ "type": "Feature", "properties": { "value": 0.0 }, "geometry": { "type": "Point", "coordinates": [ 129.296646, 35.43922, 30.0 ] } },
{ "type": "Feature", "properties": { "value": 0.164 }, "geometry": { "type": "Point", "coordinates": [ 129.294449, 35.440128, 30.0 ] } },
{ "type": "Feature", "properties": { "value": 0.1561 }, "geometry": { "type": "Point", "coordinates": [ 129.295547, 35.440125, 30.0 ] } },
{ "type": "Feature", "properties": { "value": 0.0002 }, "geometry": { "type": "Point", "coordinates": [ 129.296646, 35.440121, 30.0 ] } },
{ "type": "Feature", "properties": { "value": 2.262 }, "geometry": { "type": "Point", "coordinates": [ 129.29335, 35.441029, 30.0 ] } },
{ "type": "Feature", "properties": { "value": 45.782 }, "geometry": { "type": "Point", "coordinates": [ 129.294449, 35.441029, 30.0 ] } },
{ "type": "Feature", "properties": { "value": 3.5794 }, "geometry": { "type": "Point", "coordinates": [ 129.295547, 35.441025, 30.0 ] } },
{ "type": "Feature", "properties": { "value": 0.2156 }, "geometry": { "type": "Point", "coordinates": [ 129.292252, 35.441933, 30.0 ] } },
{ "type": "Feature", "properties": { "value": 50.025 }, "geometry": { "type": "Point", "coordinates": [ 129.29335, 35.441933, 30.0 ] } },
{ "type": "Feature", "properties": { "value": 106.39 }, "geometry": { "type": "Point", "coordinates": [ 129.294449, 35.441929, 30.0 ] } },
{ "type": "Feature", "properties": { "value": 1.0574 }, "geometry": { "type": "Point", "coordinates": [ 129.295547, 35.441925, 30.0 ] } },
{ "type": "Feature", "properties": { "value": 4.5598 }, "geometry": { "type": "Point", "coordinates": [ 129.292252, 35.442837, 30.0 ] } },
{ "type": "Feature", "properties": { "value": 97.472 }, "geometry": { "type": "Point", "coordinates": [ 129.29335, 35.442833, 30.0 ] } },
{ "type": "Feature", "properties": { "value": 80.81 }, "geometry": { "type": "Point", "coordinates": [ 129.294464, 35.442829, 30.0 ] } },
{ "type": "Feature", "properties": { "value": 0.9312 }, "geometry": { "type": "Point", "coordinates": [ 129.295563, 35.442829, 30.0 ] } },
{ "type": "Feature", "properties": { "value": 17.115 }, "geometry": { "type": "Point", "coordinates": [ 129.292252, 35.443737, 30.0 ] } },
{ "type": "Feature", "properties": { "value": 115.5 }, "geometry": { "type": "Point", "coordinates": [ 129.293365, 35.443733, 30.0 ] } },
{ "type": "Feature", "properties": { "value": 52.002 }, "geometry": { "type": "Point", "coordinates": [ 129.294464, 35.443733, 30.0 ] } },
{ "type": "Feature", "properties": { "value": 0.7597 }, "geometry": { "type": "Point", "coordinates": [ 129.295563, 35.443729, 30.0 ] } },
{ "type": "Feature", "properties": { "value": 0.5292 }, "geometry": { "type": "Point", "coordinates": [ 129.291153, 35.444641, 30.0 ] } },
{ "type": "Feature", "properties": { "value": 35.459 }, "geometry": { "type": "Point", "coordinates": [ 129.292267, 35.444637, 30.0 ] } },
{ "type": "Feature", "properties": { "value": 115.7 }, "geometry": { "type": "Point", "coordinates": [ 129.293365, 35.444637, 30.0 ] } },
{ "type": "Feature", "properties": { "value": 30.148 }, "geometry": { "type": "Point", "coordinates": [ 129.294464, 35.444633, 30.0 ] } },
{ "type": "Feature", "properties": { "value": 0.2442 }, "geometry": { "type": "Point", "coordinates": [ 129.295563, 35.44463, 30.0 ] } },
{ "type": "Feature", "properties": { "value": 2.5917 }, "geometry": { "type": "Point", "coordinates": [ 129.291168, 35.445541, 30.0 ] } },
{ "type": "Feature", "properties": { "value": 57.889 }, "geometry": { "type": "Point", "coordinates": [ 129.292267, 35.445541, 30.0 ] } },
{ "type": "Feature", "properties": { "value": 107.51 }, "geometry": { "type": "Point", "coordinates": [ 129.293365, 35.445538, 30.0 ] } },
{ "type": "Feature", "properties": { "value": 17.787 }, "geometry": { "type": "Point", "coordinates": [ 129.294464, 35.445534, 30.0 ] } },
{ "type": "Feature", "properties": { "value": 8.4935 }, "geometry": { "type": "Point", "coordinates": [ 129.291168, 35.446442, 30.0 ] } },
{ "type": "Feature", "properties": { "value": 80.628 }, "geometry": { "type": "Point", "coordinates": [ 129.292267, 35.446442, 30.0 ] } },
{ "type": "Feature", "properties": { "value": 93.612 }, "geometry": { "type": "Point", "coordinates": [ 129.293365, 35.446438, 30.0 ] } },
{ "type": "Feature", "properties": { "value": 11.726 }, "geometry": { "type": "Point", "coordinates": [ 129.294464, 35.446434, 30.0 ] } },
{ "type": "Feature", "properties": { "value": 0.322 }, "geometry": { "type": "Point", "coordinates": [ 129.29007, 35.447346, 30.0 ] } },
{ "type": "Feature", "properties": { "value": 18.645 }, "geometry": { "type": "Point", "coordinates": [ 129.291168, 35.447346, 30.0 ] } },
{ "type": "Feature", "properties": { "value": 98.068 }, "geometry": { "type": "Point", "coordinates": [ 129.292267, 35.447342, 30.0 ] } },
{ "type": "Feature", "properties": { "value": 76.713 }, "geometry": { "type": "Point", "coordinates": [ 129.293365, 35.447338, 30.0 ] } },
{ "type": "Feature", "properties": { "value": 7.6322 }, "geometry": { "type": "Point", "coordinates": [ 129.294479, 35.447338, 30.0 ] } },
{ "type": "Feature", "properties": { "value": 1.3826 }, "geometry": { "type": "Point", "coordinates": [ 129.29007, 35.44825, 30.0 ] } },
{ "type": "Feature", "properties": { "value": 31.901 }, "geometry": { "type": "Point", "coordinates": [ 129.291168, 35.448246, 30.0 ] } },
{ "type": "Feature", "properties": { "value": 106.81 }, "geometry": { "type": "Point", "coordinates": [ 129.292267, 35.448242, 30.0 ] } },
{ "type": "Feature", "properties": { "value": 60.624 }, "geometry": { "type": "Point", "coordinates": [ 129.293381, 35.448242, 30.0 ] } },
{ "type": "Feature", "properties": { "value": 4.8855 }, "geometry": { "type": "Point", "coordinates": [ 129.294479, 35.448238, 30.0 ] } },
{ "type": "Feature", "properties": { "value": 3.4988 }, "geometry": { "type": "Point", "coordinates": [ 129.29007, 35.44915, 30.0 ] } },
{ "type": "Feature", "properties": { "value": 47.176 }, "geometry": { "type": "Point", "coordinates": [ 129.291168, 35.449146, 30.0 ] } },
{ "type": "Feature", "properties": { "value": 107.61 }, "geometry": { "type": "Point", "coordinates": [ 129.292282, 35.449146, 30.0 ] } },
{ "type": "Feature", "properties": { "value": 45.56 }, "geometry": { "type": "Point", "coordinates": [ 129.293381, 35.449142, 30.0 ] } },
{ "type": "Feature", "properties": { "value": 2.9616 }, "geometry": { "type": "Point", "coordinates": [ 129.294479, 35.449139, 30.0 ] } },
{ "type": "Feature", "properties": { "value": 7.2956 }, "geometry": { "type": "Point", "coordinates": [ 129.290085, 35.45005, 30.0 ] } },
{ "type": "Feature", "properties": { "value": 62.464 }, "geometry": { "type": "Point", "coordinates": [ 129.291183, 35.45005, 30.0 ] } },
{ "type": "Feature", "properties": { "value": 102.59 }, "geometry": { "type": "Point", "coordinates": [ 129.292282, 35.450047, 30.0 ] } },
{ "type": "Feature", "properties": { "value": 33.293 }, "geometry": { "type": "Point", "coordinates": [ 129.293381, 35.450043, 30.0 ] } },
{ "type": "Feature", "properties": { "value": 1.6977 }, "geometry": { "type": "Point", "coordinates": [ 129.294479, 35.450039, 30.0 ] } },
{ "type": "Feature", "properties": { "value": 0.1755 }, "geometry": { "type": "Point", "coordinates": [ 129.288986, 35.450954, 30.0 ] } },
{ "type": "Feature", "properties": { "value": 11.866 }, "geometry": { "type": "Point", "coordinates": [ 129.290085, 35.450954, 30.0 ] } },
{ "type": "Feature", "properties": { "value": 71.919 }, "geometry": { "type": "Point", "coordinates": [ 129.291183, 35.450951, 30.0 ] } },
{ "type": "Feature", "properties": { "value": 91.318 }, "geometry": { "type": "Point", "coordinates": [ 129.292282, 35.450947, 30.0 ] } },
{ "type": "Feature", "properties": { "value": 24.133 }, "geometry": { "type": "Point", "coordinates": [ 129.293381, 35.450943, 30.0 ] } },
{ "type": "Feature", "properties": { "value": 1.0404 }, "geometry": { "type": "Point", "coordinates": [ 129.294479, 35.450943, 30.0 ] } },
{ "type": "Feature", "properties": { "value": 0.5986 }, "geometry": { "type": "Point", "coordinates": [ 129.288986, 35.451855, 30.0 ] } },
{ "type": "Feature", "properties": { "value": 15.257 }, "geometry": { "type": "Point", "coordinates": [ 129.290085, 35.451855, 30.0 ] } },
{ "type": "Feature", "properties": { "value": 72.174 }, "geometry": { "type": "Point", "coordinates": [ 129.291183, 35.451851, 30.0 ] } },
{ "type": "Feature", "properties": { "value": 77.575 }, "geometry": { "type": "Point", "coordinates": [ 129.292282, 35.451847, 30.0 ] } },
{ "type": "Feature", "properties": { "value": 18.603 }, "geometry": { "type": "Point", "coordinates": [ 129.293381, 35.451847, 30.0 ] } },
{ "type": "Feature", "properties": { "value": 0.7798 }, "geometry": { "type": "Point", "coordinates": [ 129.294495, 35.451843, 30.0 ] } },
{ "type": "Feature", "properties": { "value": 0.7971 }, "geometry": { "type": "Point", "coordinates": [ 129.288986, 35.452759, 30.0 ] } },
{ "type": "Feature", "properties": { "value": 15.869 }, "geometry": { "type": "Point", "coordinates": [ 129.290085, 35.452755, 30.0 ] } },
{ "type": "Feature", "properties": { "value": 64.382 }, "geometry": { "type": "Point", "coordinates": [ 129.291183, 35.452751, 30.0 ] } },
{ "type": "Feature", "properties": { "value": 64.763 }, "geometry": { "type": "Point", "coordinates": [ 129.292297, 35.452751, 30.0 ] } },
{ "type": "Feature", "properties": { "value": 16.081 }, "geometry": { "type": "Point", "coordinates": [ 129.293396, 35.452747, 30.0 ] } },
{ "type": "Feature", "properties": { "value": 0.8445 }, "geometry": { "type": "Point", "coordinates": [ 129.294495, 35.452744, 30.0 ] } },
{ "type": "Feature", "properties": { "value": 0.9112 }, "geometry": { "type": "Point", "coordinates": [ 129.288986, 35.453659, 30.0 ] } },
{ "type": "Feature", "properties": { "value": 14.05 }, "geometry": { "type": "Point", "coordinates": [ 129.290085, 35.453655, 30.0 ] } },
{ "type": "Feature", "properties": { "value": 52.053 }, "geometry": { "type": "Point", "coordinates": [ 129.291199, 35.453655, 30.0 ] } },
{ "type": "Feature", "properties": { "value": 52.213 }, "geometry": { "type": "Point", "coordinates": [ 129.292297, 35.453651, 30.0 ] } },
{ "type": "Feature", "properties": { "value": 14.138 }, "geometry": { "type": "Point", "coordinates": [ 129.293396, 35.453648, 30.0 ] } },
{ "type": "Feature", "properties": { "value": 0.9331 }, "geometry": { "type": "Point", "coordinates": [ 129.294495, 35.453648, 30.0 ] } },
{ "type": "Feature", "properties": { "value": 0.9854 }, "geometry": { "type": "Point", "coordinates": [ 129.288986, 35.454559, 30.0 ] } },
{ "type": "Feature", "properties": { "value": 12.412 }, "geometry": { "type": "Point", "coordinates": [ 129.2901, 35.454559, 30.0 ] } },
{ "type": "Feature", "properties": { "value": 42.15 }, "geometry": { "type": "Point", "coordinates": [ 129.291199, 35.454556, 30.0 ] } },
{ "type": "Feature", "properties": { "value": 42.061 }, "geometry": { "type": "Point", "coordinates": [ 129.292297, 35.454552, 30.0 ] } },
{ "type": "Feature", "properties": { "value": 12.305 }, "geometry": { "type": "Point", "coordinates": [ 129.293396, 35.454552, 30.0 ] } },
{ "type": "Feature", "properties": { "value": 0.9268 }, "geometry": { "type": "Point", "coordinates": [ 129.294495, 35.454548, 30.0 ] } },
{ "type": "Feature", "properties": { "value": 1.3667 }, "geometry": { "type": "Point", "coordinates": [ 129.289001, 35.455463, 30.0 ] } },
{ "type": "Feature", "properties": { "value": 13.012 }, "geometry": { "type": "Point", "coordinates": [ 129.2901, 35.45546, 30.0 ] } },
{ "type": "Feature", "properties": { "value": 38.172 }, "geometry": { "type": "Point", "coordinates": [ 129.291199, 35.455456, 30.0 ] } },
{ "type": "Feature", "properties": { "value": 35.994 }, "geometry": { "type": "Point", "coordinates": [ 129.292297, 35.455452, 30.0 ] } },
{ "type": "Feature", "properties": { "value": 10.687 }, "geometry": { "type": "Point", "coordinates": [ 129.293396, 35.455452, 30.0 ] } },
{ "type": "Feature", "properties": { "value": 0.889 }, "geometry": { "type": "Point", "coordinates": [ 129.29451, 35.455448, 30.0 ] } },
{ "type": "Feature", "properties": { "value": 2.2309 }, "geometry": { "type": "Point", "coordinates": [ 129.289001, 35.456364, 30.0 ] } },
{ "type": "Feature", "properties": { "value": 15.515 }, "geometry": { "type": "Point", "coordinates": [ 129.2901, 35.45636, 30.0 ] } },
{ "type": "Feature", "properties": { "value": 37.039 }, "geometry": { "type": "Point", "coordinates": [ 129.291199, 35.456356, 30.0 ] } },
{ "type": "Feature", "properties": { "value": 30.578 }, "geometry": { "type": "Point", "coordinates": [ 129.292297, 35.456356, 30.0 ] } },
{ "type": "Feature", "properties": { "value": 8.4236 }, "geometry": { "type": "Point", "coordinates": [ 129.293411, 35.456352, 30.0 ] } },
{ "type": "Feature", "properties": { "value": 0.6791 }, "geometry": { "type": "Point", "coordinates": [ 129.29451, 35.456348, 30.0 ] } },
{ "type": "Feature", "properties": { "value": 0.2113 }, "geometry": { "type": "Point", "coordinates": [ 129.287903, 35.457268, 30.0 ] } },
{ "type": "Feature", "properties": { "value": 3.7651 }, "geometry": { "type": "Point", "coordinates": [ 129.289001, 35.457264, 30.0 ] } },
{ "type": "Feature", "properties": { "value": 19.085 }, "geometry": { "type": "Point", "coordinates": [ 129.2901, 35.45726, 30.0 ] } },
{ "type": "Feature", "properties": { "value": 35.938 }, "geometry": { "type": "Point", "coordinates": [ 129.291199, 35.45726, 30.0 ] } },
{ "type": "Feature", "properties": { "value": 24.863 }, "geometry": { "type": "Point", "coordinates": [ 129.292313, 35.457256, 30.0 ] } },
{ "type": "Feature", "properties": { "value": 6.0402 }, "geometry": { "type": "Point", "coordinates": [ 129.293411, 35.457253, 30.0 ] } },
{ "type": "Feature", "properties": { "value": 0.4112 }, "geometry": { "type": "Point", "coordinates": [ 129.29451, 35.457253, 30.0 ] } },
{ "type": "Feature", "properties": { "value": 0.5135 }, "geometry": { "type": "Point", "coordinates": [ 129.287903, 35.458168, 30.0 ] } },
{ "type": "Feature", "properties": { "value": 5.6032 }, "geometry": { "type": "Point", "coordinates": [ 129.289001, 35.458164, 30.0 ] } },
{ "type": "Feature", "properties": { "value": 22.046 }, "geometry": { "type": "Point", "coordinates": [ 129.2901, 35.458164, 30.0 ] } },
{ "type": "Feature", "properties": { "value": 33.919 }, "geometry": { "type": "Point", "coordinates": [ 129.291214, 35.45816, 30.0 ] } },
{ "type": "Feature", "properties": { "value": 20.101 }, "geometry": { "type": "Point", "coordinates": [ 129.292313, 35.458157, 30.0 ] } },
{ "type": "Feature", "properties": { "value": 4.4273 }, "geometry": { "type": "Point", "coordinates": [ 129.293411, 35.458157, 30.0 ] } },
{ "type": "Feature", "properties": { "value": 0.2411 }, "geometry": { "type": "Point", "coordinates": [ 129.29451, 35.458153, 30.0 ] } },
{ "type": "Feature", "properties": { "value": 0.9364 }, "geometry": { "type": "Point", "coordinates": [ 129.287903, 35.459068, 30.0 ] } },
{ "type": "Feature", "properties": { "value": 7.4465 }, "geometry": { "type": "Point", "coordinates": [ 129.289001, 35.459068, 30.0 ] } },
{ "type": "Feature", "properties": { "value": 23.825 }, "geometry": { "type": "Point", "coordinates": [ 129.290115, 35.459064, 30.0 ] } },
{ "type": "Feature", "properties": { "value": 31.779 }, "geometry": { "type": "Point", "coordinates": [ 129.291214, 35.459061, 30.0 ] } },
{ "type": "Feature", "properties": { "value": 17.411 }, "geometry": { "type": "Point", "coordinates": [ 129.292313, 35.459061, 30.0 ] } },
{ "type": "Feature", "properties": { "value": 3.8259 }, "geometry": { "type": "Point", "coordinates": [ 129.293411, 35.459057, 30.0 ] } },
{ "type": "Feature", "properties": { "value": 0.2561 }, "geometry": { "type": "Point", "coordinates": [ 129.29451, 35.459053, 30.0 ] } },
{ "type": "Feature", "properties": { "value": 7.623 }, "geometry": { "type": "Point", "coordinates": [ 129.32756, 35.458969, 30.0 ] } },
{ "type": "Feature", "properties": { "value": 1.5521 }, "geometry": { "type": "Point", "coordinates": [ 129.287903, 35.459972, 30.0 ] } },
{ "type": "Feature", "properties": { "value": 9.3291 }, "geometry": { "type": "Point", "coordinates": [ 129.289017, 35.459969, 30.0 ] } },
{ "type": "Feature", "properties": { "value": 25.167 }, "geometry": { "type": "Point", "coordinates": [ 129.290115, 35.459965, 30.0 ] } },
{ "type": "Feature", "properties": { "value": 30.611 }, "geometry": { "type": "Point", "coordinates": [ 129.291214, 35.459965, 30.0 ] } },
{ "type": "Feature", "properties": { "value": 16.714 }, "geometry": { "type": "Point", "coordinates": [ 129.292313, 35.459961, 30.0 ] } },
{ "type": "Feature", "properties": { "value": 4.0853 }, "geometry": { "type": "Point", "coordinates": [ 129.293411, 35.459957, 30.0 ] } },
{ "type": "Feature", "properties": { "value": 0.3928 }, "geometry": { "type": "Point", "coordinates": [ 129.294525, 35.459953, 30.0 ] } },
{ "type": "Feature", "properties": { "value": 204.33 }, "geometry": { "type": "Point", "coordinates": [ 129.32756, 35.459869, 30.0 ] } },
{ "type": "Feature", "properties": { "value": 0.143 }, "geometry": { "type": "Point", "coordinates": [ 129.286804, 35.460876, 30.0 ] } },
{ "type": "Feature", "properties": { "value": 2.3141 }, "geometry": { "type": "Point", "coordinates": [ 129.287918, 35.460873, 30.0 ] } },
{ "type": "Feature", "properties": { "value": 11.255 }, "geometry": { "type": "Point", "coordinates": [ 129.289017, 35.460869, 30.0 ] } },
{ "type": "Feature", "properties": { "value": 26.37 }, "geometry": { "type": "Point", "coordinates": [ 129.290115, 35.460865, 30.0 ] } },
{ "type": "Feature", "properties": { "value": 29.843 }, "geometry": { "type": "Point", "coordinates": [ 129.291214, 35.460865, 30.0 ] } },
{ "type": "Feature", "properties": { "value": 16.324 }, "geometry": { "type": "Point", "coordinates": [ 129.292313, 35.460861, 30.0 ] } },
{ "type": "Feature", "properties": { "value": 4.2995 }, "geometry": { "type": "Point", "coordinates": [ 129.293427, 35.460857, 30.0 ] } },
{ "type": "Feature", "properties": { "value": 0.4771 }, "geometry": { "type": "Point", "coordinates": [ 129.294525, 35.460857, 30.0 ] } },
{ "type": "Feature", "properties": { "value": 358.18 }, "geometry": { "type": "Point", "coordinates": [ 129.327576, 35.46077, 30.0 ] } },
{ "type": "Feature", "properties": { "value": 0.2466 }, "geometry": { "type": "Point", "coordinates": [ 129.286819, 35.461777, 30.0 ] } },
{ "type": "Feature", "properties": { "value": 2.7727 }, "geometry": { "type": "Point", "coordinates": [ 129.287918, 35.461773, 30.0 ] } },
{ "type": "Feature", "properties": { "value": 11.803 }, "geometry": { "type": "Point", "coordinates": [ 129.289017, 35.461769, 30.0 ] } },
{ "type": "Feature", "properties": { "value": 24.882 }, "geometry": { "type": "Point", "coordinates": [ 129.290115, 35.461769, 30.0 ] } },
{ "type": "Feature", "properties": { "value": 26.394 }, "geometry": { "type": "Point", "coordinates": [ 129.291214, 35.461765, 30.0 ] } },
{ "type": "Feature", "properties": { "value": 14.174 }, "geometry": { "type": "Point", "coordinates": [ 129.292328, 35.461761, 30.0 ] } },
{ "type": "Feature", "properties": { "value": 3.8335 }, "geometry": { "type": "Point", "coordinates": [ 129.293427, 35.461761, 30.0 ] } },
{ "type": "Feature", "properties": { "value": 0.4572 }, "geometry": { "type": "Point", "coordinates": [ 129.294525, 35.461758, 30.0 ] } },
{ "type": "Feature", "properties": { "value": 327.97 }, "geometry": { "type": "Point", "coordinates": [ 129.327576, 35.461674, 30.0 ] } },
{ "type": "Feature", "properties": { "value": 0.2239 }, "geometry": { "type": "Point", "coordinates": [ 129.286819, 35.462677, 30.0 ] } },
{ "type": "Feature", "properties": { "value": 2.3554 }, "geometry": { "type": "Point", "coordinates": [ 129.287918, 35.462673, 30.0 ] } },
{ "type": "Feature", "properties": { "value": 9.2329 }, "geometry": { "type": "Point", "coordinates": [ 129.289017, 35.462673, 30.0 ] } },
{ "type": "Feature", "properties": { "value": 18.202 }, "geometry": { "type": "Point", "coordinates": [ 129.290115, 35.462669, 30.0 ] } },
{ "type": "Feature", "properties": { "value": 18.512 }, "geometry": { "type": "Point", "coordinates": [ 129.291229, 35.462666, 30.0 ] } },
{ "type": "Feature", "properties": { "value": 9.8146 }, "geometry": { "type": "Point", "coordinates": [ 129.292328, 35.462666, 30.0 ] } },
{ "type": "Feature", "properties": { "value": 2.7196 }, "geometry": { "type": "Point", "coordinates": [ 129.293427, 35.462662, 30.0 ] } },
{ "type": "Feature", "properties": { "value": 0.3258 }, "geometry": { "type": "Point", "coordinates": [ 129.294525, 35.462658, 30.0 ] } },
{ "type": "Feature", "properties": { "value": 297.19 }, "geometry": { "type": "Point", "coordinates": [ 129.327576, 35.462574, 30.0 ] } },
{ "type": "Feature", "properties": { "value": 0.1613 }, "geometry": { "type": "Point", "coordinates": [ 129.286819, 35.463577, 30.0 ] } },
{ "type": "Feature", "properties": { "value": 1.2732 }, "geometry": { "type": "Point", "coordinates": [ 129.287918, 35.463577, 30.0 ] } },
{ "type": "Feature", "properties": { "value": 4.8215 }, "geometry": { "type": "Point", "coordinates": [ 129.289017, 35.463573, 30.0 ] } },
{ "type": "Feature", "properties": { "value": 9.2162 }, "geometry": { "type": "Point", "coordinates": [ 129.290131, 35.46357, 30.0 ] } },
{ "type": "Feature", "properties": { "value": 9.2479 }, "geometry": { "type": "Point", "coordinates": [ 129.291229, 35.46357, 30.0 ] } },
{ "type": "Feature", "properties": { "value": 4.9753 }, "geometry": { "type": "Point", "coordinates": [ 129.292328, 35.463566, 30.0 ] } },
{ "type": "Feature", "properties": { "value": 1.4157 }, "geometry": { "type": "Point", "coordinates": [ 129.293427, 35.463562, 30.0 ] } },
{ "type": "Feature", "properties": { "value": 0.1906 }, "geometry": { "type": "Point", "coordinates": [ 129.294525, 35.463558, 30.0 ] } },
{ "type": "Feature", "properties": { "value": 235.37 }, "geometry": { "type": "Point", "coordinates": [ 129.327576, 35.463474, 30.0 ] } },
{ "type": "Feature", "properties": { "value": 6.0666 }, "geometry": { "type": "Point", "coordinates": [ 129.32869, 35.46347, 30.0 ] } },
{ "type": "Feature", "properties": { "value": 0.0362 }, "geometry": { "type": "Point", "coordinates": [ 129.286819, 35.464481, 30.0 ] } },
{ "type": "Feature", "properties": { "value": 0.3893 }, "geometry": { "type": "Point", "coordinates": [ 129.287933, 35.464478, 30.0 ] } },
{ "type": "Feature", "properties": { "value": 1.5023 }, "geometry": { "type": "Point", "coordinates": [ 129.289032, 35.464474, 30.0 ] } },
{ "type": "Feature", "properties": { "value": 2.9302 }, "geometry": { "type": "Point", "coordinates": [ 129.290131, 35.464474, 30.0 ] } },
{ "type": "Feature", "properties": { "value": 2.9885 }, "geometry": { "type": "Point", "coordinates": [ 129.291229, 35.46447, 30.0 ] } },
{ "type": "Feature", "properties": { "value": 1.6428 }, "geometry": { "type": "Point", "coordinates": [ 129.292328, 35.464466, 30.0 ] } },
{ "type": "Feature", "properties": { "value": 0.4747 }, "geometry": { "type": "Point", "coordinates": [ 129.293442, 35.464462, 30.0 ] } },
{ "type": "Feature", "properties": { "value": 0.0618 }, "geometry": { "type": "Point", "coordinates": [ 129.29454, 35.464462, 30.0 ] } },
{ "type": "Feature", "properties": { "value": 179.34 }, "geometry": { "type": "Point", "coordinates": [ 129.327591, 35.464375, 30.0 ] } },
{ "type": "Feature", "properties": { "value": 24.761 }, "geometry": { "type": "Point", "coordinates": [ 129.32869, 35.464375, 30.0 ] } },
{ "type": "Feature", "properties": { "value": 0.0669 }, "geometry": { "type": "Point", "coordinates": [ 129.287933, 35.465378, 30.0 ] } },
{ "type": "Feature", "properties": { "value": 0.2507 }, "geometry": { "type": "Point", "coordinates": [ 129.289032, 35.465378, 30.0 ] } },
{ "type": "Feature", "properties": { "value": 0.5212 }, "geometry": { "type": "Point", "coordinates": [ 129.290131, 35.465374, 30.0 ] } },
{ "type": "Feature", "properties": { "value": 0.5571 }, "geometry": { "type": "Point", "coordinates": [ 129.291229, 35.46537, 30.0 ] } },
{ "type": "Feature", "properties": { "value": 0.3231 }, "geometry": { "type": "Point", "coordinates": [ 129.292343, 35.465366, 30.0 ] } },
{ "type": "Feature", "properties": { "value": 0.085 }, "geometry": { "type": "Point", "coordinates": [ 129.293442, 35.465366, 30.0 ] } },
{ "type": "Feature", "properties": { "value": 121.47 }, "geometry": { "type": "Point", "coordinates": [ 129.327591, 35.465279, 30.0 ] } },
{ "type": "Feature", "properties": { "value": 44.429 }, "geometry": { "type": "Point", "coordinates": [ 129.32869, 35.465275, 30.0 ] } },
{ "type": "Feature", "properties": { "value": 0.0389 }, "geometry": { "type": "Point", "coordinates": [ 129.290131, 35.466274, 30.0 ] } },
{ "type": "Feature", "properties": { "value": 0.0487 }, "geometry": { "type": "Point", "coordinates": [ 129.291245, 35.46627, 30.0 ] } },
{ "type": "Feature", "properties": { "value": 0.0318 }, "geometry": { "type": "Point", "coordinates": [ 129.292343, 35.46627, 30.0 ] } },
{ "type": "Feature", "properties": { "value": 80.469 }, "geometry": { "type": "Point", "coordinates": [ 129.327591, 35.466179, 30.0 ] } },
{ "type": "Feature", "properties": { "value": 54.542 }, "geometry": { "type": "Point", "coordinates": [ 129.32869, 35.466175, 30.0 ] } },
{ "type": "Feature", "properties": { "value": 62.487 }, "geometry": { "type": "Point", "coordinates": [ 129.327591, 35.467079, 30.0 ] } },
{ "type": "Feature", "properties": { "value": 64.725 }, "geometry": { "type": "Point", "coordinates": [ 129.328705, 35.467075, 30.0 ] } },
{ "type": "Feature", "properties": { "value": 52.292 }, "geometry": { "type": "Point", "coordinates": [ 129.327606, 35.467983, 30.0 ] } },
{ "type": "Feature", "properties": { "value": 72.399 }, "geometry": { "type": "Point", "coordinates": [ 129.328705, 35.467979, 30.0 ] } },
{ "type": "Feature", "properties": { "value": 48.452 }, "geometry": { "type": "Point", "coordinates": [ 129.327606, 35.468884, 30.0 ] } },
{ "type": "Feature", "properties": { "value": 81.083 }, "geometry": { "type": "Point", "coordinates": [ 129.328705, 35.46888, 30.0 ] } },
{ "type": "Feature", "properties": { "value": 1.2109 }, "geometry": { "type": "Point", "coordinates": [ 129.329803, 35.468876, 30.0 ] } },
{ "type": "Feature", "properties": { "value": 50.213 }, "geometry": { "type": "Point", "coordinates": [ 129.327606, 35.469784, 30.0 ] } },
{ "type": "Feature", "properties": { "value": 94.803 }, "geometry": { "type": "Point", "coordinates": [ 129.328705, 35.46978, 30.0 ] } },
{ "type": "Feature", "properties": { "value": 3.6323 }, "geometry": { "type": "Point", "coordinates": [ 129.329819, 35.469776, 30.0 ] } },
{ "type": "Feature", "properties": { "value": 53.8 }, "geometry": { "type": "Point", "coordinates": [ 129.327606, 35.470684, 30.0 ] } },
{ "type": "Feature", "properties": { "value": 118.7 }, "geometry": { "type": "Point", "coordinates": [ 129.32872, 35.470684, 30.0 ] } },
{ "type": "Feature", "properties": { "value": 8.6423 }, "geometry": { "type": "Point", "coordinates": [ 129.329819, 35.47068, 30.0 ] } },
{ "type": "Feature", "properties": { "value": 58.869 }, "geometry": { "type": "Point", "coordinates": [ 129.327621, 35.471588, 30.0 ] } },
{ "type": "Feature", "properties": { "value": 154.29 }, "geometry": { "type": "Point", "coordinates": [ 129.32872, 35.471584, 30.0 ] } },
{ "type": "Feature", "properties": { "value": 16.569 }, "geometry": { "type": "Point", "coordinates": [ 129.329819, 35.471581, 30.0 ] } },
{ "type": "Feature", "properties": { "value": 62.024 }, "geometry": { "type": "Point", "coordinates": [ 129.327621, 35.472488, 30.0 ] } },
{ "type": "Feature", "properties": { "value": 172.61 }, "geometry": { "type": "Point", "coordinates": [ 129.32872, 35.472485, 30.0 ] } },
{ "type": "Feature", "properties": { "value": 25.216 }, "geometry": { "type": "Point", "coordinates": [ 129.329819, 35.472481, 30.0 ] } },
{ "type": "Feature", "properties": { "value": 59.944 }, "geometry": { "type": "Point", "coordinates": [ 129.327621, 35.473389, 30.0 ] } },
{ "type": "Feature", "properties": { "value": 173.65 }, "geometry": { "type": "Point", "coordinates": [ 129.32872, 35.473385, 30.0 ] } },
{ "type": "Feature", "properties": { "value": 34.597 }, "geometry": { "type": "Point", "coordinates": [ 129.329819, 35.473385, 30.0 ] } },
{ "type": "Feature", "properties": { "value": 56.585 }, "geometry": { "type": "Point", "coordinates": [ 129.327621, 35.474289, 30.0 ] } },
{ "type": "Feature", "properties": { "value": 169.94 }, "geometry": { "type": "Point", "coordinates": [ 129.328735, 35.474289, 30.0 ] } },
{ "type": "Feature", "properties": { "value": 43.42 }, "geometry": { "type": "Point", "coordinates": [ 129.329834, 35.474285, 30.0 ] } },
{ "type": "Feature", "properties": { "value": 0.7807 }, "geometry": { "type": "Point", "coordinates": [ 129.326523, 35.475193, 30.0 ] } },
{ "type": "Feature", "properties": { "value": 53.919 }, "geometry": { "type": "Point", "coordinates": [ 129.327637, 35.475193, 30.0 ] } },
{ "type": "Feature", "properties": { "value": 164.01 }, "geometry": { "type": "Point", "coordinates": [ 129.328735, 35.475189, 30.0 ] } },
{ "type": "Feature", "properties": { "value": 49.664 }, "geometry": { "type": "Point", "coordinates": [ 129.329834, 35.475185, 30.0 ] } },
{ "type": "Feature", "properties": { "value": 1.0355 }, "geometry": { "type": "Point", "coordinates": [ 129.330933, 35.475182, 30.0 ] } },
{ "type": "Feature", "properties": { "value": 1.6232 }, "geometry": { "type": "Point", "coordinates": [ 129.326538, 35.476097, 30.0 ] } },
{ "type": "Feature", "properties": { "value": 51.161 }, "geometry": { "type": "Point", "coordinates": [ 129.327637, 35.476093, 30.0 ] } },
{ "type": "Feature", "properties": { "value": 152.53 }, "geometry": { "type": "Point", "coordinates": [ 129.328735, 35.476089, 30.0 ] } },
{ "type": "Feature", "properties": { "value": 52.827 }, "geometry": { "type": "Point", "coordinates": [ 129.329834, 35.476086, 30.0 ] } },
{ "type": "Feature", "properties": { "value": 2.0653 }, "geometry": { "type": "Point", "coordinates": [ 129.330933, 35.476086, 30.0 ] } },
{ "type": "Feature", "properties": { "value": 2.1123 }, "geometry": { "type": "Point", "coordinates": [ 129.326538, 35.476997, 30.0 ] } },
{ "type": "Feature", "properties": { "value": 46.663 }, "geometry": { "type": "Point", "coordinates": [ 129.327637, 35.476994, 30.0 ] } },
{ "type": "Feature", "properties": { "value": 132.48 }, "geometry": { "type": "Point", "coordinates": [ 129.328735, 35.47699, 30.0 ] } },
{ "type": "Feature", "properties": { "value": 53.018 }, "geometry": { "type": "Point", "coordinates": [ 129.329834, 35.47699, 30.0 ] } },
{ "type": "Feature", "properties": { "value": 2.9839 }, "geometry": { "type": "Point", "coordinates": [ 129.330948, 35.476986, 30.0 ] } },
{ "type": "Feature", "properties": { "value": 2.5858 }, "geometry": { "type": "Point", "coordinates": [ 129.326538, 35.477898, 30.0 ] } },
{ "type": "Feature", "properties": { "value": 41.491 }, "geometry": { "type": "Point", "coordinates": [ 129.327637, 35.477894, 30.0 ] } },
{ "type": "Feature", "properties": { "value": 112.04 }, "geometry": { "type": "Point", "coordinates": [ 129.328735, 35.477894, 30.0 ] } },
{ "type": "Feature", "properties": { "value": 52.101 }, "geometry": { "type": "Point", "coordinates": [ 129.329849, 35.47789, 30.0 ] } },
{ "type": "Feature", "properties": { "value": 3.9874 }, "geometry": { "type": "Point", "coordinates": [ 129.330948, 35.477886, 30.0 ] } },
{ "type": "Feature", "properties": { "value": 2.8239 }, "geometry": { "type": "Point", "coordinates": [ 129.326538, 35.478798, 30.0 ] } },
{ "type": "Feature", "properties": { "value": 39.35 }, "geometry": { "type": "Point", "coordinates": [ 129.327637, 35.478798, 30.0 ] } },
{ "type": "Feature", "properties": { "value": 102.65 }, "geometry": { "type": "Point", "coordinates": [ 129.328751, 35.478794, 30.0 ] } },
{ "type": "Feature", "properties": { "value": 53.367 }, "geometry": { "type": "Point", "coordinates": [ 129.329849, 35.47879, 30.0 ] } },
{ "type": "Feature", "properties": { "value": 5.3746 }, "geometry": { "type": "Point", "coordinates": [ 129.330948, 35.478786, 30.0 ] } },
{ "type": "Feature", "properties": { "value": 3.3119 }, "geometry": { "type": "Point", "coordinates": [ 129.326553, 35.479702, 30.0 ] } },
{ "type": "Feature", "properties": { "value": 42.512 }, "geometry": { "type": "Point", "coordinates": [ 129.327652, 35.479698, 30.0 ] } },
{ "type": "Feature", "properties": { "value": 107.31 }, "geometry": { "type": "Point", "coordinates": [ 129.328751, 35.479694, 30.0 ] } },
{ "type": "Feature", "properties": { "value": 58.378 }, "geometry": { "type": "Point", "coordinates": [ 129.329849, 35.479691, 30.0 ] } },
{ "type": "Feature", "properties": { "value": 7.2135 }, "geometry": { "type": "Point", "coordinates": [ 129.330948, 35.479691, 30.0 ] } },
{ "type": "Feature", "properties": { "value": 3.9176 }, "geometry": { "type": "Point", "coordinates": [ 129.326553, 35.480602, 30.0 ] } },
{ "type": "Feature", "properties": { "value": 47.141 }, "geometry": { "type": "Point", "coordinates": [ 129.327652, 35.480598, 30.0 ] } },
{ "type": "Feature", "properties": { "value": 114.82 }, "geometry": { "type": "Point", "coordinates": [ 129.328751, 35.480595, 30.0 ] } },
{ "type": "Feature", "properties": { "value": 64.858 }, "geometry": { "type": "Point", "coordinates": [ 129.329849, 35.480595, 30.0 ] } },
{ "type": "Feature", "properties": { "value": 9.6156 }, "geometry": { "type": "Point", "coordinates": [ 129.330963, 35.480591, 30.0 ] } },
{ "type": "Feature", "properties": { "value": 0.0059 }, "geometry": { "type": "Point", "coordinates": [ 129.318848, 35.481525, 30.0 ] } },
{ "type": "Feature", "properties": { "value": 1.0789 }, "geometry": { "type": "Point", "coordinates": [ 129.319946, 35.481522, 30.0 ] } },
{ "type": "Feature", "properties": { "value": 0.3818 }, "geometry": { "type": "Point", "coordinates": [ 129.321045, 35.481518, 30.0 ] } },
{ "type": "Feature", "properties": { "value": 0.0 }, "geometry": { "type": "Point", "coordinates": [ 129.322144, 35.481514, 30.0 ] } },
{ "type": "Feature", "properties": { "value": 4.6578 }, "geometry": { "type": "Point", "coordinates": [ 129.326553, 35.481503, 30.0 ] } },
{ "type": "Feature", "properties": { "value": 47.229 }, "geometry": { "type": "Point", "coordinates": [ 129.327652, 35.481503, 30.0 ] } },
{ "type": "Feature", "properties": { "value": 110.67 }, "geometry": { "type": "Point", "coordinates": [ 129.328751, 35.481499, 30.0 ] } },
{ "type": "Feature", "properties": { "value": 67.748 }, "geometry": { "type": "Point", "coordinates": [ 129.329865, 35.481495, 30.0 ] } },
{ "type": "Feature", "properties": { "value": 11.972 }, "geometry": { "type": "Point", "coordinates": [ 129.330963, 35.481491, 30.0 ] } },
{ "type": "Feature", "properties": { "value": 1.1238 }, "geometry": { "type": "Point", "coordinates": [ 129.318848, 35.482426, 30.0 ] } },
{ "type": "Feature", "properties": { "value": 85.34 }, "geometry": { "type": "Point", "coordinates": [ 129.319946, 35.482422, 30.0 ] } },
{ "type": "Feature", "properties": { "value": 45.543 }, "geometry": { "type": "Point", "coordinates": [ 129.321045, 35.482418, 30.0 ] } },
{ "type": "Feature", "properties": { "value": 0.0924 }, "geometry": { "type": "Point", "coordinates": [ 129.322144, 35.482418, 30.0 ] } },
{ "type": "Feature", "properties": { "value": 5.1546 }, "geometry": { "type": "Point", "coordinates": [ 129.326553, 35.482407, 30.0 ] } },
{ "type": "Feature", "properties": { "value": 44.565 }, "geometry": { "type": "Point", "coordinates": [ 129.327652, 35.482403, 30.0 ] } },
{ "type": "Feature", "properties": { "value": 101.84 }, "geometry": { "type": "Point", "coordinates": [ 129.328766, 35.482399, 30.0 ] } },
{ "type": "Feature", "properties": { "value": 69.114 }, "geometry": { "type": "Point", "coordinates": [ 129.329865, 35.482395, 30.0 ] } },
{ "type": "Feature", "properties": { "value": 14.352 }, "geometry": { "type": "Point", "coordinates": [ 129.330963, 35.482391, 30.0 ] } },
{ "type": "Feature", "properties": { "value": 3.0331 }, "geometry": { "type": "Point", "coordinates": [ 129.318848, 35.483326, 30.0 ] } },
{ "type": "Feature", "properties": { "value": 219.79 }, "geometry": { "type": "Point", "coordinates": [ 129.319946, 35.483322, 30.0 ] } },
{ "type": "Feature", "properties": { "value": 181.65 }, "geometry": { "type": "Point", "coordinates": [ 129.321045, 35.483322, 30.0 ] } },
{ "type": "Feature", "properties": { "value": 1.5986 }, "geometry": { "type": "Point", "coordinates": [ 129.322159, 35.483318, 30.0 ] } },
{ "type": "Feature", "properties": { "value": 5.6562 }, "geometry": { "type": "Point", "coordinates": [ 129.326553, 35.483307, 30.0 ] } },
{ "type": "Feature", "properties": { "value": 44.13 }, "geometry": { "type": "Point", "coordinates": [ 129.327667, 35.483303, 30.0 ] } },
{ "type": "Feature", "properties": { "value": 102.79 }, "geometry": { "type": "Point", "coordinates": [ 129.328766, 35.483299, 30.0 ] } },
{ "type": "Feature", "properties": { "value": 73.533 }, "geometry": { "type": "Point", "coordinates": [ 129.329865, 35.483295, 30.0 ] } },
{ "type": "Feature", "properties": { "value": 16.949 }, "geometry": { "type": "Point", "coordinates": [ 129.330963, 35.483295, 30.0 ] } },
{ "type": "Feature", "properties": { "value": 0.8196 }, "geometry": { "type": "Point", "coordinates": [ 129.332077, 35.483292, 30.0 ] } },
{ "type": "Feature", "properties": { "value": 3.347 }, "geometry": { "type": "Point", "coordinates": [ 129.318848, 35.48423, 30.0 ] } },
{ "type": "Feature", "properties": { "value": 198.14 }, "geometry": { "type": "Point", "coordinates": [ 129.319946, 35.484226, 30.0 ] } },
{ "type": "Feature", "properties": { "value": 196.29 }, "geometry": { "type": "Point", "coordinates": [ 129.32106, 35.484222, 30.0 ] } },
{ "type": "Feature", "properties": { "value": 3.3094 }, "geometry": { "type": "Point", "coordinates": [ 129.322159, 35.484219, 30.0 ] } },
{ "type": "Feature", "properties": { "value": 6.3867 }, "geometry": { "type": "Point", "coordinates": [ 129.326569, 35.484207, 30.0 ] } },
{ "type": "Feature", "properties": { "value": 47.038 }, "geometry": { "type": "Point", "coordinates": [ 129.327667, 35.484203, 30.0 ] } },
{ "type": "Feature", "properties": { "value": 108.91 }, "geometry": { "type": "Point", "coordinates": [ 129.328766, 35.484203, 30.0 ] } },
{ "type": "Feature", "properties": { "value": 78.242 }, "geometry": { "type": "Point", "coordinates": [ 129.329865, 35.4842, 30.0 ] } },
{ "type": "Feature", "properties": { "value": 19.42 }, "geometry": { "type": "Point", "coordinates": [ 129.330978, 35.484196, 30.0 ] } },
{ "type": "Feature", "properties": { "value": 1.3896 }, "geometry": { "type": "Point", "coordinates": [ 129.332077, 35.484192, 30.0 ] } },
{ "type": "Feature", "properties": { "value": 7.4378 }, "geometry": { "type": "Point", "coordinates": [ 129.318848, 35.48513, 30.0 ] } },
{ "type": "Feature", "properties": { "value": 205.42 }, "geometry": { "type": "Point", "coordinates": [ 129.319962, 35.485126, 30.0 ] } },
{ "type": "Feature", "properties": { "value": 167.1 }, "geometry": { "type": "Point", "coordinates": [ 129.32106, 35.485123, 30.0 ] } },
{ "type": "Feature", "properties": { "value": 3.1873 }, "geometry": { "type": "Point", "coordinates": [ 129.322159, 35.485119, 30.0 ] } },
{ "type": "Feature", "properties": { "value": 7.5906 }, "geometry": { "type": "Point", "coordinates": [ 129.326569, 35.485107, 30.0 ] } },
{ "type": "Feature", "properties": { "value": 49.946 }, "geometry": { "type": "Point", "coordinates": [ 129.327667, 35.485107, 30.0 ] } },
{ "type": "Feature", "properties": { "value": 108.03 }, "geometry": { "type": "Point", "coordinates": [ 129.328766, 35.485104, 30.0 ] } },
{ "type": "Feature", "properties": { "value": 78.725 }, "geometry": { "type": "Point", "coordinates": [ 129.32988, 35.4851, 30.0 ] } },
{ "type": "Feature", "properties": { "value": 21.42 }, "geometry": { "type": "Point", "coordinates": [ 129.330978, 35.485096, 30.0 ] } },
{ "type": "Feature", "properties": { "value": 1.8116 }, "geometry": { "type": "Point", "coordinates": [ 129.332077, 35.485092, 30.0 ] } },
{ "type": "Feature", "properties": { "value": 15.869 }, "geometry": { "type": "Point", "coordinates": [ 129.318863, 35.486031, 30.0 ] } },
{ "type": "Feature", "properties": { "value": 235.21 }, "geometry": { "type": "Point", "coordinates": [ 129.319962, 35.486027, 30.0 ] } },
{ "type": "Feature", "properties": { "value": 142.33 }, "geometry": { "type": "Point", "coordinates": [ 129.32106, 35.486027, 30.0 ] } },
{ "type": "Feature", "properties": { "value": 2.2214 }, "geometry": { "type": "Point", "coordinates": [ 129.322159, 35.486023, 30.0 ] } },
{ "type": "Feature", "properties": { "value": 9.3161 }, "geometry": { "type": "Point", "coordinates": [ 129.326569, 35.486012, 30.0 ] } },
{ "type": "Feature", "properties": { "value": 51.733 }, "geometry": { "type": "Point", "coordinates": [ 129.327667, 35.486008, 30.0 ] } },
{ "type": "Feature", "properties": { "value": 102.64 }, "geometry": { "type": "Point", "coordinates": [ 129.328781, 35.486004, 30.0 ] } },
{ "type": "Feature", "properties": { "value": 76.949 }, "geometry": { "type": "Point", "coordinates": [ 129.32988, 35.486, 30.0 ] } },
{ "type": "Feature", "properties": { "value": 22.57 }, "geometry": { "type": "Point", "coordinates": [ 129.330978, 35.485996, 30.0 ] } },
{ "type": "Feature", "properties": { "value": 2.1554 }, "geometry": { "type": "Point", "coordinates": [ 129.332077, 35.485996, 30.0 ] } },
{ "type": "Feature", "properties": { "value": 34.802 }, "geometry": { "type": "Point", "coordinates": [ 129.318863, 35.486931, 30.0 ] } },
{ "type": "Feature", "properties": { "value": 236.66 }, "geometry": { "type": "Point", "coordinates": [ 129.319962, 35.486931, 30.0 ] } },
{ "type": "Feature", "properties": { "value": 101.11 }, "geometry": { "type": "Point", "coordinates": [ 129.32106, 35.486927, 30.0 ] } },
{ "type": "Feature", "properties": { "value": 1.4438 }, "geometry": { "type": "Point", "coordinates": [ 129.322174, 35.486923, 30.0 ] } },
{ "type": "Feature", "properties": { "value": 11.272 }, "geometry": { "type": "Point", "coordinates": [ 129.326569, 35.486912, 30.0 ] } },
{ "type": "Feature", "properties": { "value": 53.899 }, "geometry": { "type": "Point", "coordinates": [ 129.327682, 35.486908, 30.0 ] } },
{ "type": "Feature", "properties": { "value": 100.01 }, "geometry": { "type": "Point", "coordinates": [ 129.328781, 35.486904, 30.0 ] } },
{ "type": "Feature", "properties": { "value": 74.975 }, "geometry": { "type": "Point", "coordinates": [ 129.32988, 35.486904, 30.0 ] } },
{ "type": "Feature", "properties": { "value": 22.844 }, "geometry": { "type": "Point", "coordinates": [ 129.330978, 35.4869, 30.0 ] } },
{ "type": "Feature", "properties": { "value": 2.4868 }, "geometry": { "type": "Point", "coordinates": [ 129.332092, 35.486897, 30.0 ] } },
{ "type": "Feature", "properties": { "value": 2.8784 }, "geometry": { "type": "Point", "coordinates": [ 129.317764, 35.487835, 30.0 ] } },
{ "type": "Feature", "properties": { "value": 90.743 }, "geometry": { "type": "Point", "coordinates": [ 129.318863, 35.487835, 30.0 ] } },
{ "type": "Feature", "properties": { "value": 279.25 }, "geometry": { "type": "Point", "coordinates": [ 129.319962, 35.487831, 30.0 ] } },
{ "type": "Feature", "properties": { "value": 80.405 }, "geometry": { "type": "Point", "coordinates": [ 129.321075, 35.487827, 30.0 ] } },
{ "type": "Feature", "properties": { "value": 1.1246 }, "geometry": { "type": "Point", "coordinates": [ 129.322174, 35.487823, 30.0 ] } },
{ "type": "Feature", "properties": { "value": 1.0676 }, "geometry": { "type": "Point", "coordinates": [ 129.32547, 35.487816, 30.0 ] } },
{ "type": "Feature", "properties": { "value": 13.783 }, "geometry": { "type": "Point", "coordinates": [ 129.326584, 35.487812, 30.0 ] } },
{ "type": "Feature", "properties": { "value": 55.999 }, "geometry": { "type": "Point", "coordinates": [ 129.327682, 35.487808, 30.0 ] } },
{ "type": "Feature", "properties": { "value": 96.237 }, "geometry": { "type": "Point", "coordinates": [ 129.328781, 35.487808, 30.0 ] } },
{ "type": "Feature", "properties": { "value": 71.167 }, "geometry": { "type": "Point", "coordinates": [ 129.32988, 35.487804, 30.0 ] } },
{ "type": "Feature", "properties": { "value": 22.87 }, "geometry": { "type": "Point", "coordinates": [ 129.330994, 35.487801, 30.0 ] } },
{ "type": "Feature", "properties": { "value": 2.8705 }, "geometry": { "type": "Point", "coordinates": [ 129.332092, 35.487797, 30.0 ] } },
{ "type": "Feature", "properties": { "value": 23.01 }, "geometry": { "type": "Point", "coordinates": [ 129.317764, 35.488739, 30.0 ] } },
{ "type": "Feature", "properties": { "value": 175.55 }, "geometry": { "type": "Point", "coordinates": [ 129.318863, 35.488735, 30.0 ] } },
{ "type": "Feature", "properties": { "value": 212.26 }, "geometry": { "type": "Point", "coordinates": [ 129.319977, 35.488731, 30.0 ] } },
{ "type": "Feature", "properties": { "value": 33.722 }, "geometry": { "type": "Point", "coordinates": [ 129.321075, 35.488728, 30.0 ] } },
{ "type": "Feature", "properties": { "value": 1.9476 }, "geometry": { "type": "Point", "coordinates": [ 129.325485, 35.488716, 30.0 ] } },
{ "type": "Feature", "properties": { "value": 16.894 }, "geometry": { "type": "Point", "coordinates": [ 129.326584, 35.488712, 30.0 ] } },
{ "type": "Feature", "properties": { "value": 59.009 }, "geometry": { "type": "Point", "coordinates": [ 129.327682, 35.488712, 30.0 ] } },
{ "type": "Feature", "properties": { "value": 92.784 }, "geometry": { "type": "Point", "coordinates": [ 129.328781, 35.488708, 30.0 ] } },
{ "type": "Feature", "properties": { "value": 67.536 }, "geometry": { "type": "Point", "coordinates": [ 129.329895, 35.488705, 30.0 ] } },
{ "type": "Feature", "properties": { "value": 23.086 }, "geometry": { "type": "Point", "coordinates": [ 129.330994, 35.488701, 30.0 ] } },
{ "type": "Feature", "properties": { "value": 3.3768 }, "geometry": { "type": "Point", "coordinates": [ 129.332092, 35.488697, 30.0 ] } },
{ "type": "Feature", "properties": { "value": 3.3362 }, "geometry": { "type": "Point", "coordinates": [ 129.316666, 35.489643, 30.0 ] } },
{ "type": "Feature", "properties": { "value": 71.319 }, "geometry": { "type": "Point", "coordinates": [ 129.317764, 35.489639, 30.0 ] } },
{ "type": "Feature", "properties": { "value": 214.64 }, "geometry": { "type": "Point", "coordinates": [ 129.318878, 35.489635, 30.0 ] } },
{ "type": "Feature", "properties": { "value": 102.36 }, "geometry": { "type": "Point", "coordinates": [ 129.319977, 35.489632, 30.0 ] } },
{ "type": "Feature", "properties": { "value": 6.0998 }, "geometry": { "type": "Point", "coordinates": [ 129.321075, 35.489632, 30.0 ] } },
{ "type": "Feature", "properties": { "value": 2.8242 }, "geometry": { "type": "Point", "coordinates": [ 129.325485, 35.489616, 30.0 ] } },
{ "type": "Feature", "properties": { "value": 20.404 }, "geometry": { "type": "Point", "coordinates": [ 129.326584, 35.489616, 30.0 ] } },
{ "type": "Feature", "properties": { "value": 63.476 }, "geometry": { "type": "Point", "coordinates": [ 129.327682, 35.489613, 30.0 ] } },
{ "type": "Feature", "properties": { "value": 92.582 }, "geometry": { "type": "Point", "coordinates": [ 129.328796, 35.489609, 30.0 ] } },
{ "type": "Feature", "properties": { "value": 65.425 }, "geometry": { "type": "Point", "coordinates": [ 129.329895, 35.489605, 30.0 ] } },
{ "type": "Feature", "properties": { "value": 22.929 }, "geometry": { "type": "Point", "coordinates": [ 129.330994, 35.489605, 30.0 ] } },
{ "type": "Feature", "properties": { "value": 3.6465 }, "geometry": { "type": "Point", "coordinates": [ 129.332092, 35.489601, 30.0 ] } },
{ "type": "Feature", "properties": { "value": 15.713 }, "geometry": { "type": "Point", "coordinates": [ 129.316666, 35.490543, 30.0 ] } },
{ "type": "Feature", "properties": { "value": 123.98 }, "geometry": { "type": "Point", "coordinates": [ 129.31778, 35.49054, 30.0 ] } },
{ "type": "Feature", "properties": { "value": 179.04 }, "geometry": { "type": "Point", "coordinates": [ 129.318878, 35.490536, 30.0 ] } },
{ "type": "Feature", "properties": { "value": 41.256 }, "geometry": { "type": "Point", "coordinates": [ 129.319977, 35.490536, 30.0 ] } },
{ "type": "Feature", "properties": { "value": 0.788 }, "geometry": { "type": "Point", "coordinates": [ 129.321075, 35.490532, 30.0 ] } },
{ "type": "Feature", "properties": { "value": 3.709 }, "geometry": { "type": "Point", "coordinates": [ 129.325485, 35.49052, 30.0 ] } },
{ "type": "Feature", "properties": { "value": 23.706 }, "geometry": { "type": "Point", "coordinates": [ 129.326584, 35.490517, 30.0 ] } },
{ "type": "Feature", "properties": { "value": 67.285 }, "geometry": { "type": "Point", "coordinates": [ 129.327698, 35.490513, 30.0 ] } },
{ "type": "Feature", "properties": { "value": 91.937 }, "geometry": { "type": "Point", "coordinates": [ 129.328796, 35.490509, 30.0 ] } },
{ "type": "Feature", "properties": { "value": 62.806 }, "geometry": { "type": "Point", "coordinates": [ 129.329895, 35.490509, 30.0 ] } },
{ "type": "Feature", "properties": { "value": 22.138 }, "geometry": { "type": "Point", "coordinates": [ 129.330994, 35.490505, 30.0 ] } },
{ "type": "Feature", "properties": { "value": 3.7057 }, "geometry": { "type": "Point", "coordinates": [ 129.332092, 35.490501, 30.0 ] } },
{ "type": "Feature", "properties": { "value": 1.6588 }, "geometry": { "type": "Point", "coordinates": [ 129.315567, 35.491447, 30.0 ] } },
{ "type": "Feature", "properties": { "value": 38.643 }, "geometry": { "type": "Point", "coordinates": [ 129.316681, 35.491444, 30.0 ] } },
{ "type": "Feature", "properties": { "value": 154.77 }, "geometry": { "type": "Point", "coordinates": [ 129.31778, 35.49144, 30.0 ] } },
{ "type": "Feature", "properties": { "value": 123.05 }, "geometry": { "type": "Point", "coordinates": [ 129.318878, 35.49144, 30.0 ] } },
{ "type": "Feature", "properties": { "value": 16.961 }, "geometry": { "type": "Point", "coordinates": [ 129.319977, 35.491436, 30.0 ] } },
{ "type": "Feature", "properties": { "value": 4.6156 }, "geometry": { "type": "Point", "coordinates": [ 129.325485, 35.491421, 30.0 ] } },
{ "type": "Feature", "properties": { "value": 26.31 }, "geometry": { "type": "Point", "coordinates": [ 129.326599, 35.491417, 30.0 ] } },
{ "type": "Feature", "properties": { "value": 69.994 }, "geometry": { "type": "Point", "coordinates": [ 129.327698, 35.491413, 30.0 ] } },
{ "type": "Feature", "properties": { "value": 91.008 }, "geometry": { "type": "Point", "coordinates": [ 129.328796, 35.491413, 30.0 ] } },
{ "type": "Feature", "properties": { "value": 61.079 }, "geometry": { "type": "Point", "coordinates": [ 129.329895, 35.491409, 30.0 ] } },
{ "type": "Feature", "properties": { "value": 21.84 }, "geometry": { "type": "Point", "coordinates": [ 129.331009, 35.491405, 30.0 ] } },
{ "type": "Feature", "properties": { "value": 3.9139 }, "geometry": { "type": "Point", "coordinates": [ 129.332108, 35.491402, 30.0 ] } },
{ "type": "Feature", "properties": { "value": 6.736 }, "geometry": { "type": "Point", "coordinates": [ 129.315582, 35.492348, 30.0 ] } },
{ "type": "Feature", "properties": { "value": 71.282 }, "geometry": { "type": "Point", "coordinates": [ 129.316681, 35.492344, 30.0 ] } },
{ "type": "Feature", "properties": { "value": 162.55 }, "geometry": { "type": "Point", "coordinates": [ 129.31778, 35.492344, 30.0 ] } },
{ "type": "Feature", "properties": { "value": 79.919 }, "geometry": { "type": "Point", "coordinates": [ 129.318878, 35.49234, 30.0 ] } },
{ "type": "Feature", "properties": { "value": 7.1102 }, "geometry": { "type": "Point", "coordinates": [ 129.319992, 35.492336, 30.0 ] } },
{ "type": "Feature", "properties": { "value": 5.365 }, "geometry": { "type": "Point", "coordinates": [ 129.3255, 35.492321, 30.0 ] } },
{ "type": "Feature", "properties": { "value": 27.963 }, "geometry": { "type": "Point", "coordinates": [ 129.326599, 35.492317, 30.0 ] } },
{ "type": "Feature", "properties": { "value": 71.926 }, "geometry": { "type": "Point", "coordinates": [ 129.327698, 35.492317, 30.0 ] } },
{ "type": "Feature", "properties": { "value": 92.011 }, "geometry": { "type": "Point", "coordinates": [ 129.328796, 35.492313, 30.0 ] } },
{ "type": "Feature", "properties": { "value": 61.935 }, "geometry": { "type": "Point", "coordinates": [ 129.32991, 35.49231, 30.0 ] } },
{ "type": "Feature", "properties": { "value": 22.519 }, "geometry": { "type": "Point", "coordinates": [ 129.331009, 35.492306, 30.0 ] } },
{ "type": "Feature", "properties": { "value": 4.2042 }, "geometry": { "type": "Point", "coordinates": [ 129.332108, 35.492306, 30.0 ] } },
{ "type": "Feature", "properties": { "value": 0.2 }, "geometry": { "type": "Point", "coordinates": [ 129.314484, 35.493252, 30.0 ] } },
{ "type": "Feature", "properties": { "value": 18.91 }, "geometry": { "type": "Point", "coordinates": [ 129.315582, 35.493248, 30.0 ] } },
{ "type": "Feature", "properties": { "value": 110.54 }, "geometry": { "type": "Point", "coordinates": [ 129.316681, 35.493248, 30.0 ] } },
{ "type": "Feature", "properties": { "value": 153.25 }, "geometry": { "type": "Point", "coordinates": [ 129.31778, 35.493244, 30.0 ] } },
{ "type": "Feature", "properties": { "value": 48.855 }, "geometry": { "type": "Point", "coordinates": [ 129.318893, 35.49324, 30.0 ] } },
{ "type": "Feature", "properties": { "value": 2.8979 }, "geometry": { "type": "Point", "coordinates": [ 129.319992, 35.493237, 30.0 ] } },
{ "type": "Feature", "properties": { "value": 6.4775 }, "geometry": { "type": "Point", "coordinates": [ 129.3255, 35.493225, 30.0 ] } },
{ "type": "Feature", "properties": { "value": 30.079 }, "geometry": { "type": "Point", "coordinates": [ 129.326599, 35.493221, 30.0 ] } },
{ "type": "Feature", "properties": { "value": 74.551 }, "geometry": { "type": "Point", "coordinates": [ 129.327698, 35.493217, 30.0 ] } },
{ "type": "Feature", "properties": { "value": 95.714 }, "geometry": { "type": "Point", "coordinates": [ 129.328812, 35.493214, 30.0 ] } },
{ "type": "Feature", "properties": { "value": 64.547 }, "geometry": { "type": "Point", "coordinates": [ 129.32991, 35.49321, 30.0 ] } },
{ "type": "Feature", "properties": { "value": 23.284 }, "geometry": { "type": "Point", "coordinates": [ 129.331009, 35.49321, 30.0 ] } },
{ "type": "Feature", "properties": { "value": 4.3897 }, "geometry": { "type": "Point", "coordinates": [ 129.332108, 35.493206, 30.0 ] } },
{ "type": "Feature", "properties": { "value": 2.7738 }, "geometry": { "type": "Point", "coordinates": [ 129.314484, 35.494152, 30.0 ] } },
{ "type": "Feature", "properties": { "value": 39.55 }, "geometry": { "type": "Point", "coordinates": [ 129.315582, 35.494152, 30.0 ] } },
{ "type": "Feature", "properties": { "value": 141.38 }, "geometry": { "type": "Point", "coordinates": [ 129.316681, 35.494148, 30.0 ] } },
{ "type": "Feature", "properties": { "value": 128.96 }, "geometry": { "type": "Point", "coordinates": [ 129.317795, 35.494144, 30.0 ] } },
{ "type": "Feature", "properties": { "value": 27.947 }, "geometry": { "type": "Point", "coordinates": [ 129.318893, 35.494141, 30.0 ] } },
{ "type": "Feature", "properties": { "value": 0.9997 }, "geometry": { "type": "Point", "coordinates": [ 129.319992, 35.494141, 30.0 ] } },
{ "type": "Feature", "properties": { "value": 0.4441 }, "geometry": { "type": "Point", "coordinates": [ 129.324402, 35.494129, 30.0 ] } },
{ "type": "Feature", "properties": { "value": 8.471 }, "geometry": { "type": "Point", "coordinates": [ 129.3255, 35.494125, 30.0 ] } },
{ "type": "Feature", "properties": { "value": 34.357 }, "geometry": { "type": "Point", "coordinates": [ 129.326599, 35.494122, 30.0 ] } },
{ "type": "Feature", "properties": { "value": 78.379 }, "geometry": { "type": "Point", "coordinates": [ 129.327713, 35.494118, 30.0 ] } },
{ "type": "Feature", "properties": { "value": 97.705 }, "geometry": { "type": "Point", "coordinates": [ 129.328812, 35.494114, 30.0 ] } },
{ "type": "Feature", "properties": { "value": 65.282 }, "geometry": { "type": "Point", "coordinates": [ 129.32991, 35.494114, 30.0 ] } },
{ "type": "Feature", "properties": { "value": 23.194 }, "geometry": { "type": "Point", "coordinates": [ 129.331009, 35.49411, 30.0 ] } },
{ "type": "Feature", "properties": { "value": 4.3371 }, "geometry": { "type": "Point", "coordinates": [ 129.332108, 35.494106, 30.0 ] } },
{ "type": "Feature", "properties": { "value": 7.6064 }, "geometry": { "type": "Point", "coordinates": [ 129.314484, 35.495056, 30.0 ] } },
{ "type": "Feature", "properties": { "value": 64.845 }, "geometry": { "type": "Point", "coordinates": [ 129.315582, 35.495052, 30.0 ] } },
{ "type": "Feature", "properties": { "value": 150.87 }, "geometry": { "type": "Point", "coordinates": [ 129.316696, 35.495049, 30.0 ] } },
{ "type": "Feature", "properties": { "value": 95.833 }, "geometry": { "type": "Point", "coordinates": [ 129.317795, 35.495045, 30.0 ] } },
{ "type": "Feature", "properties": { "value": 15.159 }, "geometry": { "type": "Point", "coordinates": [ 129.318893, 35.495045, 30.0 ] } },
{ "type": "Feature", "properties": { "value": 1.5738 }, "geometry": { "type": "Point", "coordinates": [ 129.324402, 35.495029, 30.0 ] } },
{ "type": "Feature", "properties": { "value": 11.43 }, "geometry": { "type": "Point", "coordinates": [ 129.3255, 35.495026, 30.0 ] } },
{ "type": "Feature", "properties": { "value": 39.702 }, "geometry": { "type": "Point", "coordinates": [ 129.326614, 35.495022, 30.0 ] } },
{ "type": "Feature", "properties": { "value": 80.785 }, "geometry": { "type": "Point", "coordinates": [ 129.327713, 35.495022, 30.0 ] } },
{ "type": "Feature", "properties": { "value": 93.951 }, "geometry": { "type": "Point", "coordinates": [ 129.328812, 35.495018, 30.0 ] } },
{ "type": "Feature", "properties": { "value": 60.633 }, "geometry": { "type": "Point", "coordinates": [ 129.32991, 35.495014, 30.0 ] } },
{ "type": "Feature", "properties": { "value": 21.552 }, "geometry": { "type": "Point", "coordinates": [ 129.331009, 35.49501, 30.0 ] } },
{ "type": "Feature", "properties": { "value": 4.2039 }, "geometry": { "type": "Point", "coordinates": [ 129.332123, 35.495007, 30.0 ] } },
{ "type": "Feature", "properties": { "value": 0.5269 }, "geometry": { "type": "Point", "coordinates": [ 129.313385, 35.49596, 30.0 ] } },
{ "type": "Feature", "properties": { "value": 15.363 }, "geometry": { "type": "Point", "coordinates": [ 129.314484, 35.495956, 30.0 ] } },
{ "type": "Feature", "properties": { "value": 89.623 }, "geometry": { "type": "Point", "coordinates": [ 129.315598, 35.495953, 30.0 ] } },
{ "type": "Feature", "properties": { "value": 138.24 }, "geometry": { "type": "Point", "coordinates": [ 129.316696, 35.495949, 30.0 ] } },
{ "type": "Feature", "properties": { "value": 60.431 }, "geometry": { "type": "Point", "coordinates": [ 129.317795, 35.495949, 30.0 ] } },
{ "type": "Feature", "properties": { "value": 7.0089 }, "geometry": { "type": "Point", "coordinates": [ 129.318893, 35.495945, 30.0 ] } },
{ "type": "Feature", "properties": { "value": 2.839 }, "geometry": { "type": "Point", "coordinates": [ 129.324402, 35.49593, 30.0 ] } },
{ "type": "Feature", "properties": { "value": 15.204 }, "geometry": { "type": "Point", "coordinates": [ 129.325516, 35.495926, 30.0 ] } },
{ "type": "Feature", "properties": { "value": 45.316 }, "geometry": { "type": "Point", "coordinates": [ 129.326614, 35.495926, 30.0 ] } },
{ "type": "Feature", "properties": { "value": 81.609 }, "geometry": { "type": "Point", "coordinates": [ 129.327713, 35.495922, 30.0 ] } },
{ "type": "Feature", "properties": { "value": 86.744 }, "geometry": { "type": "Point", "coordinates": [ 129.328812, 35.495918, 30.0 ] } },
{ "type": "Feature", "properties": { "value": 52.622 }, "geometry": { "type": "Point", "coordinates": [ 129.329926, 35.495914, 30.0 ] } },
{ "type": "Feature", "properties": { "value": 18.623 }, "geometry": { "type": "Point", "coordinates": [ 129.331024, 35.495911, 30.0 ] } },
{ "type": "Feature", "properties": { "value": 3.7153 }, "geometry": { "type": "Point", "coordinates": [ 129.332123, 35.495911, 30.0 ] } },
{ "type": "Feature", "properties": { "value": 1.3114 }, "geometry": { "type": "Point", "coordinates": [ 129.313385, 35.496861, 30.0 ] } },
{ "type": "Feature", "properties": { "value": 30.496 }, "geometry": { "type": "Point", "coordinates": [ 129.314499, 35.496857, 30.0 ] } },
{ "type": "Feature", "properties": { "value": 130.06 }, "geometry": { "type": "Point", "coordinates": [ 129.315598, 35.496857, 30.0 ] } },
{ "type": "Feature", "properties": { "value": 130.37 }, "geometry": { "type": "Point", "coordinates": [ 129.316696, 35.496853, 30.0 ] } },
{ "type": "Feature", "properties": { "value": 33.533 }, "geometry": { "type": "Point", "coordinates": [ 129.317795, 35.496849, 30.0 ] } },
{ "type": "Feature", "properties": { "value": 2.5591 }, "geometry": { "type": "Point", "coordinates": [ 129.318893, 35.496845, 30.0 ] } },
{ "type": "Feature", "properties": { "value": 4.7772 }, "geometry": { "type": "Point", "coordinates": [ 129.324417, 35.49683, 30.0 ] } },
{ "type": "Feature", "properties": { "value": 20.927 }, "geometry": { "type": "Point", "coordinates": [ 129.325516, 35.49683, 30.0 ] } },
{ "type": "Feature", "properties": { "value": 52.593 }, "geometry": { "type": "Point", "coordinates": [ 129.326614, 35.496826, 30.0 ] } },
{ "type": "Feature", "properties": { "value": 82.027 }, "geometry": { "type": "Point", "coordinates": [ 129.327713, 35.496822, 30.0 ] } },
{ "type": "Feature", "properties": { "value": 79.504 }, "geometry": { "type": "Point", "coordinates": [ 129.328827, 35.496819, 30.0 ] } },
{ "type": "Feature", "properties": { "value": 45.186 }, "geometry": { "type": "Point", "coordinates": [ 129.329926, 35.496815, 30.0 ] } },
{ "type": "Feature", "properties": { "value": 15.389 }, "geometry": { "type": "Point", "coordinates": [ 129.331024, 35.496815, 30.0 ] } },
{ "type": "Feature", "properties": { "value": 2.9375 }, "geometry": { "type": "Point", "coordinates": [ 129.332123, 35.496811, 30.0 ] } },
{ "type": "Feature", "properties": { "value": 5.4906 }, "geometry": { "type": "Point", "coordinates": [ 129.3134, 35.497761, 30.0 ] } },
{ "type": "Feature", "properties": { "value": 58.998 }, "geometry": { "type": "Point", "coordinates": [ 129.314499, 35.497761, 30.0 ] } },
{ "type": "Feature", "properties": { "value": 158.58 }, "geometry": { "type": "Point", "coordinates": [ 129.315598, 35.497757, 30.0 ] } },
{ "type": "Feature", "properties": { "value": 104.99 }, "geometry": { "type": "Point", "coordinates": [ 129.316696, 35.497753, 30.0 ] } },
{ "type": "Feature", "properties": { "value": 16.32 }, "geometry": { "type": "Point", "coordinates": [ 129.317795, 35.497749, 30.0 ] } },
{ "type": "Feature", "properties": { "value": 0.2705 }, "geometry": { "type": "Point", "coordinates": [ 129.318909, 35.497749, 30.0 ] } },
{ "type": "Feature", "properties": { "value": 0.8413 }, "geometry": { "type": "Point", "coordinates": [ 129.323318, 35.497734, 30.0 ] } },
{ "type": "Feature", "properties": { "value": 7.7326 }, "geometry": { "type": "Point", "coordinates": [ 129.324417, 35.497734, 30.0 ] } },
{ "type": "Feature", "properties": { "value": 28.375 }, "geometry": { "type": "Point", "coordinates": [ 129.325516, 35.49773, 30.0 ] } },
{ "type": "Feature", "properties": { "value": 61.131 }, "geometry": { "type": "Point", "coordinates": [ 129.326614, 35.497726, 30.0 ] } },
{ "type": "Feature", "properties": { "value": 81.285 }, "geometry": { "type": "Point", "coordinates": [ 129.327728, 35.497723, 30.0 ] } },
{ "type": "Feature", "properties": { "value": 70.685 }, "geometry": { "type": "Point", "coordinates": [ 129.328827, 35.497723, 30.0 ] } },
{ "type": "Feature", "properties": { "value": 38.123 }, "geometry": { "type": "Point", "coordinates": [ 129.329926, 35.497719, 30.0 ] } },
{ "type": "Feature", "properties": { "value": 12.324 }, "geometry": { "type": "Point", "coordinates": [ 129.331024, 35.497715, 30.0 ] } },
{ "type": "Feature", "properties": { "value": 2.1327 }, "geometry": { "type": "Point", "coordinates": [ 129.332123, 35.497711, 30.0 ] } },
{ "type": "Feature", "properties": { "value": 0.5679 }, "geometry": { "type": "Point", "coordinates": [ 129.312302, 35.498665, 30.0 ] } },
{ "type": "Feature", "properties": { "value": 17.255 }, "geometry": { "type": "Point", "coordinates": [ 129.3134, 35.498665, 30.0 ] } },
{ "type": "Feature", "properties": { "value": 95.869 }, "geometry": { "type": "Point", "coordinates": [ 129.314499, 35.498661, 30.0 ] } },
{ "type": "Feature", "properties": { "value": 154.33 }, "geometry": { "type": "Point", "coordinates": [ 129.315598, 35.498657, 30.0 ] } },
{ "type": "Feature", "properties": { "value": 66.307 }, "geometry": { "type": "Point", "coordinates": [ 129.316696, 35.498653, 30.0 ] } },
{ "type": "Feature", "properties": { "value": 6.6023 }, "geometry": { "type": "Point", "coordinates": [ 129.31781, 35.498653, 30.0 ] } },
{ "type": "Feature", "properties": { "value": 2.1115 }, "geometry": { "type": "Point", "coordinates": [ 129.323318, 35.498638, 30.0 ] } },
{ "type": "Feature", "properties": { "value": 11.479 }, "geometry": { "type": "Point", "coordinates": [ 129.324417, 35.498634, 30.0 ] } },
{ "type": "Feature", "properties": { "value": 35.663 }, "geometry": { "type": "Point", "coordinates": [ 129.325516, 35.498631, 30.0 ] } },
{ "type": "Feature", "properties": { "value": 67.111 }, "geometry": { "type": "Point", "coordinates": [ 129.32663, 35.498627, 30.0 ] } },
{ "type": "Feature", "properties": { "value": 78.276 }, "geometry": { "type": "Point", "coordinates": [ 129.327728, 35.498627, 30.0 ] } },
{ "type": "Feature", "properties": { "value": 60.573 }, "geometry": { "type": "Point", "coordinates": [ 129.328827, 35.498623, 30.0 ] } },
{ "type": "Feature", "properties": { "value": 30.561 }, "geometry": { "type": "Point", "coordinates": [ 129.329926, 35.498619, 30.0 ] } },
{ "type": "Feature", "properties": { "value": 9.4182 }, "geometry": { "type": "Point", "coordinates": [ 129.331024, 35.498615, 30.0 ] } },
{ "type": "Feature", "properties": { "value": 1.4699 }, "geometry": { "type": "Point", "coordinates": [ 129.332138, 35.498611, 30.0 ] } },
{ "type": "Feature", "properties": { "value": 4.1849 }, "geometry": { "type": "Point", "coordinates": [ 129.312302, 35.499569, 30.0 ] } },
{ "type": "Feature", "properties": { "value": 41.561 }, "geometry": { "type": "Point", "coordinates": [ 129.3134, 35.499565, 30.0 ] } },
{ "type": "Feature", "properties": { "value": 130.15 }, "geometry": { "type": "Point", "coordinates": [ 129.314499, 35.499561, 30.0 ] } },
{ "type": "Feature", "properties": { "value": 127.76 }, "geometry": { "type": "Point", "coordinates": [ 129.315598, 35.499557, 30.0 ] } },
{ "type": "Feature", "properties": { "value": 36.338 }, "geometry": { "type": "Point", "coordinates": [ 129.316711, 35.499557, 30.0 ] } },
{ "type": "Feature", "properties": { "value": 2.3591 }, "geometry": { "type": "Point", "coordinates": [ 129.31781, 35.499554, 30.0 ] } },
{ "type": "Feature", "properties": { "value": 3.4234 }, "geometry": { "type": "Point", "coordinates": [ 129.323318, 35.499538, 30.0 ] } },
{ "type": "Feature", "properties": { "value": 15.146 }, "geometry": { "type": "Point", "coordinates": [ 129.324417, 35.499535, 30.0 ] } },
{ "type": "Feature", "properties": { "value": 40.749 }, "geometry": { "type": "Point", "coordinates": [ 129.325531, 35.499531, 30.0 ] } },
{ "type": "Feature", "properties": { "value": 68.782 }, "geometry": { "type": "Point", "coordinates": [ 129.32663, 35.499531, 30.0 ] } },
{ "type": "Feature", "properties": { "value": 72.524 }, "geometry": { "type": "Point", "coordinates": [ 129.327728, 35.499527, 30.0 ] } },
{ "type": "Feature", "properties": { "value": 50.521 }, "geometry": { "type": "Point", "coordinates": [ 129.328827, 35.499523, 30.0 ] } },
{ "type": "Feature", "properties": { "value": 23.404 }, "geometry": { "type": "Point", "coordinates": [ 129.329926, 35.499519, 30.0 ] } },
{ "type": "Feature", "properties": { "value": 6.7643 }, "geometry": { "type": "Point", "coordinates": [ 129.331039, 35.499516, 30.0 ] } },
{ "type": "Feature", "properties": { "value": 0.8034 }, "geometry": { "type": "Point", "coordinates": [ 129.332138, 35.499516, 30.0 ] } },
{ "type": "Feature", "properties": { "value": 0.1583 }, "geometry": { "type": "Point", "coordinates": [ 129.311203, 35.500473, 30.0 ] } },
{ "type": "Feature", "properties": { "value": 12.857 }, "geometry": { "type": "Point", "coordinates": [ 129.312302, 35.500469, 30.0 ] } },
{ "type": "Feature", "properties": { "value": 77.714 }, "geometry": { "type": "Point", "coordinates": [ 129.3134, 35.500465, 30.0 ] } },
{ "type": "Feature", "properties": { "value": 151.05 }, "geometry": { "type": "Point", "coordinates": [ 129.314499, 35.500462, 30.0 ] } },
{ "type": "Feature", "properties": { "value": 94.705 }, "geometry": { "type": "Point", "coordinates": [ 129.315613, 35.500462, 30.0 ] } },
{ "type": "Feature", "properties": { "value": 17.997 }, "geometry": { "type": "Point", "coordinates": [ 129.316711, 35.500458, 30.0 ] } },
{ "type": "Feature", "properties": { "value": 0.5745 }, "geometry": { "type": "Point", "coordinates": [ 129.31781, 35.500454, 30.0 ] } },
{ "type": "Feature", "properties": { "value": 0.5222 }, "geometry": { "type": "Point", "coordinates": [ 129.32222, 35.500443, 30.0 ] } },
{ "type": "Feature", "properties": { "value": 4.409 }, "geometry": { "type": "Point", "coordinates": [ 129.323318, 35.500439, 30.0 ] } },
{ "type": "Feature", "properties": { "value": 17.165 }, "geometry": { "type": "Point", "coordinates": [ 129.324432, 35.500435, 30.0 ] } },
{ "type": "Feature", "properties": { "value": 40.963 }, "geometry": { "type": "Point", "coordinates": [ 129.325531, 35.500435, 30.0 ] } },
{ "type": "Feature", "properties": { "value": 62.75 }, "geometry": { "type": "Point", "coordinates": [ 129.32663, 35.500431, 30.0 ] } },
{ "type": "Feature", "properties": { "value": 61.264 }, "geometry": { "type": "Point", "coordinates": [ 129.327728, 35.500427, 30.0 ] } },
{ "type": "Feature", "properties": { "value": 39.54 }, "geometry": { "type": "Point", "coordinates": [ 129.328827, 35.500423, 30.0 ] } },
{ "type": "Feature", "properties": { "value": 17.049 }, "geometry": { "type": "Point", "coordinates": [ 129.329941, 35.500423, 30.0 ] } },
{ "type": "Feature", "properties": { "value": 4.5906 }, "geometry": { "type": "Point", "coordinates": [ 129.331039, 35.50042, 30.0 ] } },
{ "type": "Feature", "properties": { "value": 0.1129 }, "geometry": { "type": "Point", "coordinates": [ 129.332138, 35.500416, 30.0 ] } },
{ "type": "Feature", "properties": { "value": 1.3466 }, "geometry": { "type": "Point", "coordinates": [ 129.311203, 35.501373, 30.0 ] } },
{ "type": "Feature", "properties": { "value": 21.562 }, "geometry": { "type": "Point", "coordinates": [ 129.312302, 35.501369, 30.0 ] } },
{ "type": "Feature", "properties": { "value": 93.487 }, "geometry": { "type": "Point", "coordinates": [ 129.3134, 35.501366, 30.0 ] } },
{ "type": "Feature", "properties": { "value": 127.7 }, "geometry": { "type": "Point", "coordinates": [ 129.314514, 35.501366, 30.0 ] } },
{ "type": "Feature", "properties": { "value": 54.923 }, "geometry": { "type": "Point", "coordinates": [ 129.315613, 35.501362, 30.0 ] } },
{ "type": "Feature", "properties": { "value": 7.1723 }, "geometry": { "type": "Point", "coordinates": [ 129.316711, 35.501358, 30.0 ] } },
{ "type": "Feature", "properties": { "value": 0.6254 }, "geometry": { "type": "Point", "coordinates": [ 129.32222, 35.501343, 30.0 ] } },
{ "type": "Feature", "properties": { "value": 4.3045 }, "geometry": { "type": "Point", "coordinates": [ 129.323334, 35.501339, 30.0 ] } },
{ "type": "Feature", "properties": { "value": 15.277 }, "geometry": { "type": "Point", "coordinates": [ 129.324432, 35.501339, 30.0 ] } },
{ "type": "Feature", "properties": { "value": 33.487 }, "geometry": { "type": "Point", "coordinates": [ 129.325531, 35.501335, 30.0 ] } },
{ "type": "Feature", "properties": { "value": 47.441 }, "geometry": { "type": "Point", "coordinates": [ 129.32663, 35.501331, 30.0 ] } },
{ "type": "Feature", "properties": { "value": 43.897 }, "geometry": { "type": "Point", "coordinates": [ 129.327728, 35.501328, 30.0 ] } },
{ "type": "Feature", "properties": { "value": 27.084 }, "geometry": { "type": "Point", "coordinates": [ 129.328842, 35.501328, 30.0 ] } },
{ "type": "Feature", "properties": { "value": 11.072 }, "geometry": { "type": "Point", "coordinates": [ 129.329941, 35.501324, 30.0 ] } },
{ "type": "Feature", "properties": { "value": 2.794 }, "geometry": { "type": "Point", "coordinates": [ 129.331039, 35.50132, 30.0 ] } }
]
}
