{
"type": "FeatureCollection",
"features": [
{ "type": "Feature", "properties": { "value": 0.0 }, "geometry": { "type": "Point", "coordinates": [ 129.327606, 35.467983, 225.0 ] } },
{ "type": "Feature", "properties": { "value": 0.0 }, "geometry": { "type": "Point", "coordinates": [ 129.328705, 35.467979, 225.0 ] } },
{ "type": "Feature", "properties": { "value": 0.0 }, "geometry": { "type": "Point", "coordinates": [ 129.327606, 35.468884, 225.0 ] } },
{ "type": "Feature", "properties": { "value": 0.0 }, "geometry": { "type": "Point", "coordinates": [ 129.328705, 35.46888, 225.0 ] } },
{ "type": "Feature", "properties": { "value": 0.0 }, "geometry": { "type": "Point", "coordinates": [ 129.327606, 35.469784, 225.0 ] } },
{ "type": "Feature", "properties": { "value": 0.0 }, "geometry": { "type": "Point", "coordinates": [ 129.328705, 35.46978, 225.0 ] } },
{ "type": "Feature", "properties": { "value": 0.0 }, "geometry": { "type": "Point", "coordinates": [ 129.329819, 35.469776, 225.0 ] } },
{ "type": "Feature", "properties": { "value": 0.0 }, "geometry": { "type": "Point", "coordinates": [ 129.326508, 35.470688, 225.0 ] } },
{ "type": "Feature", "properties": { "value": 0.0 }, "geometry": { "type": "Point", "coordinates": [ 129.327606, 35.470684, 225.0 ] } },
{ "type": "Feature", "properties": { "value": 0.0 }, "geometry": { "type": "Point", "coordinates": [ 129.32872, 35.470684, 225.0 ] } },
{ "type": "Feature", "properties": { "value": 0.0 }, "geometry": { "type": "Point", "coordinates": [ 129.329819, 35.47068, 225.0 ] } },
{ "type": "Feature", "properties": { "value": 0.0 }, "geometry": { "type": "Point", "coordinates": [ 129.326508, 35.471588, 225.0 ] } },
{ "type": "Feature", "properties": { "value": 0.0 }, "geometry": { "type": "Point", "coordinates": [ 129.327621, 35.471588, 225.0 ] } },
{ "type": "Feature", "properties": { "value": 0.0 }, "geometry": { "type": "Point", "coordinates": [ 129.32872, 35.471584, 225.0 ] } },
{ "type": "Feature", "properties": { "value": 0.0 }, "geometry": { "type": "Point", "coordinates": [ 129.327621, 35.472488, 225.0 ] } },
{ "type": "Feature", "properties": { "value": 0.0 }, "geometry": { "type": "Point", "coordinates": [ 129.326523, 35.473392, 225.0 ] } },
{ "type": "Feature", "properties": { "value": 0.0 }, "geometry": { "type": "Point", "coordinates": [ 129.327621, 35.473389, 225.0 ] } },
{ "type": "Feature", "properties": { "value": 0.0 }, "geometry": { "type": "Point", "coordinates": [ 129.32872, 35.473385, 225.0 ] } },
{ "type": "Feature", "properties": { "value": 0.0 }, "geometry": { "type": "Point", "coordinates": [ 129.326523, 35.474293, 225.0 ] } },
{ "type": "Feature", "properties": { "value": 0.0 }, "geometry": { "type": "Point", "coordinates": [ 129.327621, 35.474289, 225.0 ] } },
{ "type": "Feature", "properties": { "value": 0.0 }, "geometry": { "type": "Point", "coordinates": [ 129.328735, 35.474289, 225.0 ] } },
{ "type": "Feature", "properties": { "value": 0.0 }, "geometry": { "type": "Point", "coordinates": [ 129.329834, 35.474285, 225.0 ] } },
{ "type": "Feature", "properties": { "value": 0.0 }, "geometry": { "type": "Point", "coordinates": [ 129.326523, 35.475193, 225.0 ] } },
{ "type": "Feature", "properties": { "value": 0.0 }, "geometry": { "type": "Point", "coordinates": [ 129.327637, 35.475193, 225.0 ] } },
{ "type": "Feature", "properties": { "value": 0.0 }, "geometry": { "type": "Point", "coordinates": [ 129.328735, 35.475189, 225.0 ] } },
{ "type": "Feature", "properties": { "value": 0.0 }, "geometry": { "type": "Point", "coordinates": [ 129.329834, 35.475185, 225.0 ] } },
{ "type": "Feature", "properties": { "value": 0.0 }, "geometry": { "type": "Point", "coordinates": [ 129.326538, 35.476097, 225.0 ] } },
{ "type": "Feature", "properties": { "value": 0.0 }, "geometry": { "type": "Point", "coordinates": [ 129.327637, 35.476093, 225.0 ] } },
{ "type": "Feature", "properties": { "value": 0.0 }, "geometry": { "type": "Point", "coordinates": [ 129.328735, 35.476089, 225.0 ] } },
{ "type": "Feature", "properties": { "value": 0.0 }, "geometry": { "type": "Point", "coordinates": [ 129.329834, 35.476086, 225.0 ] } },
{ "type": "Feature", "properties": { "value": 0.0 }, "geometry": { "type": "Point", "coordinates": [ 129.326538, 35.476997, 225.0 ] } },
{ "type": "Feature", "properties": { "value": 0.0004 }, "geometry": { "type": "Point", "coordinates": [ 129.327637, 35.476994, 225.0 ] } },
{ "type": "Feature", "properties": { "value": 0.0006 }, "geometry": { "type": "Point", "coordinates": [ 129.328735, 35.47699, 225.0 ] } },
{ "type": "Feature", "properties": { "value": 0.0003 }, "geometry": { "type": "Point", "coordinates": [ 129.329834, 35.47699, 225.0 ] } },
{ "type": "Feature", "properties": { "value": 0.0003 }, "geometry": { "type": "Point", "coordinates": [ 129.326538, 35.477898, 225.0 ] } },
{ "type": "Feature", "properties": { "value": 0.0048 }, "geometry": { "type": "Point", "coordinates": [ 129.327637, 35.477894, 225.0 ] } },
{ "type": "Feature", "properties": { "value": 0.0064 }, "geometry": { "type": "Point", "coordinates": [ 129.328735, 35.477894, 225.0 ] } },
{ "type": "Feature", "properties": { "value": 0.0016 }, "geometry": { "type": "Point", "coordinates": [ 129.329849, 35.47789, 225.0 ] } },
{ "type": "Feature", "properties": { "value": 0.0024 }, "geometry": { "type": "Point", "coordinates": [ 129.326538, 35.478798, 225.0 ] } },
{ "type": "Feature", "properties": { "value": 0.019 }, "geometry": { "type": "Point", "coordinates": [ 129.327637, 35.478798, 225.0 ] } },
{ "type": "Feature", "properties": { "value": 0.0222 }, "geometry": { "type": "Point", "coordinates": [ 129.328751, 35.478794, 225.0 ] } },
{ "type": "Feature", "properties": { "value": 0.0048 }, "geometry": { "type": "Point", "coordinates": [ 129.329849, 35.47879, 225.0 ] } },
{ "type": "Feature", "properties": { "value": 0.0044 }, "geometry": { "type": "Point", "coordinates": [ 129.326553, 35.479702, 225.0 ] } },
{ "type": "Feature", "properties": { "value": 0.0194 }, "geometry": { "type": "Point", "coordinates": [ 129.327652, 35.479698, 225.0 ] } },
{ "type": "Feature", "properties": { "value": 0.0241 }, "geometry": { "type": "Point", "coordinates": [ 129.328751, 35.479694, 225.0 ] } },
{ "type": "Feature", "properties": { "value": 0.007 }, "geometry": { "type": "Point", "coordinates": [ 129.329849, 35.479691, 225.0 ] } },
{ "type": "Feature", "properties": { "value": 0.0002 }, "geometry": { "type": "Point", "coordinates": [ 129.325455, 35.480606, 225.0 ] } },
{ "type": "Feature", "properties": { "value": 0.0024 }, "geometry": { "type": "Point", "coordinates": [ 129.326553, 35.480602, 225.0 ] } },
{ "type": "Feature", "properties": { "value": 0.0087 }, "geometry": { "type": "Point", "coordinates": [ 129.327652, 35.480598, 225.0 ] } },
{ "type": "Feature", "properties": { "value": 0.014 }, "geometry": { "type": "Point", "coordinates": [ 129.328751, 35.480595, 225.0 ] } },
{ "type": "Feature", "properties": { "value": 0.0061 }, "geometry": { "type": "Point", "coordinates": [ 129.329849, 35.480595, 225.0 ] } },
{ "type": "Feature", "properties": { "value": 0.0001 }, "geometry": { "type": "Point", "coordinates": [ 129.325455, 35.481506, 225.0 ] } },
{ "type": "Feature", "properties": { "value": 0.0014 }, "geometry": { "type": "Point", "coordinates": [ 129.326553, 35.481503, 225.0 ] } },
{ "type": "Feature", "properties": { "value": 0.0069 }, "geometry": { "type": "Point", "coordinates": [ 129.327652, 35.481503, 225.0 ] } },
{ "type": "Feature", "properties": { "value": 0.0132 }, "geometry": { "type": "Point", "coordinates": [ 129.328751, 35.481499, 225.0 ] } },
{ "type": "Feature", "properties": { "value": 0.0057 }, "geometry": { "type": "Point", "coordinates": [ 129.329865, 35.481495, 225.0 ] } },
{ "type": "Feature", "properties": { "value": 0.0001 }, "geometry": { "type": "Point", "coordinates": [ 129.325455, 35.482407, 225.0 ] } },
{ "type": "Feature", "properties": { "value": 0.0017 }, "geometry": { "type": "Point", "coordinates": [ 129.326553, 35.482407, 225.0 ] } },
{ "type": "Feature", "properties": { "value": 0.0113 }, "geometry": { "type": "Point", "coordinates": [ 129.327652, 35.482403, 225.0 ] } },
{ "type": "Feature", "properties": { "value": 0.0181 }, "geometry": { "type": "Point", "coordinates": [ 129.328766, 35.482399, 225.0 ] } },
{ "type": "Feature", "properties": { "value": 0.0056 }, "geometry": { "type": "Point", "coordinates": [ 129.329865, 35.482395, 225.0 ] } },
{ "type": "Feature", "properties": { "value": 0.0002 }, "geometry": { "type": "Point", "coordinates": [ 129.325455, 35.483311, 225.0 ] } },
{ "type": "Feature", "properties": { "value": 0.0031 }, "geometry": { "type": "Point", "coordinates": [ 129.326553, 35.483307, 225.0 ] } },
{ "type": "Feature", "properties": { "value": 0.0138 }, "geometry": { "type": "Point", "coordinates": [ 129.327667, 35.483303, 225.0 ] } },
{ "type": "Feature", "properties": { "value": 0.015 }, "geometry": { "type": "Point", "coordinates": [ 129.328766, 35.483299, 225.0 ] } },
{ "type": "Feature", "properties": { "value": 0.0046 }, "geometry": { "type": "Point", "coordinates": [ 129.329865, 35.483295, 225.0 ] } },
{ "type": "Feature", "properties": { "value": 0.0004 }, "geometry": { "type": "Point", "coordinates": [ 129.325455, 35.484211, 225.0 ] } },
{ "type": "Feature", "properties": { "value": 0.0043 }, "geometry": { "type": "Point", "coordinates": [ 129.326569, 35.484207, 225.0 ] } },
{ "type": "Feature", "properties": { "value": 0.0111 }, "geometry": { "type": "Point", "coordinates": [ 129.327667, 35.484203, 225.0 ] } },
{ "type": "Feature", "properties": { "value": 0.0096 }, "geometry": { "type": "Point", "coordinates": [ 129.328766, 35.484203, 225.0 ] } },
{ "type": "Feature", "properties": { "value": 0.0037 }, "geometry": { "type": "Point", "coordinates": [ 129.329865, 35.4842, 225.0 ] } },
{ "type": "Feature", "properties": { "value": 0.0 }, "geometry": { "type": "Point", "coordinates": [ 129.324371, 35.485115, 225.0 ] } },
{ "type": "Feature", "properties": { "value": 0.0011 }, "geometry": { "type": "Point", "coordinates": [ 129.32547, 35.485111, 225.0 ] } },
{ "type": "Feature", "properties": { "value": 0.0074 }, "geometry": { "type": "Point", "coordinates": [ 129.326569, 35.485107, 225.0 ] } },
{ "type": "Feature", "properties": { "value": 0.0137 }, "geometry": { "type": "Point", "coordinates": [ 129.327667, 35.485107, 225.0 ] } },
{ "type": "Feature", "properties": { "value": 0.0116 }, "geometry": { "type": "Point", "coordinates": [ 129.328766, 35.485104, 225.0 ] } },
{ "type": "Feature", "properties": { "value": 0.0039 }, "geometry": { "type": "Point", "coordinates": [ 129.32988, 35.4851, 225.0 ] } },
{ "type": "Feature", "properties": { "value": 0.0005 }, "geometry": { "type": "Point", "coordinates": [ 129.324371, 35.486015, 225.0 ] } },
{ "type": "Feature", "properties": { "value": 0.0053 }, "geometry": { "type": "Point", "coordinates": [ 129.32547, 35.486012, 225.0 ] } },
{ "type": "Feature", "properties": { "value": 0.0209 }, "geometry": { "type": "Point", "coordinates": [ 129.326569, 35.486012, 225.0 ] } },
{ "type": "Feature", "properties": { "value": 0.0312 }, "geometry": { "type": "Point", "coordinates": [ 129.327667, 35.486008, 225.0 ] } },
{ "type": "Feature", "properties": { "value": 0.0222 }, "geometry": { "type": "Point", "coordinates": [ 129.328781, 35.486004, 225.0 ] } },
{ "type": "Feature", "properties": { "value": 0.0049 }, "geometry": { "type": "Point", "coordinates": [ 129.32988, 35.486, 225.0 ] } },
{ "type": "Feature", "properties": { "value": 0.0031 }, "geometry": { "type": "Point", "coordinates": [ 129.324371, 35.486916, 225.0 ] } },
{ "type": "Feature", "properties": { "value": 0.0255 }, "geometry": { "type": "Point", "coordinates": [ 129.32547, 35.486916, 225.0 ] } },
{ "type": "Feature", "properties": { "value": 0.0655 }, "geometry": { "type": "Point", "coordinates": [ 129.326569, 35.486912, 225.0 ] } },
{ "type": "Feature", "properties": { "value": 0.0712 }, "geometry": { "type": "Point", "coordinates": [ 129.327682, 35.486908, 225.0 ] } },
{ "type": "Feature", "properties": { "value": 0.0368 }, "geometry": { "type": "Point", "coordinates": [ 129.328781, 35.486904, 225.0 ] } },
{ "type": "Feature", "properties": { "value": 0.0063 }, "geometry": { "type": "Point", "coordinates": [ 129.32988, 35.486904, 225.0 ] } },
{ "type": "Feature", "properties": { "value": 0.011 }, "geometry": { "type": "Point", "coordinates": [ 129.324371, 35.48782, 225.0 ] } },
{ "type": "Feature", "properties": { "value": 0.0679 }, "geometry": { "type": "Point", "coordinates": [ 129.32547, 35.487816, 225.0 ] } },
{ "type": "Feature", "properties": { "value": 0.1377 }, "geometry": { "type": "Point", "coordinates": [ 129.326584, 35.487812, 225.0 ] } },
{ "type": "Feature", "properties": { "value": 0.1241 }, "geometry": { "type": "Point", "coordinates": [ 129.327682, 35.487808, 225.0 ] } },
{ "type": "Feature", "properties": { "value": 0.0523 }, "geometry": { "type": "Point", "coordinates": [ 129.328781, 35.487808, 225.0 ] } },
{ "type": "Feature", "properties": { "value": 0.0081 }, "geometry": { "type": "Point", "coordinates": [ 129.32988, 35.487804, 225.0 ] } },
{ "type": "Feature", "properties": { "value": 0.0008 }, "geometry": { "type": "Point", "coordinates": [ 129.323273, 35.488724, 225.0 ] } },
{ "type": "Feature", "properties": { "value": 0.0163 }, "geometry": { "type": "Point", "coordinates": [ 129.324371, 35.48872, 225.0 ] } },
{ "type": "Feature", "properties": { "value": 0.0826 }, "geometry": { "type": "Point", "coordinates": [ 129.325485, 35.488716, 225.0 ] } },
{ "type": "Feature", "properties": { "value": 0.1615 }, "geometry": { "type": "Point", "coordinates": [ 129.326584, 35.488712, 225.0 ] } },
{ "type": "Feature", "properties": { "value": 0.1462 }, "geometry": { "type": "Point", "coordinates": [ 129.327682, 35.488712, 225.0 ] } },
{ "type": "Feature", "properties": { "value": 0.0622 }, "geometry": { "type": "Point", "coordinates": [ 129.328781, 35.488708, 225.0 ] } },
{ "type": "Feature", "properties": { "value": 0.0097 }, "geometry": { "type": "Point", "coordinates": [ 129.329895, 35.488705, 225.0 ] } },
{ "type": "Feature", "properties": { "value": 0.0011 }, "geometry": { "type": "Point", "coordinates": [ 129.323273, 35.489624, 225.0 ] } },
{ "type": "Feature", "properties": { "value": 0.0113 }, "geometry": { "type": "Point", "coordinates": [ 129.324387, 35.48962, 225.0 ] } },
{ "type": "Feature", "properties": { "value": 0.0507 }, "geometry": { "type": "Point", "coordinates": [ 129.325485, 35.489616, 225.0 ] } },
{ "type": "Feature", "properties": { "value": 0.1146 }, "geometry": { "type": "Point", "coordinates": [ 129.326584, 35.489616, 225.0 ] } },
{ "type": "Feature", "properties": { "value": 0.1198 }, "geometry": { "type": "Point", "coordinates": [ 129.327682, 35.489613, 225.0 ] } },
{ "type": "Feature", "properties": { "value": 0.0573 }, "geometry": { "type": "Point", "coordinates": [ 129.328796, 35.489609, 225.0 ] } },
{ "type": "Feature", "properties": { "value": 0.0096 }, "geometry": { "type": "Point", "coordinates": [ 129.329895, 35.489605, 225.0 ] } },
{ "type": "Feature", "properties": { "value": 0.0021 }, "geometry": { "type": "Point", "coordinates": [ 129.323288, 35.490524, 225.0 ] } },
{ "type": "Feature", "properties": { "value": 0.0116 }, "geometry": { "type": "Point", "coordinates": [ 129.324387, 35.490524, 225.0 ] } },
{ "type": "Feature", "properties": { "value": 0.0344 }, "geometry": { "type": "Point", "coordinates": [ 129.325485, 35.49052, 225.0 ] } },
{ "type": "Feature", "properties": { "value": 0.0736 }, "geometry": { "type": "Point", "coordinates": [ 129.326584, 35.490517, 225.0 ] } },
{ "type": "Feature", "properties": { "value": 0.0872 }, "geometry": { "type": "Point", "coordinates": [ 129.327698, 35.490513, 225.0 ] } },
{ "type": "Feature", "properties": { "value": 0.0479 }, "geometry": { "type": "Point", "coordinates": [ 129.328796, 35.490509, 225.0 ] } },
{ "type": "Feature", "properties": { "value": 0.0086 }, "geometry": { "type": "Point", "coordinates": [ 129.329895, 35.490509, 225.0 ] } },
{ "type": "Feature", "properties": { "value": 0.0003 }, "geometry": { "type": "Point", "coordinates": [ 129.322189, 35.491428, 225.0 ] } },
{ "type": "Feature", "properties": { "value": 0.0049 }, "geometry": { "type": "Point", "coordinates": [ 129.323288, 35.491428, 225.0 ] } },
{ "type": "Feature", "properties": { "value": 0.0199 }, "geometry": { "type": "Point", "coordinates": [ 129.324387, 35.491425, 225.0 ] } },
{ "type": "Feature", "properties": { "value": 0.0543 }, "geometry": { "type": "Point", "coordinates": [ 129.325485, 35.491421, 225.0 ] } },
{ "type": "Feature", "properties": { "value": 0.072 }, "geometry": { "type": "Point", "coordinates": [ 129.326599, 35.491417, 225.0 ] } },
{ "type": "Feature", "properties": { "value": 0.0703 }, "geometry": { "type": "Point", "coordinates": [ 129.327698, 35.491413, 225.0 ] } },
{ "type": "Feature", "properties": { "value": 0.0385 }, "geometry": { "type": "Point", "coordinates": [ 129.328796, 35.491413, 225.0 ] } },
{ "type": "Feature", "properties": { "value": 0.006 }, "geometry": { "type": "Point", "coordinates": [ 129.329895, 35.491409, 225.0 ] } },
{ "type": "Feature", "properties": { "value": 0.002 }, "geometry": { "type": "Point", "coordinates": [ 129.322189, 35.492332, 225.0 ] } },
{ "type": "Feature", "properties": { "value": 0.011 }, "geometry": { "type": "Point", "coordinates": [ 129.323288, 35.492329, 225.0 ] } },
{ "type": "Feature", "properties": { "value": 0.0525 }, "geometry": { "type": "Point", "coordinates": [ 129.324387, 35.492325, 225.0 ] } },
{ "type": "Feature", "properties": { "value": 0.1337 }, "geometry": { "type": "Point", "coordinates": [ 129.3255, 35.492321, 225.0 ] } },
{ "type": "Feature", "properties": { "value": 0.1148 }, "geometry": { "type": "Point", "coordinates": [ 129.326599, 35.492317, 225.0 ] } },
{ "type": "Feature", "properties": { "value": 0.0652 }, "geometry": { "type": "Point", "coordinates": [ 129.327698, 35.492317, 225.0 ] } },
{ "type": "Feature", "properties": { "value": 0.0266 }, "geometry": { "type": "Point", "coordinates": [ 129.328796, 35.492313, 225.0 ] } },
{ "type": "Feature", "properties": { "value": 0.0021 }, "geometry": { "type": "Point", "coordinates": [ 129.32991, 35.49231, 225.0 ] } },
{ "type": "Feature", "properties": { "value": 0.0057 }, "geometry": { "type": "Point", "coordinates": [ 129.322189, 35.493233, 225.0 ] } },
{ "type": "Feature", "properties": { "value": 0.023 }, "geometry": { "type": "Point", "coordinates": [ 129.323288, 35.493229, 225.0 ] } },
{ "type": "Feature", "properties": { "value": 0.084 }, "geometry": { "type": "Point", "coordinates": [ 129.324402, 35.493225, 225.0 ] } },
{ "type": "Feature", "properties": { "value": 0.2062 }, "geometry": { "type": "Point", "coordinates": [ 129.3255, 35.493225, 225.0 ] } },
{ "type": "Feature", "properties": { "value": 0.1517 }, "geometry": { "type": "Point", "coordinates": [ 129.326599, 35.493221, 225.0 ] } },
{ "type": "Feature", "properties": { "value": 0.0545 }, "geometry": { "type": "Point", "coordinates": [ 129.327698, 35.493217, 225.0 ] } },
{ "type": "Feature", "properties": { "value": 0.0141 }, "geometry": { "type": "Point", "coordinates": [ 129.328812, 35.493214, 225.0 ] } },
{ "type": "Feature", "properties": { "value": 0.0022 }, "geometry": { "type": "Point", "coordinates": [ 129.321091, 35.494137, 225.0 ] } },
{ "type": "Feature", "properties": { "value": 0.0134 }, "geometry": { "type": "Point", "coordinates": [ 129.322189, 35.494133, 225.0 ] } },
{ "type": "Feature", "properties": { "value": 0.0421 }, "geometry": { "type": "Point", "coordinates": [ 129.323303, 35.494129, 225.0 ] } },
{ "type": "Feature", "properties": { "value": 0.0975 }, "geometry": { "type": "Point", "coordinates": [ 129.324402, 35.494129, 225.0 ] } },
{ "type": "Feature", "properties": { "value": 0.1846 }, "geometry": { "type": "Point", "coordinates": [ 129.3255, 35.494125, 225.0 ] } },
{ "type": "Feature", "properties": { "value": 0.1263 }, "geometry": { "type": "Point", "coordinates": [ 129.326599, 35.494122, 225.0 ] } },
{ "type": "Feature", "properties": { "value": 0.039 }, "geometry": { "type": "Point", "coordinates": [ 129.327713, 35.494118, 225.0 ] } },
{ "type": "Feature", "properties": { "value": 0.0071 }, "geometry": { "type": "Point", "coordinates": [ 129.328812, 35.494114, 225.0 ] } },
{ "type": "Feature", "properties": { "value": 0.0069 }, "geometry": { "type": "Point", "coordinates": [ 129.321091, 35.495037, 225.0 ] } },
{ "type": "Feature", "properties": { "value": 0.0273 }, "geometry": { "type": "Point", "coordinates": [ 129.322205, 35.495033, 225.0 ] } },
{ "type": "Feature", "properties": { "value": 0.0668 }, "geometry": { "type": "Point", "coordinates": [ 129.323303, 35.495033, 225.0 ] } },
{ "type": "Feature", "properties": { "value": 0.1345 }, "geometry": { "type": "Point", "coordinates": [ 129.324402, 35.495029, 225.0 ] } },
{ "type": "Feature", "properties": { "value": 0.1733 }, "geometry": { "type": "Point", "coordinates": [ 129.3255, 35.495026, 225.0 ] } },
{ "type": "Feature", "properties": { "value": 0.1061 }, "geometry": { "type": "Point", "coordinates": [ 129.326614, 35.495022, 225.0 ] } },
{ "type": "Feature", "properties": { "value": 0.0312 }, "geometry": { "type": "Point", "coordinates": [ 129.327713, 35.495022, 225.0 ] } },
{ "type": "Feature", "properties": { "value": 0.0046 }, "geometry": { "type": "Point", "coordinates": [ 129.328812, 35.495018, 225.0 ] } },
{ "type": "Feature", "properties": { "value": 0.0035 }, "geometry": { "type": "Point", "coordinates": [ 129.319992, 35.495941, 225.0 ] } },
{ "type": "Feature", "properties": { "value": 0.0171 }, "geometry": { "type": "Point", "coordinates": [ 129.321106, 35.495937, 225.0 ] } },
{ "type": "Feature", "properties": { "value": 0.0498 }, "geometry": { "type": "Point", "coordinates": [ 129.322205, 35.495937, 225.0 ] } },
{ "type": "Feature", "properties": { "value": 0.1356 }, "geometry": { "type": "Point", "coordinates": [ 129.323303, 35.495934, 225.0 ] } },
{ "type": "Feature", "properties": { "value": 0.1997 }, "geometry": { "type": "Point", "coordinates": [ 129.324402, 35.49593, 225.0 ] } },
{ "type": "Feature", "properties": { "value": 0.1837 }, "geometry": { "type": "Point", "coordinates": [ 129.325516, 35.495926, 225.0 ] } },
{ "type": "Feature", "properties": { "value": 0.101 }, "geometry": { "type": "Point", "coordinates": [ 129.326614, 35.495926, 225.0 ] } },
{ "type": "Feature", "properties": { "value": 0.0262 }, "geometry": { "type": "Point", "coordinates": [ 129.327713, 35.495922, 225.0 ] } },
{ "type": "Feature", "properties": { "value": 0.0024 }, "geometry": { "type": "Point", "coordinates": [ 129.328812, 35.495918, 225.0 ] } },
{ "type": "Feature", "properties": { "value": 0.0019 }, "geometry": { "type": "Point", "coordinates": [ 129.318893, 35.496845, 225.0 ] } },
{ "type": "Feature", "properties": { "value": 0.0129 }, "geometry": { "type": "Point", "coordinates": [ 129.320007, 35.496841, 225.0 ] } },
{ "type": "Feature", "properties": { "value": 0.0399 }, "geometry": { "type": "Point", "coordinates": [ 129.321106, 35.496841, 225.0 ] } },
{ "type": "Feature", "properties": { "value": 0.1152 }, "geometry": { "type": "Point", "coordinates": [ 129.322205, 35.496838, 225.0 ] } },
{ "type": "Feature", "properties": { "value": 0.2482 }, "geometry": { "type": "Point", "coordinates": [ 129.323303, 35.496834, 225.0 ] } },
{ "type": "Feature", "properties": { "value": 0.1925 }, "geometry": { "type": "Point", "coordinates": [ 129.324417, 35.49683, 225.0 ] } },
{ "type": "Feature", "properties": { "value": 0.1267 }, "geometry": { "type": "Point", "coordinates": [ 129.325516, 35.49683, 225.0 ] } },
{ "type": "Feature", "properties": { "value": 0.0718 }, "geometry": { "type": "Point", "coordinates": [ 129.326614, 35.496826, 225.0 ] } },
{ "type": "Feature", "properties": { "value": 0.0185 }, "geometry": { "type": "Point", "coordinates": [ 129.327713, 35.496822, 225.0 ] } },
{ "type": "Feature", "properties": { "value": 0.0135 }, "geometry": { "type": "Point", "coordinates": [ 129.318909, 35.497749, 225.0 ] } },
{ "type": "Feature", "properties": { "value": 0.0392 }, "geometry": { "type": "Point", "coordinates": [ 129.320007, 35.497746, 225.0 ] } },
{ "type": "Feature", "properties": { "value": 0.093 }, "geometry": { "type": "Point", "coordinates": [ 129.321106, 35.497742, 225.0 ] } },
{ "type": "Feature", "properties": { "value": 0.2855 }, "geometry": { "type": "Point", "coordinates": [ 129.322205, 35.497738, 225.0 ] } },
{ "type": "Feature", "properties": { "value": 0.2891 }, "geometry": { "type": "Point", "coordinates": [ 129.323318, 35.497734, 225.0 ] } },
{ "type": "Feature", "properties": { "value": 0.1275 }, "geometry": { "type": "Point", "coordinates": [ 129.324417, 35.497734, 225.0 ] } },
{ "type": "Feature", "properties": { "value": 0.0658 }, "geometry": { "type": "Point", "coordinates": [ 129.325516, 35.49773, 225.0 ] } },
{ "type": "Feature", "properties": { "value": 0.0389 }, "geometry": { "type": "Point", "coordinates": [ 129.326614, 35.497726, 225.0 ] } },
{ "type": "Feature", "properties": { "value": 0.0106 }, "geometry": { "type": "Point", "coordinates": [ 129.327728, 35.497723, 225.0 ] } },
{ "type": "Feature", "properties": { "value": 0.0113 }, "geometry": { "type": "Point", "coordinates": [ 129.31781, 35.498653, 225.0 ] } },
{ "type": "Feature", "properties": { "value": 0.0696 }, "geometry": { "type": "Point", "coordinates": [ 129.318909, 35.49865, 225.0 ] } },
{ "type": "Feature", "properties": { "value": 0.0941 }, "geometry": { "type": "Point", "coordinates": [ 129.320007, 35.498646, 225.0 ] } },
{ "type": "Feature", "properties": { "value": 0.324 }, "geometry": { "type": "Point", "coordinates": [ 129.321106, 35.498642, 225.0 ] } },
{ "type": "Feature", "properties": { "value": 0.5422 }, "geometry": { "type": "Point", "coordinates": [ 129.32222, 35.498638, 225.0 ] } },
{ "type": "Feature", "properties": { "value": 0.2892 }, "geometry": { "type": "Point", "coordinates": [ 129.323318, 35.498638, 225.0 ] } },
{ "type": "Feature", "properties": { "value": 0.1096 }, "geometry": { "type": "Point", "coordinates": [ 129.324417, 35.498634, 225.0 ] } },
{ "type": "Feature", "properties": { "value": 0.0494 }, "geometry": { "type": "Point", "coordinates": [ 129.325516, 35.498631, 225.0 ] } },
{ "type": "Feature", "properties": { "value": 0.0232 }, "geometry": { "type": "Point", "coordinates": [ 129.32663, 35.498627, 225.0 ] } },
{ "type": "Feature", "properties": { "value": 0.0033 }, "geometry": { "type": "Point", "coordinates": [ 129.327728, 35.498627, 225.0 ] } },
{ "type": "Feature", "properties": { "value": 0.0069 }, "geometry": { "type": "Point", "coordinates": [ 129.316711, 35.499557, 225.0 ] } },
{ "type": "Feature", "properties": { "value": 0.0458 }, "geometry": { "type": "Point", "coordinates": [ 129.31781, 35.499554, 225.0 ] } },
{ "type": "Feature", "properties": { "value": 0.2328 }, "geometry": { "type": "Point", "coordinates": [ 129.318909, 35.49955, 225.0 ] } },
{ "type": "Feature", "properties": { "value": 0.3072 }, "geometry": { "type": "Point", "coordinates": [ 129.320007, 35.499546, 225.0 ] } },
{ "type": "Feature", "properties": { "value": 0.7831 }, "geometry": { "type": "Point", "coordinates": [ 129.321121, 35.499546, 225.0 ] } },
{ "type": "Feature", "properties": { "value": 0.7231 }, "geometry": { "type": "Point", "coordinates": [ 129.32222, 35.499542, 225.0 ] } },
{ "type": "Feature", "properties": { "value": 0.284 }, "geometry": { "type": "Point", "coordinates": [ 129.323318, 35.499538, 225.0 ] } },
{ "type": "Feature", "properties": { "value": 0.1154 }, "geometry": { "type": "Point", "coordinates": [ 129.324417, 35.499535, 225.0 ] } },
{ "type": "Feature", "properties": { "value": 0.0478 }, "geometry": { "type": "Point", "coordinates": [ 129.325531, 35.499531, 225.0 ] } },
{ "type": "Feature", "properties": { "value": 0.0141 }, "geometry": { "type": "Point", "coordinates": [ 129.32663, 35.499531, 225.0 ] } },
{ "type": "Feature", "properties": { "value": 0.0008 }, "geometry": { "type": "Point", "coordinates": [ 129.315613, 35.500462, 225.0 ] } },
{ "type": "Feature", "properties": { "value": 0.0226 }, "geometry": { "type": "Point", "coordinates": [ 129.316711, 35.500458, 225.0 ] } },
{ "type": "Feature", "properties": { "value": 0.1356 }, "geometry": { "type": "Point", "coordinates": [ 129.31781, 35.500454, 225.0 ] } },
{ "type": "Feature", "properties": { "value": 0.4611 }, "geometry": { "type": "Point", "coordinates": [ 129.318909, 35.50045, 225.0 ] } },
{ "type": "Feature", "properties": { "value": 0.7821 }, "geometry": { "type": "Point", "coordinates": [ 129.320023, 35.50045, 225.0 ] } },
{ "type": "Feature", "properties": { "value": 1.2291 }, "geometry": { "type": "Point", "coordinates": [ 129.321121, 35.500446, 225.0 ] } },
{ "type": "Feature", "properties": { "value": 0.6963 }, "geometry": { "type": "Point", "coordinates": [ 129.32222, 35.500443, 225.0 ] } },
{ "type": "Feature", "properties": { "value": 0.2397 }, "geometry": { "type": "Point", "coordinates": [ 129.323318, 35.500439, 225.0 ] } },
{ "type": "Feature", "properties": { "value": 0.1019 }, "geometry": { "type": "Point", "coordinates": [ 129.324432, 35.500435, 225.0 ] } },
{ "type": "Feature", "properties": { "value": 0.0409 }, "geometry": { "type": "Point", "coordinates": [ 129.325531, 35.500435, 225.0 ] } },
{ "type": "Feature", "properties": { "value": 0.0069 }, "geometry": { "type": "Point", "coordinates": [ 129.32663, 35.500431, 225.0 ] } },
{ "type": "Feature", "properties": { "value": 0.004 }, "geometry": { "type": "Point", "coordinates": [ 129.315613, 35.501362, 225.0 ] } },
{ "type": "Feature", "properties": { "value": 0.0432 }, "geometry": { "type": "Point", "coordinates": [ 129.316711, 35.501358, 225.0 ] } },
{ "type": "Feature", "properties": { "value": 0.2221 }, "geometry": { "type": "Point", "coordinates": [ 129.31781, 35.501354, 225.0 ] } },
{ "type": "Feature", "properties": { "value": 0.5078 }, "geometry": { "type": "Point", "coordinates": [ 129.318924, 35.501354, 225.0 ] } },
{ "type": "Feature", "properties": { "value": 1.1017 }, "geometry": { "type": "Point", "coordinates": [ 129.320023, 35.50135, 225.0 ] } },
{ "type": "Feature", "properties": { "value": 1.134 }, "geometry": { "type": "Point", "coordinates": [ 129.321121, 35.501347, 225.0 ] } },
{ "type": "Feature", "properties": { "value": 0.5068 }, "geometry": { "type": "Point", "coordinates": [ 129.32222, 35.501343, 225.0 ] } },
{ "type": "Feature", "properties": { "value": 0.1887 }, "geometry": { "type": "Point", "coordinates": [ 129.323334, 35.501339, 225.0 ] } },
{ "type": "Feature", "properties": { "value": 0.0811 }, "geometry": { "type": "Point", "coordinates": [ 129.324432, 35.501339, 225.0 ] } },
{ "type": "Feature", "properties": { "value": 0.0295 }, "geometry": { "type": "Point", "coordinates": [ 129.325531, 35.501335, 225.0 ] } }
]
}
