{
"type": "FeatureCollection",
"features": [
{ "type": "Feature", "properties": { "value": 0.0039 }, "geometry": { "type": "Point", "coordinates": [ 129.32756, 35.458969, 60.0 ] } },
{ "type": "Feature", "properties": { "value": 4.3196 }, "geometry": { "type": "Point", "coordinates": [ 129.32756, 35.459869, 60.0 ] } },
{ "type": "Feature", "properties": { "value": 108.61 }, "geometry": { "type": "Point", "coordinates": [ 129.327576, 35.46077, 60.0 ] } },
{ "type": "Feature", "properties": { "value": 192.78 }, "geometry": { "type": "Point", "coordinates": [ 129.327576, 35.461674, 60.0 ] } },
{ "type": "Feature", "properties": { "value": 158.49 }, "geometry": { "type": "Point", "coordinates": [ 129.327576, 35.462574, 60.0 ] } },
{ "type": "Feature", "properties": { "value": 62.283 }, "geometry": { "type": "Point", "coordinates": [ 129.327576, 35.463474, 60.0 ] } },
{ "type": "Feature", "properties": { "value": 1.9797 }, "geometry": { "type": "Point", "coordinates": [ 129.32869, 35.46347, 60.0 ] } },
{ "type": "Feature", "properties": { "value": 4.4361 }, "geometry": { "type": "Point", "coordinates": [ 129.327591, 35.464375, 60.0 ] } },
{ "type": "Feature", "properties": { "value": 0.2929 }, "geometry": { "type": "Point", "coordinates": [ 129.32869, 35.464375, 60.0 ] } }
]
}
