{
"type": "FeatureCollection",
"features": [
{ "type": "Feature", "properties": { "value": 0.0035 }, "geometry": { "type": "Point", "coordinates": [ 129.32756, 35.458969, 60.0 ] } },
{ "type": "Feature", "properties": { "value": 3.6226 }, "geometry": { "type": "Point", "coordinates": [ 129.32756, 35.459869, 60.0 ] } },
{ "type": "Feature", "properties": { "value": 81.577 }, "geometry": { "type": "Point", "coordinates": [ 129.327576, 35.46077, 60.0 ] } },
{ "type": "Feature", "properties": { "value": 127.87 }, "geometry": { "type": "Point", "coordinates": [ 129.327576, 35.461674, 60.0 ] } },
{ "type": "Feature", "properties": { "value": 92.116 }, "geometry": { "type": "Point", "coordinates": [ 129.327576, 35.462574, 60.0 ] } },
{ "type": "Feature", "properties": { "value": 1.9921 }, "geometry": { "type": "Point", "coordinates": [ 129.328674, 35.46257, 60.0 ] } },
{ "type": "Feature", "properties": { "value": 55.832 }, "geometry": { "type": "Point", "coordinates": [ 129.327576, 35.463474, 60.0 ] } },
{ "type": "Feature", "properties": { "value": 11.372 }, "geometry": { "type": "Point", "coordinates": [ 129.32869, 35.46347, 60.0 ] } },
{ "type": "Feature", "properties": { "value": 33.931 }, "geometry": { "type": "Point", "coordinates": [ 129.327591, 35.464375, 60.0 ] } },
{ "type": "Feature", "properties": { "value": 31.655 }, "geometry": { "type": "Point", "coordinates": [ 129.32869, 35.464375, 60.0 ] } },
{ "type": "Feature", "properties": { "value": 22.116 }, "geometry": { "type": "Point", "coordinates": [ 129.327591, 35.465279, 60.0 ] } },
{ "type": "Feature", "properties": { "value": 71.402 }, "geometry": { "type": "Point", "coordinates": [ 129.32869, 35.465275, 60.0 ] } },
{ "type": "Feature", "properties": { "value": 13.312 }, "geometry": { "type": "Point", "coordinates": [ 129.327591, 35.466179, 60.0 ] } },
{ "type": "Feature", "properties": { "value": 108.3 }, "geometry": { "type": "Point", "coordinates": [ 129.32869, 35.466175, 60.0 ] } },
{ "type": "Feature", "properties": { "value": 7.2436 }, "geometry": { "type": "Point", "coordinates": [ 129.327591, 35.467079, 60.0 ] } },
{ "type": "Feature", "properties": { "value": 118.2 }, "geometry": { "type": "Point", "coordinates": [ 129.328705, 35.467075, 60.0 ] } },
{ "type": "Feature", "properties": { "value": 6.6856 }, "geometry": { "type": "Point", "coordinates": [ 129.329803, 35.467075, 60.0 ] } },
{ "type": "Feature", "properties": { "value": 3.4289 }, "geometry": { "type": "Point", "coordinates": [ 129.327606, 35.467983, 60.0 ] } },
{ "type": "Feature", "properties": { "value": 103.64 }, "geometry": { "type": "Point", "coordinates": [ 129.328705, 35.467979, 60.0 ] } },
{ "type": "Feature", "properties": { "value": 20.253 }, "geometry": { "type": "Point", "coordinates": [ 129.329803, 35.467976, 60.0 ] } },
{ "type": "Feature", "properties": { "value": 1.5231 }, "geometry": { "type": "Point", "coordinates": [ 129.327606, 35.468884, 60.0 ] } },
{ "type": "Feature", "properties": { "value": 77.591 }, "geometry": { "type": "Point", "coordinates": [ 129.328705, 35.46888, 60.0 ] } },
{ "type": "Feature", "properties": { "value": 42.484 }, "geometry": { "type": "Point", "coordinates": [ 129.329803, 35.468876, 60.0 ] } },
{ "type": "Feature", "properties": { "value": 50.697 }, "geometry": { "type": "Point", "coordinates": [ 129.328705, 35.46978, 60.0 ] } },
{ "type": "Feature", "properties": { "value": 66.418 }, "geometry": { "type": "Point", "coordinates": [ 129.329819, 35.469776, 60.0 ] } },
{ "type": "Feature", "properties": { "value": 2.0758 }, "geometry": { "type": "Point", "coordinates": [ 129.330917, 35.469776, 60.0 ] } },
{ "type": "Feature", "properties": { "value": 28.764 }, "geometry": { "type": "Point", "coordinates": [ 129.32872, 35.470684, 60.0 ] } },
{ "type": "Feature", "properties": { "value": 72.923 }, "geometry": { "type": "Point", "coordinates": [ 129.329819, 35.47068, 60.0 ] } },
{ "type": "Feature", "properties": { "value": 5.8143 }, "geometry": { "type": "Point", "coordinates": [ 129.330917, 35.470676, 60.0 ] } },
{ "type": "Feature", "properties": { "value": 12.155 }, "geometry": { "type": "Point", "coordinates": [ 129.32872, 35.471584, 60.0 ] } },
{ "type": "Feature", "properties": { "value": 49.74 }, "geometry": { "type": "Point", "coordinates": [ 129.329819, 35.471581, 60.0 ] } },
{ "type": "Feature", "properties": { "value": 9.9672 }, "geometry": { "type": "Point", "coordinates": [ 129.330917, 35.471577, 60.0 ] } },
{ "type": "Feature", "properties": { "value": 3.8338 }, "geometry": { "type": "Point", "coordinates": [ 129.32872, 35.472485, 60.0 ] } },
{ "type": "Feature", "properties": { "value": 30.089 }, "geometry": { "type": "Point", "coordinates": [ 129.329819, 35.472481, 60.0 ] } },
{ "type": "Feature", "properties": { "value": 18.827 }, "geometry": { "type": "Point", "coordinates": [ 129.330917, 35.472477, 60.0 ] } },
{ "type": "Feature", "properties": { "value": 1.0874 }, "geometry": { "type": "Point", "coordinates": [ 129.332031, 35.472477, 60.0 ] } },
{ "type": "Feature", "properties": { "value": 1.3231 }, "geometry": { "type": "Point", "coordinates": [ 129.32872, 35.473385, 60.0 ] } },
{ "type": "Feature", "properties": { "value": 23.022 }, "geometry": { "type": "Point", "coordinates": [ 129.329819, 35.473385, 60.0 ] } },
{ "type": "Feature", "properties": { "value": 37.181 }, "geometry": { "type": "Point", "coordinates": [ 129.330933, 35.473381, 60.0 ] } },
{ "type": "Feature", "properties": { "value": 6.3442 }, "geometry": { "type": "Point", "coordinates": [ 129.332031, 35.473377, 60.0 ] } },
{ "type": "Feature", "properties": { "value": 0.5288 }, "geometry": { "type": "Point", "coordinates": [ 129.328735, 35.474289, 60.0 ] } },
{ "type": "Feature", "properties": { "value": 17.871 }, "geometry": { "type": "Point", "coordinates": [ 129.329834, 35.474285, 60.0 ] } },
{ "type": "Feature", "properties": { "value": 50.493 }, "geometry": { "type": "Point", "coordinates": [ 129.330933, 35.474281, 60.0 ] } },
{ "type": "Feature", "properties": { "value": 18.019 }, "geometry": { "type": "Point", "coordinates": [ 129.332031, 35.474277, 60.0 ] } },
{ "type": "Feature", "properties": { "value": 0.9161 }, "geometry": { "type": "Point", "coordinates": [ 129.33313, 35.474274, 60.0 ] } },
{ "type": "Feature", "properties": { "value": 10.855 }, "geometry": { "type": "Point", "coordinates": [ 129.329834, 35.475185, 60.0 ] } },
{ "type": "Feature", "properties": { "value": 47.572 }, "geometry": { "type": "Point", "coordinates": [ 129.330933, 35.475182, 60.0 ] } },
{ "type": "Feature", "properties": { "value": 32.234 }, "geometry": { "type": "Point", "coordinates": [ 129.332031, 35.475178, 60.0 ] } },
{ "type": "Feature", "properties": { "value": 4.0848 }, "geometry": { "type": "Point", "coordinates": [ 129.333145, 35.475178, 60.0 ] } },
{ "type": "Feature", "properties": { "value": 5.6204 }, "geometry": { "type": "Point", "coordinates": [ 129.329834, 35.476086, 60.0 ] } },
{ "type": "Feature", "properties": { "value": 37.544 }, "geometry": { "type": "Point", "coordinates": [ 129.330933, 35.476086, 60.0 ] } },
{ "type": "Feature", "properties": { "value": 44.309 }, "geometry": { "type": "Point", "coordinates": [ 129.332047, 35.476082, 60.0 ] } },
{ "type": "Feature", "properties": { "value": 11.021 }, "geometry": { "type": "Point", "coordinates": [ 129.333145, 35.476078, 60.0 ] } },
{ "type": "Feature", "properties": { "value": 0.3459 }, "geometry": { "type": "Point", "coordinates": [ 129.334244, 35.476074, 60.0 ] } },
{ "type": "Feature", "properties": { "value": 2.5078 }, "geometry": { "type": "Point", "coordinates": [ 129.329834, 35.47699, 60.0 ] } },
{ "type": "Feature", "properties": { "value": 24.766 }, "geometry": { "type": "Point", "coordinates": [ 129.330948, 35.476986, 60.0 ] } },
{ "type": "Feature", "properties": { "value": 48.6 }, "geometry": { "type": "Point", "coordinates": [ 129.332047, 35.476982, 60.0 ] } },
{ "type": "Feature", "properties": { "value": 22.195 }, "geometry": { "type": "Point", "coordinates": [ 129.333145, 35.476978, 60.0 ] } },
{ "type": "Feature", "properties": { "value": 2.6268 }, "geometry": { "type": "Point", "coordinates": [ 129.334244, 35.476974, 60.0 ] } },
{ "type": "Feature", "properties": { "value": 0.9179 }, "geometry": { "type": "Point", "coordinates": [ 129.329849, 35.47789, 60.0 ] } },
{ "type": "Feature", "properties": { "value": 13.882 }, "geometry": { "type": "Point", "coordinates": [ 129.330948, 35.477886, 60.0 ] } },
{ "type": "Feature", "properties": { "value": 43.531 }, "geometry": { "type": "Point", "coordinates": [ 129.332047, 35.477882, 60.0 ] } },
{ "type": "Feature", "properties": { "value": 34.682 }, "geometry": { "type": "Point", "coordinates": [ 129.333145, 35.477879, 60.0 ] } },
{ "type": "Feature", "properties": { "value": 7.8831 }, "geometry": { "type": "Point", "coordinates": [ 129.334259, 35.477879, 60.0 ] } },
{ "type": "Feature", "properties": { "value": 0.2751 }, "geometry": { "type": "Point", "coordinates": [ 129.335358, 35.477875, 60.0 ] } },
{ "type": "Feature", "properties": { "value": 6.6232 }, "geometry": { "type": "Point", "coordinates": [ 129.330948, 35.478786, 60.0 ] } },
{ "type": "Feature", "properties": { "value": 32.171 }, "geometry": { "type": "Point", "coordinates": [ 129.332047, 35.478786, 60.0 ] } },
{ "type": "Feature", "properties": { "value": 42.837 }, "geometry": { "type": "Point", "coordinates": [ 129.33316, 35.478783, 60.0 ] } },
{ "type": "Feature", "properties": { "value": 17.43 }, "geometry": { "type": "Point", "coordinates": [ 129.334259, 35.478779, 60.0 ] } },
{ "type": "Feature", "properties": { "value": 2.3649 }, "geometry": { "type": "Point", "coordinates": [ 129.335358, 35.478775, 60.0 ] } },
{ "type": "Feature", "properties": { "value": 2.653 }, "geometry": { "type": "Point", "coordinates": [ 129.330948, 35.479691, 60.0 ] } },
{ "type": "Feature", "properties": { "value": 19.646 }, "geometry": { "type": "Point", "coordinates": [ 129.332062, 35.479687, 60.0 ] } },
{ "type": "Feature", "properties": { "value": 42.148 }, "geometry": { "type": "Point", "coordinates": [ 129.33316, 35.479683, 60.0 ] } },
{ "type": "Feature", "properties": { "value": 29.519 }, "geometry": { "type": "Point", "coordinates": [ 129.334259, 35.479679, 60.0 ] } },
{ "type": "Feature", "properties": { "value": 7.5598 }, "geometry": { "type": "Point", "coordinates": [ 129.335358, 35.479675, 60.0 ] } },
{ "type": "Feature", "properties": { "value": 0.694 }, "geometry": { "type": "Point", "coordinates": [ 129.336456, 35.479675, 60.0 ] } },
{ "type": "Feature", "properties": { "value": 0.8408 }, "geometry": { "type": "Point", "coordinates": [ 129.330963, 35.480591, 60.0 ] } },
{ "type": "Feature", "properties": { "value": 10.024 }, "geometry": { "type": "Point", "coordinates": [ 129.332062, 35.480587, 60.0 ] } },
{ "type": "Feature", "properties": { "value": 33.477 }, "geometry": { "type": "Point", "coordinates": [ 129.33316, 35.480583, 60.0 ] } },
{ "type": "Feature", "properties": { "value": 38.475 }, "geometry": { "type": "Point", "coordinates": [ 129.334259, 35.480579, 60.0 ] } },
{ "type": "Feature", "properties": { "value": 17.106 }, "geometry": { "type": "Point", "coordinates": [ 129.335358, 35.480579, 60.0 ] } },
{ "type": "Feature", "properties": { "value": 3.4683 }, "geometry": { "type": "Point", "coordinates": [ 129.336472, 35.480576, 60.0 ] } },
{ "type": "Feature", "properties": { "value": 0.1718 }, "geometry": { "type": "Point", "coordinates": [ 129.33757, 35.480572, 60.0 ] } },
{ "type": "Feature", "properties": { "value": 4.316 }, "geometry": { "type": "Point", "coordinates": [ 129.332062, 35.481487, 60.0 ] } },
{ "type": "Feature", "properties": { "value": 21.467 }, "geometry": { "type": "Point", "coordinates": [ 129.33316, 35.481487, 60.0 ] } },
{ "type": "Feature", "properties": { "value": 37.586 }, "geometry": { "type": "Point", "coordinates": [ 129.334259, 35.481483, 60.0 ] } },
{ "type": "Feature", "properties": { "value": 27.076 }, "geometry": { "type": "Point", "coordinates": [ 129.335373, 35.48148, 60.0 ] } },
{ "type": "Feature", "properties": { "value": 9.5892 }, "geometry": { "type": "Point", "coordinates": [ 129.336472, 35.481476, 60.0 ] } },
{ "type": "Feature", "properties": { "value": 1.9569 }, "geometry": { "type": "Point", "coordinates": [ 129.33757, 35.481472, 60.0 ] } },
{ "type": "Feature", "properties": { "value": 0.0466 }, "geometry": { "type": "Point", "coordinates": [ 129.338669, 35.481472, 60.0 ] } },
{ "type": "Feature", "properties": { "value": 1.6686 }, "geometry": { "type": "Point", "coordinates": [ 129.332062, 35.482391, 60.0 ] } },
{ "type": "Feature", "properties": { "value": 11.532 }, "geometry": { "type": "Point", "coordinates": [ 129.333176, 35.482388, 60.0 ] } },
{ "type": "Feature", "properties": { "value": 28.975 }, "geometry": { "type": "Point", "coordinates": [ 129.334274, 35.482384, 60.0 ] } },
{ "type": "Feature", "properties": { "value": 31.986 }, "geometry": { "type": "Point", "coordinates": [ 129.335373, 35.48238, 60.0 ] } },
{ "type": "Feature", "properties": { "value": 18.0 }, "geometry": { "type": "Point", "coordinates": [ 129.336472, 35.482376, 60.0 ] } },
{ "type": "Feature", "properties": { "value": 6.0097 }, "geometry": { "type": "Point", "coordinates": [ 129.33757, 35.482376, 60.0 ] } },
{ "type": "Feature", "properties": { "value": 1.3463 }, "geometry": { "type": "Point", "coordinates": [ 129.338684, 35.482372, 60.0 ] } },
{ "type": "Feature", "properties": { "value": 0.063 }, "geometry": { "type": "Point", "coordinates": [ 129.339783, 35.482368, 60.0 ] } },
{ "type": "Feature", "properties": { "value": 0.6117 }, "geometry": { "type": "Point", "coordinates": [ 129.332077, 35.483292, 60.0 ] } },
{ "type": "Feature", "properties": { "value": 5.6786 }, "geometry": { "type": "Point", "coordinates": [ 129.333176, 35.483288, 60.0 ] } },
{ "type": "Feature", "properties": { "value": 19.043 }, "geometry": { "type": "Point", "coordinates": [ 129.334274, 35.483284, 60.0 ] } },
{ "type": "Feature", "properties": { "value": 29.681 }, "geometry": { "type": "Point", "coordinates": [ 129.335373, 35.48328, 60.0 ] } },
{ "type": "Feature", "properties": { "value": 24.615 }, "geometry": { "type": "Point", "coordinates": [ 129.336472, 35.48328, 60.0 ] } },
{ "type": "Feature", "properties": { "value": 12.407 }, "geometry": { "type": "Point", "coordinates": [ 129.337585, 35.483276, 60.0 ] } },
{ "type": "Feature", "properties": { "value": 4.3202 }, "geometry": { "type": "Point", "coordinates": [ 129.338684, 35.483273, 60.0 ] } },
{ "type": "Feature", "properties": { "value": 1.1336 }, "geometry": { "type": "Point", "coordinates": [ 129.339783, 35.483269, 60.0 ] } },
{ "type": "Feature", "properties": { "value": 0.1264 }, "geometry": { "type": "Point", "coordinates": [ 129.340881, 35.483265, 60.0 ] } },
{ "type": "Feature", "properties": { "value": 0.0174 }, "geometry": { "type": "Point", "coordinates": [ 129.332077, 35.484192, 60.0 ] } },
{ "type": "Feature", "properties": { "value": 2.6024 }, "geometry": { "type": "Point", "coordinates": [ 129.333176, 35.484188, 60.0 ] } },
{ "type": "Feature", "properties": { "value": 10.951 }, "geometry": { "type": "Point", "coordinates": [ 129.334274, 35.484188, 60.0 ] } },
{ "type": "Feature", "properties": { "value": 22.688 }, "geometry": { "type": "Point", "coordinates": [ 129.335373, 35.484184, 60.0 ] } },
{ "type": "Feature", "properties": { "value": 26.144 }, "geometry": { "type": "Point", "coordinates": [ 129.336487, 35.48418, 60.0 ] } },
{ "type": "Feature", "properties": { "value": 18.756 }, "geometry": { "type": "Point", "coordinates": [ 129.337585, 35.484177, 60.0 ] } },
{ "type": "Feature", "properties": { "value": 9.3228 }, "geometry": { "type": "Point", "coordinates": [ 129.338684, 35.484173, 60.0 ] } },
{ "type": "Feature", "properties": { "value": 3.5394 }, "geometry": { "type": "Point", "coordinates": [ 129.339783, 35.484173, 60.0 ] } },
{ "type": "Feature", "properties": { "value": 1.1014 }, "geometry": { "type": "Point", "coordinates": [ 129.340897, 35.484169, 60.0 ] } },
{ "type": "Feature", "properties": { "value": 0.2228 }, "geometry": { "type": "Point", "coordinates": [ 129.341995, 35.484165, 60.0 ] } },
{ "type": "Feature", "properties": { "value": 1.0707 }, "geometry": { "type": "Point", "coordinates": [ 129.333176, 35.485092, 60.0 ] } },
{ "type": "Feature", "properties": { "value": 5.5877 }, "geometry": { "type": "Point", "coordinates": [ 129.334274, 35.485088, 60.0 ] } },
{ "type": "Feature", "properties": { "value": 14.81 }, "geometry": { "type": "Point", "coordinates": [ 129.335388, 35.485085, 60.0 ] } },
{ "type": "Feature", "properties": { "value": 22.673 }, "geometry": { "type": "Point", "coordinates": [ 129.336487, 35.485081, 60.0 ] } },
{ "type": "Feature", "properties": { "value": 22.073 }, "geometry": { "type": "Point", "coordinates": [ 129.337585, 35.485077, 60.0 ] } },
{ "type": "Feature", "properties": { "value": 14.966 }, "geometry": { "type": "Point", "coordinates": [ 129.338684, 35.485077, 60.0 ] } },
{ "type": "Feature", "properties": { "value": 7.7052 }, "geometry": { "type": "Point", "coordinates": [ 129.339798, 35.485073, 60.0 ] } },
{ "type": "Feature", "properties": { "value": 3.2086 }, "geometry": { "type": "Point", "coordinates": [ 129.340897, 35.485069, 60.0 ] } },
{ "type": "Feature", "properties": { "value": 1.1121 }, "geometry": { "type": "Point", "coordinates": [ 129.341995, 35.485065, 60.0 ] } },
{ "type": "Feature", "properties": { "value": 0.315 }, "geometry": { "type": "Point", "coordinates": [ 129.343094, 35.485062, 60.0 ] } },
{ "type": "Feature", "properties": { "value": 0.3361 }, "geometry": { "type": "Point", "coordinates": [ 129.333176, 35.485992, 60.0 ] } },
{ "type": "Feature", "properties": { "value": 2.5517 }, "geometry": { "type": "Point", "coordinates": [ 129.33429, 35.485989, 60.0 ] } },
{ "type": "Feature", "properties": { "value": 8.4348 }, "geometry": { "type": "Point", "coordinates": [ 129.335388, 35.485985, 60.0 ] } },
{ "type": "Feature", "properties": { "value": 16.595 }, "geometry": { "type": "Point", "coordinates": [ 129.336487, 35.485981, 60.0 ] } },
{ "type": "Feature", "properties": { "value": 21.139 }, "geometry": { "type": "Point", "coordinates": [ 129.337585, 35.485981, 60.0 ] } },
{ "type": "Feature", "properties": { "value": 18.835 }, "geometry": { "type": "Point", "coordinates": [ 129.338699, 35.485977, 60.0 ] } },
{ "type": "Feature", "properties": { "value": 12.637 }, "geometry": { "type": "Point", "coordinates": [ 129.339798, 35.485973, 60.0 ] } },
{ "type": "Feature", "properties": { "value": 6.777 }, "geometry": { "type": "Point", "coordinates": [ 129.340897, 35.48597, 60.0 ] } },
{ "type": "Feature", "properties": { "value": 3.0535 }, "geometry": { "type": "Point", "coordinates": [ 129.341995, 35.485966, 60.0 ] } },
{ "type": "Feature", "properties": { "value": 1.2261 }, "geometry": { "type": "Point", "coordinates": [ 129.343094, 35.485966, 60.0 ] } },
{ "type": "Feature", "properties": { "value": 0.4345 }, "geometry": { "type": "Point", "coordinates": [ 129.344208, 35.485962, 60.0 ] } },
{ "type": "Feature", "properties": { "value": 0.054 }, "geometry": { "type": "Point", "coordinates": [ 129.345306, 35.485958, 60.0 ] } },
{ "type": "Feature", "properties": { "value": 1.0278 }, "geometry": { "type": "Point", "coordinates": [ 129.33429, 35.486889, 60.0 ] } },
{ "type": "Feature", "properties": { "value": 4.2591 }, "geometry": { "type": "Point", "coordinates": [ 129.335388, 35.486889, 60.0 ] } },
{ "type": "Feature", "properties": { "value": 10.485 }, "geometry": { "type": "Point", "coordinates": [ 129.336487, 35.486885, 60.0 ] } },
{ "type": "Feature", "properties": { "value": 16.952 }, "geometry": { "type": "Point", "coordinates": [ 129.337601, 35.486881, 60.0 ] } },
{ "type": "Feature", "properties": { "value": 19.238 }, "geometry": { "type": "Point", "coordinates": [ 129.338699, 35.486877, 60.0 ] } },
{ "type": "Feature", "properties": { "value": 16.368 }, "geometry": { "type": "Point", "coordinates": [ 129.339798, 35.486874, 60.0 ] } },
{ "type": "Feature", "properties": { "value": 11.081 }, "geometry": { "type": "Point", "coordinates": [ 129.340897, 35.486874, 60.0 ] } },
{ "type": "Feature", "properties": { "value": 6.2928 }, "geometry": { "type": "Point", "coordinates": [ 129.341995, 35.48687, 60.0 ] } },
{ "type": "Feature", "properties": { "value": 3.1404 }, "geometry": { "type": "Point", "coordinates": [ 129.343109, 35.486866, 60.0 ] } },
{ "type": "Feature", "properties": { "value": 1.4197 }, "geometry": { "type": "Point", "coordinates": [ 129.344208, 35.486862, 60.0 ] } },
{ "type": "Feature", "properties": { "value": 0.5964 }, "geometry": { "type": "Point", "coordinates": [ 129.345306, 35.486858, 60.0 ] } },
{ "type": "Feature", "properties": { "value": 0.2122 }, "geometry": { "type": "Point", "coordinates": [ 129.346405, 35.486855, 60.0 ] } },
{ "type": "Feature", "properties": { "value": 0.3553 }, "geometry": { "type": "Point", "coordinates": [ 129.33429, 35.487793, 60.0 ] } },
{ "type": "Feature", "properties": { "value": 1.9407 }, "geometry": { "type": "Point", "coordinates": [ 129.335388, 35.487789, 60.0 ] } },
{ "type": "Feature", "properties": { "value": 5.8254 }, "geometry": { "type": "Point", "coordinates": [ 129.336502, 35.487785, 60.0 ] } },
{ "type": "Feature", "properties": { "value": 11.607 }, "geometry": { "type": "Point", "coordinates": [ 129.337601, 35.487782, 60.0 ] } },
{ "type": "Feature", "properties": { "value": 16.321 }, "geometry": { "type": "Point", "coordinates": [ 129.338699, 35.487778, 60.0 ] } },
{ "type": "Feature", "properties": { "value": 17.228 }, "geometry": { "type": "Point", "coordinates": [ 129.339798, 35.487778, 60.0 ] } },
{ "type": "Feature", "properties": { "value": 14.463 }, "geometry": { "type": "Point", "coordinates": [ 129.340912, 35.487774, 60.0 ] } },
{ "type": "Feature", "properties": { "value": 10.099 }, "geometry": { "type": "Point", "coordinates": [ 129.34201, 35.48777, 60.0 ] } },
{ "type": "Feature", "properties": { "value": 6.1429 }, "geometry": { "type": "Point", "coordinates": [ 129.343109, 35.487766, 60.0 ] } },
{ "type": "Feature", "properties": { "value": 3.3613 }, "geometry": { "type": "Point", "coordinates": [ 129.344208, 35.487762, 60.0 ] } },
{ "type": "Feature", "properties": { "value": 1.7018 }, "geometry": { "type": "Point", "coordinates": [ 129.345306, 35.487759, 60.0 ] } },
{ "type": "Feature", "properties": { "value": 0.8246 }, "geometry": { "type": "Point", "coordinates": [ 129.34642, 35.487759, 60.0 ] } },
{ "type": "Feature", "properties": { "value": 0.3605 }, "geometry": { "type": "Point", "coordinates": [ 129.347519, 35.487755, 60.0 ] } },
{ "type": "Feature", "properties": { "value": 0.1176 }, "geometry": { "type": "Point", "coordinates": [ 129.348618, 35.487751, 60.0 ] } },
{ "type": "Feature", "properties": { "value": 0.0054 }, "geometry": { "type": "Point", "coordinates": [ 129.380569, 35.487656, 60.0 ] } },
{ "type": "Feature", "properties": { "value": 0.0068 }, "geometry": { "type": "Point", "coordinates": [ 129.381683, 35.487652, 60.0 ] } },
{ "type": "Feature", "properties": { "value": 0.7862 }, "geometry": { "type": "Point", "coordinates": [ 129.335403, 35.488689, 60.0 ] } },
{ "type": "Feature", "properties": { "value": 2.8854 }, "geometry": { "type": "Point", "coordinates": [ 129.336502, 35.488686, 60.0 ] } },
{ "type": "Feature", "properties": { "value": 6.9467 }, "geometry": { "type": "Point", "coordinates": [ 129.337601, 35.488682, 60.0 ] } },
{ "type": "Feature", "properties": { "value": 11.833 }, "geometry": { "type": "Point", "coordinates": [ 129.338699, 35.488682, 60.0 ] } },
{ "type": "Feature", "properties": { "value": 15.206 }, "geometry": { "type": "Point", "coordinates": [ 129.339813, 35.488678, 60.0 ] } },
{ "type": "Feature", "properties": { "value": 15.546 }, "geometry": { "type": "Point", "coordinates": [ 129.340912, 35.488674, 60.0 ] } },
{ "type": "Feature", "properties": { "value": 13.153 }, "geometry": { "type": "Point", "coordinates": [ 129.34201, 35.48867, 60.0 ] } },
{ "type": "Feature", "properties": { "value": 9.5907 }, "geometry": { "type": "Point", "coordinates": [ 129.343109, 35.488667, 60.0 ] } },
{ "type": "Feature", "properties": { "value": 6.2355 }, "geometry": { "type": "Point", "coordinates": [ 129.344208, 35.488667, 60.0 ] } },
{ "type": "Feature", "properties": { "value": 3.7291 }, "geometry": { "type": "Point", "coordinates": [ 129.345322, 35.488663, 60.0 ] } },
{ "type": "Feature", "properties": { "value": 2.0881 }, "geometry": { "type": "Point", "coordinates": [ 129.34642, 35.488659, 60.0 ] } },
{ "type": "Feature", "properties": { "value": 1.1049 }, "geometry": { "type": "Point", "coordinates": [ 129.347519, 35.488655, 60.0 ] } },
{ "type": "Feature", "properties": { "value": 0.5465 }, "geometry": { "type": "Point", "coordinates": [ 129.348618, 35.488651, 60.0 ] } },
{ "type": "Feature", "properties": { "value": 0.2439 }, "geometry": { "type": "Point", "coordinates": [ 129.349731, 35.488647, 60.0 ] } },
{ "type": "Feature", "properties": { "value": 0.0589 }, "geometry": { "type": "Point", "coordinates": [ 129.35083, 35.488647, 60.0 ] } },
{ "type": "Feature", "properties": { "value": 0.015 }, "geometry": { "type": "Point", "coordinates": [ 129.377274, 35.488567, 60.0 ] } },
{ "type": "Feature", "properties": { "value": 0.0265 }, "geometry": { "type": "Point", "coordinates": [ 129.378372, 35.488564, 60.0 ] } },
{ "type": "Feature", "properties": { "value": 0.0309 }, "geometry": { "type": "Point", "coordinates": [ 129.379471, 35.48856, 60.0 ] } },
{ "type": "Feature", "properties": { "value": 0.0322 }, "geometry": { "type": "Point", "coordinates": [ 129.380585, 35.488556, 60.0 ] } },
{ "type": "Feature", "properties": { "value": 0.0323 }, "geometry": { "type": "Point", "coordinates": [ 129.381683, 35.488552, 60.0 ] } },
{ "type": "Feature", "properties": { "value": 0.2552 }, "geometry": { "type": "Point", "coordinates": [ 129.335403, 35.48959, 60.0 ] } },
{ "type": "Feature", "properties": { "value": 1.2729 }, "geometry": { "type": "Point", "coordinates": [ 129.336502, 35.48959, 60.0 ] } },
{ "type": "Feature", "properties": { "value": 3.6741 }, "geometry": { "type": "Point", "coordinates": [ 129.337601, 35.489586, 60.0 ] } },
{ "type": "Feature", "properties": { "value": 7.4995 }, "geometry": { "type": "Point", "coordinates": [ 129.338715, 35.489582, 60.0 ] } },
{ "type": "Feature", "properties": { "value": 11.542 }, "geometry": { "type": "Point", "coordinates": [ 129.339813, 35.489578, 60.0 ] } },
{ "type": "Feature", "properties": { "value": 14.136 }, "geometry": { "type": "Point", "coordinates": [ 129.340912, 35.489574, 60.0 ] } },
{ "type": "Feature", "properties": { "value": 14.328 }, "geometry": { "type": "Point", "coordinates": [ 129.34201, 35.489571, 60.0 ] } },
{ "type": "Feature", "properties": { "value": 12.404 }, "geometry": { "type": "Point", "coordinates": [ 129.343109, 35.489571, 60.0 ] } },
{ "type": "Feature", "properties": { "value": 9.4742 }, "geometry": { "type": "Point", "coordinates": [ 129.344223, 35.489567, 60.0 ] } },
{ "type": "Feature", "properties": { "value": 6.5856 }, "geometry": { "type": "Point", "coordinates": [ 129.345322, 35.489563, 60.0 ] } },
{ "type": "Feature", "properties": { "value": 4.229 }, "geometry": { "type": "Point", "coordinates": [ 129.34642, 35.489559, 60.0 ] } },
{ "type": "Feature", "properties": { "value": 2.5408 }, "geometry": { "type": "Point", "coordinates": [ 129.347519, 35.489555, 60.0 ] } },
{ "type": "Feature", "properties": { "value": 1.449 }, "geometry": { "type": "Point", "coordinates": [ 129.348633, 35.489555, 60.0 ] } },
{ "type": "Feature", "properties": { "value": 0.7849 }, "geometry": { "type": "Point", "coordinates": [ 129.349731, 35.489552, 60.0 ] } },
{ "type": "Feature", "properties": { "value": 0.4087 }, "geometry": { "type": "Point", "coordinates": [ 129.35083, 35.489548, 60.0 ] } },
{ "type": "Feature", "properties": { "value": 0.1986 }, "geometry": { "type": "Point", "coordinates": [ 129.351929, 35.489544, 60.0 ] } },
{ "type": "Feature", "properties": { "value": 0.0376 }, "geometry": { "type": "Point", "coordinates": [ 129.353027, 35.48954, 60.0 ] } },
{ "type": "Feature", "properties": { "value": 0.0392 }, "geometry": { "type": "Point", "coordinates": [ 129.375076, 35.489475, 60.0 ] } },
{ "type": "Feature", "properties": { "value": 0.0577 }, "geometry": { "type": "Point", "coordinates": [ 129.376175, 35.489471, 60.0 ] } },
{ "type": "Feature", "properties": { "value": 0.0697 }, "geometry": { "type": "Point", "coordinates": [ 129.377274, 35.489468, 60.0 ] } },
{ "type": "Feature", "properties": { "value": 0.0794 }, "geometry": { "type": "Point", "coordinates": [ 129.378387, 35.489464, 60.0 ] } },
{ "type": "Feature", "properties": { "value": 0.0833 }, "geometry": { "type": "Point", "coordinates": [ 129.379486, 35.48946, 60.0 ] } },
{ "type": "Feature", "properties": { "value": 0.0834 }, "geometry": { "type": "Point", "coordinates": [ 129.380585, 35.489456, 60.0 ] } },
{ "type": "Feature", "properties": { "value": 0.0784 }, "geometry": { "type": "Point", "coordinates": [ 129.381683, 35.489452, 60.0 ] } },
{ "type": "Feature", "properties": { "value": 0.4917 }, "geometry": { "type": "Point", "coordinates": [ 129.336502, 35.49049, 60.0 ] } },
{ "type": "Feature", "properties": { "value": 1.7277 }, "geometry": { "type": "Point", "coordinates": [ 129.337616, 35.490486, 60.0 ] } },
{ "type": "Feature", "properties": { "value": 4.1593 }, "geometry": { "type": "Point", "coordinates": [ 129.338715, 35.490482, 60.0 ] } },
{ "type": "Feature", "properties": { "value": 7.5838 }, "geometry": { "type": "Point", "coordinates": [ 129.339813, 35.490479, 60.0 ] } },
{ "type": "Feature", "properties": { "value": 11.043 }, "geometry": { "type": "Point", "coordinates": [ 129.340912, 35.490479, 60.0 ] } },
{ "type": "Feature", "properties": { "value": 13.236 }, "geometry": { "type": "Point", "coordinates": [ 129.34201, 35.490475, 60.0 ] } },
{ "type": "Feature", "properties": { "value": 13.454 }, "geometry": { "type": "Point", "coordinates": [ 129.343124, 35.490471, 60.0 ] } },
{ "type": "Feature", "properties": { "value": 11.988 }, "geometry": { "type": "Point", "coordinates": [ 129.344223, 35.490467, 60.0 ] } },
{ "type": "Feature", "properties": { "value": 9.6107 }, "geometry": { "type": "Point", "coordinates": [ 129.345322, 35.490463, 60.0 ] } },
{ "type": "Feature", "properties": { "value": 7.0591 }, "geometry": { "type": "Point", "coordinates": [ 129.34642, 35.490459, 60.0 ] } },
{ "type": "Feature", "properties": { "value": 4.8117 }, "geometry": { "type": "Point", "coordinates": [ 129.347534, 35.490459, 60.0 ] } },
{ "type": "Feature", "properties": { "value": 3.0809 }, "geometry": { "type": "Point", "coordinates": [ 129.348633, 35.490456, 60.0 ] } },
{ "type": "Feature", "properties": { "value": 1.8892 }, "geometry": { "type": "Point", "coordinates": [ 129.349731, 35.490452, 60.0 ] } },
{ "type": "Feature", "properties": { "value": 1.1246 }, "geometry": { "type": "Point", "coordinates": [ 129.35083, 35.490448, 60.0 ] } },
{ "type": "Feature", "properties": { "value": 0.6661 }, "geometry": { "type": "Point", "coordinates": [ 129.351929, 35.490444, 60.0 ] } },
{ "type": "Feature", "properties": { "value": 0.3847 }, "geometry": { "type": "Point", "coordinates": [ 129.353043, 35.49044, 60.0 ] } },
{ "type": "Feature", "properties": { "value": 0.2121 }, "geometry": { "type": "Point", "coordinates": [ 129.354141, 35.49044, 60.0 ] } },
{ "type": "Feature", "properties": { "value": 0.1057 }, "geometry": { "type": "Point", "coordinates": [ 129.35524, 35.490437, 60.0 ] } },
{ "type": "Feature", "properties": { "value": 0.0217 }, "geometry": { "type": "Point", "coordinates": [ 129.356339, 35.490433, 60.0 ] } },
{ "type": "Feature", "properties": { "value": 0.0373 }, "geometry": { "type": "Point", "coordinates": [ 129.371765, 35.490387, 60.0 ] } },
{ "type": "Feature", "properties": { "value": 0.0707 }, "geometry": { "type": "Point", "coordinates": [ 129.372879, 35.490383, 60.0 ] } },
{ "type": "Feature", "properties": { "value": 0.101 }, "geometry": { "type": "Point", "coordinates": [ 129.373978, 35.490379, 60.0 ] } },
{ "type": "Feature", "properties": { "value": 0.1228 }, "geometry": { "type": "Point", "coordinates": [ 129.375076, 35.490376, 60.0 ] } },
{ "type": "Feature", "properties": { "value": 0.1456 }, "geometry": { "type": "Point", "coordinates": [ 129.376175, 35.490372, 60.0 ] } },
{ "type": "Feature", "properties": { "value": 0.1642 }, "geometry": { "type": "Point", "coordinates": [ 129.377289, 35.490368, 60.0 ] } },
{ "type": "Feature", "properties": { "value": 0.1761 }, "geometry": { "type": "Point", "coordinates": [ 129.378387, 35.490364, 60.0 ] } },
{ "type": "Feature", "properties": { "value": 0.1815 }, "geometry": { "type": "Point", "coordinates": [ 129.379486, 35.49036, 60.0 ] } },
{ "type": "Feature", "properties": { "value": 0.1775 }, "geometry": { "type": "Point", "coordinates": [ 129.380585, 35.490356, 60.0 ] } },
{ "type": "Feature", "properties": { "value": 0.1639 }, "geometry": { "type": "Point", "coordinates": [ 129.381683, 35.490356, 60.0 ] } },
{ "type": "Feature", "properties": { "value": 0.1238 }, "geometry": { "type": "Point", "coordinates": [ 129.336517, 35.49139, 60.0 ] } },
{ "type": "Feature", "properties": { "value": 0.7057 }, "geometry": { "type": "Point", "coordinates": [ 129.337616, 35.491386, 60.0 ] } },
{ "type": "Feature", "properties": { "value": 2.0332 }, "geometry": { "type": "Point", "coordinates": [ 129.338715, 35.491383, 60.0 ] } },
{ "type": "Feature", "properties": { "value": 4.3539 }, "geometry": { "type": "Point", "coordinates": [ 129.339813, 35.491383, 60.0 ] } },
{ "type": "Feature", "properties": { "value": 7.4285 }, "geometry": { "type": "Point", "coordinates": [ 129.340927, 35.491379, 60.0 ] } },
{ "type": "Feature", "properties": { "value": 10.414 }, "geometry": { "type": "Point", "coordinates": [ 129.342026, 35.491375, 60.0 ] } },
{ "type": "Feature", "properties": { "value": 12.339 }, "geometry": { "type": "Point", "coordinates": [ 129.343124, 35.491371, 60.0 ] } },
{ "type": "Feature", "properties": { "value": 12.724 }, "geometry": { "type": "Point", "coordinates": [ 129.344223, 35.491367, 60.0 ] } },
{ "type": "Feature", "properties": { "value": 11.711 }, "geometry": { "type": "Point", "coordinates": [ 129.345322, 35.491367, 60.0 ] } },
{ "type": "Feature", "properties": { "value": 9.808 }, "geometry": { "type": "Point", "coordinates": [ 129.346436, 35.491364, 60.0 ] } },
{ "type": "Feature", "properties": { "value": 7.5605 }, "geometry": { "type": "Point", "coordinates": [ 129.347534, 35.49136, 60.0 ] } },
{ "type": "Feature", "properties": { "value": 5.4235 }, "geometry": { "type": "Point", "coordinates": [ 129.348633, 35.491356, 60.0 ] } },
{ "type": "Feature", "properties": { "value": 3.6983 }, "geometry": { "type": "Point", "coordinates": [ 129.349731, 35.491352, 60.0 ] } },
{ "type": "Feature", "properties": { "value": 2.4533 }, "geometry": { "type": "Point", "coordinates": [ 129.350845, 35.491348, 60.0 ] } },
{ "type": "Feature", "properties": { "value": 1.6041 }, "geometry": { "type": "Point", "coordinates": [ 129.351944, 35.491348, 60.0 ] } },
{ "type": "Feature", "properties": { "value": 1.0391 }, "geometry": { "type": "Point", "coordinates": [ 129.353043, 35.491344, 60.0 ] } },
{ "type": "Feature", "properties": { "value": 0.6737 }, "geometry": { "type": "Point", "coordinates": [ 129.354141, 35.491341, 60.0 ] } },
{ "type": "Feature", "properties": { "value": 0.4451 }, "geometry": { "type": "Point", "coordinates": [ 129.35524, 35.491337, 60.0 ] } },
{ "type": "Feature", "properties": { "value": 0.3009 }, "geometry": { "type": "Point", "coordinates": [ 129.356354, 35.491333, 60.0 ] } },
{ "type": "Feature", "properties": { "value": 0.2084 }, "geometry": { "type": "Point", "coordinates": [ 129.357452, 35.491329, 60.0 ] } },
{ "type": "Feature", "properties": { "value": 0.1441 }, "geometry": { "type": "Point", "coordinates": [ 129.358551, 35.491325, 60.0 ] } },
{ "type": "Feature", "properties": { "value": 0.1073 }, "geometry": { "type": "Point", "coordinates": [ 129.35965, 35.491325, 60.0 ] } },
{ "type": "Feature", "properties": { "value": 0.0772 }, "geometry": { "type": "Point", "coordinates": [ 129.360764, 35.491322, 60.0 ] } },
{ "type": "Feature", "properties": { "value": 0.0583 }, "geometry": { "type": "Point", "coordinates": [ 129.361862, 35.491318, 60.0 ] } },
{ "type": "Feature", "properties": { "value": 0.0425 }, "geometry": { "type": "Point", "coordinates": [ 129.362961, 35.491314, 60.0 ] } },
{ "type": "Feature", "properties": { "value": 0.034 }, "geometry": { "type": "Point", "coordinates": [ 129.364059, 35.49131, 60.0 ] } },
{ "type": "Feature", "properties": { "value": 0.0371 }, "geometry": { "type": "Point", "coordinates": [ 129.365158, 35.491306, 60.0 ] } },
{ "type": "Feature", "properties": { "value": 0.0453 }, "geometry": { "type": "Point", "coordinates": [ 129.366272, 35.491302, 60.0 ] } },
{ "type": "Feature", "properties": { "value": 0.0572 }, "geometry": { "type": "Point", "coordinates": [ 129.367371, 35.491299, 60.0 ] } },
{ "type": "Feature", "properties": { "value": 0.0715 }, "geometry": { "type": "Point", "coordinates": [ 129.368469, 35.491299, 60.0 ] } },
{ "type": "Feature", "properties": { "value": 0.0942 }, "geometry": { "type": "Point", "coordinates": [ 129.369568, 35.491295, 60.0 ] } },
{ "type": "Feature", "properties": { "value": 0.1223 }, "geometry": { "type": "Point", "coordinates": [ 129.370682, 35.491291, 60.0 ] } },
{ "type": "Feature", "properties": { "value": 0.1511 }, "geometry": { "type": "Point", "coordinates": [ 129.37178, 35.491287, 60.0 ] } },
{ "type": "Feature", "properties": { "value": 0.1921 }, "geometry": { "type": "Point", "coordinates": [ 129.372879, 35.491283, 60.0 ] } },
{ "type": "Feature", "properties": { "value": 0.2294 }, "geometry": { "type": "Point", "coordinates": [ 129.373978, 35.49128, 60.0 ] } },
{ "type": "Feature", "properties": { "value": 0.2677 }, "geometry": { "type": "Point", "coordinates": [ 129.375076, 35.491276, 60.0 ] } },
{ "type": "Feature", "properties": { "value": 0.3038 }, "geometry": { "type": "Point", "coordinates": [ 129.37619, 35.491272, 60.0 ] } },
{ "type": "Feature", "properties": { "value": 0.3321 }, "geometry": { "type": "Point", "coordinates": [ 129.377289, 35.491268, 60.0 ] } },
{ "type": "Feature", "properties": { "value": 0.3505 }, "geometry": { "type": "Point", "coordinates": [ 129.378387, 35.491268, 60.0 ] } },
{ "type": "Feature", "properties": { "value": 0.353 }, "geometry": { "type": "Point", "coordinates": [ 129.379486, 35.491264, 60.0 ] } },
{ "type": "Feature", "properties": { "value": 0.339 }, "geometry": { "type": "Point", "coordinates": [ 129.3806, 35.491261, 60.0 ] } },
{ "type": "Feature", "properties": { "value": 0.3087 }, "geometry": { "type": "Point", "coordinates": [ 129.381699, 35.491257, 60.0 ] } },
{ "type": "Feature", "properties": { "value": 0.2284 }, "geometry": { "type": "Point", "coordinates": [ 129.337616, 35.49229, 60.0 ] } },
{ "type": "Feature", "properties": { "value": 0.878 }, "geometry": { "type": "Point", "coordinates": [ 129.338715, 35.492287, 60.0 ] } },
{ "type": "Feature", "properties": { "value": 2.2144 }, "geometry": { "type": "Point", "coordinates": [ 129.339828, 35.492283, 60.0 ] } },
{ "type": "Feature", "properties": { "value": 4.3703 }, "geometry": { "type": "Point", "coordinates": [ 129.340927, 35.492279, 60.0 ] } },
{ "type": "Feature", "properties": { "value": 7.0837 }, "geometry": { "type": "Point", "coordinates": [ 129.342026, 35.492275, 60.0 ] } },
{ "type": "Feature", "properties": { "value": 9.691 }, "geometry": { "type": "Point", "coordinates": [ 129.343124, 35.492271, 60.0 ] } },
{ "type": "Feature", "properties": { "value": 11.469 }, "geometry": { "type": "Point", "coordinates": [ 129.344223, 35.492271, 60.0 ] } },
{ "type": "Feature", "properties": { "value": 12.02 }, "geometry": { "type": "Point", "coordinates": [ 129.345337, 35.492268, 60.0 ] } },
{ "type": "Feature", "properties": { "value": 11.399 }, "geometry": { "type": "Point", "coordinates": [ 129.346436, 35.492264, 60.0 ] } },
{ "type": "Feature", "properties": { "value": 9.8957 }, "geometry": { "type": "Point", "coordinates": [ 129.347534, 35.49226, 60.0 ] } },
{ "type": "Feature", "properties": { "value": 7.9446 }, "geometry": { "type": "Point", "coordinates": [ 129.348633, 35.492256, 60.0 ] } },
{ "type": "Feature", "properties": { "value": 6.0494 }, "geometry": { "type": "Point", "coordinates": [ 129.349747, 35.492252, 60.0 ] } },
{ "type": "Feature", "properties": { "value": 4.439 }, "geometry": { "type": "Point", "coordinates": [ 129.350845, 35.492252, 60.0 ] } },
{ "type": "Feature", "properties": { "value": 3.1823 }, "geometry": { "type": "Point", "coordinates": [ 129.351944, 35.492249, 60.0 ] } },
{ "type": "Feature", "properties": { "value": 2.2488 }, "geometry": { "type": "Point", "coordinates": [ 129.353043, 35.492245, 60.0 ] } },
{ "type": "Feature", "properties": { "value": 1.5913 }, "geometry": { "type": "Point", "coordinates": [ 129.354141, 35.492241, 60.0 ] } },
{ "type": "Feature", "properties": { "value": 1.1351 }, "geometry": { "type": "Point", "coordinates": [ 129.355255, 35.492237, 60.0 ] } },
{ "type": "Feature", "properties": { "value": 0.8296 }, "geometry": { "type": "Point", "coordinates": [ 129.356354, 35.492233, 60.0 ] } },
{ "type": "Feature", "properties": { "value": 0.6176 }, "geometry": { "type": "Point", "coordinates": [ 129.357452, 35.492233, 60.0 ] } },
{ "type": "Feature", "properties": { "value": 0.471 }, "geometry": { "type": "Point", "coordinates": [ 129.358551, 35.492229, 60.0 ] } },
{ "type": "Feature", "properties": { "value": 0.3739 }, "geometry": { "type": "Point", "coordinates": [ 129.359665, 35.492226, 60.0 ] } },
{ "type": "Feature", "properties": { "value": 0.3051 }, "geometry": { "type": "Point", "coordinates": [ 129.360764, 35.492222, 60.0 ] } },
{ "type": "Feature", "properties": { "value": 0.2605 }, "geometry": { "type": "Point", "coordinates": [ 129.361862, 35.492218, 60.0 ] } },
{ "type": "Feature", "properties": { "value": 0.2266 }, "geometry": { "type": "Point", "coordinates": [ 129.362961, 35.492214, 60.0 ] } },
{ "type": "Feature", "properties": { "value": 0.2087 }, "geometry": { "type": "Point", "coordinates": [ 129.364059, 35.49221, 60.0 ] } },
{ "type": "Feature", "properties": { "value": 0.2004 }, "geometry": { "type": "Point", "coordinates": [ 129.365173, 35.49221, 60.0 ] } },
{ "type": "Feature", "properties": { "value": 0.1995 }, "geometry": { "type": "Point", "coordinates": [ 129.366272, 35.492207, 60.0 ] } },
{ "type": "Feature", "properties": { "value": 0.2091 }, "geometry": { "type": "Point", "coordinates": [ 129.367371, 35.492203, 60.0 ] } },
{ "type": "Feature", "properties": { "value": 0.2286 }, "geometry": { "type": "Point", "coordinates": [ 129.368469, 35.492199, 60.0 ] } },
{ "type": "Feature", "properties": { "value": 0.2585 }, "geometry": { "type": "Point", "coordinates": [ 129.369583, 35.492195, 60.0 ] } },
{ "type": "Feature", "properties": { "value": 0.297 }, "geometry": { "type": "Point", "coordinates": [ 129.370682, 35.492191, 60.0 ] } },
{ "type": "Feature", "properties": { "value": 0.3487 }, "geometry": { "type": "Point", "coordinates": [ 129.37178, 35.492188, 60.0 ] } },
{ "type": "Feature", "properties": { "value": 0.4028 }, "geometry": { "type": "Point", "coordinates": [ 129.372879, 35.492184, 60.0 ] } },
{ "type": "Feature", "properties": { "value": 0.4611 }, "geometry": { "type": "Point", "coordinates": [ 129.373978, 35.49218, 60.0 ] } },
{ "type": "Feature", "properties": { "value": 0.5209 }, "geometry": { "type": "Point", "coordinates": [ 129.375092, 35.49218, 60.0 ] } },
{ "type": "Feature", "properties": { "value": 0.5723 }, "geometry": { "type": "Point", "coordinates": [ 129.37619, 35.492176, 60.0 ] } },
{ "type": "Feature", "properties": { "value": 0.6118 }, "geometry": { "type": "Point", "coordinates": [ 129.377289, 35.492172, 60.0 ] } },
{ "type": "Feature", "properties": { "value": 0.6326 }, "geometry": { "type": "Point", "coordinates": [ 129.378387, 35.492168, 60.0 ] } },
{ "type": "Feature", "properties": { "value": 0.6267 }, "geometry": { "type": "Point", "coordinates": [ 129.379501, 35.492165, 60.0 ] } },
{ "type": "Feature", "properties": { "value": 0.5925 }, "geometry": { "type": "Point", "coordinates": [ 129.3806, 35.492161, 60.0 ] } },
{ "type": "Feature", "properties": { "value": 0.5352 }, "geometry": { "type": "Point", "coordinates": [ 129.381699, 35.492157, 60.0 ] } },
{ "type": "Feature", "properties": { "value": 0.3231 }, "geometry": { "type": "Point", "coordinates": [ 129.33873, 35.493187, 60.0 ] } },
{ "type": "Feature", "properties": { "value": 0.9996 }, "geometry": { "type": "Point", "coordinates": [ 129.339828, 35.493183, 60.0 ] } },
{ "type": "Feature", "properties": { "value": 2.28 }, "geometry": { "type": "Point", "coordinates": [ 129.340927, 35.493179, 60.0 ] } },
{ "type": "Feature", "properties": { "value": 4.2431 }, "geometry": { "type": "Point", "coordinates": [ 129.342026, 35.493179, 60.0 ] } },
{ "type": "Feature", "properties": { "value": 6.6499 }, "geometry": { "type": "Point", "coordinates": [ 129.343124, 35.493176, 60.0 ] } },
{ "type": "Feature", "properties": { "value": 8.9562 }, "geometry": { "type": "Point", "coordinates": [ 129.344238, 35.493172, 60.0 ] } },
{ "type": "Feature", "properties": { "value": 10.623 }, "geometry": { "type": "Point", "coordinates": [ 129.345337, 35.493168, 60.0 ] } },
{ "type": "Feature", "properties": { "value": 11.316 }, "geometry": { "type": "Point", "coordinates": [ 129.346436, 35.493164, 60.0 ] } },
{ "type": "Feature", "properties": { "value": 11.0 }, "geometry": { "type": "Point", "coordinates": [ 129.347534, 35.49316, 60.0 ] } },
{ "type": "Feature", "properties": { "value": 9.9037 }, "geometry": { "type": "Point", "coordinates": [ 129.348648, 35.49316, 60.0 ] } },
{ "type": "Feature", "properties": { "value": 8.4026 }, "geometry": { "type": "Point", "coordinates": [ 129.349747, 35.493156, 60.0 ] } },
{ "type": "Feature", "properties": { "value": 6.8055 }, "geometry": { "type": "Point", "coordinates": [ 129.350845, 35.493153, 60.0 ] } },
{ "type": "Feature", "properties": { "value": 5.3261 }, "geometry": { "type": "Point", "coordinates": [ 129.351944, 35.493149, 60.0 ] } },
{ "type": "Feature", "properties": { "value": 4.0856 }, "geometry": { "type": "Point", "coordinates": [ 129.353043, 35.493145, 60.0 ] } },
{ "type": "Feature", "properties": { "value": 3.1076 }, "geometry": { "type": "Point", "coordinates": [ 129.354156, 35.493141, 60.0 ] } },
{ "type": "Feature", "properties": { "value": 2.3591 }, "geometry": { "type": "Point", "coordinates": [ 129.355255, 35.493141, 60.0 ] } },
{ "type": "Feature", "properties": { "value": 1.8093 }, "geometry": { "type": "Point", "coordinates": [ 129.356354, 35.493137, 60.0 ] } },
{ "type": "Feature", "properties": { "value": 1.4033 }, "geometry": { "type": "Point", "coordinates": [ 129.357452, 35.493134, 60.0 ] } },
{ "type": "Feature", "properties": { "value": 1.1153 }, "geometry": { "type": "Point", "coordinates": [ 129.358566, 35.49313, 60.0 ] } },
{ "type": "Feature", "properties": { "value": 0.909 }, "geometry": { "type": "Point", "coordinates": [ 129.359665, 35.493126, 60.0 ] } },
{ "type": "Feature", "properties": { "value": 0.7596 }, "geometry": { "type": "Point", "coordinates": [ 129.360764, 35.493122, 60.0 ] } },
{ "type": "Feature", "properties": { "value": 0.6523 }, "geometry": { "type": "Point", "coordinates": [ 129.361862, 35.493118, 60.0 ] } },
{ "type": "Feature", "properties": { "value": 0.577 }, "geometry": { "type": "Point", "coordinates": [ 129.362961, 35.493118, 60.0 ] } },
{ "type": "Feature", "properties": { "value": 0.524 }, "geometry": { "type": "Point", "coordinates": [ 129.364075, 35.493114, 60.0 ] } },
{ "type": "Feature", "properties": { "value": 0.4968 }, "geometry": { "type": "Point", "coordinates": [ 129.365173, 35.493111, 60.0 ] } },
{ "type": "Feature", "properties": { "value": 0.4855 }, "geometry": { "type": "Point", "coordinates": [ 129.366272, 35.493107, 60.0 ] } },
{ "type": "Feature", "properties": { "value": 0.4923 }, "geometry": { "type": "Point", "coordinates": [ 129.367371, 35.493103, 60.0 ] } },
{ "type": "Feature", "properties": { "value": 0.5151 }, "geometry": { "type": "Point", "coordinates": [ 129.368484, 35.493099, 60.0 ] } },
{ "type": "Feature", "properties": { "value": 0.5544 }, "geometry": { "type": "Point", "coordinates": [ 129.369583, 35.493095, 60.0 ] } },
{ "type": "Feature", "properties": { "value": 0.6127 }, "geometry": { "type": "Point", "coordinates": [ 129.370682, 35.493092, 60.0 ] } },
{ "type": "Feature", "properties": { "value": 0.6839 }, "geometry": { "type": "Point", "coordinates": [ 129.37178, 35.493088, 60.0 ] } },
{ "type": "Feature", "properties": { "value": 0.7597 }, "geometry": { "type": "Point", "coordinates": [ 129.372894, 35.493088, 60.0 ] } },
{ "type": "Feature", "properties": { "value": 0.8433 }, "geometry": { "type": "Point", "coordinates": [ 129.373993, 35.493084, 60.0 ] } },
{ "type": "Feature", "properties": { "value": 0.9234 }, "geometry": { "type": "Point", "coordinates": [ 129.375092, 35.49308, 60.0 ] } },
{ "type": "Feature", "properties": { "value": 0.9928 }, "geometry": { "type": "Point", "coordinates": [ 129.37619, 35.493076, 60.0 ] } },
{ "type": "Feature", "properties": { "value": 1.0393 }, "geometry": { "type": "Point", "coordinates": [ 129.377289, 35.493073, 60.0 ] } },
{ "type": "Feature", "properties": { "value": 1.053 }, "geometry": { "type": "Point", "coordinates": [ 129.378403, 35.493069, 60.0 ] } },
{ "type": "Feature", "properties": { "value": 1.0271 }, "geometry": { "type": "Point", "coordinates": [ 129.379501, 35.493065, 60.0 ] } },
{ "type": "Feature", "properties": { "value": 0.9596 }, "geometry": { "type": "Point", "coordinates": [ 129.3806, 35.493061, 60.0 ] } },
{ "type": "Feature", "properties": { "value": 0.8543 }, "geometry": { "type": "Point", "coordinates": [ 129.381699, 35.493057, 60.0 ] } },
{ "type": "Feature", "properties": { "value": 0.3887 }, "geometry": { "type": "Point", "coordinates": [ 129.339828, 35.494083, 60.0 ] } },
{ "type": "Feature", "properties": { "value": 1.0688 }, "geometry": { "type": "Point", "coordinates": [ 129.340927, 35.494083, 60.0 ] } },
{ "type": "Feature", "properties": { "value": 2.2716 }, "geometry": { "type": "Point", "coordinates": [ 129.342026, 35.49408, 60.0 ] } },
{ "type": "Feature", "properties": { "value": 4.0302 }, "geometry": { "type": "Point", "coordinates": [ 129.34314, 35.494076, 60.0 ] } },
{ "type": "Feature", "properties": { "value": 6.1511 }, "geometry": { "type": "Point", "coordinates": [ 129.344238, 35.494072, 60.0 ] } },
{ "type": "Feature", "properties": { "value": 8.2161 }, "geometry": { "type": "Point", "coordinates": [ 129.345337, 35.494068, 60.0 ] } },
{ "type": "Feature", "properties": { "value": 9.7917 }, "geometry": { "type": "Point", "coordinates": [ 129.346436, 35.494068, 60.0 ] } },
{ "type": "Feature", "properties": { "value": 10.63 }, "geometry": { "type": "Point", "coordinates": [ 129.347549, 35.494064, 60.0 ] } },
{ "type": "Feature", "properties": { "value": 10.677 }, "geometry": { "type": "Point", "coordinates": [ 129.348648, 35.494061, 60.0 ] } },
{ "type": "Feature", "properties": { "value": 10.013 }, "geometry": { "type": "Point", "coordinates": [ 129.349747, 35.494057, 60.0 ] } },
{ "type": "Feature", "properties": { "value": 8.911 }, "geometry": { "type": "Point", "coordinates": [ 129.350845, 35.494053, 60.0 ] } },
{ "type": "Feature", "properties": { "value": 7.618 }, "geometry": { "type": "Point", "coordinates": [ 129.351959, 35.494049, 60.0 ] } },
{ "type": "Feature", "properties": { "value": 6.2996 }, "geometry": { "type": "Point", "coordinates": [ 129.353058, 35.494049, 60.0 ] } },
{ "type": "Feature", "properties": { "value": 5.1138 }, "geometry": { "type": "Point", "coordinates": [ 129.354156, 35.494045, 60.0 ] } },
{ "type": "Feature", "properties": { "value": 4.1157 }, "geometry": { "type": "Point", "coordinates": [ 129.355255, 35.494041, 60.0 ] } },
{ "type": "Feature", "properties": { "value": 3.3117 }, "geometry": { "type": "Point", "coordinates": [ 129.356354, 35.494038, 60.0 ] } },
{ "type": "Feature", "properties": { "value": 2.682 }, "geometry": { "type": "Point", "coordinates": [ 129.357468, 35.494034, 60.0 ] } },
{ "type": "Feature", "properties": { "value": 2.1985 }, "geometry": { "type": "Point", "coordinates": [ 129.358566, 35.49403, 60.0 ] } },
{ "type": "Feature", "properties": { "value": 1.8382 }, "geometry": { "type": "Point", "coordinates": [ 129.359665, 35.494026, 60.0 ] } },
{ "type": "Feature", "properties": { "value": 1.5651 }, "geometry": { "type": "Point", "coordinates": [ 129.360764, 35.494026, 60.0 ] } },
{ "type": "Feature", "properties": { "value": 1.3592 }, "geometry": { "type": "Point", "coordinates": [ 129.361877, 35.494022, 60.0 ] } },
{ "type": "Feature", "properties": { "value": 1.2041 }, "geometry": { "type": "Point", "coordinates": [ 129.362976, 35.494019, 60.0 ] } },
{ "type": "Feature", "properties": { "value": 1.0986 }, "geometry": { "type": "Point", "coordinates": [ 129.364075, 35.494015, 60.0 ] } },
{ "type": "Feature", "properties": { "value": 1.0315 }, "geometry": { "type": "Point", "coordinates": [ 129.365173, 35.494011, 60.0 ] } },
{ "type": "Feature", "properties": { "value": 0.9946 }, "geometry": { "type": "Point", "coordinates": [ 129.366272, 35.494007, 60.0 ] } },
{ "type": "Feature", "properties": { "value": 0.9894 }, "geometry": { "type": "Point", "coordinates": [ 129.367386, 35.494003, 60.0 ] } },
{ "type": "Feature", "properties": { "value": 1.0084 }, "geometry": { "type": "Point", "coordinates": [ 129.368484, 35.493999, 60.0 ] } },
{ "type": "Feature", "properties": { "value": 1.0543 }, "geometry": { "type": "Point", "coordinates": [ 129.369583, 35.493999, 60.0 ] } },
{ "type": "Feature", "properties": { "value": 1.1234 }, "geometry": { "type": "Point", "coordinates": [ 129.370682, 35.493996, 60.0 ] } },
{ "type": "Feature", "properties": { "value": 1.2128 }, "geometry": { "type": "Point", "coordinates": [ 129.371796, 35.493992, 60.0 ] } },
{ "type": "Feature", "properties": { "value": 1.3122 }, "geometry": { "type": "Point", "coordinates": [ 129.372894, 35.493988, 60.0 ] } },
{ "type": "Feature", "properties": { "value": 1.4148 }, "geometry": { "type": "Point", "coordinates": [ 129.373993, 35.493984, 60.0 ] } },
{ "type": "Feature", "properties": { "value": 1.5133 }, "geometry": { "type": "Point", "coordinates": [ 129.375092, 35.49398, 60.0 ] } },
{ "type": "Feature", "properties": { "value": 1.5895 }, "geometry": { "type": "Point", "coordinates": [ 129.37619, 35.493977, 60.0 ] } },
{ "type": "Feature", "properties": { "value": 1.6315 }, "geometry": { "type": "Point", "coordinates": [ 129.377304, 35.493973, 60.0 ] } },
{ "type": "Feature", "properties": { "value": 1.6245 }, "geometry": { "type": "Point", "coordinates": [ 129.378403, 35.493969, 60.0 ] } },
{ "type": "Feature", "properties": { "value": 1.5596 }, "geometry": { "type": "Point", "coordinates": [ 129.379501, 35.493965, 60.0 ] } },
{ "type": "Feature", "properties": { "value": 1.4392 }, "geometry": { "type": "Point", "coordinates": [ 129.3806, 35.493965, 60.0 ] } },
{ "type": "Feature", "properties": { "value": 1.2672 }, "geometry": { "type": "Point", "coordinates": [ 129.381714, 35.493961, 60.0 ] } },
{ "type": "Feature", "properties": { "value": 0.0893 }, "geometry": { "type": "Point", "coordinates": [ 129.339828, 35.494987, 60.0 ] } },
{ "type": "Feature", "properties": { "value": 0.4376 }, "geometry": { "type": "Point", "coordinates": [ 129.340942, 35.494984, 60.0 ] } },
{ "type": "Feature", "properties": { "value": 1.0832 }, "geometry": { "type": "Point", "coordinates": [ 129.342041, 35.49498, 60.0 ] } },
{ "type": "Feature", "properties": { "value": 2.1728 }, "geometry": { "type": "Point", "coordinates": [ 129.34314, 35.494976, 60.0 ] } },
{ "type": "Feature", "properties": { "value": 3.7255 }, "geometry": { "type": "Point", "coordinates": [ 129.344238, 35.494972, 60.0 ] } },
{ "type": "Feature", "properties": { "value": 5.5693 }, "geometry": { "type": "Point", "coordinates": [ 129.345337, 35.494972, 60.0 ] } },
{ "type": "Feature", "properties": { "value": 7.4047 }, "geometry": { "type": "Point", "coordinates": [ 129.346451, 35.494968, 60.0 ] } },
{ "type": "Feature", "properties": { "value": 8.9451 }, "geometry": { "type": "Point", "coordinates": [ 129.347549, 35.494965, 60.0 ] } },
{ "type": "Feature", "properties": { "value": 9.9529 }, "geometry": { "type": "Point", "coordinates": [ 129.348648, 35.494961, 60.0 ] } },
{ "type": "Feature", "properties": { "value": 10.282 }, "geometry": { "type": "Point", "coordinates": [ 129.349747, 35.494957, 60.0 ] } },
{ "type": "Feature", "properties": { "value": 9.9972 }, "geometry": { "type": "Point", "coordinates": [ 129.350861, 35.494953, 60.0 ] } },
{ "type": "Feature", "properties": { "value": 9.2766 }, "geometry": { "type": "Point", "coordinates": [ 129.351959, 35.494953, 60.0 ] } },
{ "type": "Feature", "properties": { "value": 8.256 }, "geometry": { "type": "Point", "coordinates": [ 129.353058, 35.494949, 60.0 ] } },
{ "type": "Feature", "properties": { "value": 7.1574 }, "geometry": { "type": "Point", "coordinates": [ 129.354156, 35.494946, 60.0 ] } },
{ "type": "Feature", "properties": { "value": 6.1082 }, "geometry": { "type": "Point", "coordinates": [ 129.355255, 35.494942, 60.0 ] } },
{ "type": "Feature", "properties": { "value": 5.1683 }, "geometry": { "type": "Point", "coordinates": [ 129.356369, 35.494938, 60.0 ] } },
{ "type": "Feature", "properties": { "value": 4.365 }, "geometry": { "type": "Point", "coordinates": [ 129.357468, 35.494934, 60.0 ] } },
{ "type": "Feature", "properties": { "value": 3.7055 }, "geometry": { "type": "Point", "coordinates": [ 129.358566, 35.494934, 60.0 ] } },
{ "type": "Feature", "properties": { "value": 3.1792 }, "geometry": { "type": "Point", "coordinates": [ 129.359665, 35.49493, 60.0 ] } },
{ "type": "Feature", "properties": { "value": 2.7621 }, "geometry": { "type": "Point", "coordinates": [ 129.360779, 35.494926, 60.0 ] } },
{ "type": "Feature", "properties": { "value": 2.4336 }, "geometry": { "type": "Point", "coordinates": [ 129.361877, 35.494923, 60.0 ] } },
{ "type": "Feature", "properties": { "value": 2.181 }, "geometry": { "type": "Point", "coordinates": [ 129.362976, 35.494919, 60.0 ] } },
{ "type": "Feature", "properties": { "value": 1.9975 }, "geometry": { "type": "Point", "coordinates": [ 129.364075, 35.494915, 60.0 ] } },
{ "type": "Feature", "properties": { "value": 1.8683 }, "geometry": { "type": "Point", "coordinates": [ 129.365173, 35.494911, 60.0 ] } },
{ "type": "Feature", "properties": { "value": 1.788 }, "geometry": { "type": "Point", "coordinates": [ 129.366287, 35.494907, 60.0 ] } },
{ "type": "Feature", "properties": { "value": 1.7511 }, "geometry": { "type": "Point", "coordinates": [ 129.367386, 35.494907, 60.0 ] } },
{ "type": "Feature", "properties": { "value": 1.7531 }, "geometry": { "type": "Point", "coordinates": [ 129.368484, 35.494904, 60.0 ] } },
{ "type": "Feature", "properties": { "value": 1.7947 }, "geometry": { "type": "Point", "coordinates": [ 129.369583, 35.4949, 60.0 ] } },
{ "type": "Feature", "properties": { "value": 1.8679 }, "geometry": { "type": "Point", "coordinates": [ 129.370697, 35.494896, 60.0 ] } },
{ "type": "Feature", "properties": { "value": 1.9609 }, "geometry": { "type": "Point", "coordinates": [ 129.371796, 35.494892, 60.0 ] } },
{ "type": "Feature", "properties": { "value": 2.0708 }, "geometry": { "type": "Point", "coordinates": [ 129.372894, 35.494888, 60.0 ] } },
{ "type": "Feature", "properties": { "value": 2.1834 }, "geometry": { "type": "Point", "coordinates": [ 129.373993, 35.494884, 60.0 ] } },
{ "type": "Feature", "properties": { "value": 2.2826 }, "geometry": { "type": "Point", "coordinates": [ 129.375107, 35.494881, 60.0 ] } },
{ "type": "Feature", "properties": { "value": 2.3496 }, "geometry": { "type": "Point", "coordinates": [ 129.376205, 35.494877, 60.0 ] } },
{ "type": "Feature", "properties": { "value": 2.3674 }, "geometry": { "type": "Point", "coordinates": [ 129.377304, 35.494877, 60.0 ] } },
{ "type": "Feature", "properties": { "value": 2.3191 }, "geometry": { "type": "Point", "coordinates": [ 129.378403, 35.494873, 60.0 ] } },
{ "type": "Feature", "properties": { "value": 2.1952 }, "geometry": { "type": "Point", "coordinates": [ 129.379501, 35.494869, 60.0 ] } },
{ "type": "Feature", "properties": { "value": 1.999 }, "geometry": { "type": "Point", "coordinates": [ 129.380615, 35.494865, 60.0 ] } },
{ "type": "Feature", "properties": { "value": 1.7421 }, "geometry": { "type": "Point", "coordinates": [ 129.381714, 35.494862, 60.0 ] } },
{ "type": "Feature", "properties": { "value": 0.1339 }, "geometry": { "type": "Point", "coordinates": [ 129.340942, 35.495884, 60.0 ] } },
{ "type": "Feature", "properties": { "value": 0.4524 }, "geometry": { "type": "Point", "coordinates": [ 129.342041, 35.49588, 60.0 ] } },
{ "type": "Feature", "properties": { "value": 1.0337 }, "geometry": { "type": "Point", "coordinates": [ 129.34314, 35.49588, 60.0 ] } },
{ "type": "Feature", "properties": { "value": 1.9864 }, "geometry": { "type": "Point", "coordinates": [ 129.344238, 35.495876, 60.0 ] } },
{ "type": "Feature", "properties": { "value": 3.3139 }, "geometry": { "type": "Point", "coordinates": [ 129.345352, 35.495872, 60.0 ] } },
{ "type": "Feature", "properties": { "value": 4.8929 }, "geometry": { "type": "Point", "coordinates": [ 129.346451, 35.495869, 60.0 ] } },
{ "type": "Feature", "properties": { "value": 6.5264 }, "geometry": { "type": "Point", "coordinates": [ 129.347549, 35.495865, 60.0 ] } },
{ "type": "Feature", "properties": { "value": 8.0126 }, "geometry": { "type": "Point", "coordinates": [ 129.348648, 35.495861, 60.0 ] } },
{ "type": "Feature", "properties": { "value": 9.1098 }, "geometry": { "type": "Point", "coordinates": [ 129.349762, 35.495861, 60.0 ] } },
{ "type": "Feature", "properties": { "value": 9.6514 }, "geometry": { "type": "Point", "coordinates": [ 129.350861, 35.495857, 60.0 ] } },
{ "type": "Feature", "properties": { "value": 9.6469 }, "geometry": { "type": "Point", "coordinates": [ 129.351959, 35.495853, 60.0 ] } },
{ "type": "Feature", "properties": { "value": 9.2321 }, "geometry": { "type": "Point", "coordinates": [ 129.353058, 35.49585, 60.0 ] } },
{ "type": "Feature", "properties": { "value": 8.5562 }, "geometry": { "type": "Point", "coordinates": [ 129.354156, 35.495846, 60.0 ] } },
{ "type": "Feature", "properties": { "value": 7.7541 }, "geometry": { "type": "Point", "coordinates": [ 129.35527, 35.495842, 60.0 ] } },
{ "type": "Feature", "properties": { "value": 6.9167 }, "geometry": { "type": "Point", "coordinates": [ 129.356369, 35.495838, 60.0 ] } },
{ "type": "Feature", "properties": { "value": 6.1086 }, "geometry": { "type": "Point", "coordinates": [ 129.357468, 35.495838, 60.0 ] } },
{ "type": "Feature", "properties": { "value": 5.3833 }, "geometry": { "type": "Point", "coordinates": [ 129.358566, 35.495834, 60.0 ] } },
{ "type": "Feature", "properties": { "value": 4.7553 }, "geometry": { "type": "Point", "coordinates": [ 129.35968, 35.495831, 60.0 ] } },
{ "type": "Feature", "properties": { "value": 4.2306 }, "geometry": { "type": "Point", "coordinates": [ 129.360779, 35.495827, 60.0 ] } },
{ "type": "Feature", "properties": { "value": 3.8009 }, "geometry": { "type": "Point", "coordinates": [ 129.361877, 35.495823, 60.0 ] } },
{ "type": "Feature", "properties": { "value": 3.4552 }, "geometry": { "type": "Point", "coordinates": [ 129.362976, 35.495819, 60.0 ] } },
{ "type": "Feature", "properties": { "value": 3.1886 }, "geometry": { "type": "Point", "coordinates": [ 129.36409, 35.495815, 60.0 ] } },
{ "type": "Feature", "properties": { "value": 2.9901 }, "geometry": { "type": "Point", "coordinates": [ 129.365189, 35.495815, 60.0 ] } },
{ "type": "Feature", "properties": { "value": 2.8515 }, "geometry": { "type": "Point", "coordinates": [ 129.366287, 35.495811, 60.0 ] } },
{ "type": "Feature", "properties": { "value": 2.7675 }, "geometry": { "type": "Point", "coordinates": [ 129.367386, 35.495808, 60.0 ] } },
{ "type": "Feature", "properties": { "value": 2.7376 }, "geometry": { "type": "Point", "coordinates": [ 129.368484, 35.495804, 60.0 ] } },
{ "type": "Feature", "properties": { "value": 2.7525 }, "geometry": { "type": "Point", "coordinates": [ 129.369598, 35.4958, 60.0 ] } },
{ "type": "Feature", "properties": { "value": 2.811 }, "geometry": { "type": "Point", "coordinates": [ 129.370697, 35.495796, 60.0 ] } },
{ "type": "Feature", "properties": { "value": 2.8931 }, "geometry": { "type": "Point", "coordinates": [ 129.371796, 35.495792, 60.0 ] } },
{ "type": "Feature", "properties": { "value": 2.993 }, "geometry": { "type": "Point", "coordinates": [ 129.372894, 35.495789, 60.0 ] } },
{ "type": "Feature", "properties": { "value": 3.0923 }, "geometry": { "type": "Point", "coordinates": [ 129.374008, 35.495785, 60.0 ] } },
{ "type": "Feature", "properties": { "value": 3.1705 }, "geometry": { "type": "Point", "coordinates": [ 129.375107, 35.495785, 60.0 ] } },
{ "type": "Feature", "properties": { "value": 3.2047 }, "geometry": { "type": "Point", "coordinates": [ 129.376205, 35.495781, 60.0 ] } },
{ "type": "Feature", "properties": { "value": 3.1751 }, "geometry": { "type": "Point", "coordinates": [ 129.377304, 35.495777, 60.0 ] } },
{ "type": "Feature", "properties": { "value": 3.0626 }, "geometry": { "type": "Point", "coordinates": [ 129.378403, 35.495773, 60.0 ] } },
{ "type": "Feature", "properties": { "value": 2.8615 }, "geometry": { "type": "Point", "coordinates": [ 129.379517, 35.49577, 60.0 ] } },
{ "type": "Feature", "properties": { "value": 2.5756 }, "geometry": { "type": "Point", "coordinates": [ 129.380615, 35.495766, 60.0 ] } },
{ "type": "Feature", "properties": { "value": 2.221 }, "geometry": { "type": "Point", "coordinates": [ 129.381714, 35.495762, 60.0 ] } },
{ "type": "Feature", "properties": { "value": 0.1403 }, "geometry": { "type": "Point", "coordinates": [ 129.342041, 35.496784, 60.0 ] } },
{ "type": "Feature", "properties": { "value": 0.428 }, "geometry": { "type": "Point", "coordinates": [ 129.34314, 35.49678, 60.0 ] } },
{ "type": "Feature", "properties": { "value": 0.9274 }, "geometry": { "type": "Point", "coordinates": [ 129.344254, 35.496777, 60.0 ] } },
{ "type": "Feature", "properties": { "value": 1.7238 }, "geometry": { "type": "Point", "coordinates": [ 129.345352, 35.496773, 60.0 ] } },
{ "type": "Feature", "properties": { "value": 2.8123 }, "geometry": { "type": "Point", "coordinates": [ 129.346451, 35.496769, 60.0 ] } },
{ "type": "Feature", "properties": { "value": 4.1409 }, "geometry": { "type": "Point", "coordinates": [ 129.347549, 35.496765, 60.0 ] } },
{ "type": "Feature", "properties": { "value": 5.5817 }, "geometry": { "type": "Point", "coordinates": [ 129.348663, 35.496765, 60.0 ] } },
{ "type": "Feature", "properties": { "value": 6.9555 }, "geometry": { "type": "Point", "coordinates": [ 129.349762, 35.496761, 60.0 ] } },
{ "type": "Feature", "properties": { "value": 8.0202 }, "geometry": { "type": "Point", "coordinates": [ 129.350861, 35.496758, 60.0 ] } },
{ "type": "Feature", "properties": { "value": 8.6386 }, "geometry": { "type": "Point", "coordinates": [ 129.351959, 35.496754, 60.0 ] } },
{ "type": "Feature", "properties": { "value": 8.8832 }, "geometry": { "type": "Point", "coordinates": [ 129.353073, 35.49675, 60.0 ] } },
{ "type": "Feature", "properties": { "value": 8.8087 }, "geometry": { "type": "Point", "coordinates": [ 129.354172, 35.496746, 60.0 ] } },
{ "type": "Feature", "properties": { "value": 8.4845 }, "geometry": { "type": "Point", "coordinates": [ 129.35527, 35.496746, 60.0 ] } },
{ "type": "Feature", "properties": { "value": 7.9841 }, "geometry": { "type": "Point", "coordinates": [ 129.356369, 35.496742, 60.0 ] } },
{ "type": "Feature", "properties": { "value": 7.3869 }, "geometry": { "type": "Point", "coordinates": [ 129.357468, 35.496738, 60.0 ] } },
{ "type": "Feature", "properties": { "value": 6.7751 }, "geometry": { "type": "Point", "coordinates": [ 129.358582, 35.496735, 60.0 ] } },
{ "type": "Feature", "properties": { "value": 6.1909 }, "geometry": { "type": "Point", "coordinates": [ 129.35968, 35.496731, 60.0 ] } },
{ "type": "Feature", "properties": { "value": 5.6624 }, "geometry": { "type": "Point", "coordinates": [ 129.360779, 35.496727, 60.0 ] } },
{ "type": "Feature", "properties": { "value": 5.2016 }, "geometry": { "type": "Point", "coordinates": [ 129.361877, 35.496723, 60.0 ] } },
{ "type": "Feature", "properties": { "value": 4.8098 }, "geometry": { "type": "Point", "coordinates": [ 129.362991, 35.496723, 60.0 ] } },
{ "type": "Feature", "properties": { "value": 4.4891 }, "geometry": { "type": "Point", "coordinates": [ 129.36409, 35.496719, 60.0 ] } },
{ "type": "Feature", "properties": { "value": 4.232 }, "geometry": { "type": "Point", "coordinates": [ 129.365189, 35.496716, 60.0 ] } },
{ "type": "Feature", "properties": { "value": 4.0401 }, "geometry": { "type": "Point", "coordinates": [ 129.366287, 35.496712, 60.0 ] } },
{ "type": "Feature", "properties": { "value": 3.9098 }, "geometry": { "type": "Point", "coordinates": [ 129.367386, 35.496708, 60.0 ] } },
{ "type": "Feature", "properties": { "value": 3.8356 }, "geometry": { "type": "Point", "coordinates": [ 129.3685, 35.496704, 60.0 ] } },
{ "type": "Feature", "properties": { "value": 3.8133 }, "geometry": { "type": "Point", "coordinates": [ 129.369598, 35.4967, 60.0 ] } },
{ "type": "Feature", "properties": { "value": 3.8347 }, "geometry": { "type": "Point", "coordinates": [ 129.370697, 35.496696, 60.0 ] } },
{ "type": "Feature", "properties": { "value": 3.8859 }, "geometry": { "type": "Point", "coordinates": [ 129.371796, 35.496696, 60.0 ] } },
{ "type": "Feature", "properties": { "value": 3.9527 }, "geometry": { "type": "Point", "coordinates": [ 129.37291, 35.496693, 60.0 ] } },
{ "type": "Feature", "properties": { "value": 4.0142 }, "geometry": { "type": "Point", "coordinates": [ 129.374008, 35.496689, 60.0 ] } },
{ "type": "Feature", "properties": { "value": 4.0469 }, "geometry": { "type": "Point", "coordinates": [ 129.375107, 35.496685, 60.0 ] } },
{ "type": "Feature", "properties": { "value": 4.0257 }, "geometry": { "type": "Point", "coordinates": [ 129.376205, 35.496681, 60.0 ] } },
{ "type": "Feature", "properties": { "value": 3.9275 }, "geometry": { "type": "Point", "coordinates": [ 129.377319, 35.496677, 60.0 ] } },
{ "type": "Feature", "properties": { "value": 3.7381 }, "geometry": { "type": "Point", "coordinates": [ 129.378418, 35.496674, 60.0 ] } },
{ "type": "Feature", "properties": { "value": 3.4488 }, "geometry": { "type": "Point", "coordinates": [ 129.379517, 35.49667, 60.0 ] } },
{ "type": "Feature", "properties": { "value": 3.0709 }, "geometry": { "type": "Point", "coordinates": [ 129.380615, 35.496666, 60.0 ] } },
{ "type": "Feature", "properties": { "value": 2.6244 }, "geometry": { "type": "Point", "coordinates": [ 129.381714, 35.496662, 60.0 ] } },
{ "type": "Feature", "properties": { "value": 0.1298 }, "geometry": { "type": "Point", "coordinates": [ 129.343155, 35.497681, 60.0 ] } },
{ "type": "Feature", "properties": { "value": 0.3687 }, "geometry": { "type": "Point", "coordinates": [ 129.344254, 35.497677, 60.0 ] } },
{ "type": "Feature", "properties": { "value": 0.7756 }, "geometry": { "type": "Point", "coordinates": [ 129.345352, 35.497673, 60.0 ] } },
{ "type": "Feature", "properties": { "value": 1.4094 }, "geometry": { "type": "Point", "coordinates": [ 129.346451, 35.497673, 60.0 ] } },
{ "type": "Feature", "properties": { "value": 2.2847 }, "geometry": { "type": "Point", "coordinates": [ 129.347565, 35.497669, 60.0 ] } },
{ "type": "Feature", "properties": { "value": 3.3627 }, "geometry": { "type": "Point", "coordinates": [ 129.348663, 35.497665, 60.0 ] } },
{ "type": "Feature", "properties": { "value": 4.5616 }, "geometry": { "type": "Point", "coordinates": [ 129.349762, 35.497662, 60.0 ] } },
{ "type": "Feature", "properties": { "value": 5.7168 }, "geometry": { "type": "Point", "coordinates": [ 129.350861, 35.497658, 60.0 ] } },
{ "type": "Feature", "properties": { "value": 6.6727 }, "geometry": { "type": "Point", "coordinates": [ 129.351974, 35.497654, 60.0 ] } },
{ "type": "Feature", "properties": { "value": 7.4057 }, "geometry": { "type": "Point", "coordinates": [ 129.353073, 35.497654, 60.0 ] } },
{ "type": "Feature", "properties": { "value": 7.8715 }, "geometry": { "type": "Point", "coordinates": [ 129.354172, 35.49765, 60.0 ] } },
{ "type": "Feature", "properties": { "value": 8.059 }, "geometry": { "type": "Point", "coordinates": [ 129.35527, 35.497646, 60.0 ] } },
{ "type": "Feature", "properties": { "value": 8.0018 }, "geometry": { "type": "Point", "coordinates": [ 129.356369, 35.497643, 60.0 ] } },
{ "type": "Feature", "properties": { "value": 7.7552 }, "geometry": { "type": "Point", "coordinates": [ 129.357483, 35.497639, 60.0 ] } },
{ "type": "Feature", "properties": { "value": 7.4146 }, "geometry": { "type": "Point", "coordinates": [ 129.358582, 35.497635, 60.0 ] } },
{ "type": "Feature", "properties": { "value": 7.0311 }, "geometry": { "type": "Point", "coordinates": [ 129.35968, 35.497631, 60.0 ] } },
{ "type": "Feature", "properties": { "value": 6.6342 }, "geometry": { "type": "Point", "coordinates": [ 129.360779, 35.497631, 60.0 ] } },
{ "type": "Feature", "properties": { "value": 6.2503 }, "geometry": { "type": "Point", "coordinates": [ 129.361893, 35.497627, 60.0 ] } },
{ "type": "Feature", "properties": { "value": 5.8989 }, "geometry": { "type": "Point", "coordinates": [ 129.362991, 35.497623, 60.0 ] } },
{ "type": "Feature", "properties": { "value": 5.585 }, "geometry": { "type": "Point", "coordinates": [ 129.36409, 35.49762, 60.0 ] } },
{ "type": "Feature", "properties": { "value": 5.3157 }, "geometry": { "type": "Point", "coordinates": [ 129.365189, 35.497616, 60.0 ] } },
{ "type": "Feature", "properties": { "value": 5.1015 }, "geometry": { "type": "Point", "coordinates": [ 129.366302, 35.497612, 60.0 ] } },
{ "type": "Feature", "properties": { "value": 4.9364 }, "geometry": { "type": "Point", "coordinates": [ 129.367401, 35.497608, 60.0 ] } },
{ "type": "Feature", "properties": { "value": 4.8232 }, "geometry": { "type": "Point", "coordinates": [ 129.3685, 35.497604, 60.0 ] } },
{ "type": "Feature", "properties": { "value": 4.762 }, "geometry": { "type": "Point", "coordinates": [ 129.369598, 35.497604, 60.0 ] } },
{ "type": "Feature", "properties": { "value": 4.7405 }, "geometry": { "type": "Point", "coordinates": [ 129.370697, 35.497601, 60.0 ] } },
{ "type": "Feature", "properties": { "value": 4.7462 }, "geometry": { "type": "Point", "coordinates": [ 129.371811, 35.497597, 60.0 ] } },
{ "type": "Feature", "properties": { "value": 4.7634 }, "geometry": { "type": "Point", "coordinates": [ 129.37291, 35.497593, 60.0 ] } },
{ "type": "Feature", "properties": { "value": 4.7699 }, "geometry": { "type": "Point", "coordinates": [ 129.374008, 35.497589, 60.0 ] } },
{ "type": "Feature", "properties": { "value": 4.7412 }, "geometry": { "type": "Point", "coordinates": [ 129.375107, 35.497585, 60.0 ] } },
{ "type": "Feature", "properties": { "value": 4.6516 }, "geometry": { "type": "Point", "coordinates": [ 129.376221, 35.497581, 60.0 ] } },
{ "type": "Feature", "properties": { "value": 4.4804 }, "geometry": { "type": "Point", "coordinates": [ 129.377319, 35.497578, 60.0 ] } },
{ "type": "Feature", "properties": { "value": 4.2103 }, "geometry": { "type": "Point", "coordinates": [ 129.378418, 35.497574, 60.0 ] } },
{ "type": "Feature", "properties": { "value": 3.8446 }, "geometry": { "type": "Point", "coordinates": [ 129.379517, 35.497574, 60.0 ] } },
{ "type": "Feature", "properties": { "value": 3.3874 }, "geometry": { "type": "Point", "coordinates": [ 129.380615, 35.49757, 60.0 ] } },
{ "type": "Feature", "properties": { "value": 2.8714 }, "geometry": { "type": "Point", "coordinates": [ 129.381729, 35.497566, 60.0 ] } },
{ "type": "Feature", "properties": { "value": 0.0938 }, "geometry": { "type": "Point", "coordinates": [ 129.344254, 35.498581, 60.0 ] } },
{ "type": "Feature", "properties": { "value": 0.2904 }, "geometry": { "type": "Point", "coordinates": [ 129.345352, 35.498577, 60.0 ] } },
{ "type": "Feature", "properties": { "value": 0.6028 }, "geometry": { "type": "Point", "coordinates": [ 129.346466, 35.498573, 60.0 ] } },
{ "type": "Feature", "properties": { "value": 1.0843 }, "geometry": { "type": "Point", "coordinates": [ 129.347565, 35.498569, 60.0 ] } },
{ "type": "Feature", "properties": { "value": 1.7547 }, "geometry": { "type": "Point", "coordinates": [ 129.348663, 35.498566, 60.0 ] } },
{ "type": "Feature", "properties": { "value": 2.5843 }, "geometry": { "type": "Point", "coordinates": [ 129.349762, 35.498562, 60.0 ] } },
{ "type": "Feature", "properties": { "value": 3.519 }, "geometry": { "type": "Point", "coordinates": [ 129.350876, 35.498562, 60.0 ] } },
{ "type": "Feature", "properties": { "value": 4.4665 }, "geometry": { "type": "Point", "coordinates": [ 129.351974, 35.498558, 60.0 ] } },
{ "type": "Feature", "properties": { "value": 5.3562 }, "geometry": { "type": "Point", "coordinates": [ 129.353073, 35.498554, 60.0 ] } },
{ "type": "Feature", "properties": { "value": 6.098 }, "geometry": { "type": "Point", "coordinates": [ 129.354172, 35.49855, 60.0 ] } },
{ "type": "Feature", "properties": { "value": 6.6384 }, "geometry": { "type": "Point", "coordinates": [ 129.35527, 35.498547, 60.0 ] } },
{ "type": "Feature", "properties": { "value": 6.961 }, "geometry": { "type": "Point", "coordinates": [ 129.356384, 35.498543, 60.0 ] } },
{ "type": "Feature", "properties": { "value": 7.0883 }, "geometry": { "type": "Point", "coordinates": [ 129.357483, 35.498539, 60.0 ] } },
{ "type": "Feature", "properties": { "value": 7.0883 }, "geometry": { "type": "Point", "coordinates": [ 129.358582, 35.498539, 60.0 ] } },
{ "type": "Feature", "properties": { "value": 6.9902 }, "geometry": { "type": "Point", "coordinates": [ 129.35968, 35.498535, 60.0 ] } },
{ "type": "Feature", "properties": { "value": 6.8233 }, "geometry": { "type": "Point", "coordinates": [ 129.360794, 35.498531, 60.0 ] } },
{ "type": "Feature", "properties": { "value": 6.612 }, "geometry": { "type": "Point", "coordinates": [ 129.361893, 35.498528, 60.0 ] } },
{ "type": "Feature", "properties": { "value": 6.3812 }, "geometry": { "type": "Point", "coordinates": [ 129.362991, 35.498524, 60.0 ] } },
{ "type": "Feature", "properties": { "value": 6.1504 }, "geometry": { "type": "Point", "coordinates": [ 129.36409, 35.49852, 60.0 ] } },
{ "type": "Feature", "properties": { "value": 5.9316 }, "geometry": { "type": "Point", "coordinates": [ 129.365204, 35.498516, 60.0 ] } },
{ "type": "Feature", "properties": { "value": 5.7366 }, "geometry": { "type": "Point", "coordinates": [ 129.366302, 35.498512, 60.0 ] } },
{ "type": "Feature", "properties": { "value": 5.5749 }, "geometry": { "type": "Point", "coordinates": [ 129.367401, 35.498512, 60.0 ] } },
{ "type": "Feature", "properties": { "value": 5.4477 }, "geometry": { "type": "Point", "coordinates": [ 129.3685, 35.498508, 60.0 ] } },
{ "type": "Feature", "properties": { "value": 5.3605 }, "geometry": { "type": "Point", "coordinates": [ 129.369598, 35.498505, 60.0 ] } },
{ "type": "Feature", "properties": { "value": 5.3046 }, "geometry": { "type": "Point", "coordinates": [ 129.370712, 35.498501, 60.0 ] } },
{ "type": "Feature", "properties": { "value": 5.2652 }, "geometry": { "type": "Point", "coordinates": [ 129.371811, 35.498497, 60.0 ] } },
{ "type": "Feature", "properties": { "value": 5.2316 }, "geometry": { "type": "Point", "coordinates": [ 129.37291, 35.498493, 60.0 ] } },
{ "type": "Feature", "properties": { "value": 5.1831 }, "geometry": { "type": "Point", "coordinates": [ 129.374008, 35.498489, 60.0 ] } },
{ "type": "Feature", "properties": { "value": 5.0919 }, "geometry": { "type": "Point", "coordinates": [ 129.375122, 35.498486, 60.0 ] } },
{ "type": "Feature", "properties": { "value": 4.9397 }, "geometry": { "type": "Point", "coordinates": [ 129.376221, 35.498482, 60.0 ] } },
{ "type": "Feature", "properties": { "value": 4.7044 }, "geometry": { "type": "Point", "coordinates": [ 129.377319, 35.498482, 60.0 ] } },
{ "type": "Feature", "properties": { "value": 4.3769 }, "geometry": { "type": "Point", "coordinates": [ 129.378418, 35.498478, 60.0 ] } },
{ "type": "Feature", "properties": { "value": 3.9563 }, "geometry": { "type": "Point", "coordinates": [ 129.379532, 35.498474, 60.0 ] } },
{ "type": "Feature", "properties": { "value": 3.4566 }, "geometry": { "type": "Point", "coordinates": [ 129.38063, 35.49847, 60.0 ] } },
{ "type": "Feature", "properties": { "value": 2.9069 }, "geometry": { "type": "Point", "coordinates": [ 129.381729, 35.498466, 60.0 ] } },
{ "type": "Feature", "properties": { "value": 0.042 }, "geometry": { "type": "Point", "coordinates": [ 129.345367, 35.499477, 60.0 ] } },
{ "type": "Feature", "properties": { "value": 0.2068 }, "geometry": { "type": "Point", "coordinates": [ 129.346466, 35.499474, 60.0 ] } },
{ "type": "Feature", "properties": { "value": 0.4376 }, "geometry": { "type": "Point", "coordinates": [ 129.347565, 35.49947, 60.0 ] } },
{ "type": "Feature", "properties": { "value": 0.792 }, "geometry": { "type": "Point", "coordinates": [ 129.348663, 35.499466, 60.0 ] } },
{ "type": "Feature", "properties": { "value": 1.2758 }, "geometry": { "type": "Point", "coordinates": [ 129.349777, 35.499466, 60.0 ] } },
{ "type": "Feature", "properties": { "value": 1.8909 }, "geometry": { "type": "Point", "coordinates": [ 129.350876, 35.499462, 60.0 ] } },
{ "type": "Feature", "properties": { "value": 2.604 }, "geometry": { "type": "Point", "coordinates": [ 129.351974, 35.499458, 60.0 ] } },
{ "type": "Feature", "properties": { "value": 3.364 }, "geometry": { "type": "Point", "coordinates": [ 129.353073, 35.499454, 60.0 ] } },
{ "type": "Feature", "properties": { "value": 4.0977 }, "geometry": { "type": "Point", "coordinates": [ 129.354187, 35.499451, 60.0 ] } },
{ "type": "Feature", "properties": { "value": 4.7474 }, "geometry": { "type": "Point", "coordinates": [ 129.355286, 35.499447, 60.0 ] } },
{ "type": "Feature", "properties": { "value": 5.2722 }, "geometry": { "type": "Point", "coordinates": [ 129.356384, 35.499447, 60.0 ] } },
{ "type": "Feature", "properties": { "value": 5.6595 }, "geometry": { "type": "Point", "coordinates": [ 129.357483, 35.499443, 60.0 ] } },
{ "type": "Feature", "properties": { "value": 5.9369 }, "geometry": { "type": "Point", "coordinates": [ 129.358582, 35.499439, 60.0 ] } },
{ "type": "Feature", "properties": { "value": 6.1031 }, "geometry": { "type": "Point", "coordinates": [ 129.359695, 35.499435, 60.0 ] } },
{ "type": "Feature", "properties": { "value": 6.172 }, "geometry": { "type": "Point", "coordinates": [ 129.360794, 35.499432, 60.0 ] } },
{ "type": "Feature", "properties": { "value": 6.1673 }, "geometry": { "type": "Point", "coordinates": [ 129.361893, 35.499428, 60.0 ] } },
{ "type": "Feature", "properties": { "value": 6.1046 }, "geometry": { "type": "Point", "coordinates": [ 129.362991, 35.499424, 60.0 ] } },
{ "type": "Feature", "properties": { "value": 6.0029 }, "geometry": { "type": "Point", "coordinates": [ 129.364105, 35.499424, 60.0 ] } },
{ "type": "Feature", "properties": { "value": 5.8836 }, "geometry": { "type": "Point", "coordinates": [ 129.365204, 35.49942, 60.0 ] } },
{ "type": "Feature", "properties": { "value": 5.7546 }, "geometry": { "type": "Point", "coordinates": [ 129.366302, 35.499416, 60.0 ] } },
{ "type": "Feature", "properties": { "value": 5.6332 }, "geometry": { "type": "Point", "coordinates": [ 129.367401, 35.499413, 60.0 ] } },
{ "type": "Feature", "properties": { "value": 5.5259 }, "geometry": { "type": "Point", "coordinates": [ 129.368515, 35.499409, 60.0 ] } },
{ "type": "Feature", "properties": { "value": 5.437 }, "geometry": { "type": "Point", "coordinates": [ 129.369614, 35.499405, 60.0 ] } },
{ "type": "Feature", "properties": { "value": 5.3664 }, "geometry": { "type": "Point", "coordinates": [ 129.370712, 35.499401, 60.0 ] } },
{ "type": "Feature", "properties": { "value": 5.3019 }, "geometry": { "type": "Point", "coordinates": [ 129.371811, 35.499397, 60.0 ] } },
{ "type": "Feature", "properties": { "value": 5.2329 }, "geometry": { "type": "Point", "coordinates": [ 129.37291, 35.499393, 60.0 ] } },
{ "type": "Feature", "properties": { "value": 5.1431 }, "geometry": { "type": "Point", "coordinates": [ 129.374023, 35.499393, 60.0 ] } },
{ "type": "Feature", "properties": { "value": 5.0083 }, "geometry": { "type": "Point", "coordinates": [ 129.375122, 35.49939, 60.0 ] } },
{ "type": "Feature", "properties": { "value": 4.815 }, "geometry": { "type": "Point", "coordinates": [ 129.376221, 35.499386, 60.0 ] } },
{ "type": "Feature", "properties": { "value": 4.5442 }, "geometry": { "type": "Point", "coordinates": [ 129.377319, 35.499382, 60.0 ] } },
{ "type": "Feature", "properties": { "value": 4.191 }, "geometry": { "type": "Point", "coordinates": [ 129.378433, 35.499378, 60.0 ] } },
{ "type": "Feature", "properties": { "value": 3.7571 }, "geometry": { "type": "Point", "coordinates": [ 129.379532, 35.499374, 60.0 ] } },
{ "type": "Feature", "properties": { "value": 3.2593 }, "geometry": { "type": "Point", "coordinates": [ 129.38063, 35.499371, 60.0 ] } },
{ "type": "Feature", "properties": { "value": 2.722 }, "geometry": { "type": "Point", "coordinates": [ 129.381729, 35.499367, 60.0 ] } },
{ "type": "Feature", "properties": { "value": 0.1303 }, "geometry": { "type": "Point", "coordinates": [ 129.347565, 35.500374, 60.0 ] } },
{ "type": "Feature", "properties": { "value": 0.2993 }, "geometry": { "type": "Point", "coordinates": [ 129.348679, 35.50037, 60.0 ] } },
{ "type": "Feature", "properties": { "value": 0.5461 }, "geometry": { "type": "Point", "coordinates": [ 129.349777, 35.500366, 60.0 ] } },
{ "type": "Feature", "properties": { "value": 0.8899 }, "geometry": { "type": "Point", "coordinates": [ 129.350876, 35.500362, 60.0 ] } },
{ "type": "Feature", "properties": { "value": 1.3248 }, "geometry": { "type": "Point", "coordinates": [ 129.351974, 35.500359, 60.0 ] } },
{ "type": "Feature", "properties": { "value": 1.8485 }, "geometry": { "type": "Point", "coordinates": [ 129.353088, 35.500355, 60.0 ] } },
{ "type": "Feature", "properties": { "value": 2.4115 }, "geometry": { "type": "Point", "coordinates": [ 129.354187, 35.500355, 60.0 ] } },
{ "type": "Feature", "properties": { "value": 2.9761 }, "geometry": { "type": "Point", "coordinates": [ 129.355286, 35.500351, 60.0 ] } },
{ "type": "Feature", "properties": { "value": 3.4957 }, "geometry": { "type": "Point", "coordinates": [ 129.356384, 35.500347, 60.0 ] } },
{ "type": "Feature", "properties": { "value": 3.9704 }, "geometry": { "type": "Point", "coordinates": [ 129.357483, 35.500343, 60.0 ] } },
{ "type": "Feature", "properties": { "value": 4.3707 }, "geometry": { "type": "Point", "coordinates": [ 129.358597, 35.50034, 60.0 ] } },
{ "type": "Feature", "properties": { "value": 4.6913 }, "geometry": { "type": "Point", "coordinates": [ 129.359695, 35.500336, 60.0 ] } },
{ "type": "Feature", "properties": { "value": 4.9275 }, "geometry": { "type": "Point", "coordinates": [ 129.360794, 35.500332, 60.0 ] } },
{ "type": "Feature", "properties": { "value": 5.0843 }, "geometry": { "type": "Point", "coordinates": [ 129.361893, 35.500332, 60.0 ] } },
{ "type": "Feature", "properties": { "value": 5.1701 }, "geometry": { "type": "Point", "coordinates": [ 129.363007, 35.500328, 60.0 ] } },
{ "type": "Feature", "properties": { "value": 5.2046 }, "geometry": { "type": "Point", "coordinates": [ 129.364105, 35.500324, 60.0 ] } },
{ "type": "Feature", "properties": { "value": 5.1906 }, "geometry": { "type": "Point", "coordinates": [ 129.365204, 35.50032, 60.0 ] } },
{ "type": "Feature", "properties": { "value": 5.1514 }, "geometry": { "type": "Point", "coordinates": [ 129.366302, 35.500317, 60.0 ] } },
{ "type": "Feature", "properties": { "value": 5.095 }, "geometry": { "type": "Point", "coordinates": [ 129.367416, 35.500313, 60.0 ] } },
{ "type": "Feature", "properties": { "value": 5.0324 }, "geometry": { "type": "Point", "coordinates": [ 129.368515, 35.500309, 60.0 ] } },
{ "type": "Feature", "properties": { "value": 4.9691 }, "geometry": { "type": "Point", "coordinates": [ 129.369614, 35.500305, 60.0 ] } },
{ "type": "Feature", "properties": { "value": 4.9086 }, "geometry": { "type": "Point", "coordinates": [ 129.370712, 35.500301, 60.0 ] } },
{ "type": "Feature", "properties": { "value": 4.8429 }, "geometry": { "type": "Point", "coordinates": [ 129.371811, 35.500301, 60.0 ] } },
{ "type": "Feature", "properties": { "value": 4.7617 }, "geometry": { "type": "Point", "coordinates": [ 129.372925, 35.500298, 60.0 ] } },
{ "type": "Feature", "properties": { "value": 4.6565 }, "geometry": { "type": "Point", "coordinates": [ 129.374023, 35.500294, 60.0 ] } },
{ "type": "Feature", "properties": { "value": 4.508 }, "geometry": { "type": "Point", "coordinates": [ 129.375122, 35.50029, 60.0 ] } },
{ "type": "Feature", "properties": { "value": 4.305 }, "geometry": { "type": "Point", "coordinates": [ 129.376221, 35.500286, 60.0 ] } },
{ "type": "Feature", "properties": { "value": 4.0342 }, "geometry": { "type": "Point", "coordinates": [ 129.377335, 35.500282, 60.0 ] } },
{ "type": "Feature", "properties": { "value": 3.6936 }, "geometry": { "type": "Point", "coordinates": [ 129.378433, 35.500278, 60.0 ] } },
{ "type": "Feature", "properties": { "value": 3.2905 }, "geometry": { "type": "Point", "coordinates": [ 129.379532, 35.500275, 60.0 ] } },
{ "type": "Feature", "properties": { "value": 2.836 }, "geometry": { "type": "Point", "coordinates": [ 129.38063, 35.500271, 60.0 ] } },
{ "type": "Feature", "properties": { "value": 2.3562 }, "geometry": { "type": "Point", "coordinates": [ 129.381744, 35.500267, 60.0 ] } },
{ "type": "Feature", "properties": { "value": 0.0602 }, "geometry": { "type": "Point", "coordinates": [ 129.348679, 35.50127, 60.0 ] } },
{ "type": "Feature", "properties": { "value": 0.1849 }, "geometry": { "type": "Point", "coordinates": [ 129.349777, 35.501266, 60.0 ] } },
{ "type": "Feature", "properties": { "value": 0.3566 }, "geometry": { "type": "Point", "coordinates": [ 129.350876, 35.501263, 60.0 ] } },
{ "type": "Feature", "properties": { "value": 0.5852 }, "geometry": { "type": "Point", "coordinates": [ 129.35199, 35.501259, 60.0 ] } },
{ "type": "Feature", "properties": { "value": 0.8834 }, "geometry": { "type": "Point", "coordinates": [ 129.353088, 35.501259, 60.0 ] } },
{ "type": "Feature", "properties": { "value": 1.2445 }, "geometry": { "type": "Point", "coordinates": [ 129.354187, 35.501255, 60.0 ] } },
{ "type": "Feature", "properties": { "value": 1.6422 }, "geometry": { "type": "Point", "coordinates": [ 129.355286, 35.501251, 60.0 ] } },
{ "type": "Feature", "properties": { "value": 2.0519 }, "geometry": { "type": "Point", "coordinates": [ 129.3564, 35.501247, 60.0 ] } },
{ "type": "Feature", "properties": { "value": 2.4626 }, "geometry": { "type": "Point", "coordinates": [ 129.357498, 35.501244, 60.0 ] } },
{ "type": "Feature", "properties": { "value": 2.8547 }, "geometry": { "type": "Point", "coordinates": [ 129.358597, 35.50124, 60.0 ] } },
{ "type": "Feature", "properties": { "value": 3.2012 }, "geometry": { "type": "Point", "coordinates": [ 129.359695, 35.50124, 60.0 ] } },
{ "type": "Feature", "properties": { "value": 3.4937 }, "geometry": { "type": "Point", "coordinates": [ 129.360794, 35.501236, 60.0 ] } },
{ "type": "Feature", "properties": { "value": 3.7194 }, "geometry": { "type": "Point", "coordinates": [ 129.361908, 35.501232, 60.0 ] } },
{ "type": "Feature", "properties": { "value": 3.8862 }, "geometry": { "type": "Point", "coordinates": [ 129.363007, 35.501228, 60.0 ] } },
{ "type": "Feature", "properties": { "value": 4.0078 }, "geometry": { "type": "Point", "coordinates": [ 129.364105, 35.501225, 60.0 ] } },
{ "type": "Feature", "properties": { "value": 4.0845 }, "geometry": { "type": "Point", "coordinates": [ 129.365204, 35.501221, 60.0 ] } },
{ "type": "Feature", "properties": { "value": 4.1194 }, "geometry": { "type": "Point", "coordinates": [ 129.366318, 35.501217, 60.0 ] } },
{ "type": "Feature", "properties": { "value": 4.1273 }, "geometry": { "type": "Point", "coordinates": [ 129.367416, 35.501213, 60.0 ] } },
{ "type": "Feature", "properties": { "value": 4.1147 }, "geometry": { "type": "Point", "coordinates": [ 129.368515, 35.501213, 60.0 ] } },
{ "type": "Feature", "properties": { "value": 4.0918 }, "geometry": { "type": "Point", "coordinates": [ 129.369614, 35.501209, 60.0 ] } },
{ "type": "Feature", "properties": { "value": 4.0575 }, "geometry": { "type": "Point", "coordinates": [ 129.370728, 35.501205, 60.0 ] } },
{ "type": "Feature", "properties": { "value": 4.009 }, "geometry": { "type": "Point", "coordinates": [ 129.371826, 35.501202, 60.0 ] } },
{ "type": "Feature", "properties": { "value": 3.942 }, "geometry": { "type": "Point", "coordinates": [ 129.372925, 35.501198, 60.0 ] } },
{ "type": "Feature", "properties": { "value": 3.8452 }, "geometry": { "type": "Point", "coordinates": [ 129.374023, 35.501194, 60.0 ] } },
{ "type": "Feature", "properties": { "value": 3.7094 }, "geometry": { "type": "Point", "coordinates": [ 129.375122, 35.50119, 60.0 ] } },
{ "type": "Feature", "properties": { "value": 3.5254 }, "geometry": { "type": "Point", "coordinates": [ 129.376236, 35.501186, 60.0 ] } },
{ "type": "Feature", "properties": { "value": 3.2885 }, "geometry": { "type": "Point", "coordinates": [ 129.377335, 35.501183, 60.0 ] } },
{ "type": "Feature", "properties": { "value": 2.9955 }, "geometry": { "type": "Point", "coordinates": [ 129.378433, 35.501179, 60.0 ] } },
{ "type": "Feature", "properties": { "value": 2.6549 }, "geometry": { "type": "Point", "coordinates": [ 129.379532, 35.501179, 60.0 ] } },
{ "type": "Feature", "properties": { "value": 2.2772 }, "geometry": { "type": "Point", "coordinates": [ 129.380646, 35.501175, 60.0 ] } },
{ "type": "Feature", "properties": { "value": 1.8834 }, "geometry": { "type": "Point", "coordinates": [ 129.381744, 35.501171, 60.0 ] } }
]
}
