{
"type": "FeatureCollection",
"features": [
{ "type": "Feature", "properties": { "value": 0.0009 }, "geometry": { "type": "Point", "coordinates": [ 129.32756, 35.458969, 60.0 ] } },
{ "type": "Feature", "properties": { "value": 0.4547 }, "geometry": { "type": "Point", "coordinates": [ 129.32756, 35.459869, 60.0 ] } },
{ "type": "Feature", "properties": { "value": 0.0013 }, "geometry": { "type": "Point", "coordinates": [ 129.317688, 35.467106, 60.0 ] } },
{ "type": "Feature", "properties": { "value": 0.0692 }, "geometry": { "type": "Point", "coordinates": [ 129.317688, 35.468006, 60.0 ] } }
]
}
