{
"type": "FeatureCollection",
"features": [
{ "type": "Feature", "properties": { "value": 3.4963 }, "geometry": { "type": "Point", "coordinates": [ 129.32756, 35.458969, 30.0 ] } },
{ "type": "Feature", "properties": { "value": 95.624 }, "geometry": { "type": "Point", "coordinates": [ 129.32756, 35.459869, 30.0 ] } },
{ "type": "Feature", "properties": { "value": 172.35 }, "geometry": { "type": "Point", "coordinates": [ 129.327576, 35.46077, 30.0 ] } },
{ "type": "Feature", "properties": { "value": 161.59 }, "geometry": { "type": "Point", "coordinates": [ 129.327576, 35.461674, 30.0 ] } },
{ "type": "Feature", "properties": { "value": 152.06 }, "geometry": { "type": "Point", "coordinates": [ 129.327576, 35.462574, 30.0 ] } },
{ "type": "Feature", "properties": { "value": 126.32 }, "geometry": { "type": "Point", "coordinates": [ 129.327576, 35.463474, 30.0 ] } },
{ "type": "Feature", "properties": { "value": 2.063 }, "geometry": { "type": "Point", "coordinates": [ 129.32869, 35.46347, 30.0 ] } },
{ "type": "Feature", "properties": { "value": 102.29 }, "geometry": { "type": "Point", "coordinates": [ 129.327591, 35.464375, 30.0 ] } },
{ "type": "Feature", "properties": { "value": 8.2536 }, "geometry": { "type": "Point", "coordinates": [ 129.32869, 35.464375, 30.0 ] } },
{ "type": "Feature", "properties": { "value": 73.909 }, "geometry": { "type": "Point", "coordinates": [ 129.327591, 35.465279, 30.0 ] } },
{ "type": "Feature", "properties": { "value": 14.592 }, "geometry": { "type": "Point", "coordinates": [ 129.32869, 35.465275, 30.0 ] } },
{ "type": "Feature", "properties": { "value": 52.337 }, "geometry": { "type": "Point", "coordinates": [ 129.327591, 35.466179, 30.0 ] } },
{ "type": "Feature", "properties": { "value": 17.761 }, "geometry": { "type": "Point", "coordinates": [ 129.32869, 35.466175, 30.0 ] } },
{ "type": "Feature", "properties": { "value": 43.225 }, "geometry": { "type": "Point", "coordinates": [ 129.327591, 35.467079, 30.0 ] } },
{ "type": "Feature", "properties": { "value": 20.934 }, "geometry": { "type": "Point", "coordinates": [ 129.328705, 35.467075, 30.0 ] } },
{ "type": "Feature", "properties": { "value": 38.333 }, "geometry": { "type": "Point", "coordinates": [ 129.327606, 35.467983, 30.0 ] } },
{ "type": "Feature", "properties": { "value": 23.335 }, "geometry": { "type": "Point", "coordinates": [ 129.328705, 35.467979, 30.0 ] } },
{ "type": "Feature", "properties": { "value": 37.651 }, "geometry": { "type": "Point", "coordinates": [ 129.327606, 35.468884, 30.0 ] } },
{ "type": "Feature", "properties": { "value": 25.943 }, "geometry": { "type": "Point", "coordinates": [ 129.328705, 35.46888, 30.0 ] } },
{ "type": "Feature", "properties": { "value": 0.9155 }, "geometry": { "type": "Point", "coordinates": [ 129.326508, 35.469788, 30.0 ] } },
{ "type": "Feature", "properties": { "value": 41.622 }, "geometry": { "type": "Point", "coordinates": [ 129.327606, 35.469784, 30.0 ] } },
{ "type": "Feature", "properties": { "value": 30.302 }, "geometry": { "type": "Point", "coordinates": [ 129.328705, 35.46978, 30.0 ] } },
{ "type": "Feature", "properties": { "value": 1.6805 }, "geometry": { "type": "Point", "coordinates": [ 129.326508, 35.470688, 30.0 ] } },
{ "type": "Feature", "properties": { "value": 47.124 }, "geometry": { "type": "Point", "coordinates": [ 129.327606, 35.470684, 30.0 ] } },
{ "type": "Feature", "properties": { "value": 37.938 }, "geometry": { "type": "Point", "coordinates": [ 129.32872, 35.470684, 30.0 ] } },
{ "type": "Feature", "properties": { "value": 0.7891 }, "geometry": { "type": "Point", "coordinates": [ 129.329819, 35.47068, 30.0 ] } },
{ "type": "Feature", "properties": { "value": 2.6858 }, "geometry": { "type": "Point", "coordinates": [ 129.326508, 35.471588, 30.0 ] } },
{ "type": "Feature", "properties": { "value": 55.417 }, "geometry": { "type": "Point", "coordinates": [ 129.327621, 35.471588, 30.0 ] } },
{ "type": "Feature", "properties": { "value": 49.31 }, "geometry": { "type": "Point", "coordinates": [ 129.32872, 35.471584, 30.0 ] } },
{ "type": "Feature", "properties": { "value": 1.577 }, "geometry": { "type": "Point", "coordinates": [ 129.329819, 35.471581, 30.0 ] } },
{ "type": "Feature", "properties": { "value": 3.8429 }, "geometry": { "type": "Point", "coordinates": [ 129.326523, 35.472492, 30.0 ] } },
{ "type": "Feature", "properties": { "value": 59.196 }, "geometry": { "type": "Point", "coordinates": [ 129.327621, 35.472488, 30.0 ] } },
{ "type": "Feature", "properties": { "value": 50.896 }, "geometry": { "type": "Point", "coordinates": [ 129.32872, 35.472485, 30.0 ] } },
{ "type": "Feature", "properties": { "value": 2.1543 }, "geometry": { "type": "Point", "coordinates": [ 129.329819, 35.472481, 30.0 ] } },
{ "type": "Feature", "properties": { "value": 2.9799 }, "geometry": { "type": "Point", "coordinates": [ 129.326523, 35.473392, 30.0 ] } },
{ "type": "Feature", "properties": { "value": 33.582 }, "geometry": { "type": "Point", "coordinates": [ 129.327621, 35.473389, 30.0 ] } },
{ "type": "Feature", "properties": { "value": 27.815 }, "geometry": { "type": "Point", "coordinates": [ 129.32872, 35.473385, 30.0 ] } },
{ "type": "Feature", "properties": { "value": 1.5677 }, "geometry": { "type": "Point", "coordinates": [ 129.329819, 35.473385, 30.0 ] } },
{ "type": "Feature", "properties": { "value": 0.7076 }, "geometry": { "type": "Point", "coordinates": [ 129.326523, 35.474293, 30.0 ] } },
{ "type": "Feature", "properties": { "value": 6.5055 }, "geometry": { "type": "Point", "coordinates": [ 129.327621, 35.474289, 30.0 ] } },
{ "type": "Feature", "properties": { "value": 5.3053 }, "geometry": { "type": "Point", "coordinates": [ 129.328735, 35.474289, 30.0 ] } },
{ "type": "Feature", "properties": { "value": 0.377 }, "geometry": { "type": "Point", "coordinates": [ 129.329834, 35.474285, 30.0 ] } },
{ "type": "Feature", "properties": { "value": 0.2771 }, "geometry": { "type": "Point", "coordinates": [ 129.327637, 35.475193, 30.0 ] } },
{ "type": "Feature", "properties": { "value": 0.2194 }, "geometry": { "type": "Point", "coordinates": [ 129.328735, 35.475189, 30.0 ] } }
]
}
