{
"type": "FeatureCollection",
"features": [
{ "type": "Feature", "properties": { "value": 3.7666 }, "geometry": { "type": "Point", "coordinates": [ 129.32756, 35.458969, 30.0 ] } },
{ "type": "Feature", "properties": { "value": 101.25 }, "geometry": { "type": "Point", "coordinates": [ 129.32756, 35.459869, 30.0 ] } },
{ "type": "Feature", "properties": { "value": 178.18 }, "geometry": { "type": "Point", "coordinates": [ 129.327576, 35.46077, 30.0 ] } },
{ "type": "Feature", "properties": { "value": 163.71 }, "geometry": { "type": "Point", "coordinates": [ 129.327576, 35.461674, 30.0 ] } },
{ "type": "Feature", "properties": { "value": 149.17 }, "geometry": { "type": "Point", "coordinates": [ 129.327576, 35.462574, 30.0 ] } },
{ "type": "Feature", "properties": { "value": 118.98 }, "geometry": { "type": "Point", "coordinates": [ 129.327576, 35.463474, 30.0 ] } },
{ "type": "Feature", "properties": { "value": 2.8796 }, "geometry": { "type": "Point", "coordinates": [ 129.32869, 35.46347, 30.0 ] } },
{ "type": "Feature", "properties": { "value": 91.489 }, "geometry": { "type": "Point", "coordinates": [ 129.327591, 35.464375, 30.0 ] } },
{ "type": "Feature", "properties": { "value": 11.729 }, "geometry": { "type": "Point", "coordinates": [ 129.32869, 35.464375, 30.0 ] } },
{ "type": "Feature", "properties": { "value": 62.598 }, "geometry": { "type": "Point", "coordinates": [ 129.327591, 35.465279, 30.0 ] } },
{ "type": "Feature", "properties": { "value": 21.023 }, "geometry": { "type": "Point", "coordinates": [ 129.32869, 35.465275, 30.0 ] } },
{ "type": "Feature", "properties": { "value": 41.904 }, "geometry": { "type": "Point", "coordinates": [ 129.327591, 35.466179, 30.0 ] } },
{ "type": "Feature", "properties": { "value": 25.811 }, "geometry": { "type": "Point", "coordinates": [ 129.32869, 35.466175, 30.0 ] } },
{ "type": "Feature", "properties": { "value": 32.769 }, "geometry": { "type": "Point", "coordinates": [ 129.327591, 35.467079, 30.0 ] } },
{ "type": "Feature", "properties": { "value": 30.694 }, "geometry": { "type": "Point", "coordinates": [ 129.328705, 35.467075, 30.0 ] } },
{ "type": "Feature", "properties": { "value": 27.733 }, "geometry": { "type": "Point", "coordinates": [ 129.327606, 35.467983, 30.0 ] } },
{ "type": "Feature", "properties": { "value": 34.397 }, "geometry": { "type": "Point", "coordinates": [ 129.328705, 35.467979, 30.0 ] } },
{ "type": "Feature", "properties": { "value": 26.003 }, "geometry": { "type": "Point", "coordinates": [ 129.327606, 35.468884, 30.0 ] } },
{ "type": "Feature", "properties": { "value": 38.562 }, "geometry": { "type": "Point", "coordinates": [ 129.328705, 35.46888, 30.0 ] } },
{ "type": "Feature", "properties": { "value": 0.5056 }, "geometry": { "type": "Point", "coordinates": [ 129.329803, 35.468876, 30.0 ] } },
{ "type": "Feature", "properties": { "value": 27.245 }, "geometry": { "type": "Point", "coordinates": [ 129.327606, 35.469784, 30.0 ] } },
{ "type": "Feature", "properties": { "value": 45.178 }, "geometry": { "type": "Point", "coordinates": [ 129.328705, 35.46978, 30.0 ] } },
{ "type": "Feature", "properties": { "value": 1.5151 }, "geometry": { "type": "Point", "coordinates": [ 129.329819, 35.469776, 30.0 ] } },
{ "type": "Feature", "properties": { "value": 29.513 }, "geometry": { "type": "Point", "coordinates": [ 129.327606, 35.470684, 30.0 ] } },
{ "type": "Feature", "properties": { "value": 56.785 }, "geometry": { "type": "Point", "coordinates": [ 129.32872, 35.470684, 30.0 ] } },
{ "type": "Feature", "properties": { "value": 3.6022 }, "geometry": { "type": "Point", "coordinates": [ 129.329819, 35.47068, 30.0 ] } },
{ "type": "Feature", "properties": { "value": 32.661 }, "geometry": { "type": "Point", "coordinates": [ 129.327621, 35.471588, 30.0 ] } },
{ "type": "Feature", "properties": { "value": 74.157 }, "geometry": { "type": "Point", "coordinates": [ 129.32872, 35.471584, 30.0 ] } },
{ "type": "Feature", "properties": { "value": 6.8444 }, "geometry": { "type": "Point", "coordinates": [ 129.329819, 35.471581, 30.0 ] } },
{ "type": "Feature", "properties": { "value": 35.053 }, "geometry": { "type": "Point", "coordinates": [ 129.327621, 35.472488, 30.0 ] } },
{ "type": "Feature", "properties": { "value": 83.519 }, "geometry": { "type": "Point", "coordinates": [ 129.32872, 35.472485, 30.0 ] } },
{ "type": "Feature", "properties": { "value": 10.37 }, "geometry": { "type": "Point", "coordinates": [ 129.329819, 35.472481, 30.0 ] } },
{ "type": "Feature", "properties": { "value": 0.711 }, "geometry": { "type": "Point", "coordinates": [ 129.326523, 35.473392, 30.0 ] } },
{ "type": "Feature", "properties": { "value": 34.758 }, "geometry": { "type": "Point", "coordinates": [ 129.327621, 35.473389, 30.0 ] } },
{ "type": "Feature", "properties": { "value": 84.574 }, "geometry": { "type": "Point", "coordinates": [ 129.32872, 35.473385, 30.0 ] } },
{ "type": "Feature", "properties": { "value": 14.105 }, "geometry": { "type": "Point", "coordinates": [ 129.329819, 35.473385, 30.0 ] } },
{ "type": "Feature", "properties": { "value": 0.8848 }, "geometry": { "type": "Point", "coordinates": [ 129.326523, 35.474293, 30.0 ] } },
{ "type": "Feature", "properties": { "value": 33.782 }, "geometry": { "type": "Point", "coordinates": [ 129.327621, 35.474289, 30.0 ] } },
{ "type": "Feature", "properties": { "value": 83.397 }, "geometry": { "type": "Point", "coordinates": [ 129.328735, 35.474289, 30.0 ] } },
{ "type": "Feature", "properties": { "value": 17.459 }, "geometry": { "type": "Point", "coordinates": [ 129.329834, 35.474285, 30.0 ] } },
{ "type": "Feature", "properties": { "value": 1.1548 }, "geometry": { "type": "Point", "coordinates": [ 129.326523, 35.475193, 30.0 ] } },
{ "type": "Feature", "properties": { "value": 32.834 }, "geometry": { "type": "Point", "coordinates": [ 129.327637, 35.475193, 30.0 ] } },
{ "type": "Feature", "properties": { "value": 80.839 }, "geometry": { "type": "Point", "coordinates": [ 129.328735, 35.475189, 30.0 ] } },
{ "type": "Feature", "properties": { "value": 19.761 }, "geometry": { "type": "Point", "coordinates": [ 129.329834, 35.475185, 30.0 ] } },
{ "type": "Feature", "properties": { "value": 1.4383 }, "geometry": { "type": "Point", "coordinates": [ 129.326538, 35.476097, 30.0 ] } },
{ "type": "Feature", "properties": { "value": 31.745 }, "geometry": { "type": "Point", "coordinates": [ 129.327637, 35.476093, 30.0 ] } },
{ "type": "Feature", "properties": { "value": 75.815 }, "geometry": { "type": "Point", "coordinates": [ 129.328735, 35.476089, 30.0 ] } },
{ "type": "Feature", "properties": { "value": 21.005 }, "geometry": { "type": "Point", "coordinates": [ 129.329834, 35.476086, 30.0 ] } },
{ "type": "Feature", "properties": { "value": 0.5047 }, "geometry": { "type": "Point", "coordinates": [ 129.330933, 35.476086, 30.0 ] } },
{ "type": "Feature", "properties": { "value": 1.912 }, "geometry": { "type": "Point", "coordinates": [ 129.326538, 35.476997, 30.0 ] } },
{ "type": "Feature", "properties": { "value": 29.583 }, "geometry": { "type": "Point", "coordinates": [ 129.327637, 35.476994, 30.0 ] } },
{ "type": "Feature", "properties": { "value": 66.394 }, "geometry": { "type": "Point", "coordinates": [ 129.328735, 35.47699, 30.0 ] } },
{ "type": "Feature", "properties": { "value": 21.0 }, "geometry": { "type": "Point", "coordinates": [ 129.329834, 35.47699, 30.0 ] } },
{ "type": "Feature", "properties": { "value": 0.8475 }, "geometry": { "type": "Point", "coordinates": [ 129.330948, 35.476986, 30.0 ] } },
{ "type": "Feature", "properties": { "value": 2.2807 }, "geometry": { "type": "Point", "coordinates": [ 129.326538, 35.477898, 30.0 ] } },
{ "type": "Feature", "properties": { "value": 26.623 }, "geometry": { "type": "Point", "coordinates": [ 129.327637, 35.477894, 30.0 ] } },
{ "type": "Feature", "properties": { "value": 56.197 }, "geometry": { "type": "Point", "coordinates": [ 129.328735, 35.477894, 30.0 ] } },
{ "type": "Feature", "properties": { "value": 20.374 }, "geometry": { "type": "Point", "coordinates": [ 129.329849, 35.47789, 30.0 ] } },
{ "type": "Feature", "properties": { "value": 1.1582 }, "geometry": { "type": "Point", "coordinates": [ 129.330948, 35.477886, 30.0 ] } },
{ "type": "Feature", "properties": { "value": 2.5389 }, "geometry": { "type": "Point", "coordinates": [ 129.326538, 35.478798, 30.0 ] } },
{ "type": "Feature", "properties": { "value": 25.47 }, "geometry": { "type": "Point", "coordinates": [ 129.327637, 35.478798, 30.0 ] } },
{ "type": "Feature", "properties": { "value": 51.366 }, "geometry": { "type": "Point", "coordinates": [ 129.328751, 35.478794, 30.0 ] } },
{ "type": "Feature", "properties": { "value": 20.667 }, "geometry": { "type": "Point", "coordinates": [ 129.329849, 35.47879, 30.0 ] } },
{ "type": "Feature", "properties": { "value": 1.5412 }, "geometry": { "type": "Point", "coordinates": [ 129.330948, 35.478786, 30.0 ] } },
{ "type": "Feature", "properties": { "value": 2.9003 }, "geometry": { "type": "Point", "coordinates": [ 129.326553, 35.479702, 30.0 ] } },
{ "type": "Feature", "properties": { "value": 27.805 }, "geometry": { "type": "Point", "coordinates": [ 129.327652, 35.479698, 30.0 ] } },
{ "type": "Feature", "properties": { "value": 53.893 }, "geometry": { "type": "Point", "coordinates": [ 129.328751, 35.479694, 30.0 ] } },
{ "type": "Feature", "properties": { "value": 22.536 }, "geometry": { "type": "Point", "coordinates": [ 129.329849, 35.479691, 30.0 ] } },
{ "type": "Feature", "properties": { "value": 2.0959 }, "geometry": { "type": "Point", "coordinates": [ 129.330948, 35.479691, 30.0 ] } },
{ "type": "Feature", "properties": { "value": 3.5895 }, "geometry": { "type": "Point", "coordinates": [ 129.326553, 35.480602, 30.0 ] } },
{ "type": "Feature", "properties": { "value": 31.182 }, "geometry": { "type": "Point", "coordinates": [ 129.327652, 35.480598, 30.0 ] } },
{ "type": "Feature", "properties": { "value": 58.161 }, "geometry": { "type": "Point", "coordinates": [ 129.328751, 35.480595, 30.0 ] } },
{ "type": "Feature", "properties": { "value": 25.143 }, "geometry": { "type": "Point", "coordinates": [ 129.329849, 35.480595, 30.0 ] } },
{ "type": "Feature", "properties": { "value": 2.7989 }, "geometry": { "type": "Point", "coordinates": [ 129.330963, 35.480591, 30.0 ] } },
{ "type": "Feature", "properties": { "value": 4.3199 }, "geometry": { "type": "Point", "coordinates": [ 129.326553, 35.481503, 30.0 ] } },
{ "type": "Feature", "properties": { "value": 31.799 }, "geometry": { "type": "Point", "coordinates": [ 129.327652, 35.481503, 30.0 ] } },
{ "type": "Feature", "properties": { "value": 56.709 }, "geometry": { "type": "Point", "coordinates": [ 129.328751, 35.481499, 30.0 ] } },
{ "type": "Feature", "properties": { "value": 26.448 }, "geometry": { "type": "Point", "coordinates": [ 129.329865, 35.481495, 30.0 ] } },
{ "type": "Feature", "properties": { "value": 3.5041 }, "geometry": { "type": "Point", "coordinates": [ 129.330963, 35.481491, 30.0 ] } },
{ "type": "Feature", "properties": { "value": 4.8906 }, "geometry": { "type": "Point", "coordinates": [ 129.326553, 35.482407, 30.0 ] } },
{ "type": "Feature", "properties": { "value": 30.472 }, "geometry": { "type": "Point", "coordinates": [ 129.327652, 35.482403, 30.0 ] } },
{ "type": "Feature", "properties": { "value": 52.605 }, "geometry": { "type": "Point", "coordinates": [ 129.328766, 35.482399, 30.0 ] } },
{ "type": "Feature", "properties": { "value": 27.035 }, "geometry": { "type": "Point", "coordinates": [ 129.329865, 35.482395, 30.0 ] } },
{ "type": "Feature", "properties": { "value": 4.217 }, "geometry": { "type": "Point", "coordinates": [ 129.330963, 35.482391, 30.0 ] } },
{ "type": "Feature", "properties": { "value": 5.3718 }, "geometry": { "type": "Point", "coordinates": [ 129.326553, 35.483307, 30.0 ] } },
{ "type": "Feature", "properties": { "value": 30.534 }, "geometry": { "type": "Point", "coordinates": [ 129.327667, 35.483303, 30.0 ] } },
{ "type": "Feature", "properties": { "value": 53.435 }, "geometry": { "type": "Point", "coordinates": [ 129.328766, 35.483299, 30.0 ] } },
{ "type": "Feature", "properties": { "value": 28.72 }, "geometry": { "type": "Point", "coordinates": [ 129.329865, 35.483295, 30.0 ] } },
{ "type": "Feature", "properties": { "value": 4.9262 }, "geometry": { "type": "Point", "coordinates": [ 129.330963, 35.483295, 30.0 ] } },
{ "type": "Feature", "properties": { "value": 6.1724 }, "geometry": { "type": "Point", "coordinates": [ 129.326569, 35.484207, 30.0 ] } },
{ "type": "Feature", "properties": { "value": 32.938 }, "geometry": { "type": "Point", "coordinates": [ 129.327667, 35.484203, 30.0 ] } },
{ "type": "Feature", "properties": { "value": 56.778 }, "geometry": { "type": "Point", "coordinates": [ 129.328766, 35.484203, 30.0 ] } },
{ "type": "Feature", "properties": { "value": 30.41 }, "geometry": { "type": "Point", "coordinates": [ 129.329865, 35.4842, 30.0 ] } },
{ "type": "Feature", "properties": { "value": 5.5844 }, "geometry": { "type": "Point", "coordinates": [ 129.330978, 35.484196, 30.0 ] } },
{ "type": "Feature", "properties": { "value": 7.4465 }, "geometry": { "type": "Point", "coordinates": [ 129.326569, 35.485107, 30.0 ] } },
{ "type": "Feature", "properties": { "value": 35.129 }, "geometry": { "type": "Point", "coordinates": [ 129.327667, 35.485107, 30.0 ] } },
{ "type": "Feature", "properties": { "value": 56.028 }, "geometry": { "type": "Point", "coordinates": [ 129.328766, 35.485104, 30.0 ] } },
{ "type": "Feature", "properties": { "value": 30.152 }, "geometry": { "type": "Point", "coordinates": [ 129.32988, 35.4851, 30.0 ] } },
{ "type": "Feature", "properties": { "value": 5.999 }, "geometry": { "type": "Point", "coordinates": [ 129.330978, 35.485096, 30.0 ] } },
{ "type": "Feature", "properties": { "value": 0.5467 }, "geometry": { "type": "Point", "coordinates": [ 129.32547, 35.486012, 30.0 ] } },
{ "type": "Feature", "properties": { "value": 9.0312 }, "geometry": { "type": "Point", "coordinates": [ 129.326569, 35.486012, 30.0 ] } },
{ "type": "Feature", "properties": { "value": 36.232 }, "geometry": { "type": "Point", "coordinates": [ 129.327667, 35.486008, 30.0 ] } },
{ "type": "Feature", "properties": { "value": 52.505 }, "geometry": { "type": "Point", "coordinates": [ 129.328781, 35.486004, 30.0 ] } },
{ "type": "Feature", "properties": { "value": 28.761 }, "geometry": { "type": "Point", "coordinates": [ 129.32988, 35.486, 30.0 ] } },
{ "type": "Feature", "properties": { "value": 6.1041 }, "geometry": { "type": "Point", "coordinates": [ 129.330978, 35.485996, 30.0 ] } },
{ "type": "Feature", "properties": { "value": 1.1457 }, "geometry": { "type": "Point", "coordinates": [ 129.32547, 35.486916, 30.0 ] } },
{ "type": "Feature", "properties": { "value": 10.794 }, "geometry": { "type": "Point", "coordinates": [ 129.326569, 35.486912, 30.0 ] } },
{ "type": "Feature", "properties": { "value": 37.346 }, "geometry": { "type": "Point", "coordinates": [ 129.327682, 35.486908, 30.0 ] } },
{ "type": "Feature", "properties": { "value": 50.304 }, "geometry": { "type": "Point", "coordinates": [ 129.328781, 35.486904, 30.0 ] } },
{ "type": "Feature", "properties": { "value": 27.312 }, "geometry": { "type": "Point", "coordinates": [ 129.32988, 35.486904, 30.0 ] } },
{ "type": "Feature", "properties": { "value": 5.9446 }, "geometry": { "type": "Point", "coordinates": [ 129.330978, 35.4869, 30.0 ] } },
{ "type": "Feature", "properties": { "value": 1.7898 }, "geometry": { "type": "Point", "coordinates": [ 129.32547, 35.487816, 30.0 ] } },
{ "type": "Feature", "properties": { "value": 12.844 }, "geometry": { "type": "Point", "coordinates": [ 129.326584, 35.487812, 30.0 ] } },
{ "type": "Feature", "properties": { "value": 38.059 }, "geometry": { "type": "Point", "coordinates": [ 129.327682, 35.487808, 30.0 ] } },
{ "type": "Feature", "properties": { "value": 47.643 }, "geometry": { "type": "Point", "coordinates": [ 129.328781, 35.487808, 30.0 ] } },
{ "type": "Feature", "properties": { "value": 25.487 }, "geometry": { "type": "Point", "coordinates": [ 129.32988, 35.487804, 30.0 ] } },
{ "type": "Feature", "properties": { "value": 5.8348 }, "geometry": { "type": "Point", "coordinates": [ 129.330994, 35.487801, 30.0 ] } },
{ "type": "Feature", "properties": { "value": 0.2316 }, "geometry": { "type": "Point", "coordinates": [ 129.332092, 35.487797, 30.0 ] } },
{ "type": "Feature", "properties": { "value": 2.6881 }, "geometry": { "type": "Point", "coordinates": [ 129.325485, 35.488716, 30.0 ] } },
{ "type": "Feature", "properties": { "value": 15.422 }, "geometry": { "type": "Point", "coordinates": [ 129.326584, 35.488712, 30.0 ] } },
{ "type": "Feature", "properties": { "value": 39.311 }, "geometry": { "type": "Point", "coordinates": [ 129.327682, 35.488712, 30.0 ] } },
{ "type": "Feature", "properties": { "value": 45.068 }, "geometry": { "type": "Point", "coordinates": [ 129.328781, 35.488708, 30.0 ] } },
{ "type": "Feature", "properties": { "value": 23.817 }, "geometry": { "type": "Point", "coordinates": [ 129.329895, 35.488705, 30.0 ] } },
{ "type": "Feature", "properties": { "value": 5.8211 }, "geometry": { "type": "Point", "coordinates": [ 129.330994, 35.488701, 30.0 ] } },
{ "type": "Feature", "properties": { "value": 0.4639 }, "geometry": { "type": "Point", "coordinates": [ 129.332092, 35.488697, 30.0 ] } },
{ "type": "Feature", "properties": { "value": 3.8529 }, "geometry": { "type": "Point", "coordinates": [ 129.325485, 35.489616, 30.0 ] } },
{ "type": "Feature", "properties": { "value": 18.477 }, "geometry": { "type": "Point", "coordinates": [ 129.326584, 35.489616, 30.0 ] } },
{ "type": "Feature", "properties": { "value": 41.582 }, "geometry": { "type": "Point", "coordinates": [ 129.327682, 35.489613, 30.0 ] } },
{ "type": "Feature", "properties": { "value": 44.06 }, "geometry": { "type": "Point", "coordinates": [ 129.328796, 35.489609, 30.0 ] } },
{ "type": "Feature", "properties": { "value": 22.547 }, "geometry": { "type": "Point", "coordinates": [ 129.329895, 35.489605, 30.0 ] } },
{ "type": "Feature", "properties": { "value": 5.6626 }, "geometry": { "type": "Point", "coordinates": [ 129.330994, 35.489605, 30.0 ] } },
{ "type": "Feature", "properties": { "value": 0.5048 }, "geometry": { "type": "Point", "coordinates": [ 129.332092, 35.489601, 30.0 ] } },
{ "type": "Feature", "properties": { "value": 0.1471 }, "geometry": { "type": "Point", "coordinates": [ 129.324387, 35.490524, 30.0 ] } },
{ "type": "Feature", "properties": { "value": 5.0612 }, "geometry": { "type": "Point", "coordinates": [ 129.325485, 35.49052, 30.0 ] } },
{ "type": "Feature", "properties": { "value": 21.435 }, "geometry": { "type": "Point", "coordinates": [ 129.326584, 35.490517, 30.0 ] } },
{ "type": "Feature", "properties": { "value": 43.451 }, "geometry": { "type": "Point", "coordinates": [ 129.327698, 35.490513, 30.0 ] } },
{ "type": "Feature", "properties": { "value": 42.733 }, "geometry": { "type": "Point", "coordinates": [ 129.328796, 35.490509, 30.0 ] } },
{ "type": "Feature", "properties": { "value": 20.977 }, "geometry": { "type": "Point", "coordinates": [ 129.329895, 35.490509, 30.0 ] } },
{ "type": "Feature", "properties": { "value": 5.2651 }, "geometry": { "type": "Point", "coordinates": [ 129.330994, 35.490505, 30.0 ] } },
{ "type": "Feature", "properties": { "value": 0.4985 }, "geometry": { "type": "Point", "coordinates": [ 129.332092, 35.490501, 30.0 ] } },
{ "type": "Feature", "properties": { "value": 0.6656 }, "geometry": { "type": "Point", "coordinates": [ 129.324387, 35.491425, 30.0 ] } },
{ "type": "Feature", "properties": { "value": 6.2244 }, "geometry": { "type": "Point", "coordinates": [ 129.325485, 35.491421, 30.0 ] } },
{ "type": "Feature", "properties": { "value": 23.563 }, "geometry": { "type": "Point", "coordinates": [ 129.326599, 35.491417, 30.0 ] } },
{ "type": "Feature", "properties": { "value": 44.131 }, "geometry": { "type": "Point", "coordinates": [ 129.327698, 35.491413, 30.0 ] } },
{ "type": "Feature", "properties": { "value": 40.686 }, "geometry": { "type": "Point", "coordinates": [ 129.328796, 35.491413, 30.0 ] } },
{ "type": "Feature", "properties": { "value": 19.38 }, "geometry": { "type": "Point", "coordinates": [ 129.329895, 35.491409, 30.0 ] } },
{ "type": "Feature", "properties": { "value": 4.9092 }, "geometry": { "type": "Point", "coordinates": [ 129.331009, 35.491405, 30.0 ] } },
{ "type": "Feature", "properties": { "value": 0.4866 }, "geometry": { "type": "Point", "coordinates": [ 129.332108, 35.491402, 30.0 ] } },
{ "type": "Feature", "properties": { "value": 0.9998 }, "geometry": { "type": "Point", "coordinates": [ 129.324387, 35.492325, 30.0 ] } },
{ "type": "Feature", "properties": { "value": 6.7174 }, "geometry": { "type": "Point", "coordinates": [ 129.3255, 35.492321, 30.0 ] } },
{ "type": "Feature", "properties": { "value": 23.444 }, "geometry": { "type": "Point", "coordinates": [ 129.326599, 35.492317, 30.0 ] } },
{ "type": "Feature", "properties": { "value": 41.969 }, "geometry": { "type": "Point", "coordinates": [ 129.327698, 35.492317, 30.0 ] } },
{ "type": "Feature", "properties": { "value": 37.447 }, "geometry": { "type": "Point", "coordinates": [ 129.328796, 35.492313, 30.0 ] } },
{ "type": "Feature", "properties": { "value": 17.537 }, "geometry": { "type": "Point", "coordinates": [ 129.32991, 35.49231, 30.0 ] } },
{ "type": "Feature", "properties": { "value": 4.4011 }, "geometry": { "type": "Point", "coordinates": [ 129.331009, 35.492306, 30.0 ] } },
{ "type": "Feature", "properties": { "value": 0.4366 }, "geometry": { "type": "Point", "coordinates": [ 129.332108, 35.492306, 30.0 ] } },
{ "type": "Feature", "properties": { "value": 1.0313 }, "geometry": { "type": "Point", "coordinates": [ 129.324402, 35.493225, 30.0 ] } },
{ "type": "Feature", "properties": { "value": 6.1838 }, "geometry": { "type": "Point", "coordinates": [ 129.3255, 35.493225, 30.0 ] } },
{ "type": "Feature", "properties": { "value": 19.886 }, "geometry": { "type": "Point", "coordinates": [ 129.326599, 35.493221, 30.0 ] } },
{ "type": "Feature", "properties": { "value": 34.547 }, "geometry": { "type": "Point", "coordinates": [ 129.327698, 35.493217, 30.0 ] } },
{ "type": "Feature", "properties": { "value": 30.749 }, "geometry": { "type": "Point", "coordinates": [ 129.328812, 35.493214, 30.0 ] } },
{ "type": "Feature", "properties": { "value": 14.201 }, "geometry": { "type": "Point", "coordinates": [ 129.32991, 35.49321, 30.0 ] } },
{ "type": "Feature", "properties": { "value": 3.4503 }, "geometry": { "type": "Point", "coordinates": [ 129.331009, 35.49321, 30.0 ] } },
{ "type": "Feature", "properties": { "value": 0.3247 }, "geometry": { "type": "Point", "coordinates": [ 129.332108, 35.493206, 30.0 ] } },
{ "type": "Feature", "properties": { "value": 0.7458 }, "geometry": { "type": "Point", "coordinates": [ 129.324402, 35.494129, 30.0 ] } },
{ "type": "Feature", "properties": { "value": 4.2994 }, "geometry": { "type": "Point", "coordinates": [ 129.3255, 35.494125, 30.0 ] } },
{ "type": "Feature", "properties": { "value": 12.98 }, "geometry": { "type": "Point", "coordinates": [ 129.326599, 35.494122, 30.0 ] } },
{ "type": "Feature", "properties": { "value": 21.569 }, "geometry": { "type": "Point", "coordinates": [ 129.327713, 35.494118, 30.0 ] } },
{ "type": "Feature", "properties": { "value": 19.047 }, "geometry": { "type": "Point", "coordinates": [ 129.328812, 35.494114, 30.0 ] } },
{ "type": "Feature", "properties": { "value": 8.7629 }, "geometry": { "type": "Point", "coordinates": [ 129.32991, 35.494114, 30.0 ] } },
{ "type": "Feature", "properties": { "value": 2.0649 }, "geometry": { "type": "Point", "coordinates": [ 129.331009, 35.49411, 30.0 ] } },
{ "type": "Feature", "properties": { "value": 0.1442 }, "geometry": { "type": "Point", "coordinates": [ 129.332108, 35.494106, 30.0 ] } },
{ "type": "Feature", "properties": { "value": 0.3017 }, "geometry": { "type": "Point", "coordinates": [ 129.324402, 35.495029, 30.0 ] } },
{ "type": "Feature", "properties": { "value": 1.8882 }, "geometry": { "type": "Point", "coordinates": [ 129.3255, 35.495026, 30.0 ] } },
{ "type": "Feature", "properties": { "value": 5.5476 }, "geometry": { "type": "Point", "coordinates": [ 129.326614, 35.495022, 30.0 ] } },
{ "type": "Feature", "properties": { "value": 8.9048 }, "geometry": { "type": "Point", "coordinates": [ 129.327713, 35.495022, 30.0 ] } },
{ "type": "Feature", "properties": { "value": 7.708 }, "geometry": { "type": "Point", "coordinates": [ 129.328812, 35.495018, 30.0 ] } },
{ "type": "Feature", "properties": { "value": 3.5127 }, "geometry": { "type": "Point", "coordinates": [ 129.32991, 35.495014, 30.0 ] } },
{ "type": "Feature", "properties": { "value": 0.8008 }, "geometry": { "type": "Point", "coordinates": [ 129.331009, 35.49501, 30.0 ] } },
{ "type": "Feature", "properties": { "value": 0.0407 }, "geometry": { "type": "Point", "coordinates": [ 129.324402, 35.49593, 30.0 ] } },
{ "type": "Feature", "properties": { "value": 0.4694 }, "geometry": { "type": "Point", "coordinates": [ 129.325516, 35.495926, 30.0 ] } },
{ "type": "Feature", "properties": { "value": 1.4104 }, "geometry": { "type": "Point", "coordinates": [ 129.326614, 35.495926, 30.0 ] } },
{ "type": "Feature", "properties": { "value": 2.2355 }, "geometry": { "type": "Point", "coordinates": [ 129.327713, 35.495922, 30.0 ] } },
{ "type": "Feature", "properties": { "value": 1.8931 }, "geometry": { "type": "Point", "coordinates": [ 129.328812, 35.495918, 30.0 ] } },
{ "type": "Feature", "properties": { "value": 0.8366 }, "geometry": { "type": "Point", "coordinates": [ 129.329926, 35.495914, 30.0 ] } },
{ "type": "Feature", "properties": { "value": 0.1584 }, "geometry": { "type": "Point", "coordinates": [ 129.331024, 35.495911, 30.0 ] } },
{ "type": "Feature", "properties": { "value": 0.0407 }, "geometry": { "type": "Point", "coordinates": [ 129.325516, 35.49683, 30.0 ] } },
{ "type": "Feature", "properties": { "value": 0.1816 }, "geometry": { "type": "Point", "coordinates": [ 129.326614, 35.496826, 30.0 ] } },
{ "type": "Feature", "properties": { "value": 0.3066 }, "geometry": { "type": "Point", "coordinates": [ 129.327713, 35.496822, 30.0 ] } },
{ "type": "Feature", "properties": { "value": 0.2592 }, "geometry": { "type": "Point", "coordinates": [ 129.328827, 35.496819, 30.0 ] } },
{ "type": "Feature", "properties": { "value": 0.0911 }, "geometry": { "type": "Point", "coordinates": [ 129.329926, 35.496815, 30.0 ] } }
]
}
