{
"type": "FeatureCollection",
"features": [
{ "type": "Feature", "properties": { "value": 0.0 }, "geometry": { "type": "Point", "coordinates": [ 129.327606, 35.468884, 225.0 ] } },
{ "type": "Feature", "properties": { "value": 0.0 }, "geometry": { "type": "Point", "coordinates": [ 129.328705, 35.46888, 225.0 ] } },
{ "type": "Feature", "properties": { "value": 0.0 }, "geometry": { "type": "Point", "coordinates": [ 129.327606, 35.469784, 225.0 ] } },
{ "type": "Feature", "properties": { "value": 0.0 }, "geometry": { "type": "Point", "coordinates": [ 129.328705, 35.46978, 225.0 ] } },
{ "type": "Feature", "properties": { "value": 0.0 }, "geometry": { "type": "Point", "coordinates": [ 129.326508, 35.470688, 225.0 ] } },
{ "type": "Feature", "properties": { "value": 0.0 }, "geometry": { "type": "Point", "coordinates": [ 129.327606, 35.470684, 225.0 ] } },
{ "type": "Feature", "properties": { "value": 0.0 }, "geometry": { "type": "Point", "coordinates": [ 129.32872, 35.470684, 225.0 ] } },
{ "type": "Feature", "properties": { "value": 0.0 }, "geometry": { "type": "Point", "coordinates": [ 129.327621, 35.471588, 225.0 ] } },
{ "type": "Feature", "properties": { "value": 0.0 }, "geometry": { "type": "Point", "coordinates": [ 129.326523, 35.472492, 225.0 ] } },
{ "type": "Feature", "properties": { "value": 0.0 }, "geometry": { "type": "Point", "coordinates": [ 129.327621, 35.472488, 225.0 ] } },
{ "type": "Feature", "properties": { "value": 0.0 }, "geometry": { "type": "Point", "coordinates": [ 129.32872, 35.472485, 225.0 ] } },
{ "type": "Feature", "properties": { "value": 0.0 }, "geometry": { "type": "Point", "coordinates": [ 129.326523, 35.473392, 225.0 ] } },
{ "type": "Feature", "properties": { "value": 0.0 }, "geometry": { "type": "Point", "coordinates": [ 129.327621, 35.473389, 225.0 ] } },
{ "type": "Feature", "properties": { "value": 0.0 }, "geometry": { "type": "Point", "coordinates": [ 129.32872, 35.473385, 225.0 ] } },
{ "type": "Feature", "properties": { "value": 0.0 }, "geometry": { "type": "Point", "coordinates": [ 129.329819, 35.473385, 225.0 ] } },
{ "type": "Feature", "properties": { "value": 0.0 }, "geometry": { "type": "Point", "coordinates": [ 129.326523, 35.474293, 225.0 ] } },
{ "type": "Feature", "properties": { "value": 0.0 }, "geometry": { "type": "Point", "coordinates": [ 129.327621, 35.474289, 225.0 ] } },
{ "type": "Feature", "properties": { "value": 0.0 }, "geometry": { "type": "Point", "coordinates": [ 129.328735, 35.474289, 225.0 ] } },
{ "type": "Feature", "properties": { "value": 0.0 }, "geometry": { "type": "Point", "coordinates": [ 129.329834, 35.474285, 225.0 ] } },
{ "type": "Feature", "properties": { "value": 0.0 }, "geometry": { "type": "Point", "coordinates": [ 129.325424, 35.475197, 225.0 ] } },
{ "type": "Feature", "properties": { "value": 0.0 }, "geometry": { "type": "Point", "coordinates": [ 129.326523, 35.475193, 225.0 ] } },
{ "type": "Feature", "properties": { "value": 0.0 }, "geometry": { "type": "Point", "coordinates": [ 129.327637, 35.475193, 225.0 ] } },
{ "type": "Feature", "properties": { "value": 0.0 }, "geometry": { "type": "Point", "coordinates": [ 129.328735, 35.475189, 225.0 ] } },
{ "type": "Feature", "properties": { "value": 0.0 }, "geometry": { "type": "Point", "coordinates": [ 129.329834, 35.475185, 225.0 ] } },
{ "type": "Feature", "properties": { "value": 0.0 }, "geometry": { "type": "Point", "coordinates": [ 129.325424, 35.476097, 225.0 ] } },
{ "type": "Feature", "properties": { "value": 0.0001 }, "geometry": { "type": "Point", "coordinates": [ 129.326538, 35.476097, 225.0 ] } },
{ "type": "Feature", "properties": { "value": 0.0002 }, "geometry": { "type": "Point", "coordinates": [ 129.327637, 35.476093, 225.0 ] } },
{ "type": "Feature", "properties": { "value": 0.0002 }, "geometry": { "type": "Point", "coordinates": [ 129.328735, 35.476089, 225.0 ] } },
{ "type": "Feature", "properties": { "value": 0.0001 }, "geometry": { "type": "Point", "coordinates": [ 129.329834, 35.476086, 225.0 ] } },
{ "type": "Feature", "properties": { "value": 0.0 }, "geometry": { "type": "Point", "coordinates": [ 129.325439, 35.477001, 225.0 ] } },
{ "type": "Feature", "properties": { "value": 0.0004 }, "geometry": { "type": "Point", "coordinates": [ 129.326538, 35.476997, 225.0 ] } },
{ "type": "Feature", "properties": { "value": 0.0024 }, "geometry": { "type": "Point", "coordinates": [ 129.327637, 35.476994, 225.0 ] } },
{ "type": "Feature", "properties": { "value": 0.0017 }, "geometry": { "type": "Point", "coordinates": [ 129.328735, 35.47699, 225.0 ] } },
{ "type": "Feature", "properties": { "value": 0.0004 }, "geometry": { "type": "Point", "coordinates": [ 129.329834, 35.47699, 225.0 ] } },
{ "type": "Feature", "properties": { "value": 0.0002 }, "geometry": { "type": "Point", "coordinates": [ 129.325439, 35.477901, 225.0 ] } },
{ "type": "Feature", "properties": { "value": 0.0041 }, "geometry": { "type": "Point", "coordinates": [ 129.326538, 35.477898, 225.0 ] } },
{ "type": "Feature", "properties": { "value": 0.0177 }, "geometry": { "type": "Point", "coordinates": [ 129.327637, 35.477894, 225.0 ] } },
{ "type": "Feature", "properties": { "value": 0.0103 }, "geometry": { "type": "Point", "coordinates": [ 129.328735, 35.477894, 225.0 ] } },
{ "type": "Feature", "properties": { "value": 0.0014 }, "geometry": { "type": "Point", "coordinates": [ 129.329849, 35.47789, 225.0 ] } },
{ "type": "Feature", "properties": { "value": 0.0021 }, "geometry": { "type": "Point", "coordinates": [ 129.325439, 35.478802, 225.0 ] } },
{ "type": "Feature", "properties": { "value": 0.021 }, "geometry": { "type": "Point", "coordinates": [ 129.326538, 35.478798, 225.0 ] } },
{ "type": "Feature", "properties": { "value": 0.0521 }, "geometry": { "type": "Point", "coordinates": [ 129.327637, 35.478798, 225.0 ] } },
{ "type": "Feature", "properties": { "value": 0.0258 }, "geometry": { "type": "Point", "coordinates": [ 129.328751, 35.478794, 225.0 ] } },
{ "type": "Feature", "properties": { "value": 0.0029 }, "geometry": { "type": "Point", "coordinates": [ 129.329849, 35.47879, 225.0 ] } },
{ "type": "Feature", "properties": { "value": 0.0065 }, "geometry": { "type": "Point", "coordinates": [ 129.325439, 35.479706, 225.0 ] } },
{ "type": "Feature", "properties": { "value": 0.0349 }, "geometry": { "type": "Point", "coordinates": [ 129.326553, 35.479702, 225.0 ] } },
{ "type": "Feature", "properties": { "value": 0.0509 }, "geometry": { "type": "Point", "coordinates": [ 129.327652, 35.479698, 225.0 ] } },
{ "type": "Feature", "properties": { "value": 0.0252 }, "geometry": { "type": "Point", "coordinates": [ 129.328751, 35.479694, 225.0 ] } },
{ "type": "Feature", "properties": { "value": 0.0034 }, "geometry": { "type": "Point", "coordinates": [ 129.329849, 35.479691, 225.0 ] } },
{ "type": "Feature", "properties": { "value": 0.0004 }, "geometry": { "type": "Point", "coordinates": [ 129.324341, 35.48061, 225.0 ] } },
{ "type": "Feature", "properties": { "value": 0.0066 }, "geometry": { "type": "Point", "coordinates": [ 129.325455, 35.480606, 225.0 ] } },
{ "type": "Feature", "properties": { "value": 0.0215 }, "geometry": { "type": "Point", "coordinates": [ 129.326553, 35.480602, 225.0 ] } },
{ "type": "Feature", "properties": { "value": 0.0255 }, "geometry": { "type": "Point", "coordinates": [ 129.327652, 35.480598, 225.0 ] } },
{ "type": "Feature", "properties": { "value": 0.0151 }, "geometry": { "type": "Point", "coordinates": [ 129.328751, 35.480595, 225.0 ] } },
{ "type": "Feature", "properties": { "value": 0.0027 }, "geometry": { "type": "Point", "coordinates": [ 129.329849, 35.480595, 225.0 ] } },
{ "type": "Feature", "properties": { "value": 0.0005 }, "geometry": { "type": "Point", "coordinates": [ 129.324356, 35.48151, 225.0 ] } },
{ "type": "Feature", "properties": { "value": 0.0038 }, "geometry": { "type": "Point", "coordinates": [ 129.325455, 35.481506, 225.0 ] } },
{ "type": "Feature", "properties": { "value": 0.0126 }, "geometry": { "type": "Point", "coordinates": [ 129.326553, 35.481503, 225.0 ] } },
{ "type": "Feature", "properties": { "value": 0.0198 }, "geometry": { "type": "Point", "coordinates": [ 129.327652, 35.481503, 225.0 ] } },
{ "type": "Feature", "properties": { "value": 0.0132 }, "geometry": { "type": "Point", "coordinates": [ 129.328751, 35.481499, 225.0 ] } },
{ "type": "Feature", "properties": { "value": 0.0022 }, "geometry": { "type": "Point", "coordinates": [ 129.329865, 35.481495, 225.0 ] } },
{ "type": "Feature", "properties": { "value": 0.0005 }, "geometry": { "type": "Point", "coordinates": [ 129.324356, 35.48241, 225.0 ] } },
{ "type": "Feature", "properties": { "value": 0.0035 }, "geometry": { "type": "Point", "coordinates": [ 129.325455, 35.482407, 225.0 ] } },
{ "type": "Feature", "properties": { "value": 0.0147 }, "geometry": { "type": "Point", "coordinates": [ 129.326553, 35.482407, 225.0 ] } },
{ "type": "Feature", "properties": { "value": 0.0271 }, "geometry": { "type": "Point", "coordinates": [ 129.327652, 35.482403, 225.0 ] } },
{ "type": "Feature", "properties": { "value": 0.0151 }, "geometry": { "type": "Point", "coordinates": [ 129.328766, 35.482399, 225.0 ] } },
{ "type": "Feature", "properties": { "value": 0.0017 }, "geometry": { "type": "Point", "coordinates": [ 129.329865, 35.482395, 225.0 ] } },
{ "type": "Feature", "properties": { "value": 0.0 }, "geometry": { "type": "Point", "coordinates": [ 129.323257, 35.483315, 225.0 ] } },
{ "type": "Feature", "properties": { "value": 0.0009 }, "geometry": { "type": "Point", "coordinates": [ 129.324356, 35.483311, 225.0 ] } },
{ "type": "Feature", "properties": { "value": 0.006 }, "geometry": { "type": "Point", "coordinates": [ 129.325455, 35.483311, 225.0 ] } },
{ "type": "Feature", "properties": { "value": 0.0229 }, "geometry": { "type": "Point", "coordinates": [ 129.326553, 35.483307, 225.0 ] } },
{ "type": "Feature", "properties": { "value": 0.0294 }, "geometry": { "type": "Point", "coordinates": [ 129.327667, 35.483303, 225.0 ] } },
{ "type": "Feature", "properties": { "value": 0.0112 }, "geometry": { "type": "Point", "coordinates": [ 129.328766, 35.483299, 225.0 ] } },
{ "type": "Feature", "properties": { "value": 0.0011 }, "geometry": { "type": "Point", "coordinates": [ 129.329865, 35.483295, 225.0 ] } },
{ "type": "Feature", "properties": { "value": 0.0003 }, "geometry": { "type": "Point", "coordinates": [ 129.323257, 35.484215, 225.0 ] } },
{ "type": "Feature", "properties": { "value": 0.0026 }, "geometry": { "type": "Point", "coordinates": [ 129.324356, 35.484215, 225.0 ] } },
{ "type": "Feature", "properties": { "value": 0.0124 }, "geometry": { "type": "Point", "coordinates": [ 129.325455, 35.484211, 225.0 ] } },
{ "type": "Feature", "properties": { "value": 0.0306 }, "geometry": { "type": "Point", "coordinates": [ 129.326569, 35.484207, 225.0 ] } },
{ "type": "Feature", "properties": { "value": 0.0232 }, "geometry": { "type": "Point", "coordinates": [ 129.327667, 35.484203, 225.0 ] } },
{ "type": "Feature", "properties": { "value": 0.0069 }, "geometry": { "type": "Point", "coordinates": [ 129.328766, 35.484203, 225.0 ] } },
{ "type": "Feature", "properties": { "value": 0.0002 }, "geometry": { "type": "Point", "coordinates": [ 129.329865, 35.4842, 225.0 ] } },
{ "type": "Feature", "properties": { "value": 0.0015 }, "geometry": { "type": "Point", "coordinates": [ 129.323257, 35.485119, 225.0 ] } },
{ "type": "Feature", "properties": { "value": 0.0084 }, "geometry": { "type": "Point", "coordinates": [ 129.324371, 35.485115, 225.0 ] } },
{ "type": "Feature", "properties": { "value": 0.0279 }, "geometry": { "type": "Point", "coordinates": [ 129.32547, 35.485111, 225.0 ] } },
{ "type": "Feature", "properties": { "value": 0.0455 }, "geometry": { "type": "Point", "coordinates": [ 129.326569, 35.485107, 225.0 ] } },
{ "type": "Feature", "properties": { "value": 0.0257 }, "geometry": { "type": "Point", "coordinates": [ 129.327667, 35.485107, 225.0 ] } },
{ "type": "Feature", "properties": { "value": 0.0071 }, "geometry": { "type": "Point", "coordinates": [ 129.328766, 35.485104, 225.0 ] } },
{ "type": "Feature", "properties": { "value": 0.0006 }, "geometry": { "type": "Point", "coordinates": [ 129.322159, 35.486023, 225.0 ] } },
{ "type": "Feature", "properties": { "value": 0.0063 }, "geometry": { "type": "Point", "coordinates": [ 129.323273, 35.486019, 225.0 ] } },
{ "type": "Feature", "properties": { "value": 0.0339 }, "geometry": { "type": "Point", "coordinates": [ 129.324371, 35.486015, 225.0 ] } },
{ "type": "Feature", "properties": { "value": 0.0811 }, "geometry": { "type": "Point", "coordinates": [ 129.32547, 35.486012, 225.0 ] } },
{ "type": "Feature", "properties": { "value": 0.0878 }, "geometry": { "type": "Point", "coordinates": [ 129.326569, 35.486012, 225.0 ] } },
{ "type": "Feature", "properties": { "value": 0.0411 }, "geometry": { "type": "Point", "coordinates": [ 129.327667, 35.486008, 225.0 ] } },
{ "type": "Feature", "properties": { "value": 0.0095 }, "geometry": { "type": "Point", "coordinates": [ 129.328781, 35.486004, 225.0 ] } },
{ "type": "Feature", "properties": { "value": 0.0073 }, "geometry": { "type": "Point", "coordinates": [ 129.322174, 35.486923, 225.0 ] } },
{ "type": "Feature", "properties": { "value": 0.0246 }, "geometry": { "type": "Point", "coordinates": [ 129.323273, 35.486919, 225.0 ] } },
{ "type": "Feature", "properties": { "value": 0.1186 }, "geometry": { "type": "Point", "coordinates": [ 129.324371, 35.486916, 225.0 ] } },
{ "type": "Feature", "properties": { "value": 0.2239 }, "geometry": { "type": "Point", "coordinates": [ 129.32547, 35.486916, 225.0 ] } },
{ "type": "Feature", "properties": { "value": 0.1665 }, "geometry": { "type": "Point", "coordinates": [ 129.326569, 35.486912, 225.0 ] } },
{ "type": "Feature", "properties": { "value": 0.0585 }, "geometry": { "type": "Point", "coordinates": [ 129.327682, 35.486908, 225.0 ] } },
{ "type": "Feature", "properties": { "value": 0.0097 }, "geometry": { "type": "Point", "coordinates": [ 129.328781, 35.486904, 225.0 ] } },
{ "type": "Feature", "properties": { "value": 0.0255 }, "geometry": { "type": "Point", "coordinates": [ 129.322174, 35.487823, 225.0 ] } },
{ "type": "Feature", "properties": { "value": 0.067 }, "geometry": { "type": "Point", "coordinates": [ 129.323273, 35.48782, 225.0 ] } },
{ "type": "Feature", "properties": { "value": 0.2582 }, "geometry": { "type": "Point", "coordinates": [ 129.324371, 35.48782, 225.0 ] } },
{ "type": "Feature", "properties": { "value": 0.3779 }, "geometry": { "type": "Point", "coordinates": [ 129.32547, 35.487816, 225.0 ] } },
{ "type": "Feature", "properties": { "value": 0.221 }, "geometry": { "type": "Point", "coordinates": [ 129.326584, 35.487812, 225.0 ] } },
{ "type": "Feature", "properties": { "value": 0.0634 }, "geometry": { "type": "Point", "coordinates": [ 129.327682, 35.487808, 225.0 ] } },
{ "type": "Feature", "properties": { "value": 0.0078 }, "geometry": { "type": "Point", "coordinates": [ 129.328781, 35.487808, 225.0 ] } },
{ "type": "Feature", "properties": { "value": 0.003 }, "geometry": { "type": "Point", "coordinates": [ 129.321075, 35.488728, 225.0 ] } },
{ "type": "Feature", "properties": { "value": 0.0152 }, "geometry": { "type": "Point", "coordinates": [ 129.322174, 35.488728, 225.0 ] } },
{ "type": "Feature", "properties": { "value": 0.0906 }, "geometry": { "type": "Point", "coordinates": [ 129.323273, 35.488724, 225.0 ] } },
{ "type": "Feature", "properties": { "value": 0.2655 }, "geometry": { "type": "Point", "coordinates": [ 129.324371, 35.48872, 225.0 ] } },
{ "type": "Feature", "properties": { "value": 0.3224 }, "geometry": { "type": "Point", "coordinates": [ 129.325485, 35.488716, 225.0 ] } },
{ "type": "Feature", "properties": { "value": 0.1745 }, "geometry": { "type": "Point", "coordinates": [ 129.326584, 35.488712, 225.0 ] } },
{ "type": "Feature", "properties": { "value": 0.0479 }, "geometry": { "type": "Point", "coordinates": [ 129.327682, 35.488712, 225.0 ] } },
{ "type": "Feature", "properties": { "value": 0.0038 }, "geometry": { "type": "Point", "coordinates": [ 129.328781, 35.488708, 225.0 ] } },
{ "type": "Feature", "properties": { "value": 0.0026 }, "geometry": { "type": "Point", "coordinates": [ 129.321075, 35.489632, 225.0 ] } },
{ "type": "Feature", "properties": { "value": 0.0161 }, "geometry": { "type": "Point", "coordinates": [ 129.322174, 35.489628, 225.0 ] } },
{ "type": "Feature", "properties": { "value": 0.0578 }, "geometry": { "type": "Point", "coordinates": [ 129.323273, 35.489624, 225.0 ] } },
{ "type": "Feature", "properties": { "value": 0.122 }, "geometry": { "type": "Point", "coordinates": [ 129.324387, 35.48962, 225.0 ] } },
{ "type": "Feature", "properties": { "value": 0.1353 }, "geometry": { "type": "Point", "coordinates": [ 129.325485, 35.489616, 225.0 ] } },
{ "type": "Feature", "properties": { "value": 0.0804 }, "geometry": { "type": "Point", "coordinates": [ 129.326584, 35.489616, 225.0 ] } },
{ "type": "Feature", "properties": { "value": 0.0238 }, "geometry": { "type": "Point", "coordinates": [ 129.327682, 35.489613, 225.0 ] } },
{ "type": "Feature", "properties": { "value": 0.0018 }, "geometry": { "type": "Point", "coordinates": [ 129.321075, 35.490532, 225.0 ] } },
{ "type": "Feature", "properties": { "value": 0.011 }, "geometry": { "type": "Point", "coordinates": [ 129.322174, 35.490528, 225.0 ] } },
{ "type": "Feature", "properties": { "value": 0.0332 }, "geometry": { "type": "Point", "coordinates": [ 129.323288, 35.490524, 225.0 ] } },
{ "type": "Feature", "properties": { "value": 0.0512 }, "geometry": { "type": "Point", "coordinates": [ 129.324387, 35.490524, 225.0 ] } },
{ "type": "Feature", "properties": { "value": 0.0446 }, "geometry": { "type": "Point", "coordinates": [ 129.325485, 35.49052, 225.0 ] } },
{ "type": "Feature", "properties": { "value": 0.0261 }, "geometry": { "type": "Point", "coordinates": [ 129.326584, 35.490517, 225.0 ] } },
{ "type": "Feature", "properties": { "value": 0.0084 }, "geometry": { "type": "Point", "coordinates": [ 129.327698, 35.490513, 225.0 ] } },
{ "type": "Feature", "properties": { "value": 0.0007 }, "geometry": { "type": "Point", "coordinates": [ 129.321091, 35.491432, 225.0 ] } },
{ "type": "Feature", "properties": { "value": 0.0043 }, "geometry": { "type": "Point", "coordinates": [ 129.322189, 35.491428, 225.0 ] } },
{ "type": "Feature", "properties": { "value": 0.0124 }, "geometry": { "type": "Point", "coordinates": [ 129.323288, 35.491428, 225.0 ] } },
{ "type": "Feature", "properties": { "value": 0.0187 }, "geometry": { "type": "Point", "coordinates": [ 129.324387, 35.491425, 225.0 ] } },
{ "type": "Feature", "properties": { "value": 0.0173 }, "geometry": { "type": "Point", "coordinates": [ 129.325485, 35.491421, 225.0 ] } },
{ "type": "Feature", "properties": { "value": 0.0076 }, "geometry": { "type": "Point", "coordinates": [ 129.326599, 35.491417, 225.0 ] } },
{ "type": "Feature", "properties": { "value": 0.0016 }, "geometry": { "type": "Point", "coordinates": [ 129.327698, 35.491413, 225.0 ] } },
{ "type": "Feature", "properties": { "value": 0.0001 }, "geometry": { "type": "Point", "coordinates": [ 129.321091, 35.492332, 225.0 ] } },
{ "type": "Feature", "properties": { "value": 0.0009 }, "geometry": { "type": "Point", "coordinates": [ 129.322189, 35.492332, 225.0 ] } },
{ "type": "Feature", "properties": { "value": 0.0025 }, "geometry": { "type": "Point", "coordinates": [ 129.323288, 35.492329, 225.0 ] } },
{ "type": "Feature", "properties": { "value": 0.0053 }, "geometry": { "type": "Point", "coordinates": [ 129.324387, 35.492325, 225.0 ] } },
{ "type": "Feature", "properties": { "value": 0.0054 }, "geometry": { "type": "Point", "coordinates": [ 129.3255, 35.492321, 225.0 ] } },
{ "type": "Feature", "properties": { "value": 0.0017 }, "geometry": { "type": "Point", "coordinates": [ 129.326599, 35.492317, 225.0 ] } },
{ "type": "Feature", "properties": { "value": 0.0001 }, "geometry": { "type": "Point", "coordinates": [ 129.322189, 35.493233, 225.0 ] } },
{ "type": "Feature", "properties": { "value": 0.0002 }, "geometry": { "type": "Point", "coordinates": [ 129.323288, 35.493229, 225.0 ] } },
{ "type": "Feature", "properties": { "value": 0.0005 }, "geometry": { "type": "Point", "coordinates": [ 129.324402, 35.493225, 225.0 ] } },
{ "type": "Feature", "properties": { "value": 0.0004 }, "geometry": { "type": "Point", "coordinates": [ 129.3255, 35.493225, 225.0 ] } }
]
}
