{
"type": "FeatureCollection",
"features": [
{ "type": "Feature", "properties": { "value": 0.0 }, "geometry": { "type": "Point", "coordinates": [ 129.326462, 35.458069, 115.0 ] } },
{ "type": "Feature", "properties": { "value": 0.0 }, "geometry": { "type": "Point", "coordinates": [ 129.32756, 35.458069, 115.0 ] } },
{ "type": "Feature", "properties": { "value": 0.0055 }, "geometry": { "type": "Point", "coordinates": [ 129.326462, 35.458973, 115.0 ] } },
{ "type": "Feature", "properties": { "value": 0.0018 }, "geometry": { "type": "Point", "coordinates": [ 129.32756, 35.458969, 115.0 ] } },
{ "type": "Feature", "properties": { "value": 0.385 }, "geometry": { "type": "Point", "coordinates": [ 129.326462, 35.459873, 115.0 ] } },
{ "type": "Feature", "properties": { "value": 0.1313 }, "geometry": { "type": "Point", "coordinates": [ 129.32756, 35.459869, 115.0 ] } },
{ "type": "Feature", "properties": { "value": 0.3104 }, "geometry": { "type": "Point", "coordinates": [ 129.325363, 35.460777, 115.0 ] } },
{ "type": "Feature", "properties": { "value": 4.8135 }, "geometry": { "type": "Point", "coordinates": [ 129.326477, 35.460773, 115.0 ] } },
{ "type": "Feature", "properties": { "value": 1.7636 }, "geometry": { "type": "Point", "coordinates": [ 129.327576, 35.46077, 115.0 ] } },
{ "type": "Feature", "properties": { "value": 0.0301 }, "geometry": { "type": "Point", "coordinates": [ 129.324265, 35.461681, 115.0 ] } },
{ "type": "Feature", "properties": { "value": 2.1303 }, "geometry": { "type": "Point", "coordinates": [ 129.325378, 35.461678, 115.0 ] } },
{ "type": "Feature", "properties": { "value": 12.815 }, "geometry": { "type": "Point", "coordinates": [ 129.326477, 35.461674, 115.0 ] } },
{ "type": "Feature", "properties": { "value": 5.3247 }, "geometry": { "type": "Point", "coordinates": [ 129.327576, 35.461674, 115.0 ] } },
{ "type": "Feature", "properties": { "value": 0.4345 }, "geometry": { "type": "Point", "coordinates": [ 129.328674, 35.46167, 115.0 ] } },
{ "type": "Feature", "properties": { "value": 0.5603 }, "geometry": { "type": "Point", "coordinates": [ 129.32428, 35.462582, 115.0 ] } },
{ "type": "Feature", "properties": { "value": 5.44 }, "geometry": { "type": "Point", "coordinates": [ 129.325378, 35.462578, 115.0 ] } },
{ "type": "Feature", "properties": { "value": 17.39 }, "geometry": { "type": "Point", "coordinates": [ 129.326477, 35.462578, 115.0 ] } },
{ "type": "Feature", "properties": { "value": 8.6856 }, "geometry": { "type": "Point", "coordinates": [ 129.327576, 35.462574, 115.0 ] } },
{ "type": "Feature", "properties": { "value": 1.4577 }, "geometry": { "type": "Point", "coordinates": [ 129.328674, 35.46257, 115.0 ] } },
{ "type": "Feature", "properties": { "value": 0.1247 }, "geometry": { "type": "Point", "coordinates": [ 129.323181, 35.463486, 115.0 ] } },
{ "type": "Feature", "properties": { "value": 1.7555 }, "geometry": { "type": "Point", "coordinates": [ 129.32428, 35.463486, 115.0 ] } },
{ "type": "Feature", "properties": { "value": 8.8803 }, "geometry": { "type": "Point", "coordinates": [ 129.325378, 35.463482, 115.0 ] } },
{ "type": "Feature", "properties": { "value": 18.091 }, "geometry": { "type": "Point", "coordinates": [ 129.326477, 35.463478, 115.0 ] } },
{ "type": "Feature", "properties": { "value": 11.075 }, "geometry": { "type": "Point", "coordinates": [ 129.327576, 35.463474, 115.0 ] } },
{ "type": "Feature", "properties": { "value": 2.6982 }, "geometry": { "type": "Point", "coordinates": [ 129.32869, 35.46347, 115.0 ] } },
{ "type": "Feature", "properties": { "value": 0.1905 }, "geometry": { "type": "Point", "coordinates": [ 129.329788, 35.46347, 115.0 ] } },
{ "type": "Feature", "properties": { "value": 0.5619 }, "geometry": { "type": "Point", "coordinates": [ 129.323181, 35.46439, 115.0 ] } },
{ "type": "Feature", "properties": { "value": 3.4237 }, "geometry": { "type": "Point", "coordinates": [ 129.32428, 35.464386, 115.0 ] } },
{ "type": "Feature", "properties": { "value": 11.439 }, "geometry": { "type": "Point", "coordinates": [ 129.325378, 35.464382, 115.0 ] } },
{ "type": "Feature", "properties": { "value": 18.114 }, "geometry": { "type": "Point", "coordinates": [ 129.326477, 35.464378, 115.0 ] } },
{ "type": "Feature", "properties": { "value": 12.441 }, "geometry": { "type": "Point", "coordinates": [ 129.327591, 35.464375, 115.0 ] } },
{ "type": "Feature", "properties": { "value": 3.8663 }, "geometry": { "type": "Point", "coordinates": [ 129.32869, 35.464375, 115.0 ] } },
{ "type": "Feature", "properties": { "value": 0.6022 }, "geometry": { "type": "Point", "coordinates": [ 129.329788, 35.464371, 115.0 ] } },
{ "type": "Feature", "properties": { "value": 0.1138 }, "geometry": { "type": "Point", "coordinates": [ 129.322083, 35.465294, 115.0 ] } },
{ "type": "Feature", "properties": { "value": 1.1128 }, "geometry": { "type": "Point", "coordinates": [ 129.323181, 35.46529, 115.0 ] } },
{ "type": "Feature", "properties": { "value": 4.8732 }, "geometry": { "type": "Point", "coordinates": [ 129.32428, 35.465286, 115.0 ] } },
{ "type": "Feature", "properties": { "value": 12.764 }, "geometry": { "type": "Point", "coordinates": [ 129.325394, 35.465282, 115.0 ] } },
{ "type": "Feature", "properties": { "value": 17.921 }, "geometry": { "type": "Point", "coordinates": [ 129.326492, 35.465279, 115.0 ] } },
{ "type": "Feature", "properties": { "value": 12.81 }, "geometry": { "type": "Point", "coordinates": [ 129.327591, 35.465279, 115.0 ] } },
{ "type": "Feature", "properties": { "value": 4.8117 }, "geometry": { "type": "Point", "coordinates": [ 129.32869, 35.465275, 115.0 ] } },
{ "type": "Feature", "properties": { "value": 0.9918 }, "geometry": { "type": "Point", "coordinates": [ 129.329788, 35.465271, 115.0 ] } },
{ "type": "Feature", "properties": { "value": 0.0378 }, "geometry": { "type": "Point", "coordinates": [ 129.330887, 35.465267, 115.0 ] } },
{ "type": "Feature", "properties": { "value": 0.2657 }, "geometry": { "type": "Point", "coordinates": [ 129.322083, 35.466194, 115.0 ] } },
{ "type": "Feature", "properties": { "value": 1.5359 }, "geometry": { "type": "Point", "coordinates": [ 129.323181, 35.46619, 115.0 ] } },
{ "type": "Feature", "properties": { "value": 5.4983 }, "geometry": { "type": "Point", "coordinates": [ 129.324295, 35.466187, 115.0 ] } },
{ "type": "Feature", "properties": { "value": 12.243 }, "geometry": { "type": "Point", "coordinates": [ 129.325394, 35.466187, 115.0 ] } },
{ "type": "Feature", "properties": { "value": 15.946 }, "geometry": { "type": "Point", "coordinates": [ 129.326492, 35.466183, 115.0 ] } },
{ "type": "Feature", "properties": { "value": 11.689 }, "geometry": { "type": "Point", "coordinates": [ 129.327591, 35.466179, 115.0 ] } },
{ "type": "Feature", "properties": { "value": 4.9813 }, "geometry": { "type": "Point", "coordinates": [ 129.32869, 35.466175, 115.0 ] } },
{ "type": "Feature", "properties": { "value": 1.2411 }, "geometry": { "type": "Point", "coordinates": [ 129.329803, 35.466171, 115.0 ] } },
{ "type": "Feature", "properties": { "value": 0.1445 }, "geometry": { "type": "Point", "coordinates": [ 129.330902, 35.466171, 115.0 ] } },
{ "type": "Feature", "properties": { "value": 0.3158 }, "geometry": { "type": "Point", "coordinates": [ 129.322083, 35.467094, 115.0 ] } },
{ "type": "Feature", "properties": { "value": 1.5933 }, "geometry": { "type": "Point", "coordinates": [ 129.323196, 35.467091, 115.0 ] } },
{ "type": "Feature", "properties": { "value": 4.9466 }, "geometry": { "type": "Point", "coordinates": [ 129.324295, 35.467091, 115.0 ] } },
{ "type": "Feature", "properties": { "value": 9.836 }, "geometry": { "type": "Point", "coordinates": [ 129.325394, 35.467087, 115.0 ] } },
{ "type": "Feature", "properties": { "value": 12.156 }, "geometry": { "type": "Point", "coordinates": [ 129.326492, 35.467083, 115.0 ] } },
{ "type": "Feature", "properties": { "value": 9.1147 }, "geometry": { "type": "Point", "coordinates": [ 129.327591, 35.467079, 115.0 ] } },
{ "type": "Feature", "properties": { "value": 4.2029 }, "geometry": { "type": "Point", "coordinates": [ 129.328705, 35.467075, 115.0 ] } },
{ "type": "Feature", "properties": { "value": 1.195 }, "geometry": { "type": "Point", "coordinates": [ 129.329803, 35.467075, 115.0 ] } },
{ "type": "Feature", "properties": { "value": 0.1918 }, "geometry": { "type": "Point", "coordinates": [ 129.330902, 35.467072, 115.0 ] } },
{ "type": "Feature", "properties": { "value": 0.0158 }, "geometry": { "type": "Point", "coordinates": [ 129.320984, 35.467999, 115.0 ] } },
{ "type": "Feature", "properties": { "value": 0.2919 }, "geometry": { "type": "Point", "coordinates": [ 129.322098, 35.467995, 115.0 ] } },
{ "type": "Feature", "properties": { "value": 1.2313 }, "geometry": { "type": "Point", "coordinates": [ 129.323196, 35.467995, 115.0 ] } },
{ "type": "Feature", "properties": { "value": 3.4663 }, "geometry": { "type": "Point", "coordinates": [ 129.324295, 35.467991, 115.0 ] } },
{ "type": "Feature", "properties": { "value": 6.3867 }, "geometry": { "type": "Point", "coordinates": [ 129.325394, 35.467987, 115.0 ] } },
{ "type": "Feature", "properties": { "value": 7.6236 }, "geometry": { "type": "Point", "coordinates": [ 129.326492, 35.467983, 115.0 ] } },
{ "type": "Feature", "properties": { "value": 5.8243 }, "geometry": { "type": "Point", "coordinates": [ 129.327606, 35.467983, 115.0 ] } },
{ "type": "Feature", "properties": { "value": 2.8412 }, "geometry": { "type": "Point", "coordinates": [ 129.328705, 35.467979, 115.0 ] } },
{ "type": "Feature", "properties": { "value": 0.8892 }, "geometry": { "type": "Point", "coordinates": [ 129.329803, 35.467976, 115.0 ] } },
{ "type": "Feature", "properties": { "value": 0.1556 }, "geometry": { "type": "Point", "coordinates": [ 129.330902, 35.467972, 115.0 ] } },
{ "type": "Feature", "properties": { "value": 0.013 }, "geometry": { "type": "Point", "coordinates": [ 129.320999, 35.468899, 115.0 ] } },
{ "type": "Feature", "properties": { "value": 0.1717 }, "geometry": { "type": "Point", "coordinates": [ 129.322098, 35.468899, 115.0 ] } },
{ "type": "Feature", "properties": { "value": 0.7004 }, "geometry": { "type": "Point", "coordinates": [ 129.323196, 35.468895, 115.0 ] } },
{ "type": "Feature", "properties": { "value": 1.879 }, "geometry": { "type": "Point", "coordinates": [ 129.324295, 35.468891, 115.0 ] } },
{ "type": "Feature", "properties": { "value": 3.3163 }, "geometry": { "type": "Point", "coordinates": [ 129.325394, 35.468887, 115.0 ] } },
{ "type": "Feature", "properties": { "value": 3.8823 }, "geometry": { "type": "Point", "coordinates": [ 129.326508, 35.468887, 115.0 ] } },
{ "type": "Feature", "properties": { "value": 2.9705 }, "geometry": { "type": "Point", "coordinates": [ 129.327606, 35.468884, 115.0 ] } },
{ "type": "Feature", "properties": { "value": 1.4985 }, "geometry": { "type": "Point", "coordinates": [ 129.328705, 35.46888, 115.0 ] } },
{ "type": "Feature", "properties": { "value": 0.4923 }, "geometry": { "type": "Point", "coordinates": [ 129.329803, 35.468876, 115.0 ] } },
{ "type": "Feature", "properties": { "value": 0.0942 }, "geometry": { "type": "Point", "coordinates": [ 129.330902, 35.468872, 115.0 ] } },
{ "type": "Feature", "properties": { "value": 0.0692 }, "geometry": { "type": "Point", "coordinates": [ 129.322098, 35.469799, 115.0 ] } },
{ "type": "Feature", "properties": { "value": 0.2923 }, "geometry": { "type": "Point", "coordinates": [ 129.323196, 35.469795, 115.0 ] } },
{ "type": "Feature", "properties": { "value": 0.7695 }, "geometry": { "type": "Point", "coordinates": [ 129.324295, 35.469791, 115.0 ] } },
{ "type": "Feature", "properties": { "value": 1.3162 }, "geometry": { "type": "Point", "coordinates": [ 129.325409, 35.469791, 115.0 ] } },
{ "type": "Feature", "properties": { "value": 1.524 }, "geometry": { "type": "Point", "coordinates": [ 129.326508, 35.469788, 115.0 ] } },
{ "type": "Feature", "properties": { "value": 1.166 }, "geometry": { "type": "Point", "coordinates": [ 129.327606, 35.469784, 115.0 ] } },
{ "type": "Feature", "properties": { "value": 0.602 }, "geometry": { "type": "Point", "coordinates": [ 129.328705, 35.46978, 115.0 ] } },
{ "type": "Feature", "properties": { "value": 0.1997 }, "geometry": { "type": "Point", "coordinates": [ 129.329819, 35.469776, 115.0 ] } },
{ "type": "Feature", "properties": { "value": 0.0312 }, "geometry": { "type": "Point", "coordinates": [ 129.330917, 35.469776, 115.0 ] } },
{ "type": "Feature", "properties": { "value": 0.0144 }, "geometry": { "type": "Point", "coordinates": [ 129.322098, 35.470699, 115.0 ] } },
{ "type": "Feature", "properties": { "value": 0.0853 }, "geometry": { "type": "Point", "coordinates": [ 129.323212, 35.470695, 115.0 ] } },
{ "type": "Feature", "properties": { "value": 0.2328 }, "geometry": { "type": "Point", "coordinates": [ 129.32431, 35.470695, 115.0 ] } },
{ "type": "Feature", "properties": { "value": 0.3902 }, "geometry": { "type": "Point", "coordinates": [ 129.325409, 35.470692, 115.0 ] } },
{ "type": "Feature", "properties": { "value": 0.4442 }, "geometry": { "type": "Point", "coordinates": [ 129.326508, 35.470688, 115.0 ] } },
{ "type": "Feature", "properties": { "value": 0.3428 }, "geometry": { "type": "Point", "coordinates": [ 129.327606, 35.470684, 115.0 ] } },
{ "type": "Feature", "properties": { "value": 0.1793 }, "geometry": { "type": "Point", "coordinates": [ 129.32872, 35.470684, 115.0 ] } },
{ "type": "Feature", "properties": { "value": 0.0568 }, "geometry": { "type": "Point", "coordinates": [ 129.329819, 35.47068, 115.0 ] } },
{ "type": "Feature", "properties": { "value": 0.0134 }, "geometry": { "type": "Point", "coordinates": [ 129.323212, 35.4716, 115.0 ] } },
{ "type": "Feature", "properties": { "value": 0.0499 }, "geometry": { "type": "Point", "coordinates": [ 129.32431, 35.471596, 115.0 ] } },
{ "type": "Feature", "properties": { "value": 0.0821 }, "geometry": { "type": "Point", "coordinates": [ 129.325409, 35.471592, 115.0 ] } },
{ "type": "Feature", "properties": { "value": 0.0927 }, "geometry": { "type": "Point", "coordinates": [ 129.326508, 35.471588, 115.0 ] } },
{ "type": "Feature", "properties": { "value": 0.0716 }, "geometry": { "type": "Point", "coordinates": [ 129.327621, 35.471588, 115.0 ] } },
{ "type": "Feature", "properties": { "value": 0.0233 }, "geometry": { "type": "Point", "coordinates": [ 129.32872, 35.471584, 115.0 ] } },
{ "type": "Feature", "properties": { "value": 0.0087 }, "geometry": { "type": "Point", "coordinates": [ 129.329819, 35.471581, 115.0 ] } },
{ "type": "Feature", "properties": { "value": 0.0097 }, "geometry": { "type": "Point", "coordinates": [ 129.325409, 35.472492, 115.0 ] } },
{ "type": "Feature", "properties": { "value": 0.0108 }, "geometry": { "type": "Point", "coordinates": [ 129.326523, 35.472492, 115.0 ] } },
{ "type": "Feature", "properties": { "value": 0.0084 }, "geometry": { "type": "Point", "coordinates": [ 129.327621, 35.472488, 115.0 ] } }
]
}
