{
"type": "FeatureCollection",
"features": [
{ "type": "Feature", "properties": { "value": 0.0 }, "geometry": { "type": "Point", "coordinates": [ 129.294449, 35.439224, 30.0 ] } },
{ "type": "Feature", "properties": { "value": 0.0109 }, "geometry": { "type": "Point", "coordinates": [ 129.295547, 35.439224, 30.0 ] } },
{ "type": "Feature", "properties": { "value": 0.0001 }, "geometry": { "type": "Point", "coordinates": [ 129.296646, 35.43922, 30.0 ] } },
{ "type": "Feature", "properties": { "value": 0.0 }, "geometry": { "type": "Point", "coordinates": [ 129.292252, 35.440132, 30.0 ] } },
{ "type": "Feature", "properties": { "value": 0.4376 }, "geometry": { "type": "Point", "coordinates": [ 129.29335, 35.440128, 30.0 ] } },
{ "type": "Feature", "properties": { "value": 5.0831 }, "geometry": { "type": "Point", "coordinates": [ 129.294449, 35.440128, 30.0 ] } },
{ "type": "Feature", "properties": { "value": 0.458 }, "geometry": { "type": "Point", "coordinates": [ 129.295547, 35.440125, 30.0 ] } },
{ "type": "Feature", "properties": { "value": 0.0 }, "geometry": { "type": "Point", "coordinates": [ 129.296646, 35.440121, 30.0 ] } },
{ "type": "Feature", "properties": { "value": 0.0724 }, "geometry": { "type": "Point", "coordinates": [ 129.292252, 35.441032, 30.0 ] } },
{ "type": "Feature", "properties": { "value": 38.828 }, "geometry": { "type": "Point", "coordinates": [ 129.29335, 35.441029, 30.0 ] } },
{ "type": "Feature", "properties": { "value": 25.826 }, "geometry": { "type": "Point", "coordinates": [ 129.294449, 35.441029, 30.0 ] } },
{ "type": "Feature", "properties": { "value": 0.0026 }, "geometry": { "type": "Point", "coordinates": [ 129.295547, 35.441025, 30.0 ] } },
{ "type": "Feature", "properties": { "value": 0.0213 }, "geometry": { "type": "Point", "coordinates": [ 129.291153, 35.441936, 30.0 ] } },
{ "type": "Feature", "properties": { "value": 14.2 }, "geometry": { "type": "Point", "coordinates": [ 129.292252, 35.441933, 30.0 ] } },
{ "type": "Feature", "properties": { "value": 74.188 }, "geometry": { "type": "Point", "coordinates": [ 129.29335, 35.441933, 30.0 ] } },
{ "type": "Feature", "properties": { "value": 8.7779 }, "geometry": { "type": "Point", "coordinates": [ 129.294449, 35.441929, 30.0 ] } },
{ "type": "Feature", "properties": { "value": 2.5862 }, "geometry": { "type": "Point", "coordinates": [ 129.291153, 35.442837, 30.0 ] } },
{ "type": "Feature", "properties": { "value": 61.853 }, "geometry": { "type": "Point", "coordinates": [ 129.292252, 35.442837, 30.0 ] } },
{ "type": "Feature", "properties": { "value": 83.919 }, "geometry": { "type": "Point", "coordinates": [ 129.29335, 35.442833, 30.0 ] } },
{ "type": "Feature", "properties": { "value": 2.9869 }, "geometry": { "type": "Point", "coordinates": [ 129.294464, 35.442829, 30.0 ] } },
{ "type": "Feature", "properties": { "value": 0.3169 }, "geometry": { "type": "Point", "coordinates": [ 129.290054, 35.443741, 30.0 ] } },
{ "type": "Feature", "properties": { "value": 18.726 }, "geometry": { "type": "Point", "coordinates": [ 129.291153, 35.443741, 30.0 ] } },
{ "type": "Feature", "properties": { "value": 90.709 }, "geometry": { "type": "Point", "coordinates": [ 129.292252, 35.443737, 30.0 ] } },
{ "type": "Feature", "properties": { "value": 52.105 }, "geometry": { "type": "Point", "coordinates": [ 129.293365, 35.443733, 30.0 ] } },
{ "type": "Feature", "properties": { "value": 1.0935 }, "geometry": { "type": "Point", "coordinates": [ 129.294464, 35.443733, 30.0 ] } },
{ "type": "Feature", "properties": { "value": 3.407 }, "geometry": { "type": "Point", "coordinates": [ 129.290054, 35.444645, 30.0 ] } },
{ "type": "Feature", "properties": { "value": 48.853 }, "geometry": { "type": "Point", "coordinates": [ 129.291153, 35.444641, 30.0 ] } },
{ "type": "Feature", "properties": { "value": 91.139 }, "geometry": { "type": "Point", "coordinates": [ 129.292267, 35.444637, 30.0 ] } },
{ "type": "Feature", "properties": { "value": 24.019 }, "geometry": { "type": "Point", "coordinates": [ 129.293365, 35.444637, 30.0 ] } },
{ "type": "Feature", "properties": { "value": 0.3537 }, "geometry": { "type": "Point", "coordinates": [ 129.294464, 35.444633, 30.0 ] } },
{ "type": "Feature", "properties": { "value": 0.3744 }, "geometry": { "type": "Point", "coordinates": [ 129.288956, 35.445549, 30.0 ] } },
{ "type": "Feature", "properties": { "value": 15.18 }, "geometry": { "type": "Point", "coordinates": [ 129.290054, 35.445545, 30.0 ] } },
{ "type": "Feature", "properties": { "value": 78.284 }, "geometry": { "type": "Point", "coordinates": [ 129.291168, 35.445541, 30.0 ] } },
{ "type": "Feature", "properties": { "value": 70.68 }, "geometry": { "type": "Point", "coordinates": [ 129.292267, 35.445541, 30.0 ] } },
{ "type": "Feature", "properties": { "value": 8.8421 }, "geometry": { "type": "Point", "coordinates": [ 129.293365, 35.445538, 30.0 ] } },
{ "type": "Feature", "properties": { "value": 2.8137 }, "geometry": { "type": "Point", "coordinates": [ 129.288956, 35.446449, 30.0 ] } },
{ "type": "Feature", "properties": { "value": 37.879 }, "geometry": { "type": "Point", "coordinates": [ 129.29007, 35.446445, 30.0 ] } },
{ "type": "Feature", "properties": { "value": 90.487 }, "geometry": { "type": "Point", "coordinates": [ 129.291168, 35.446442, 30.0 ] } },
{ "type": "Feature", "properties": { "value": 42.675 }, "geometry": { "type": "Point", "coordinates": [ 129.292267, 35.446442, 30.0 ] } },
{ "type": "Feature", "properties": { "value": 2.7174 }, "geometry": { "type": "Point", "coordinates": [ 129.293365, 35.446438, 30.0 ] } },
{ "type": "Feature", "properties": { "value": 0.2844 }, "geometry": { "type": "Point", "coordinates": [ 129.287872, 35.447353, 30.0 ] } },
{ "type": "Feature", "properties": { "value": 10.99 }, "geometry": { "type": "Point", "coordinates": [ 129.288971, 35.44735, 30.0 ] } },
{ "type": "Feature", "properties": { "value": 64.675 }, "geometry": { "type": "Point", "coordinates": [ 129.29007, 35.447346, 30.0 ] } },
{ "type": "Feature", "properties": { "value": 81.92 }, "geometry": { "type": "Point", "coordinates": [ 129.291168, 35.447346, 30.0 ] } },
{ "type": "Feature", "properties": { "value": 21.15 }, "geometry": { "type": "Point", "coordinates": [ 129.292267, 35.447342, 30.0 ] } },
{ "type": "Feature", "properties": { "value": 0.6782 }, "geometry": { "type": "Point", "coordinates": [ 129.293365, 35.447338, 30.0 ] } },
{ "type": "Feature", "properties": { "value": 2.0451 }, "geometry": { "type": "Point", "coordinates": [ 129.287872, 35.448254, 30.0 ] } },
{ "type": "Feature", "properties": { "value": 27.158 }, "geometry": { "type": "Point", "coordinates": [ 129.288971, 35.44825, 30.0 ] } },
{ "type": "Feature", "properties": { "value": 81.979 }, "geometry": { "type": "Point", "coordinates": [ 129.29007, 35.44825, 30.0 ] } },
{ "type": "Feature", "properties": { "value": 60.053 }, "geometry": { "type": "Point", "coordinates": [ 129.291168, 35.448246, 30.0 ] } },
{ "type": "Feature", "properties": { "value": 8.9493 }, "geometry": { "type": "Point", "coordinates": [ 129.292267, 35.448242, 30.0 ] } },
{ "type": "Feature", "properties": { "value": 0.1524 }, "geometry": { "type": "Point", "coordinates": [ 129.286774, 35.449158, 30.0 ] } },
{ "type": "Feature", "properties": { "value": 6.7808 }, "geometry": { "type": "Point", "coordinates": [ 129.287872, 35.449154, 30.0 ] } },
{ "type": "Feature", "properties": { "value": 45.638 }, "geometry": { "type": "Point", "coordinates": [ 129.288971, 35.449154, 30.0 ] } },
{ "type": "Feature", "properties": { "value": 79.783 }, "geometry": { "type": "Point", "coordinates": [ 129.29007, 35.44915, 30.0 ] } },
{ "type": "Feature", "properties": { "value": 35.854 }, "geometry": { "type": "Point", "coordinates": [ 129.291168, 35.449146, 30.0 ] } },
{ "type": "Feature", "properties": { "value": 3.2343 }, "geometry": { "type": "Point", "coordinates": [ 129.292282, 35.449146, 30.0 ] } },
{ "type": "Feature", "properties": { "value": 0.6634 }, "geometry": { "type": "Point", "coordinates": [ 129.286774, 35.450058, 30.0 ] } },
{ "type": "Feature", "properties": { "value": 13.452 }, "geometry": { "type": "Point", "coordinates": [ 129.287872, 35.450058, 30.0 ] } },
{ "type": "Feature", "properties": { "value": 59.149 }, "geometry": { "type": "Point", "coordinates": [ 129.288971, 35.450054, 30.0 ] } },
{ "type": "Feature", "properties": { "value": 69.186 }, "geometry": { "type": "Point", "coordinates": [ 129.290085, 35.45005, 30.0 ] } },
{ "type": "Feature", "properties": { "value": 20.845 }, "geometry": { "type": "Point", "coordinates": [ 129.291183, 35.45005, 30.0 ] } },
{ "type": "Feature", "properties": { "value": 1.2693 }, "geometry": { "type": "Point", "coordinates": [ 129.292282, 35.450047, 30.0 ] } },
{ "type": "Feature", "properties": { "value": 1.039 }, "geometry": { "type": "Point", "coordinates": [ 129.286774, 35.450962, 30.0 ] } },
{ "type": "Feature", "properties": { "value": 16.377 }, "geometry": { "type": "Point", "coordinates": [ 129.287872, 35.450958, 30.0 ] } },
{ "type": "Feature", "properties": { "value": 60.217 }, "geometry": { "type": "Point", "coordinates": [ 129.288986, 35.450954, 30.0 ] } },
{ "type": "Feature", "properties": { "value": 59.247 }, "geometry": { "type": "Point", "coordinates": [ 129.290085, 35.450954, 30.0 ] } },
{ "type": "Feature", "properties": { "value": 15.395 }, "geometry": { "type": "Point", "coordinates": [ 129.291183, 35.450951, 30.0 ] } },
{ "type": "Feature", "properties": { "value": 0.8572 }, "geometry": { "type": "Point", "coordinates": [ 129.292282, 35.450947, 30.0 ] } },
{ "type": "Feature", "properties": { "value": 0.9836 }, "geometry": { "type": "Point", "coordinates": [ 129.286774, 35.451862, 30.0 ] } },
{ "type": "Feature", "properties": { "value": 14.144 }, "geometry": { "type": "Point", "coordinates": [ 129.287888, 35.451859, 30.0 ] } },
{ "type": "Feature", "properties": { "value": 49.483 }, "geometry": { "type": "Point", "coordinates": [ 129.288986, 35.451855, 30.0 ] } },
{ "type": "Feature", "properties": { "value": 48.845 }, "geometry": { "type": "Point", "coordinates": [ 129.290085, 35.451855, 30.0 ] } },
{ "type": "Feature", "properties": { "value": 13.675 }, "geometry": { "type": "Point", "coordinates": [ 129.291183, 35.451851, 30.0 ] } },
{ "type": "Feature", "properties": { "value": 0.9436 }, "geometry": { "type": "Point", "coordinates": [ 129.292282, 35.451847, 30.0 ] } },
{ "type": "Feature", "properties": { "value": 0.8543 }, "geometry": { "type": "Point", "coordinates": [ 129.286789, 35.452763, 30.0 ] } },
{ "type": "Feature", "properties": { "value": 10.9 }, "geometry": { "type": "Point", "coordinates": [ 129.287888, 35.452759, 30.0 ] } },
{ "type": "Feature", "properties": { "value": 37.021 }, "geometry": { "type": "Point", "coordinates": [ 129.288986, 35.452759, 30.0 ] } },
{ "type": "Feature", "properties": { "value": 37.821 }, "geometry": { "type": "Point", "coordinates": [ 129.290085, 35.452755, 30.0 ] } },
{ "type": "Feature", "properties": { "value": 11.736 }, "geometry": { "type": "Point", "coordinates": [ 129.291183, 35.452751, 30.0 ] } },
{ "type": "Feature", "properties": { "value": 0.9954 }, "geometry": { "type": "Point", "coordinates": [ 129.292297, 35.452751, 30.0 ] } },
{ "type": "Feature", "properties": { "value": 0.9283 }, "geometry": { "type": "Point", "coordinates": [ 129.286789, 35.453663, 30.0 ] } },
{ "type": "Feature", "properties": { "value": 9.43 }, "geometry": { "type": "Point", "coordinates": [ 129.287888, 35.453663, 30.0 ] } },
{ "type": "Feature", "properties": { "value": 29.053 }, "geometry": { "type": "Point", "coordinates": [ 129.288986, 35.453659, 30.0 ] } },
{ "type": "Feature", "properties": { "value": 29.23 }, "geometry": { "type": "Point", "coordinates": [ 129.290085, 35.453655, 30.0 ] } },
{ "type": "Feature", "properties": { "value": 9.5395 }, "geometry": { "type": "Point", "coordinates": [ 129.291199, 35.453655, 30.0 ] } },
{ "type": "Feature", "properties": { "value": 0.9197 }, "geometry": { "type": "Point", "coordinates": [ 129.292297, 35.453651, 30.0 ] } },
{ "type": "Feature", "properties": { "value": 1.4453 }, "geometry": { "type": "Point", "coordinates": [ 129.286789, 35.454567, 30.0 ] } },
{ "type": "Feature", "properties": { "value": 10.648 }, "geometry": { "type": "Point", "coordinates": [ 129.287888, 35.454563, 30.0 ] } },
{ "type": "Feature", "properties": { "value": 27.2 }, "geometry": { "type": "Point", "coordinates": [ 129.288986, 35.454559, 30.0 ] } },
{ "type": "Feature", "properties": { "value": 24.825 }, "geometry": { "type": "Point", "coordinates": [ 129.2901, 35.454559, 30.0 ] } },
{ "type": "Feature", "properties": { "value": 7.8845 }, "geometry": { "type": "Point", "coordinates": [ 129.291199, 35.454556, 30.0 ] } },
{ "type": "Feature", "properties": { "value": 0.7776 }, "geometry": { "type": "Point", "coordinates": [ 129.292297, 35.454552, 30.0 ] } },
{ "type": "Feature", "properties": { "value": 0.093 }, "geometry": { "type": "Point", "coordinates": [ 129.28569, 35.455471, 30.0 ] } },
{ "type": "Feature", "properties": { "value": 2.6178 }, "geometry": { "type": "Point", "coordinates": [ 129.286789, 35.455467, 30.0 ] } },
{ "type": "Feature", "properties": { "value": 14.303 }, "geometry": { "type": "Point", "coordinates": [ 129.287888, 35.455463, 30.0 ] } },
{ "type": "Feature", "properties": { "value": 29.268 }, "geometry": { "type": "Point", "coordinates": [ 129.289001, 35.455463, 30.0 ] } },
{ "type": "Feature", "properties": { "value": 22.74 }, "geometry": { "type": "Point", "coordinates": [ 129.2901, 35.45546, 30.0 ] } },
{ "type": "Feature", "properties": { "value": 6.4963 }, "geometry": { "type": "Point", "coordinates": [ 129.291199, 35.455456, 30.0 ] } },
{ "type": "Feature", "properties": { "value": 0.6137 }, "geometry": { "type": "Point", "coordinates": [ 129.292297, 35.455452, 30.0 ] } },
{ "type": "Feature", "properties": { "value": 0.352 }, "geometry": { "type": "Point", "coordinates": [ 129.28569, 35.456371, 30.0 ] } },
{ "type": "Feature", "properties": { "value": 4.3058 }, "geometry": { "type": "Point", "coordinates": [ 129.286789, 35.456367, 30.0 ] } },
{ "type": "Feature", "properties": { "value": 18.351 }, "geometry": { "type": "Point", "coordinates": [ 129.287903, 35.456367, 30.0 ] } },
{ "type": "Feature", "properties": { "value": 30.538 }, "geometry": { "type": "Point", "coordinates": [ 129.289001, 35.456364, 30.0 ] } },
{ "type": "Feature", "properties": { "value": 19.902 }, "geometry": { "type": "Point", "coordinates": [ 129.2901, 35.45636, 30.0 ] } },
{ "type": "Feature", "properties": { "value": 4.8921 }, "geometry": { "type": "Point", "coordinates": [ 129.291199, 35.456356, 30.0 ] } },
{ "type": "Feature", "properties": { "value": 0.3911 }, "geometry": { "type": "Point", "coordinates": [ 129.292297, 35.456356, 30.0 ] } },
{ "type": "Feature", "properties": { "value": 0.7434 }, "geometry": { "type": "Point", "coordinates": [ 129.28569, 35.457272, 30.0 ] } },
{ "type": "Feature", "properties": { "value": 6.2158 }, "geometry": { "type": "Point", "coordinates": [ 129.286804, 35.457268, 30.0 ] } },
{ "type": "Feature", "properties": { "value": 20.48 }, "geometry": { "type": "Point", "coordinates": [ 129.287903, 35.457268, 30.0 ] } },
{ "type": "Feature", "properties": { "value": 27.728 }, "geometry": { "type": "Point", "coordinates": [ 129.289001, 35.457264, 30.0 ] } },
{ "type": "Feature", "properties": { "value": 15.136 }, "geometry": { "type": "Point", "coordinates": [ 129.2901, 35.45726, 30.0 ] } },
{ "type": "Feature", "properties": { "value": 3.1792 }, "geometry": { "type": "Point", "coordinates": [ 129.291199, 35.45726, 30.0 ] } },
{ "type": "Feature", "properties": { "value": 0.1935 }, "geometry": { "type": "Point", "coordinates": [ 129.292313, 35.457256, 30.0 ] } },
{ "type": "Feature", "properties": { "value": 0.0127 }, "geometry": { "type": "Point", "coordinates": [ 129.284592, 35.458176, 30.0 ] } },
{ "type": "Feature", "properties": { "value": 1.6379 }, "geometry": { "type": "Point", "coordinates": [ 129.285706, 35.458172, 30.0 ] } },
{ "type": "Feature", "properties": { "value": 9.0355 }, "geometry": { "type": "Point", "coordinates": [ 129.286804, 35.458172, 30.0 ] } },
{ "type": "Feature", "properties": { "value": 22.144 }, "geometry": { "type": "Point", "coordinates": [ 129.287903, 35.458168, 30.0 ] } },
{ "type": "Feature", "properties": { "value": 23.688 }, "geometry": { "type": "Point", "coordinates": [ 129.289001, 35.458164, 30.0 ] } },
{ "type": "Feature", "properties": { "value": 10.659 }, "geometry": { "type": "Point", "coordinates": [ 129.2901, 35.458164, 30.0 ] } },
{ "type": "Feature", "properties": { "value": 1.8814 }, "geometry": { "type": "Point", "coordinates": [ 129.291214, 35.45816, 30.0 ] } },
{ "type": "Feature", "properties": { "value": 0.4193 }, "geometry": { "type": "Point", "coordinates": [ 129.284607, 35.459076, 30.0 ] } },
{ "type": "Feature", "properties": { "value": 3.5181 }, "geometry": { "type": "Point", "coordinates": [ 129.285706, 35.459076, 30.0 ] } },
{ "type": "Feature", "properties": { "value": 13.48 }, "geometry": { "type": "Point", "coordinates": [ 129.286804, 35.459072, 30.0 ] } },
{ "type": "Feature", "properties": { "value": 24.729 }, "geometry": { "type": "Point", "coordinates": [ 129.287903, 35.459068, 30.0 ] } },
{ "type": "Feature", "properties": { "value": 20.943 }, "geometry": { "type": "Point", "coordinates": [ 129.289001, 35.459068, 30.0 ] } },
{ "type": "Feature", "properties": { "value": 7.7926 }, "geometry": { "type": "Point", "coordinates": [ 129.290115, 35.459064, 30.0 ] } },
{ "type": "Feature", "properties": { "value": 1.171 }, "geometry": { "type": "Point", "coordinates": [ 129.291214, 35.459061, 30.0 ] } },
{ "type": "Feature", "properties": { "value": 6.9401 }, "geometry": { "type": "Point", "coordinates": [ 129.32756, 35.458969, 30.0 ] } },
{ "type": "Feature", "properties": { "value": 0.044 }, "geometry": { "type": "Point", "coordinates": [ 129.283508, 35.45998, 30.0 ] } },
{ "type": "Feature", "properties": { "value": 1.2276 }, "geometry": { "type": "Point", "coordinates": [ 129.284607, 35.45998, 30.0 ] } },
{ "type": "Feature", "properties": { "value": 6.6045 }, "geometry": { "type": "Point", "coordinates": [ 129.285706, 35.459976, 30.0 ] } },
{ "type": "Feature", "properties": { "value": 18.651 }, "geometry": { "type": "Point", "coordinates": [ 129.286804, 35.459972, 30.0 ] } },
{ "type": "Feature", "properties": { "value": 26.551 }, "geometry": { "type": "Point", "coordinates": [ 129.287903, 35.459972, 30.0 ] } },
{ "type": "Feature", "properties": { "value": 18.241 }, "geometry": { "type": "Point", "coordinates": [ 129.289017, 35.459969, 30.0 ] } },
{ "type": "Feature", "properties": { "value": 5.7461 }, "geometry": { "type": "Point", "coordinates": [ 129.290115, 35.459965, 30.0 ] } },
{ "type": "Feature", "properties": { "value": 0.7586 }, "geometry": { "type": "Point", "coordinates": [ 129.291214, 35.459965, 30.0 ] } },
{ "type": "Feature", "properties": { "value": 190.2 }, "geometry": { "type": "Point", "coordinates": [ 129.32756, 35.459869, 30.0 ] } },
{ "type": "Feature", "properties": { "value": 0.3337 }, "geometry": { "type": "Point", "coordinates": [ 129.283508, 35.460884, 30.0 ] } },
{ "type": "Feature", "properties": { "value": 2.55 }, "geometry": { "type": "Point", "coordinates": [ 129.284607, 35.46088, 30.0 ] } },
{ "type": "Feature", "properties": { "value": 10.044 }, "geometry": { "type": "Point", "coordinates": [ 129.285706, 35.460876, 30.0 ] } },
{ "type": "Feature", "properties": { "value": 21.674 }, "geometry": { "type": "Point", "coordinates": [ 129.286804, 35.460876, 30.0 ] } },
{ "type": "Feature", "properties": { "value": 24.687 }, "geometry": { "type": "Point", "coordinates": [ 129.287918, 35.460873, 30.0 ] } },
{ "type": "Feature", "properties": { "value": 14.108 }, "geometry": { "type": "Point", "coordinates": [ 129.289017, 35.460869, 30.0 ] } },
{ "type": "Feature", "properties": { "value": 3.8412 }, "geometry": { "type": "Point", "coordinates": [ 129.290115, 35.460865, 30.0 ] } },
{ "type": "Feature", "properties": { "value": 0.4371 }, "geometry": { "type": "Point", "coordinates": [ 129.291214, 35.460865, 30.0 ] } },
{ "type": "Feature", "properties": { "value": 343.59 }, "geometry": { "type": "Point", "coordinates": [ 129.327576, 35.46077, 30.0 ] } },
{ "type": "Feature", "properties": { "value": 0.0508 }, "geometry": { "type": "Point", "coordinates": [ 129.28241, 35.461788, 30.0 ] } },
{ "type": "Feature", "properties": { "value": 0.6489 }, "geometry": { "type": "Point", "coordinates": [ 129.283508, 35.461784, 30.0 ] } },
{ "type": "Feature", "properties": { "value": 3.7033 }, "geometry": { "type": "Point", "coordinates": [ 129.284607, 35.461781, 30.0 ] } },
{ "type": "Feature", "properties": { "value": 11.394 }, "geometry": { "type": "Point", "coordinates": [ 129.285706, 35.461781, 30.0 ] } },
{ "type": "Feature", "properties": { "value": 19.433 }, "geometry": { "type": "Point", "coordinates": [ 129.286819, 35.461777, 30.0 ] } },
{ "type": "Feature", "properties": { "value": 17.916 }, "geometry": { "type": "Point", "coordinates": [ 129.287918, 35.461773, 30.0 ] } },
{ "type": "Feature", "properties": { "value": 8.5838 }, "geometry": { "type": "Point", "coordinates": [ 129.289017, 35.461769, 30.0 ] } },
{ "type": "Feature", "properties": { "value": 2.0154 }, "geometry": { "type": "Point", "coordinates": [ 129.290115, 35.461769, 30.0 ] } },
{ "type": "Feature", "properties": { "value": 0.1813 }, "geometry": { "type": "Point", "coordinates": [ 129.291214, 35.461765, 30.0 ] } },
{ "type": "Feature", "properties": { "value": 322.65 }, "geometry": { "type": "Point", "coordinates": [ 129.327576, 35.461674, 30.0 ] } },
{ "type": "Feature", "properties": { "value": 0.0611 }, "geometry": { "type": "Point", "coordinates": [ 129.28241, 35.462688, 30.0 ] } },
{ "type": "Feature", "properties": { "value": 0.6692 }, "geometry": { "type": "Point", "coordinates": [ 129.283508, 35.462685, 30.0 ] } },
{ "type": "Feature", "properties": { "value": 3.3507 }, "geometry": { "type": "Point", "coordinates": [ 129.284607, 35.462681, 30.0 ] } },
{ "type": "Feature", "properties": { "value": 8.8051 }, "geometry": { "type": "Point", "coordinates": [ 129.285721, 35.462681, 30.0 ] } },
{ "type": "Feature", "properties": { "value": 12.461 }, "geometry": { "type": "Point", "coordinates": [ 129.286819, 35.462677, 30.0 ] } },
{ "type": "Feature", "properties": { "value": 9.4996 }, "geometry": { "type": "Point", "coordinates": [ 129.287918, 35.462673, 30.0 ] } },
{ "type": "Feature", "properties": { "value": 3.7968 }, "geometry": { "type": "Point", "coordinates": [ 129.289017, 35.462673, 30.0 ] } },
{ "type": "Feature", "properties": { "value": 0.7607 }, "geometry": { "type": "Point", "coordinates": [ 129.290115, 35.462669, 30.0 ] } },
{ "type": "Feature", "properties": { "value": 304.41 }, "geometry": { "type": "Point", "coordinates": [ 129.327576, 35.462574, 30.0 ] } },
{ "type": "Feature", "properties": { "value": 0.0194 }, "geometry": { "type": "Point", "coordinates": [ 129.28241, 35.463589, 30.0 ] } },
{ "type": "Feature", "properties": { "value": 0.3676 }, "geometry": { "type": "Point", "coordinates": [ 129.283524, 35.463585, 30.0 ] } },
{ "type": "Feature", "properties": { "value": 1.7436 }, "geometry": { "type": "Point", "coordinates": [ 129.284622, 35.463585, 30.0 ] } },
{ "type": "Feature", "properties": { "value": 4.2078 }, "geometry": { "type": "Point", "coordinates": [ 129.285721, 35.463581, 30.0 ] } },
{ "type": "Feature", "properties": { "value": 5.2792 }, "geometry": { "type": "Point", "coordinates": [ 129.286819, 35.463577, 30.0 ] } },
{ "type": "Feature", "properties": { "value": 3.4783 }, "geometry": { "type": "Point", "coordinates": [ 129.287918, 35.463577, 30.0 ] } },
{ "type": "Feature", "properties": { "value": 1.1746 }, "geometry": { "type": "Point", "coordinates": [ 129.289017, 35.463573, 30.0 ] } },
{ "type": "Feature", "properties": { "value": 0.1781 }, "geometry": { "type": "Point", "coordinates": [ 129.290131, 35.46357, 30.0 ] } },
{ "type": "Feature", "properties": { "value": 253.67 }, "geometry": { "type": "Point", "coordinates": [ 129.327576, 35.463474, 30.0 ] } },
{ "type": "Feature", "properties": { "value": 4.0063 }, "geometry": { "type": "Point", "coordinates": [ 129.32869, 35.46347, 30.0 ] } },
{ "type": "Feature", "properties": { "value": 0.1003 }, "geometry": { "type": "Point", "coordinates": [ 129.283524, 35.464489, 30.0 ] } },
{ "type": "Feature", "properties": { "value": 0.4862 }, "geometry": { "type": "Point", "coordinates": [ 129.284622, 35.464485, 30.0 ] } },
{ "type": "Feature", "properties": { "value": 1.1315 }, "geometry": { "type": "Point", "coordinates": [ 129.285721, 35.464481, 30.0 ] } },
{ "type": "Feature", "properties": { "value": 1.3177 }, "geometry": { "type": "Point", "coordinates": [ 129.286819, 35.464481, 30.0 ] } },
{ "type": "Feature", "properties": { "value": 0.7924 }, "geometry": { "type": "Point", "coordinates": [ 129.287933, 35.464478, 30.0 ] } },
{ "type": "Feature", "properties": { "value": 0.2241 }, "geometry": { "type": "Point", "coordinates": [ 129.289032, 35.464474, 30.0 ] } },
{ "type": "Feature", "properties": { "value": 206.25 }, "geometry": { "type": "Point", "coordinates": [ 129.327591, 35.464375, 30.0 ] } },
{ "type": "Feature", "properties": { "value": 15.996 }, "geometry": { "type": "Point", "coordinates": [ 129.32869, 35.464375, 30.0 ] } },
{ "type": "Feature", "properties": { "value": 0.0675 }, "geometry": { "type": "Point", "coordinates": [ 129.284622, 35.465385, 30.0 ] } },
{ "type": "Feature", "properties": { "value": 0.1616 }, "geometry": { "type": "Point", "coordinates": [ 129.285721, 35.465385, 30.0 ] } },
{ "type": "Feature", "properties": { "value": 0.1815 }, "geometry": { "type": "Point", "coordinates": [ 129.286835, 35.465382, 30.0 ] } },
{ "type": "Feature", "properties": { "value": 0.1024 }, "geometry": { "type": "Point", "coordinates": [ 129.287933, 35.465378, 30.0 ] } },
{ "type": "Feature", "properties": { "value": 150.24 }, "geometry": { "type": "Point", "coordinates": [ 129.327591, 35.465279, 30.0 ] } },
{ "type": "Feature", "properties": { "value": 28.335 }, "geometry": { "type": "Point", "coordinates": [ 129.32869, 35.465275, 30.0 ] } },
{ "type": "Feature", "properties": { "value": 110.46 }, "geometry": { "type": "Point", "coordinates": [ 129.327591, 35.466179, 30.0 ] } },
{ "type": "Feature", "properties": { "value": 34.22 }, "geometry": { "type": "Point", "coordinates": [ 129.32869, 35.466175, 30.0 ] } },
{ "type": "Feature", "properties": { "value": 89.941 }, "geometry": { "type": "Point", "coordinates": [ 129.327591, 35.467079, 30.0 ] } },
{ "type": "Feature", "properties": { "value": 39.191 }, "geometry": { "type": "Point", "coordinates": [ 129.328705, 35.467075, 30.0 ] } },
{ "type": "Feature", "properties": { "value": 80.0 }, "geometry": { "type": "Point", "coordinates": [ 129.327606, 35.467983, 30.0 ] } },
{ "type": "Feature", "properties": { "value": 43.528 }, "geometry": { "type": "Point", "coordinates": [ 129.328705, 35.467979, 30.0 ] } },
{ "type": "Feature", "properties": { "value": 79.012 }, "geometry": { "type": "Point", "coordinates": [ 129.327606, 35.468884, 30.0 ] } },
{ "type": "Feature", "properties": { "value": 47.75 }, "geometry": { "type": "Point", "coordinates": [ 129.328705, 35.46888, 30.0 ] } },
{ "type": "Feature", "properties": { "value": 2.2849 }, "geometry": { "type": "Point", "coordinates": [ 129.326508, 35.469788, 30.0 ] } },
{ "type": "Feature", "properties": { "value": 88.041 }, "geometry": { "type": "Point", "coordinates": [ 129.327606, 35.469784, 30.0 ] } },
{ "type": "Feature", "properties": { "value": 54.847 }, "geometry": { "type": "Point", "coordinates": [ 129.328705, 35.46978, 30.0 ] } },
{ "type": "Feature", "properties": { "value": 4.3002 }, "geometry": { "type": "Point", "coordinates": [ 129.326508, 35.470688, 30.0 ] } },
{ "type": "Feature", "properties": { "value": 100.64 }, "geometry": { "type": "Point", "coordinates": [ 129.327606, 35.470684, 30.0 ] } },
{ "type": "Feature", "properties": { "value": 68.063 }, "geometry": { "type": "Point", "coordinates": [ 129.32872, 35.470684, 30.0 ] } },
{ "type": "Feature", "properties": { "value": 7.1843 }, "geometry": { "type": "Point", "coordinates": [ 129.326508, 35.471588, 30.0 ] } },
{ "type": "Feature", "properties": { "value": 119.29 }, "geometry": { "type": "Point", "coordinates": [ 129.327621, 35.471588, 30.0 ] } },
{ "type": "Feature", "properties": { "value": 88.257 }, "geometry": { "type": "Point", "coordinates": [ 129.32872, 35.471584, 30.0 ] } },
{ "type": "Feature", "properties": { "value": 2.0033 }, "geometry": { "type": "Point", "coordinates": [ 129.329819, 35.471581, 30.0 ] } },
{ "type": "Feature", "properties": { "value": 11.058 }, "geometry": { "type": "Point", "coordinates": [ 129.326523, 35.472492, 30.0 ] } },
{ "type": "Feature", "properties": { "value": 137.95 }, "geometry": { "type": "Point", "coordinates": [ 129.327621, 35.472488, 30.0 ] } },
{ "type": "Feature", "properties": { "value": 98.194 }, "geometry": { "type": "Point", "coordinates": [ 129.32872, 35.472485, 30.0 ] } },
{ "type": "Feature", "properties": { "value": 3.12 }, "geometry": { "type": "Point", "coordinates": [ 129.329819, 35.472481, 30.0 ] } },
{ "type": "Feature", "properties": { "value": 16.787 }, "geometry": { "type": "Point", "coordinates": [ 129.326523, 35.473392, 30.0 ] } },
{ "type": "Feature", "properties": { "value": 136.52 }, "geometry": { "type": "Point", "coordinates": [ 129.327621, 35.473389, 30.0 ] } },
{ "type": "Feature", "properties": { "value": 95.74 }, "geometry": { "type": "Point", "coordinates": [ 129.32872, 35.473385, 30.0 ] } },
{ "type": "Feature", "properties": { "value": 5.3085 }, "geometry": { "type": "Point", "coordinates": [ 129.329819, 35.473385, 30.0 ] } },
{ "type": "Feature", "properties": { "value": 22.792 }, "geometry": { "type": "Point", "coordinates": [ 129.326523, 35.474293, 30.0 ] } },
{ "type": "Feature", "properties": { "value": 129.61 }, "geometry": { "type": "Point", "coordinates": [ 129.327621, 35.474289, 30.0 ] } },
{ "type": "Feature", "properties": { "value": 90.4 }, "geometry": { "type": "Point", "coordinates": [ 129.328735, 35.474289, 30.0 ] } },
{ "type": "Feature", "properties": { "value": 7.3657 }, "geometry": { "type": "Point", "coordinates": [ 129.329834, 35.474285, 30.0 ] } },
{ "type": "Feature", "properties": { "value": 28.337 }, "geometry": { "type": "Point", "coordinates": [ 129.326523, 35.475193, 30.0 ] } },
{ "type": "Feature", "properties": { "value": 131.04 }, "geometry": { "type": "Point", "coordinates": [ 129.327637, 35.475193, 30.0 ] } },
{ "type": "Feature", "properties": { "value": 87.153 }, "geometry": { "type": "Point", "coordinates": [ 129.328735, 35.475189, 30.0 ] } },
{ "type": "Feature", "properties": { "value": 7.8071 }, "geometry": { "type": "Point", "coordinates": [ 129.329834, 35.475185, 30.0 ] } },
{ "type": "Feature", "properties": { "value": 0.6972 }, "geometry": { "type": "Point", "coordinates": [ 129.325424, 35.476097, 30.0 ] } },
{ "type": "Feature", "properties": { "value": 34.952 }, "geometry": { "type": "Point", "coordinates": [ 129.326538, 35.476097, 30.0 ] } },
{ "type": "Feature", "properties": { "value": 127.46 }, "geometry": { "type": "Point", "coordinates": [ 129.327637, 35.476093, 30.0 ] } },
{ "type": "Feature", "properties": { "value": 79.443 }, "geometry": { "type": "Point", "coordinates": [ 129.328735, 35.476089, 30.0 ] } },
{ "type": "Feature", "properties": { "value": 7.3932 }, "geometry": { "type": "Point", "coordinates": [ 129.329834, 35.476086, 30.0 ] } },
{ "type": "Feature", "properties": { "value": 2.7594 }, "geometry": { "type": "Point", "coordinates": [ 129.325439, 35.477001, 30.0 ] } },
{ "type": "Feature", "properties": { "value": 42.135 }, "geometry": { "type": "Point", "coordinates": [ 129.326538, 35.476997, 30.0 ] } },
{ "type": "Feature", "properties": { "value": 116.14 }, "geometry": { "type": "Point", "coordinates": [ 129.327637, 35.476994, 30.0 ] } },
{ "type": "Feature", "properties": { "value": 66.149 }, "geometry": { "type": "Point", "coordinates": [ 129.328735, 35.47699, 30.0 ] } },
{ "type": "Feature", "properties": { "value": 6.6394 }, "geometry": { "type": "Point", "coordinates": [ 129.329834, 35.47699, 30.0 ] } },
{ "type": "Feature", "properties": { "value": 4.7759 }, "geometry": { "type": "Point", "coordinates": [ 129.325439, 35.477901, 30.0 ] } },
{ "type": "Feature", "properties": { "value": 47.562 }, "geometry": { "type": "Point", "coordinates": [ 129.326538, 35.477898, 30.0 ] } },
{ "type": "Feature", "properties": { "value": 101.56 }, "geometry": { "type": "Point", "coordinates": [ 129.327637, 35.477894, 30.0 ] } },
{ "type": "Feature", "properties": { "value": 52.248 }, "geometry": { "type": "Point", "coordinates": [ 129.328735, 35.477894, 30.0 ] } },
{ "type": "Feature", "properties": { "value": 5.6899 }, "geometry": { "type": "Point", "coordinates": [ 129.329849, 35.47789, 30.0 ] } },
{ "type": "Feature", "properties": { "value": 7.4569 }, "geometry": { "type": "Point", "coordinates": [ 129.325439, 35.478802, 30.0 ] } },
{ "type": "Feature", "properties": { "value": 52.533 }, "geometry": { "type": "Point", "coordinates": [ 129.326538, 35.478798, 30.0 ] } },
{ "type": "Feature", "properties": { "value": 93.536 }, "geometry": { "type": "Point", "coordinates": [ 129.327637, 35.478798, 30.0 ] } },
{ "type": "Feature", "properties": { "value": 42.864 }, "geometry": { "type": "Point", "coordinates": [ 129.328751, 35.478794, 30.0 ] } },
{ "type": "Feature", "properties": { "value": 4.644 }, "geometry": { "type": "Point", "coordinates": [ 129.329849, 35.47879, 30.0 ] } },
{ "type": "Feature", "properties": { "value": 11.359 }, "geometry": { "type": "Point", "coordinates": [ 129.325439, 35.479706, 30.0 ] } },
{ "type": "Feature", "properties": { "value": 63.437 }, "geometry": { "type": "Point", "coordinates": [ 129.326553, 35.479702, 30.0 ] } },
{ "type": "Feature", "properties": { "value": 98.145 }, "geometry": { "type": "Point", "coordinates": [ 129.327652, 35.479698, 30.0 ] } },
{ "type": "Feature", "properties": { "value": 38.972 }, "geometry": { "type": "Point", "coordinates": [ 129.328751, 35.479694, 30.0 ] } },
{ "type": "Feature", "properties": { "value": 3.8038 }, "geometry": { "type": "Point", "coordinates": [ 129.329849, 35.479691, 30.0 ] } },
{ "type": "Feature", "properties": { "value": 0.75 }, "geometry": { "type": "Point", "coordinates": [ 129.324341, 35.48061, 30.0 ] } },
{ "type": "Feature", "properties": { "value": 18.859 }, "geometry": { "type": "Point", "coordinates": [ 129.325455, 35.480606, 30.0 ] } },
{ "type": "Feature", "properties": { "value": 82.931 }, "geometry": { "type": "Point", "coordinates": [ 129.326553, 35.480602, 30.0 ] } },
{ "type": "Feature", "properties": { "value": 105.93 }, "geometry": { "type": "Point", "coordinates": [ 129.327652, 35.480598, 30.0 ] } },
{ "type": "Feature", "properties": { "value": 35.904 }, "geometry": { "type": "Point", "coordinates": [ 129.328751, 35.480595, 30.0 ] } },
{ "type": "Feature", "properties": { "value": 3.1439 }, "geometry": { "type": "Point", "coordinates": [ 129.329849, 35.480595, 30.0 ] } },
{ "type": "Feature", "properties": { "value": 2.6753 }, "geometry": { "type": "Point", "coordinates": [ 129.324356, 35.48151, 30.0 ] } },
{ "type": "Feature", "properties": { "value": 30.431 }, "geometry": { "type": "Point", "coordinates": [ 129.325455, 35.481506, 30.0 ] } },
{ "type": "Feature", "properties": { "value": 100.06 }, "geometry": { "type": "Point", "coordinates": [ 129.326553, 35.481503, 30.0 ] } },
{ "type": "Feature", "properties": { "value": 100.29 }, "geometry": { "type": "Point", "coordinates": [ 129.327652, 35.481503, 30.0 ] } },
{ "type": "Feature", "properties": { "value": 29.323 }, "geometry": { "type": "Point", "coordinates": [ 129.328751, 35.481499, 30.0 ] } },
{ "type": "Feature", "properties": { "value": 2.409 }, "geometry": { "type": "Point", "coordinates": [ 129.329865, 35.481495, 30.0 ] } },
{ "type": "Feature", "properties": { "value": 0.0002 }, "geometry": { "type": "Point", "coordinates": [ 129.319946, 35.482422, 30.0 ] } },
{ "type": "Feature", "properties": { "value": 0.0001 }, "geometry": { "type": "Point", "coordinates": [ 129.321045, 35.482418, 30.0 ] } },
{ "type": "Feature", "properties": { "value": 5.9136 }, "geometry": { "type": "Point", "coordinates": [ 129.324356, 35.48241, 30.0 ] } },
{ "type": "Feature", "properties": { "value": 43.95 }, "geometry": { "type": "Point", "coordinates": [ 129.325455, 35.482407, 30.0 ] } },
{ "type": "Feature", "properties": { "value": 106.92 }, "geometry": { "type": "Point", "coordinates": [ 129.326553, 35.482407, 30.0 ] } },
{ "type": "Feature", "properties": { "value": 84.831 }, "geometry": { "type": "Point", "coordinates": [ 129.327652, 35.482403, 30.0 ] } },
{ "type": "Feature", "properties": { "value": 22.026 }, "geometry": { "type": "Point", "coordinates": [ 129.328766, 35.482399, 30.0 ] } },
{ "type": "Feature", "properties": { "value": 1.7568 }, "geometry": { "type": "Point", "coordinates": [ 129.329865, 35.482395, 30.0 ] } },
{ "type": "Feature", "properties": { "value": 0.0 }, "geometry": { "type": "Point", "coordinates": [ 129.318848, 35.483326, 30.0 ] } },
{ "type": "Feature", "properties": { "value": 0.1034 }, "geometry": { "type": "Point", "coordinates": [ 129.319946, 35.483322, 30.0 ] } },
{ "type": "Feature", "properties": { "value": 0.0088 }, "geometry": { "type": "Point", "coordinates": [ 129.321045, 35.483322, 30.0 ] } },
{ "type": "Feature", "properties": { "value": 10.873 }, "geometry": { "type": "Point", "coordinates": [ 129.324356, 35.483311, 30.0 ] } },
{ "type": "Feature", "properties": { "value": 57.544 }, "geometry": { "type": "Point", "coordinates": [ 129.325455, 35.483311, 30.0 ] } },
{ "type": "Feature", "properties": { "value": 107.58 }, "geometry": { "type": "Point", "coordinates": [ 129.326553, 35.483307, 30.0 ] } },
{ "type": "Feature", "properties": { "value": 72.492 }, "geometry": { "type": "Point", "coordinates": [ 129.327667, 35.483303, 30.0 ] } },
{ "type": "Feature", "properties": { "value": 17.48 }, "geometry": { "type": "Point", "coordinates": [ 129.328766, 35.483299, 30.0 ] } },
{ "type": "Feature", "properties": { "value": 1.1407 }, "geometry": { "type": "Point", "coordinates": [ 129.329865, 35.483295, 30.0 ] } },
{ "type": "Feature", "properties": { "value": 0.0 }, "geometry": { "type": "Point", "coordinates": [ 129.317749, 35.48423, 30.0 ] } },
{ "type": "Feature", "properties": { "value": 1.3318 }, "geometry": { "type": "Point", "coordinates": [ 129.318848, 35.48423, 30.0 ] } },
{ "type": "Feature", "properties": { "value": 1.2765 }, "geometry": { "type": "Point", "coordinates": [ 129.319946, 35.484226, 30.0 ] } },
{ "type": "Feature", "properties": { "value": 0.0057 }, "geometry": { "type": "Point", "coordinates": [ 129.32106, 35.484222, 30.0 ] } },
{ "type": "Feature", "properties": { "value": 1.4719 }, "geometry": { "type": "Point", "coordinates": [ 129.323257, 35.484215, 30.0 ] } },
{ "type": "Feature", "properties": { "value": 18.592 }, "geometry": { "type": "Point", "coordinates": [ 129.324356, 35.484215, 30.0 ] } },
{ "type": "Feature", "properties": { "value": 72.241 }, "geometry": { "type": "Point", "coordinates": [ 129.325455, 35.484211, 30.0 ] } },
{ "type": "Feature", "properties": { "value": 108.14 }, "geometry": { "type": "Point", "coordinates": [ 129.326569, 35.484207, 30.0 ] } },
{ "type": "Feature", "properties": { "value": 63.985 }, "geometry": { "type": "Point", "coordinates": [ 129.327667, 35.484203, 30.0 ] } },
{ "type": "Feature", "properties": { "value": 14.049 }, "geometry": { "type": "Point", "coordinates": [ 129.328766, 35.484203, 30.0 ] } },
{ "type": "Feature", "properties": { "value": 0.3888 }, "geometry": { "type": "Point", "coordinates": [ 129.329865, 35.4842, 30.0 ] } },
{ "type": "Feature", "properties": { "value": 0.0 }, "geometry": { "type": "Point", "coordinates": [ 129.31665, 35.485134, 30.0 ] } },
{ "type": "Feature", "properties": { "value": 0.8477 }, "geometry": { "type": "Point", "coordinates": [ 129.317749, 35.485134, 30.0 ] } },
{ "type": "Feature", "properties": { "value": 16.928 }, "geometry": { "type": "Point", "coordinates": [ 129.318848, 35.48513, 30.0 ] } },
{ "type": "Feature", "properties": { "value": 7.2734 }, "geometry": { "type": "Point", "coordinates": [ 129.319962, 35.485126, 30.0 ] } },
{ "type": "Feature", "properties": { "value": 0.0 }, "geometry": { "type": "Point", "coordinates": [ 129.32106, 35.485123, 30.0 ] } },
{ "type": "Feature", "properties": { "value": 4.0721 }, "geometry": { "type": "Point", "coordinates": [ 129.323257, 35.485119, 30.0 ] } },
{ "type": "Feature", "properties": { "value": 29.607 }, "geometry": { "type": "Point", "coordinates": [ 129.324371, 35.485115, 30.0 ] } },
{ "type": "Feature", "properties": { "value": 86.259 }, "geometry": { "type": "Point", "coordinates": [ 129.32547, 35.485111, 30.0 ] } },
{ "type": "Feature", "properties": { "value": 104.14 }, "geometry": { "type": "Point", "coordinates": [ 129.326569, 35.485107, 30.0 ] } },
{ "type": "Feature", "properties": { "value": 52.214 }, "geometry": { "type": "Point", "coordinates": [ 129.327667, 35.485107, 30.0 ] } },
{ "type": "Feature", "properties": { "value": 9.9365 }, "geometry": { "type": "Point", "coordinates": [ 129.328766, 35.485104, 30.0 ] } },
{ "type": "Feature", "properties": { "value": 0.1774 }, "geometry": { "type": "Point", "coordinates": [ 129.32988, 35.4851, 30.0 ] } },
{ "type": "Feature", "properties": { "value": 0.0495 }, "geometry": { "type": "Point", "coordinates": [ 129.31665, 35.486038, 30.0 ] } },
{ "type": "Feature", "properties": { "value": 25.465 }, "geometry": { "type": "Point", "coordinates": [ 129.317749, 35.486034, 30.0 ] } },
{ "type": "Feature", "properties": { "value": 36.537 }, "geometry": { "type": "Point", "coordinates": [ 129.318863, 35.486031, 30.0 ] } },
{ "type": "Feature", "properties": { "value": 4.4149 }, "geometry": { "type": "Point", "coordinates": [ 129.319962, 35.486027, 30.0 ] } },
{ "type": "Feature", "properties": { "value": 0.0 }, "geometry": { "type": "Point", "coordinates": [ 129.32106, 35.486027, 30.0 ] } },
{ "type": "Feature", "properties": { "value": 8.8666 }, "geometry": { "type": "Point", "coordinates": [ 129.323273, 35.486019, 30.0 ] } },
{ "type": "Feature", "properties": { "value": 42.966 }, "geometry": { "type": "Point", "coordinates": [ 129.324371, 35.486015, 30.0 ] } },
{ "type": "Feature", "properties": { "value": 94.362 }, "geometry": { "type": "Point", "coordinates": [ 129.32547, 35.486012, 30.0 ] } },
{ "type": "Feature", "properties": { "value": 91.778 }, "geometry": { "type": "Point", "coordinates": [ 129.326569, 35.486012, 30.0 ] } },
{ "type": "Feature", "properties": { "value": 38.346 }, "geometry": { "type": "Point", "coordinates": [ 129.327667, 35.486008, 30.0 ] } },
{ "type": "Feature", "properties": { "value": 6.2472 }, "geometry": { "type": "Point", "coordinates": [ 129.328781, 35.486004, 30.0 ] } },
{ "type": "Feature", "properties": { "value": 0.0173 }, "geometry": { "type": "Point", "coordinates": [ 129.315552, 35.486942, 30.0 ] } },
{ "type": "Feature", "properties": { "value": 11.788 }, "geometry": { "type": "Point", "coordinates": [ 129.31665, 35.486938, 30.0 ] } },
{ "type": "Feature", "properties": { "value": 59.919 }, "geometry": { "type": "Point", "coordinates": [ 129.317764, 35.486935, 30.0 ] } },
{ "type": "Feature", "properties": { "value": 37.326 }, "geometry": { "type": "Point", "coordinates": [ 129.318863, 35.486931, 30.0 ] } },
{ "type": "Feature", "properties": { "value": 0.1009 }, "geometry": { "type": "Point", "coordinates": [ 129.319962, 35.486931, 30.0 ] } },
{ "type": "Feature", "properties": { "value": 1.7966 }, "geometry": { "type": "Point", "coordinates": [ 129.322174, 35.486923, 30.0 ] } },
{ "type": "Feature", "properties": { "value": 16.767 }, "geometry": { "type": "Point", "coordinates": [ 129.323273, 35.486919, 30.0 ] } },
{ "type": "Feature", "properties": { "value": 56.911 }, "geometry": { "type": "Point", "coordinates": [ 129.324371, 35.486916, 30.0 ] } },
{ "type": "Feature", "properties": { "value": 94.577 }, "geometry": { "type": "Point", "coordinates": [ 129.32547, 35.486916, 30.0 ] } },
{ "type": "Feature", "properties": { "value": 75.241 }, "geometry": { "type": "Point", "coordinates": [ 129.326569, 35.486912, 30.0 ] } },
{ "type": "Feature", "properties": { "value": 26.652 }, "geometry": { "type": "Point", "coordinates": [ 129.327682, 35.486908, 30.0 ] } },
{ "type": "Feature", "properties": { "value": 3.7831 }, "geometry": { "type": "Point", "coordinates": [ 129.328781, 35.486904, 30.0 ] } },
{ "type": "Feature", "properties": { "value": 0.074 }, "geometry": { "type": "Point", "coordinates": [ 129.314453, 35.487846, 30.0 ] } },
{ "type": "Feature", "properties": { "value": 10.835 }, "geometry": { "type": "Point", "coordinates": [ 129.315552, 35.487843, 30.0 ] } },
{ "type": "Feature", "properties": { "value": 84.113 }, "geometry": { "type": "Point", "coordinates": [ 129.316666, 35.487839, 30.0 ] } },
{ "type": "Feature", "properties": { "value": 78.787 }, "geometry": { "type": "Point", "coordinates": [ 129.317764, 35.487835, 30.0 ] } },
{ "type": "Feature", "properties": { "value": 8.7168 }, "geometry": { "type": "Point", "coordinates": [ 129.318863, 35.487835, 30.0 ] } },
{ "type": "Feature", "properties": { "value": 0.0003 }, "geometry": { "type": "Point", "coordinates": [ 129.319962, 35.487831, 30.0 ] } },
{ "type": "Feature", "properties": { "value": 4.8365 }, "geometry": { "type": "Point", "coordinates": [ 129.322174, 35.487823, 30.0 ] } },
{ "type": "Feature", "properties": { "value": 28.519 }, "geometry": { "type": "Point", "coordinates": [ 129.323273, 35.48782, 30.0 ] } },
{ "type": "Feature", "properties": { "value": 71.42 }, "geometry": { "type": "Point", "coordinates": [ 129.324371, 35.48782, 30.0 ] } },
{ "type": "Feature", "properties": { "value": 92.572 }, "geometry": { "type": "Point", "coordinates": [ 129.32547, 35.487816, 30.0 ] } },
{ "type": "Feature", "properties": { "value": 60.11 }, "geometry": { "type": "Point", "coordinates": [ 129.326584, 35.487812, 30.0 ] } },
{ "type": "Feature", "properties": { "value": 18.004 }, "geometry": { "type": "Point", "coordinates": [ 129.327682, 35.487808, 30.0 ] } },
{ "type": "Feature", "properties": { "value": 2.1786 }, "geometry": { "type": "Point", "coordinates": [ 129.328781, 35.487808, 30.0 ] } },
{ "type": "Feature", "properties": { "value": 0.0302 }, "geometry": { "type": "Point", "coordinates": [ 129.313354, 35.48875, 30.0 ] } },
{ "type": "Feature", "properties": { "value": 8.0911 }, "geometry": { "type": "Point", "coordinates": [ 129.314453, 35.488747, 30.0 ] } },
{ "type": "Feature", "properties": { "value": 88.606 }, "geometry": { "type": "Point", "coordinates": [ 129.315567, 35.488743, 30.0 ] } },
{ "type": "Feature", "properties": { "value": 125.14 }, "geometry": { "type": "Point", "coordinates": [ 129.316666, 35.488739, 30.0 ] } },
{ "type": "Feature", "properties": { "value": 47.156 }, "geometry": { "type": "Point", "coordinates": [ 129.317764, 35.488739, 30.0 ] } },
{ "type": "Feature", "properties": { "value": 0.2456 }, "geometry": { "type": "Point", "coordinates": [ 129.318863, 35.488735, 30.0 ] } },
{ "type": "Feature", "properties": { "value": 1.2919 }, "geometry": { "type": "Point", "coordinates": [ 129.321075, 35.488728, 30.0 ] } },
{ "type": "Feature", "properties": { "value": 12.432 }, "geometry": { "type": "Point", "coordinates": [ 129.322174, 35.488728, 30.0 ] } },
{ "type": "Feature", "properties": { "value": 45.605 }, "geometry": { "type": "Point", "coordinates": [ 129.323273, 35.488724, 30.0 ] } },
{ "type": "Feature", "properties": { "value": 88.504 }, "geometry": { "type": "Point", "coordinates": [ 129.324371, 35.48872, 30.0 ] } },
{ "type": "Feature", "properties": { "value": 90.939 }, "geometry": { "type": "Point", "coordinates": [ 129.325485, 35.488716, 30.0 ] } },
{ "type": "Feature", "properties": { "value": 47.409 }, "geometry": { "type": "Point", "coordinates": [ 129.326584, 35.488712, 30.0 ] } },
{ "type": "Feature", "properties": { "value": 11.718 }, "geometry": { "type": "Point", "coordinates": [ 129.327682, 35.488712, 30.0 ] } },
{ "type": "Feature", "properties": { "value": 0.9934 }, "geometry": { "type": "Point", "coordinates": [ 129.328781, 35.488708, 30.0 ] } },
{ "type": "Feature", "properties": { "value": 2.2051 }, "geometry": { "type": "Point", "coordinates": [ 129.313354, 35.489651, 30.0 ] } },
{ "type": "Feature", "properties": { "value": 52.525 }, "geometry": { "type": "Point", "coordinates": [ 129.314468, 35.489647, 30.0 ] } },
{ "type": "Feature", "properties": { "value": 127.89 }, "geometry": { "type": "Point", "coordinates": [ 129.315567, 35.489643, 30.0 ] } },
{ "type": "Feature", "properties": { "value": 75.081 }, "geometry": { "type": "Point", "coordinates": [ 129.316666, 35.489643, 30.0 ] } },
{ "type": "Feature", "properties": { "value": 2.9194 }, "geometry": { "type": "Point", "coordinates": [ 129.317764, 35.489639, 30.0 ] } },
{ "type": "Feature", "properties": { "value": 0.0007 }, "geometry": { "type": "Point", "coordinates": [ 129.318878, 35.489635, 30.0 ] } },
{ "type": "Feature", "properties": { "value": 4.5713 }, "geometry": { "type": "Point", "coordinates": [ 129.321075, 35.489632, 30.0 ] } },
{ "type": "Feature", "properties": { "value": 23.853 }, "geometry": { "type": "Point", "coordinates": [ 129.322174, 35.489628, 30.0 ] } },
{ "type": "Feature", "properties": { "value": 67.429 }, "geometry": { "type": "Point", "coordinates": [ 129.323273, 35.489624, 30.0 ] } },
{ "type": "Feature", "properties": { "value": 104.04 }, "geometry": { "type": "Point", "coordinates": [ 129.324387, 35.48962, 30.0 ] } },
{ "type": "Feature", "properties": { "value": 85.086 }, "geometry": { "type": "Point", "coordinates": [ 129.325485, 35.489616, 30.0 ] } },
{ "type": "Feature", "properties": { "value": 35.246 }, "geometry": { "type": "Point", "coordinates": [ 129.326584, 35.489616, 30.0 ] } },
{ "type": "Feature", "properties": { "value": 7.0655 }, "geometry": { "type": "Point", "coordinates": [ 129.327682, 35.489613, 30.0 ] } },
{ "type": "Feature", "properties": { "value": 1.3021 }, "geometry": { "type": "Point", "coordinates": [ 129.312271, 35.490555, 30.0 ] } },
{ "type": "Feature", "properties": { "value": 28.836 }, "geometry": { "type": "Point", "coordinates": [ 129.31337, 35.490551, 30.0 ] } },
{ "type": "Feature", "properties": { "value": 119.02 }, "geometry": { "type": "Point", "coordinates": [ 129.314468, 35.490547, 30.0 ] } },
{ "type": "Feature", "properties": { "value": 116.45 }, "geometry": { "type": "Point", "coordinates": [ 129.315567, 35.490547, 30.0 ] } },
{ "type": "Feature", "properties": { "value": 20.287 }, "geometry": { "type": "Point", "coordinates": [ 129.316666, 35.490543, 30.0 ] } },
{ "type": "Feature", "properties": { "value": 0.0857 }, "geometry": { "type": "Point", "coordinates": [ 129.31778, 35.49054, 30.0 ] } },
{ "type": "Feature", "properties": { "value": 1.4894 }, "geometry": { "type": "Point", "coordinates": [ 129.319977, 35.490536, 30.0 ] } },
{ "type": "Feature", "properties": { "value": 11.158 }, "geometry": { "type": "Point", "coordinates": [ 129.321075, 35.490532, 30.0 ] } },
{ "type": "Feature", "properties": { "value": 40.174 }, "geometry": { "type": "Point", "coordinates": [ 129.322174, 35.490528, 30.0 ] } },
{ "type": "Feature", "properties": { "value": 85.519 }, "geometry": { "type": "Point", "coordinates": [ 129.323288, 35.490524, 30.0 ] } },
{ "type": "Feature", "properties": { "value": 103.8 }, "geometry": { "type": "Point", "coordinates": [ 129.324387, 35.490524, 30.0 ] } },
{ "type": "Feature", "properties": { "value": 68.617 }, "geometry": { "type": "Point", "coordinates": [ 129.325485, 35.49052, 30.0 ] } },
{ "type": "Feature", "properties": { "value": 23.189 }, "geometry": { "type": "Point", "coordinates": [ 129.326584, 35.490517, 30.0 ] } },
{ "type": "Feature", "properties": { "value": 3.6878 }, "geometry": { "type": "Point", "coordinates": [ 129.327698, 35.490513, 30.0 ] } },
{ "type": "Feature", "properties": { "value": 1.9052 }, "geometry": { "type": "Point", "coordinates": [ 129.311172, 35.491459, 30.0 ] } },
{ "type": "Feature", "properties": { "value": 22.392 }, "geometry": { "type": "Point", "coordinates": [ 129.312271, 35.491455, 30.0 ] } },
{ "type": "Feature", "properties": { "value": 103.52 }, "geometry": { "type": "Point", "coordinates": [ 129.31337, 35.491451, 30.0 ] } },
{ "type": "Feature", "properties": { "value": 146.88 }, "geometry": { "type": "Point", "coordinates": [ 129.314468, 35.491451, 30.0 ] } },
{ "type": "Feature", "properties": { "value": 64.909 }, "geometry": { "type": "Point", "coordinates": [ 129.315567, 35.491447, 30.0 ] } },
{ "type": "Feature", "properties": { "value": 3.3324 }, "geometry": { "type": "Point", "coordinates": [ 129.316681, 35.491444, 30.0 ] } },
{ "type": "Feature", "properties": { "value": 5.2086 }, "geometry": { "type": "Point", "coordinates": [ 129.319977, 35.491436, 30.0 ] } },
{ "type": "Feature", "properties": { "value": 22.655 }, "geometry": { "type": "Point", "coordinates": [ 129.321091, 35.491432, 30.0 ] } },
{ "type": "Feature", "properties": { "value": 60.21 }, "geometry": { "type": "Point", "coordinates": [ 129.322189, 35.491428, 30.0 ] } },
{ "type": "Feature", "properties": { "value": 96.903 }, "geometry": { "type": "Point", "coordinates": [ 129.323288, 35.491428, 30.0 ] } },
{ "type": "Feature", "properties": { "value": 90.896 }, "geometry": { "type": "Point", "coordinates": [ 129.324387, 35.491425, 30.0 ] } },
{ "type": "Feature", "properties": { "value": 47.121 }, "geometry": { "type": "Point", "coordinates": [ 129.325485, 35.491421, 30.0 ] } },
{ "type": "Feature", "properties": { "value": 13.247 }, "geometry": { "type": "Point", "coordinates": [ 129.326599, 35.491417, 30.0 ] } },
{ "type": "Feature", "properties": { "value": 1.6289 }, "geometry": { "type": "Point", "coordinates": [ 129.327698, 35.491413, 30.0 ] } },
{ "type": "Feature", "properties": { "value": 2.0979 }, "geometry": { "type": "Point", "coordinates": [ 129.310074, 35.492363, 30.0 ] } },
{ "type": "Feature", "properties": { "value": 19.559 }, "geometry": { "type": "Point", "coordinates": [ 129.311172, 35.492359, 30.0 ] } },
{ "type": "Feature", "properties": { "value": 84.607 }, "geometry": { "type": "Point", "coordinates": [ 129.312271, 35.492355, 30.0 ] } },
{ "type": "Feature", "properties": { "value": 152.93 }, "geometry": { "type": "Point", "coordinates": [ 129.31337, 35.492355, 30.0 ] } },
{ "type": "Feature", "properties": { "value": 105.16 }, "geometry": { "type": "Point", "coordinates": [ 129.314468, 35.492352, 30.0 ] } },
{ "type": "Feature", "properties": { "value": 15.905 }, "geometry": { "type": "Point", "coordinates": [ 129.315582, 35.492348, 30.0 ] } },
{ "type": "Feature", "properties": { "value": 0.1774 }, "geometry": { "type": "Point", "coordinates": [ 129.316681, 35.492344, 30.0 ] } },
{ "type": "Feature", "properties": { "value": 2.499 }, "geometry": { "type": "Point", "coordinates": [ 129.318878, 35.49234, 30.0 ] } },
{ "type": "Feature", "properties": { "value": 12.793 }, "geometry": { "type": "Point", "coordinates": [ 129.319992, 35.492336, 30.0 ] } },
{ "type": "Feature", "properties": { "value": 39.919 }, "geometry": { "type": "Point", "coordinates": [ 129.321091, 35.492332, 30.0 ] } },
{ "type": "Feature", "properties": { "value": 79.778 }, "geometry": { "type": "Point", "coordinates": [ 129.322189, 35.492332, 30.0 ] } },
{ "type": "Feature", "properties": { "value": 98.654 }, "geometry": { "type": "Point", "coordinates": [ 129.323288, 35.492329, 30.0 ] } },
{ "type": "Feature", "properties": { "value": 69.801 }, "geometry": { "type": "Point", "coordinates": [ 129.324387, 35.492325, 30.0 ] } },
{ "type": "Feature", "properties": { "value": 28.229 }, "geometry": { "type": "Point", "coordinates": [ 129.3255, 35.492321, 30.0 ] } },
{ "type": "Feature", "properties": { "value": 6.5922 }, "geometry": { "type": "Point", "coordinates": [ 129.326599, 35.492317, 30.0 ] } },
{ "type": "Feature", "properties": { "value": 0.1408 }, "geometry": { "type": "Point", "coordinates": [ 129.327698, 35.492317, 30.0 ] } },
{ "type": "Feature", "properties": { "value": 1.2354 }, "geometry": { "type": "Point", "coordinates": [ 129.308975, 35.493267, 30.0 ] } },
{ "type": "Feature", "properties": { "value": 14.414 }, "geometry": { "type": "Point", "coordinates": [ 129.310074, 35.493263, 30.0 ] } },
{ "type": "Feature", "properties": { "value": 65.066 }, "geometry": { "type": "Point", "coordinates": [ 129.311172, 35.493259, 30.0 ] } },
{ "type": "Feature", "properties": { "value": 132.98 }, "geometry": { "type": "Point", "coordinates": [ 129.312271, 35.493259, 30.0 ] } },
{ "type": "Feature", "properties": { "value": 124.8 }, "geometry": { "type": "Point", "coordinates": [ 129.31337, 35.493256, 30.0 ] } },
{ "type": "Feature", "properties": { "value": 41.349 }, "geometry": { "type": "Point", "coordinates": [ 129.314484, 35.493252, 30.0 ] } },
{ "type": "Feature", "properties": { "value": 2.3167 }, "geometry": { "type": "Point", "coordinates": [ 129.315582, 35.493248, 30.0 ] } },
{ "type": "Feature", "properties": { "value": 1.2458 }, "geometry": { "type": "Point", "coordinates": [ 129.31778, 35.493244, 30.0 ] } },
{ "type": "Feature", "properties": { "value": 7.6483 }, "geometry": { "type": "Point", "coordinates": [ 129.318893, 35.49324, 30.0 ] } },
{ "type": "Feature", "properties": { "value": 26.311 }, "geometry": { "type": "Point", "coordinates": [ 129.319992, 35.493237, 30.0 ] } },
{ "type": "Feature", "properties": { "value": 61.014 }, "geometry": { "type": "Point", "coordinates": [ 129.321091, 35.493237, 30.0 ] } },
{ "type": "Feature", "properties": { "value": 92.892 }, "geometry": { "type": "Point", "coordinates": [ 129.322189, 35.493233, 30.0 ] } },
{ "type": "Feature", "properties": { "value": 89.375 }, "geometry": { "type": "Point", "coordinates": [ 129.323288, 35.493229, 30.0 ] } },
{ "type": "Feature", "properties": { "value": 50.184 }, "geometry": { "type": "Point", "coordinates": [ 129.324402, 35.493225, 30.0 ] } },
{ "type": "Feature", "properties": { "value": 15.956 }, "geometry": { "type": "Point", "coordinates": [ 129.3255, 35.493225, 30.0 ] } },
{ "type": "Feature", "properties": { "value": 2.9582 }, "geometry": { "type": "Point", "coordinates": [ 129.326599, 35.493221, 30.0 ] } },
{ "type": "Feature", "properties": { "value": 0.2971 }, "geometry": { "type": "Point", "coordinates": [ 129.307877, 35.494171, 30.0 ] } },
{ "type": "Feature", "properties": { "value": 6.8351 }, "geometry": { "type": "Point", "coordinates": [ 129.308975, 35.494167, 30.0 ] } },
{ "type": "Feature", "properties": { "value": 43.786 }, "geometry": { "type": "Point", "coordinates": [ 129.310074, 35.494164, 30.0 ] } },
{ "type": "Feature", "properties": { "value": 110.93 }, "geometry": { "type": "Point", "coordinates": [ 129.311172, 35.494164, 30.0 ] } },
{ "type": "Feature", "properties": { "value": 126.78 }, "geometry": { "type": "Point", "coordinates": [ 129.312271, 35.49416, 30.0 ] } },
{ "type": "Feature", "properties": { "value": 63.764 }, "geometry": { "type": "Point", "coordinates": [ 129.313385, 35.494156, 30.0 ] } },
{ "type": "Feature", "properties": { "value": 10.507 }, "geometry": { "type": "Point", "coordinates": [ 129.314484, 35.494152, 30.0 ] } },
{ "type": "Feature", "properties": { "value": 0.2849 }, "geometry": { "type": "Point", "coordinates": [ 129.315582, 35.494152, 30.0 ] } },
{ "type": "Feature", "properties": { "value": 0.3735 }, "geometry": { "type": "Point", "coordinates": [ 129.316681, 35.494148, 30.0 ] } },
{ "type": "Feature", "properties": { "value": 5.1395 }, "geometry": { "type": "Point", "coordinates": [ 129.317795, 35.494144, 30.0 ] } },
{ "type": "Feature", "properties": { "value": 18.259 }, "geometry": { "type": "Point", "coordinates": [ 129.318893, 35.494141, 30.0 ] } },
{ "type": "Feature", "properties": { "value": 46.117 }, "geometry": { "type": "Point", "coordinates": [ 129.319992, 35.494141, 30.0 ] } },
{ "type": "Feature", "properties": { "value": 80.871 }, "geometry": { "type": "Point", "coordinates": [ 129.321091, 35.494137, 30.0 ] } },
{ "type": "Feature", "properties": { "value": 94.911 }, "geometry": { "type": "Point", "coordinates": [ 129.322189, 35.494133, 30.0 ] } },
{ "type": "Feature", "properties": { "value": 71.719 }, "geometry": { "type": "Point", "coordinates": [ 129.323303, 35.494129, 30.0 ] } },
{ "type": "Feature", "properties": { "value": 32.95 }, "geometry": { "type": "Point", "coordinates": [ 129.324402, 35.494129, 30.0 ] } },
{ "type": "Feature", "properties": { "value": 8.5857 }, "geometry": { "type": "Point", "coordinates": [ 129.3255, 35.494125, 30.0 ] } },
{ "type": "Feature", "properties": { "value": 1.054 }, "geometry": { "type": "Point", "coordinates": [ 129.326599, 35.494122, 30.0 ] } },
{ "type": "Feature", "properties": { "value": 2.0409 }, "geometry": { "type": "Point", "coordinates": [ 129.307877, 35.495071, 30.0 ] } },
{ "type": "Feature", "properties": { "value": 20.541 }, "geometry": { "type": "Point", "coordinates": [ 129.308975, 35.495068, 30.0 ] } },
{ "type": "Feature", "properties": { "value": 78.719 }, "geometry": { "type": "Point", "coordinates": [ 129.310074, 35.495068, 30.0 ] } },
{ "type": "Feature", "properties": { "value": 122.7 }, "geometry": { "type": "Point", "coordinates": [ 129.311172, 35.495064, 30.0 ] } },
{ "type": "Feature", "properties": { "value": 85.748 }, "geometry": { "type": "Point", "coordinates": [ 129.312286, 35.49506, 30.0 ] } },
{ "type": "Feature", "properties": { "value": 23.321 }, "geometry": { "type": "Point", "coordinates": [ 129.313385, 35.495056, 30.0 ] } },
{ "type": "Feature", "properties": { "value": 1.9978 }, "geometry": { "type": "Point", "coordinates": [ 129.314484, 35.495056, 30.0 ] } },
{ "type": "Feature", "properties": { "value": 0.0666 }, "geometry": { "type": "Point", "coordinates": [ 129.315582, 35.495052, 30.0 ] } },
{ "type": "Feature", "properties": { "value": 3.8314 }, "geometry": { "type": "Point", "coordinates": [ 129.316696, 35.495049, 30.0 ] } },
{ "type": "Feature", "properties": { "value": 13.848 }, "geometry": { "type": "Point", "coordinates": [ 129.317795, 35.495045, 30.0 ] } },
{ "type": "Feature", "properties": { "value": 36.186 }, "geometry": { "type": "Point", "coordinates": [ 129.318893, 35.495045, 30.0 ] } },
{ "type": "Feature", "properties": { "value": 68.965 }, "geometry": { "type": "Point", "coordinates": [ 129.319992, 35.495041, 30.0 ] } },
{ "type": "Feature", "properties": { "value": 92.691 }, "geometry": { "type": "Point", "coordinates": [ 129.321091, 35.495037, 30.0 ] } },
{ "type": "Feature", "properties": { "value": 84.702 }, "geometry": { "type": "Point", "coordinates": [ 129.322205, 35.495033, 30.0 ] } },
{ "type": "Feature", "properties": { "value": 50.687 }, "geometry": { "type": "Point", "coordinates": [ 129.323303, 35.495033, 30.0 ] } },
{ "type": "Feature", "properties": { "value": 18.611 }, "geometry": { "type": "Point", "coordinates": [ 129.324402, 35.495029, 30.0 ] } },
{ "type": "Feature", "properties": { "value": 3.9477 }, "geometry": { "type": "Point", "coordinates": [ 129.3255, 35.495026, 30.0 ] } },
{ "type": "Feature", "properties": { "value": 0.0914 }, "geometry": { "type": "Point", "coordinates": [ 129.305679, 35.495979, 30.0 ] } },
{ "type": "Feature", "properties": { "value": 1.3043 }, "geometry": { "type": "Point", "coordinates": [ 129.306778, 35.495975, 30.0 ] } },
{ "type": "Feature", "properties": { "value": 8.877 }, "geometry": { "type": "Point", "coordinates": [ 129.307877, 35.495972, 30.0 ] } },
{ "type": "Feature", "properties": { "value": 43.255 }, "geometry": { "type": "Point", "coordinates": [ 129.308975, 35.495972, 30.0 ] } },
{ "type": "Feature", "properties": { "value": 102.71 }, "geometry": { "type": "Point", "coordinates": [ 129.310074, 35.495968, 30.0 ] } },
{ "type": "Feature", "properties": { "value": 107.09 }, "geometry": { "type": "Point", "coordinates": [ 129.311188, 35.495964, 30.0 ] } },
{ "type": "Feature", "properties": { "value": 47.395 }, "geometry": { "type": "Point", "coordinates": [ 129.312286, 35.495964, 30.0 ] } },
{ "type": "Feature", "properties": { "value": 7.3598 }, "geometry": { "type": "Point", "coordinates": [ 129.313385, 35.49596, 30.0 ] } },
{ "type": "Feature", "properties": { "value": 3.2686 }, "geometry": { "type": "Point", "coordinates": [ 129.315598, 35.495953, 30.0 ] } },
{ "type": "Feature", "properties": { "value": 11.433 }, "geometry": { "type": "Point", "coordinates": [ 129.316696, 35.495949, 30.0 ] } },
{ "type": "Feature", "properties": { "value": 29.89 }, "geometry": { "type": "Point", "coordinates": [ 129.317795, 35.495949, 30.0 ] } },
{ "type": "Feature", "properties": { "value": 59.471 }, "geometry": { "type": "Point", "coordinates": [ 129.318893, 35.495945, 30.0 ] } },
{ "type": "Feature", "properties": { "value": 87.239 }, "geometry": { "type": "Point", "coordinates": [ 129.319992, 35.495941, 30.0 ] } },
{ "type": "Feature", "properties": { "value": 91.189 }, "geometry": { "type": "Point", "coordinates": [ 129.321106, 35.495937, 30.0 ] } },
{ "type": "Feature", "properties": { "value": 65.538 }, "geometry": { "type": "Point", "coordinates": [ 129.322205, 35.495937, 30.0 ] } },
{ "type": "Feature", "properties": { "value": 30.192 }, "geometry": { "type": "Point", "coordinates": [ 129.323303, 35.495934, 30.0 ] } },
{ "type": "Feature", "properties": { "value": 8.9417 }, "geometry": { "type": "Point", "coordinates": [ 129.324402, 35.49593, 30.0 ] } },
{ "type": "Feature", "properties": { "value": 1.3589 }, "geometry": { "type": "Point", "coordinates": [ 129.325516, 35.495926, 30.0 ] } },
{ "type": "Feature", "properties": { "value": 0.362 }, "geometry": { "type": "Point", "coordinates": [ 129.303467, 35.496887, 30.0 ] } },
{ "type": "Feature", "properties": { "value": 1.3181 }, "geometry": { "type": "Point", "coordinates": [ 129.304581, 35.496883, 30.0 ] } },
{ "type": "Feature", "properties": { "value": 3.4947 }, "geometry": { "type": "Point", "coordinates": [ 129.305679, 35.49688, 30.0 ] } },
{ "type": "Feature", "properties": { "value": 9.5625 }, "geometry": { "type": "Point", "coordinates": [ 129.306778, 35.496876, 30.0 ] } },
{ "type": "Feature", "properties": { "value": 28.628 }, "geometry": { "type": "Point", "coordinates": [ 129.307877, 35.496876, 30.0 ] } },
{ "type": "Feature", "properties": { "value": 71.943 }, "geometry": { "type": "Point", "coordinates": [ 129.308975, 35.496872, 30.0 ] } },
{ "type": "Feature", "properties": { "value": 106.94 }, "geometry": { "type": "Point", "coordinates": [ 129.310089, 35.496868, 30.0 ] } },
{ "type": "Feature", "properties": { "value": 77.567 }, "geometry": { "type": "Point", "coordinates": [ 129.311188, 35.496868, 30.0 ] } },
{ "type": "Feature", "properties": { "value": 23.647 }, "geometry": { "type": "Point", "coordinates": [ 129.312286, 35.496864, 30.0 ] } },
{ "type": "Feature", "properties": { "value": 2.5666 }, "geometry": { "type": "Point", "coordinates": [ 129.313385, 35.496861, 30.0 ] } },
{ "type": "Feature", "properties": { "value": 3.2514 }, "geometry": { "type": "Point", "coordinates": [ 129.314499, 35.496857, 30.0 ] } },
{ "type": "Feature", "properties": { "value": 10.438 }, "geometry": { "type": "Point", "coordinates": [ 129.315598, 35.496857, 30.0 ] } },
{ "type": "Feature", "properties": { "value": 26.343 }, "geometry": { "type": "Point", "coordinates": [ 129.316696, 35.496853, 30.0 ] } },
{ "type": "Feature", "properties": { "value": 52.726 }, "geometry": { "type": "Point", "coordinates": [ 129.317795, 35.496849, 30.0 ] } },
{ "type": "Feature", "properties": { "value": 81.181 }, "geometry": { "type": "Point", "coordinates": [ 129.318893, 35.496845, 30.0 ] } },
{ "type": "Feature", "properties": { "value": 92.938 }, "geometry": { "type": "Point", "coordinates": [ 129.320007, 35.496841, 30.0 ] } },
{ "type": "Feature", "properties": { "value": 76.438 }, "geometry": { "type": "Point", "coordinates": [ 129.321106, 35.496841, 30.0 ] } },
{ "type": "Feature", "properties": { "value": 42.326 }, "geometry": { "type": "Point", "coordinates": [ 129.322205, 35.496838, 30.0 ] } },
{ "type": "Feature", "properties": { "value": 15.424 }, "geometry": { "type": "Point", "coordinates": [ 129.323303, 35.496834, 30.0 ] } },
{ "type": "Feature", "properties": { "value": 3.8264 }, "geometry": { "type": "Point", "coordinates": [ 129.324417, 35.49683, 30.0 ] } },
{ "type": "Feature", "properties": { "value": 0.1051 }, "geometry": { "type": "Point", "coordinates": [ 129.300171, 35.497795, 30.0 ] } },
{ "type": "Feature", "properties": { "value": 0.5483 }, "geometry": { "type": "Point", "coordinates": [ 129.30127, 35.497791, 30.0 ] } },
{ "type": "Feature", "properties": { "value": 1.5791 }, "geometry": { "type": "Point", "coordinates": [ 129.302368, 35.497791, 30.0 ] } },
{ "type": "Feature", "properties": { "value": 3.9439 }, "geometry": { "type": "Point", "coordinates": [ 129.303482, 35.497787, 30.0 ] } },
{ "type": "Feature", "properties": { "value": 8.8601 }, "geometry": { "type": "Point", "coordinates": [ 129.304581, 35.497784, 30.0 ] } },
{ "type": "Feature", "properties": { "value": 18.012 }, "geometry": { "type": "Point", "coordinates": [ 129.305679, 35.49778, 30.0 ] } },
{ "type": "Feature", "properties": { "value": 34.23 }, "geometry": { "type": "Point", "coordinates": [ 129.306778, 35.49778, 30.0 ] } },
{ "type": "Feature", "properties": { "value": 61.443 }, "geometry": { "type": "Point", "coordinates": [ 129.307877, 35.497776, 30.0 ] } },
{ "type": "Feature", "properties": { "value": 90.211 }, "geometry": { "type": "Point", "coordinates": [ 129.30899, 35.497772, 30.0 ] } },
{ "type": "Feature", "properties": { "value": 86.62 }, "geometry": { "type": "Point", "coordinates": [ 129.310089, 35.497772, 30.0 ] } },
{ "type": "Feature", "properties": { "value": 43.878 }, "geometry": { "type": "Point", "coordinates": [ 129.311188, 35.497768, 30.0 ] } },
{ "type": "Feature", "properties": { "value": 10.357 }, "geometry": { "type": "Point", "coordinates": [ 129.312286, 35.497765, 30.0 ] } },
{ "type": "Feature", "properties": { "value": 3.9068 }, "geometry": { "type": "Point", "coordinates": [ 129.3134, 35.497761, 30.0 ] } },
{ "type": "Feature", "properties": { "value": 9.9004 }, "geometry": { "type": "Point", "coordinates": [ 129.314499, 35.497761, 30.0 ] } },
{ "type": "Feature", "properties": { "value": 24.338 }, "geometry": { "type": "Point", "coordinates": [ 129.315598, 35.497757, 30.0 ] } },
{ "type": "Feature", "properties": { "value": 49.017 }, "geometry": { "type": "Point", "coordinates": [ 129.316696, 35.497753, 30.0 ] } },
{ "type": "Feature", "properties": { "value": 76.384 }, "geometry": { "type": "Point", "coordinates": [ 129.317795, 35.497749, 30.0 ] } },
{ "type": "Feature", "properties": { "value": 91.767 }, "geometry": { "type": "Point", "coordinates": [ 129.318909, 35.497749, 30.0 ] } },
{ "type": "Feature", "properties": { "value": 83.221 }, "geometry": { "type": "Point", "coordinates": [ 129.320007, 35.497746, 30.0 ] } },
{ "type": "Feature", "properties": { "value": 53.943 }, "geometry": { "type": "Point", "coordinates": [ 129.321106, 35.497742, 30.0 ] } },
{ "type": "Feature", "properties": { "value": 22.723 }, "geometry": { "type": "Point", "coordinates": [ 129.322205, 35.497738, 30.0 ] } },
{ "type": "Feature", "properties": { "value": 7.0841 }, "geometry": { "type": "Point", "coordinates": [ 129.323318, 35.497734, 30.0 ] } },
{ "type": "Feature", "properties": { "value": 1.2549 }, "geometry": { "type": "Point", "coordinates": [ 129.324417, 35.497734, 30.0 ] } },
{ "type": "Feature", "properties": { "value": 0.0451 }, "geometry": { "type": "Point", "coordinates": [ 129.297974, 35.498703, 30.0 ] } },
{ "type": "Feature", "properties": { "value": 0.3702 }, "geometry": { "type": "Point", "coordinates": [ 129.299072, 35.498699, 30.0 ] } },
{ "type": "Feature", "properties": { "value": 1.3975 }, "geometry": { "type": "Point", "coordinates": [ 129.300171, 35.498695, 30.0 ] } },
{ "type": "Feature", "properties": { "value": 3.6565 }, "geometry": { "type": "Point", "coordinates": [ 129.30127, 35.498695, 30.0 ] } },
{ "type": "Feature", "properties": { "value": 8.1175 }, "geometry": { "type": "Point", "coordinates": [ 129.302368, 35.498692, 30.0 ] } },
{ "type": "Feature", "properties": { "value": 16.49 }, "geometry": { "type": "Point", "coordinates": [ 129.303482, 35.498688, 30.0 ] } },
{ "type": "Feature", "properties": { "value": 29.956 }, "geometry": { "type": "Point", "coordinates": [ 129.304581, 35.498684, 30.0 ] } },
{ "type": "Feature", "properties": { "value": 47.607 }, "geometry": { "type": "Point", "coordinates": [ 129.305679, 35.498684, 30.0 ] } },
{ "type": "Feature", "properties": { "value": 65.982 }, "geometry": { "type": "Point", "coordinates": [ 129.306778, 35.49868, 30.0 ] } },
{ "type": "Feature", "properties": { "value": 79.998 }, "geometry": { "type": "Point", "coordinates": [ 129.307892, 35.498676, 30.0 ] } },
{ "type": "Feature", "properties": { "value": 77.198 }, "geometry": { "type": "Point", "coordinates": [ 129.30899, 35.498676, 30.0 ] } },
{ "type": "Feature", "properties": { "value": 49.5 }, "geometry": { "type": "Point", "coordinates": [ 129.310089, 35.498672, 30.0 ] } },
{ "type": "Feature", "properties": { "value": 17.885 }, "geometry": { "type": "Point", "coordinates": [ 129.311188, 35.498669, 30.0 ] } },
{ "type": "Feature", "properties": { "value": 5.3577 }, "geometry": { "type": "Point", "coordinates": [ 129.312302, 35.498665, 30.0 ] } },
{ "type": "Feature", "properties": { "value": 8.5617 }, "geometry": { "type": "Point", "coordinates": [ 129.3134, 35.498665, 30.0 ] } },
{ "type": "Feature", "properties": { "value": 21.818 }, "geometry": { "type": "Point", "coordinates": [ 129.314499, 35.498661, 30.0 ] } },
{ "type": "Feature", "properties": { "value": 45.599 }, "geometry": { "type": "Point", "coordinates": [ 129.315598, 35.498657, 30.0 ] } },
{ "type": "Feature", "properties": { "value": 73.292 }, "geometry": { "type": "Point", "coordinates": [ 129.316696, 35.498653, 30.0 ] } },
{ "type": "Feature", "properties": { "value": 90.828 }, "geometry": { "type": "Point", "coordinates": [ 129.31781, 35.498653, 30.0 ] } },
{ "type": "Feature", "properties": { "value": 79.932 }, "geometry": { "type": "Point", "coordinates": [ 129.318909, 35.49865, 30.0 ] } },
{ "type": "Feature", "properties": { "value": 62.653 }, "geometry": { "type": "Point", "coordinates": [ 129.320007, 35.498646, 30.0 ] } },
{ "type": "Feature", "properties": { "value": 29.939 }, "geometry": { "type": "Point", "coordinates": [ 129.321106, 35.498642, 30.0 ] } },
{ "type": "Feature", "properties": { "value": 10.499 }, "geometry": { "type": "Point", "coordinates": [ 129.32222, 35.498638, 30.0 ] } },
{ "type": "Feature", "properties": { "value": 2.6686 }, "geometry": { "type": "Point", "coordinates": [ 129.323318, 35.498638, 30.0 ] } },
{ "type": "Feature", "properties": { "value": 0.3263 }, "geometry": { "type": "Point", "coordinates": [ 129.297974, 35.499603, 30.0 ] } },
{ "type": "Feature", "properties": { "value": 1.5971 }, "geometry": { "type": "Point", "coordinates": [ 129.299072, 35.499599, 30.0 ] } },
{ "type": "Feature", "properties": { "value": 5.3031 }, "geometry": { "type": "Point", "coordinates": [ 129.300171, 35.499599, 30.0 ] } },
{ "type": "Feature", "properties": { "value": 12.511 }, "geometry": { "type": "Point", "coordinates": [ 129.30127, 35.499596, 30.0 ] } },
{ "type": "Feature", "properties": { "value": 24.061 }, "geometry": { "type": "Point", "coordinates": [ 129.302383, 35.499592, 30.0 ] } },
{ "type": "Feature", "properties": { "value": 40.111 }, "geometry": { "type": "Point", "coordinates": [ 129.303482, 35.499588, 30.0 ] } },
{ "type": "Feature", "properties": { "value": 58.223 }, "geometry": { "type": "Point", "coordinates": [ 129.304581, 35.499588, 30.0 ] } },
{ "type": "Feature", "properties": { "value": 71.877 }, "geometry": { "type": "Point", "coordinates": [ 129.305679, 35.499584, 30.0 ] } },
{ "type": "Feature", "properties": { "value": 74.201 }, "geometry": { "type": "Point", "coordinates": [ 129.306793, 35.49958, 30.0 ] } },
{ "type": "Feature", "properties": { "value": 62.992 }, "geometry": { "type": "Point", "coordinates": [ 129.307892, 35.49958, 30.0 ] } },
{ "type": "Feature", "properties": { "value": 41.492 }, "geometry": { "type": "Point", "coordinates": [ 129.30899, 35.499577, 30.0 ] } },
{ "type": "Feature", "properties": { "value": 18.396 }, "geometry": { "type": "Point", "coordinates": [ 129.310089, 35.499573, 30.0 ] } },
{ "type": "Feature", "properties": { "value": 6.0955 }, "geometry": { "type": "Point", "coordinates": [ 129.311203, 35.499569, 30.0 ] } },
{ "type": "Feature", "properties": { "value": 6.6428 }, "geometry": { "type": "Point", "coordinates": [ 129.312302, 35.499569, 30.0 ] } },
{ "type": "Feature", "properties": { "value": 17.166 }, "geometry": { "type": "Point", "coordinates": [ 129.3134, 35.499565, 30.0 ] } },
{ "type": "Feature", "properties": { "value": 37.89 }, "geometry": { "type": "Point", "coordinates": [ 129.314499, 35.499561, 30.0 ] } },
{ "type": "Feature", "properties": { "value": 65.817 }, "geometry": { "type": "Point", "coordinates": [ 129.315598, 35.499557, 30.0 ] } },
{ "type": "Feature", "properties": { "value": 86.139 }, "geometry": { "type": "Point", "coordinates": [ 129.316711, 35.499557, 30.0 ] } },
{ "type": "Feature", "properties": { "value": 82.273 }, "geometry": { "type": "Point", "coordinates": [ 129.31781, 35.499554, 30.0 ] } },
{ "type": "Feature", "properties": { "value": 57.464 }, "geometry": { "type": "Point", "coordinates": [ 129.318909, 35.49955, 30.0 ] } },
{ "type": "Feature", "properties": { "value": 36.7 }, "geometry": { "type": "Point", "coordinates": [ 129.320007, 35.499546, 30.0 ] } },
{ "type": "Feature", "properties": { "value": 13.974 }, "geometry": { "type": "Point", "coordinates": [ 129.321121, 35.499546, 30.0 ] } },
{ "type": "Feature", "properties": { "value": 4.2256 }, "geometry": { "type": "Point", "coordinates": [ 129.32222, 35.499542, 30.0 ] } },
{ "type": "Feature", "properties": { "value": 0.3807 }, "geometry": { "type": "Point", "coordinates": [ 129.323318, 35.499538, 30.0 ] } },
{ "type": "Feature", "properties": { "value": 0.1014 }, "geometry": { "type": "Point", "coordinates": [ 129.296875, 35.500507, 30.0 ] } },
{ "type": "Feature", "properties": { "value": 0.8481 }, "geometry": { "type": "Point", "coordinates": [ 129.297974, 35.500504, 30.0 ] } },
{ "type": "Feature", "properties": { "value": 3.9547 }, "geometry": { "type": "Point", "coordinates": [ 129.299072, 35.500504, 30.0 ] } },
{ "type": "Feature", "properties": { "value": 11.947 }, "geometry": { "type": "Point", "coordinates": [ 129.300171, 35.5005, 30.0 ] } },
{ "type": "Feature", "properties": { "value": 25.983 }, "geometry": { "type": "Point", "coordinates": [ 129.301285, 35.500496, 30.0 ] } },
{ "type": "Feature", "properties": { "value": 43.831 }, "geometry": { "type": "Point", "coordinates": [ 129.302383, 35.500492, 30.0 ] } },
{ "type": "Feature", "properties": { "value": 60.49 }, "geometry": { "type": "Point", "coordinates": [ 129.303482, 35.500492, 30.0 ] } },
{ "type": "Feature", "properties": { "value": 69.914 }, "geometry": { "type": "Point", "coordinates": [ 129.304581, 35.500488, 30.0 ] } },
{ "type": "Feature", "properties": { "value": 66.486 }, "geometry": { "type": "Point", "coordinates": [ 129.305695, 35.500484, 30.0 ] } },
{ "type": "Feature", "properties": { "value": 51.09 }, "geometry": { "type": "Point", "coordinates": [ 129.306793, 35.500484, 30.0 ] } },
{ "type": "Feature", "properties": { "value": 30.911 }, "geometry": { "type": "Point", "coordinates": [ 129.307892, 35.500481, 30.0 ] } },
{ "type": "Feature", "properties": { "value": 13.908 }, "geometry": { "type": "Point", "coordinates": [ 129.30899, 35.500477, 30.0 ] } },
{ "type": "Feature", "properties": { "value": 4.733 }, "geometry": { "type": "Point", "coordinates": [ 129.310104, 35.500473, 30.0 ] } },
{ "type": "Feature", "properties": { "value": 3.7954 }, "geometry": { "type": "Point", "coordinates": [ 129.311203, 35.500473, 30.0 ] } },
{ "type": "Feature", "properties": { "value": 10.577 }, "geometry": { "type": "Point", "coordinates": [ 129.312302, 35.500469, 30.0 ] } },
{ "type": "Feature", "properties": { "value": 26.22 }, "geometry": { "type": "Point", "coordinates": [ 129.3134, 35.500465, 30.0 ] } },
{ "type": "Feature", "properties": { "value": 48.859 }, "geometry": { "type": "Point", "coordinates": [ 129.314499, 35.500462, 30.0 ] } },
{ "type": "Feature", "properties": { "value": 69.819 }, "geometry": { "type": "Point", "coordinates": [ 129.315613, 35.500462, 30.0 ] } },
{ "type": "Feature", "properties": { "value": 74.486 }, "geometry": { "type": "Point", "coordinates": [ 129.316711, 35.500458, 30.0 ] } },
{ "type": "Feature", "properties": { "value": 57.589 }, "geometry": { "type": "Point", "coordinates": [ 129.31781, 35.500454, 30.0 ] } },
{ "type": "Feature", "properties": { "value": 34.919 }, "geometry": { "type": "Point", "coordinates": [ 129.318909, 35.50045, 30.0 ] } },
{ "type": "Feature", "properties": { "value": 17.182 }, "geometry": { "type": "Point", "coordinates": [ 129.320023, 35.50045, 30.0 ] } },
{ "type": "Feature", "properties": { "value": 5.6017 }, "geometry": { "type": "Point", "coordinates": [ 129.321121, 35.500446, 30.0 ] } },
{ "type": "Feature", "properties": { "value": 1.2656 }, "geometry": { "type": "Point", "coordinates": [ 129.32222, 35.500443, 30.0 ] } },
{ "type": "Feature", "properties": { "value": 0.1567 }, "geometry": { "type": "Point", "coordinates": [ 129.296875, 35.501408, 30.0 ] } },
{ "type": "Feature", "properties": { "value": 1.3058 }, "geometry": { "type": "Point", "coordinates": [ 129.297974, 35.501408, 30.0 ] } },
{ "type": "Feature", "properties": { "value": 5.7245 }, "geometry": { "type": "Point", "coordinates": [ 129.299072, 35.501404, 30.0 ] } },
{ "type": "Feature", "properties": { "value": 16.546 }, "geometry": { "type": "Point", "coordinates": [ 129.300186, 35.5014, 30.0 ] } },
{ "type": "Feature", "properties": { "value": 33.462 }, "geometry": { "type": "Point", "coordinates": [ 129.301285, 35.501396, 30.0 ] } },
{ "type": "Feature", "properties": { "value": 50.609 }, "geometry": { "type": "Point", "coordinates": [ 129.302383, 35.501396, 30.0 ] } },
{ "type": "Feature", "properties": { "value": 59.345 }, "geometry": { "type": "Point", "coordinates": [ 129.303482, 35.501392, 30.0 ] } },
{ "type": "Feature", "properties": { "value": 55.125 }, "geometry": { "type": "Point", "coordinates": [ 129.304596, 35.501389, 30.0 ] } },
{ "type": "Feature", "properties": { "value": 40.209 }, "geometry": { "type": "Point", "coordinates": [ 129.305695, 35.501389, 30.0 ] } },
{ "type": "Feature", "properties": { "value": 22.573 }, "geometry": { "type": "Point", "coordinates": [ 129.306793, 35.501385, 30.0 ] } },
{ "type": "Feature", "properties": { "value": 9.5651 }, "geometry": { "type": "Point", "coordinates": [ 129.307892, 35.501381, 30.0 ] } },
{ "type": "Feature", "properties": { "value": 3.0129 }, "geometry": { "type": "Point", "coordinates": [ 129.309006, 35.501377, 30.0 ] } },
{ "type": "Feature", "properties": { "value": 1.4364 }, "geometry": { "type": "Point", "coordinates": [ 129.310104, 35.501377, 30.0 ] } },
{ "type": "Feature", "properties": { "value": 3.9576 }, "geometry": { "type": "Point", "coordinates": [ 129.311203, 35.501373, 30.0 ] } },
{ "type": "Feature", "properties": { "value": 12.389 }, "geometry": { "type": "Point", "coordinates": [ 129.312302, 35.501369, 30.0 ] } },
{ "type": "Feature", "properties": { "value": 27.921 }, "geometry": { "type": "Point", "coordinates": [ 129.3134, 35.501366, 30.0 ] } },
{ "type": "Feature", "properties": { "value": 46.18 }, "geometry": { "type": "Point", "coordinates": [ 129.314514, 35.501366, 30.0 ] } },
{ "type": "Feature", "properties": { "value": 56.505 }, "geometry": { "type": "Point", "coordinates": [ 129.315613, 35.501362, 30.0 ] } },
{ "type": "Feature", "properties": { "value": 50.203 }, "geometry": { "type": "Point", "coordinates": [ 129.316711, 35.501358, 30.0 ] } },
{ "type": "Feature", "properties": { "value": 33.197 }, "geometry": { "type": "Point", "coordinates": [ 129.31781, 35.501354, 30.0 ] } },
{ "type": "Feature", "properties": { "value": 18.456 }, "geometry": { "type": "Point", "coordinates": [ 129.318924, 35.501354, 30.0 ] } },
{ "type": "Feature", "properties": { "value": 6.8677 }, "geometry": { "type": "Point", "coordinates": [ 129.320023, 35.50135, 30.0 ] } },
{ "type": "Feature", "properties": { "value": 1.8781 }, "geometry": { "type": "Point", "coordinates": [ 129.321121, 35.501347, 30.0 ] } }
]
}
