{
"type": "FeatureCollection",
"features": [
{ "type": "Feature", "properties": { "value": 7.4025 }, "geometry": { "type": "Point", "coordinates": [ 129.32756, 35.458969, 30.0 ] } },
{ "type": "Feature", "properties": { "value": 187.39 }, "geometry": { "type": "Point", "coordinates": [ 129.32756, 35.459869, 30.0 ] } },
{ "type": "Feature", "properties": { "value": 299.0 }, "geometry": { "type": "Point", "coordinates": [ 129.327576, 35.46077, 30.0 ] } },
{ "type": "Feature", "properties": { "value": 245.71 }, "geometry": { "type": "Point", "coordinates": [ 129.327576, 35.461674, 30.0 ] } },
{ "type": "Feature", "properties": { "value": 189.03 }, "geometry": { "type": "Point", "coordinates": [ 129.327576, 35.462574, 30.0 ] } },
{ "type": "Feature", "properties": { "value": 1.7897 }, "geometry": { "type": "Point", "coordinates": [ 129.328674, 35.46257, 30.0 ] } },
{ "type": "Feature", "properties": { "value": 119.38 }, "geometry": { "type": "Point", "coordinates": [ 129.327576, 35.463474, 30.0 ] } },
{ "type": "Feature", "properties": { "value": 15.299 }, "geometry": { "type": "Point", "coordinates": [ 129.32869, 35.46347, 30.0 ] } },
{ "type": "Feature", "properties": { "value": 68.329 }, "geometry": { "type": "Point", "coordinates": [ 129.327591, 35.464375, 30.0 ] } },
{ "type": "Feature", "properties": { "value": 56.857 }, "geometry": { "type": "Point", "coordinates": [ 129.32869, 35.464375, 30.0 ] } },
{ "type": "Feature", "properties": { "value": 32.705 }, "geometry": { "type": "Point", "coordinates": [ 129.327591, 35.465279, 30.0 ] } },
{ "type": "Feature", "properties": { "value": 92.435 }, "geometry": { "type": "Point", "coordinates": [ 129.32869, 35.465275, 30.0 ] } },
{ "type": "Feature", "properties": { "value": 14.674 }, "geometry": { "type": "Point", "coordinates": [ 129.327591, 35.466179, 30.0 ] } },
{ "type": "Feature", "properties": { "value": 95.155 }, "geometry": { "type": "Point", "coordinates": [ 129.32869, 35.466175, 30.0 ] } },
{ "type": "Feature", "properties": { "value": 6.9687 }, "geometry": { "type": "Point", "coordinates": [ 129.327591, 35.467079, 30.0 ] } },
{ "type": "Feature", "properties": { "value": 91.554 }, "geometry": { "type": "Point", "coordinates": [ 129.328705, 35.467075, 30.0 ] } },
{ "type": "Feature", "properties": { "value": 4.4648 }, "geometry": { "type": "Point", "coordinates": [ 129.329803, 35.467075, 30.0 ] } },
{ "type": "Feature", "properties": { "value": 3.1359 }, "geometry": { "type": "Point", "coordinates": [ 129.327606, 35.467983, 30.0 ] } },
{ "type": "Feature", "properties": { "value": 78.826 }, "geometry": { "type": "Point", "coordinates": [ 129.328705, 35.467979, 30.0 ] } },
{ "type": "Feature", "properties": { "value": 12.695 }, "geometry": { "type": "Point", "coordinates": [ 129.329803, 35.467976, 30.0 ] } },
{ "type": "Feature", "properties": { "value": 1.5382 }, "geometry": { "type": "Point", "coordinates": [ 129.327606, 35.468884, 30.0 ] } },
{ "type": "Feature", "properties": { "value": 62.869 }, "geometry": { "type": "Point", "coordinates": [ 129.328705, 35.46888, 30.0 ] } },
{ "type": "Feature", "properties": { "value": 29.535 }, "geometry": { "type": "Point", "coordinates": [ 129.329803, 35.468876, 30.0 ] } },
{ "type": "Feature", "properties": { "value": 47.619 }, "geometry": { "type": "Point", "coordinates": [ 129.328705, 35.46978, 30.0 ] } },
{ "type": "Feature", "properties": { "value": 59.527 }, "geometry": { "type": "Point", "coordinates": [ 129.329819, 35.469776, 30.0 ] } },
{ "type": "Feature", "properties": { "value": 2.0599 }, "geometry": { "type": "Point", "coordinates": [ 129.330917, 35.469776, 30.0 ] } },
{ "type": "Feature", "properties": { "value": 35.668 }, "geometry": { "type": "Point", "coordinates": [ 129.32872, 35.470684, 30.0 ] } },
{ "type": "Feature", "properties": { "value": 104.18 }, "geometry": { "type": "Point", "coordinates": [ 129.329819, 35.47068, 30.0 ] } },
{ "type": "Feature", "properties": { "value": 11.552 }, "geometry": { "type": "Point", "coordinates": [ 129.330917, 35.470676, 30.0 ] } },
{ "type": "Feature", "properties": { "value": 25.171 }, "geometry": { "type": "Point", "coordinates": [ 129.32872, 35.471584, 30.0 ] } },
{ "type": "Feature", "properties": { "value": 133.21 }, "geometry": { "type": "Point", "coordinates": [ 129.329819, 35.471581, 30.0 ] } },
{ "type": "Feature", "properties": { "value": 33.735 }, "geometry": { "type": "Point", "coordinates": [ 129.330917, 35.471577, 30.0 ] } },
{ "type": "Feature", "properties": { "value": 13.426 }, "geometry": { "type": "Point", "coordinates": [ 129.32872, 35.472485, 30.0 ] } },
{ "type": "Feature", "properties": { "value": 118.01 }, "geometry": { "type": "Point", "coordinates": [ 129.329819, 35.472481, 30.0 ] } },
{ "type": "Feature", "properties": { "value": 66.978 }, "geometry": { "type": "Point", "coordinates": [ 129.330917, 35.472477, 30.0 ] } },
{ "type": "Feature", "properties": { "value": 2.8246 }, "geometry": { "type": "Point", "coordinates": [ 129.332031, 35.472477, 30.0 ] } },
{ "type": "Feature", "properties": { "value": 5.5607 }, "geometry": { "type": "Point", "coordinates": [ 129.32872, 35.473385, 30.0 ] } },
{ "type": "Feature", "properties": { "value": 83.118 }, "geometry": { "type": "Point", "coordinates": [ 129.329819, 35.473385, 30.0 ] } },
{ "type": "Feature", "properties": { "value": 95.887 }, "geometry": { "type": "Point", "coordinates": [ 129.330933, 35.473381, 30.0 ] } },
{ "type": "Feature", "properties": { "value": 10.666 }, "geometry": { "type": "Point", "coordinates": [ 129.332031, 35.473377, 30.0 ] } },
{ "type": "Feature", "properties": { "value": 2.0827 }, "geometry": { "type": "Point", "coordinates": [ 129.328735, 35.474289, 30.0 ] } },
{ "type": "Feature", "properties": { "value": 47.559 }, "geometry": { "type": "Point", "coordinates": [ 129.329834, 35.474285, 30.0 ] } },
{ "type": "Feature", "properties": { "value": 95.218 }, "geometry": { "type": "Point", "coordinates": [ 129.330933, 35.474281, 30.0 ] } },
{ "type": "Feature", "properties": { "value": 25.138 }, "geometry": { "type": "Point", "coordinates": [ 129.332031, 35.474277, 30.0 ] } },
{ "type": "Feature", "properties": { "value": 1.0653 }, "geometry": { "type": "Point", "coordinates": [ 129.33313, 35.474274, 30.0 ] } },
{ "type": "Feature", "properties": { "value": 0.3748 }, "geometry": { "type": "Point", "coordinates": [ 129.328735, 35.475189, 30.0 ] } },
{ "type": "Feature", "properties": { "value": 25.005 }, "geometry": { "type": "Point", "coordinates": [ 129.329834, 35.475185, 30.0 ] } },
{ "type": "Feature", "properties": { "value": 78.798 }, "geometry": { "type": "Point", "coordinates": [ 129.330933, 35.475182, 30.0 ] } },
{ "type": "Feature", "properties": { "value": 43.573 }, "geometry": { "type": "Point", "coordinates": [ 129.332031, 35.475178, 30.0 ] } },
{ "type": "Feature", "properties": { "value": 4.8442 }, "geometry": { "type": "Point", "coordinates": [ 129.333145, 35.475178, 30.0 ] } },
{ "type": "Feature", "properties": { "value": 12.08 }, "geometry": { "type": "Point", "coordinates": [ 129.329834, 35.476086, 30.0 ] } },
{ "type": "Feature", "properties": { "value": 58.617 }, "geometry": { "type": "Point", "coordinates": [ 129.330933, 35.476086, 30.0 ] } },
{ "type": "Feature", "properties": { "value": 59.384 }, "geometry": { "type": "Point", "coordinates": [ 129.332047, 35.476082, 30.0 ] } },
{ "type": "Feature", "properties": { "value": 13.403 }, "geometry": { "type": "Point", "coordinates": [ 129.333145, 35.476078, 30.0 ] } },
{ "type": "Feature", "properties": { "value": 0.2786 }, "geometry": { "type": "Point", "coordinates": [ 129.334244, 35.476074, 30.0 ] } },
{ "type": "Feature", "properties": { "value": 4.9868 }, "geometry": { "type": "Point", "coordinates": [ 129.329834, 35.47699, 30.0 ] } },
{ "type": "Feature", "properties": { "value": 38.97 }, "geometry": { "type": "Point", "coordinates": [ 129.330948, 35.476986, 30.0 ] } },
{ "type": "Feature", "properties": { "value": 67.51 }, "geometry": { "type": "Point", "coordinates": [ 129.332047, 35.476982, 30.0 ] } },
{ "type": "Feature", "properties": { "value": 28.053 }, "geometry": { "type": "Point", "coordinates": [ 129.333145, 35.476978, 30.0 ] } },
{ "type": "Feature", "properties": { "value": 2.9917 }, "geometry": { "type": "Point", "coordinates": [ 129.334244, 35.476974, 30.0 ] } },
{ "type": "Feature", "properties": { "value": 1.7427 }, "geometry": { "type": "Point", "coordinates": [ 129.329849, 35.47789, 30.0 ] } },
{ "type": "Feature", "properties": { "value": 22.763 }, "geometry": { "type": "Point", "coordinates": [ 129.330948, 35.477886, 30.0 ] } },
{ "type": "Feature", "properties": { "value": 64.119 }, "geometry": { "type": "Point", "coordinates": [ 129.332047, 35.477882, 30.0 ] } },
{ "type": "Feature", "properties": { "value": 46.179 }, "geometry": { "type": "Point", "coordinates": [ 129.333145, 35.477879, 30.0 ] } },
{ "type": "Feature", "properties": { "value": 9.3903 }, "geometry": { "type": "Point", "coordinates": [ 129.334259, 35.477879, 30.0 ] } },
{ "type": "Feature", "properties": { "value": 0.0555 }, "geometry": { "type": "Point", "coordinates": [ 129.335358, 35.477875, 30.0 ] } },
{ "type": "Feature", "properties": { "value": 0.0594 }, "geometry": { "type": "Point", "coordinates": [ 129.329849, 35.47879, 30.0 ] } },
{ "type": "Feature", "properties": { "value": 11.271 }, "geometry": { "type": "Point", "coordinates": [ 129.330948, 35.478786, 30.0 ] } },
{ "type": "Feature", "properties": { "value": 49.573 }, "geometry": { "type": "Point", "coordinates": [ 129.332047, 35.478786, 30.0 ] } },
{ "type": "Feature", "properties": { "value": 59.571 }, "geometry": { "type": "Point", "coordinates": [ 129.33316, 35.478783, 30.0 ] } },
{ "type": "Feature", "properties": { "value": 21.935 }, "geometry": { "type": "Point", "coordinates": [ 129.334259, 35.478779, 30.0 ] } },
{ "type": "Feature", "properties": { "value": 2.7377 }, "geometry": { "type": "Point", "coordinates": [ 129.335358, 35.478775, 30.0 ] } },
{ "type": "Feature", "properties": { "value": 4.7671 }, "geometry": { "type": "Point", "coordinates": [ 129.330948, 35.479691, 30.0 ] } },
{ "type": "Feature", "properties": { "value": 32.025 }, "geometry": { "type": "Point", "coordinates": [ 129.332062, 35.479687, 30.0 ] } },
{ "type": "Feature", "properties": { "value": 61.93 }, "geometry": { "type": "Point", "coordinates": [ 129.33316, 35.479683, 30.0 ] } },
{ "type": "Feature", "properties": { "value": 39.482 }, "geometry": { "type": "Point", "coordinates": [ 129.334259, 35.479679, 30.0 ] } },
{ "type": "Feature", "properties": { "value": 9.5145 }, "geometry": { "type": "Point", "coordinates": [ 129.335358, 35.479675, 30.0 ] } },
{ "type": "Feature", "properties": { "value": 0.6423 }, "geometry": { "type": "Point", "coordinates": [ 129.336456, 35.479675, 30.0 ] } },
{ "type": "Feature", "properties": { "value": 1.6739 }, "geometry": { "type": "Point", "coordinates": [ 129.330963, 35.480591, 30.0 ] } },
{ "type": "Feature", "properties": { "value": 17.649 }, "geometry": { "type": "Point", "coordinates": [ 129.332062, 35.480587, 30.0 ] } },
{ "type": "Feature", "properties": { "value": 52.765 }, "geometry": { "type": "Point", "coordinates": [ 129.33316, 35.480583, 30.0 ] } },
{ "type": "Feature", "properties": { "value": 54.846 }, "geometry": { "type": "Point", "coordinates": [ 129.334259, 35.480579, 30.0 ] } },
{ "type": "Feature", "properties": { "value": 22.709 }, "geometry": { "type": "Point", "coordinates": [ 129.335358, 35.480579, 30.0 ] } },
{ "type": "Feature", "properties": { "value": 4.4385 }, "geometry": { "type": "Point", "coordinates": [ 129.336472, 35.480576, 30.0 ] } },
{ "type": "Feature", "properties": { "value": 0.0326 }, "geometry": { "type": "Point", "coordinates": [ 129.33757, 35.480572, 30.0 ] } },
{ "type": "Feature", "properties": { "value": 8.3067 }, "geometry": { "type": "Point", "coordinates": [ 129.332062, 35.481487, 30.0 ] } },
{ "type": "Feature", "properties": { "value": 36.267 }, "geometry": { "type": "Point", "coordinates": [ 129.33316, 35.481487, 30.0 ] } },
{ "type": "Feature", "properties": { "value": 56.93 }, "geometry": { "type": "Point", "coordinates": [ 129.334259, 35.481483, 30.0 ] } },
{ "type": "Feature", "properties": { "value": 38.244 }, "geometry": { "type": "Point", "coordinates": [ 129.335373, 35.48148, 30.0 ] } },
{ "type": "Feature", "properties": { "value": 12.824 }, "geometry": { "type": "Point", "coordinates": [ 129.336472, 35.481476, 30.0 ] } },
{ "type": "Feature", "properties": { "value": 2.4433 }, "geometry": { "type": "Point", "coordinates": [ 129.33757, 35.481472, 30.0 ] } },
{ "type": "Feature", "properties": { "value": 3.5649 }, "geometry": { "type": "Point", "coordinates": [ 129.332062, 35.482391, 30.0 ] } },
{ "type": "Feature", "properties": { "value": 21.11 }, "geometry": { "type": "Point", "coordinates": [ 129.333176, 35.482388, 30.0 ] } },
{ "type": "Feature", "properties": { "value": 47.767 }, "geometry": { "type": "Point", "coordinates": [ 129.334274, 35.482384, 30.0 ] } },
{ "type": "Feature", "properties": { "value": 48.971 }, "geometry": { "type": "Point", "coordinates": [ 129.335373, 35.48238, 30.0 ] } },
{ "type": "Feature", "properties": { "value": 25.897 }, "geometry": { "type": "Point", "coordinates": [ 129.336472, 35.482376, 30.0 ] } },
{ "type": "Feature", "properties": { "value": 8.1188 }, "geometry": { "type": "Point", "coordinates": [ 129.33757, 35.482376, 30.0 ] } },
{ "type": "Feature", "properties": { "value": 1.6815 }, "geometry": { "type": "Point", "coordinates": [ 129.338684, 35.482372, 30.0 ] } },
{ "type": "Feature", "properties": { "value": 1.4199 }, "geometry": { "type": "Point", "coordinates": [ 129.332077, 35.483292, 30.0 ] } },
{ "type": "Feature", "properties": { "value": 11.133 }, "geometry": { "type": "Point", "coordinates": [ 129.333176, 35.483288, 30.0 ] } },
{ "type": "Feature", "properties": { "value": 33.782 }, "geometry": { "type": "Point", "coordinates": [ 129.334274, 35.483284, 30.0 ] } },
{ "type": "Feature", "properties": { "value": 48.58 }, "geometry": { "type": "Point", "coordinates": [ 129.335373, 35.48328, 30.0 ] } },
{ "type": "Feature", "properties": { "value": 37.702 }, "geometry": { "type": "Point", "coordinates": [ 129.336472, 35.48328, 30.0 ] } },
{ "type": "Feature", "properties": { "value": 17.77 }, "geometry": { "type": "Point", "coordinates": [ 129.337585, 35.483276, 30.0 ] } },
{ "type": "Feature", "properties": { "value": 5.7538 }, "geometry": { "type": "Point", "coordinates": [ 129.338684, 35.483273, 30.0 ] } },
{ "type": "Feature", "properties": { "value": 1.3907 }, "geometry": { "type": "Point", "coordinates": [ 129.339783, 35.483269, 30.0 ] } },
{ "type": "Feature", "properties": { "value": 0.0324 }, "geometry": { "type": "Point", "coordinates": [ 129.340881, 35.483265, 30.0 ] } },
{ "type": "Feature", "properties": { "value": 0.351 }, "geometry": { "type": "Point", "coordinates": [ 129.332077, 35.484192, 30.0 ] } },
{ "type": "Feature", "properties": { "value": 5.3877 }, "geometry": { "type": "Point", "coordinates": [ 129.333176, 35.484188, 30.0 ] } },
{ "type": "Feature", "properties": { "value": 20.541 }, "geometry": { "type": "Point", "coordinates": [ 129.334274, 35.484188, 30.0 ] } },
{ "type": "Feature", "properties": { "value": 39.261 }, "geometry": { "type": "Point", "coordinates": [ 129.335373, 35.484184, 30.0 ] } },
{ "type": "Feature", "properties": { "value": 42.159 }, "geometry": { "type": "Point", "coordinates": [ 129.336487, 35.48418, 30.0 ] } },
{ "type": "Feature", "properties": { "value": 28.246 }, "geometry": { "type": "Point", "coordinates": [ 129.337585, 35.484177, 30.0 ] } },
{ "type": "Feature", "properties": { "value": 13.127 }, "geometry": { "type": "Point", "coordinates": [ 129.338684, 35.484173, 30.0 ] } },
{ "type": "Feature", "properties": { "value": 4.6979 }, "geometry": { "type": "Point", "coordinates": [ 129.339783, 35.484173, 30.0 ] } },
{ "type": "Feature", "properties": { "value": 1.3511 }, "geometry": { "type": "Point", "coordinates": [ 129.340897, 35.484169, 30.0 ] } },
{ "type": "Feature", "properties": { "value": 0.1115 }, "geometry": { "type": "Point", "coordinates": [ 129.341995, 35.484165, 30.0 ] } },
{ "type": "Feature", "properties": { "value": 2.3227 }, "geometry": { "type": "Point", "coordinates": [ 129.333176, 35.485092, 30.0 ] } },
{ "type": "Feature", "properties": { "value": 11.017 }, "geometry": { "type": "Point", "coordinates": [ 129.334274, 35.485088, 30.0 ] } },
{ "type": "Feature", "properties": { "value": 27.036 }, "geometry": { "type": "Point", "coordinates": [ 129.335388, 35.485085, 30.0 ] } },
{ "type": "Feature", "properties": { "value": 38.466 }, "geometry": { "type": "Point", "coordinates": [ 129.336487, 35.485081, 30.0 ] } },
{ "type": "Feature", "properties": { "value": 34.901 }, "geometry": { "type": "Point", "coordinates": [ 129.337585, 35.485077, 30.0 ] } },
{ "type": "Feature", "properties": { "value": 22.142 }, "geometry": { "type": "Point", "coordinates": [ 129.338684, 35.485077, 30.0 ] } },
{ "type": "Feature", "properties": { "value": 10.707 }, "geometry": { "type": "Point", "coordinates": [ 129.339798, 35.485073, 30.0 ] } },
{ "type": "Feature", "properties": { "value": 4.1907 }, "geometry": { "type": "Point", "coordinates": [ 129.340897, 35.485069, 30.0 ] } },
{ "type": "Feature", "properties": { "value": 1.3423 }, "geometry": { "type": "Point", "coordinates": [ 129.341995, 35.485065, 30.0 ] } },
{ "type": "Feature", "properties": { "value": 0.2613 }, "geometry": { "type": "Point", "coordinates": [ 129.343094, 35.485062, 30.0 ] } },
{ "type": "Feature", "properties": { "value": 0.8725 }, "geometry": { "type": "Point", "coordinates": [ 129.333176, 35.485992, 30.0 ] } },
{ "type": "Feature", "properties": { "value": 5.2985 }, "geometry": { "type": "Point", "coordinates": [ 129.33429, 35.485989, 30.0 ] } },
{ "type": "Feature", "properties": { "value": 16.191 }, "geometry": { "type": "Point", "coordinates": [ 129.335388, 35.485985, 30.0 ] } },
{ "type": "Feature", "properties": { "value": 29.531 }, "geometry": { "type": "Point", "coordinates": [ 129.336487, 35.485981, 30.0 ] } },
{ "type": "Feature", "properties": { "value": 35.069 }, "geometry": { "type": "Point", "coordinates": [ 129.337585, 35.485981, 30.0 ] } },
{ "type": "Feature", "properties": { "value": 29.236 }, "geometry": { "type": "Point", "coordinates": [ 129.338699, 35.485977, 30.0 ] } },
{ "type": "Feature", "properties": { "value": 18.425 }, "geometry": { "type": "Point", "coordinates": [ 129.339798, 35.485973, 30.0 ] } },
{ "type": "Feature", "properties": { "value": 9.3118 }, "geometry": { "type": "Point", "coordinates": [ 129.340897, 35.48597, 30.0 ] } },
{ "type": "Feature", "properties": { "value": 3.967 }, "geometry": { "type": "Point", "coordinates": [ 129.341995, 35.485966, 30.0 ] } },
{ "type": "Feature", "properties": { "value": 1.4775 }, "geometry": { "type": "Point", "coordinates": [ 129.343094, 35.485966, 30.0 ] } },
{ "type": "Feature", "properties": { "value": 0.458 }, "geometry": { "type": "Point", "coordinates": [ 129.344208, 35.485962, 30.0 ] } },
{ "type": "Feature", "properties": { "value": 0.0414 }, "geometry": { "type": "Point", "coordinates": [ 129.333191, 35.486893, 30.0 ] } },
{ "type": "Feature", "properties": { "value": 2.2648 }, "geometry": { "type": "Point", "coordinates": [ 129.33429, 35.486889, 30.0 ] } },
{ "type": "Feature", "properties": { "value": 8.5764 }, "geometry": { "type": "Point", "coordinates": [ 129.335388, 35.486889, 30.0 ] } },
{ "type": "Feature", "properties": { "value": 19.523 }, "geometry": { "type": "Point", "coordinates": [ 129.336487, 35.486885, 30.0 ] } },
{ "type": "Feature", "properties": { "value": 29.461 }, "geometry": { "type": "Point", "coordinates": [ 129.337601, 35.486881, 30.0 ] } },
{ "type": "Feature", "properties": { "value": 31.297 }, "geometry": { "type": "Point", "coordinates": [ 129.338699, 35.486877, 30.0 ] } },
{ "type": "Feature", "properties": { "value": 24.984 }, "geometry": { "type": "Point", "coordinates": [ 129.339798, 35.486874, 30.0 ] } },
{ "type": "Feature", "properties": { "value": 15.961 }, "geometry": { "type": "Point", "coordinates": [ 129.340897, 35.486874, 30.0 ] } },
{ "type": "Feature", "properties": { "value": 8.5549 }, "geometry": { "type": "Point", "coordinates": [ 129.341995, 35.48687, 30.0 ] } },
{ "type": "Feature", "properties": { "value": 4.027 }, "geometry": { "type": "Point", "coordinates": [ 129.343109, 35.486866, 30.0 ] } },
{ "type": "Feature", "properties": { "value": 1.6946 }, "geometry": { "type": "Point", "coordinates": [ 129.344208, 35.486862, 30.0 ] } },
{ "type": "Feature", "properties": { "value": 0.6425 }, "geometry": { "type": "Point", "coordinates": [ 129.345306, 35.486858, 30.0 ] } },
{ "type": "Feature", "properties": { "value": 0.1427 }, "geometry": { "type": "Point", "coordinates": [ 129.346405, 35.486855, 30.0 ] } },
{ "type": "Feature", "properties": { "value": 0.8482 }, "geometry": { "type": "Point", "coordinates": [ 129.33429, 35.487793, 30.0 ] } },
{ "type": "Feature", "properties": { "value": 4.1001 }, "geometry": { "type": "Point", "coordinates": [ 129.335388, 35.487789, 30.0 ] } },
{ "type": "Feature", "properties": { "value": 11.372 }, "geometry": { "type": "Point", "coordinates": [ 129.336502, 35.487785, 30.0 ] } },
{ "type": "Feature", "properties": { "value": 21.128 }, "geometry": { "type": "Point", "coordinates": [ 129.337601, 35.487782, 30.0 ] } },
{ "type": "Feature", "properties": { "value": 27.772 }, "geometry": { "type": "Point", "coordinates": [ 129.338699, 35.487778, 30.0 ] } },
{ "type": "Feature", "properties": { "value": 27.509 }, "geometry": { "type": "Point", "coordinates": [ 129.339798, 35.487778, 30.0 ] } },
{ "type": "Feature", "properties": { "value": 21.797 }, "geometry": { "type": "Point", "coordinates": [ 129.340912, 35.487774, 30.0 ] } },
{ "type": "Feature", "properties": { "value": 14.379 }, "geometry": { "type": "Point", "coordinates": [ 129.34201, 35.48777, 30.0 ] } },
{ "type": "Feature", "properties": { "value": 8.2666 }, "geometry": { "type": "Point", "coordinates": [ 129.343109, 35.487766, 30.0 ] } },
{ "type": "Feature", "properties": { "value": 4.253 }, "geometry": { "type": "Point", "coordinates": [ 129.344208, 35.487762, 30.0 ] } },
{ "type": "Feature", "properties": { "value": 2.0249 }, "geometry": { "type": "Point", "coordinates": [ 129.345306, 35.487759, 30.0 ] } },
{ "type": "Feature", "properties": { "value": 0.9008 }, "geometry": { "type": "Point", "coordinates": [ 129.34642, 35.487759, 30.0 ] } },
{ "type": "Feature", "properties": { "value": 0.3479 }, "geometry": { "type": "Point", "coordinates": [ 129.347519, 35.487755, 30.0 ] } },
{ "type": "Feature", "properties": { "value": 0.0196 }, "geometry": { "type": "Point", "coordinates": [ 129.348618, 35.487751, 30.0 ] } },
{ "type": "Feature", "properties": { "value": 0.0887 }, "geometry": { "type": "Point", "coordinates": [ 129.33429, 35.488693, 30.0 ] } },
{ "type": "Feature", "properties": { "value": 1.7618 }, "geometry": { "type": "Point", "coordinates": [ 129.335403, 35.488689, 30.0 ] } },
{ "type": "Feature", "properties": { "value": 5.9092 }, "geometry": { "type": "Point", "coordinates": [ 129.336502, 35.488686, 30.0 ] } },
{ "type": "Feature", "properties": { "value": 13.238 }, "geometry": { "type": "Point", "coordinates": [ 129.337601, 35.488682, 30.0 ] } },
{ "type": "Feature", "properties": { "value": 21.101 }, "geometry": { "type": "Point", "coordinates": [ 129.338699, 35.488682, 30.0 ] } },
{ "type": "Feature", "properties": { "value": 25.483 }, "geometry": { "type": "Point", "coordinates": [ 129.339813, 35.488678, 30.0 ] } },
{ "type": "Feature", "properties": { "value": 24.56 }, "geometry": { "type": "Point", "coordinates": [ 129.340912, 35.488674, 30.0 ] } },
{ "type": "Feature", "properties": { "value": 19.614 }, "geometry": { "type": "Point", "coordinates": [ 129.34201, 35.48867, 30.0 ] } },
{ "type": "Feature", "properties": { "value": 13.512 }, "geometry": { "type": "Point", "coordinates": [ 129.343109, 35.488667, 30.0 ] } },
{ "type": "Feature", "properties": { "value": 8.3032 }, "geometry": { "type": "Point", "coordinates": [ 129.344208, 35.488667, 30.0 ] } },
{ "type": "Feature", "properties": { "value": 4.6909 }, "geometry": { "type": "Point", "coordinates": [ 129.345322, 35.488663, 30.0 ] } },
{ "type": "Feature", "properties": { "value": 2.4749 }, "geometry": { "type": "Point", "coordinates": [ 129.34642, 35.488659, 30.0 ] } },
{ "type": "Feature", "properties": { "value": 1.2187 }, "geometry": { "type": "Point", "coordinates": [ 129.347519, 35.488655, 30.0 ] } },
{ "type": "Feature", "properties": { "value": 0.5559 }, "geometry": { "type": "Point", "coordinates": [ 129.348618, 35.488651, 30.0 ] } },
{ "type": "Feature", "properties": { "value": 0.1994 }, "geometry": { "type": "Point", "coordinates": [ 129.349731, 35.488647, 30.0 ] } },
{ "type": "Feature", "properties": { "value": 0.0106 }, "geometry": { "type": "Point", "coordinates": [ 129.379471, 35.48856, 30.0 ] } },
{ "type": "Feature", "properties": { "value": 0.0154 }, "geometry": { "type": "Point", "coordinates": [ 129.380585, 35.488556, 30.0 ] } },
{ "type": "Feature", "properties": { "value": 0.0177 }, "geometry": { "type": "Point", "coordinates": [ 129.381683, 35.488552, 30.0 ] } },
{ "type": "Feature", "properties": { "value": 0.658 }, "geometry": { "type": "Point", "coordinates": [ 129.335403, 35.48959, 30.0 ] } },
{ "type": "Feature", "properties": { "value": 2.7673 }, "geometry": { "type": "Point", "coordinates": [ 129.336502, 35.48959, 30.0 ] } },
{ "type": "Feature", "properties": { "value": 7.3706 }, "geometry": { "type": "Point", "coordinates": [ 129.337601, 35.489586, 30.0 ] } },
{ "type": "Feature", "properties": { "value": 14.088 }, "geometry": { "type": "Point", "coordinates": [ 129.338715, 35.489582, 30.0 ] } },
{ "type": "Feature", "properties": { "value": 20.359 }, "geometry": { "type": "Point", "coordinates": [ 129.339813, 35.489578, 30.0 ] } },
{ "type": "Feature", "properties": { "value": 23.507 }, "geometry": { "type": "Point", "coordinates": [ 129.340912, 35.489574, 30.0 ] } },
{ "type": "Feature", "properties": { "value": 22.503 }, "geometry": { "type": "Point", "coordinates": [ 129.34201, 35.489571, 30.0 ] } },
{ "type": "Feature", "properties": { "value": 18.38 }, "geometry": { "type": "Point", "coordinates": [ 129.343109, 35.489571, 30.0 ] } },
{ "type": "Feature", "properties": { "value": 13.266 }, "geometry": { "type": "Point", "coordinates": [ 129.344223, 35.489567, 30.0 ] } },
{ "type": "Feature", "properties": { "value": 8.7085 }, "geometry": { "type": "Point", "coordinates": [ 129.345322, 35.489563, 30.0 ] } },
{ "type": "Feature", "properties": { "value": 5.284 }, "geometry": { "type": "Point", "coordinates": [ 129.34642, 35.489559, 30.0 ] } },
{ "type": "Feature", "properties": { "value": 3.0022 }, "geometry": { "type": "Point", "coordinates": [ 129.347519, 35.489555, 30.0 ] } },
{ "type": "Feature", "properties": { "value": 1.6072 }, "geometry": { "type": "Point", "coordinates": [ 129.348633, 35.489555, 30.0 ] } },
{ "type": "Feature", "properties": { "value": 0.815 }, "geometry": { "type": "Point", "coordinates": [ 129.349731, 35.489552, 30.0 ] } },
{ "type": "Feature", "properties": { "value": 0.3846 }, "geometry": { "type": "Point", "coordinates": [ 129.35083, 35.489548, 30.0 ] } },
{ "type": "Feature", "properties": { "value": 0.1151 }, "geometry": { "type": "Point", "coordinates": [ 129.351929, 35.489544, 30.0 ] } },
{ "type": "Feature", "properties": { "value": 0.0065 }, "geometry": { "type": "Point", "coordinates": [ 129.376175, 35.489471, 30.0 ] } },
{ "type": "Feature", "properties": { "value": 0.0434 }, "geometry": { "type": "Point", "coordinates": [ 129.377274, 35.489468, 30.0 ] } },
{ "type": "Feature", "properties": { "value": 0.0556 }, "geometry": { "type": "Point", "coordinates": [ 129.378387, 35.489464, 30.0 ] } },
{ "type": "Feature", "properties": { "value": 0.0637 }, "geometry": { "type": "Point", "coordinates": [ 129.379486, 35.48946, 30.0 ] } },
{ "type": "Feature", "properties": { "value": 0.0658 }, "geometry": { "type": "Point", "coordinates": [ 129.380585, 35.489456, 30.0 ] } },
{ "type": "Feature", "properties": { "value": 0.0619 }, "geometry": { "type": "Point", "coordinates": [ 129.381683, 35.489452, 30.0 ] } },
{ "type": "Feature", "properties": { "value": 0.0525 }, "geometry": { "type": "Point", "coordinates": [ 129.335403, 35.490494, 30.0 ] } },
{ "type": "Feature", "properties": { "value": 1.1401 }, "geometry": { "type": "Point", "coordinates": [ 129.336502, 35.49049, 30.0 ] } },
{ "type": "Feature", "properties": { "value": 3.6649 }, "geometry": { "type": "Point", "coordinates": [ 129.337616, 35.490486, 30.0 ] } },
{ "type": "Feature", "properties": { "value": 8.2498 }, "geometry": { "type": "Point", "coordinates": [ 129.338715, 35.490482, 30.0 ] } },
{ "type": "Feature", "properties": { "value": 14.14 }, "geometry": { "type": "Point", "coordinates": [ 129.339813, 35.490479, 30.0 ] } },
{ "type": "Feature", "properties": { "value": 19.384 }, "geometry": { "type": "Point", "coordinates": [ 129.340912, 35.490479, 30.0 ] } },
{ "type": "Feature", "properties": { "value": 21.938 }, "geometry": { "type": "Point", "coordinates": [ 129.34201, 35.490475, 30.0 ] } },
{ "type": "Feature", "properties": { "value": 21.019 }, "geometry": { "type": "Point", "coordinates": [ 129.343124, 35.490471, 30.0 ] } },
{ "type": "Feature", "properties": { "value": 17.696 }, "geometry": { "type": "Point", "coordinates": [ 129.344223, 35.490467, 30.0 ] } },
{ "type": "Feature", "properties": { "value": 13.417 }, "geometry": { "type": "Point", "coordinates": [ 129.345322, 35.490463, 30.0 ] } },
{ "type": "Feature", "properties": { "value": 9.3324 }, "geometry": { "type": "Point", "coordinates": [ 129.34642, 35.490459, 30.0 ] } },
{ "type": "Feature", "properties": { "value": 6.0299 }, "geometry": { "type": "Point", "coordinates": [ 129.347534, 35.490459, 30.0 ] } },
{ "type": "Feature", "properties": { "value": 3.655 }, "geometry": { "type": "Point", "coordinates": [ 129.348633, 35.490456, 30.0 ] } },
{ "type": "Feature", "properties": { "value": 2.1251 }, "geometry": { "type": "Point", "coordinates": [ 129.349731, 35.490452, 30.0 ] } },
{ "type": "Feature", "properties": { "value": 1.1879 }, "geometry": { "type": "Point", "coordinates": [ 129.35083, 35.490448, 30.0 ] } },
{ "type": "Feature", "properties": { "value": 0.6407 }, "geometry": { "type": "Point", "coordinates": [ 129.351929, 35.490444, 30.0 ] } },
{ "type": "Feature", "properties": { "value": 0.3318 }, "geometry": { "type": "Point", "coordinates": [ 129.353043, 35.49044, 30.0 ] } },
{ "type": "Feature", "properties": { "value": 0.094 }, "geometry": { "type": "Point", "coordinates": [ 129.354141, 35.49044, 30.0 ] } },
{ "type": "Feature", "properties": { "value": 0.0298 }, "geometry": { "type": "Point", "coordinates": [ 129.373978, 35.490379, 30.0 ] } },
{ "type": "Feature", "properties": { "value": 0.0836 }, "geometry": { "type": "Point", "coordinates": [ 129.375076, 35.490376, 30.0 ] } },
{ "type": "Feature", "properties": { "value": 0.111 }, "geometry": { "type": "Point", "coordinates": [ 129.376175, 35.490372, 30.0 ] } },
{ "type": "Feature", "properties": { "value": 0.1331 }, "geometry": { "type": "Point", "coordinates": [ 129.377289, 35.490368, 30.0 ] } },
{ "type": "Feature", "properties": { "value": 0.151 }, "geometry": { "type": "Point", "coordinates": [ 129.378387, 35.490364, 30.0 ] } },
{ "type": "Feature", "properties": { "value": 0.1582 }, "geometry": { "type": "Point", "coordinates": [ 129.379486, 35.49036, 30.0 ] } },
{ "type": "Feature", "properties": { "value": 0.1561 }, "geometry": { "type": "Point", "coordinates": [ 129.380585, 35.490356, 30.0 ] } },
{ "type": "Feature", "properties": { "value": 0.1448 }, "geometry": { "type": "Point", "coordinates": [ 129.381683, 35.490356, 30.0 ] } },
{ "type": "Feature", "properties": { "value": 0.3674 }, "geometry": { "type": "Point", "coordinates": [ 129.336517, 35.49139, 30.0 ] } },
{ "type": "Feature", "properties": { "value": 1.6277 }, "geometry": { "type": "Point", "coordinates": [ 129.337616, 35.491386, 30.0 ] } },
{ "type": "Feature", "properties": { "value": 4.2731 }, "geometry": { "type": "Point", "coordinates": [ 129.338715, 35.491383, 30.0 ] } },
{ "type": "Feature", "properties": { "value": 8.5697 }, "geometry": { "type": "Point", "coordinates": [ 129.339813, 35.491383, 30.0 ] } },
{ "type": "Feature", "properties": { "value": 13.784 }, "geometry": { "type": "Point", "coordinates": [ 129.340927, 35.491379, 30.0 ] } },
{ "type": "Feature", "properties": { "value": 18.195 }, "geometry": { "type": "Point", "coordinates": [ 129.342026, 35.491375, 30.0 ] } },
{ "type": "Feature", "properties": { "value": 20.318 }, "geometry": { "type": "Point", "coordinates": [ 129.343124, 35.491371, 30.0 ] } },
{ "type": "Feature", "properties": { "value": 19.8 }, "geometry": { "type": "Point", "coordinates": [ 129.344223, 35.491367, 30.0 ] } },
{ "type": "Feature", "properties": { "value": 17.235 }, "geometry": { "type": "Point", "coordinates": [ 129.345322, 35.491367, 30.0 ] } },
{ "type": "Feature", "properties": { "value": 13.699 }, "geometry": { "type": "Point", "coordinates": [ 129.346436, 35.491364, 30.0 ] } },
{ "type": "Feature", "properties": { "value": 10.047 }, "geometry": { "type": "Point", "coordinates": [ 129.347534, 35.49136, 30.0 ] } },
{ "type": "Feature", "properties": { "value": 6.8622 }, "geometry": { "type": "Point", "coordinates": [ 129.348633, 35.491356, 30.0 ] } },
{ "type": "Feature", "properties": { "value": 4.4535 }, "geometry": { "type": "Point", "coordinates": [ 129.349731, 35.491352, 30.0 ] } },
{ "type": "Feature", "properties": { "value": 2.8012 }, "geometry": { "type": "Point", "coordinates": [ 129.350845, 35.491348, 30.0 ] } },
{ "type": "Feature", "properties": { "value": 1.7326 }, "geometry": { "type": "Point", "coordinates": [ 129.351944, 35.491348, 30.0 ] } },
{ "type": "Feature", "properties": { "value": 1.0531 }, "geometry": { "type": "Point", "coordinates": [ 129.353043, 35.491344, 30.0 ] } },
{ "type": "Feature", "properties": { "value": 0.6345 }, "geometry": { "type": "Point", "coordinates": [ 129.354141, 35.491341, 30.0 ] } },
{ "type": "Feature", "properties": { "value": 0.3818 }, "geometry": { "type": "Point", "coordinates": [ 129.35524, 35.491337, 30.0 ] } },
{ "type": "Feature", "properties": { "value": 0.2203 }, "geometry": { "type": "Point", "coordinates": [ 129.356354, 35.491333, 30.0 ] } },
{ "type": "Feature", "properties": { "value": 0.1002 }, "geometry": { "type": "Point", "coordinates": [ 129.357452, 35.491329, 30.0 ] } },
{ "type": "Feature", "properties": { "value": 0.0154 }, "geometry": { "type": "Point", "coordinates": [ 129.358551, 35.491325, 30.0 ] } },
{ "type": "Feature", "properties": { "value": 0.0331 }, "geometry": { "type": "Point", "coordinates": [ 129.370682, 35.491291, 30.0 ] } },
{ "type": "Feature", "properties": { "value": 0.087 }, "geometry": { "type": "Point", "coordinates": [ 129.37178, 35.491287, 30.0 ] } },
{ "type": "Feature", "properties": { "value": 0.1391 }, "geometry": { "type": "Point", "coordinates": [ 129.372879, 35.491283, 30.0 ] } },
{ "type": "Feature", "properties": { "value": 0.1895 }, "geometry": { "type": "Point", "coordinates": [ 129.373978, 35.49128, 30.0 ] } },
{ "type": "Feature", "properties": { "value": 0.2293 }, "geometry": { "type": "Point", "coordinates": [ 129.375076, 35.491276, 30.0 ] } },
{ "type": "Feature", "properties": { "value": 0.2687 }, "geometry": { "type": "Point", "coordinates": [ 129.37619, 35.491272, 30.0 ] } },
{ "type": "Feature", "properties": { "value": 0.3024 }, "geometry": { "type": "Point", "coordinates": [ 129.377289, 35.491268, 30.0 ] } },
{ "type": "Feature", "properties": { "value": 0.3261 }, "geometry": { "type": "Point", "coordinates": [ 129.378387, 35.491268, 30.0 ] } },
{ "type": "Feature", "properties": { "value": 0.3352 }, "geometry": { "type": "Point", "coordinates": [ 129.379486, 35.491264, 30.0 ] } },
{ "type": "Feature", "properties": { "value": 0.3251 }, "geometry": { "type": "Point", "coordinates": [ 129.3806, 35.491261, 30.0 ] } },
{ "type": "Feature", "properties": { "value": 0.2993 }, "geometry": { "type": "Point", "coordinates": [ 129.381699, 35.491257, 30.0 ] } },
{ "type": "Feature", "properties": { "value": 0.6043 }, "geometry": { "type": "Point", "coordinates": [ 129.337616, 35.49229, 30.0 ] } },
{ "type": "Feature", "properties": { "value": 1.976 }, "geometry": { "type": "Point", "coordinates": [ 129.338715, 35.492287, 30.0 ] } },
{ "type": "Feature", "properties": { "value": 4.6038 }, "geometry": { "type": "Point", "coordinates": [ 129.339828, 35.492283, 30.0 ] } },
{ "type": "Feature", "properties": { "value": 8.5451 }, "geometry": { "type": "Point", "coordinates": [ 129.340927, 35.492279, 30.0 ] } },
{ "type": "Feature", "properties": { "value": 13.034 }, "geometry": { "type": "Point", "coordinates": [ 129.342026, 35.492275, 30.0 ] } },
{ "type": "Feature", "properties": { "value": 16.823 }, "geometry": { "type": "Point", "coordinates": [ 129.343124, 35.492271, 30.0 ] } },
{ "type": "Feature", "properties": { "value": 18.794 }, "geometry": { "type": "Point", "coordinates": [ 129.344223, 35.492271, 30.0 ] } },
{ "type": "Feature", "properties": { "value": 18.663 }, "geometry": { "type": "Point", "coordinates": [ 129.345337, 35.492268, 30.0 ] } },
{ "type": "Feature", "properties": { "value": 16.839 }, "geometry": { "type": "Point", "coordinates": [ 129.346436, 35.492264, 30.0 ] } },
{ "type": "Feature", "properties": { "value": 13.943 }, "geometry": { "type": "Point", "coordinates": [ 129.347534, 35.49226, 30.0 ] } },
{ "type": "Feature", "properties": { "value": 10.71 }, "geometry": { "type": "Point", "coordinates": [ 129.348633, 35.492256, 30.0 ] } },
{ "type": "Feature", "properties": { "value": 7.793 }, "geometry": { "type": "Point", "coordinates": [ 129.349747, 35.492252, 30.0 ] } },
{ "type": "Feature", "properties": { "value": 5.4571 }, "geometry": { "type": "Point", "coordinates": [ 129.350845, 35.492252, 30.0 ] } },
{ "type": "Feature", "properties": { "value": 3.7255 }, "geometry": { "type": "Point", "coordinates": [ 129.351944, 35.492249, 30.0 ] } },
{ "type": "Feature", "properties": { "value": 2.5021 }, "geometry": { "type": "Point", "coordinates": [ 129.353043, 35.492245, 30.0 ] } },
{ "type": "Feature", "properties": { "value": 1.6802 }, "geometry": { "type": "Point", "coordinates": [ 129.354141, 35.492241, 30.0 ] } },
{ "type": "Feature", "properties": { "value": 1.1431 }, "geometry": { "type": "Point", "coordinates": [ 129.355255, 35.492237, 30.0 ] } },
{ "type": "Feature", "properties": { "value": 0.7887 }, "geometry": { "type": "Point", "coordinates": [ 129.356354, 35.492233, 30.0 ] } },
{ "type": "Feature", "properties": { "value": 0.5575 }, "geometry": { "type": "Point", "coordinates": [ 129.357452, 35.492233, 30.0 ] } },
{ "type": "Feature", "properties": { "value": 0.4012 }, "geometry": { "type": "Point", "coordinates": [ 129.358551, 35.492229, 30.0 ] } },
{ "type": "Feature", "properties": { "value": 0.3016 }, "geometry": { "type": "Point", "coordinates": [ 129.359665, 35.492226, 30.0 ] } },
{ "type": "Feature", "properties": { "value": 0.2342 }, "geometry": { "type": "Point", "coordinates": [ 129.360764, 35.492222, 30.0 ] } },
{ "type": "Feature", "properties": { "value": 0.1853 }, "geometry": { "type": "Point", "coordinates": [ 129.361862, 35.492218, 30.0 ] } },
{ "type": "Feature", "properties": { "value": 0.1535 }, "geometry": { "type": "Point", "coordinates": [ 129.362961, 35.492214, 30.0 ] } },
{ "type": "Feature", "properties": { "value": 0.1371 }, "geometry": { "type": "Point", "coordinates": [ 129.364059, 35.49221, 30.0 ] } },
{ "type": "Feature", "properties": { "value": 0.1276 }, "geometry": { "type": "Point", "coordinates": [ 129.365173, 35.49221, 30.0 ] } },
{ "type": "Feature", "properties": { "value": 0.1327 }, "geometry": { "type": "Point", "coordinates": [ 129.366272, 35.492207, 30.0 ] } },
{ "type": "Feature", "properties": { "value": 0.1429 }, "geometry": { "type": "Point", "coordinates": [ 129.367371, 35.492203, 30.0 ] } },
{ "type": "Feature", "properties": { "value": 0.1648 }, "geometry": { "type": "Point", "coordinates": [ 129.368469, 35.492199, 30.0 ] } },
{ "type": "Feature", "properties": { "value": 0.1924 }, "geometry": { "type": "Point", "coordinates": [ 129.369583, 35.492195, 30.0 ] } },
{ "type": "Feature", "properties": { "value": 0.2381 }, "geometry": { "type": "Point", "coordinates": [ 129.370682, 35.492191, 30.0 ] } },
{ "type": "Feature", "properties": { "value": 0.2936 }, "geometry": { "type": "Point", "coordinates": [ 129.37178, 35.492188, 30.0 ] } },
{ "type": "Feature", "properties": { "value": 0.3607 }, "geometry": { "type": "Point", "coordinates": [ 129.372879, 35.492184, 30.0 ] } },
{ "type": "Feature", "properties": { "value": 0.4218 }, "geometry": { "type": "Point", "coordinates": [ 129.373978, 35.49218, 30.0 ] } },
{ "type": "Feature", "properties": { "value": 0.4872 }, "geometry": { "type": "Point", "coordinates": [ 129.375092, 35.49218, 30.0 ] } },
{ "type": "Feature", "properties": { "value": 0.5513 }, "geometry": { "type": "Point", "coordinates": [ 129.37619, 35.492176, 30.0 ] } },
{ "type": "Feature", "properties": { "value": 0.6033 }, "geometry": { "type": "Point", "coordinates": [ 129.377289, 35.492172, 30.0 ] } },
{ "type": "Feature", "properties": { "value": 0.6319 }, "geometry": { "type": "Point", "coordinates": [ 129.378387, 35.492168, 30.0 ] } },
{ "type": "Feature", "properties": { "value": 0.6356 }, "geometry": { "type": "Point", "coordinates": [ 129.379501, 35.492165, 30.0 ] } },
{ "type": "Feature", "properties": { "value": 0.6108 }, "geometry": { "type": "Point", "coordinates": [ 129.3806, 35.492161, 30.0 ] } },
{ "type": "Feature", "properties": { "value": 0.5544 }, "geometry": { "type": "Point", "coordinates": [ 129.381699, 35.492157, 30.0 ] } },
{ "type": "Feature", "properties": { "value": 0.0948 }, "geometry": { "type": "Point", "coordinates": [ 129.337616, 35.493191, 30.0 ] } },
{ "type": "Feature", "properties": { "value": 0.8007 }, "geometry": { "type": "Point", "coordinates": [ 129.33873, 35.493187, 30.0 ] } },
{ "type": "Feature", "properties": { "value": 2.2104 }, "geometry": { "type": "Point", "coordinates": [ 129.339828, 35.493183, 30.0 ] } },
{ "type": "Feature", "properties": { "value": 4.7118 }, "geometry": { "type": "Point", "coordinates": [ 129.340927, 35.493179, 30.0 ] } },
{ "type": "Feature", "properties": { "value": 8.2382 }, "geometry": { "type": "Point", "coordinates": [ 129.342026, 35.493179, 30.0 ] } },
{ "type": "Feature", "properties": { "value": 12.158 }, "geometry": { "type": "Point", "coordinates": [ 129.343124, 35.493176, 30.0 ] } },
{ "type": "Feature", "properties": { "value": 15.479 }, "geometry": { "type": "Point", "coordinates": [ 129.344238, 35.493172, 30.0 ] } },
{ "type": "Feature", "properties": { "value": 17.427 }, "geometry": { "type": "Point", "coordinates": [ 129.345337, 35.493168, 30.0 ] } },
{ "type": "Feature", "properties": { "value": 17.701 }, "geometry": { "type": "Point", "coordinates": [ 129.346436, 35.493164, 30.0 ] } },
{ "type": "Feature", "properties": { "value": 16.48 }, "geometry": { "type": "Point", "coordinates": [ 129.347534, 35.49316, 30.0 ] } },
{ "type": "Feature", "properties": { "value": 14.253 }, "geometry": { "type": "Point", "coordinates": [ 129.348648, 35.49316, 30.0 ] } },
{ "type": "Feature", "properties": { "value": 11.597 }, "geometry": { "type": "Point", "coordinates": [ 129.349747, 35.493156, 30.0 ] } },
{ "type": "Feature", "properties": { "value": 8.9991 }, "geometry": { "type": "Point", "coordinates": [ 129.350845, 35.493153, 30.0 ] } },
{ "type": "Feature", "properties": { "value": 6.7412 }, "geometry": { "type": "Point", "coordinates": [ 129.351944, 35.493149, 30.0 ] } },
{ "type": "Feature", "properties": { "value": 4.952 }, "geometry": { "type": "Point", "coordinates": [ 129.353043, 35.493145, 30.0 ] } },
{ "type": "Feature", "properties": { "value": 3.6123 }, "geometry": { "type": "Point", "coordinates": [ 129.354156, 35.493141, 30.0 ] } },
{ "type": "Feature", "properties": { "value": 2.6267 }, "geometry": { "type": "Point", "coordinates": [ 129.355255, 35.493141, 30.0 ] } },
{ "type": "Feature", "properties": { "value": 1.9349 }, "geometry": { "type": "Point", "coordinates": [ 129.356354, 35.493137, 30.0 ] } },
{ "type": "Feature", "properties": { "value": 1.4484 }, "geometry": { "type": "Point", "coordinates": [ 129.357452, 35.493134, 30.0 ] } },
{ "type": "Feature", "properties": { "value": 1.1098 }, "geometry": { "type": "Point", "coordinates": [ 129.358566, 35.49313, 30.0 ] } },
{ "type": "Feature", "properties": { "value": 0.8743 }, "geometry": { "type": "Point", "coordinates": [ 129.359665, 35.493126, 30.0 ] } },
{ "type": "Feature", "properties": { "value": 0.71 }, "geometry": { "type": "Point", "coordinates": [ 129.360764, 35.493122, 30.0 ] } },
{ "type": "Feature", "properties": { "value": 0.5963 }, "geometry": { "type": "Point", "coordinates": [ 129.361862, 35.493118, 30.0 ] } },
{ "type": "Feature", "properties": { "value": 0.5143 }, "geometry": { "type": "Point", "coordinates": [ 129.362961, 35.493118, 30.0 ] } },
{ "type": "Feature", "properties": { "value": 0.4647 }, "geometry": { "type": "Point", "coordinates": [ 129.364075, 35.493114, 30.0 ] } },
{ "type": "Feature", "properties": { "value": 0.4405 }, "geometry": { "type": "Point", "coordinates": [ 129.365173, 35.493111, 30.0 ] } },
{ "type": "Feature", "properties": { "value": 0.4257 }, "geometry": { "type": "Point", "coordinates": [ 129.366272, 35.493107, 30.0 ] } },
{ "type": "Feature", "properties": { "value": 0.4391 }, "geometry": { "type": "Point", "coordinates": [ 129.367371, 35.493103, 30.0 ] } },
{ "type": "Feature", "properties": { "value": 0.467 }, "geometry": { "type": "Point", "coordinates": [ 129.368484, 35.493099, 30.0 ] } },
{ "type": "Feature", "properties": { "value": 0.5086 }, "geometry": { "type": "Point", "coordinates": [ 129.369583, 35.493095, 30.0 ] } },
{ "type": "Feature", "properties": { "value": 0.5689 }, "geometry": { "type": "Point", "coordinates": [ 129.370682, 35.493092, 30.0 ] } },
{ "type": "Feature", "properties": { "value": 0.651 }, "geometry": { "type": "Point", "coordinates": [ 129.37178, 35.493088, 30.0 ] } },
{ "type": "Feature", "properties": { "value": 0.7431 }, "geometry": { "type": "Point", "coordinates": [ 129.372894, 35.493088, 30.0 ] } },
{ "type": "Feature", "properties": { "value": 0.8375 }, "geometry": { "type": "Point", "coordinates": [ 129.373993, 35.493084, 30.0 ] } },
{ "type": "Feature", "properties": { "value": 0.9388 }, "geometry": { "type": "Point", "coordinates": [ 129.375092, 35.49308, 30.0 ] } },
{ "type": "Feature", "properties": { "value": 1.0246 }, "geometry": { "type": "Point", "coordinates": [ 129.37619, 35.493076, 30.0 ] } },
{ "type": "Feature", "properties": { "value": 1.0938 }, "geometry": { "type": "Point", "coordinates": [ 129.377289, 35.493073, 30.0 ] } },
{ "type": "Feature", "properties": { "value": 1.1244 }, "geometry": { "type": "Point", "coordinates": [ 129.378403, 35.493069, 30.0 ] } },
{ "type": "Feature", "properties": { "value": 1.112 }, "geometry": { "type": "Point", "coordinates": [ 129.379501, 35.493065, 30.0 ] } },
{ "type": "Feature", "properties": { "value": 1.0524 }, "geometry": { "type": "Point", "coordinates": [ 129.3806, 35.493061, 30.0 ] } },
{ "type": "Feature", "properties": { "value": 0.9441 }, "geometry": { "type": "Point", "coordinates": [ 129.381699, 35.493057, 30.0 ] } },
{ "type": "Feature", "properties": { "value": 0.2386 }, "geometry": { "type": "Point", "coordinates": [ 129.33873, 35.494087, 30.0 ] } },
{ "type": "Feature", "properties": { "value": 0.9476 }, "geometry": { "type": "Point", "coordinates": [ 129.339828, 35.494083, 30.0 ] } },
{ "type": "Feature", "properties": { "value": 2.3335 }, "geometry": { "type": "Point", "coordinates": [ 129.340927, 35.494083, 30.0 ] } },
{ "type": "Feature", "properties": { "value": 4.6517 }, "geometry": { "type": "Point", "coordinates": [ 129.342026, 35.49408, 30.0 ] } },
{ "type": "Feature", "properties": { "value": 7.801 }, "geometry": { "type": "Point", "coordinates": [ 129.34314, 35.494076, 30.0 ] } },
{ "type": "Feature", "properties": { "value": 11.249 }, "geometry": { "type": "Point", "coordinates": [ 129.344238, 35.494072, 30.0 ] } },
{ "type": "Feature", "properties": { "value": 14.285 }, "geometry": { "type": "Point", "coordinates": [ 129.345337, 35.494068, 30.0 ] } },
{ "type": "Feature", "properties": { "value": 16.28 }, "geometry": { "type": "Point", "coordinates": [ 129.346436, 35.494068, 30.0 ] } },
{ "type": "Feature", "properties": { "value": 17.008 }, "geometry": { "type": "Point", "coordinates": [ 129.347549, 35.494064, 30.0 ] } },
{ "type": "Feature", "properties": { "value": 16.442 }, "geometry": { "type": "Point", "coordinates": [ 129.348648, 35.494061, 30.0 ] } },
{ "type": "Feature", "properties": { "value": 14.832 }, "geometry": { "type": "Point", "coordinates": [ 129.349747, 35.494057, 30.0 ] } },
{ "type": "Feature", "properties": { "value": 12.689 }, "geometry": { "type": "Point", "coordinates": [ 129.350845, 35.494053, 30.0 ] } },
{ "type": "Feature", "properties": { "value": 10.424 }, "geometry": { "type": "Point", "coordinates": [ 129.351959, 35.494049, 30.0 ] } },
{ "type": "Feature", "properties": { "value": 8.2945 }, "geometry": { "type": "Point", "coordinates": [ 129.353058, 35.494049, 30.0 ] } },
{ "type": "Feature", "properties": { "value": 6.4889 }, "geometry": { "type": "Point", "coordinates": [ 129.354156, 35.494045, 30.0 ] } },
{ "type": "Feature", "properties": { "value": 5.0321 }, "geometry": { "type": "Point", "coordinates": [ 129.355255, 35.494041, 30.0 ] } },
{ "type": "Feature", "properties": { "value": 3.9074 }, "geometry": { "type": "Point", "coordinates": [ 129.356354, 35.494038, 30.0 ] } },
{ "type": "Feature", "properties": { "value": 3.064 }, "geometry": { "type": "Point", "coordinates": [ 129.357468, 35.494034, 30.0 ] } },
{ "type": "Feature", "properties": { "value": 2.4341 }, "geometry": { "type": "Point", "coordinates": [ 129.358566, 35.49403, 30.0 ] } },
{ "type": "Feature", "properties": { "value": 1.9832 }, "geometry": { "type": "Point", "coordinates": [ 129.359665, 35.494026, 30.0 ] } },
{ "type": "Feature", "properties": { "value": 1.6495 }, "geometry": { "type": "Point", "coordinates": [ 129.360764, 35.494026, 30.0 ] } },
{ "type": "Feature", "properties": { "value": 1.403 }, "geometry": { "type": "Point", "coordinates": [ 129.361877, 35.494022, 30.0 ] } },
{ "type": "Feature", "properties": { "value": 1.2228 }, "geometry": { "type": "Point", "coordinates": [ 129.362976, 35.494019, 30.0 ] } },
{ "type": "Feature", "properties": { "value": 1.1053 }, "geometry": { "type": "Point", "coordinates": [ 129.364075, 35.494015, 30.0 ] } },
{ "type": "Feature", "properties": { "value": 1.0277 }, "geometry": { "type": "Point", "coordinates": [ 129.365173, 35.494011, 30.0 ] } },
{ "type": "Feature", "properties": { "value": 0.9918 }, "geometry": { "type": "Point", "coordinates": [ 129.366272, 35.494007, 30.0 ] } },
{ "type": "Feature", "properties": { "value": 0.9852 }, "geometry": { "type": "Point", "coordinates": [ 129.367386, 35.494003, 30.0 ] } },
{ "type": "Feature", "properties": { "value": 1.0104 }, "geometry": { "type": "Point", "coordinates": [ 129.368484, 35.493999, 30.0 ] } },
{ "type": "Feature", "properties": { "value": 1.0646 }, "geometry": { "type": "Point", "coordinates": [ 129.369583, 35.493999, 30.0 ] } },
{ "type": "Feature", "properties": { "value": 1.1512 }, "geometry": { "type": "Point", "coordinates": [ 129.370682, 35.493996, 30.0 ] } },
{ "type": "Feature", "properties": { "value": 1.2576 }, "geometry": { "type": "Point", "coordinates": [ 129.371796, 35.493992, 30.0 ] } },
{ "type": "Feature", "properties": { "value": 1.3827 }, "geometry": { "type": "Point", "coordinates": [ 129.372894, 35.493988, 30.0 ] } },
{ "type": "Feature", "properties": { "value": 1.5134 }, "geometry": { "type": "Point", "coordinates": [ 129.373993, 35.493984, 30.0 ] } },
{ "type": "Feature", "properties": { "value": 1.6433 }, "geometry": { "type": "Point", "coordinates": [ 129.375092, 35.49398, 30.0 ] } },
{ "type": "Feature", "properties": { "value": 1.7558 }, "geometry": { "type": "Point", "coordinates": [ 129.37619, 35.493977, 30.0 ] } },
{ "type": "Feature", "properties": { "value": 1.8302 }, "geometry": { "type": "Point", "coordinates": [ 129.377304, 35.493973, 30.0 ] } },
{ "type": "Feature", "properties": { "value": 1.8467 }, "geometry": { "type": "Point", "coordinates": [ 129.378403, 35.493969, 30.0 ] } },
{ "type": "Feature", "properties": { "value": 1.7966 }, "geometry": { "type": "Point", "coordinates": [ 129.379501, 35.493965, 30.0 ] } },
{ "type": "Feature", "properties": { "value": 1.672 }, "geometry": { "type": "Point", "coordinates": [ 129.3806, 35.493965, 30.0 ] } },
{ "type": "Feature", "properties": { "value": 1.4852 }, "geometry": { "type": "Point", "coordinates": [ 129.381714, 35.493961, 30.0 ] } },
{ "type": "Feature", "properties": { "value": 0.3158 }, "geometry": { "type": "Point", "coordinates": [ 129.339828, 35.494987, 30.0 ] } },
{ "type": "Feature", "properties": { "value": 1.0367 }, "geometry": { "type": "Point", "coordinates": [ 129.340942, 35.494984, 30.0 ] } },
{ "type": "Feature", "properties": { "value": 2.3543 }, "geometry": { "type": "Point", "coordinates": [ 129.342041, 35.49498, 30.0 ] } },
{ "type": "Feature", "properties": { "value": 4.4439 }, "geometry": { "type": "Point", "coordinates": [ 129.34314, 35.494976, 30.0 ] } },
{ "type": "Feature", "properties": { "value": 7.2137 }, "geometry": { "type": "Point", "coordinates": [ 129.344238, 35.494972, 30.0 ] } },
{ "type": "Feature", "properties": { "value": 10.311 }, "geometry": { "type": "Point", "coordinates": [ 129.345337, 35.494972, 30.0 ] } },
{ "type": "Feature", "properties": { "value": 13.158 }, "geometry": { "type": "Point", "coordinates": [ 129.346451, 35.494968, 30.0 ] } },
{ "type": "Feature", "properties": { "value": 15.31 }, "geometry": { "type": "Point", "coordinates": [ 129.347549, 35.494965, 30.0 ] } },
{ "type": "Feature", "properties": { "value": 16.438 }, "geometry": { "type": "Point", "coordinates": [ 129.348648, 35.494961, 30.0 ] } },
{ "type": "Feature", "properties": { "value": 16.375 }, "geometry": { "type": "Point", "coordinates": [ 129.349747, 35.494957, 30.0 ] } },
{ "type": "Feature", "properties": { "value": 15.341 }, "geometry": { "type": "Point", "coordinates": [ 129.350861, 35.494953, 30.0 ] } },
{ "type": "Feature", "properties": { "value": 13.736 }, "geometry": { "type": "Point", "coordinates": [ 129.351959, 35.494953, 30.0 ] } },
{ "type": "Feature", "properties": { "value": 11.802 }, "geometry": { "type": "Point", "coordinates": [ 129.353058, 35.494949, 30.0 ] } },
{ "type": "Feature", "properties": { "value": 9.8758 }, "geometry": { "type": "Point", "coordinates": [ 129.354156, 35.494946, 30.0 ] } },
{ "type": "Feature", "properties": { "value": 8.153 }, "geometry": { "type": "Point", "coordinates": [ 129.355255, 35.494942, 30.0 ] } },
{ "type": "Feature", "properties": { "value": 6.6811 }, "geometry": { "type": "Point", "coordinates": [ 129.356369, 35.494938, 30.0 ] } },
{ "type": "Feature", "properties": { "value": 5.4744 }, "geometry": { "type": "Point", "coordinates": [ 129.357468, 35.494934, 30.0 ] } },
{ "type": "Feature", "properties": { "value": 4.5208 }, "geometry": { "type": "Point", "coordinates": [ 129.358566, 35.494934, 30.0 ] } },
{ "type": "Feature", "properties": { "value": 3.7836 }, "geometry": { "type": "Point", "coordinates": [ 129.359665, 35.49493, 30.0 ] } },
{ "type": "Feature", "properties": { "value": 3.2141 }, "geometry": { "type": "Point", "coordinates": [ 129.360779, 35.494926, 30.0 ] } },
{ "type": "Feature", "properties": { "value": 2.7759 }, "geometry": { "type": "Point", "coordinates": [ 129.361877, 35.494923, 30.0 ] } },
{ "type": "Feature", "properties": { "value": 2.4504 }, "geometry": { "type": "Point", "coordinates": [ 129.362976, 35.494919, 30.0 ] } },
{ "type": "Feature", "properties": { "value": 2.2136 }, "geometry": { "type": "Point", "coordinates": [ 129.364075, 35.494915, 30.0 ] } },
{ "type": "Feature", "properties": { "value": 2.0552 }, "geometry": { "type": "Point", "coordinates": [ 129.365173, 35.494911, 30.0 ] } },
{ "type": "Feature", "properties": { "value": 1.9606 }, "geometry": { "type": "Point", "coordinates": [ 129.366287, 35.494907, 30.0 ] } },
{ "type": "Feature", "properties": { "value": 1.9177 }, "geometry": { "type": "Point", "coordinates": [ 129.367386, 35.494907, 30.0 ] } },
{ "type": "Feature", "properties": { "value": 1.9227 }, "geometry": { "type": "Point", "coordinates": [ 129.368484, 35.494904, 30.0 ] } },
{ "type": "Feature", "properties": { "value": 1.9765 }, "geometry": { "type": "Point", "coordinates": [ 129.369583, 35.4949, 30.0 ] } },
{ "type": "Feature", "properties": { "value": 2.0781 }, "geometry": { "type": "Point", "coordinates": [ 129.370697, 35.494896, 30.0 ] } },
{ "type": "Feature", "properties": { "value": 2.2025 }, "geometry": { "type": "Point", "coordinates": [ 129.371796, 35.494892, 30.0 ] } },
{ "type": "Feature", "properties": { "value": 2.3488 }, "geometry": { "type": "Point", "coordinates": [ 129.372894, 35.494888, 30.0 ] } },
{ "type": "Feature", "properties": { "value": 2.5065 }, "geometry": { "type": "Point", "coordinates": [ 129.373993, 35.494884, 30.0 ] } },
{ "type": "Feature", "properties": { "value": 2.6565 }, "geometry": { "type": "Point", "coordinates": [ 129.375107, 35.494881, 30.0 ] } },
{ "type": "Feature", "properties": { "value": 2.771 }, "geometry": { "type": "Point", "coordinates": [ 129.376205, 35.494877, 30.0 ] } },
{ "type": "Feature", "properties": { "value": 2.8291 }, "geometry": { "type": "Point", "coordinates": [ 129.377304, 35.494877, 30.0 ] } },
{ "type": "Feature", "properties": { "value": 2.8025 }, "geometry": { "type": "Point", "coordinates": [ 129.378403, 35.494873, 30.0 ] } },
{ "type": "Feature", "properties": { "value": 2.6833 }, "geometry": { "type": "Point", "coordinates": [ 129.379501, 35.494869, 30.0 ] } },
{ "type": "Feature", "properties": { "value": 2.4663 }, "geometry": { "type": "Point", "coordinates": [ 129.380615, 35.494865, 30.0 ] } },
{ "type": "Feature", "properties": { "value": 2.1652 }, "geometry": { "type": "Point", "coordinates": [ 129.381714, 35.494862, 30.0 ] } },
{ "type": "Feature", "properties": { "value": 0.3766 }, "geometry": { "type": "Point", "coordinates": [ 129.340942, 35.495884, 30.0 ] } },
{ "type": "Feature", "properties": { "value": 1.0489 }, "geometry": { "type": "Point", "coordinates": [ 129.342041, 35.49588, 30.0 ] } },
{ "type": "Feature", "properties": { "value": 2.2566 }, "geometry": { "type": "Point", "coordinates": [ 129.34314, 35.49588, 30.0 ] } },
{ "type": "Feature", "properties": { "value": 4.0872 }, "geometry": { "type": "Point", "coordinates": [ 129.344238, 35.495876, 30.0 ] } },
{ "type": "Feature", "properties": { "value": 6.5371 }, "geometry": { "type": "Point", "coordinates": [ 129.345352, 35.495872, 30.0 ] } },
{ "type": "Feature", "properties": { "value": 9.2892 }, "geometry": { "type": "Point", "coordinates": [ 129.346451, 35.495869, 30.0 ] } },
{ "type": "Feature", "properties": { "value": 11.96 }, "geometry": { "type": "Point", "coordinates": [ 129.347549, 35.495865, 30.0 ] } },
{ "type": "Feature", "properties": { "value": 14.199 }, "geometry": { "type": "Point", "coordinates": [ 129.348648, 35.495861, 30.0 ] } },
{ "type": "Feature", "properties": { "value": 15.604 }, "geometry": { "type": "Point", "coordinates": [ 129.349762, 35.495861, 30.0 ] } },
{ "type": "Feature", "properties": { "value": 15.975 }, "geometry": { "type": "Point", "coordinates": [ 129.350861, 35.495857, 30.0 ] } },
{ "type": "Feature", "properties": { "value": 15.451 }, "geometry": { "type": "Point", "coordinates": [ 129.351959, 35.495853, 30.0 ] } },
{ "type": "Feature", "properties": { "value": 14.299 }, "geometry": { "type": "Point", "coordinates": [ 129.353058, 35.49585, 30.0 ] } },
{ "type": "Feature", "properties": { "value": 12.829 }, "geometry": { "type": "Point", "coordinates": [ 129.354156, 35.495846, 30.0 ] } },
{ "type": "Feature", "properties": { "value": 11.266 }, "geometry": { "type": "Point", "coordinates": [ 129.35527, 35.495842, 30.0 ] } },
{ "type": "Feature", "properties": { "value": 9.7483 }, "geometry": { "type": "Point", "coordinates": [ 129.356369, 35.495838, 30.0 ] } },
{ "type": "Feature", "properties": { "value": 8.3718 }, "geometry": { "type": "Point", "coordinates": [ 129.357468, 35.495838, 30.0 ] } },
{ "type": "Feature", "properties": { "value": 7.1849 }, "geometry": { "type": "Point", "coordinates": [ 129.358566, 35.495834, 30.0 ] } },
{ "type": "Feature", "properties": { "value": 6.1955 }, "geometry": { "type": "Point", "coordinates": [ 129.35968, 35.495831, 30.0 ] } },
{ "type": "Feature", "properties": { "value": 5.3908 }, "geometry": { "type": "Point", "coordinates": [ 129.360779, 35.495827, 30.0 ] } },
{ "type": "Feature", "properties": { "value": 4.747 }, "geometry": { "type": "Point", "coordinates": [ 129.361877, 35.495823, 30.0 ] } },
{ "type": "Feature", "properties": { "value": 4.2489 }, "geometry": { "type": "Point", "coordinates": [ 129.362976, 35.495819, 30.0 ] } },
{ "type": "Feature", "properties": { "value": 3.8718 }, "geometry": { "type": "Point", "coordinates": [ 129.36409, 35.495815, 30.0 ] } },
{ "type": "Feature", "properties": { "value": 3.5982 }, "geometry": { "type": "Point", "coordinates": [ 129.365189, 35.495815, 30.0 ] } },
{ "type": "Feature", "properties": { "value": 3.4112 }, "geometry": { "type": "Point", "coordinates": [ 129.366287, 35.495811, 30.0 ] } },
{ "type": "Feature", "properties": { "value": 3.3053 }, "geometry": { "type": "Point", "coordinates": [ 129.367386, 35.495808, 30.0 ] } },
{ "type": "Feature", "properties": { "value": 3.266 }, "geometry": { "type": "Point", "coordinates": [ 129.368484, 35.495804, 30.0 ] } },
{ "type": "Feature", "properties": { "value": 3.3014 }, "geometry": { "type": "Point", "coordinates": [ 129.369598, 35.4958, 30.0 ] } },
{ "type": "Feature", "properties": { "value": 3.3866 }, "geometry": { "type": "Point", "coordinates": [ 129.370697, 35.495796, 30.0 ] } },
{ "type": "Feature", "properties": { "value": 3.5105 }, "geometry": { "type": "Point", "coordinates": [ 129.371796, 35.495792, 30.0 ] } },
{ "type": "Feature", "properties": { "value": 3.658 }, "geometry": { "type": "Point", "coordinates": [ 129.372894, 35.495789, 30.0 ] } },
{ "type": "Feature", "properties": { "value": 3.8133 }, "geometry": { "type": "Point", "coordinates": [ 129.374008, 35.495785, 30.0 ] } },
{ "type": "Feature", "properties": { "value": 3.9484 }, "geometry": { "type": "Point", "coordinates": [ 129.375107, 35.495785, 30.0 ] } },
{ "type": "Feature", "properties": { "value": 4.0334 }, "geometry": { "type": "Point", "coordinates": [ 129.376205, 35.495781, 30.0 ] } },
{ "type": "Feature", "properties": { "value": 4.0397 }, "geometry": { "type": "Point", "coordinates": [ 129.377304, 35.495777, 30.0 ] } },
{ "type": "Feature", "properties": { "value": 3.9379 }, "geometry": { "type": "Point", "coordinates": [ 129.378403, 35.495773, 30.0 ] } },
{ "type": "Feature", "properties": { "value": 3.7144 }, "geometry": { "type": "Point", "coordinates": [ 129.379517, 35.49577, 30.0 ] } },
{ "type": "Feature", "properties": { "value": 3.3682 }, "geometry": { "type": "Point", "coordinates": [ 129.380615, 35.495766, 30.0 ] } },
{ "type": "Feature", "properties": { "value": 2.9216 }, "geometry": { "type": "Point", "coordinates": [ 129.381714, 35.495762, 30.0 ] } },
{ "type": "Feature", "properties": { "value": 0.3872 }, "geometry": { "type": "Point", "coordinates": [ 129.342041, 35.496784, 30.0 ] } },
{ "type": "Feature", "properties": { "value": 0.9996 }, "geometry": { "type": "Point", "coordinates": [ 129.34314, 35.49678, 30.0 ] } },
{ "type": "Feature", "properties": { "value": 2.0456 }, "geometry": { "type": "Point", "coordinates": [ 129.344254, 35.496777, 30.0 ] } },
{ "type": "Feature", "properties": { "value": 3.6289 }, "geometry": { "type": "Point", "coordinates": [ 129.345352, 35.496773, 30.0 ] } },
{ "type": "Feature", "properties": { "value": 5.7142 }, "geometry": { "type": "Point", "coordinates": [ 129.346451, 35.496769, 30.0 ] } },
{ "type": "Feature", "properties": { "value": 8.126 }, "geometry": { "type": "Point", "coordinates": [ 129.347549, 35.496765, 30.0 ] } },
{ "type": "Feature", "properties": { "value": 10.61 }, "geometry": { "type": "Point", "coordinates": [ 129.348663, 35.496765, 30.0 ] } },
{ "type": "Feature", "properties": { "value": 12.814 }, "geometry": { "type": "Point", "coordinates": [ 129.349762, 35.496761, 30.0 ] } },
{ "type": "Feature", "properties": { "value": 14.325 }, "geometry": { "type": "Point", "coordinates": [ 129.350861, 35.496758, 30.0 ] } },
{ "type": "Feature", "properties": { "value": 14.938 }, "geometry": { "type": "Point", "coordinates": [ 129.351959, 35.496754, 30.0 ] } },
{ "type": "Feature", "properties": { "value": 14.883 }, "geometry": { "type": "Point", "coordinates": [ 129.353073, 35.49675, 30.0 ] } },
{ "type": "Feature", "properties": { "value": 14.306 }, "geometry": { "type": "Point", "coordinates": [ 129.354172, 35.496746, 30.0 ] } },
{ "type": "Feature", "properties": { "value": 13.386 }, "geometry": { "type": "Point", "coordinates": [ 129.35527, 35.496746, 30.0 ] } },
{ "type": "Feature", "properties": { "value": 12.249 }, "geometry": { "type": "Point", "coordinates": [ 129.356369, 35.496742, 30.0 ] } },
{ "type": "Feature", "properties": { "value": 11.031 }, "geometry": { "type": "Point", "coordinates": [ 129.357468, 35.496738, 30.0 ] } },
{ "type": "Feature", "properties": { "value": 9.8619 }, "geometry": { "type": "Point", "coordinates": [ 129.358582, 35.496735, 30.0 ] } },
{ "type": "Feature", "properties": { "value": 8.7997 }, "geometry": { "type": "Point", "coordinates": [ 129.35968, 35.496731, 30.0 ] } },
{ "type": "Feature", "properties": { "value": 7.8739 }, "geometry": { "type": "Point", "coordinates": [ 129.360779, 35.496727, 30.0 ] } },
{ "type": "Feature", "properties": { "value": 7.0883 }, "geometry": { "type": "Point", "coordinates": [ 129.361877, 35.496723, 30.0 ] } },
{ "type": "Feature", "properties": { "value": 6.4542 }, "geometry": { "type": "Point", "coordinates": [ 129.362991, 35.496723, 30.0 ] } },
{ "type": "Feature", "properties": { "value": 5.946 }, "geometry": { "type": "Point", "coordinates": [ 129.36409, 35.496719, 30.0 ] } },
{ "type": "Feature", "properties": { "value": 5.5497 }, "geometry": { "type": "Point", "coordinates": [ 129.365189, 35.496716, 30.0 ] } },
{ "type": "Feature", "properties": { "value": 5.2644 }, "geometry": { "type": "Point", "coordinates": [ 129.366287, 35.496712, 30.0 ] } },
{ "type": "Feature", "properties": { "value": 5.0725 }, "geometry": { "type": "Point", "coordinates": [ 129.367386, 35.496708, 30.0 ] } },
{ "type": "Feature", "properties": { "value": 4.971 }, "geometry": { "type": "Point", "coordinates": [ 129.3685, 35.496704, 30.0 ] } },
{ "type": "Feature", "properties": { "value": 4.9503 }, "geometry": { "type": "Point", "coordinates": [ 129.369598, 35.4967, 30.0 ] } },
{ "type": "Feature", "properties": { "value": 4.9966 }, "geometry": { "type": "Point", "coordinates": [ 129.370697, 35.496696, 30.0 ] } },
{ "type": "Feature", "properties": { "value": 5.0862 }, "geometry": { "type": "Point", "coordinates": [ 129.371796, 35.496696, 30.0 ] } },
{ "type": "Feature", "properties": { "value": 5.2015 }, "geometry": { "type": "Point", "coordinates": [ 129.37291, 35.496693, 30.0 ] } },
{ "type": "Feature", "properties": { "value": 5.3135 }, "geometry": { "type": "Point", "coordinates": [ 129.374008, 35.496689, 30.0 ] } },
{ "type": "Feature", "properties": { "value": 5.3968 }, "geometry": { "type": "Point", "coordinates": [ 129.375107, 35.496685, 30.0 ] } },
{ "type": "Feature", "properties": { "value": 5.4092 }, "geometry": { "type": "Point", "coordinates": [ 129.376205, 35.496681, 30.0 ] } },
{ "type": "Feature", "properties": { "value": 5.3224 }, "geometry": { "type": "Point", "coordinates": [ 129.377319, 35.496677, 30.0 ] } },
{ "type": "Feature", "properties": { "value": 5.1091 }, "geometry": { "type": "Point", "coordinates": [ 129.378418, 35.496674, 30.0 ] } },
{ "type": "Feature", "properties": { "value": 4.7508 }, "geometry": { "type": "Point", "coordinates": [ 129.379517, 35.49667, 30.0 ] } },
{ "type": "Feature", "properties": { "value": 4.2574 }, "geometry": { "type": "Point", "coordinates": [ 129.380615, 35.496666, 30.0 ] } },
{ "type": "Feature", "properties": { "value": 3.6553 }, "geometry": { "type": "Point", "coordinates": [ 129.381714, 35.496662, 30.0 ] } },
{ "type": "Feature", "properties": { "value": 0.0367 }, "geometry": { "type": "Point", "coordinates": [ 129.342041, 35.497684, 30.0 ] } },
{ "type": "Feature", "properties": { "value": 0.3654 }, "geometry": { "type": "Point", "coordinates": [ 129.343155, 35.497681, 30.0 ] } },
{ "type": "Feature", "properties": { "value": 0.8819 }, "geometry": { "type": "Point", "coordinates": [ 129.344254, 35.497677, 30.0 ] } },
{ "type": "Feature", "properties": { "value": 1.7534 }, "geometry": { "type": "Point", "coordinates": [ 129.345352, 35.497673, 30.0 ] } },
{ "type": "Feature", "properties": { "value": 3.0654 }, "geometry": { "type": "Point", "coordinates": [ 129.346451, 35.497673, 30.0 ] } },
{ "type": "Feature", "properties": { "value": 4.8079 }, "geometry": { "type": "Point", "coordinates": [ 129.347565, 35.497669, 30.0 ] } },
{ "type": "Feature", "properties": { "value": 6.8594 }, "geometry": { "type": "Point", "coordinates": [ 129.348663, 35.497665, 30.0 ] } },
{ "type": "Feature", "properties": { "value": 9.0301 }, "geometry": { "type": "Point", "coordinates": [ 129.349762, 35.497662, 30.0 ] } },
{ "type": "Feature", "properties": { "value": 10.985 }, "geometry": { "type": "Point", "coordinates": [ 129.350861, 35.497658, 30.0 ] } },
{ "type": "Feature", "properties": { "value": 12.435 }, "geometry": { "type": "Point", "coordinates": [ 129.351974, 35.497654, 30.0 ] } },
{ "type": "Feature", "properties": { "value": 13.39 }, "geometry": { "type": "Point", "coordinates": [ 129.353073, 35.497654, 30.0 ] } },
{ "type": "Feature", "properties": { "value": 13.828 }, "geometry": { "type": "Point", "coordinates": [ 129.354172, 35.49765, 30.0 ] } },
{ "type": "Feature", "properties": { "value": 13.782 }, "geometry": { "type": "Point", "coordinates": [ 129.35527, 35.497646, 30.0 ] } },
{ "type": "Feature", "properties": { "value": 13.314 }, "geometry": { "type": "Point", "coordinates": [ 129.356369, 35.497643, 30.0 ] } },
{ "type": "Feature", "properties": { "value": 12.574 }, "geometry": { "type": "Point", "coordinates": [ 129.357483, 35.497639, 30.0 ] } },
{ "type": "Feature", "properties": { "value": 11.735 }, "geometry": { "type": "Point", "coordinates": [ 129.358582, 35.497635, 30.0 ] } },
{ "type": "Feature", "properties": { "value": 10.869 }, "geometry": { "type": "Point", "coordinates": [ 129.35968, 35.497631, 30.0 ] } },
{ "type": "Feature", "properties": { "value": 10.034 }, "geometry": { "type": "Point", "coordinates": [ 129.360779, 35.497631, 30.0 ] } },
{ "type": "Feature", "properties": { "value": 9.2636 }, "geometry": { "type": "Point", "coordinates": [ 129.361893, 35.497627, 30.0 ] } },
{ "type": "Feature", "properties": { "value": 8.5964 }, "geometry": { "type": "Point", "coordinates": [ 129.362991, 35.497623, 30.0 ] } },
{ "type": "Feature", "properties": { "value": 8.0337 }, "geometry": { "type": "Point", "coordinates": [ 129.36409, 35.49762, 30.0 ] } },
{ "type": "Feature", "properties": { "value": 7.5665 }, "geometry": { "type": "Point", "coordinates": [ 129.365189, 35.497616, 30.0 ] } },
{ "type": "Feature", "properties": { "value": 7.2029 }, "geometry": { "type": "Point", "coordinates": [ 129.366302, 35.497612, 30.0 ] } },
{ "type": "Feature", "properties": { "value": 6.9395 }, "geometry": { "type": "Point", "coordinates": [ 129.367401, 35.497608, 30.0 ] } },
{ "type": "Feature", "properties": { "value": 6.7713 }, "geometry": { "type": "Point", "coordinates": [ 129.3685, 35.497604, 30.0 ] } },
{ "type": "Feature", "properties": { "value": 6.689 }, "geometry": { "type": "Point", "coordinates": [ 129.369598, 35.497604, 30.0 ] } },
{ "type": "Feature", "properties": { "value": 6.6728 }, "geometry": { "type": "Point", "coordinates": [ 129.370697, 35.497601, 30.0 ] } },
{ "type": "Feature", "properties": { "value": 6.6963 }, "geometry": { "type": "Point", "coordinates": [ 129.371811, 35.497597, 30.0 ] } },
{ "type": "Feature", "properties": { "value": 6.7441 }, "geometry": { "type": "Point", "coordinates": [ 129.37291, 35.497593, 30.0 ] } },
{ "type": "Feature", "properties": { "value": 6.7777 }, "geometry": { "type": "Point", "coordinates": [ 129.374008, 35.497589, 30.0 ] } },
{ "type": "Feature", "properties": { "value": 6.7675 }, "geometry": { "type": "Point", "coordinates": [ 129.375107, 35.497585, 30.0 ] } },
{ "type": "Feature", "properties": { "value": 6.6774 }, "geometry": { "type": "Point", "coordinates": [ 129.376221, 35.497581, 30.0 ] } },
{ "type": "Feature", "properties": { "value": 6.4678 }, "geometry": { "type": "Point", "coordinates": [ 129.377319, 35.497578, 30.0 ] } },
{ "type": "Feature", "properties": { "value": 6.1189 }, "geometry": { "type": "Point", "coordinates": [ 129.378418, 35.497574, 30.0 ] } },
{ "type": "Feature", "properties": { "value": 5.6193 }, "geometry": { "type": "Point", "coordinates": [ 129.379517, 35.497574, 30.0 ] } },
{ "type": "Feature", "properties": { "value": 4.9778 }, "geometry": { "type": "Point", "coordinates": [ 129.380615, 35.49757, 30.0 ] } },
{ "type": "Feature", "properties": { "value": 4.2321 }, "geometry": { "type": "Point", "coordinates": [ 129.381729, 35.497566, 30.0 ] } },
{ "type": "Feature", "properties": { "value": 0.3014 }, "geometry": { "type": "Point", "coordinates": [ 129.344254, 35.498581, 30.0 ] } },
{ "type": "Feature", "properties": { "value": 0.7159 }, "geometry": { "type": "Point", "coordinates": [ 129.345352, 35.498577, 30.0 ] } },
{ "type": "Feature", "properties": { "value": 1.4176 }, "geometry": { "type": "Point", "coordinates": [ 129.346466, 35.498573, 30.0 ] } },
{ "type": "Feature", "properties": { "value": 2.4536 }, "geometry": { "type": "Point", "coordinates": [ 129.347565, 35.498569, 30.0 ] } },
{ "type": "Feature", "properties": { "value": 3.8387 }, "geometry": { "type": "Point", "coordinates": [ 129.348663, 35.498566, 30.0 ] } },
{ "type": "Feature", "properties": { "value": 5.4862 }, "geometry": { "type": "Point", "coordinates": [ 129.349762, 35.498562, 30.0 ] } },
{ "type": "Feature", "properties": { "value": 7.2498 }, "geometry": { "type": "Point", "coordinates": [ 129.350876, 35.498562, 30.0 ] } },
{ "type": "Feature", "properties": { "value": 8.942 }, "geometry": { "type": "Point", "coordinates": [ 129.351974, 35.498558, 30.0 ] } },
{ "type": "Feature", "properties": { "value": 10.43 }, "geometry": { "type": "Point", "coordinates": [ 129.353073, 35.498554, 30.0 ] } },
{ "type": "Feature", "properties": { "value": 11.558 }, "geometry": { "type": "Point", "coordinates": [ 129.354172, 35.49855, 30.0 ] } },
{ "type": "Feature", "properties": { "value": 12.252 }, "geometry": { "type": "Point", "coordinates": [ 129.35527, 35.498547, 30.0 ] } },
{ "type": "Feature", "properties": { "value": 12.512 }, "geometry": { "type": "Point", "coordinates": [ 129.356384, 35.498543, 30.0 ] } },
{ "type": "Feature", "properties": { "value": 12.435 }, "geometry": { "type": "Point", "coordinates": [ 129.357483, 35.498539, 30.0 ] } },
{ "type": "Feature", "properties": { "value": 12.134 }, "geometry": { "type": "Point", "coordinates": [ 129.358582, 35.498539, 30.0 ] } },
{ "type": "Feature", "properties": { "value": 11.694 }, "geometry": { "type": "Point", "coordinates": [ 129.35968, 35.498535, 30.0 ] } },
{ "type": "Feature", "properties": { "value": 11.173 }, "geometry": { "type": "Point", "coordinates": [ 129.360794, 35.498531, 30.0 ] } },
{ "type": "Feature", "properties": { "value": 10.615 }, "geometry": { "type": "Point", "coordinates": [ 129.361893, 35.498528, 30.0 ] } },
{ "type": "Feature", "properties": { "value": 10.069 }, "geometry": { "type": "Point", "coordinates": [ 129.362991, 35.498524, 30.0 ] } },
{ "type": "Feature", "properties": { "value": 9.5766 }, "geometry": { "type": "Point", "coordinates": [ 129.36409, 35.49852, 30.0 ] } },
{ "type": "Feature", "properties": { "value": 9.1353 }, "geometry": { "type": "Point", "coordinates": [ 129.365204, 35.498516, 30.0 ] } },
{ "type": "Feature", "properties": { "value": 8.7676 }, "geometry": { "type": "Point", "coordinates": [ 129.366302, 35.498512, 30.0 ] } },
{ "type": "Feature", "properties": { "value": 8.4765 }, "geometry": { "type": "Point", "coordinates": [ 129.367401, 35.498512, 30.0 ] } },
{ "type": "Feature", "properties": { "value": 8.2659 }, "geometry": { "type": "Point", "coordinates": [ 129.3685, 35.498508, 30.0 ] } },
{ "type": "Feature", "properties": { "value": 8.1326 }, "geometry": { "type": "Point", "coordinates": [ 129.369598, 35.498505, 30.0 ] } },
{ "type": "Feature", "properties": { "value": 8.0504 }, "geometry": { "type": "Point", "coordinates": [ 129.370712, 35.498501, 30.0 ] } },
{ "type": "Feature", "properties": { "value": 8.0037 }, "geometry": { "type": "Point", "coordinates": [ 129.371811, 35.498497, 30.0 ] } },
{ "type": "Feature", "properties": { "value": 7.9637 }, "geometry": { "type": "Point", "coordinates": [ 129.37291, 35.498493, 30.0 ] } },
{ "type": "Feature", "properties": { "value": 7.8991 }, "geometry": { "type": "Point", "coordinates": [ 129.374008, 35.498489, 30.0 ] } },
{ "type": "Feature", "properties": { "value": 7.779 }, "geometry": { "type": "Point", "coordinates": [ 129.375122, 35.498486, 30.0 ] } },
{ "type": "Feature", "properties": { "value": 7.568 }, "geometry": { "type": "Point", "coordinates": [ 129.376221, 35.498482, 30.0 ] } },
{ "type": "Feature", "properties": { "value": 7.2345 }, "geometry": { "type": "Point", "coordinates": [ 129.377319, 35.498482, 30.0 ] } },
{ "type": "Feature", "properties": { "value": 6.7598 }, "geometry": { "type": "Point", "coordinates": [ 129.378418, 35.498478, 30.0 ] } },
{ "type": "Feature", "properties": { "value": 6.1364 }, "geometry": { "type": "Point", "coordinates": [ 129.379532, 35.498474, 30.0 ] } },
{ "type": "Feature", "properties": { "value": 5.3827 }, "geometry": { "type": "Point", "coordinates": [ 129.38063, 35.49847, 30.0 ] } },
{ "type": "Feature", "properties": { "value": 4.5365 }, "geometry": { "type": "Point", "coordinates": [ 129.381729, 35.498466, 30.0 ] } },
{ "type": "Feature", "properties": { "value": 0.2155 }, "geometry": { "type": "Point", "coordinates": [ 129.345367, 35.499477, 30.0 ] } },
{ "type": "Feature", "properties": { "value": 0.5507 }, "geometry": { "type": "Point", "coordinates": [ 129.346466, 35.499474, 30.0 ] } },
{ "type": "Feature", "properties": { "value": 1.0832 }, "geometry": { "type": "Point", "coordinates": [ 129.347565, 35.49947, 30.0 ] } },
{ "type": "Feature", "properties": { "value": 1.8651 }, "geometry": { "type": "Point", "coordinates": [ 129.348663, 35.499466, 30.0 ] } },
{ "type": "Feature", "properties": { "value": 2.9048 }, "geometry": { "type": "Point", "coordinates": [ 129.349777, 35.499466, 30.0 ] } },
{ "type": "Feature", "properties": { "value": 4.1734 }, "geometry": { "type": "Point", "coordinates": [ 129.350876, 35.499462, 30.0 ] } },
{ "type": "Feature", "properties": { "value": 5.5876 }, "geometry": { "type": "Point", "coordinates": [ 129.351974, 35.499458, 30.0 ] } },
{ "type": "Feature", "properties": { "value": 7.0334 }, "geometry": { "type": "Point", "coordinates": [ 129.353073, 35.499454, 30.0 ] } },
{ "type": "Feature", "properties": { "value": 8.3463 }, "geometry": { "type": "Point", "coordinates": [ 129.354187, 35.499451, 30.0 ] } },
{ "type": "Feature", "properties": { "value": 9.4209 }, "geometry": { "type": "Point", "coordinates": [ 129.355286, 35.499447, 30.0 ] } },
{ "type": "Feature", "properties": { "value": 10.198 }, "geometry": { "type": "Point", "coordinates": [ 129.356384, 35.499447, 30.0 ] } },
{ "type": "Feature", "properties": { "value": 10.698 }, "geometry": { "type": "Point", "coordinates": [ 129.357483, 35.499443, 30.0 ] } },
{ "type": "Feature", "properties": { "value": 10.959 }, "geometry": { "type": "Point", "coordinates": [ 129.358582, 35.499439, 30.0 ] } },
{ "type": "Feature", "properties": { "value": 11.015 }, "geometry": { "type": "Point", "coordinates": [ 129.359695, 35.499435, 30.0 ] } },
{ "type": "Feature", "properties": { "value": 10.902 }, "geometry": { "type": "Point", "coordinates": [ 129.360794, 35.499432, 30.0 ] } },
{ "type": "Feature", "properties": { "value": 10.689 }, "geometry": { "type": "Point", "coordinates": [ 129.361893, 35.499428, 30.0 ] } },
{ "type": "Feature", "properties": { "value": 10.401 }, "geometry": { "type": "Point", "coordinates": [ 129.362991, 35.499424, 30.0 ] } },
{ "type": "Feature", "properties": { "value": 10.086 }, "geometry": { "type": "Point", "coordinates": [ 129.364105, 35.499424, 30.0 ] } },
{ "type": "Feature", "properties": { "value": 9.7835 }, "geometry": { "type": "Point", "coordinates": [ 129.365204, 35.49942, 30.0 ] } },
{ "type": "Feature", "properties": { "value": 9.495 }, "geometry": { "type": "Point", "coordinates": [ 129.366302, 35.499416, 30.0 ] } },
{ "type": "Feature", "properties": { "value": 9.2427 }, "geometry": { "type": "Point", "coordinates": [ 129.367401, 35.499413, 30.0 ] } },
{ "type": "Feature", "properties": { "value": 9.0431 }, "geometry": { "type": "Point", "coordinates": [ 129.368515, 35.499409, 30.0 ] } },
{ "type": "Feature", "properties": { "value": 8.8949 }, "geometry": { "type": "Point", "coordinates": [ 129.369614, 35.499405, 30.0 ] } },
{ "type": "Feature", "properties": { "value": 8.7737 }, "geometry": { "type": "Point", "coordinates": [ 129.370712, 35.499401, 30.0 ] } },
{ "type": "Feature", "properties": { "value": 8.6685 }, "geometry": { "type": "Point", "coordinates": [ 129.371811, 35.499397, 30.0 ] } },
{ "type": "Feature", "properties": { "value": 8.5534 }, "geometry": { "type": "Point", "coordinates": [ 129.37291, 35.499393, 30.0 ] } },
{ "type": "Feature", "properties": { "value": 8.4002 }, "geometry": { "type": "Point", "coordinates": [ 129.374023, 35.499393, 30.0 ] } },
{ "type": "Feature", "properties": { "value": 8.1856 }, "geometry": { "type": "Point", "coordinates": [ 129.375122, 35.49939, 30.0 ] } },
{ "type": "Feature", "properties": { "value": 7.8739 }, "geometry": { "type": "Point", "coordinates": [ 129.376221, 35.499386, 30.0 ] } },
{ "type": "Feature", "properties": { "value": 7.4406 }, "geometry": { "type": "Point", "coordinates": [ 129.377319, 35.499382, 30.0 ] } },
{ "type": "Feature", "properties": { "value": 6.8776 }, "geometry": { "type": "Point", "coordinates": [ 129.378433, 35.499378, 30.0 ] } },
{ "type": "Feature", "properties": { "value": 6.181 }, "geometry": { "type": "Point", "coordinates": [ 129.379532, 35.499374, 30.0 ] } },
{ "type": "Feature", "properties": { "value": 5.373 }, "geometry": { "type": "Point", "coordinates": [ 129.38063, 35.499371, 30.0 ] } },
{ "type": "Feature", "properties": { "value": 4.4921 }, "geometry": { "type": "Point", "coordinates": [ 129.381729, 35.499367, 30.0 ] } },
{ "type": "Feature", "properties": { "value": 0.1244 }, "geometry": { "type": "Point", "coordinates": [ 129.346466, 35.500374, 30.0 ] } },
{ "type": "Feature", "properties": { "value": 0.3825 }, "geometry": { "type": "Point", "coordinates": [ 129.347565, 35.500374, 30.0 ] } },
{ "type": "Feature", "properties": { "value": 0.7782 }, "geometry": { "type": "Point", "coordinates": [ 129.348679, 35.50037, 30.0 ] } },
{ "type": "Feature", "properties": { "value": 1.3436 }, "geometry": { "type": "Point", "coordinates": [ 129.349777, 35.500366, 30.0 ] } },
{ "type": "Feature", "properties": { "value": 2.1062 }, "geometry": { "type": "Point", "coordinates": [ 129.350876, 35.500362, 30.0 ] } },
{ "type": "Feature", "properties": { "value": 3.0468 }, "geometry": { "type": "Point", "coordinates": [ 129.351974, 35.500359, 30.0 ] } },
{ "type": "Feature", "properties": { "value": 4.1286 }, "geometry": { "type": "Point", "coordinates": [ 129.353088, 35.500355, 30.0 ] } },
{ "type": "Feature", "properties": { "value": 5.2543 }, "geometry": { "type": "Point", "coordinates": [ 129.354187, 35.500355, 30.0 ] } },
{ "type": "Feature", "properties": { "value": 6.3257 }, "geometry": { "type": "Point", "coordinates": [ 129.355286, 35.500351, 30.0 ] } },
{ "type": "Feature", "properties": { "value": 7.2645 }, "geometry": { "type": "Point", "coordinates": [ 129.356384, 35.500347, 30.0 ] } },
{ "type": "Feature", "properties": { "value": 8.0562 }, "geometry": { "type": "Point", "coordinates": [ 129.357483, 35.500343, 30.0 ] } },
{ "type": "Feature", "properties": { "value": 8.6685 }, "geometry": { "type": "Point", "coordinates": [ 129.358597, 35.50034, 30.0 ] } },
{ "type": "Feature", "properties": { "value": 9.0958 }, "geometry": { "type": "Point", "coordinates": [ 129.359695, 35.500336, 30.0 ] } },
{ "type": "Feature", "properties": { "value": 9.3579 }, "geometry": { "type": "Point", "coordinates": [ 129.360794, 35.500332, 30.0 ] } },
{ "type": "Feature", "properties": { "value": 9.4795 }, "geometry": { "type": "Point", "coordinates": [ 129.361893, 35.500332, 30.0 ] } },
{ "type": "Feature", "properties": { "value": 9.478 }, "geometry": { "type": "Point", "coordinates": [ 129.363007, 35.500328, 30.0 ] } },
{ "type": "Feature", "properties": { "value": 9.4145 }, "geometry": { "type": "Point", "coordinates": [ 129.364105, 35.500324, 30.0 ] } },
{ "type": "Feature", "properties": { "value": 9.2943 }, "geometry": { "type": "Point", "coordinates": [ 129.365204, 35.50032, 30.0 ] } },
{ "type": "Feature", "properties": { "value": 9.1566 }, "geometry": { "type": "Point", "coordinates": [ 129.366302, 35.500317, 30.0 ] } },
{ "type": "Feature", "properties": { "value": 9.0091 }, "geometry": { "type": "Point", "coordinates": [ 129.367416, 35.500313, 30.0 ] } },
{ "type": "Feature", "properties": { "value": 8.8674 }, "geometry": { "type": "Point", "coordinates": [ 129.368515, 35.500309, 30.0 ] } },
{ "type": "Feature", "properties": { "value": 8.7489 }, "geometry": { "type": "Point", "coordinates": [ 129.369614, 35.500305, 30.0 ] } },
{ "type": "Feature", "properties": { "value": 8.6327 }, "geometry": { "type": "Point", "coordinates": [ 129.370712, 35.500301, 30.0 ] } },
{ "type": "Feature", "properties": { "value": 8.501 }, "geometry": { "type": "Point", "coordinates": [ 129.371811, 35.500301, 30.0 ] } },
{ "type": "Feature", "properties": { "value": 8.3498 }, "geometry": { "type": "Point", "coordinates": [ 129.372925, 35.500298, 30.0 ] } },
{ "type": "Feature", "properties": { "value": 8.1455 }, "geometry": { "type": "Point", "coordinates": [ 129.374023, 35.500294, 30.0 ] } },
{ "type": "Feature", "properties": { "value": 7.8743 }, "geometry": { "type": "Point", "coordinates": [ 129.375122, 35.50029, 30.0 ] } },
{ "type": "Feature", "properties": { "value": 7.5083 }, "geometry": { "type": "Point", "coordinates": [ 129.376221, 35.500286, 30.0 ] } },
{ "type": "Feature", "properties": { "value": 7.0309 }, "geometry": { "type": "Point", "coordinates": [ 129.377335, 35.500282, 30.0 ] } },
{ "type": "Feature", "properties": { "value": 6.4408 }, "geometry": { "type": "Point", "coordinates": [ 129.378433, 35.500278, 30.0 ] } },
{ "type": "Feature", "properties": { "value": 5.7388 }, "geometry": { "type": "Point", "coordinates": [ 129.379532, 35.500275, 30.0 ] } },
{ "type": "Feature", "properties": { "value": 4.9499 }, "geometry": { "type": "Point", "coordinates": [ 129.38063, 35.500271, 30.0 ] } },
{ "type": "Feature", "properties": { "value": 4.11 }, "geometry": { "type": "Point", "coordinates": [ 129.381744, 35.500267, 30.0 ] } },
{ "type": "Feature", "properties": { "value": 0.2452 }, "geometry": { "type": "Point", "coordinates": [ 129.348679, 35.50127, 30.0 ] } },
{ "type": "Feature", "properties": { "value": 0.5221 }, "geometry": { "type": "Point", "coordinates": [ 129.349777, 35.501266, 30.0 ] } },
{ "type": "Feature", "properties": { "value": 0.9186 }, "geometry": { "type": "Point", "coordinates": [ 129.350876, 35.501263, 30.0 ] } },
{ "type": "Feature", "properties": { "value": 1.4475 }, "geometry": { "type": "Point", "coordinates": [ 129.35199, 35.501259, 30.0 ] } },
{ "type": "Feature", "properties": { "value": 2.1225 }, "geometry": { "type": "Point", "coordinates": [ 129.353088, 35.501259, 30.0 ] } },
{ "type": "Feature", "properties": { "value": 2.9016 }, "geometry": { "type": "Point", "coordinates": [ 129.354187, 35.501255, 30.0 ] } },
{ "type": "Feature", "properties": { "value": 3.7389 }, "geometry": { "type": "Point", "coordinates": [ 129.355286, 35.501251, 30.0 ] } },
{ "type": "Feature", "properties": { "value": 4.564 }, "geometry": { "type": "Point", "coordinates": [ 129.3564, 35.501247, 30.0 ] } },
{ "type": "Feature", "properties": { "value": 5.3488 }, "geometry": { "type": "Point", "coordinates": [ 129.357498, 35.501244, 30.0 ] } },
{ "type": "Feature", "properties": { "value": 6.0632 }, "geometry": { "type": "Point", "coordinates": [ 129.358597, 35.50124, 30.0 ] } },
{ "type": "Feature", "properties": { "value": 6.6655 }, "geometry": { "type": "Point", "coordinates": [ 129.359695, 35.50124, 30.0 ] } },
{ "type": "Feature", "properties": { "value": 7.1155 }, "geometry": { "type": "Point", "coordinates": [ 129.360794, 35.501236, 30.0 ] } },
{ "type": "Feature", "properties": { "value": 7.4396 }, "geometry": { "type": "Point", "coordinates": [ 129.361908, 35.501232, 30.0 ] } },
{ "type": "Feature", "properties": { "value": 7.6561 }, "geometry": { "type": "Point", "coordinates": [ 129.363007, 35.501228, 30.0 ] } },
{ "type": "Feature", "properties": { "value": 7.7874 }, "geometry": { "type": "Point", "coordinates": [ 129.364105, 35.501225, 30.0 ] } },
{ "type": "Feature", "properties": { "value": 7.8552 }, "geometry": { "type": "Point", "coordinates": [ 129.365204, 35.501221, 30.0 ] } },
{ "type": "Feature", "properties": { "value": 7.8678 }, "geometry": { "type": "Point", "coordinates": [ 129.366318, 35.501217, 30.0 ] } },
{ "type": "Feature", "properties": { "value": 7.8445 }, "geometry": { "type": "Point", "coordinates": [ 129.367416, 35.501213, 30.0 ] } },
{ "type": "Feature", "properties": { "value": 7.8019 }, "geometry": { "type": "Point", "coordinates": [ 129.368515, 35.501213, 30.0 ] } },
{ "type": "Feature", "properties": { "value": 7.7397 }, "geometry": { "type": "Point", "coordinates": [ 129.369614, 35.501209, 30.0 ] } },
{ "type": "Feature", "properties": { "value": 7.6667 }, "geometry": { "type": "Point", "coordinates": [ 129.370728, 35.501205, 30.0 ] } },
{ "type": "Feature", "properties": { "value": 7.553 }, "geometry": { "type": "Point", "coordinates": [ 129.371826, 35.501202, 30.0 ] } },
{ "type": "Feature", "properties": { "value": 7.4021 }, "geometry": { "type": "Point", "coordinates": [ 129.372925, 35.501198, 30.0 ] } },
{ "type": "Feature", "properties": { "value": 7.1962 }, "geometry": { "type": "Point", "coordinates": [ 129.374023, 35.501194, 30.0 ] } },
{ "type": "Feature", "properties": { "value": 6.9164 }, "geometry": { "type": "Point", "coordinates": [ 129.375122, 35.50119, 30.0 ] } },
{ "type": "Feature", "properties": { "value": 6.5554 }, "geometry": { "type": "Point", "coordinates": [ 129.376236, 35.501186, 30.0 ] } },
{ "type": "Feature", "properties": { "value": 6.0978 }, "geometry": { "type": "Point", "coordinates": [ 129.377335, 35.501183, 30.0 ] } },
{ "type": "Feature", "properties": { "value": 5.5464 }, "geometry": { "type": "Point", "coordinates": [ 129.378433, 35.501179, 30.0 ] } },
{ "type": "Feature", "properties": { "value": 4.9082 }, "geometry": { "type": "Point", "coordinates": [ 129.379532, 35.501179, 30.0 ] } },
{ "type": "Feature", "properties": { "value": 4.2062 }, "geometry": { "type": "Point", "coordinates": [ 129.380646, 35.501175, 30.0 ] } },
{ "type": "Feature", "properties": { "value": 3.4721 }, "geometry": { "type": "Point", "coordinates": [ 129.381744, 35.501171, 30.0 ] } }
]
}
