{
"type": "FeatureCollection",
"features": [
{ "type": "Feature", "properties": { "value": 0.0024 }, "geometry": { "type": "Point", "coordinates": [ 129.32756, 35.458969, 60.0 ] } },
{ "type": "Feature", "properties": { "value": 2.732 }, "geometry": { "type": "Point", "coordinates": [ 129.32756, 35.459869, 60.0 ] } },
{ "type": "Feature", "properties": { "value": 70.153 }, "geometry": { "type": "Point", "coordinates": [ 129.327576, 35.46077, 60.0 ] } },
{ "type": "Feature", "properties": { "value": 127.12 }, "geometry": { "type": "Point", "coordinates": [ 129.327576, 35.461674, 60.0 ] } },
{ "type": "Feature", "properties": { "value": 112.36 }, "geometry": { "type": "Point", "coordinates": [ 129.327576, 35.462574, 60.0 ] } },
{ "type": "Feature", "properties": { "value": 89.986 }, "geometry": { "type": "Point", "coordinates": [ 129.327576, 35.463474, 60.0 ] } },
{ "type": "Feature", "properties": { "value": 2.2681 }, "geometry": { "type": "Point", "coordinates": [ 129.32869, 35.46347, 60.0 ] } },
{ "type": "Feature", "properties": { "value": 77.953 }, "geometry": { "type": "Point", "coordinates": [ 129.327591, 35.464375, 60.0 ] } },
{ "type": "Feature", "properties": { "value": 6.7864 }, "geometry": { "type": "Point", "coordinates": [ 129.32869, 35.464375, 60.0 ] } },
{ "type": "Feature", "properties": { "value": 77.591 }, "geometry": { "type": "Point", "coordinates": [ 129.327591, 35.465279, 60.0 ] } },
{ "type": "Feature", "properties": { "value": 16.806 }, "geometry": { "type": "Point", "coordinates": [ 129.32869, 35.465275, 60.0 ] } },
{ "type": "Feature", "properties": { "value": 74.82 }, "geometry": { "type": "Point", "coordinates": [ 129.327591, 35.466179, 60.0 ] } },
{ "type": "Feature", "properties": { "value": 30.593 }, "geometry": { "type": "Point", "coordinates": [ 129.32869, 35.466175, 60.0 ] } },
{ "type": "Feature", "properties": { "value": 72.169 }, "geometry": { "type": "Point", "coordinates": [ 129.327591, 35.467079, 60.0 ] } },
{ "type": "Feature", "properties": { "value": 41.586 }, "geometry": { "type": "Point", "coordinates": [ 129.328705, 35.467075, 60.0 ] } },
{ "type": "Feature", "properties": { "value": 68.749 }, "geometry": { "type": "Point", "coordinates": [ 129.327606, 35.467983, 60.0 ] } },
{ "type": "Feature", "properties": { "value": 48.004 }, "geometry": { "type": "Point", "coordinates": [ 129.328705, 35.467979, 60.0 ] } },
{ "type": "Feature", "properties": { "value": 65.81 }, "geometry": { "type": "Point", "coordinates": [ 129.327606, 35.468884, 60.0 ] } },
{ "type": "Feature", "properties": { "value": 51.149 }, "geometry": { "type": "Point", "coordinates": [ 129.328705, 35.46888, 60.0 ] } },
{ "type": "Feature", "properties": { "value": 1.1909 }, "geometry": { "type": "Point", "coordinates": [ 129.326508, 35.469788, 60.0 ] } },
{ "type": "Feature", "properties": { "value": 63.178 }, "geometry": { "type": "Point", "coordinates": [ 129.327606, 35.469784, 60.0 ] } },
{ "type": "Feature", "properties": { "value": 52.458 }, "geometry": { "type": "Point", "coordinates": [ 129.328705, 35.46978, 60.0 ] } },
{ "type": "Feature", "properties": { "value": 1.732 }, "geometry": { "type": "Point", "coordinates": [ 129.326508, 35.470688, 60.0 ] } },
{ "type": "Feature", "properties": { "value": 59.784 }, "geometry": { "type": "Point", "coordinates": [ 129.327606, 35.470684, 60.0 ] } },
{ "type": "Feature", "properties": { "value": 50.403 }, "geometry": { "type": "Point", "coordinates": [ 129.32872, 35.470684, 60.0 ] } },
{ "type": "Feature", "properties": { "value": 0.8546 }, "geometry": { "type": "Point", "coordinates": [ 129.329819, 35.47068, 60.0 ] } },
{ "type": "Feature", "properties": { "value": 2.4333 }, "geometry": { "type": "Point", "coordinates": [ 129.326508, 35.471588, 60.0 ] } },
{ "type": "Feature", "properties": { "value": 53.427 }, "geometry": { "type": "Point", "coordinates": [ 129.327621, 35.471588, 60.0 ] } },
{ "type": "Feature", "properties": { "value": 40.122 }, "geometry": { "type": "Point", "coordinates": [ 129.32872, 35.471584, 60.0 ] } },
{ "type": "Feature", "properties": { "value": 0.9252 }, "geometry": { "type": "Point", "coordinates": [ 129.329819, 35.471581, 60.0 ] } },
{ "type": "Feature", "properties": { "value": 3.0317 }, "geometry": { "type": "Point", "coordinates": [ 129.326523, 35.472492, 60.0 ] } },
{ "type": "Feature", "properties": { "value": 43.003 }, "geometry": { "type": "Point", "coordinates": [ 129.327621, 35.472488, 60.0 ] } },
{ "type": "Feature", "properties": { "value": 26.986 }, "geometry": { "type": "Point", "coordinates": [ 129.32872, 35.472485, 60.0 ] } },
{ "type": "Feature", "properties": { "value": 0.9479 }, "geometry": { "type": "Point", "coordinates": [ 129.329819, 35.472481, 60.0 ] } },
{ "type": "Feature", "properties": { "value": 4.0674 }, "geometry": { "type": "Point", "coordinates": [ 129.326523, 35.473392, 60.0 ] } },
{ "type": "Feature", "properties": { "value": 34.008 }, "geometry": { "type": "Point", "coordinates": [ 129.327621, 35.473389, 60.0 ] } },
{ "type": "Feature", "properties": { "value": 22.513 }, "geometry": { "type": "Point", "coordinates": [ 129.32872, 35.473385, 60.0 ] } },
{ "type": "Feature", "properties": { "value": 1.6409 }, "geometry": { "type": "Point", "coordinates": [ 129.329819, 35.473385, 60.0 ] } },
{ "type": "Feature", "properties": { "value": 5.2075 }, "geometry": { "type": "Point", "coordinates": [ 129.326523, 35.474293, 60.0 ] } },
{ "type": "Feature", "properties": { "value": 29.646 }, "geometry": { "type": "Point", "coordinates": [ 129.327621, 35.474289, 60.0 ] } },
{ "type": "Feature", "properties": { "value": 22.91 }, "geometry": { "type": "Point", "coordinates": [ 129.328735, 35.474289, 60.0 ] } },
{ "type": "Feature", "properties": { "value": 2.7634 }, "geometry": { "type": "Point", "coordinates": [ 129.329834, 35.474285, 60.0 ] } },
{ "type": "Feature", "properties": { "value": 5.9653 }, "geometry": { "type": "Point", "coordinates": [ 129.326523, 35.475193, 60.0 ] } },
{ "type": "Feature", "properties": { "value": 29.535 }, "geometry": { "type": "Point", "coordinates": [ 129.327637, 35.475193, 60.0 ] } },
{ "type": "Feature", "properties": { "value": 24.46 }, "geometry": { "type": "Point", "coordinates": [ 129.328735, 35.475189, 60.0 ] } },
{ "type": "Feature", "properties": { "value": 3.6063 }, "geometry": { "type": "Point", "coordinates": [ 129.329834, 35.475185, 60.0 ] } },
{ "type": "Feature", "properties": { "value": 7.4454 }, "geometry": { "type": "Point", "coordinates": [ 129.326538, 35.476097, 60.0 ] } },
{ "type": "Feature", "properties": { "value": 34.013 }, "geometry": { "type": "Point", "coordinates": [ 129.327637, 35.476093, 60.0 ] } },
{ "type": "Feature", "properties": { "value": 27.308 }, "geometry": { "type": "Point", "coordinates": [ 129.328735, 35.476089, 60.0 ] } },
{ "type": "Feature", "properties": { "value": 4.1309 }, "geometry": { "type": "Point", "coordinates": [ 129.329834, 35.476086, 60.0 ] } },
{ "type": "Feature", "properties": { "value": 0.3458 }, "geometry": { "type": "Point", "coordinates": [ 129.325439, 35.477001, 60.0 ] } },
{ "type": "Feature", "properties": { "value": 10.536 }, "geometry": { "type": "Point", "coordinates": [ 129.326538, 35.476997, 60.0 ] } },
{ "type": "Feature", "properties": { "value": 41.103 }, "geometry": { "type": "Point", "coordinates": [ 129.327637, 35.476994, 60.0 ] } },
{ "type": "Feature", "properties": { "value": 29.867 }, "geometry": { "type": "Point", "coordinates": [ 129.328735, 35.47699, 60.0 ] } },
{ "type": "Feature", "properties": { "value": 4.2396 }, "geometry": { "type": "Point", "coordinates": [ 129.329834, 35.47699, 60.0 ] } },
{ "type": "Feature", "properties": { "value": 1.027 }, "geometry": { "type": "Point", "coordinates": [ 129.325439, 35.477901, 60.0 ] } },
{ "type": "Feature", "properties": { "value": 15.261 }, "geometry": { "type": "Point", "coordinates": [ 129.326538, 35.477898, 60.0 ] } },
{ "type": "Feature", "properties": { "value": 45.801 }, "geometry": { "type": "Point", "coordinates": [ 129.327637, 35.477894, 60.0 ] } },
{ "type": "Feature", "properties": { "value": 29.365 }, "geometry": { "type": "Point", "coordinates": [ 129.328735, 35.477894, 60.0 ] } },
{ "type": "Feature", "properties": { "value": 4.025 }, "geometry": { "type": "Point", "coordinates": [ 129.329849, 35.47789, 60.0 ] } },
{ "type": "Feature", "properties": { "value": 2.1748 }, "geometry": { "type": "Point", "coordinates": [ 129.325439, 35.478802, 60.0 ] } },
{ "type": "Feature", "properties": { "value": 20.604 }, "geometry": { "type": "Point", "coordinates": [ 129.326538, 35.478798, 60.0 ] } },
{ "type": "Feature", "properties": { "value": 47.648 }, "geometry": { "type": "Point", "coordinates": [ 129.327637, 35.478798, 60.0 ] } },
{ "type": "Feature", "properties": { "value": 26.87 }, "geometry": { "type": "Point", "coordinates": [ 129.328751, 35.478794, 60.0 ] } },
{ "type": "Feature", "properties": { "value": 3.5393 }, "geometry": { "type": "Point", "coordinates": [ 129.329849, 35.47879, 60.0 ] } },
{ "type": "Feature", "properties": { "value": 3.7248 }, "geometry": { "type": "Point", "coordinates": [ 129.325439, 35.479706, 60.0 ] } },
{ "type": "Feature", "properties": { "value": 25.563 }, "geometry": { "type": "Point", "coordinates": [ 129.326553, 35.479702, 60.0 ] } },
{ "type": "Feature", "properties": { "value": 47.781 }, "geometry": { "type": "Point", "coordinates": [ 129.327652, 35.479698, 60.0 ] } },
{ "type": "Feature", "properties": { "value": 23.857 }, "geometry": { "type": "Point", "coordinates": [ 129.328751, 35.479694, 60.0 ] } },
{ "type": "Feature", "properties": { "value": 3.0447 }, "geometry": { "type": "Point", "coordinates": [ 129.329849, 35.479691, 60.0 ] } },
{ "type": "Feature", "properties": { "value": 4.9668 }, "geometry": { "type": "Point", "coordinates": [ 129.325455, 35.480606, 60.0 ] } },
{ "type": "Feature", "properties": { "value": 26.787 }, "geometry": { "type": "Point", "coordinates": [ 129.326553, 35.480602, 60.0 ] } },
{ "type": "Feature", "properties": { "value": 42.194 }, "geometry": { "type": "Point", "coordinates": [ 129.327652, 35.480598, 60.0 ] } },
{ "type": "Feature", "properties": { "value": 19.261 }, "geometry": { "type": "Point", "coordinates": [ 129.328751, 35.480595, 60.0 ] } },
{ "type": "Feature", "properties": { "value": 2.4223 }, "geometry": { "type": "Point", "coordinates": [ 129.329849, 35.480595, 60.0 ] } },
{ "type": "Feature", "properties": { "value": 0.1968 }, "geometry": { "type": "Point", "coordinates": [ 129.324356, 35.48151, 60.0 ] } },
{ "type": "Feature", "properties": { "value": 4.1622 }, "geometry": { "type": "Point", "coordinates": [ 129.325455, 35.481506, 60.0 ] } },
{ "type": "Feature", "properties": { "value": 19.407 }, "geometry": { "type": "Point", "coordinates": [ 129.326553, 35.481503, 60.0 ] } },
{ "type": "Feature", "properties": { "value": 27.912 }, "geometry": { "type": "Point", "coordinates": [ 129.327652, 35.481503, 60.0 ] } },
{ "type": "Feature", "properties": { "value": 12.032 }, "geometry": { "type": "Point", "coordinates": [ 129.328751, 35.481499, 60.0 ] } },
{ "type": "Feature", "properties": { "value": 1.4759 }, "geometry": { "type": "Point", "coordinates": [ 129.329865, 35.481495, 60.0 ] } },
{ "type": "Feature", "properties": { "value": 0.0736 }, "geometry": { "type": "Point", "coordinates": [ 129.324356, 35.48241, 60.0 ] } },
{ "type": "Feature", "properties": { "value": 1.7935 }, "geometry": { "type": "Point", "coordinates": [ 129.325455, 35.482407, 60.0 ] } },
{ "type": "Feature", "properties": { "value": 7.9108 }, "geometry": { "type": "Point", "coordinates": [ 129.326553, 35.482407, 60.0 ] } },
{ "type": "Feature", "properties": { "value": 10.777 }, "geometry": { "type": "Point", "coordinates": [ 129.327652, 35.482403, 60.0 ] } },
{ "type": "Feature", "properties": { "value": 4.4077 }, "geometry": { "type": "Point", "coordinates": [ 129.328766, 35.482399, 60.0 ] } },
{ "type": "Feature", "properties": { "value": 0.5211 }, "geometry": { "type": "Point", "coordinates": [ 129.329865, 35.482395, 60.0 ] } },
{ "type": "Feature", "properties": { "value": 0.3386 }, "geometry": { "type": "Point", "coordinates": [ 129.325455, 35.483311, 60.0 ] } },
{ "type": "Feature", "properties": { "value": 1.4767 }, "geometry": { "type": "Point", "coordinates": [ 129.326553, 35.483307, 60.0 ] } },
{ "type": "Feature", "properties": { "value": 1.8979 }, "geometry": { "type": "Point", "coordinates": [ 129.327667, 35.483303, 60.0 ] } },
{ "type": "Feature", "properties": { "value": 0.7244 }, "geometry": { "type": "Point", "coordinates": [ 129.328766, 35.483299, 60.0 ] } },
{ "type": "Feature", "properties": { "value": 0.0579 }, "geometry": { "type": "Point", "coordinates": [ 129.329865, 35.483295, 60.0 ] } },
{ "type": "Feature", "properties": { "value": 0.0874 }, "geometry": { "type": "Point", "coordinates": [ 129.326569, 35.484207, 60.0 ] } },
{ "type": "Feature", "properties": { "value": 0.1062 }, "geometry": { "type": "Point", "coordinates": [ 129.327667, 35.484203, 60.0 ] } },
{ "type": "Feature", "properties": { "value": 0.0274 }, "geometry": { "type": "Point", "coordinates": [ 129.328766, 35.484203, 60.0 ] } }
]
}
