{
"type": "FeatureCollection",
"features": [
{ "type": "Feature", "properties": { "value": 0.0 }, "geometry": { "type": "Point", "coordinates": [ 129.327606, 35.468884, 225.0 ] } },
{ "type": "Feature", "properties": { "value": 0.0 }, "geometry": { "type": "Point", "coordinates": [ 129.328705, 35.46888, 225.0 ] } },
{ "type": "Feature", "properties": { "value": 0.0 }, "geometry": { "type": "Point", "coordinates": [ 129.316589, 35.469814, 225.0 ] } },
{ "type": "Feature", "properties": { "value": 0.0 }, "geometry": { "type": "Point", "coordinates": [ 129.317688, 35.46981, 225.0 ] } },
{ "type": "Feature", "properties": { "value": 0.0 }, "geometry": { "type": "Point", "coordinates": [ 129.327606, 35.469784, 225.0 ] } },
{ "type": "Feature", "properties": { "value": 0.0 }, "geometry": { "type": "Point", "coordinates": [ 129.328705, 35.46978, 225.0 ] } },
{ "type": "Feature", "properties": { "value": 0.0 }, "geometry": { "type": "Point", "coordinates": [ 129.316589, 35.470715, 225.0 ] } },
{ "type": "Feature", "properties": { "value": 0.0 }, "geometry": { "type": "Point", "coordinates": [ 129.317688, 35.470711, 225.0 ] } },
{ "type": "Feature", "properties": { "value": 0.0 }, "geometry": { "type": "Point", "coordinates": [ 129.318802, 35.470707, 225.0 ] } },
{ "type": "Feature", "properties": { "value": 0.0 }, "geometry": { "type": "Point", "coordinates": [ 129.327606, 35.470684, 225.0 ] } },
{ "type": "Feature", "properties": { "value": 0.0 }, "geometry": { "type": "Point", "coordinates": [ 129.32872, 35.470684, 225.0 ] } },
{ "type": "Feature", "properties": { "value": 0.0 }, "geometry": { "type": "Point", "coordinates": [ 129.315491, 35.471619, 225.0 ] } },
{ "type": "Feature", "properties": { "value": 0.0003 }, "geometry": { "type": "Point", "coordinates": [ 129.316605, 35.471615, 225.0 ] } },
{ "type": "Feature", "properties": { "value": 0.0003 }, "geometry": { "type": "Point", "coordinates": [ 129.317703, 35.471615, 225.0 ] } },
{ "type": "Feature", "properties": { "value": 0.0 }, "geometry": { "type": "Point", "coordinates": [ 129.318802, 35.471611, 225.0 ] } },
{ "type": "Feature", "properties": { "value": 0.0 }, "geometry": { "type": "Point", "coordinates": [ 129.327621, 35.471588, 225.0 ] } },
{ "type": "Feature", "properties": { "value": 0.0 }, "geometry": { "type": "Point", "coordinates": [ 129.32872, 35.471584, 225.0 ] } },
{ "type": "Feature", "properties": { "value": 0.0015 }, "geometry": { "type": "Point", "coordinates": [ 129.315506, 35.472519, 225.0 ] } },
{ "type": "Feature", "properties": { "value": 0.0056 }, "geometry": { "type": "Point", "coordinates": [ 129.316605, 35.472519, 225.0 ] } },
{ "type": "Feature", "properties": { "value": 0.0039 }, "geometry": { "type": "Point", "coordinates": [ 129.317703, 35.472515, 225.0 ] } },
{ "type": "Feature", "properties": { "value": 0.0004 }, "geometry": { "type": "Point", "coordinates": [ 129.318802, 35.472511, 225.0 ] } },
{ "type": "Feature", "properties": { "value": 0.0 }, "geometry": { "type": "Point", "coordinates": [ 129.326523, 35.472492, 225.0 ] } },
{ "type": "Feature", "properties": { "value": 0.0 }, "geometry": { "type": "Point", "coordinates": [ 129.327621, 35.472488, 225.0 ] } },
{ "type": "Feature", "properties": { "value": 0.0 }, "geometry": { "type": "Point", "coordinates": [ 129.32872, 35.472485, 225.0 ] } },
{ "type": "Feature", "properties": { "value": 0.0014 }, "geometry": { "type": "Point", "coordinates": [ 129.314407, 35.473423, 225.0 ] } },
{ "type": "Feature", "properties": { "value": 0.0156 }, "geometry": { "type": "Point", "coordinates": [ 129.315506, 35.473423, 225.0 ] } },
{ "type": "Feature", "properties": { "value": 0.0377 }, "geometry": { "type": "Point", "coordinates": [ 129.316605, 35.473419, 225.0 ] } },
{ "type": "Feature", "properties": { "value": 0.0231 }, "geometry": { "type": "Point", "coordinates": [ 129.317703, 35.473415, 225.0 ] } },
{ "type": "Feature", "properties": { "value": 0.003 }, "geometry": { "type": "Point", "coordinates": [ 129.318802, 35.473412, 225.0 ] } },
{ "type": "Feature", "properties": { "value": 0.0 }, "geometry": { "type": "Point", "coordinates": [ 129.326523, 35.473392, 225.0 ] } },
{ "type": "Feature", "properties": { "value": 0.0 }, "geometry": { "type": "Point", "coordinates": [ 129.327621, 35.473389, 225.0 ] } },
{ "type": "Feature", "properties": { "value": 0.0 }, "geometry": { "type": "Point", "coordinates": [ 129.32872, 35.473385, 225.0 ] } },
{ "type": "Feature", "properties": { "value": 0.0 }, "geometry": { "type": "Point", "coordinates": [ 129.329819, 35.473385, 225.0 ] } },
{ "type": "Feature", "properties": { "value": 0.0132 }, "geometry": { "type": "Point", "coordinates": [ 129.314407, 35.474327, 225.0 ] } },
{ "type": "Feature", "properties": { "value": 0.0736 }, "geometry": { "type": "Point", "coordinates": [ 129.315506, 35.474323, 225.0 ] } },
{ "type": "Feature", "properties": { "value": 0.1326 }, "geometry": { "type": "Point", "coordinates": [ 129.316605, 35.474319, 225.0 ] } },
{ "type": "Feature", "properties": { "value": 0.0717 }, "geometry": { "type": "Point", "coordinates": [ 129.317703, 35.474316, 225.0 ] } },
{ "type": "Feature", "properties": { "value": 0.0103 }, "geometry": { "type": "Point", "coordinates": [ 129.318817, 35.474316, 225.0 ] } },
{ "type": "Feature", "properties": { "value": 0.0 }, "geometry": { "type": "Point", "coordinates": [ 129.326523, 35.474293, 225.0 ] } },
{ "type": "Feature", "properties": { "value": 0.0 }, "geometry": { "type": "Point", "coordinates": [ 129.327621, 35.474289, 225.0 ] } },
{ "type": "Feature", "properties": { "value": 0.0 }, "geometry": { "type": "Point", "coordinates": [ 129.328735, 35.474289, 225.0 ] } },
{ "type": "Feature", "properties": { "value": 0.0 }, "geometry": { "type": "Point", "coordinates": [ 129.329834, 35.474285, 225.0 ] } },
{ "type": "Feature", "properties": { "value": 0.0045 }, "geometry": { "type": "Point", "coordinates": [ 129.313309, 35.475231, 225.0 ] } },
{ "type": "Feature", "properties": { "value": 0.063 }, "geometry": { "type": "Point", "coordinates": [ 129.314407, 35.475227, 225.0 ] } },
{ "type": "Feature", "properties": { "value": 0.2184 }, "geometry": { "type": "Point", "coordinates": [ 129.315506, 35.475224, 225.0 ] } },
{ "type": "Feature", "properties": { "value": 0.3062 }, "geometry": { "type": "Point", "coordinates": [ 129.316605, 35.47522, 225.0 ] } },
{ "type": "Feature", "properties": { "value": 0.1519 }, "geometry": { "type": "Point", "coordinates": [ 129.317719, 35.47522, 225.0 ] } },
{ "type": "Feature", "properties": { "value": 0.0251 }, "geometry": { "type": "Point", "coordinates": [ 129.318817, 35.475216, 225.0 ] } },
{ "type": "Feature", "properties": { "value": 0.0 }, "geometry": { "type": "Point", "coordinates": [ 129.326523, 35.475193, 225.0 ] } },
{ "type": "Feature", "properties": { "value": 0.0 }, "geometry": { "type": "Point", "coordinates": [ 129.327637, 35.475193, 225.0 ] } },
{ "type": "Feature", "properties": { "value": 0.0 }, "geometry": { "type": "Point", "coordinates": [ 129.328735, 35.475189, 225.0 ] } },
{ "type": "Feature", "properties": { "value": 0.0 }, "geometry": { "type": "Point", "coordinates": [ 129.329834, 35.475185, 225.0 ] } },
{ "type": "Feature", "properties": { "value": 0.0461 }, "geometry": { "type": "Point", "coordinates": [ 129.313309, 35.476131, 225.0 ] } },
{ "type": "Feature", "properties": { "value": 0.245 }, "geometry": { "type": "Point", "coordinates": [ 129.314407, 35.476128, 225.0 ] } },
{ "type": "Feature", "properties": { "value": 0.5242 }, "geometry": { "type": "Point", "coordinates": [ 129.315506, 35.476124, 225.0 ] } },
{ "type": "Feature", "properties": { "value": 0.5981 }, "geometry": { "type": "Point", "coordinates": [ 129.31662, 35.476124, 225.0 ] } },
{ "type": "Feature", "properties": { "value": 0.281 }, "geometry": { "type": "Point", "coordinates": [ 129.317719, 35.47612, 225.0 ] } },
{ "type": "Feature", "properties": { "value": 0.05 }, "geometry": { "type": "Point", "coordinates": [ 129.318817, 35.476116, 225.0 ] } },
{ "type": "Feature", "properties": { "value": 0.0 }, "geometry": { "type": "Point", "coordinates": [ 129.326538, 35.476097, 225.0 ] } },
{ "type": "Feature", "properties": { "value": 0.0001 }, "geometry": { "type": "Point", "coordinates": [ 129.327637, 35.476093, 225.0 ] } },
{ "type": "Feature", "properties": { "value": 0.0001 }, "geometry": { "type": "Point", "coordinates": [ 129.328735, 35.476089, 225.0 ] } },
{ "type": "Feature", "properties": { "value": 0.0001 }, "geometry": { "type": "Point", "coordinates": [ 129.329834, 35.476086, 225.0 ] } },
{ "type": "Feature", "properties": { "value": 0.2147 }, "geometry": { "type": "Point", "coordinates": [ 129.313309, 35.477032, 225.0 ] } },
{ "type": "Feature", "properties": { "value": 0.6804 }, "geometry": { "type": "Point", "coordinates": [ 129.314407, 35.477028, 225.0 ] } },
{ "type": "Feature", "properties": { "value": 1.1096 }, "geometry": { "type": "Point", "coordinates": [ 129.315521, 35.477028, 225.0 ] } },
{ "type": "Feature", "properties": { "value": 1.0817 }, "geometry": { "type": "Point", "coordinates": [ 129.31662, 35.477024, 225.0 ] } },
{ "type": "Feature", "properties": { "value": 0.4881 }, "geometry": { "type": "Point", "coordinates": [ 129.317719, 35.47702, 225.0 ] } },
{ "type": "Feature", "properties": { "value": 0.0948 }, "geometry": { "type": "Point", "coordinates": [ 129.318817, 35.477016, 225.0 ] } },
{ "type": "Feature", "properties": { "value": 0.0 }, "geometry": { "type": "Point", "coordinates": [ 129.325439, 35.477001, 225.0 ] } },
{ "type": "Feature", "properties": { "value": 0.0001 }, "geometry": { "type": "Point", "coordinates": [ 129.326538, 35.476997, 225.0 ] } },
{ "type": "Feature", "properties": { "value": 0.001 }, "geometry": { "type": "Point", "coordinates": [ 129.327637, 35.476994, 225.0 ] } },
{ "type": "Feature", "properties": { "value": 0.001 }, "geometry": { "type": "Point", "coordinates": [ 129.328735, 35.47699, 225.0 ] } },
{ "type": "Feature", "properties": { "value": 0.0003 }, "geometry": { "type": "Point", "coordinates": [ 129.329834, 35.47699, 225.0 ] } },
{ "type": "Feature", "properties": { "value": 0.1082 }, "geometry": { "type": "Point", "coordinates": [ 129.31221, 35.477936, 225.0 ] } },
{ "type": "Feature", "properties": { "value": 0.6136 }, "geometry": { "type": "Point", "coordinates": [ 129.313324, 35.477932, 225.0 ] } },
{ "type": "Feature", "properties": { "value": 1.4976 }, "geometry": { "type": "Point", "coordinates": [ 129.314423, 35.477932, 225.0 ] } },
{ "type": "Feature", "properties": { "value": 2.0526 }, "geometry": { "type": "Point", "coordinates": [ 129.315521, 35.477928, 225.0 ] } },
{ "type": "Feature", "properties": { "value": 1.7861 }, "geometry": { "type": "Point", "coordinates": [ 129.31662, 35.477924, 225.0 ] } },
{ "type": "Feature", "properties": { "value": 0.7862 }, "geometry": { "type": "Point", "coordinates": [ 129.317719, 35.477921, 225.0 ] } },
{ "type": "Feature", "properties": { "value": 0.1672 }, "geometry": { "type": "Point", "coordinates": [ 129.318832, 35.477921, 225.0 ] } },
{ "type": "Feature", "properties": { "value": 0.0001 }, "geometry": { "type": "Point", "coordinates": [ 129.325439, 35.477901, 225.0 ] } },
{ "type": "Feature", "properties": { "value": 0.0014 }, "geometry": { "type": "Point", "coordinates": [ 129.326538, 35.477898, 225.0 ] } },
{ "type": "Feature", "properties": { "value": 0.0081 }, "geometry": { "type": "Point", "coordinates": [ 129.327637, 35.477894, 225.0 ] } },
{ "type": "Feature", "properties": { "value": 0.0065 }, "geometry": { "type": "Point", "coordinates": [ 129.328735, 35.477894, 225.0 ] } },
{ "type": "Feature", "properties": { "value": 0.0013 }, "geometry": { "type": "Point", "coordinates": [ 129.329849, 35.47789, 225.0 ] } },
{ "type": "Feature", "properties": { "value": 0.3611 }, "geometry": { "type": "Point", "coordinates": [ 129.312225, 35.478836, 225.0 ] } },
{ "type": "Feature", "properties": { "value": 1.3589 }, "geometry": { "type": "Point", "coordinates": [ 129.313324, 35.478836, 225.0 ] } },
{ "type": "Feature", "properties": { "value": 2.7713 }, "geometry": { "type": "Point", "coordinates": [ 129.314423, 35.478832, 225.0 ] } },
{ "type": "Feature", "properties": { "value": 3.2863 }, "geometry": { "type": "Point", "coordinates": [ 129.315521, 35.478828, 225.0 ] } },
{ "type": "Feature", "properties": { "value": 2.607 }, "geometry": { "type": "Point", "coordinates": [ 129.31662, 35.478825, 225.0 ] } },
{ "type": "Feature", "properties": { "value": 1.1102 }, "geometry": { "type": "Point", "coordinates": [ 129.317734, 35.478825, 225.0 ] } },
{ "type": "Feature", "properties": { "value": 0.2443 }, "geometry": { "type": "Point", "coordinates": [ 129.318832, 35.478821, 225.0 ] } },
{ "type": "Feature", "properties": { "value": 0.0005 }, "geometry": { "type": "Point", "coordinates": [ 129.325439, 35.478802, 225.0 ] } },
{ "type": "Feature", "properties": { "value": 0.0073 }, "geometry": { "type": "Point", "coordinates": [ 129.326538, 35.478798, 225.0 ] } },
{ "type": "Feature", "properties": { "value": 0.025 }, "geometry": { "type": "Point", "coordinates": [ 129.327637, 35.478798, 225.0 ] } },
{ "type": "Feature", "properties": { "value": 0.0172 }, "geometry": { "type": "Point", "coordinates": [ 129.328751, 35.478794, 225.0 ] } },
{ "type": "Feature", "properties": { "value": 0.0028 }, "geometry": { "type": "Point", "coordinates": [ 129.329849, 35.47879, 225.0 ] } },
{ "type": "Feature", "properties": { "value": 0.1534 }, "geometry": { "type": "Point", "coordinates": [ 129.311127, 35.47974, 225.0 ] } },
{ "type": "Feature", "properties": { "value": 0.8523 }, "geometry": { "type": "Point", "coordinates": [ 129.312225, 35.47974, 225.0 ] } },
{ "type": "Feature", "properties": { "value": 2.461 }, "geometry": { "type": "Point", "coordinates": [ 129.313324, 35.479736, 225.0 ] } },
{ "type": "Feature", "properties": { "value": 4.1178 }, "geometry": { "type": "Point", "coordinates": [ 129.314423, 35.479733, 225.0 ] } },
{ "type": "Feature", "properties": { "value": 4.6734 }, "geometry": { "type": "Point", "coordinates": [ 129.315521, 35.479729, 225.0 ] } },
{ "type": "Feature", "properties": { "value": 3.3873 }, "geometry": { "type": "Point", "coordinates": [ 129.316635, 35.479729, 225.0 ] } },
{ "type": "Feature", "properties": { "value": 1.4097 }, "geometry": { "type": "Point", "coordinates": [ 129.317734, 35.479725, 225.0 ] } },
{ "type": "Feature", "properties": { "value": 0.3164 }, "geometry": { "type": "Point", "coordinates": [ 129.318832, 35.479721, 225.0 ] } },
{ "type": "Feature", "properties": { "value": 0.0016 }, "geometry": { "type": "Point", "coordinates": [ 129.325439, 35.479706, 225.0 ] } },
{ "type": "Feature", "properties": { "value": 0.0123 }, "geometry": { "type": "Point", "coordinates": [ 129.326553, 35.479702, 225.0 ] } },
{ "type": "Feature", "properties": { "value": 0.0255 }, "geometry": { "type": "Point", "coordinates": [ 129.327652, 35.479698, 225.0 ] } },
{ "type": "Feature", "properties": { "value": 0.0176 }, "geometry": { "type": "Point", "coordinates": [ 129.328751, 35.479694, 225.0 ] } },
{ "type": "Feature", "properties": { "value": 0.0035 }, "geometry": { "type": "Point", "coordinates": [ 129.329849, 35.479691, 225.0 ] } },
{ "type": "Feature", "properties": { "value": 0.4444 }, "geometry": { "type": "Point", "coordinates": [ 129.311127, 35.480644, 225.0 ] } },
{ "type": "Feature", "properties": { "value": 1.6881 }, "geometry": { "type": "Point", "coordinates": [ 129.312225, 35.48064, 225.0 ] } },
{ "type": "Feature", "properties": { "value": 3.9448 }, "geometry": { "type": "Point", "coordinates": [ 129.313324, 35.480637, 225.0 ] } },
{ "type": "Feature", "properties": { "value": 5.6594 }, "geometry": { "type": "Point", "coordinates": [ 129.314423, 35.480633, 225.0 ] } },
{ "type": "Feature", "properties": { "value": 6.0744 }, "geometry": { "type": "Point", "coordinates": [ 129.315536, 35.480633, 225.0 ] } },
{ "type": "Feature", "properties": { "value": 4.0563 }, "geometry": { "type": "Point", "coordinates": [ 129.316635, 35.480629, 225.0 ] } },
{ "type": "Feature", "properties": { "value": 1.6318 }, "geometry": { "type": "Point", "coordinates": [ 129.317734, 35.480625, 225.0 ] } },
{ "type": "Feature", "properties": { "value": 0.382 }, "geometry": { "type": "Point", "coordinates": [ 129.318832, 35.480621, 225.0 ] } },
{ "type": "Feature", "properties": { "value": 0.0016 }, "geometry": { "type": "Point", "coordinates": [ 129.325455, 35.480606, 225.0 ] } },
{ "type": "Feature", "properties": { "value": 0.0078 }, "geometry": { "type": "Point", "coordinates": [ 129.326553, 35.480602, 225.0 ] } },
{ "type": "Feature", "properties": { "value": 0.0133 }, "geometry": { "type": "Point", "coordinates": [ 129.327652, 35.480598, 225.0 ] } },
{ "type": "Feature", "properties": { "value": 0.0111 }, "geometry": { "type": "Point", "coordinates": [ 129.328751, 35.480595, 225.0 ] } },
{ "type": "Feature", "properties": { "value": 0.003 }, "geometry": { "type": "Point", "coordinates": [ 129.329849, 35.480595, 225.0 ] } },
{ "type": "Feature", "properties": { "value": 0.1569 }, "geometry": { "type": "Point", "coordinates": [ 129.310028, 35.481548, 225.0 ] } },
{ "type": "Feature", "properties": { "value": 0.9667 }, "geometry": { "type": "Point", "coordinates": [ 129.311127, 35.481544, 225.0 ] } },
{ "type": "Feature", "properties": { "value": 3.0515 }, "geometry": { "type": "Point", "coordinates": [ 129.312225, 35.481541, 225.0 ] } },
{ "type": "Feature", "properties": { "value": 6.1311 }, "geometry": { "type": "Point", "coordinates": [ 129.313324, 35.481537, 225.0 ] } },
{ "type": "Feature", "properties": { "value": 7.8709 }, "geometry": { "type": "Point", "coordinates": [ 129.314438, 35.481537, 225.0 ] } },
{ "type": "Feature", "properties": { "value": 7.4347 }, "geometry": { "type": "Point", "coordinates": [ 129.315536, 35.481533, 225.0 ] } },
{ "type": "Feature", "properties": { "value": 4.5999 }, "geometry": { "type": "Point", "coordinates": [ 129.316635, 35.481529, 225.0 ] } },
{ "type": "Feature", "properties": { "value": 1.778 }, "geometry": { "type": "Point", "coordinates": [ 129.317734, 35.481525, 225.0 ] } },
{ "type": "Feature", "properties": { "value": 0.4079 }, "geometry": { "type": "Point", "coordinates": [ 129.318848, 35.481525, 225.0 ] } },
{ "type": "Feature", "properties": { "value": 0.0 }, "geometry": { "type": "Point", "coordinates": [ 129.324356, 35.48151, 225.0 ] } },
{ "type": "Feature", "properties": { "value": 0.0009 }, "geometry": { "type": "Point", "coordinates": [ 129.325455, 35.481506, 225.0 ] } },
{ "type": "Feature", "properties": { "value": 0.0046 }, "geometry": { "type": "Point", "coordinates": [ 129.326553, 35.481503, 225.0 ] } },
{ "type": "Feature", "properties": { "value": 0.0106 }, "geometry": { "type": "Point", "coordinates": [ 129.327652, 35.481503, 225.0 ] } },
{ "type": "Feature", "properties": { "value": 0.0102 }, "geometry": { "type": "Point", "coordinates": [ 129.328751, 35.481499, 225.0 ] } },
{ "type": "Feature", "properties": { "value": 0.0027 }, "geometry": { "type": "Point", "coordinates": [ 129.329865, 35.481495, 225.0 ] } },
{ "type": "Feature", "properties": { "value": 0.4666 }, "geometry": { "type": "Point", "coordinates": [ 129.310028, 35.482449, 225.0 ] } },
{ "type": "Feature", "properties": { "value": 1.9069 }, "geometry": { "type": "Point", "coordinates": [ 129.311127, 35.482445, 225.0 ] } },
{ "type": "Feature", "properties": { "value": 5.0935 }, "geometry": { "type": "Point", "coordinates": [ 129.312225, 35.482445, 225.0 ] } },
{ "type": "Feature", "properties": { "value": 9.0605 }, "geometry": { "type": "Point", "coordinates": [ 129.313339, 35.482441, 225.0 ] } },
{ "type": "Feature", "properties": { "value": 10.437 }, "geometry": { "type": "Point", "coordinates": [ 129.314438, 35.482437, 225.0 ] } },
{ "type": "Feature", "properties": { "value": 8.5732 }, "geometry": { "type": "Point", "coordinates": [ 129.315536, 35.482433, 225.0 ] } },
{ "type": "Feature", "properties": { "value": 4.9193 }, "geometry": { "type": "Point", "coordinates": [ 129.316635, 35.48243, 225.0 ] } },
{ "type": "Feature", "properties": { "value": 1.8281 }, "geometry": { "type": "Point", "coordinates": [ 129.317749, 35.48243, 225.0 ] } },
{ "type": "Feature", "properties": { "value": 0.4149 }, "geometry": { "type": "Point", "coordinates": [ 129.318848, 35.482426, 225.0 ] } },
{ "type": "Feature", "properties": { "value": 0.0001 }, "geometry": { "type": "Point", "coordinates": [ 129.324356, 35.48241, 225.0 ] } },
{ "type": "Feature", "properties": { "value": 0.0008 }, "geometry": { "type": "Point", "coordinates": [ 129.325455, 35.482407, 225.0 ] } },
{ "type": "Feature", "properties": { "value": 0.0052 }, "geometry": { "type": "Point", "coordinates": [ 129.326553, 35.482407, 225.0 ] } },
{ "type": "Feature", "properties": { "value": 0.0147 }, "geometry": { "type": "Point", "coordinates": [ 129.327652, 35.482403, 225.0 ] } },
{ "type": "Feature", "properties": { "value": 0.0122 }, "geometry": { "type": "Point", "coordinates": [ 129.328766, 35.482399, 225.0 ] } },
{ "type": "Feature", "properties": { "value": 0.0025 }, "geometry": { "type": "Point", "coordinates": [ 129.329865, 35.482395, 225.0 ] } },
{ "type": "Feature", "properties": { "value": 0.0907 }, "geometry": { "type": "Point", "coordinates": [ 129.308929, 35.483353, 225.0 ] } },
{ "type": "Feature", "properties": { "value": 1.0566 }, "geometry": { "type": "Point", "coordinates": [ 129.310028, 35.483349, 225.0 ] } },
{ "type": "Feature", "properties": { "value": 3.45 }, "geometry": { "type": "Point", "coordinates": [ 129.311127, 35.483349, 225.0 ] } },
{ "type": "Feature", "properties": { "value": 7.9119 }, "geometry": { "type": "Point", "coordinates": [ 129.312241, 35.483345, 225.0 ] } },
{ "type": "Feature", "properties": { "value": 12.418 }, "geometry": { "type": "Point", "coordinates": [ 129.313339, 35.483341, 225.0 ] } },
{ "type": "Feature", "properties": { "value": 12.821 }, "geometry": { "type": "Point", "coordinates": [ 129.314438, 35.483337, 225.0 ] } },
{ "type": "Feature", "properties": { "value": 9.3344 }, "geometry": { "type": "Point", "coordinates": [ 129.315536, 35.483337, 225.0 ] } },
{ "type": "Feature", "properties": { "value": 4.9502 }, "geometry": { "type": "Point", "coordinates": [ 129.31665, 35.483334, 225.0 ] } },
{ "type": "Feature", "properties": { "value": 1.7455 }, "geometry": { "type": "Point", "coordinates": [ 129.317749, 35.48333, 225.0 ] } },
{ "type": "Feature", "properties": { "value": 0.3857 }, "geometry": { "type": "Point", "coordinates": [ 129.318848, 35.483326, 225.0 ] } },
{ "type": "Feature", "properties": { "value": 0.0001 }, "geometry": { "type": "Point", "coordinates": [ 129.324356, 35.483311, 225.0 ] } },
{ "type": "Feature", "properties": { "value": 0.0012 }, "geometry": { "type": "Point", "coordinates": [ 129.325455, 35.483311, 225.0 ] } },
{ "type": "Feature", "properties": { "value": 0.0078 }, "geometry": { "type": "Point", "coordinates": [ 129.326553, 35.483307, 225.0 ] } },
{ "type": "Feature", "properties": { "value": 0.0159 }, "geometry": { "type": "Point", "coordinates": [ 129.327667, 35.483303, 225.0 ] } },
{ "type": "Feature", "properties": { "value": 0.0096 }, "geometry": { "type": "Point", "coordinates": [ 129.328766, 35.483299, 225.0 ] } },
{ "type": "Feature", "properties": { "value": 0.0019 }, "geometry": { "type": "Point", "coordinates": [ 129.329865, 35.483295, 225.0 ] } },
{ "type": "Feature", "properties": { "value": 0.5184 }, "geometry": { "type": "Point", "coordinates": [ 129.308929, 35.484253, 225.0 ] } },
{ "type": "Feature", "properties": { "value": 2.1325 }, "geometry": { "type": "Point", "coordinates": [ 129.310028, 35.484253, 225.0 ] } },
{ "type": "Feature", "properties": { "value": 5.838 }, "geometry": { "type": "Point", "coordinates": [ 129.311142, 35.484249, 225.0 ] } },
{ "type": "Feature", "properties": { "value": 11.478 }, "geometry": { "type": "Point", "coordinates": [ 129.312241, 35.484245, 225.0 ] } },
{ "type": "Feature", "properties": { "value": 16.007 }, "geometry": { "type": "Point", "coordinates": [ 129.313339, 35.484241, 225.0 ] } },
{ "type": "Feature", "properties": { "value": 15.062 }, "geometry": { "type": "Point", "coordinates": [ 129.314438, 35.484241, 225.0 ] } },
{ "type": "Feature", "properties": { "value": 9.7442 }, "geometry": { "type": "Point", "coordinates": [ 129.315552, 35.484238, 225.0 ] } },
{ "type": "Feature", "properties": { "value": 4.704 }, "geometry": { "type": "Point", "coordinates": [ 129.31665, 35.484234, 225.0 ] } },
{ "type": "Feature", "properties": { "value": 1.5498 }, "geometry": { "type": "Point", "coordinates": [ 129.317749, 35.48423, 225.0 ] } },
{ "type": "Feature", "properties": { "value": 0.3139 }, "geometry": { "type": "Point", "coordinates": [ 129.318848, 35.48423, 225.0 ] } },
{ "type": "Feature", "properties": { "value": 0.0003 }, "geometry": { "type": "Point", "coordinates": [ 129.324356, 35.484215, 225.0 ] } },
{ "type": "Feature", "properties": { "value": 0.0023 }, "geometry": { "type": "Point", "coordinates": [ 129.325455, 35.484211, 225.0 ] } },
{ "type": "Feature", "properties": { "value": 0.0097 }, "geometry": { "type": "Point", "coordinates": [ 129.326569, 35.484207, 225.0 ] } },
{ "type": "Feature", "properties": { "value": 0.0124 }, "geometry": { "type": "Point", "coordinates": [ 129.327667, 35.484203, 225.0 ] } },
{ "type": "Feature", "properties": { "value": 0.0061 }, "geometry": { "type": "Point", "coordinates": [ 129.328766, 35.484203, 225.0 ] } },
{ "type": "Feature", "properties": { "value": 0.0014 }, "geometry": { "type": "Point", "coordinates": [ 129.329865, 35.4842, 225.0 ] } },
{ "type": "Feature", "properties": { "value": 0.159 }, "geometry": { "type": "Point", "coordinates": [ 129.307831, 35.485157, 225.0 ] } },
{ "type": "Feature", "properties": { "value": 1.2697 }, "geometry": { "type": "Point", "coordinates": [ 129.308929, 35.485157, 225.0 ] } },
{ "type": "Feature", "properties": { "value": 3.9927 }, "geometry": { "type": "Point", "coordinates": [ 129.310043, 35.485153, 225.0 ] } },
{ "type": "Feature", "properties": { "value": 9.2164 }, "geometry": { "type": "Point", "coordinates": [ 129.311142, 35.485149, 225.0 ] } },
{ "type": "Feature", "properties": { "value": 15.7 }, "geometry": { "type": "Point", "coordinates": [ 129.312241, 35.485146, 225.0 ] } },
{ "type": "Feature", "properties": { "value": 19.479 }, "geometry": { "type": "Point", "coordinates": [ 129.313339, 35.485146, 225.0 ] } },
{ "type": "Feature", "properties": { "value": 16.676 }, "geometry": { "type": "Point", "coordinates": [ 129.314453, 35.485142, 225.0 ] } },
{ "type": "Feature", "properties": { "value": 9.6393 }, "geometry": { "type": "Point", "coordinates": [ 129.315552, 35.485138, 225.0 ] } },
{ "type": "Feature", "properties": { "value": 4.1935 }, "geometry": { "type": "Point", "coordinates": [ 129.31665, 35.485134, 225.0 ] } },
{ "type": "Feature", "properties": { "value": 1.2734 }, "geometry": { "type": "Point", "coordinates": [ 129.317749, 35.485134, 225.0 ] } },
{ "type": "Feature", "properties": { "value": 0.2188 }, "geometry": { "type": "Point", "coordinates": [ 129.318848, 35.48513, 225.0 ] } },
{ "type": "Feature", "properties": { "value": 0.0 }, "geometry": { "type": "Point", "coordinates": [ 129.323257, 35.485119, 225.0 ] } },
{ "type": "Feature", "properties": { "value": 0.0008 }, "geometry": { "type": "Point", "coordinates": [ 129.324371, 35.485115, 225.0 ] } },
{ "type": "Feature", "properties": { "value": 0.0051 }, "geometry": { "type": "Point", "coordinates": [ 129.32547, 35.485111, 225.0 ] } },
{ "type": "Feature", "properties": { "value": 0.0141 }, "geometry": { "type": "Point", "coordinates": [ 129.326569, 35.485107, 225.0 ] } },
{ "type": "Feature", "properties": { "value": 0.0133 }, "geometry": { "type": "Point", "coordinates": [ 129.327667, 35.485107, 225.0 ] } },
{ "type": "Feature", "properties": { "value": 0.0063 }, "geometry": { "type": "Point", "coordinates": [ 129.328766, 35.485104, 225.0 ] } },
{ "type": "Feature", "properties": { "value": 0.0012 }, "geometry": { "type": "Point", "coordinates": [ 129.32988, 35.4851, 225.0 ] } },
{ "type": "Feature", "properties": { "value": 0.719 }, "geometry": { "type": "Point", "coordinates": [ 129.307831, 35.486061, 225.0 ] } },
{ "type": "Feature", "properties": { "value": 2.6859 }, "geometry": { "type": "Point", "coordinates": [ 129.308945, 35.486057, 225.0 ] } },
{ "type": "Feature", "properties": { "value": 6.9736 }, "geometry": { "type": "Point", "coordinates": [ 129.310043, 35.486053, 225.0 ] } },
{ "type": "Feature", "properties": { "value": 13.701 }, "geometry": { "type": "Point", "coordinates": [ 129.311142, 35.48605, 225.0 ] } },
{ "type": "Feature", "properties": { "value": 20.2 }, "geometry": { "type": "Point", "coordinates": [ 129.312241, 35.48605, 225.0 ] } },
{ "type": "Feature", "properties": { "value": 21.942 }, "geometry": { "type": "Point", "coordinates": [ 129.313354, 35.486046, 225.0 ] } },
{ "type": "Feature", "properties": { "value": 16.798 }, "geometry": { "type": "Point", "coordinates": [ 129.314453, 35.486042, 225.0 ] } },
{ "type": "Feature", "properties": { "value": 8.8448 }, "geometry": { "type": "Point", "coordinates": [ 129.315552, 35.486038, 225.0 ] } },
{ "type": "Feature", "properties": { "value": 3.4968 }, "geometry": { "type": "Point", "coordinates": [ 129.31665, 35.486038, 225.0 ] } },
{ "type": "Feature", "properties": { "value": 0.961 }, "geometry": { "type": "Point", "coordinates": [ 129.317749, 35.486034, 225.0 ] } },
{ "type": "Feature", "properties": { "value": 0.118 }, "geometry": { "type": "Point", "coordinates": [ 129.318863, 35.486031, 225.0 ] } },
{ "type": "Feature", "properties": { "value": 0.0003 }, "geometry": { "type": "Point", "coordinates": [ 129.323273, 35.486019, 225.0 ] } },
{ "type": "Feature", "properties": { "value": 0.0038 }, "geometry": { "type": "Point", "coordinates": [ 129.324371, 35.486015, 225.0 ] } },
{ "type": "Feature", "properties": { "value": 0.016 }, "geometry": { "type": "Point", "coordinates": [ 129.32547, 35.486012, 225.0 ] } },
{ "type": "Feature", "properties": { "value": 0.029 }, "geometry": { "type": "Point", "coordinates": [ 129.326569, 35.486012, 225.0 ] } },
{ "type": "Feature", "properties": { "value": 0.0225 }, "geometry": { "type": "Point", "coordinates": [ 129.327667, 35.486008, 225.0 ] } },
{ "type": "Feature", "properties": { "value": 0.0088 }, "geometry": { "type": "Point", "coordinates": [ 129.328781, 35.486004, 225.0 ] } },
{ "type": "Feature", "properties": { "value": 0.001 }, "geometry": { "type": "Point", "coordinates": [ 129.32988, 35.486, 225.0 ] } },
{ "type": "Feature", "properties": { "value": 0.3757 }, "geometry": { "type": "Point", "coordinates": [ 129.306732, 35.486965, 225.0 ] } },
{ "type": "Feature", "properties": { "value": 1.8489 }, "geometry": { "type": "Point", "coordinates": [ 129.307846, 35.486961, 225.0 ] } },
{ "type": "Feature", "properties": { "value": 5.2228 }, "geometry": { "type": "Point", "coordinates": [ 129.308945, 35.486958, 225.0 ] } },
{ "type": "Feature", "properties": { "value": 11.325 }, "geometry": { "type": "Point", "coordinates": [ 129.310043, 35.486954, 225.0 ] } },
{ "type": "Feature", "properties": { "value": 19.133 }, "geometry": { "type": "Point", "coordinates": [ 129.311142, 35.486954, 225.0 ] } },
{ "type": "Feature", "properties": { "value": 24.376 }, "geometry": { "type": "Point", "coordinates": [ 129.312256, 35.48695, 225.0 ] } },
{ "type": "Feature", "properties": { "value": 22.587 }, "geometry": { "type": "Point", "coordinates": [ 129.313354, 35.486946, 225.0 ] } },
{ "type": "Feature", "properties": { "value": 15.259 }, "geometry": { "type": "Point", "coordinates": [ 129.314453, 35.486942, 225.0 ] } },
{ "type": "Feature", "properties": { "value": 7.5087 }, "geometry": { "type": "Point", "coordinates": [ 129.315552, 35.486942, 225.0 ] } },
{ "type": "Feature", "properties": { "value": 2.6944 }, "geometry": { "type": "Point", "coordinates": [ 129.31665, 35.486938, 225.0 ] } },
{ "type": "Feature", "properties": { "value": 0.6727 }, "geometry": { "type": "Point", "coordinates": [ 129.317764, 35.486935, 225.0 ] } },
{ "type": "Feature", "properties": { "value": 0.0017 }, "geometry": { "type": "Point", "coordinates": [ 129.323273, 35.486919, 225.0 ] } },
{ "type": "Feature", "properties": { "value": 0.0155 }, "geometry": { "type": "Point", "coordinates": [ 129.324371, 35.486916, 225.0 ] } },
{ "type": "Feature", "properties": { "value": 0.0507 }, "geometry": { "type": "Point", "coordinates": [ 129.32547, 35.486916, 225.0 ] } },
{ "type": "Feature", "properties": { "value": 0.0628 }, "geometry": { "type": "Point", "coordinates": [ 129.326569, 35.486912, 225.0 ] } },
{ "type": "Feature", "properties": { "value": 0.0363 }, "geometry": { "type": "Point", "coordinates": [ 129.327682, 35.486908, 225.0 ] } },
{ "type": "Feature", "properties": { "value": 0.0106 }, "geometry": { "type": "Point", "coordinates": [ 129.328781, 35.486904, 225.0 ] } },
{ "type": "Feature", "properties": { "value": 0.0006 }, "geometry": { "type": "Point", "coordinates": [ 129.32988, 35.486904, 225.0 ] } },
{ "type": "Feature", "properties": { "value": 1.241 }, "geometry": { "type": "Point", "coordinates": [ 129.306747, 35.487865, 225.0 ] } },
{ "type": "Feature", "properties": { "value": 3.846 }, "geometry": { "type": "Point", "coordinates": [ 129.307846, 35.487862, 225.0 ] } },
{ "type": "Feature", "properties": { "value": 9.0462 }, "geometry": { "type": "Point", "coordinates": [ 129.308945, 35.487858, 225.0 ] } },
{ "type": "Feature", "properties": { "value": 16.995 }, "geometry": { "type": "Point", "coordinates": [ 129.310043, 35.487858, 225.0 ] } },
{ "type": "Feature", "properties": { "value": 25.002 }, "geometry": { "type": "Point", "coordinates": [ 129.311157, 35.487854, 225.0 ] } },
{ "type": "Feature", "properties": { "value": 27.5 }, "geometry": { "type": "Point", "coordinates": [ 129.312256, 35.48785, 225.0 ] } },
{ "type": "Feature", "properties": { "value": 21.687 }, "geometry": { "type": "Point", "coordinates": [ 129.313354, 35.487846, 225.0 ] } },
{ "type": "Feature", "properties": { "value": 12.877 }, "geometry": { "type": "Point", "coordinates": [ 129.314453, 35.487846, 225.0 ] } },
{ "type": "Feature", "properties": { "value": 5.8635 }, "geometry": { "type": "Point", "coordinates": [ 129.315552, 35.487843, 225.0 ] } },
{ "type": "Feature", "properties": { "value": 1.9385 }, "geometry": { "type": "Point", "coordinates": [ 129.316666, 35.487839, 225.0 ] } },
{ "type": "Feature", "properties": { "value": 0.3951 }, "geometry": { "type": "Point", "coordinates": [ 129.317764, 35.487835, 225.0 ] } },
{ "type": "Feature", "properties": { "value": 0.0007 }, "geometry": { "type": "Point", "coordinates": [ 129.322174, 35.487823, 225.0 ] } },
{ "type": "Feature", "properties": { "value": 0.0056 }, "geometry": { "type": "Point", "coordinates": [ 129.323273, 35.48782, 225.0 ] } },
{ "type": "Feature", "properties": { "value": 0.0391 }, "geometry": { "type": "Point", "coordinates": [ 129.324371, 35.48782, 225.0 ] } },
{ "type": "Feature", "properties": { "value": 0.0994 }, "geometry": { "type": "Point", "coordinates": [ 129.32547, 35.487816, 225.0 ] } },
{ "type": "Feature", "properties": { "value": 0.0973 }, "geometry": { "type": "Point", "coordinates": [ 129.326584, 35.487812, 225.0 ] } },
{ "type": "Feature", "properties": { "value": 0.0463 }, "geometry": { "type": "Point", "coordinates": [ 129.327682, 35.487808, 225.0 ] } },
{ "type": "Feature", "properties": { "value": 0.0109 }, "geometry": { "type": "Point", "coordinates": [ 129.328781, 35.487808, 225.0 ] } },
{ "type": "Feature", "properties": { "value": 0.0001 }, "geometry": { "type": "Point", "coordinates": [ 129.32988, 35.487804, 225.0 ] } },
{ "type": "Feature", "properties": { "value": 0.9612 }, "geometry": { "type": "Point", "coordinates": [ 129.305649, 35.48877, 225.0 ] } },
{ "type": "Feature", "properties": { "value": 3.0493 }, "geometry": { "type": "Point", "coordinates": [ 129.306747, 35.488766, 225.0 ] } },
{ "type": "Feature", "properties": { "value": 7.3244 }, "geometry": { "type": "Point", "coordinates": [ 129.307846, 35.488762, 225.0 ] } },
{ "type": "Feature", "properties": { "value": 14.553 }, "geometry": { "type": "Point", "coordinates": [ 129.308945, 35.488762, 225.0 ] } },
{ "type": "Feature", "properties": { "value": 23.712 }, "geometry": { "type": "Point", "coordinates": [ 129.310059, 35.488758, 225.0 ] } },
{ "type": "Feature", "properties": { "value": 30.151 }, "geometry": { "type": "Point", "coordinates": [ 129.311157, 35.488754, 225.0 ] } },
{ "type": "Feature", "properties": { "value": 28.532 }, "geometry": { "type": "Point", "coordinates": [ 129.312256, 35.48875, 225.0 ] } },
{ "type": "Feature", "properties": { "value": 19.707 }, "geometry": { "type": "Point", "coordinates": [ 129.313354, 35.48875, 225.0 ] } },
{ "type": "Feature", "properties": { "value": 10.65 }, "geometry": { "type": "Point", "coordinates": [ 129.314453, 35.488747, 225.0 ] } },
{ "type": "Feature", "properties": { "value": 4.3752 }, "geometry": { "type": "Point", "coordinates": [ 129.315567, 35.488743, 225.0 ] } },
{ "type": "Feature", "properties": { "value": 1.2759 }, "geometry": { "type": "Point", "coordinates": [ 129.316666, 35.488739, 225.0 ] } },
{ "type": "Feature", "properties": { "value": 0.1742 }, "geometry": { "type": "Point", "coordinates": [ 129.317764, 35.488739, 225.0 ] } },
{ "type": "Feature", "properties": { "value": 0.0008 }, "geometry": { "type": "Point", "coordinates": [ 129.322174, 35.488728, 225.0 ] } },
{ "type": "Feature", "properties": { "value": 0.0095 }, "geometry": { "type": "Point", "coordinates": [ 129.323273, 35.488724, 225.0 ] } },
{ "type": "Feature", "properties": { "value": 0.0487 }, "geometry": { "type": "Point", "coordinates": [ 129.324371, 35.48872, 225.0 ] } },
{ "type": "Feature", "properties": { "value": 0.1008 }, "geometry": { "type": "Point", "coordinates": [ 129.325485, 35.488716, 225.0 ] } },
{ "type": "Feature", "properties": { "value": 0.0915 }, "geometry": { "type": "Point", "coordinates": [ 129.326584, 35.488712, 225.0 ] } },
{ "type": "Feature", "properties": { "value": 0.0419 }, "geometry": { "type": "Point", "coordinates": [ 129.327682, 35.488712, 225.0 ] } },
{ "type": "Feature", "properties": { "value": 0.0095 }, "geometry": { "type": "Point", "coordinates": [ 129.328781, 35.488708, 225.0 ] } },
{ "type": "Feature", "properties": { "value": 0.9954 }, "geometry": { "type": "Point", "coordinates": [ 129.30455, 35.489674, 225.0 ] } },
{ "type": "Feature", "properties": { "value": 2.8934 }, "geometry": { "type": "Point", "coordinates": [ 129.305649, 35.48967, 225.0 ] } },
{ "type": "Feature", "properties": { "value": 6.6292 }, "geometry": { "type": "Point", "coordinates": [ 129.306747, 35.489666, 225.0 ] } },
{ "type": "Feature", "properties": { "value": 13.087 }, "geometry": { "type": "Point", "coordinates": [ 129.307846, 35.489666, 225.0 ] } },
{ "type": "Feature", "properties": { "value": 22.051 }, "geometry": { "type": "Point", "coordinates": [ 129.30896, 35.489662, 225.0 ] } },
{ "type": "Feature", "properties": { "value": 30.911 }, "geometry": { "type": "Point", "coordinates": [ 129.310059, 35.489658, 225.0 ] } },
{ "type": "Feature", "properties": { "value": 33.564 }, "geometry": { "type": "Point", "coordinates": [ 129.311157, 35.489655, 225.0 ] } },
{ "type": "Feature", "properties": { "value": 27.26 }, "geometry": { "type": "Point", "coordinates": [ 129.312256, 35.489655, 225.0 ] } },
{ "type": "Feature", "properties": { "value": 16.927 }, "geometry": { "type": "Point", "coordinates": [ 129.313354, 35.489651, 225.0 ] } },
{ "type": "Feature", "properties": { "value": 8.3272 }, "geometry": { "type": "Point", "coordinates": [ 129.314468, 35.489647, 225.0 ] } },
{ "type": "Feature", "properties": { "value": 3.0492 }, "geometry": { "type": "Point", "coordinates": [ 129.315567, 35.489643, 225.0 ] } },
{ "type": "Feature", "properties": { "value": 0.7524 }, "geometry": { "type": "Point", "coordinates": [ 129.316666, 35.489643, 225.0 ] } },
{ "type": "Feature", "properties": { "value": 0.0017 }, "geometry": { "type": "Point", "coordinates": [ 129.322174, 35.489628, 225.0 ] } },
{ "type": "Feature", "properties": { "value": 0.0094 }, "geometry": { "type": "Point", "coordinates": [ 129.323273, 35.489624, 225.0 ] } },
{ "type": "Feature", "properties": { "value": 0.0311 }, "geometry": { "type": "Point", "coordinates": [ 129.324387, 35.48962, 225.0 ] } },
{ "type": "Feature", "properties": { "value": 0.056 }, "geometry": { "type": "Point", "coordinates": [ 129.325485, 35.489616, 225.0 ] } },
{ "type": "Feature", "properties": { "value": 0.055 }, "geometry": { "type": "Point", "coordinates": [ 129.326584, 35.489616, 225.0 ] } },
{ "type": "Feature", "properties": { "value": 0.0272 }, "geometry": { "type": "Point", "coordinates": [ 129.327682, 35.489613, 225.0 ] } },
{ "type": "Feature", "properties": { "value": 0.0064 }, "geometry": { "type": "Point", "coordinates": [ 129.328796, 35.489609, 225.0 ] } },
{ "type": "Feature", "properties": { "value": 0.0151 }, "geometry": { "type": "Point", "coordinates": [ 129.292435, 35.490604, 225.0 ] } },
{ "type": "Feature", "properties": { "value": 0.0773 }, "geometry": { "type": "Point", "coordinates": [ 129.293533, 35.490601, 225.0 ] } },
{ "type": "Feature", "properties": { "value": 0.1152 }, "geometry": { "type": "Point", "coordinates": [ 129.294632, 35.490601, 225.0 ] } },
{ "type": "Feature", "properties": { "value": 0.1111 }, "geometry": { "type": "Point", "coordinates": [ 129.295731, 35.490597, 225.0 ] } },
{ "type": "Feature", "properties": { "value": 0.4325 }, "geometry": { "type": "Point", "coordinates": [ 129.302353, 35.490582, 225.0 ] } },
{ "type": "Feature", "properties": { "value": 1.4018 }, "geometry": { "type": "Point", "coordinates": [ 129.303452, 35.490578, 225.0 ] } },
{ "type": "Feature", "properties": { "value": 3.2501 }, "geometry": { "type": "Point", "coordinates": [ 129.30455, 35.490574, 225.0 ] } },
{ "type": "Feature", "properties": { "value": 6.8221 }, "geometry": { "type": "Point", "coordinates": [ 129.305649, 35.49057, 225.0 ] } },
{ "type": "Feature", "properties": { "value": 12.921 }, "geometry": { "type": "Point", "coordinates": [ 129.306747, 35.49057, 225.0 ] } },
{ "type": "Feature", "properties": { "value": 21.582 }, "geometry": { "type": "Point", "coordinates": [ 129.307861, 35.490566, 225.0 ] } },
{ "type": "Feature", "properties": { "value": 30.995 }, "geometry": { "type": "Point", "coordinates": [ 129.30896, 35.490562, 225.0 ] } },
{ "type": "Feature", "properties": { "value": 36.917 }, "geometry": { "type": "Point", "coordinates": [ 129.310059, 35.490559, 225.0 ] } },
{ "type": "Feature", "properties": { "value": 34.255 }, "geometry": { "type": "Point", "coordinates": [ 129.311157, 35.490559, 225.0 ] } },
{ "type": "Feature", "properties": { "value": 24.398 }, "geometry": { "type": "Point", "coordinates": [ 129.312271, 35.490555, 225.0 ] } },
{ "type": "Feature", "properties": { "value": 13.87 }, "geometry": { "type": "Point", "coordinates": [ 129.31337, 35.490551, 225.0 ] } },
{ "type": "Feature", "properties": { "value": 6.0709 }, "geometry": { "type": "Point", "coordinates": [ 129.314468, 35.490547, 225.0 ] } },
{ "type": "Feature", "properties": { "value": 1.9607 }, "geometry": { "type": "Point", "coordinates": [ 129.315567, 35.490547, 225.0 ] } },
{ "type": "Feature", "properties": { "value": 0.3908 }, "geometry": { "type": "Point", "coordinates": [ 129.316666, 35.490543, 225.0 ] } },
{ "type": "Feature", "properties": { "value": 0.0004 }, "geometry": { "type": "Point", "coordinates": [ 129.321075, 35.490532, 225.0 ] } },
{ "type": "Feature", "properties": { "value": 0.0035 }, "geometry": { "type": "Point", "coordinates": [ 129.322174, 35.490528, 225.0 ] } },
{ "type": "Feature", "properties": { "value": 0.0126 }, "geometry": { "type": "Point", "coordinates": [ 129.323288, 35.490524, 225.0 ] } },
{ "type": "Feature", "properties": { "value": 0.0258 }, "geometry": { "type": "Point", "coordinates": [ 129.324387, 35.490524, 225.0 ] } },
{ "type": "Feature", "properties": { "value": 0.0323 }, "geometry": { "type": "Point", "coordinates": [ 129.325485, 35.49052, 225.0 ] } },
{ "type": "Feature", "properties": { "value": 0.0293 }, "geometry": { "type": "Point", "coordinates": [ 129.326584, 35.490517, 225.0 ] } },
{ "type": "Feature", "properties": { "value": 0.0155 }, "geometry": { "type": "Point", "coordinates": [ 129.327698, 35.490513, 225.0 ] } },
{ "type": "Feature", "properties": { "value": 0.0037 }, "geometry": { "type": "Point", "coordinates": [ 129.328796, 35.490509, 225.0 ] } },
{ "type": "Feature", "properties": { "value": 0.0163 }, "geometry": { "type": "Point", "coordinates": [ 129.290222, 35.491512, 225.0 ] } },
{ "type": "Feature", "properties": { "value": 0.1089 }, "geometry": { "type": "Point", "coordinates": [ 129.291321, 35.491508, 225.0 ] } },
{ "type": "Feature", "properties": { "value": 0.2596 }, "geometry": { "type": "Point", "coordinates": [ 129.292435, 35.491505, 225.0 ] } },
{ "type": "Feature", "properties": { "value": 0.4692 }, "geometry": { "type": "Point", "coordinates": [ 129.293533, 35.491501, 225.0 ] } },
{ "type": "Feature", "properties": { "value": 0.6948 }, "geometry": { "type": "Point", "coordinates": [ 129.294632, 35.491501, 225.0 ] } },
{ "type": "Feature", "properties": { "value": 0.8655 }, "geometry": { "type": "Point", "coordinates": [ 129.295731, 35.491497, 225.0 ] } },
{ "type": "Feature", "properties": { "value": 0.9792 }, "geometry": { "type": "Point", "coordinates": [ 129.296844, 35.491493, 225.0 ] } },
{ "type": "Feature", "properties": { "value": 1.0237 }, "geometry": { "type": "Point", "coordinates": [ 129.297943, 35.491493, 225.0 ] } },
{ "type": "Feature", "properties": { "value": 1.0667 }, "geometry": { "type": "Point", "coordinates": [ 129.299042, 35.491489, 225.0 ] } },
{ "type": "Feature", "properties": { "value": 1.1373 }, "geometry": { "type": "Point", "coordinates": [ 129.30014, 35.491486, 225.0 ] } },
{ "type": "Feature", "properties": { "value": 1.5457 }, "geometry": { "type": "Point", "coordinates": [ 129.301254, 35.491486, 225.0 ] } },
{ "type": "Feature", "properties": { "value": 2.4555 }, "geometry": { "type": "Point", "coordinates": [ 129.302353, 35.491482, 225.0 ] } },
{ "type": "Feature", "properties": { "value": 4.3667 }, "geometry": { "type": "Point", "coordinates": [ 129.303452, 35.491478, 225.0 ] } },
{ "type": "Feature", "properties": { "value": 7.8729 }, "geometry": { "type": "Point", "coordinates": [ 129.30455, 35.491474, 225.0 ] } },
{ "type": "Feature", "properties": { "value": 13.829 }, "geometry": { "type": "Point", "coordinates": [ 129.305649, 35.491474, 225.0 ] } },
{ "type": "Feature", "properties": { "value": 22.333 }, "geometry": { "type": "Point", "coordinates": [ 129.306763, 35.49147, 225.0 ] } },
{ "type": "Feature", "properties": { "value": 32.02 }, "geometry": { "type": "Point", "coordinates": [ 129.307861, 35.491467, 225.0 ] } },
{ "type": "Feature", "properties": { "value": 39.382 }, "geometry": { "type": "Point", "coordinates": [ 129.30896, 35.491463, 225.0 ] } },
{ "type": "Feature", "properties": { "value": 39.893 }, "geometry": { "type": "Point", "coordinates": [ 129.310059, 35.491463, 225.0 ] } },
{ "type": "Feature", "properties": { "value": 32.13 }, "geometry": { "type": "Point", "coordinates": [ 129.311172, 35.491459, 225.0 ] } },
{ "type": "Feature", "properties": { "value": 20.608 }, "geometry": { "type": "Point", "coordinates": [ 129.312271, 35.491455, 225.0 ] } },
{ "type": "Feature", "properties": { "value": 10.494 }, "geometry": { "type": "Point", "coordinates": [ 129.31337, 35.491451, 225.0 ] } },
{ "type": "Feature", "properties": { "value": 4.1029 }, "geometry": { "type": "Point", "coordinates": [ 129.314468, 35.491451, 225.0 ] } },
{ "type": "Feature", "properties": { "value": 1.1605 }, "geometry": { "type": "Point", "coordinates": [ 129.315567, 35.491447, 225.0 ] } },
{ "type": "Feature", "properties": { "value": 0.0014 }, "geometry": { "type": "Point", "coordinates": [ 129.321091, 35.491432, 225.0 ] } },
{ "type": "Feature", "properties": { "value": 0.0064 }, "geometry": { "type": "Point", "coordinates": [ 129.322189, 35.491428, 225.0 ] } },
{ "type": "Feature", "properties": { "value": 0.0176 }, "geometry": { "type": "Point", "coordinates": [ 129.323288, 35.491428, 225.0 ] } },
{ "type": "Feature", "properties": { "value": 0.0297 }, "geometry": { "type": "Point", "coordinates": [ 129.324387, 35.491425, 225.0 ] } },
{ "type": "Feature", "properties": { "value": 0.0346 }, "geometry": { "type": "Point", "coordinates": [ 129.325485, 35.491421, 225.0 ] } },
{ "type": "Feature", "properties": { "value": 0.0209 }, "geometry": { "type": "Point", "coordinates": [ 129.326599, 35.491417, 225.0 ] } },
{ "type": "Feature", "properties": { "value": 0.0092 }, "geometry": { "type": "Point", "coordinates": [ 129.327698, 35.491413, 225.0 ] } },
{ "type": "Feature", "properties": { "value": 0.0017 }, "geometry": { "type": "Point", "coordinates": [ 129.328796, 35.491413, 225.0 ] } },
{ "type": "Feature", "properties": { "value": 0.0418 }, "geometry": { "type": "Point", "coordinates": [ 129.289124, 35.492416, 225.0 ] } },
{ "type": "Feature", "properties": { "value": 0.1675 }, "geometry": { "type": "Point", "coordinates": [ 129.290222, 35.492413, 225.0 ] } },
{ "type": "Feature", "properties": { "value": 0.4255 }, "geometry": { "type": "Point", "coordinates": [ 129.291336, 35.492409, 225.0 ] } },
{ "type": "Feature", "properties": { "value": 0.8614 }, "geometry": { "type": "Point", "coordinates": [ 129.292435, 35.492405, 225.0 ] } },
{ "type": "Feature", "properties": { "value": 1.4865 }, "geometry": { "type": "Point", "coordinates": [ 129.293533, 35.492405, 225.0 ] } },
{ "type": "Feature", "properties": { "value": 2.1429 }, "geometry": { "type": "Point", "coordinates": [ 129.294632, 35.492401, 225.0 ] } },
{ "type": "Feature", "properties": { "value": 2.7299 }, "geometry": { "type": "Point", "coordinates": [ 129.295746, 35.492397, 225.0 ] } },
{ "type": "Feature", "properties": { "value": 3.1264 }, "geometry": { "type": "Point", "coordinates": [ 129.296844, 35.492397, 225.0 ] } },
{ "type": "Feature", "properties": { "value": 3.3839 }, "geometry": { "type": "Point", "coordinates": [ 129.297943, 35.492393, 225.0 ] } },
{ "type": "Feature", "properties": { "value": 3.6216 }, "geometry": { "type": "Point", "coordinates": [ 129.299042, 35.49239, 225.0 ] } },
{ "type": "Feature", "properties": { "value": 4.0405 }, "geometry": { "type": "Point", "coordinates": [ 129.30014, 35.49239, 225.0 ] } },
{ "type": "Feature", "properties": { "value": 4.9911 }, "geometry": { "type": "Point", "coordinates": [ 129.301254, 35.492386, 225.0 ] } },
{ "type": "Feature", "properties": { "value": 6.8553 }, "geometry": { "type": "Point", "coordinates": [ 129.302353, 35.492382, 225.0 ] } },
{ "type": "Feature", "properties": { "value": 10.305 }, "geometry": { "type": "Point", "coordinates": [ 129.303452, 35.492378, 225.0 ] } },
{ "type": "Feature", "properties": { "value": 15.928 }, "geometry": { "type": "Point", "coordinates": [ 129.30455, 35.492378, 225.0 ] } },
{ "type": "Feature", "properties": { "value": 23.971 }, "geometry": { "type": "Point", "coordinates": [ 129.305664, 35.492374, 225.0 ] } },
{ "type": "Feature", "properties": { "value": 33.457 }, "geometry": { "type": "Point", "coordinates": [ 129.306763, 35.492371, 225.0 ] } },
{ "type": "Feature", "properties": { "value": 41.576 }, "geometry": { "type": "Point", "coordinates": [ 129.307861, 35.492367, 225.0 ] } },
{ "type": "Feature", "properties": { "value": 44.298 }, "geometry": { "type": "Point", "coordinates": [ 129.30896, 35.492367, 225.0 ] } },
{ "type": "Feature", "properties": { "value": 38.956 }, "geometry": { "type": "Point", "coordinates": [ 129.310074, 35.492363, 225.0 ] } },
{ "type": "Feature", "properties": { "value": 27.797 }, "geometry": { "type": "Point", "coordinates": [ 129.311172, 35.492359, 225.0 ] } },
{ "type": "Feature", "properties": { "value": 15.94 }, "geometry": { "type": "Point", "coordinates": [ 129.312271, 35.492355, 225.0 ] } },
{ "type": "Feature", "properties": { "value": 7.264 }, "geometry": { "type": "Point", "coordinates": [ 129.31337, 35.492355, 225.0 ] } },
{ "type": "Feature", "properties": { "value": 2.526 }, "geometry": { "type": "Point", "coordinates": [ 129.314468, 35.492352, 225.0 ] } },
{ "type": "Feature", "properties": { "value": 0.5634 }, "geometry": { "type": "Point", "coordinates": [ 129.315582, 35.492348, 225.0 ] } },
{ "type": "Feature", "properties": { "value": 0.0005 }, "geometry": { "type": "Point", "coordinates": [ 129.319992, 35.492336, 225.0 ] } },
{ "type": "Feature", "properties": { "value": 0.0032 }, "geometry": { "type": "Point", "coordinates": [ 129.321091, 35.492332, 225.0 ] } },
{ "type": "Feature", "properties": { "value": 0.011 }, "geometry": { "type": "Point", "coordinates": [ 129.322189, 35.492332, 225.0 ] } },
{ "type": "Feature", "properties": { "value": 0.0231 }, "geometry": { "type": "Point", "coordinates": [ 129.323288, 35.492329, 225.0 ] } },
{ "type": "Feature", "properties": { "value": 0.0457 }, "geometry": { "type": "Point", "coordinates": [ 129.324387, 35.492325, 225.0 ] } },
{ "type": "Feature", "properties": { "value": 0.0507 }, "geometry": { "type": "Point", "coordinates": [ 129.3255, 35.492321, 225.0 ] } },
{ "type": "Feature", "properties": { "value": 0.0209 }, "geometry": { "type": "Point", "coordinates": [ 129.326599, 35.492317, 225.0 ] } },
{ "type": "Feature", "properties": { "value": 0.0057 }, "geometry": { "type": "Point", "coordinates": [ 129.327698, 35.492317, 225.0 ] } },
{ "type": "Feature", "properties": { "value": 0.0004 }, "geometry": { "type": "Point", "coordinates": [ 129.328796, 35.492313, 225.0 ] } },
{ "type": "Feature", "properties": { "value": 0.0141 }, "geometry": { "type": "Point", "coordinates": [ 129.288025, 35.49332, 225.0 ] } },
{ "type": "Feature", "properties": { "value": 0.1244 }, "geometry": { "type": "Point", "coordinates": [ 129.289124, 35.493317, 225.0 ] } },
{ "type": "Feature", "properties": { "value": 0.41 }, "geometry": { "type": "Point", "coordinates": [ 129.290237, 35.493313, 225.0 ] } },
{ "type": "Feature", "properties": { "value": 1.0345 }, "geometry": { "type": "Point", "coordinates": [ 129.291336, 35.493309, 225.0 ] } },
{ "type": "Feature", "properties": { "value": 2.0902 }, "geometry": { "type": "Point", "coordinates": [ 129.292435, 35.493309, 225.0 ] } },
{ "type": "Feature", "properties": { "value": 3.5247 }, "geometry": { "type": "Point", "coordinates": [ 129.293533, 35.493305, 225.0 ] } },
{ "type": "Feature", "properties": { "value": 5.1561 }, "geometry": { "type": "Point", "coordinates": [ 129.294647, 35.493301, 225.0 ] } },
{ "type": "Feature", "properties": { "value": 6.6329 }, "geometry": { "type": "Point", "coordinates": [ 129.295746, 35.493301, 225.0 ] } },
{ "type": "Feature", "properties": { "value": 7.716 }, "geometry": { "type": "Point", "coordinates": [ 129.296844, 35.493298, 225.0 ] } },
{ "type": "Feature", "properties": { "value": 8.4268 }, "geometry": { "type": "Point", "coordinates": [ 129.297943, 35.493294, 225.0 ] } },
{ "type": "Feature", "properties": { "value": 9.0766 }, "geometry": { "type": "Point", "coordinates": [ 129.299042, 35.49329, 225.0 ] } },
{ "type": "Feature", "properties": { "value": 10.042 }, "geometry": { "type": "Point", "coordinates": [ 129.300156, 35.49329, 225.0 ] } },
{ "type": "Feature", "properties": { "value": 11.798 }, "geometry": { "type": "Point", "coordinates": [ 129.301254, 35.493286, 225.0 ] } },
{ "type": "Feature", "properties": { "value": 14.856 }, "geometry": { "type": "Point", "coordinates": [ 129.302353, 35.493282, 225.0 ] } },
{ "type": "Feature", "properties": { "value": 19.783 }, "geometry": { "type": "Point", "coordinates": [ 129.303452, 35.493282, 225.0 ] } },
{ "type": "Feature", "properties": { "value": 26.746 }, "geometry": { "type": "Point", "coordinates": [ 129.304565, 35.493279, 225.0 ] } },
{ "type": "Feature", "properties": { "value": 35.079 }, "geometry": { "type": "Point", "coordinates": [ 129.305664, 35.493275, 225.0 ] } },
{ "type": "Feature", "properties": { "value": 42.701 }, "geometry": { "type": "Point", "coordinates": [ 129.306763, 35.493271, 225.0 ] } },
{ "type": "Feature", "properties": { "value": 46.457 }, "geometry": { "type": "Point", "coordinates": [ 129.307861, 35.493271, 225.0 ] } },
{ "type": "Feature", "properties": { "value": 43.517 }, "geometry": { "type": "Point", "coordinates": [ 129.308975, 35.493267, 225.0 ] } },
{ "type": "Feature", "properties": { "value": 33.978 }, "geometry": { "type": "Point", "coordinates": [ 129.310074, 35.493263, 225.0 ] } },
{ "type": "Feature", "properties": { "value": 21.712 }, "geometry": { "type": "Point", "coordinates": [ 129.311172, 35.493259, 225.0 ] } },
{ "type": "Feature", "properties": { "value": 11.186 }, "geometry": { "type": "Point", "coordinates": [ 129.312271, 35.493259, 225.0 ] } },
{ "type": "Feature", "properties": { "value": 4.5459 }, "geometry": { "type": "Point", "coordinates": [ 129.31337, 35.493256, 225.0 ] } },
{ "type": "Feature", "properties": { "value": 1.3593 }, "geometry": { "type": "Point", "coordinates": [ 129.314484, 35.493252, 225.0 ] } },
{ "type": "Feature", "properties": { "value": 0.077 }, "geometry": { "type": "Point", "coordinates": [ 129.315582, 35.493248, 225.0 ] } },
{ "type": "Feature", "properties": { "value": 0.0017 }, "geometry": { "type": "Point", "coordinates": [ 129.319992, 35.493237, 225.0 ] } },
{ "type": "Feature", "properties": { "value": 0.0067 }, "geometry": { "type": "Point", "coordinates": [ 129.321091, 35.493237, 225.0 ] } },
{ "type": "Feature", "properties": { "value": 0.017 }, "geometry": { "type": "Point", "coordinates": [ 129.322189, 35.493233, 225.0 ] } },
{ "type": "Feature", "properties": { "value": 0.0278 }, "geometry": { "type": "Point", "coordinates": [ 129.323288, 35.493229, 225.0 ] } },
{ "type": "Feature", "properties": { "value": 0.0433 }, "geometry": { "type": "Point", "coordinates": [ 129.324402, 35.493225, 225.0 ] } },
{ "type": "Feature", "properties": { "value": 0.0471 }, "geometry": { "type": "Point", "coordinates": [ 129.3255, 35.493225, 225.0 ] } },
{ "type": "Feature", "properties": { "value": 0.0167 }, "geometry": { "type": "Point", "coordinates": [ 129.326599, 35.493221, 225.0 ] } },
{ "type": "Feature", "properties": { "value": 0.003 }, "geometry": { "type": "Point", "coordinates": [ 129.327698, 35.493217, 225.0 ] } },
{ "type": "Feature", "properties": { "value": 0.055 }, "geometry": { "type": "Point", "coordinates": [ 129.288025, 35.494221, 225.0 ] } },
{ "type": "Feature", "properties": { "value": 0.2608 }, "geometry": { "type": "Point", "coordinates": [ 129.289139, 35.494217, 225.0 ] } },
{ "type": "Feature", "properties": { "value": 0.8175 }, "geometry": { "type": "Point", "coordinates": [ 129.290237, 35.494213, 225.0 ] } },
{ "type": "Feature", "properties": { "value": 1.9753 }, "geometry": { "type": "Point", "coordinates": [ 129.291336, 35.494213, 225.0 ] } },
{ "type": "Feature", "properties": { "value": 3.9377 }, "geometry": { "type": "Point", "coordinates": [ 129.292435, 35.494209, 225.0 ] } },
{ "type": "Feature", "properties": { "value": 6.7145 }, "geometry": { "type": "Point", "coordinates": [ 129.293549, 35.494205, 225.0 ] } },
{ "type": "Feature", "properties": { "value": 9.8712 }, "geometry": { "type": "Point", "coordinates": [ 129.294647, 35.494205, 225.0 ] } },
{ "type": "Feature", "properties": { "value": 12.856 }, "geometry": { "type": "Point", "coordinates": [ 129.295746, 35.494202, 225.0 ] } },
{ "type": "Feature", "properties": { "value": 15.154 }, "geometry": { "type": "Point", "coordinates": [ 129.296844, 35.494198, 225.0 ] } },
{ "type": "Feature", "properties": { "value": 16.762 }, "geometry": { "type": "Point", "coordinates": [ 129.297943, 35.494194, 225.0 ] } },
{ "type": "Feature", "properties": { "value": 18.036 }, "geometry": { "type": "Point", "coordinates": [ 129.299057, 35.494194, 225.0 ] } },
{ "type": "Feature", "properties": { "value": 19.623 }, "geometry": { "type": "Point", "coordinates": [ 129.300156, 35.49419, 225.0 ] } },
{ "type": "Feature", "properties": { "value": 22.089 }, "geometry": { "type": "Point", "coordinates": [ 129.301254, 35.494186, 225.0 ] } },
{ "type": "Feature", "properties": { "value": 25.831 }, "geometry": { "type": "Point", "coordinates": [ 129.302353, 35.494186, 225.0 ] } },
{ "type": "Feature", "properties": { "value": 31.04 }, "geometry": { "type": "Point", "coordinates": [ 129.303467, 35.494183, 225.0 ] } },
{ "type": "Feature", "properties": { "value": 37.274 }, "geometry": { "type": "Point", "coordinates": [ 129.304565, 35.494179, 225.0 ] } },
{ "type": "Feature", "properties": { "value": 43.113 }, "geometry": { "type": "Point", "coordinates": [ 129.305664, 35.494175, 225.0 ] } },
{ "type": "Feature", "properties": { "value": 46.166 }, "geometry": { "type": "Point", "coordinates": [ 129.306763, 35.494175, 225.0 ] } },
{ "type": "Feature", "properties": { "value": 44.289 }, "geometry": { "type": "Point", "coordinates": [ 129.307877, 35.494171, 225.0 ] } },
{ "type": "Feature", "properties": { "value": 36.829 }, "geometry": { "type": "Point", "coordinates": [ 129.308975, 35.494167, 225.0 ] } },
{ "type": "Feature", "properties": { "value": 25.826 }, "geometry": { "type": "Point", "coordinates": [ 129.310074, 35.494164, 225.0 ] } },
{ "type": "Feature", "properties": { "value": 14.898 }, "geometry": { "type": "Point", "coordinates": [ 129.311172, 35.494164, 225.0 ] } },
{ "type": "Feature", "properties": { "value": 6.878 }, "geometry": { "type": "Point", "coordinates": [ 129.312271, 35.49416, 225.0 ] } },
{ "type": "Feature", "properties": { "value": 2.4606 }, "geometry": { "type": "Point", "coordinates": [ 129.313385, 35.494156, 225.0 ] } },
{ "type": "Feature", "properties": { "value": 0.586 }, "geometry": { "type": "Point", "coordinates": [ 129.314484, 35.494152, 225.0 ] } },
{ "type": "Feature", "properties": { "value": 0.001 }, "geometry": { "type": "Point", "coordinates": [ 129.318893, 35.494141, 225.0 ] } },
{ "type": "Feature", "properties": { "value": 0.0043 }, "geometry": { "type": "Point", "coordinates": [ 129.319992, 35.494141, 225.0 ] } },
{ "type": "Feature", "properties": { "value": 0.0123 }, "geometry": { "type": "Point", "coordinates": [ 129.321091, 35.494137, 225.0 ] } },
{ "type": "Feature", "properties": { "value": 0.0238 }, "geometry": { "type": "Point", "coordinates": [ 129.322189, 35.494133, 225.0 ] } },
{ "type": "Feature", "properties": { "value": 0.0304 }, "geometry": { "type": "Point", "coordinates": [ 129.323303, 35.494129, 225.0 ] } },
{ "type": "Feature", "properties": { "value": 0.0304 }, "geometry": { "type": "Point", "coordinates": [ 129.324402, 35.494129, 225.0 ] } },
{ "type": "Feature", "properties": { "value": 0.0259 }, "geometry": { "type": "Point", "coordinates": [ 129.3255, 35.494125, 225.0 ] } },
{ "type": "Feature", "properties": { "value": 0.0085 }, "geometry": { "type": "Point", "coordinates": [ 129.326599, 35.494122, 225.0 ] } },
{ "type": "Feature", "properties": { "value": 0.0011 }, "geometry": { "type": "Point", "coordinates": [ 129.327713, 35.494118, 225.0 ] } },
{ "type": "Feature", "properties": { "value": 0.1067 }, "geometry": { "type": "Point", "coordinates": [ 129.28804, 35.495121, 225.0 ] } },
{ "type": "Feature", "properties": { "value": 0.4178 }, "geometry": { "type": "Point", "coordinates": [ 129.289139, 35.495117, 225.0 ] } },
{ "type": "Feature", "properties": { "value": 1.2506 }, "geometry": { "type": "Point", "coordinates": [ 129.290237, 35.495117, 225.0 ] } },
{ "type": "Feature", "properties": { "value": 2.9813 }, "geometry": { "type": "Point", "coordinates": [ 129.291336, 35.495113, 225.0 ] } },
{ "type": "Feature", "properties": { "value": 6.0135 }, "geometry": { "type": "Point", "coordinates": [ 129.29245, 35.49511, 225.0 ] } },
{ "type": "Feature", "properties": { "value": 10.301 }, "geometry": { "type": "Point", "coordinates": [ 129.293549, 35.49511, 225.0 ] } },
{ "type": "Feature", "properties": { "value": 15.303 }, "geometry": { "type": "Point", "coordinates": [ 129.294647, 35.495106, 225.0 ] } },
{ "type": "Feature", "properties": { "value": 20.128 }, "geometry": { "type": "Point", "coordinates": [ 129.295746, 35.495102, 225.0 ] } },
{ "type": "Feature", "properties": { "value": 23.965 }, "geometry": { "type": "Point", "coordinates": [ 129.296844, 35.495098, 225.0 ] } },
{ "type": "Feature", "properties": { "value": 26.652 }, "geometry": { "type": "Point", "coordinates": [ 129.297958, 35.495098, 225.0 ] } },
{ "type": "Feature", "properties": { "value": 28.641 }, "geometry": { "type": "Point", "coordinates": [ 129.299057, 35.495094, 225.0 ] } },
{ "type": "Feature", "properties": { "value": 30.545 }, "geometry": { "type": "Point", "coordinates": [ 129.300156, 35.49509, 225.0 ] } },
{ "type": "Feature", "properties": { "value": 32.956 }, "geometry": { "type": "Point", "coordinates": [ 129.301254, 35.49509, 225.0 ] } },
{ "type": "Feature", "properties": { "value": 36.115 }, "geometry": { "type": "Point", "coordinates": [ 129.302368, 35.495087, 225.0 ] } },
{ "type": "Feature", "properties": { "value": 39.694 }, "geometry": { "type": "Point", "coordinates": [ 129.303467, 35.495083, 225.0 ] } },
{ "type": "Feature", "properties": { "value": 42.852 }, "geometry": { "type": "Point", "coordinates": [ 129.304565, 35.495079, 225.0 ] } },
{ "type": "Feature", "properties": { "value": 44.194 }, "geometry": { "type": "Point", "coordinates": [ 129.305664, 35.495079, 225.0 ] } },
{ "type": "Feature", "properties": { "value": 42.075 }, "geometry": { "type": "Point", "coordinates": [ 129.306778, 35.495075, 225.0 ] } },
{ "type": "Feature", "properties": { "value": 35.865 }, "geometry": { "type": "Point", "coordinates": [ 129.307877, 35.495071, 225.0 ] } },
{ "type": "Feature", "properties": { "value": 26.607 }, "geometry": { "type": "Point", "coordinates": [ 129.308975, 35.495068, 225.0 ] } },
{ "type": "Feature", "properties": { "value": 16.79 }, "geometry": { "type": "Point", "coordinates": [ 129.310074, 35.495068, 225.0 ] } },
{ "type": "Feature", "properties": { "value": 8.7445 }, "geometry": { "type": "Point", "coordinates": [ 129.311172, 35.495064, 225.0 ] } },
{ "type": "Feature", "properties": { "value": 3.6511 }, "geometry": { "type": "Point", "coordinates": [ 129.312286, 35.49506, 225.0 ] } },
{ "type": "Feature", "properties": { "value": 1.1192 }, "geometry": { "type": "Point", "coordinates": [ 129.313385, 35.495056, 225.0 ] } },
{ "type": "Feature", "properties": { "value": 0.0006 }, "geometry": { "type": "Point", "coordinates": [ 129.317795, 35.495045, 225.0 ] } },
{ "type": "Feature", "properties": { "value": 0.0032 }, "geometry": { "type": "Point", "coordinates": [ 129.318893, 35.495045, 225.0 ] } },
{ "type": "Feature", "properties": { "value": 0.0096 }, "geometry": { "type": "Point", "coordinates": [ 129.319992, 35.495041, 225.0 ] } },
{ "type": "Feature", "properties": { "value": 0.0204 }, "geometry": { "type": "Point", "coordinates": [ 129.321091, 35.495037, 225.0 ] } },
{ "type": "Feature", "properties": { "value": 0.0302 }, "geometry": { "type": "Point", "coordinates": [ 129.322205, 35.495033, 225.0 ] } },
{ "type": "Feature", "properties": { "value": 0.0301 }, "geometry": { "type": "Point", "coordinates": [ 129.323303, 35.495033, 225.0 ] } },
{ "type": "Feature", "properties": { "value": 0.0259 }, "geometry": { "type": "Point", "coordinates": [ 129.324402, 35.495029, 225.0 ] } },
{ "type": "Feature", "properties": { "value": 0.015 }, "geometry": { "type": "Point", "coordinates": [ 129.3255, 35.495026, 225.0 ] } },
{ "type": "Feature", "properties": { "value": 0.0043 }, "geometry": { "type": "Point", "coordinates": [ 129.326614, 35.495022, 225.0 ] } },
{ "type": "Feature", "properties": { "value": 0.0002 }, "geometry": { "type": "Point", "coordinates": [ 129.327713, 35.495022, 225.0 ] } },
{ "type": "Feature", "properties": { "value": 0.0122 }, "geometry": { "type": "Point", "coordinates": [ 129.286942, 35.496025, 225.0 ] } },
{ "type": "Feature", "properties": { "value": 0.1283 }, "geometry": { "type": "Point", "coordinates": [ 129.28804, 35.496021, 225.0 ] } },
{ "type": "Feature", "properties": { "value": 0.5286 }, "geometry": { "type": "Point", "coordinates": [ 129.289139, 35.496021, 225.0 ] } },
{ "type": "Feature", "properties": { "value": 1.5265 }, "geometry": { "type": "Point", "coordinates": [ 129.290237, 35.496017, 225.0 ] } },
{ "type": "Feature", "properties": { "value": 3.6876 }, "geometry": { "type": "Point", "coordinates": [ 129.291351, 35.496014, 225.0 ] } },
{ "type": "Feature", "properties": { "value": 7.4275 }, "geometry": { "type": "Point", "coordinates": [ 129.29245, 35.496014, 225.0 ] } },
{ "type": "Feature", "properties": { "value": 12.824 }, "geometry": { "type": "Point", "coordinates": [ 129.293549, 35.49601, 225.0 ] } },
{ "type": "Feature", "properties": { "value": 19.202 }, "geometry": { "type": "Point", "coordinates": [ 129.294647, 35.496006, 225.0 ] } },
{ "type": "Feature", "properties": { "value": 25.442 }, "geometry": { "type": "Point", "coordinates": [ 129.295746, 35.496002, 225.0 ] } },
{ "type": "Feature", "properties": { "value": 30.464 }, "geometry": { "type": "Point", "coordinates": [ 129.29686, 35.496002, 225.0 ] } },
{ "type": "Feature", "properties": { "value": 33.983 }, "geometry": { "type": "Point", "coordinates": [ 129.297958, 35.495998, 225.0 ] } },
{ "type": "Feature", "properties": { "value": 36.289 }, "geometry": { "type": "Point", "coordinates": [ 129.299057, 35.495995, 225.0 ] } },
{ "type": "Feature", "properties": { "value": 37.953 }, "geometry": { "type": "Point", "coordinates": [ 129.300156, 35.495995, 225.0 ] } },
{ "type": "Feature", "properties": { "value": 39.412 }, "geometry": { "type": "Point", "coordinates": [ 129.30127, 35.495991, 225.0 ] } },
{ "type": "Feature", "properties": { "value": 40.652 }, "geometry": { "type": "Point", "coordinates": [ 129.302368, 35.495987, 225.0 ] } },
{ "type": "Feature", "properties": { "value": 41.25 }, "geometry": { "type": "Point", "coordinates": [ 129.303467, 35.495983, 225.0 ] } },
{ "type": "Feature", "properties": { "value": 40.448 }, "geometry": { "type": "Point", "coordinates": [ 129.304565, 35.495983, 225.0 ] } },
{ "type": "Feature", "properties": { "value": 37.509 }, "geometry": { "type": "Point", "coordinates": [ 129.305679, 35.495979, 225.0 ] } },
{ "type": "Feature", "properties": { "value": 32.022 }, "geometry": { "type": "Point", "coordinates": [ 129.306778, 35.495975, 225.0 ] } },
{ "type": "Feature", "properties": { "value": 24.448 }, "geometry": { "type": "Point", "coordinates": [ 129.307877, 35.495972, 225.0 ] } },
{ "type": "Feature", "properties": { "value": 16.272 }, "geometry": { "type": "Point", "coordinates": [ 129.308975, 35.495972, 225.0 ] } },
{ "type": "Feature", "properties": { "value": 9.2316 }, "geometry": { "type": "Point", "coordinates": [ 129.310074, 35.495968, 225.0 ] } },
{ "type": "Feature", "properties": { "value": 4.3325 }, "geometry": { "type": "Point", "coordinates": [ 129.311188, 35.495964, 225.0 ] } },
{ "type": "Feature", "properties": { "value": 1.5879 }, "geometry": { "type": "Point", "coordinates": [ 129.312286, 35.495964, 225.0 ] } },
{ "type": "Feature", "properties": { "value": 0.3079 }, "geometry": { "type": "Point", "coordinates": [ 129.313385, 35.49596, 225.0 ] } },
{ "type": "Feature", "properties": { "value": 0.0004 }, "geometry": { "type": "Point", "coordinates": [ 129.316696, 35.495949, 225.0 ] } },
{ "type": "Feature", "properties": { "value": 0.0029 }, "geometry": { "type": "Point", "coordinates": [ 129.317795, 35.495949, 225.0 ] } },
{ "type": "Feature", "properties": { "value": 0.0087 }, "geometry": { "type": "Point", "coordinates": [ 129.318893, 35.495945, 225.0 ] } },
{ "type": "Feature", "properties": { "value": 0.019 }, "geometry": { "type": "Point", "coordinates": [ 129.319992, 35.495941, 225.0 ] } },
{ "type": "Feature", "properties": { "value": 0.0304 }, "geometry": { "type": "Point", "coordinates": [ 129.321106, 35.495937, 225.0 ] } },
{ "type": "Feature", "properties": { "value": 0.0347 }, "geometry": { "type": "Point", "coordinates": [ 129.322205, 35.495937, 225.0 ] } },
{ "type": "Feature", "properties": { "value": 0.0387 }, "geometry": { "type": "Point", "coordinates": [ 129.323303, 35.495934, 225.0 ] } },
{ "type": "Feature", "properties": { "value": 0.0244 }, "geometry": { "type": "Point", "coordinates": [ 129.324402, 35.49593, 225.0 ] } },
{ "type": "Feature", "properties": { "value": 0.01 }, "geometry": { "type": "Point", "coordinates": [ 129.325516, 35.495926, 225.0 ] } },
{ "type": "Feature", "properties": { "value": 0.0024 }, "geometry": { "type": "Point", "coordinates": [ 129.326614, 35.495926, 225.0 ] } },
{ "type": "Feature", "properties": { "value": 0.0118 }, "geometry": { "type": "Point", "coordinates": [ 129.286942, 35.496925, 225.0 ] } },
{ "type": "Feature", "properties": { "value": 0.1259 }, "geometry": { "type": "Point", "coordinates": [ 129.28804, 35.496925, 225.0 ] } },
{ "type": "Feature", "properties": { "value": 0.5227 }, "geometry": { "type": "Point", "coordinates": [ 129.289139, 35.496922, 225.0 ] } },
{ "type": "Feature", "properties": { "value": 1.5165 }, "geometry": { "type": "Point", "coordinates": [ 129.290253, 35.496918, 225.0 ] } },
{ "type": "Feature", "properties": { "value": 3.6817 }, "geometry": { "type": "Point", "coordinates": [ 129.291351, 35.496918, 225.0 ] } },
{ "type": "Feature", "properties": { "value": 7.4513 }, "geometry": { "type": "Point", "coordinates": [ 129.29245, 35.496914, 225.0 ] } },
{ "type": "Feature", "properties": { "value": 12.935 }, "geometry": { "type": "Point", "coordinates": [ 129.293549, 35.49691, 225.0 ] } },
{ "type": "Feature", "properties": { "value": 19.485 }, "geometry": { "type": "Point", "coordinates": [ 129.294647, 35.496906, 225.0 ] } },
{ "type": "Feature", "properties": { "value": 25.919 }, "geometry": { "type": "Point", "coordinates": [ 129.295761, 35.496906, 225.0 ] } },
{ "type": "Feature", "properties": { "value": 31.172 }, "geometry": { "type": "Point", "coordinates": [ 129.29686, 35.496902, 225.0 ] } },
{ "type": "Feature", "properties": { "value": 34.751 }, "geometry": { "type": "Point", "coordinates": [ 129.297958, 35.496899, 225.0 ] } },
{ "type": "Feature", "properties": { "value": 36.802 }, "geometry": { "type": "Point", "coordinates": [ 129.299057, 35.496899, 225.0 ] } },
{ "type": "Feature", "properties": { "value": 37.709 }, "geometry": { "type": "Point", "coordinates": [ 129.300171, 35.496895, 225.0 ] } },
{ "type": "Feature", "properties": { "value": 37.781 }, "geometry": { "type": "Point", "coordinates": [ 129.30127, 35.496891, 225.0 ] } },
{ "type": "Feature", "properties": { "value": 36.92 }, "geometry": { "type": "Point", "coordinates": [ 129.302368, 35.496887, 225.0 ] } },
{ "type": "Feature", "properties": { "value": 34.847 }, "geometry": { "type": "Point", "coordinates": [ 129.303467, 35.496887, 225.0 ] } },
{ "type": "Feature", "properties": { "value": 31.336 }, "geometry": { "type": "Point", "coordinates": [ 129.304581, 35.496883, 225.0 ] } },
{ "type": "Feature", "properties": { "value": 26.368 }, "geometry": { "type": "Point", "coordinates": [ 129.305679, 35.49688, 225.0 ] } },
{ "type": "Feature", "properties": { "value": 20.267 }, "geometry": { "type": "Point", "coordinates": [ 129.306778, 35.496876, 225.0 ] } },
{ "type": "Feature", "properties": { "value": 13.946 }, "geometry": { "type": "Point", "coordinates": [ 129.307877, 35.496876, 225.0 ] } },
{ "type": "Feature", "properties": { "value": 8.3551 }, "geometry": { "type": "Point", "coordinates": [ 129.308975, 35.496872, 225.0 ] } },
{ "type": "Feature", "properties": { "value": 4.2424 }, "geometry": { "type": "Point", "coordinates": [ 129.310089, 35.496868, 225.0 ] } },
{ "type": "Feature", "properties": { "value": 1.7564 }, "geometry": { "type": "Point", "coordinates": [ 129.311188, 35.496868, 225.0 ] } },
{ "type": "Feature", "properties": { "value": 0.4848 }, "geometry": { "type": "Point", "coordinates": [ 129.312286, 35.496864, 225.0 ] } },
{ "type": "Feature", "properties": { "value": 0.0004 }, "geometry": { "type": "Point", "coordinates": [ 129.315598, 35.496857, 225.0 ] } },
{ "type": "Feature", "properties": { "value": 0.0039 }, "geometry": { "type": "Point", "coordinates": [ 129.316696, 35.496853, 225.0 ] } },
{ "type": "Feature", "properties": { "value": 0.0102 }, "geometry": { "type": "Point", "coordinates": [ 129.317795, 35.496849, 225.0 ] } },
{ "type": "Feature", "properties": { "value": 0.0209 }, "geometry": { "type": "Point", "coordinates": [ 129.318893, 35.496845, 225.0 ] } },
{ "type": "Feature", "properties": { "value": 0.0338 }, "geometry": { "type": "Point", "coordinates": [ 129.320007, 35.496841, 225.0 ] } },
{ "type": "Feature", "properties": { "value": 0.0412 }, "geometry": { "type": "Point", "coordinates": [ 129.321106, 35.496841, 225.0 ] } },
{ "type": "Feature", "properties": { "value": 0.0493 }, "geometry": { "type": "Point", "coordinates": [ 129.322205, 35.496838, 225.0 ] } },
{ "type": "Feature", "properties": { "value": 0.0449 }, "geometry": { "type": "Point", "coordinates": [ 129.323303, 35.496834, 225.0 ] } },
{ "type": "Feature", "properties": { "value": 0.0151 }, "geometry": { "type": "Point", "coordinates": [ 129.324417, 35.49683, 225.0 ] } },
{ "type": "Feature", "properties": { "value": 0.0044 }, "geometry": { "type": "Point", "coordinates": [ 129.325516, 35.49683, 225.0 ] } },
{ "type": "Feature", "properties": { "value": 0.0006 }, "geometry": { "type": "Point", "coordinates": [ 129.326614, 35.496826, 225.0 ] } },
{ "type": "Feature", "properties": { "value": 0.1007 }, "geometry": { "type": "Point", "coordinates": [ 129.28804, 35.497826, 225.0 ] } },
{ "type": "Feature", "properties": { "value": 0.4018 }, "geometry": { "type": "Point", "coordinates": [ 129.289154, 35.497822, 225.0 ] } },
{ "type": "Feature", "properties": { "value": 1.226 }, "geometry": { "type": "Point", "coordinates": [ 129.290253, 35.497818, 225.0 ] } },
{ "type": "Feature", "properties": { "value": 2.988 }, "geometry": { "type": "Point", "coordinates": [ 129.291351, 35.497818, 225.0 ] } },
{ "type": "Feature", "properties": { "value": 6.0697 }, "geometry": { "type": "Point", "coordinates": [ 129.29245, 35.497814, 225.0 ] } },
{ "type": "Feature", "properties": { "value": 10.579 }, "geometry": { "type": "Point", "coordinates": [ 129.293549, 35.49781, 225.0 ] } },
{ "type": "Feature", "properties": { "value": 15.978 }, "geometry": { "type": "Point", "coordinates": [ 129.294662, 35.49781, 225.0 ] } },
{ "type": "Feature", "properties": { "value": 21.341 }, "geometry": { "type": "Point", "coordinates": [ 129.295761, 35.497807, 225.0 ] } },
{ "type": "Feature", "properties": { "value": 25.667 }, "geometry": { "type": "Point", "coordinates": [ 129.29686, 35.497803, 225.0 ] } },
{ "type": "Feature", "properties": { "value": 28.494 }, "geometry": { "type": "Point", "coordinates": [ 129.297958, 35.497803, 225.0 ] } },
{ "type": "Feature", "properties": { "value": 29.842 }, "geometry": { "type": "Point", "coordinates": [ 129.299072, 35.497799, 225.0 ] } },
{ "type": "Feature", "properties": { "value": 29.93 }, "geometry": { "type": "Point", "coordinates": [ 129.300171, 35.497795, 225.0 ] } },
{ "type": "Feature", "properties": { "value": 28.939 }, "geometry": { "type": "Point", "coordinates": [ 129.30127, 35.497791, 225.0 ] } },
{ "type": "Feature", "properties": { "value": 26.903 }, "geometry": { "type": "Point", "coordinates": [ 129.302368, 35.497791, 225.0 ] } },
{ "type": "Feature", "properties": { "value": 23.801 }, "geometry": { "type": "Point", "coordinates": [ 129.303482, 35.497787, 225.0 ] } },
{ "type": "Feature", "properties": { "value": 19.803 }, "geometry": { "type": "Point", "coordinates": [ 129.304581, 35.497784, 225.0 ] } },
{ "type": "Feature", "properties": { "value": 15.225 }, "geometry": { "type": "Point", "coordinates": [ 129.305679, 35.49778, 225.0 ] } },
{ "type": "Feature", "properties": { "value": 10.651 }, "geometry": { "type": "Point", "coordinates": [ 129.306778, 35.49778, 225.0 ] } },
{ "type": "Feature", "properties": { "value": 6.5927 }, "geometry": { "type": "Point", "coordinates": [ 129.307877, 35.497776, 225.0 ] } },
{ "type": "Feature", "properties": { "value": 3.5519 }, "geometry": { "type": "Point", "coordinates": [ 129.30899, 35.497772, 225.0 ] } },
{ "type": "Feature", "properties": { "value": 1.5757 }, "geometry": { "type": "Point", "coordinates": [ 129.310089, 35.497772, 225.0 ] } },
{ "type": "Feature", "properties": { "value": 0.4874 }, "geometry": { "type": "Point", "coordinates": [ 129.311188, 35.497768, 225.0 ] } },
{ "type": "Feature", "properties": { "value": 0.0029 }, "geometry": { "type": "Point", "coordinates": [ 129.314499, 35.497761, 225.0 ] } },
{ "type": "Feature", "properties": { "value": 0.0077 }, "geometry": { "type": "Point", "coordinates": [ 129.315598, 35.497757, 225.0 ] } },
{ "type": "Feature", "properties": { "value": 0.0142 }, "geometry": { "type": "Point", "coordinates": [ 129.316696, 35.497753, 225.0 ] } },
{ "type": "Feature", "properties": { "value": 0.0277 }, "geometry": { "type": "Point", "coordinates": [ 129.317795, 35.497749, 225.0 ] } },
{ "type": "Feature", "properties": { "value": 0.0454 }, "geometry": { "type": "Point", "coordinates": [ 129.318909, 35.497749, 225.0 ] } },
{ "type": "Feature", "properties": { "value": 0.0534 }, "geometry": { "type": "Point", "coordinates": [ 129.320007, 35.497746, 225.0 ] } },
{ "type": "Feature", "properties": { "value": 0.0541 }, "geometry": { "type": "Point", "coordinates": [ 129.321106, 35.497742, 225.0 ] } },
{ "type": "Feature", "properties": { "value": 0.0729 }, "geometry": { "type": "Point", "coordinates": [ 129.322205, 35.497738, 225.0 ] } },
{ "type": "Feature", "properties": { "value": 0.0321 }, "geometry": { "type": "Point", "coordinates": [ 129.323318, 35.497734, 225.0 ] } },
{ "type": "Feature", "properties": { "value": 0.0063 }, "geometry": { "type": "Point", "coordinates": [ 129.324417, 35.497734, 225.0 ] } },
{ "type": "Feature", "properties": { "value": 0.0014 }, "geometry": { "type": "Point", "coordinates": [ 129.325516, 35.49773, 225.0 ] } },
{ "type": "Feature", "properties": { "value": 0.0488 }, "geometry": { "type": "Point", "coordinates": [ 129.288055, 35.498726, 225.0 ] } },
{ "type": "Feature", "properties": { "value": 0.2414 }, "geometry": { "type": "Point", "coordinates": [ 129.289154, 35.498722, 225.0 ] } },
{ "type": "Feature", "properties": { "value": 0.7865 }, "geometry": { "type": "Point", "coordinates": [ 129.290253, 35.498722, 225.0 ] } },
{ "type": "Feature", "properties": { "value": 1.9542 }, "geometry": { "type": "Point", "coordinates": [ 129.291351, 35.498718, 225.0 ] } },
{ "type": "Feature", "properties": { "value": 3.9922 }, "geometry": { "type": "Point", "coordinates": [ 129.29245, 35.498714, 225.0 ] } },
{ "type": "Feature", "properties": { "value": 6.9975 }, "geometry": { "type": "Point", "coordinates": [ 129.293564, 35.498714, 225.0 ] } },
{ "type": "Feature", "properties": { "value": 10.612 }, "geometry": { "type": "Point", "coordinates": [ 129.294662, 35.498711, 225.0 ] } },
{ "type": "Feature", "properties": { "value": 14.165 }, "geometry": { "type": "Point", "coordinates": [ 129.295761, 35.498707, 225.0 ] } },
{ "type": "Feature", "properties": { "value": 16.993 }, "geometry": { "type": "Point", "coordinates": [ 129.29686, 35.498707, 225.0 ] } },
{ "type": "Feature", "properties": { "value": 18.754 }, "geometry": { "type": "Point", "coordinates": [ 129.297974, 35.498703, 225.0 ] } },
{ "type": "Feature", "properties": { "value": 19.359 }, "geometry": { "type": "Point", "coordinates": [ 129.299072, 35.498699, 225.0 ] } },
{ "type": "Feature", "properties": { "value": 18.966 }, "geometry": { "type": "Point", "coordinates": [ 129.300171, 35.498695, 225.0 ] } },
{ "type": "Feature", "properties": { "value": 17.71 }, "geometry": { "type": "Point", "coordinates": [ 129.30127, 35.498695, 225.0 ] } },
{ "type": "Feature", "properties": { "value": 15.672 }, "geometry": { "type": "Point", "coordinates": [ 129.302368, 35.498692, 225.0 ] } },
{ "type": "Feature", "properties": { "value": 13.055 }, "geometry": { "type": "Point", "coordinates": [ 129.303482, 35.498688, 225.0 ] } },
{ "type": "Feature", "properties": { "value": 10.109 }, "geometry": { "type": "Point", "coordinates": [ 129.304581, 35.498684, 225.0 ] } },
{ "type": "Feature", "properties": { "value": 7.1498 }, "geometry": { "type": "Point", "coordinates": [ 129.305679, 35.498684, 225.0 ] } },
{ "type": "Feature", "properties": { "value": 4.5489 }, "geometry": { "type": "Point", "coordinates": [ 129.306778, 35.49868, 225.0 ] } },
{ "type": "Feature", "properties": { "value": 2.5079 }, "geometry": { "type": "Point", "coordinates": [ 129.307892, 35.498676, 225.0 ] } },
{ "type": "Feature", "properties": { "value": 1.1864 }, "geometry": { "type": "Point", "coordinates": [ 129.30899, 35.498676, 225.0 ] } },
{ "type": "Feature", "properties": { "value": 0.3513 }, "geometry": { "type": "Point", "coordinates": [ 129.310089, 35.498672, 225.0 ] } },
{ "type": "Feature", "properties": { "value": 0.0048 }, "geometry": { "type": "Point", "coordinates": [ 129.3134, 35.498665, 225.0 ] } },
{ "type": "Feature", "properties": { "value": 0.0139 }, "geometry": { "type": "Point", "coordinates": [ 129.314499, 35.498661, 225.0 ] } },
{ "type": "Feature", "properties": { "value": 0.0227 }, "geometry": { "type": "Point", "coordinates": [ 129.315598, 35.498657, 225.0 ] } },
{ "type": "Feature", "properties": { "value": 0.037 }, "geometry": { "type": "Point", "coordinates": [ 129.316696, 35.498653, 225.0 ] } },
{ "type": "Feature", "properties": { "value": 0.0597 }, "geometry": { "type": "Point", "coordinates": [ 129.31781, 35.498653, 225.0 ] } },
{ "type": "Feature", "properties": { "value": 0.1418 }, "geometry": { "type": "Point", "coordinates": [ 129.318909, 35.49865, 225.0 ] } },
{ "type": "Feature", "properties": { "value": 0.0741 }, "geometry": { "type": "Point", "coordinates": [ 129.320007, 35.498646, 225.0 ] } },
{ "type": "Feature", "properties": { "value": 0.1118 }, "geometry": { "type": "Point", "coordinates": [ 129.321106, 35.498642, 225.0 ] } },
{ "type": "Feature", "properties": { "value": 0.0818 }, "geometry": { "type": "Point", "coordinates": [ 129.32222, 35.498638, 225.0 ] } },
{ "type": "Feature", "properties": { "value": 0.019 }, "geometry": { "type": "Point", "coordinates": [ 129.323318, 35.498638, 225.0 ] } },
{ "type": "Feature", "properties": { "value": 0.0032 }, "geometry": { "type": "Point", "coordinates": [ 129.324417, 35.498634, 225.0 ] } },
{ "type": "Feature", "properties": { "value": 0.0004 }, "geometry": { "type": "Point", "coordinates": [ 129.325516, 35.498631, 225.0 ] } },
{ "type": "Feature", "properties": { "value": 0.0113 }, "geometry": { "type": "Point", "coordinates": [ 129.288055, 35.499626, 225.0 ] } },
{ "type": "Feature", "properties": { "value": 0.1092 }, "geometry": { "type": "Point", "coordinates": [ 129.289154, 35.499626, 225.0 ] } },
{ "type": "Feature", "properties": { "value": 0.4039 }, "geometry": { "type": "Point", "coordinates": [ 129.290253, 35.499622, 225.0 ] } },
{ "type": "Feature", "properties": { "value": 1.032 }, "geometry": { "type": "Point", "coordinates": [ 129.291351, 35.499619, 225.0 ] } },
{ "type": "Feature", "properties": { "value": 2.1232 }, "geometry": { "type": "Point", "coordinates": [ 129.292465, 35.499619, 225.0 ] } },
{ "type": "Feature", "properties": { "value": 3.7458 }, "geometry": { "type": "Point", "coordinates": [ 129.293564, 35.499615, 225.0 ] } },
{ "type": "Feature", "properties": { "value": 5.6698 }, "geometry": { "type": "Point", "coordinates": [ 129.294662, 35.499611, 225.0 ] } },
{ "type": "Feature", "properties": { "value": 7.5811 }, "geometry": { "type": "Point", "coordinates": [ 129.295761, 35.499607, 225.0 ] } },
{ "type": "Feature", "properties": { "value": 9.0583 }, "geometry": { "type": "Point", "coordinates": [ 129.296875, 35.499607, 225.0 ] } },
{ "type": "Feature", "properties": { "value": 9.8936 }, "geometry": { "type": "Point", "coordinates": [ 129.297974, 35.499603, 225.0 ] } },
{ "type": "Feature", "properties": { "value": 10.054 }, "geometry": { "type": "Point", "coordinates": [ 129.299072, 35.499599, 225.0 ] } },
{ "type": "Feature", "properties": { "value": 9.6119 }, "geometry": { "type": "Point", "coordinates": [ 129.300171, 35.499599, 225.0 ] } },
{ "type": "Feature", "properties": { "value": 8.6463 }, "geometry": { "type": "Point", "coordinates": [ 129.30127, 35.499596, 225.0 ] } },
{ "type": "Feature", "properties": { "value": 7.2991 }, "geometry": { "type": "Point", "coordinates": [ 129.302383, 35.499592, 225.0 ] } },
{ "type": "Feature", "properties": { "value": 5.7375 }, "geometry": { "type": "Point", "coordinates": [ 129.303482, 35.499588, 225.0 ] } },
{ "type": "Feature", "properties": { "value": 4.1327 }, "geometry": { "type": "Point", "coordinates": [ 129.304581, 35.499588, 225.0 ] } },
{ "type": "Feature", "properties": { "value": 2.6712 }, "geometry": { "type": "Point", "coordinates": [ 129.305679, 35.499584, 225.0 ] } },
{ "type": "Feature", "properties": { "value": 1.5343 }, "geometry": { "type": "Point", "coordinates": [ 129.306793, 35.49958, 225.0 ] } },
{ "type": "Feature", "properties": { "value": 0.6986 }, "geometry": { "type": "Point", "coordinates": [ 129.307892, 35.49958, 225.0 ] } },
{ "type": "Feature", "properties": { "value": 0.0029 }, "geometry": { "type": "Point", "coordinates": [ 129.312302, 35.499569, 225.0 ] } },
{ "type": "Feature", "properties": { "value": 0.0151 }, "geometry": { "type": "Point", "coordinates": [ 129.3134, 35.499565, 225.0 ] } },
{ "type": "Feature", "properties": { "value": 0.0332 }, "geometry": { "type": "Point", "coordinates": [ 129.314499, 35.499561, 225.0 ] } },
{ "type": "Feature", "properties": { "value": 0.0512 }, "geometry": { "type": "Point", "coordinates": [ 129.315598, 35.499557, 225.0 ] } },
{ "type": "Feature", "properties": { "value": 0.0821 }, "geometry": { "type": "Point", "coordinates": [ 129.316711, 35.499557, 225.0 ] } },
{ "type": "Feature", "properties": { "value": 0.1665 }, "geometry": { "type": "Point", "coordinates": [ 129.31781, 35.499554, 225.0 ] } },
{ "type": "Feature", "properties": { "value": 0.3086 }, "geometry": { "type": "Point", "coordinates": [ 129.318909, 35.49955, 225.0 ] } },
{ "type": "Feature", "properties": { "value": 0.1542 }, "geometry": { "type": "Point", "coordinates": [ 129.320007, 35.499546, 225.0 ] } },
{ "type": "Feature", "properties": { "value": 0.1666 }, "geometry": { "type": "Point", "coordinates": [ 129.321121, 35.499546, 225.0 ] } },
{ "type": "Feature", "properties": { "value": 0.0654 }, "geometry": { "type": "Point", "coordinates": [ 129.32222, 35.499542, 225.0 ] } },
{ "type": "Feature", "properties": { "value": 0.0109 }, "geometry": { "type": "Point", "coordinates": [ 129.323318, 35.499538, 225.0 ] } },
{ "type": "Feature", "properties": { "value": 0.0018 }, "geometry": { "type": "Point", "coordinates": [ 129.324417, 35.499535, 225.0 ] } },
{ "type": "Feature", "properties": { "value": 0.014 }, "geometry": { "type": "Point", "coordinates": [ 129.289154, 35.500526, 225.0 ] } },
{ "type": "Feature", "properties": { "value": 0.1472 }, "geometry": { "type": "Point", "coordinates": [ 129.290253, 35.500523, 225.0 ] } },
{ "type": "Feature", "properties": { "value": 0.4108 }, "geometry": { "type": "Point", "coordinates": [ 129.291367, 35.500523, 225.0 ] } },
{ "type": "Feature", "properties": { "value": 0.8893 }, "geometry": { "type": "Point", "coordinates": [ 129.292465, 35.500519, 225.0 ] } },
{ "type": "Feature", "properties": { "value": 1.603 }, "geometry": { "type": "Point", "coordinates": [ 129.293564, 35.500515, 225.0 ] } },
{ "type": "Feature", "properties": { "value": 2.4289 }, "geometry": { "type": "Point", "coordinates": [ 129.294662, 35.500511, 225.0 ] } },
{ "type": "Feature", "properties": { "value": 3.2554 }, "geometry": { "type": "Point", "coordinates": [ 129.295776, 35.500511, 225.0 ] } },
{ "type": "Feature", "properties": { "value": 3.8676 }, "geometry": { "type": "Point", "coordinates": [ 129.296875, 35.500507, 225.0 ] } },
{ "type": "Feature", "properties": { "value": 4.1792 }, "geometry": { "type": "Point", "coordinates": [ 129.297974, 35.500504, 225.0 ] } },
{ "type": "Feature", "properties": { "value": 4.1747 }, "geometry": { "type": "Point", "coordinates": [ 129.299072, 35.500504, 225.0 ] } },
{ "type": "Feature", "properties": { "value": 3.8849 }, "geometry": { "type": "Point", "coordinates": [ 129.300171, 35.5005, 225.0 ] } },
{ "type": "Feature", "properties": { "value": 3.3409 }, "geometry": { "type": "Point", "coordinates": [ 129.301285, 35.500496, 225.0 ] } },
{ "type": "Feature", "properties": { "value": 2.6801 }, "geometry": { "type": "Point", "coordinates": [ 129.302383, 35.500492, 225.0 ] } },
{ "type": "Feature", "properties": { "value": 1.9683 }, "geometry": { "type": "Point", "coordinates": [ 129.303482, 35.500492, 225.0 ] } },
{ "type": "Feature", "properties": { "value": 1.3059 }, "geometry": { "type": "Point", "coordinates": [ 129.304581, 35.500488, 225.0 ] } },
{ "type": "Feature", "properties": { "value": 0.7325 }, "geometry": { "type": "Point", "coordinates": [ 129.305695, 35.500484, 225.0 ] } },
{ "type": "Feature", "properties": { "value": 0.2864 }, "geometry": { "type": "Point", "coordinates": [ 129.306793, 35.500484, 225.0 ] } },
{ "type": "Feature", "properties": { "value": 0.0062 }, "geometry": { "type": "Point", "coordinates": [ 129.312302, 35.500469, 225.0 ] } },
{ "type": "Feature", "properties": { "value": 0.023 }, "geometry": { "type": "Point", "coordinates": [ 129.3134, 35.500465, 225.0 ] } },
{ "type": "Feature", "properties": { "value": 0.0576 }, "geometry": { "type": "Point", "coordinates": [ 129.314499, 35.500462, 225.0 ] } },
{ "type": "Feature", "properties": { "value": 0.1127 }, "geometry": { "type": "Point", "coordinates": [ 129.315613, 35.500462, 225.0 ] } },
{ "type": "Feature", "properties": { "value": 0.2051 }, "geometry": { "type": "Point", "coordinates": [ 129.316711, 35.500458, 225.0 ] } },
{ "type": "Feature", "properties": { "value": 0.3762 }, "geometry": { "type": "Point", "coordinates": [ 129.31781, 35.500454, 225.0 ] } },
{ "type": "Feature", "properties": { "value": 0.4396 }, "geometry": { "type": "Point", "coordinates": [ 129.318909, 35.50045, 225.0 ] } },
{ "type": "Feature", "properties": { "value": 0.273 }, "geometry": { "type": "Point", "coordinates": [ 129.320023, 35.50045, 225.0 ] } },
{ "type": "Feature", "properties": { "value": 0.1702 }, "geometry": { "type": "Point", "coordinates": [ 129.321121, 35.500446, 225.0 ] } },
{ "type": "Feature", "properties": { "value": 0.0395 }, "geometry": { "type": "Point", "coordinates": [ 129.32222, 35.500443, 225.0 ] } },
{ "type": "Feature", "properties": { "value": 0.0055 }, "geometry": { "type": "Point", "coordinates": [ 129.323318, 35.500439, 225.0 ] } },
{ "type": "Feature", "properties": { "value": 0.0004 }, "geometry": { "type": "Point", "coordinates": [ 129.324432, 35.500435, 225.0 ] } },
{ "type": "Feature", "properties": { "value": 0.0901 }, "geometry": { "type": "Point", "coordinates": [ 129.291367, 35.501423, 225.0 ] } },
{ "type": "Feature", "properties": { "value": 0.265 }, "geometry": { "type": "Point", "coordinates": [ 129.292465, 35.501419, 225.0 ] } },
{ "type": "Feature", "properties": { "value": 0.5212 }, "geometry": { "type": "Point", "coordinates": [ 129.293564, 35.501415, 225.0 ] } },
{ "type": "Feature", "properties": { "value": 0.8016 }, "geometry": { "type": "Point", "coordinates": [ 129.294678, 35.501415, 225.0 ] } },
{ "type": "Feature", "properties": { "value": 1.0985 }, "geometry": { "type": "Point", "coordinates": [ 129.295776, 35.501411, 225.0 ] } },
{ "type": "Feature", "properties": { "value": 1.2973 }, "geometry": { "type": "Point", "coordinates": [ 129.296875, 35.501408, 225.0 ] } },
{ "type": "Feature", "properties": { "value": 1.3858 }, "geometry": { "type": "Point", "coordinates": [ 129.297974, 35.501408, 225.0 ] } },
{ "type": "Feature", "properties": { "value": 1.3332 }, "geometry": { "type": "Point", "coordinates": [ 129.299072, 35.501404, 225.0 ] } },
{ "type": "Feature", "properties": { "value": 1.1722 }, "geometry": { "type": "Point", "coordinates": [ 129.300186, 35.5014, 225.0 ] } },
{ "type": "Feature", "properties": { "value": 0.9663 }, "geometry": { "type": "Point", "coordinates": [ 129.301285, 35.501396, 225.0 ] } },
{ "type": "Feature", "properties": { "value": 0.7139 }, "geometry": { "type": "Point", "coordinates": [ 129.302383, 35.501396, 225.0 ] } },
{ "type": "Feature", "properties": { "value": 0.4346 }, "geometry": { "type": "Point", "coordinates": [ 129.303482, 35.501392, 225.0 ] } },
{ "type": "Feature", "properties": { "value": 0.1553 }, "geometry": { "type": "Point", "coordinates": [ 129.304596, 35.501389, 225.0 ] } },
{ "type": "Feature", "properties": { "value": 0.0006 }, "geometry": { "type": "Point", "coordinates": [ 129.311203, 35.501373, 225.0 ] } },
{ "type": "Feature", "properties": { "value": 0.0085 }, "geometry": { "type": "Point", "coordinates": [ 129.312302, 35.501369, 225.0 ] } },
{ "type": "Feature", "properties": { "value": 0.0295 }, "geometry": { "type": "Point", "coordinates": [ 129.3134, 35.501366, 225.0 ] } },
{ "type": "Feature", "properties": { "value": 0.0777 }, "geometry": { "type": "Point", "coordinates": [ 129.314514, 35.501366, 225.0 ] } },
{ "type": "Feature", "properties": { "value": 0.1681 }, "geometry": { "type": "Point", "coordinates": [ 129.315613, 35.501362, 225.0 ] } },
{ "type": "Feature", "properties": { "value": 0.3343 }, "geometry": { "type": "Point", "coordinates": [ 129.316711, 35.501358, 225.0 ] } },
{ "type": "Feature", "properties": { "value": 0.5074 }, "geometry": { "type": "Point", "coordinates": [ 129.31781, 35.501354, 225.0 ] } },
{ "type": "Feature", "properties": { "value": 0.3804 }, "geometry": { "type": "Point", "coordinates": [ 129.318924, 35.501354, 225.0 ] } },
{ "type": "Feature", "properties": { "value": 0.2945 }, "geometry": { "type": "Point", "coordinates": [ 129.320023, 35.50135, 225.0 ] } },
{ "type": "Feature", "properties": { "value": 0.1135 }, "geometry": { "type": "Point", "coordinates": [ 129.321121, 35.501347, 225.0 ] } },
{ "type": "Feature", "properties": { "value": 0.0196 }, "geometry": { "type": "Point", "coordinates": [ 129.32222, 35.501343, 225.0 ] } },
{ "type": "Feature", "properties": { "value": 0.0025 }, "geometry": { "type": "Point", "coordinates": [ 129.323334, 35.501339, 225.0 ] } }
]
}
