{
"type": "FeatureCollection",
"features": [
{ "type": "Feature", "properties": { "value": 5.2022 }, "geometry": { "type": "Point", "coordinates": [ 129.32756, 35.458969, 30.0 ] } },
{ "type": "Feature", "properties": { "value": 142.6 }, "geometry": { "type": "Point", "coordinates": [ 129.32756, 35.459869, 30.0 ] } },
{ "type": "Feature", "properties": { "value": 257.64 }, "geometry": { "type": "Point", "coordinates": [ 129.327576, 35.46077, 30.0 ] } },
{ "type": "Feature", "properties": { "value": 241.96 }, "geometry": { "type": "Point", "coordinates": [ 129.327576, 35.461674, 30.0 ] } },
{ "type": "Feature", "properties": { "value": 228.32 }, "geometry": { "type": "Point", "coordinates": [ 129.327576, 35.462574, 30.0 ] } },
{ "type": "Feature", "properties": { "value": 190.31 }, "geometry": { "type": "Point", "coordinates": [ 129.327576, 35.463474, 30.0 ] } },
{ "type": "Feature", "properties": { "value": 2.9983 }, "geometry": { "type": "Point", "coordinates": [ 129.32869, 35.46347, 30.0 ] } },
{ "type": "Feature", "properties": { "value": 154.78 }, "geometry": { "type": "Point", "coordinates": [ 129.327591, 35.464375, 30.0 ] } },
{ "type": "Feature", "properties": { "value": 11.97 }, "geometry": { "type": "Point", "coordinates": [ 129.32869, 35.464375, 30.0 ] } },
{ "type": "Feature", "properties": { "value": 112.78 }, "geometry": { "type": "Point", "coordinates": [ 129.327591, 35.465279, 30.0 ] } },
{ "type": "Feature", "properties": { "value": 21.2 }, "geometry": { "type": "Point", "coordinates": [ 129.32869, 35.465275, 30.0 ] } },
{ "type": "Feature", "properties": { "value": 82.94 }, "geometry": { "type": "Point", "coordinates": [ 129.327591, 35.466179, 30.0 ] } },
{ "type": "Feature", "properties": { "value": 25.6 }, "geometry": { "type": "Point", "coordinates": [ 129.32869, 35.466175, 30.0 ] } },
{ "type": "Feature", "properties": { "value": 67.549 }, "geometry": { "type": "Point", "coordinates": [ 129.327591, 35.467079, 30.0 ] } },
{ "type": "Feature", "properties": { "value": 29.313 }, "geometry": { "type": "Point", "coordinates": [ 129.328705, 35.467075, 30.0 ] } },
{ "type": "Feature", "properties": { "value": 60.132 }, "geometry": { "type": "Point", "coordinates": [ 129.327606, 35.467983, 30.0 ] } },
{ "type": "Feature", "properties": { "value": 32.529 }, "geometry": { "type": "Point", "coordinates": [ 129.328705, 35.467979, 30.0 ] } },
{ "type": "Feature", "properties": { "value": 0.6901 }, "geometry": { "type": "Point", "coordinates": [ 129.326508, 35.468887, 30.0 ] } },
{ "type": "Feature", "properties": { "value": 59.514 }, "geometry": { "type": "Point", "coordinates": [ 129.327606, 35.468884, 30.0 ] } },
{ "type": "Feature", "properties": { "value": 35.595 }, "geometry": { "type": "Point", "coordinates": [ 129.328705, 35.46888, 30.0 ] } },
{ "type": "Feature", "properties": { "value": 1.7524 }, "geometry": { "type": "Point", "coordinates": [ 129.326508, 35.469788, 30.0 ] } },
{ "type": "Feature", "properties": { "value": 66.431 }, "geometry": { "type": "Point", "coordinates": [ 129.327606, 35.469784, 30.0 ] } },
{ "type": "Feature", "properties": { "value": 40.761 }, "geometry": { "type": "Point", "coordinates": [ 129.328705, 35.46978, 30.0 ] } },
{ "type": "Feature", "properties": { "value": 3.3661 }, "geometry": { "type": "Point", "coordinates": [ 129.326508, 35.470688, 30.0 ] } },
{ "type": "Feature", "properties": { "value": 75.896 }, "geometry": { "type": "Point", "coordinates": [ 129.327606, 35.470684, 30.0 ] } },
{ "type": "Feature", "properties": { "value": 50.55 }, "geometry": { "type": "Point", "coordinates": [ 129.32872, 35.470684, 30.0 ] } },
{ "type": "Feature", "properties": { "value": 5.4705 }, "geometry": { "type": "Point", "coordinates": [ 129.326508, 35.471588, 30.0 ] } },
{ "type": "Feature", "properties": { "value": 89.804 }, "geometry": { "type": "Point", "coordinates": [ 129.327621, 35.471588, 30.0 ] } },
{ "type": "Feature", "properties": { "value": 65.664 }, "geometry": { "type": "Point", "coordinates": [ 129.32872, 35.471584, 30.0 ] } },
{ "type": "Feature", "properties": { "value": 1.4737 }, "geometry": { "type": "Point", "coordinates": [ 129.329819, 35.471581, 30.0 ] } },
{ "type": "Feature", "properties": { "value": 8.3813 }, "geometry": { "type": "Point", "coordinates": [ 129.326523, 35.472492, 30.0 ] } },
{ "type": "Feature", "properties": { "value": 103.66 }, "geometry": { "type": "Point", "coordinates": [ 129.327621, 35.472488, 30.0 ] } },
{ "type": "Feature", "properties": { "value": 73.203 }, "geometry": { "type": "Point", "coordinates": [ 129.32872, 35.472485, 30.0 ] } },
{ "type": "Feature", "properties": { "value": 2.3073 }, "geometry": { "type": "Point", "coordinates": [ 129.329819, 35.472481, 30.0 ] } },
{ "type": "Feature", "properties": { "value": 12.68 }, "geometry": { "type": "Point", "coordinates": [ 129.326523, 35.473392, 30.0 ] } },
{ "type": "Feature", "properties": { "value": 102.57 }, "geometry": { "type": "Point", "coordinates": [ 129.327621, 35.473389, 30.0 ] } },
{ "type": "Feature", "properties": { "value": 71.463 }, "geometry": { "type": "Point", "coordinates": [ 129.32872, 35.473385, 30.0 ] } },
{ "type": "Feature", "properties": { "value": 3.9346 }, "geometry": { "type": "Point", "coordinates": [ 129.329819, 35.473385, 30.0 ] } },
{ "type": "Feature", "properties": { "value": 17.193 }, "geometry": { "type": "Point", "coordinates": [ 129.326523, 35.474293, 30.0 ] } },
{ "type": "Feature", "properties": { "value": 97.282 }, "geometry": { "type": "Point", "coordinates": [ 129.327621, 35.474289, 30.0 ] } },
{ "type": "Feature", "properties": { "value": 67.509 }, "geometry": { "type": "Point", "coordinates": [ 129.328735, 35.474289, 30.0 ] } },
{ "type": "Feature", "properties": { "value": 5.4749 }, "geometry": { "type": "Point", "coordinates": [ 129.329834, 35.474285, 30.0 ] } },
{ "type": "Feature", "properties": { "value": 21.37 }, "geometry": { "type": "Point", "coordinates": [ 129.326523, 35.475193, 30.0 ] } },
{ "type": "Feature", "properties": { "value": 98.361 }, "geometry": { "type": "Point", "coordinates": [ 129.327637, 35.475193, 30.0 ] } },
{ "type": "Feature", "properties": { "value": 65.117 }, "geometry": { "type": "Point", "coordinates": [ 129.328735, 35.475189, 30.0 ] } },
{ "type": "Feature", "properties": { "value": 5.8081 }, "geometry": { "type": "Point", "coordinates": [ 129.329834, 35.475185, 30.0 ] } },
{ "type": "Feature", "properties": { "value": 0.5278 }, "geometry": { "type": "Point", "coordinates": [ 129.325424, 35.476097, 30.0 ] } },
{ "type": "Feature", "properties": { "value": 26.36 }, "geometry": { "type": "Point", "coordinates": [ 129.326538, 35.476097, 30.0 ] } },
{ "type": "Feature", "properties": { "value": 95.689 }, "geometry": { "type": "Point", "coordinates": [ 129.327637, 35.476093, 30.0 ] } },
{ "type": "Feature", "properties": { "value": 59.37 }, "geometry": { "type": "Point", "coordinates": [ 129.328735, 35.476089, 30.0 ] } },
{ "type": "Feature", "properties": { "value": 5.5002 }, "geometry": { "type": "Point", "coordinates": [ 129.329834, 35.476086, 30.0 ] } },
{ "type": "Feature", "properties": { "value": 2.0923 }, "geometry": { "type": "Point", "coordinates": [ 129.325439, 35.477001, 30.0 ] } },
{ "type": "Feature", "properties": { "value": 31.795 }, "geometry": { "type": "Point", "coordinates": [ 129.326538, 35.476997, 30.0 ] } },
{ "type": "Feature", "properties": { "value": 87.193 }, "geometry": { "type": "Point", "coordinates": [ 129.327637, 35.476994, 30.0 ] } },
{ "type": "Feature", "properties": { "value": 49.421 }, "geometry": { "type": "Point", "coordinates": [ 129.328735, 35.47699, 30.0 ] } },
{ "type": "Feature", "properties": { "value": 4.9368 }, "geometry": { "type": "Point", "coordinates": [ 129.329834, 35.47699, 30.0 ] } },
{ "type": "Feature", "properties": { "value": 3.6341 }, "geometry": { "type": "Point", "coordinates": [ 129.325439, 35.477901, 30.0 ] } },
{ "type": "Feature", "properties": { "value": 35.947 }, "geometry": { "type": "Point", "coordinates": [ 129.326538, 35.477898, 30.0 ] } },
{ "type": "Feature", "properties": { "value": 76.267 }, "geometry": { "type": "Point", "coordinates": [ 129.327637, 35.477894, 30.0 ] } },
{ "type": "Feature", "properties": { "value": 39.003 }, "geometry": { "type": "Point", "coordinates": [ 129.328735, 35.477894, 30.0 ] } },
{ "type": "Feature", "properties": { "value": 4.2237 }, "geometry": { "type": "Point", "coordinates": [ 129.329849, 35.47789, 30.0 ] } },
{ "type": "Feature", "properties": { "value": 5.7194 }, "geometry": { "type": "Point", "coordinates": [ 129.325439, 35.478802, 30.0 ] } },
{ "type": "Feature", "properties": { "value": 39.845 }, "geometry": { "type": "Point", "coordinates": [ 129.326538, 35.478798, 30.0 ] } },
{ "type": "Feature", "properties": { "value": 70.296 }, "geometry": { "type": "Point", "coordinates": [ 129.327637, 35.478798, 30.0 ] } },
{ "type": "Feature", "properties": { "value": 31.946 }, "geometry": { "type": "Point", "coordinates": [ 129.328751, 35.478794, 30.0 ] } },
{ "type": "Feature", "properties": { "value": 3.4318 }, "geometry": { "type": "Point", "coordinates": [ 129.329849, 35.47879, 30.0 ] } },
{ "type": "Feature", "properties": { "value": 8.7385 }, "geometry": { "type": "Point", "coordinates": [ 129.325439, 35.479706, 30.0 ] } },
{ "type": "Feature", "properties": { "value": 48.134 }, "geometry": { "type": "Point", "coordinates": [ 129.326553, 35.479702, 30.0 ] } },
{ "type": "Feature", "properties": { "value": 73.57 }, "geometry": { "type": "Point", "coordinates": [ 129.327652, 35.479698, 30.0 ] } },
{ "type": "Feature", "properties": { "value": 28.882 }, "geometry": { "type": "Point", "coordinates": [ 129.328751, 35.479694, 30.0 ] } },
{ "type": "Feature", "properties": { "value": 2.7834 }, "geometry": { "type": "Point", "coordinates": [ 129.329849, 35.479691, 30.0 ] } },
{ "type": "Feature", "properties": { "value": 0.6608 }, "geometry": { "type": "Point", "coordinates": [ 129.324341, 35.48061, 30.0 ] } },
{ "type": "Feature", "properties": { "value": 14.443 }, "geometry": { "type": "Point", "coordinates": [ 129.325455, 35.480606, 30.0 ] } },
{ "type": "Feature", "properties": { "value": 62.655 }, "geometry": { "type": "Point", "coordinates": [ 129.326553, 35.480602, 30.0 ] } },
{ "type": "Feature", "properties": { "value": 78.975 }, "geometry": { "type": "Point", "coordinates": [ 129.327652, 35.480598, 30.0 ] } },
{ "type": "Feature", "properties": { "value": 26.406 }, "geometry": { "type": "Point", "coordinates": [ 129.328751, 35.480595, 30.0 ] } },
{ "type": "Feature", "properties": { "value": 2.277 }, "geometry": { "type": "Point", "coordinates": [ 129.329849, 35.480595, 30.0 ] } },
{ "type": "Feature", "properties": { "value": 2.105 }, "geometry": { "type": "Point", "coordinates": [ 129.324356, 35.48151, 30.0 ] } },
{ "type": "Feature", "properties": { "value": 23.163 }, "geometry": { "type": "Point", "coordinates": [ 129.325455, 35.481506, 30.0 ] } },
{ "type": "Feature", "properties": { "value": 75.226 }, "geometry": { "type": "Point", "coordinates": [ 129.326553, 35.481503, 30.0 ] } },
{ "type": "Feature", "properties": { "value": 74.458 }, "geometry": { "type": "Point", "coordinates": [ 129.327652, 35.481503, 30.0 ] } },
{ "type": "Feature", "properties": { "value": 21.479 }, "geometry": { "type": "Point", "coordinates": [ 129.328751, 35.481499, 30.0 ] } },
{ "type": "Feature", "properties": { "value": 1.7371 }, "geometry": { "type": "Point", "coordinates": [ 129.329865, 35.481495, 30.0 ] } },
{ "type": "Feature", "properties": { "value": 4.5431 }, "geometry": { "type": "Point", "coordinates": [ 129.324356, 35.48241, 30.0 ] } },
{ "type": "Feature", "properties": { "value": 33.344 }, "geometry": { "type": "Point", "coordinates": [ 129.325455, 35.482407, 30.0 ] } },
{ "type": "Feature", "properties": { "value": 80.183 }, "geometry": { "type": "Point", "coordinates": [ 129.326553, 35.482407, 30.0 ] } },
{ "type": "Feature", "properties": { "value": 62.871 }, "geometry": { "type": "Point", "coordinates": [ 129.327652, 35.482403, 30.0 ] } },
{ "type": "Feature", "properties": { "value": 16.117 }, "geometry": { "type": "Point", "coordinates": [ 129.328766, 35.482399, 30.0 ] } },
{ "type": "Feature", "properties": { "value": 1.1916 }, "geometry": { "type": "Point", "coordinates": [ 129.329865, 35.482395, 30.0 ] } },
{ "type": "Feature", "properties": { "value": 8.3333 }, "geometry": { "type": "Point", "coordinates": [ 129.324356, 35.483311, 30.0 ] } },
{ "type": "Feature", "properties": { "value": 43.574 }, "geometry": { "type": "Point", "coordinates": [ 129.325455, 35.483311, 30.0 ] } },
{ "type": "Feature", "properties": { "value": 80.56 }, "geometry": { "type": "Point", "coordinates": [ 129.326553, 35.483307, 30.0 ] } },
{ "type": "Feature", "properties": { "value": 53.646 }, "geometry": { "type": "Point", "coordinates": [ 129.327667, 35.483303, 30.0 ] } },
{ "type": "Feature", "properties": { "value": 12.787 }, "geometry": { "type": "Point", "coordinates": [ 129.328766, 35.483299, 30.0 ] } },
{ "type": "Feature", "properties": { "value": 0.7887 }, "geometry": { "type": "Point", "coordinates": [ 129.329865, 35.483295, 30.0 ] } },
{ "type": "Feature", "properties": { "value": 1.1387 }, "geometry": { "type": "Point", "coordinates": [ 129.323257, 35.484215, 30.0 ] } },
{ "type": "Feature", "properties": { "value": 14.181 }, "geometry": { "type": "Point", "coordinates": [ 129.324356, 35.484215, 30.0 ] } },
{ "type": "Feature", "properties": { "value": 54.535 }, "geometry": { "type": "Point", "coordinates": [ 129.325455, 35.484211, 30.0 ] } },
{ "type": "Feature", "properties": { "value": 80.775 }, "geometry": { "type": "Point", "coordinates": [ 129.326569, 35.484207, 30.0 ] } },
{ "type": "Feature", "properties": { "value": 47.293 }, "geometry": { "type": "Point", "coordinates": [ 129.327667, 35.484203, 30.0 ] } },
{ "type": "Feature", "properties": { "value": 10.26 }, "geometry": { "type": "Point", "coordinates": [ 129.328766, 35.484203, 30.0 ] } },
{ "type": "Feature", "properties": { "value": 0.2743 }, "geometry": { "type": "Point", "coordinates": [ 129.329865, 35.4842, 30.0 ] } },
{ "type": "Feature", "properties": { "value": 3.1275 }, "geometry": { "type": "Point", "coordinates": [ 129.323257, 35.485119, 30.0 ] } },
{ "type": "Feature", "properties": { "value": 22.542 }, "geometry": { "type": "Point", "coordinates": [ 129.324371, 35.485115, 30.0 ] } },
{ "type": "Feature", "properties": { "value": 64.946 }, "geometry": { "type": "Point", "coordinates": [ 129.32547, 35.485111, 30.0 ] } },
{ "type": "Feature", "properties": { "value": 77.665 }, "geometry": { "type": "Point", "coordinates": [ 129.326569, 35.485107, 30.0 ] } },
{ "type": "Feature", "properties": { "value": 38.536 }, "geometry": { "type": "Point", "coordinates": [ 129.327667, 35.485107, 30.0 ] } },
{ "type": "Feature", "properties": { "value": 7.2444 }, "geometry": { "type": "Point", "coordinates": [ 129.328766, 35.485104, 30.0 ] } },
{ "type": "Feature", "properties": { "value": 0.0882 }, "geometry": { "type": "Point", "coordinates": [ 129.32988, 35.4851, 30.0 ] } },
{ "type": "Feature", "properties": { "value": 6.8197 }, "geometry": { "type": "Point", "coordinates": [ 129.323273, 35.486019, 30.0 ] } },
{ "type": "Feature", "properties": { "value": 32.654 }, "geometry": { "type": "Point", "coordinates": [ 129.324371, 35.486015, 30.0 ] } },
{ "type": "Feature", "properties": { "value": 70.987 }, "geometry": { "type": "Point", "coordinates": [ 129.32547, 35.486012, 30.0 ] } },
{ "type": "Feature", "properties": { "value": 68.381 }, "geometry": { "type": "Point", "coordinates": [ 129.326569, 35.486012, 30.0 ] } },
{ "type": "Feature", "properties": { "value": 28.247 }, "geometry": { "type": "Point", "coordinates": [ 129.327667, 35.486008, 30.0 ] } },
{ "type": "Feature", "properties": { "value": 4.5237 }, "geometry": { "type": "Point", "coordinates": [ 129.328781, 35.486004, 30.0 ] } },
{ "type": "Feature", "properties": { "value": 1.4421 }, "geometry": { "type": "Point", "coordinates": [ 129.322174, 35.486923, 30.0 ] } },
{ "type": "Feature", "properties": { "value": 12.916 }, "geometry": { "type": "Point", "coordinates": [ 129.323273, 35.486919, 30.0 ] } },
{ "type": "Feature", "properties": { "value": 43.278 }, "geometry": { "type": "Point", "coordinates": [ 129.324371, 35.486916, 30.0 ] } },
{ "type": "Feature", "properties": { "value": 71.109 }, "geometry": { "type": "Point", "coordinates": [ 129.32547, 35.486916, 30.0 ] } },
{ "type": "Feature", "properties": { "value": 55.966 }, "geometry": { "type": "Point", "coordinates": [ 129.326569, 35.486912, 30.0 ] } },
{ "type": "Feature", "properties": { "value": 19.605 }, "geometry": { "type": "Point", "coordinates": [ 129.327682, 35.486908, 30.0 ] } },
{ "type": "Feature", "properties": { "value": 2.7456 }, "geometry": { "type": "Point", "coordinates": [ 129.328781, 35.486904, 30.0 ] } },
{ "type": "Feature", "properties": { "value": 3.7748 }, "geometry": { "type": "Point", "coordinates": [ 129.322174, 35.487823, 30.0 ] } },
{ "type": "Feature", "properties": { "value": 21.93 }, "geometry": { "type": "Point", "coordinates": [ 129.323273, 35.48782, 30.0 ] } },
{ "type": "Feature", "properties": { "value": 54.206 }, "geometry": { "type": "Point", "coordinates": [ 129.324371, 35.48782, 30.0 ] } },
{ "type": "Feature", "properties": { "value": 69.391 }, "geometry": { "type": "Point", "coordinates": [ 129.32547, 35.487816, 30.0 ] } },
{ "type": "Feature", "properties": { "value": 44.491 }, "geometry": { "type": "Point", "coordinates": [ 129.326584, 35.487812, 30.0 ] } },
{ "type": "Feature", "properties": { "value": 13.146 }, "geometry": { "type": "Point", "coordinates": [ 129.327682, 35.487808, 30.0 ] } },
{ "type": "Feature", "properties": { "value": 1.5705 }, "geometry": { "type": "Point", "coordinates": [ 129.328781, 35.487808, 30.0 ] } },
{ "type": "Feature", "properties": { "value": 1.0958 }, "geometry": { "type": "Point", "coordinates": [ 129.321075, 35.488728, 30.0 ] } },
{ "type": "Feature", "properties": { "value": 9.6542 }, "geometry": { "type": "Point", "coordinates": [ 129.322174, 35.488728, 30.0 ] } },
{ "type": "Feature", "properties": { "value": 34.904 }, "geometry": { "type": "Point", "coordinates": [ 129.323273, 35.488724, 30.0 ] } },
{ "type": "Feature", "properties": { "value": 66.8 }, "geometry": { "type": "Point", "coordinates": [ 129.324371, 35.48872, 30.0 ] } },
{ "type": "Feature", "properties": { "value": 67.734 }, "geometry": { "type": "Point", "coordinates": [ 129.325485, 35.488716, 30.0 ] } },
{ "type": "Feature", "properties": { "value": 34.825 }, "geometry": { "type": "Point", "coordinates": [ 129.326584, 35.488712, 30.0 ] } },
{ "type": "Feature", "properties": { "value": 8.4957 }, "geometry": { "type": "Point", "coordinates": [ 129.327682, 35.488712, 30.0 ] } },
{ "type": "Feature", "properties": { "value": 0.7056 }, "geometry": { "type": "Point", "coordinates": [ 129.328781, 35.488708, 30.0 ] } },
{ "type": "Feature", "properties": { "value": 3.6101 }, "geometry": { "type": "Point", "coordinates": [ 129.321075, 35.489632, 30.0 ] } },
{ "type": "Feature", "properties": { "value": 18.412 }, "geometry": { "type": "Point", "coordinates": [ 129.322174, 35.489628, 30.0 ] } },
{ "type": "Feature", "properties": { "value": 51.328 }, "geometry": { "type": "Point", "coordinates": [ 129.323273, 35.489624, 30.0 ] } },
{ "type": "Feature", "properties": { "value": 78.053 }, "geometry": { "type": "Point", "coordinates": [ 129.324387, 35.48962, 30.0 ] } },
{ "type": "Feature", "properties": { "value": 62.882 }, "geometry": { "type": "Point", "coordinates": [ 129.325485, 35.489616, 30.0 ] } },
{ "type": "Feature", "properties": { "value": 25.702 }, "geometry": { "type": "Point", "coordinates": [ 129.326584, 35.489616, 30.0 ] } },
{ "type": "Feature", "properties": { "value": 5.0765 }, "geometry": { "type": "Point", "coordinates": [ 129.327682, 35.489613, 30.0 ] } },
{ "type": "Feature", "properties": { "value": 1.2246 }, "geometry": { "type": "Point", "coordinates": [ 129.319977, 35.490536, 30.0 ] } },
{ "type": "Feature", "properties": { "value": 8.5792 }, "geometry": { "type": "Point", "coordinates": [ 129.321075, 35.490532, 30.0 ] } },
{ "type": "Feature", "properties": { "value": 30.779 }, "geometry": { "type": "Point", "coordinates": [ 129.322174, 35.490528, 30.0 ] } },
{ "type": "Feature", "properties": { "value": 64.712 }, "geometry": { "type": "Point", "coordinates": [ 129.323288, 35.490524, 30.0 ] } },
{ "type": "Feature", "properties": { "value": 77.524 }, "geometry": { "type": "Point", "coordinates": [ 129.324387, 35.490524, 30.0 ] } },
{ "type": "Feature", "properties": { "value": 50.455 }, "geometry": { "type": "Point", "coordinates": [ 129.325485, 35.49052, 30.0 ] } },
{ "type": "Feature", "properties": { "value": 16.813 }, "geometry": { "type": "Point", "coordinates": [ 129.326584, 35.490517, 30.0 ] } },
{ "type": "Feature", "properties": { "value": 2.6305 }, "geometry": { "type": "Point", "coordinates": [ 129.327698, 35.490513, 30.0 ] } },
{ "type": "Feature", "properties": { "value": 4.0911 }, "geometry": { "type": "Point", "coordinates": [ 129.319977, 35.491436, 30.0 ] } },
{ "type": "Feature", "properties": { "value": 17.414 }, "geometry": { "type": "Point", "coordinates": [ 129.321091, 35.491432, 30.0 ] } },
{ "type": "Feature", "properties": { "value": 45.744 }, "geometry": { "type": "Point", "coordinates": [ 129.322189, 35.491428, 30.0 ] } },
{ "type": "Feature", "properties": { "value": 72.942 }, "geometry": { "type": "Point", "coordinates": [ 129.323288, 35.491428, 30.0 ] } },
{ "type": "Feature", "properties": { "value": 67.644 }, "geometry": { "type": "Point", "coordinates": [ 129.324387, 35.491425, 30.0 ] } },
{ "type": "Feature", "properties": { "value": 34.568 }, "geometry": { "type": "Point", "coordinates": [ 129.325485, 35.491421, 30.0 ] } },
{ "type": "Feature", "properties": { "value": 9.5821 }, "geometry": { "type": "Point", "coordinates": [ 129.326599, 35.491417, 30.0 ] } },
{ "type": "Feature", "properties": { "value": 1.1008 }, "geometry": { "type": "Point", "coordinates": [ 129.327698, 35.491413, 30.0 ] } },
{ "type": "Feature", "properties": { "value": 2.0744 }, "geometry": { "type": "Point", "coordinates": [ 129.318878, 35.49234, 30.0 ] } },
{ "type": "Feature", "properties": { "value": 10.115 }, "geometry": { "type": "Point", "coordinates": [ 129.319992, 35.492336, 30.0 ] } },
{ "type": "Feature", "properties": { "value": 30.787 }, "geometry": { "type": "Point", "coordinates": [ 129.321091, 35.492332, 30.0 ] } },
{ "type": "Feature", "properties": { "value": 60.539 }, "geometry": { "type": "Point", "coordinates": [ 129.322189, 35.492332, 30.0 ] } },
{ "type": "Feature", "properties": { "value": 74.026 }, "geometry": { "type": "Point", "coordinates": [ 129.323288, 35.492329, 30.0 ] } },
{ "type": "Feature", "properties": { "value": 51.823 }, "geometry": { "type": "Point", "coordinates": [ 129.324387, 35.492325, 30.0 ] } },
{ "type": "Feature", "properties": { "value": 20.707 }, "geometry": { "type": "Point", "coordinates": [ 129.3255, 35.492321, 30.0 ] } },
{ "type": "Feature", "properties": { "value": 4.7637 }, "geometry": { "type": "Point", "coordinates": [ 129.326599, 35.492317, 30.0 ] } },
{ "type": "Feature", "properties": { "value": 0.1012 }, "geometry": { "type": "Point", "coordinates": [ 129.327698, 35.492317, 30.0 ] } },
{ "type": "Feature", "properties": { "value": 1.0763 }, "geometry": { "type": "Point", "coordinates": [ 129.31778, 35.493244, 30.0 ] } },
{ "type": "Feature", "properties": { "value": 6.2622 }, "geometry": { "type": "Point", "coordinates": [ 129.318893, 35.49324, 30.0 ] } },
{ "type": "Feature", "properties": { "value": 20.971 }, "geometry": { "type": "Point", "coordinates": [ 129.319992, 35.493237, 30.0 ] } },
{ "type": "Feature", "properties": { "value": 47.361 }, "geometry": { "type": "Point", "coordinates": [ 129.321091, 35.493237, 30.0 ] } },
{ "type": "Feature", "properties": { "value": 70.593 }, "geometry": { "type": "Point", "coordinates": [ 129.322189, 35.493233, 30.0 ] } },
{ "type": "Feature", "properties": { "value": 66.935 }, "geometry": { "type": "Point", "coordinates": [ 129.323288, 35.493229, 30.0 ] } },
{ "type": "Feature", "properties": { "value": 37.14 }, "geometry": { "type": "Point", "coordinates": [ 129.324402, 35.493225, 30.0 ] } },
{ "type": "Feature", "properties": { "value": 11.674 }, "geometry": { "type": "Point", "coordinates": [ 129.3255, 35.493225, 30.0 ] } },
{ "type": "Feature", "properties": { "value": 2.1119 }, "geometry": { "type": "Point", "coordinates": [ 129.326599, 35.493221, 30.0 ] } },
{ "type": "Feature", "properties": { "value": 0.4528 }, "geometry": { "type": "Point", "coordinates": [ 129.316681, 35.494148, 30.0 ] } },
{ "type": "Feature", "properties": { "value": 4.1939 }, "geometry": { "type": "Point", "coordinates": [ 129.317795, 35.494144, 30.0 ] } },
{ "type": "Feature", "properties": { "value": 14.709 }, "geometry": { "type": "Point", "coordinates": [ 129.318893, 35.494141, 30.0 ] } },
{ "type": "Feature", "properties": { "value": 36.525 }, "geometry": { "type": "Point", "coordinates": [ 129.319992, 35.494141, 30.0 ] } },
{ "type": "Feature", "properties": { "value": 62.624 }, "geometry": { "type": "Point", "coordinates": [ 129.321091, 35.494137, 30.0 ] } },
{ "type": "Feature", "properties": { "value": 71.866 }, "geometry": { "type": "Point", "coordinates": [ 129.322189, 35.494133, 30.0 ] } },
{ "type": "Feature", "properties": { "value": 53.308 }, "geometry": { "type": "Point", "coordinates": [ 129.323303, 35.494129, 30.0 ] } },
{ "type": "Feature", "properties": { "value": 24.139 }, "geometry": { "type": "Point", "coordinates": [ 129.324402, 35.494129, 30.0 ] } },
{ "type": "Feature", "properties": { "value": 6.2342 }, "geometry": { "type": "Point", "coordinates": [ 129.3255, 35.494125, 30.0 ] } },
{ "type": "Feature", "properties": { "value": 0.7202 }, "geometry": { "type": "Point", "coordinates": [ 129.326599, 35.494122, 30.0 ] } },
{ "type": "Feature", "properties": { "value": 0.0771 }, "geometry": { "type": "Point", "coordinates": [ 129.315582, 35.495052, 30.0 ] } },
{ "type": "Feature", "properties": { "value": 3.044 }, "geometry": { "type": "Point", "coordinates": [ 129.316696, 35.495049, 30.0 ] } },
{ "type": "Feature", "properties": { "value": 10.961 }, "geometry": { "type": "Point", "coordinates": [ 129.317795, 35.495045, 30.0 ] } },
{ "type": "Feature", "properties": { "value": 28.52 }, "geometry": { "type": "Point", "coordinates": [ 129.318893, 35.495045, 30.0 ] } },
{ "type": "Feature", "properties": { "value": 53.718 }, "geometry": { "type": "Point", "coordinates": [ 129.319992, 35.495041, 30.0 ] } },
{ "type": "Feature", "properties": { "value": 70.938 }, "geometry": { "type": "Point", "coordinates": [ 129.321091, 35.495037, 30.0 ] } },
{ "type": "Feature", "properties": { "value": 63.443 }, "geometry": { "type": "Point", "coordinates": [ 129.322205, 35.495033, 30.0 ] } },
{ "type": "Feature", "properties": { "value": 37.168 }, "geometry": { "type": "Point", "coordinates": [ 129.323303, 35.495033, 30.0 ] } },
{ "type": "Feature", "properties": { "value": 13.368 }, "geometry": { "type": "Point", "coordinates": [ 129.324402, 35.495029, 30.0 ] } },
{ "type": "Feature", "properties": { "value": 2.7732 }, "geometry": { "type": "Point", "coordinates": [ 129.3255, 35.495026, 30.0 ] } },
{ "type": "Feature", "properties": { "value": 0.071 }, "geometry": { "type": "Point", "coordinates": [ 129.314484, 35.495956, 30.0 ] } },
{ "type": "Feature", "properties": { "value": 2.5613 }, "geometry": { "type": "Point", "coordinates": [ 129.315598, 35.495953, 30.0 ] } },
{ "type": "Feature", "properties": { "value": 8.9195 }, "geometry": { "type": "Point", "coordinates": [ 129.316696, 35.495949, 30.0 ] } },
{ "type": "Feature", "properties": { "value": 23.252 }, "geometry": { "type": "Point", "coordinates": [ 129.317795, 35.495949, 30.0 ] } },
{ "type": "Feature", "properties": { "value": 45.962 }, "geometry": { "type": "Point", "coordinates": [ 129.318893, 35.495945, 30.0 ] } },
{ "type": "Feature", "properties": { "value": 66.761 }, "geometry": { "type": "Point", "coordinates": [ 129.319992, 35.495941, 30.0 ] } },
{ "type": "Feature", "properties": { "value": 68.733 }, "geometry": { "type": "Point", "coordinates": [ 129.321106, 35.495937, 30.0 ] } },
{ "type": "Feature", "properties": { "value": 48.427 }, "geometry": { "type": "Point", "coordinates": [ 129.322205, 35.495937, 30.0 ] } },
{ "type": "Feature", "properties": { "value": 21.805 }, "geometry": { "type": "Point", "coordinates": [ 129.323303, 35.495934, 30.0 ] } },
{ "type": "Feature", "properties": { "value": 6.3262 }, "geometry": { "type": "Point", "coordinates": [ 129.324402, 35.49593, 30.0 ] } },
{ "type": "Feature", "properties": { "value": 0.8964 }, "geometry": { "type": "Point", "coordinates": [ 129.325516, 35.495926, 30.0 ] } },
{ "type": "Feature", "properties": { "value": 0.2352 }, "geometry": { "type": "Point", "coordinates": [ 129.313385, 35.496861, 30.0 ] } },
{ "type": "Feature", "properties": { "value": 2.5446 }, "geometry": { "type": "Point", "coordinates": [ 129.314499, 35.496857, 30.0 ] } },
{ "type": "Feature", "properties": { "value": 8.0587 }, "geometry": { "type": "Point", "coordinates": [ 129.315598, 35.496857, 30.0 ] } },
{ "type": "Feature", "properties": { "value": 20.218 }, "geometry": { "type": "Point", "coordinates": [ 129.316696, 35.496853, 30.0 ] } },
{ "type": "Feature", "properties": { "value": 40.377 }, "geometry": { "type": "Point", "coordinates": [ 129.317795, 35.496849, 30.0 ] } },
{ "type": "Feature", "properties": { "value": 61.82 }, "geometry": { "type": "Point", "coordinates": [ 129.318893, 35.496845, 30.0 ] } },
{ "type": "Feature", "properties": { "value": 70.119 }, "geometry": { "type": "Point", "coordinates": [ 129.320007, 35.496841, 30.0 ] } },
{ "type": "Feature", "properties": { "value": 56.902 }, "geometry": { "type": "Point", "coordinates": [ 129.321106, 35.496841, 30.0 ] } },
{ "type": "Feature", "properties": { "value": 30.944 }, "geometry": { "type": "Point", "coordinates": [ 129.322205, 35.496838, 30.0 ] } },
{ "type": "Feature", "properties": { "value": 11.046 }, "geometry": { "type": "Point", "coordinates": [ 129.323303, 35.496834, 30.0 ] } },
{ "type": "Feature", "properties": { "value": 2.6568 }, "geometry": { "type": "Point", "coordinates": [ 129.324417, 35.49683, 30.0 ] } },
{ "type": "Feature", "properties": { "value": 0.4797 }, "geometry": { "type": "Point", "coordinates": [ 129.312286, 35.497765, 30.0 ] } },
{ "type": "Feature", "properties": { "value": 2.3232 }, "geometry": { "type": "Point", "coordinates": [ 129.3134, 35.497761, 30.0 ] } },
{ "type": "Feature", "properties": { "value": 7.3324 }, "geometry": { "type": "Point", "coordinates": [ 129.314499, 35.497761, 30.0 ] } },
{ "type": "Feature", "properties": { "value": 18.214 }, "geometry": { "type": "Point", "coordinates": [ 129.315598, 35.497757, 30.0 ] } },
{ "type": "Feature", "properties": { "value": 36.833 }, "geometry": { "type": "Point", "coordinates": [ 129.316696, 35.497753, 30.0 ] } },
{ "type": "Feature", "properties": { "value": 57.583 }, "geometry": { "type": "Point", "coordinates": [ 129.317795, 35.497749, 30.0 ] } },
{ "type": "Feature", "properties": { "value": 69.054 }, "geometry": { "type": "Point", "coordinates": [ 129.318909, 35.497749, 30.0 ] } },
{ "type": "Feature", "properties": { "value": 62.242 }, "geometry": { "type": "Point", "coordinates": [ 129.320007, 35.497746, 30.0 ] } },
{ "type": "Feature", "properties": { "value": 39.92 }, "geometry": { "type": "Point", "coordinates": [ 129.321106, 35.497742, 30.0 ] } },
{ "type": "Feature", "properties": { "value": 16.547 }, "geometry": { "type": "Point", "coordinates": [ 129.322205, 35.497738, 30.0 ] } },
{ "type": "Feature", "properties": { "value": 5.0205 }, "geometry": { "type": "Point", "coordinates": [ 129.323318, 35.497734, 30.0 ] } },
{ "type": "Feature", "properties": { "value": 0.7886 }, "geometry": { "type": "Point", "coordinates": [ 129.324417, 35.497734, 30.0 ] } },
{ "type": "Feature", "properties": { "value": 0.3695 }, "geometry": { "type": "Point", "coordinates": [ 129.311188, 35.498669, 30.0 ] } },
{ "type": "Feature", "properties": { "value": 1.7212 }, "geometry": { "type": "Point", "coordinates": [ 129.312302, 35.498665, 30.0 ] } },
{ "type": "Feature", "properties": { "value": 5.8914 }, "geometry": { "type": "Point", "coordinates": [ 129.3134, 35.498665, 30.0 ] } },
{ "type": "Feature", "properties": { "value": 15.596 }, "geometry": { "type": "Point", "coordinates": [ 129.314499, 35.498661, 30.0 ] } },
{ "type": "Feature", "properties": { "value": 33.186 }, "geometry": { "type": "Point", "coordinates": [ 129.315598, 35.498657, 30.0 ] } },
{ "type": "Feature", "properties": { "value": 53.832 }, "geometry": { "type": "Point", "coordinates": [ 129.316696, 35.498653, 30.0 ] } },
{ "type": "Feature", "properties": { "value": 67.203 }, "geometry": { "type": "Point", "coordinates": [ 129.31781, 35.498653, 30.0 ] } },
{ "type": "Feature", "properties": { "value": 59.547 }, "geometry": { "type": "Point", "coordinates": [ 129.318909, 35.49865, 30.0 ] } },
{ "type": "Feature", "properties": { "value": 46.52 }, "geometry": { "type": "Point", "coordinates": [ 129.320007, 35.498646, 30.0 ] } },
{ "type": "Feature", "properties": { "value": 22.101 }, "geometry": { "type": "Point", "coordinates": [ 129.321106, 35.498642, 30.0 ] } },
{ "type": "Feature", "properties": { "value": 7.6623 }, "geometry": { "type": "Point", "coordinates": [ 129.32222, 35.498638, 30.0 ] } },
{ "type": "Feature", "properties": { "value": 1.8976 }, "geometry": { "type": "Point", "coordinates": [ 129.323318, 35.498638, 30.0 ] } },
{ "type": "Feature", "properties": { "value": 0.1486 }, "geometry": { "type": "Point", "coordinates": [ 129.310089, 35.499573, 30.0 ] } },
{ "type": "Feature", "properties": { "value": 0.9631 }, "geometry": { "type": "Point", "coordinates": [ 129.311203, 35.499569, 30.0 ] } },
{ "type": "Feature", "properties": { "value": 3.7279 }, "geometry": { "type": "Point", "coordinates": [ 129.312302, 35.499569, 30.0 ] } },
{ "type": "Feature", "properties": { "value": 11.13 }, "geometry": { "type": "Point", "coordinates": [ 129.3134, 35.499565, 30.0 ] } },
{ "type": "Feature", "properties": { "value": 25.937 }, "geometry": { "type": "Point", "coordinates": [ 129.314499, 35.499561, 30.0 ] } },
{ "type": "Feature", "properties": { "value": 46.491 }, "geometry": { "type": "Point", "coordinates": [ 129.315598, 35.499557, 30.0 ] } },
{ "type": "Feature", "properties": { "value": 61.807 }, "geometry": { "type": "Point", "coordinates": [ 129.316711, 35.499557, 30.0 ] } },
{ "type": "Feature", "properties": { "value": 59.797 }, "geometry": { "type": "Point", "coordinates": [ 129.31781, 35.499554, 30.0 ] } },
{ "type": "Feature", "properties": { "value": 42.301 }, "geometry": { "type": "Point", "coordinates": [ 129.318909, 35.49955, 30.0 ] } },
{ "type": "Feature", "properties": { "value": 27.113 }, "geometry": { "type": "Point", "coordinates": [ 129.320007, 35.499546, 30.0 ] } },
{ "type": "Feature", "properties": { "value": 10.339 }, "geometry": { "type": "Point", "coordinates": [ 129.321121, 35.499546, 30.0 ] } },
{ "type": "Feature", "properties": { "value": 3.0972 }, "geometry": { "type": "Point", "coordinates": [ 129.32222, 35.499542, 30.0 ] } },
{ "type": "Feature", "properties": { "value": 0.1734 }, "geometry": { "type": "Point", "coordinates": [ 129.323318, 35.499538, 30.0 ] } },
{ "type": "Feature", "properties": { "value": 0.2933 }, "geometry": { "type": "Point", "coordinates": [ 129.310104, 35.500473, 30.0 ] } },
{ "type": "Feature", "properties": { "value": 1.5651 }, "geometry": { "type": "Point", "coordinates": [ 129.311203, 35.500473, 30.0 ] } },
{ "type": "Feature", "properties": { "value": 5.8088 }, "geometry": { "type": "Point", "coordinates": [ 129.312302, 35.500469, 30.0 ] } },
{ "type": "Feature", "properties": { "value": 15.805 }, "geometry": { "type": "Point", "coordinates": [ 129.3134, 35.500465, 30.0 ] } },
{ "type": "Feature", "properties": { "value": 31.681 }, "geometry": { "type": "Point", "coordinates": [ 129.314499, 35.500462, 30.0 ] } },
{ "type": "Feature", "properties": { "value": 47.491 }, "geometry": { "type": "Point", "coordinates": [ 129.315613, 35.500462, 30.0 ] } },
{ "type": "Feature", "properties": { "value": 52.172 }, "geometry": { "type": "Point", "coordinates": [ 129.316711, 35.500458, 30.0 ] } },
{ "type": "Feature", "properties": { "value": 41.158 }, "geometry": { "type": "Point", "coordinates": [ 129.31781, 35.500454, 30.0 ] } },
{ "type": "Feature", "properties": { "value": 25.362 }, "geometry": { "type": "Point", "coordinates": [ 129.318909, 35.50045, 30.0 ] } },
{ "type": "Feature", "properties": { "value": 12.646 }, "geometry": { "type": "Point", "coordinates": [ 129.320023, 35.50045, 30.0 ] } },
{ "type": "Feature", "properties": { "value": 4.1475 }, "geometry": { "type": "Point", "coordinates": [ 129.321121, 35.500446, 30.0 ] } },
{ "type": "Feature", "properties": { "value": 0.9535 }, "geometry": { "type": "Point", "coordinates": [ 129.32222, 35.500443, 30.0 ] } },
{ "type": "Feature", "properties": { "value": 0.0121 }, "geometry": { "type": "Point", "coordinates": [ 129.309006, 35.501377, 30.0 ] } },
{ "type": "Feature", "properties": { "value": 0.3424 }, "geometry": { "type": "Point", "coordinates": [ 129.310104, 35.501377, 30.0 ] } },
{ "type": "Feature", "properties": { "value": 1.7376 }, "geometry": { "type": "Point", "coordinates": [ 129.311203, 35.501373, 30.0 ] } },
{ "type": "Feature", "properties": { "value": 6.201 }, "geometry": { "type": "Point", "coordinates": [ 129.312302, 35.501369, 30.0 ] } },
{ "type": "Feature", "properties": { "value": 15.562 }, "geometry": { "type": "Point", "coordinates": [ 129.3134, 35.501366, 30.0 ] } },
{ "type": "Feature", "properties": { "value": 28.005 }, "geometry": { "type": "Point", "coordinates": [ 129.314514, 35.501366, 30.0 ] } },
{ "type": "Feature", "properties": { "value": 36.549 }, "geometry": { "type": "Point", "coordinates": [ 129.315613, 35.501362, 30.0 ] } },
{ "type": "Feature", "properties": { "value": 33.999 }, "geometry": { "type": "Point", "coordinates": [ 129.316711, 35.501358, 30.0 ] } },
{ "type": "Feature", "properties": { "value": 23.189 }, "geometry": { "type": "Point", "coordinates": [ 129.31781, 35.501354, 30.0 ] } },
{ "type": "Feature", "properties": { "value": 13.162 }, "geometry": { "type": "Point", "coordinates": [ 129.318924, 35.501354, 30.0 ] } },
{ "type": "Feature", "properties": { "value": 5.0247 }, "geometry": { "type": "Point", "coordinates": [ 129.320023, 35.50135, 30.0 ] } },
{ "type": "Feature", "properties": { "value": 1.4013 }, "geometry": { "type": "Point", "coordinates": [ 129.321121, 35.501347, 30.0 ] } }
]
}
