{
"type": "FeatureCollection",
"features": [
{ "type": "Feature", "properties": { "value": 0.0 }, "geometry": { "type": "Point", "coordinates": [ 129.292252, 35.441032, 115.0 ] } },
{ "type": "Feature", "properties": { "value": 0.0 }, "geometry": { "type": "Point", "coordinates": [ 129.29335, 35.441029, 115.0 ] } },
{ "type": "Feature", "properties": { "value": 0.0 }, "geometry": { "type": "Point", "coordinates": [ 129.291153, 35.441936, 115.0 ] } },
{ "type": "Feature", "properties": { "value": 0.0001 }, "geometry": { "type": "Point", "coordinates": [ 129.292252, 35.441933, 115.0 ] } },
{ "type": "Feature", "properties": { "value": 0.0001 }, "geometry": { "type": "Point", "coordinates": [ 129.29335, 35.441933, 115.0 ] } },
{ "type": "Feature", "properties": { "value": 0.0 }, "geometry": { "type": "Point", "coordinates": [ 129.294449, 35.441929, 115.0 ] } },
{ "type": "Feature", "properties": { "value": 0.0021 }, "geometry": { "type": "Point", "coordinates": [ 129.291153, 35.442837, 115.0 ] } },
{ "type": "Feature", "properties": { "value": 0.0132 }, "geometry": { "type": "Point", "coordinates": [ 129.292252, 35.442837, 115.0 ] } },
{ "type": "Feature", "properties": { "value": 0.0056 }, "geometry": { "type": "Point", "coordinates": [ 129.29335, 35.442833, 115.0 ] } },
{ "type": "Feature", "properties": { "value": 0.0001 }, "geometry": { "type": "Point", "coordinates": [ 129.294464, 35.442829, 115.0 ] } },
{ "type": "Feature", "properties": { "value": 0.0013 }, "geometry": { "type": "Point", "coordinates": [ 129.290054, 35.443741, 115.0 ] } },
{ "type": "Feature", "properties": { "value": 0.0495 }, "geometry": { "type": "Point", "coordinates": [ 129.291153, 35.443741, 115.0 ] } },
{ "type": "Feature", "properties": { "value": 0.1296 }, "geometry": { "type": "Point", "coordinates": [ 129.292252, 35.443737, 115.0 ] } },
{ "type": "Feature", "properties": { "value": 0.0387 }, "geometry": { "type": "Point", "coordinates": [ 129.293365, 35.443733, 115.0 ] } },
{ "type": "Feature", "properties": { "value": 0.0006 }, "geometry": { "type": "Point", "coordinates": [ 129.294464, 35.443733, 115.0 ] } },
{ "type": "Feature", "properties": { "value": 0.0264 }, "geometry": { "type": "Point", "coordinates": [ 129.290054, 35.444645, 115.0 ] } },
{ "type": "Feature", "properties": { "value": 0.2478 }, "geometry": { "type": "Point", "coordinates": [ 129.291153, 35.444641, 115.0 ] } },
{ "type": "Feature", "properties": { "value": 0.3343 }, "geometry": { "type": "Point", "coordinates": [ 129.292267, 35.444637, 115.0 ] } },
{ "type": "Feature", "properties": { "value": 0.0657 }, "geometry": { "type": "Point", "coordinates": [ 129.293365, 35.444637, 115.0 ] } },
{ "type": "Feature", "properties": { "value": 0.0007 }, "geometry": { "type": "Point", "coordinates": [ 129.294464, 35.444633, 115.0 ] } },
{ "type": "Feature", "properties": { "value": 0.0073 }, "geometry": { "type": "Point", "coordinates": [ 129.288956, 35.445549, 115.0 ] } },
{ "type": "Feature", "properties": { "value": 0.1909 }, "geometry": { "type": "Point", "coordinates": [ 129.290054, 35.445545, 115.0 ] } },
{ "type": "Feature", "properties": { "value": 0.7225 }, "geometry": { "type": "Point", "coordinates": [ 129.291168, 35.445541, 115.0 ] } },
{ "type": "Feature", "properties": { "value": 0.5023 }, "geometry": { "type": "Point", "coordinates": [ 129.292267, 35.445541, 115.0 ] } },
{ "type": "Feature", "properties": { "value": 0.0498 }, "geometry": { "type": "Point", "coordinates": [ 129.293365, 35.445538, 115.0 ] } },
{ "type": "Feature", "properties": { "value": 0.0591 }, "geometry": { "type": "Point", "coordinates": [ 129.288956, 35.446449, 115.0 ] } },
{ "type": "Feature", "properties": { "value": 0.6349 }, "geometry": { "type": "Point", "coordinates": [ 129.29007, 35.446445, 115.0 ] } },
{ "type": "Feature", "properties": { "value": 1.3307 }, "geometry": { "type": "Point", "coordinates": [ 129.291168, 35.446442, 115.0 ] } },
{ "type": "Feature", "properties": { "value": 0.5639 }, "geometry": { "type": "Point", "coordinates": [ 129.292267, 35.446442, 115.0 ] } },
{ "type": "Feature", "properties": { "value": 0.0345 }, "geometry": { "type": "Point", "coordinates": [ 129.293365, 35.446438, 115.0 ] } },
{ "type": "Feature", "properties": { "value": 0.0095 }, "geometry": { "type": "Point", "coordinates": [ 129.287872, 35.447353, 115.0 ] } },
{ "type": "Feature", "properties": { "value": 0.2491 }, "geometry": { "type": "Point", "coordinates": [ 129.288971, 35.44735, 115.0 ] } },
{ "type": "Feature", "properties": { "value": 1.2727 }, "geometry": { "type": "Point", "coordinates": [ 129.29007, 35.447346, 115.0 ] } },
{ "type": "Feature", "properties": { "value": 1.5184 }, "geometry": { "type": "Point", "coordinates": [ 129.291168, 35.447346, 115.0 ] } },
{ "type": "Feature", "properties": { "value": 0.3888 }, "geometry": { "type": "Point", "coordinates": [ 129.292267, 35.447342, 115.0 ] } },
{ "type": "Feature", "properties": { "value": 0.0146 }, "geometry": { "type": "Point", "coordinates": [ 129.293365, 35.447338, 115.0 ] } },
{ "type": "Feature", "properties": { "value": 0.0747 }, "geometry": { "type": "Point", "coordinates": [ 129.287872, 35.448254, 115.0 ] } },
{ "type": "Feature", "properties": { "value": 0.7624 }, "geometry": { "type": "Point", "coordinates": [ 129.288971, 35.44825, 115.0 ] } },
{ "type": "Feature", "properties": { "value": 1.9379 }, "geometry": { "type": "Point", "coordinates": [ 129.29007, 35.44825, 115.0 ] } },
{ "type": "Feature", "properties": { "value": 1.2945 }, "geometry": { "type": "Point", "coordinates": [ 129.291168, 35.448246, 115.0 ] } },
{ "type": "Feature", "properties": { "value": 0.1957 }, "geometry": { "type": "Point", "coordinates": [ 129.292267, 35.448242, 115.0 ] } },
{ "type": "Feature", "properties": { "value": 0.0029 }, "geometry": { "type": "Point", "coordinates": [ 129.293381, 35.448242, 115.0 ] } },
{ "type": "Feature", "properties": { "value": 0.0079 }, "geometry": { "type": "Point", "coordinates": [ 129.286774, 35.449158, 115.0 ] } },
{ "type": "Feature", "properties": { "value": 0.3591 }, "geometry": { "type": "Point", "coordinates": [ 129.287872, 35.449154, 115.0 ] } },
{ "type": "Feature", "properties": { "value": 1.9477 }, "geometry": { "type": "Point", "coordinates": [ 129.288971, 35.449154, 115.0 ] } },
{ "type": "Feature", "properties": { "value": 2.7499 }, "geometry": { "type": "Point", "coordinates": [ 129.29007, 35.44915, 115.0 ] } },
{ "type": "Feature", "properties": { "value": 1.0441 }, "geometry": { "type": "Point", "coordinates": [ 129.291168, 35.449146, 115.0 ] } },
{ "type": "Feature", "properties": { "value": 0.0895 }, "geometry": { "type": "Point", "coordinates": [ 129.292282, 35.449146, 115.0 ] } },
{ "type": "Feature", "properties": { "value": 0.0582 }, "geometry": { "type": "Point", "coordinates": [ 129.286774, 35.450058, 115.0 ] } },
{ "type": "Feature", "properties": { "value": 1.1097 }, "geometry": { "type": "Point", "coordinates": [ 129.287872, 35.450058, 115.0 ] } },
{ "type": "Feature", "properties": { "value": 4.4514 }, "geometry": { "type": "Point", "coordinates": [ 129.288971, 35.450054, 115.0 ] } },
{ "type": "Feature", "properties": { "value": 4.5869 }, "geometry": { "type": "Point", "coordinates": [ 129.290085, 35.45005, 115.0 ] } },
{ "type": "Feature", "properties": { "value": 1.2256 }, "geometry": { "type": "Point", "coordinates": [ 129.291183, 35.45005, 115.0 ] } },
{ "type": "Feature", "properties": { "value": 0.0675 }, "geometry": { "type": "Point", "coordinates": [ 129.292282, 35.450047, 115.0 ] } },
{ "type": "Feature", "properties": { "value": 0.1592 }, "geometry": { "type": "Point", "coordinates": [ 129.286774, 35.450962, 115.0 ] } },
{ "type": "Feature", "properties": { "value": 2.4743 }, "geometry": { "type": "Point", "coordinates": [ 129.287872, 35.450958, 115.0 ] } },
{ "type": "Feature", "properties": { "value": 8.8274 }, "geometry": { "type": "Point", "coordinates": [ 129.288986, 35.450954, 115.0 ] } },
{ "type": "Feature", "properties": { "value": 8.7192 }, "geometry": { "type": "Point", "coordinates": [ 129.290085, 35.450954, 115.0 ] } },
{ "type": "Feature", "properties": { "value": 2.3399 }, "geometry": { "type": "Point", "coordinates": [ 129.291183, 35.450951, 115.0 ] } },
{ "type": "Feature", "properties": { "value": 0.1376 }, "geometry": { "type": "Point", "coordinates": [ 129.292282, 35.450947, 115.0 ] } },
{ "type": "Feature", "properties": { "value": 0.2779 }, "geometry": { "type": "Point", "coordinates": [ 129.286774, 35.451862, 115.0 ] } },
{ "type": "Feature", "properties": { "value": 4.0562 }, "geometry": { "type": "Point", "coordinates": [ 129.287888, 35.451859, 115.0 ] } },
{ "type": "Feature", "properties": { "value": 14.511 }, "geometry": { "type": "Point", "coordinates": [ 129.288986, 35.451855, 115.0 ] } },
{ "type": "Feature", "properties": { "value": 14.702 }, "geometry": { "type": "Point", "coordinates": [ 129.290085, 35.451855, 115.0 ] } },
{ "type": "Feature", "properties": { "value": 4.2674 }, "geometry": { "type": "Point", "coordinates": [ 129.291183, 35.451851, 115.0 ] } },
{ "type": "Feature", "properties": { "value": 0.3107 }, "geometry": { "type": "Point", "coordinates": [ 129.292282, 35.451847, 115.0 ] } },
{ "type": "Feature", "properties": { "value": 0.3825 }, "geometry": { "type": "Point", "coordinates": [ 129.286789, 35.452763, 115.0 ] } },
{ "type": "Feature", "properties": { "value": 5.2081 }, "geometry": { "type": "Point", "coordinates": [ 129.287888, 35.452759, 115.0 ] } },
{ "type": "Feature", "properties": { "value": 18.414 }, "geometry": { "type": "Point", "coordinates": [ 129.288986, 35.452759, 115.0 ] } },
{ "type": "Feature", "properties": { "value": 19.15 }, "geometry": { "type": "Point", "coordinates": [ 129.290085, 35.452755, 115.0 ] } },
{ "type": "Feature", "properties": { "value": 5.8876 }, "geometry": { "type": "Point", "coordinates": [ 129.291183, 35.452751, 115.0 ] } },
{ "type": "Feature", "properties": { "value": 0.4855 }, "geometry": { "type": "Point", "coordinates": [ 129.292297, 35.452751, 115.0 ] } },
{ "type": "Feature", "properties": { "value": 0.4802 }, "geometry": { "type": "Point", "coordinates": [ 129.286789, 35.453663, 115.0 ] } },
{ "type": "Feature", "properties": { "value": 5.644 }, "geometry": { "type": "Point", "coordinates": [ 129.287888, 35.453663, 115.0 ] } },
{ "type": "Feature", "properties": { "value": 18.633 }, "geometry": { "type": "Point", "coordinates": [ 129.288986, 35.453659, 115.0 ] } },
{ "type": "Feature", "properties": { "value": 19.07 }, "geometry": { "type": "Point", "coordinates": [ 129.290085, 35.453655, 115.0 ] } },
{ "type": "Feature", "properties": { "value": 6.0011 }, "geometry": { "type": "Point", "coordinates": [ 129.291199, 35.453655, 115.0 ] } },
{ "type": "Feature", "properties": { "value": 0.5217 }, "geometry": { "type": "Point", "coordinates": [ 129.292297, 35.453651, 115.0 ] } },
{ "type": "Feature", "properties": { "value": 0.7923 }, "geometry": { "type": "Point", "coordinates": [ 129.286789, 35.454567, 115.0 ] } },
{ "type": "Feature", "properties": { "value": 6.6044 }, "geometry": { "type": "Point", "coordinates": [ 129.287888, 35.454563, 115.0 ] } },
{ "type": "Feature", "properties": { "value": 18.142 }, "geometry": { "type": "Point", "coordinates": [ 129.288986, 35.454559, 115.0 ] } },
{ "type": "Feature", "properties": { "value": 16.849 }, "geometry": { "type": "Point", "coordinates": [ 129.2901, 35.454559, 115.0 ] } },
{ "type": "Feature", "properties": { "value": 5.1189 }, "geometry": { "type": "Point", "coordinates": [ 129.291199, 35.454556, 115.0 ] } },
{ "type": "Feature", "properties": { "value": 0.4414 }, "geometry": { "type": "Point", "coordinates": [ 129.292297, 35.454552, 115.0 ] } },
{ "type": "Feature", "properties": { "value": 0.0496 }, "geometry": { "type": "Point", "coordinates": [ 129.28569, 35.455471, 115.0 ] } },
{ "type": "Feature", "properties": { "value": 1.5986 }, "geometry": { "type": "Point", "coordinates": [ 129.286789, 35.455467, 115.0 ] } },
{ "type": "Feature", "properties": { "value": 8.9379 }, "geometry": { "type": "Point", "coordinates": [ 129.287888, 35.455463, 115.0 ] } },
{ "type": "Feature", "properties": { "value": 18.836 }, "geometry": { "type": "Point", "coordinates": [ 129.289001, 35.455463, 115.0 ] } },
{ "type": "Feature", "properties": { "value": 14.738 }, "geometry": { "type": "Point", "coordinates": [ 129.2901, 35.45546, 115.0 ] } },
{ "type": "Feature", "properties": { "value": 4.0487 }, "geometry": { "type": "Point", "coordinates": [ 129.291199, 35.455456, 115.0 ] } },
{ "type": "Feature", "properties": { "value": 0.3383 }, "geometry": { "type": "Point", "coordinates": [ 129.292297, 35.455452, 115.0 ] } },
{ "type": "Feature", "properties": { "value": 0.2694 }, "geometry": { "type": "Point", "coordinates": [ 129.28569, 35.456371, 115.0 ] } },
{ "type": "Feature", "properties": { "value": 2.9812 }, "geometry": { "type": "Point", "coordinates": [ 129.286789, 35.456367, 115.0 ] } },
{ "type": "Feature", "properties": { "value": 12.167 }, "geometry": { "type": "Point", "coordinates": [ 129.287903, 35.456367, 115.0 ] } },
{ "type": "Feature", "properties": { "value": 20.052 }, "geometry": { "type": "Point", "coordinates": [ 129.289001, 35.456364, 115.0 ] } },
{ "type": "Feature", "properties": { "value": 13.08 }, "geometry": { "type": "Point", "coordinates": [ 129.2901, 35.45636, 115.0 ] } },
{ "type": "Feature", "properties": { "value": 3.1816 }, "geometry": { "type": "Point", "coordinates": [ 129.291199, 35.456356, 115.0 ] } },
{ "type": "Feature", "properties": { "value": 0.2407 }, "geometry": { "type": "Point", "coordinates": [ 129.292297, 35.456356, 115.0 ] } },
{ "type": "Feature", "properties": { "value": 0.5832 }, "geometry": { "type": "Point", "coordinates": [ 129.28569, 35.457272, 115.0 ] } },
{ "type": "Feature", "properties": { "value": 4.4946 }, "geometry": { "type": "Point", "coordinates": [ 129.286804, 35.457268, 115.0 ] } },
{ "type": "Feature", "properties": { "value": 14.51 }, "geometry": { "type": "Point", "coordinates": [ 129.287903, 35.457268, 115.0 ] } },
{ "type": "Feature", "properties": { "value": 19.7 }, "geometry": { "type": "Point", "coordinates": [ 129.289001, 35.457264, 115.0 ] } },
{ "type": "Feature", "properties": { "value": 11.038 }, "geometry": { "type": "Point", "coordinates": [ 129.2901, 35.45726, 115.0 ] } },
{ "type": "Feature", "properties": { "value": 2.4244 }, "geometry": { "type": "Point", "coordinates": [ 129.291199, 35.45726, 115.0 ] } },
{ "type": "Feature", "properties": { "value": 0.1624 }, "geometry": { "type": "Point", "coordinates": [ 129.292313, 35.457256, 115.0 ] } },
{ "type": "Feature", "properties": { "value": 0.0524 }, "geometry": { "type": "Point", "coordinates": [ 129.284592, 35.458176, 115.0 ] } },
{ "type": "Feature", "properties": { "value": 0.9118 }, "geometry": { "type": "Point", "coordinates": [ 129.285706, 35.458172, 115.0 ] } },
{ "type": "Feature", "properties": { "value": 5.3927 }, "geometry": { "type": "Point", "coordinates": [ 129.286804, 35.458172, 115.0 ] } },
{ "type": "Feature", "properties": { "value": 13.997 }, "geometry": { "type": "Point", "coordinates": [ 129.287903, 35.458168, 115.0 ] } },
{ "type": "Feature", "properties": { "value": 15.956 }, "geometry": { "type": "Point", "coordinates": [ 129.289001, 35.458164, 115.0 ] } },
{ "type": "Feature", "properties": { "value": 7.7897 }, "geometry": { "type": "Point", "coordinates": [ 129.2901, 35.458164, 115.0 ] } },
{ "type": "Feature", "properties": { "value": 1.5486 }, "geometry": { "type": "Point", "coordinates": [ 129.291214, 35.45816, 115.0 ] } },
{ "type": "Feature", "properties": { "value": 0.084 }, "geometry": { "type": "Point", "coordinates": [ 129.292313, 35.458157, 115.0 ] } },
{ "type": "Feature", "properties": { "value": 0.0868 }, "geometry": { "type": "Point", "coordinates": [ 129.284607, 35.459076, 115.0 ] } },
{ "type": "Feature", "properties": { "value": 1.0081 }, "geometry": { "type": "Point", "coordinates": [ 129.285706, 35.459076, 115.0 ] } },
{ "type": "Feature", "properties": { "value": 4.8552 }, "geometry": { "type": "Point", "coordinates": [ 129.286804, 35.459072, 115.0 ] } },
{ "type": "Feature", "properties": { "value": 10.484 }, "geometry": { "type": "Point", "coordinates": [ 129.287903, 35.459068, 115.0 ] } },
{ "type": "Feature", "properties": { "value": 10.196 }, "geometry": { "type": "Point", "coordinates": [ 129.289001, 35.459068, 115.0 ] } },
{ "type": "Feature", "properties": { "value": 4.3385 }, "geometry": { "type": "Point", "coordinates": [ 129.290115, 35.459064, 115.0 ] } },
{ "type": "Feature", "properties": { "value": 0.762 }, "geometry": { "type": "Point", "coordinates": [ 129.291214, 35.459061, 115.0 ] } },
{ "type": "Feature", "properties": { "value": 0.0571 }, "geometry": { "type": "Point", "coordinates": [ 129.284607, 35.45998, 115.0 ] } },
{ "type": "Feature", "properties": { "value": 0.6432 }, "geometry": { "type": "Point", "coordinates": [ 129.285706, 35.459976, 115.0 ] } },
{ "type": "Feature", "properties": { "value": 2.8016 }, "geometry": { "type": "Point", "coordinates": [ 129.286804, 35.459972, 115.0 ] } },
{ "type": "Feature", "properties": { "value": 5.4286 }, "geometry": { "type": "Point", "coordinates": [ 129.287903, 35.459972, 115.0 ] } },
{ "type": "Feature", "properties": { "value": 4.7219 }, "geometry": { "type": "Point", "coordinates": [ 129.289017, 35.459969, 115.0 ] } },
{ "type": "Feature", "properties": { "value": 1.8113 }, "geometry": { "type": "Point", "coordinates": [ 129.290115, 35.459965, 115.0 ] } },
{ "type": "Feature", "properties": { "value": 0.2792 }, "geometry": { "type": "Point", "coordinates": [ 129.291214, 35.459965, 115.0 ] } },
{ "type": "Feature", "properties": { "value": 0.0112 }, "geometry": { "type": "Point", "coordinates": [ 129.284607, 35.46088, 115.0 ] } },
{ "type": "Feature", "properties": { "value": 0.2064 }, "geometry": { "type": "Point", "coordinates": [ 129.285706, 35.460876, 115.0 ] } },
{ "type": "Feature", "properties": { "value": 0.8651 }, "geometry": { "type": "Point", "coordinates": [ 129.286804, 35.460876, 115.0 ] } },
{ "type": "Feature", "properties": { "value": 1.6018 }, "geometry": { "type": "Point", "coordinates": [ 129.287918, 35.460873, 115.0 ] } },
{ "type": "Feature", "properties": { "value": 1.3144 }, "geometry": { "type": "Point", "coordinates": [ 129.289017, 35.460869, 115.0 ] } },
{ "type": "Feature", "properties": { "value": 0.4683 }, "geometry": { "type": "Point", "coordinates": [ 129.290115, 35.460865, 115.0 ] } },
{ "type": "Feature", "properties": { "value": 0.07 }, "geometry": { "type": "Point", "coordinates": [ 129.291214, 35.460865, 115.0 ] } },
{ "type": "Feature", "properties": { "value": 0.0016 }, "geometry": { "type": "Point", "coordinates": [ 129.327576, 35.46077, 115.0 ] } },
{ "type": "Feature", "properties": { "value": 0.0259 }, "geometry": { "type": "Point", "coordinates": [ 129.285706, 35.461781, 115.0 ] } },
{ "type": "Feature", "properties": { "value": 0.1299 }, "geometry": { "type": "Point", "coordinates": [ 129.286819, 35.461777, 115.0 ] } },
{ "type": "Feature", "properties": { "value": 0.2347 }, "geometry": { "type": "Point", "coordinates": [ 129.287918, 35.461773, 115.0 ] } },
{ "type": "Feature", "properties": { "value": 0.187 }, "geometry": { "type": "Point", "coordinates": [ 129.289017, 35.461769, 115.0 ] } },
{ "type": "Feature", "properties": { "value": 0.0597 }, "geometry": { "type": "Point", "coordinates": [ 129.290115, 35.461769, 115.0 ] } },
{ "type": "Feature", "properties": { "value": 0.0301 }, "geometry": { "type": "Point", "coordinates": [ 129.327576, 35.461674, 115.0 ] } },
{ "type": "Feature", "properties": { "value": 0.0097 }, "geometry": { "type": "Point", "coordinates": [ 129.287918, 35.462673, 115.0 ] } },
{ "type": "Feature", "properties": { "value": 0.0646 }, "geometry": { "type": "Point", "coordinates": [ 129.327576, 35.462574, 115.0 ] } },
{ "type": "Feature", "properties": { "value": 0.1136 }, "geometry": { "type": "Point", "coordinates": [ 129.327576, 35.463474, 115.0 ] } },
{ "type": "Feature", "properties": { "value": 0.0062 }, "geometry": { "type": "Point", "coordinates": [ 129.32869, 35.46347, 115.0 ] } },
{ "type": "Feature", "properties": { "value": 0.2397 }, "geometry": { "type": "Point", "coordinates": [ 129.327591, 35.464375, 115.0 ] } },
{ "type": "Feature", "properties": { "value": 0.0237 }, "geometry": { "type": "Point", "coordinates": [ 129.32869, 35.464375, 115.0 ] } },
{ "type": "Feature", "properties": { "value": 0.8463 }, "geometry": { "type": "Point", "coordinates": [ 129.327591, 35.465279, 115.0 ] } },
{ "type": "Feature", "properties": { "value": 0.2101 }, "geometry": { "type": "Point", "coordinates": [ 129.32869, 35.465275, 115.0 ] } },
{ "type": "Feature", "properties": { "value": 2.7415 }, "geometry": { "type": "Point", "coordinates": [ 129.327591, 35.466179, 115.0 ] } },
{ "type": "Feature", "properties": { "value": 1.4292 }, "geometry": { "type": "Point", "coordinates": [ 129.32869, 35.466175, 115.0 ] } },
{ "type": "Feature", "properties": { "value": 5.8711 }, "geometry": { "type": "Point", "coordinates": [ 129.327591, 35.467079, 115.0 ] } },
{ "type": "Feature", "properties": { "value": 4.0857 }, "geometry": { "type": "Point", "coordinates": [ 129.328705, 35.467075, 115.0 ] } },
{ "type": "Feature", "properties": { "value": 10.049 }, "geometry": { "type": "Point", "coordinates": [ 129.327606, 35.467983, 115.0 ] } },
{ "type": "Feature", "properties": { "value": 7.7653 }, "geometry": { "type": "Point", "coordinates": [ 129.328705, 35.467979, 115.0 ] } },
{ "type": "Feature", "properties": { "value": 0.1247 }, "geometry": { "type": "Point", "coordinates": [ 129.326508, 35.468887, 115.0 ] } },
{ "type": "Feature", "properties": { "value": 13.303 }, "geometry": { "type": "Point", "coordinates": [ 129.327606, 35.468884, 115.0 ] } },
{ "type": "Feature", "properties": { "value": 10.689 }, "geometry": { "type": "Point", "coordinates": [ 129.328705, 35.46888, 115.0 ] } },
{ "type": "Feature", "properties": { "value": 0.2433 }, "geometry": { "type": "Point", "coordinates": [ 129.326508, 35.469788, 115.0 ] } },
{ "type": "Feature", "properties": { "value": 13.075 }, "geometry": { "type": "Point", "coordinates": [ 129.327606, 35.469784, 115.0 ] } },
{ "type": "Feature", "properties": { "value": 10.915 }, "geometry": { "type": "Point", "coordinates": [ 129.328705, 35.46978, 115.0 ] } },
{ "type": "Feature", "properties": { "value": 0.3337 }, "geometry": { "type": "Point", "coordinates": [ 129.326508, 35.470688, 115.0 ] } },
{ "type": "Feature", "properties": { "value": 10.832 }, "geometry": { "type": "Point", "coordinates": [ 129.327606, 35.470684, 115.0 ] } },
{ "type": "Feature", "properties": { "value": 7.5481 }, "geometry": { "type": "Point", "coordinates": [ 129.32872, 35.470684, 115.0 ] } },
{ "type": "Feature", "properties": { "value": 0.3807 }, "geometry": { "type": "Point", "coordinates": [ 129.326508, 35.471588, 115.0 ] } },
{ "type": "Feature", "properties": { "value": 6.7106 }, "geometry": { "type": "Point", "coordinates": [ 129.327621, 35.471588, 115.0 ] } },
{ "type": "Feature", "properties": { "value": 2.8082 }, "geometry": { "type": "Point", "coordinates": [ 129.32872, 35.471584, 115.0 ] } },
{ "type": "Feature", "properties": { "value": 0.0238 }, "geometry": { "type": "Point", "coordinates": [ 129.329819, 35.471581, 115.0 ] } },
{ "type": "Feature", "properties": { "value": 0.3446 }, "geometry": { "type": "Point", "coordinates": [ 129.326523, 35.472492, 115.0 ] } },
{ "type": "Feature", "properties": { "value": 3.283 }, "geometry": { "type": "Point", "coordinates": [ 129.327621, 35.472488, 115.0 ] } },
{ "type": "Feature", "properties": { "value": 0.9132 }, "geometry": { "type": "Point", "coordinates": [ 129.32872, 35.472485, 115.0 ] } },
{ "type": "Feature", "properties": { "value": 0.0146 }, "geometry": { "type": "Point", "coordinates": [ 129.329819, 35.472481, 115.0 ] } },
{ "type": "Feature", "properties": { "value": 0.566 }, "geometry": { "type": "Point", "coordinates": [ 129.326523, 35.473392, 115.0 ] } },
{ "type": "Feature", "properties": { "value": 2.7841 }, "geometry": { "type": "Point", "coordinates": [ 129.327621, 35.473389, 115.0 ] } },
{ "type": "Feature", "properties": { "value": 0.9527 }, "geometry": { "type": "Point", "coordinates": [ 129.32872, 35.473385, 115.0 ] } },
{ "type": "Feature", "properties": { "value": 0.0592 }, "geometry": { "type": "Point", "coordinates": [ 129.329819, 35.473385, 115.0 ] } },
{ "type": "Feature", "properties": { "value": 0.9213 }, "geometry": { "type": "Point", "coordinates": [ 129.326523, 35.474293, 115.0 ] } },
{ "type": "Feature", "properties": { "value": 3.0022 }, "geometry": { "type": "Point", "coordinates": [ 129.327621, 35.474289, 115.0 ] } },
{ "type": "Feature", "properties": { "value": 1.6371 }, "geometry": { "type": "Point", "coordinates": [ 129.328735, 35.474289, 115.0 ] } },
{ "type": "Feature", "properties": { "value": 0.2408 }, "geometry": { "type": "Point", "coordinates": [ 129.329834, 35.474285, 115.0 ] } },
{ "type": "Feature", "properties": { "value": 1.0723 }, "geometry": { "type": "Point", "coordinates": [ 129.326523, 35.475193, 115.0 ] } },
{ "type": "Feature", "properties": { "value": 3.3853 }, "geometry": { "type": "Point", "coordinates": [ 129.327637, 35.475193, 115.0 ] } },
{ "type": "Feature", "properties": { "value": 2.487 }, "geometry": { "type": "Point", "coordinates": [ 129.328735, 35.475189, 115.0 ] } },
{ "type": "Feature", "properties": { "value": 0.5434 }, "geometry": { "type": "Point", "coordinates": [ 129.329834, 35.475185, 115.0 ] } },
{ "type": "Feature", "properties": { "value": 0.0384 }, "geometry": { "type": "Point", "coordinates": [ 129.325424, 35.476097, 115.0 ] } },
{ "type": "Feature", "properties": { "value": 1.5892 }, "geometry": { "type": "Point", "coordinates": [ 129.326538, 35.476097, 115.0 ] } },
{ "type": "Feature", "properties": { "value": 6.3266 }, "geometry": { "type": "Point", "coordinates": [ 129.327637, 35.476093, 115.0 ] } },
{ "type": "Feature", "properties": { "value": 4.7746 }, "geometry": { "type": "Point", "coordinates": [ 129.328735, 35.476089, 115.0 ] } },
{ "type": "Feature", "properties": { "value": 0.9617 }, "geometry": { "type": "Point", "coordinates": [ 129.329834, 35.476086, 115.0 ] } },
{ "type": "Feature", "properties": { "value": 0.1603 }, "geometry": { "type": "Point", "coordinates": [ 129.325439, 35.477001, 115.0 ] } },
{ "type": "Feature", "properties": { "value": 3.5096 }, "geometry": { "type": "Point", "coordinates": [ 129.326538, 35.476997, 115.0 ] } },
{ "type": "Feature", "properties": { "value": 14.849 }, "geometry": { "type": "Point", "coordinates": [ 129.327637, 35.476994, 115.0 ] } },
{ "type": "Feature", "properties": { "value": 9.8517 }, "geometry": { "type": "Point", "coordinates": [ 129.328735, 35.47699, 115.0 ] } },
{ "type": "Feature", "properties": { "value": 1.4876 }, "geometry": { "type": "Point", "coordinates": [ 129.329834, 35.47699, 115.0 ] } },
{ "type": "Feature", "properties": { "value": 0.5994 }, "geometry": { "type": "Point", "coordinates": [ 129.325439, 35.477901, 115.0 ] } },
{ "type": "Feature", "properties": { "value": 8.7595 }, "geometry": { "type": "Point", "coordinates": [ 129.326538, 35.477898, 115.0 ] } },
{ "type": "Feature", "properties": { "value": 27.987 }, "geometry": { "type": "Point", "coordinates": [ 129.327637, 35.477894, 115.0 ] } },
{ "type": "Feature", "properties": { "value": 15.677 }, "geometry": { "type": "Point", "coordinates": [ 129.328735, 35.477894, 115.0 ] } },
{ "type": "Feature", "properties": { "value": 1.918 }, "geometry": { "type": "Point", "coordinates": [ 129.329849, 35.47789, 115.0 ] } },
{ "type": "Feature", "properties": { "value": 1.9185 }, "geometry": { "type": "Point", "coordinates": [ 129.325439, 35.478802, 115.0 ] } },
{ "type": "Feature", "properties": { "value": 17.015 }, "geometry": { "type": "Point", "coordinates": [ 129.326538, 35.478798, 115.0 ] } },
{ "type": "Feature", "properties": { "value": 36.943 }, "geometry": { "type": "Point", "coordinates": [ 129.327637, 35.478798, 115.0 ] } },
{ "type": "Feature", "properties": { "value": 17.837 }, "geometry": { "type": "Point", "coordinates": [ 129.328751, 35.478794, 115.0 ] } },
{ "type": "Feature", "properties": { "value": 1.9419 }, "geometry": { "type": "Point", "coordinates": [ 129.329849, 35.47879, 115.0 ] } },
{ "type": "Feature", "properties": { "value": 3.794 }, "geometry": { "type": "Point", "coordinates": [ 129.325439, 35.479706, 115.0 ] } },
{ "type": "Feature", "properties": { "value": 21.718 }, "geometry": { "type": "Point", "coordinates": [ 129.326553, 35.479702, 115.0 ] } },
{ "type": "Feature", "properties": { "value": 33.447 }, "geometry": { "type": "Point", "coordinates": [ 129.327652, 35.479698, 115.0 ] } },
{ "type": "Feature", "properties": { "value": 14.865 }, "geometry": { "type": "Point", "coordinates": [ 129.328751, 35.479694, 115.0 ] } },
{ "type": "Feature", "properties": { "value": 1.6814 }, "geometry": { "type": "Point", "coordinates": [ 129.329849, 35.479691, 115.0 ] } },
{ "type": "Feature", "properties": { "value": 0.2039 }, "geometry": { "type": "Point", "coordinates": [ 129.324341, 35.48061, 115.0 ] } },
{ "type": "Feature", "properties": { "value": 4.7451 }, "geometry": { "type": "Point", "coordinates": [ 129.325455, 35.480606, 115.0 ] } },
{ "type": "Feature", "properties": { "value": 18.812 }, "geometry": { "type": "Point", "coordinates": [ 129.326553, 35.480602, 115.0 ] } },
{ "type": "Feature", "properties": { "value": 23.706 }, "geometry": { "type": "Point", "coordinates": [ 129.327652, 35.480598, 115.0 ] } },
{ "type": "Feature", "properties": { "value": 10.596 }, "geometry": { "type": "Point", "coordinates": [ 129.328751, 35.480595, 115.0 ] } },
{ "type": "Feature", "properties": { "value": 1.3119 }, "geometry": { "type": "Point", "coordinates": [ 129.329849, 35.480595, 115.0 ] } },
{ "type": "Feature", "properties": { "value": 0.4286 }, "geometry": { "type": "Point", "coordinates": [ 129.324356, 35.48151, 115.0 ] } },
{ "type": "Feature", "properties": { "value": 4.5081 }, "geometry": { "type": "Point", "coordinates": [ 129.325455, 35.481506, 115.0 ] } },
{ "type": "Feature", "properties": { "value": 15.531 }, "geometry": { "type": "Point", "coordinates": [ 129.326553, 35.481503, 115.0 ] } },
{ "type": "Feature", "properties": { "value": 19.85 }, "geometry": { "type": "Point", "coordinates": [ 129.327652, 35.481503, 115.0 ] } },
{ "type": "Feature", "properties": { "value": 8.7707 }, "geometry": { "type": "Point", "coordinates": [ 129.328751, 35.481499, 115.0 ] } },
{ "type": "Feature", "properties": { "value": 1.0258 }, "geometry": { "type": "Point", "coordinates": [ 129.329865, 35.481495, 115.0 ] } },
{ "type": "Feature", "properties": { "value": 0.6403 }, "geometry": { "type": "Point", "coordinates": [ 129.324356, 35.48241, 115.0 ] } },
{ "type": "Feature", "properties": { "value": 5.0605 }, "geometry": { "type": "Point", "coordinates": [ 129.325455, 35.482407, 115.0 ] } },
{ "type": "Feature", "properties": { "value": 16.697 }, "geometry": { "type": "Point", "coordinates": [ 129.326553, 35.482407, 115.0 ] } },
{ "type": "Feature", "properties": { "value": 20.619 }, "geometry": { "type": "Point", "coordinates": [ 129.327652, 35.482403, 115.0 ] } },
{ "type": "Feature", "properties": { "value": 7.9108 }, "geometry": { "type": "Point", "coordinates": [ 129.328766, 35.482399, 115.0 ] } },
{ "type": "Feature", "properties": { "value": 0.7639 }, "geometry": { "type": "Point", "coordinates": [ 129.329865, 35.482395, 115.0 ] } },
{ "type": "Feature", "properties": { "value": 1.1303 }, "geometry": { "type": "Point", "coordinates": [ 129.324356, 35.483311, 115.0 ] } },
{ "type": "Feature", "properties": { "value": 7.0325 }, "geometry": { "type": "Point", "coordinates": [ 129.325455, 35.483311, 115.0 ] } },
{ "type": "Feature", "properties": { "value": 19.48 }, "geometry": { "type": "Point", "coordinates": [ 129.326553, 35.483307, 115.0 ] } },
{ "type": "Feature", "properties": { "value": 18.727 }, "geometry": { "type": "Point", "coordinates": [ 129.327667, 35.483303, 115.0 ] } },
{ "type": "Feature", "properties": { "value": 5.8269 }, "geometry": { "type": "Point", "coordinates": [ 129.328766, 35.483299, 115.0 ] } },
{ "type": "Feature", "properties": { "value": 0.4539 }, "geometry": { "type": "Point", "coordinates": [ 129.329865, 35.483295, 115.0 ] } },
{ "type": "Feature", "properties": { "value": 0.1787 }, "geometry": { "type": "Point", "coordinates": [ 129.323257, 35.484215, 115.0 ] } },
{ "type": "Feature", "properties": { "value": 2.0911 }, "geometry": { "type": "Point", "coordinates": [ 129.324356, 35.484215, 115.0 ] } },
{ "type": "Feature", "properties": { "value": 9.7076 }, "geometry": { "type": "Point", "coordinates": [ 129.325455, 35.484211, 115.0 ] } },
{ "type": "Feature", "properties": { "value": 19.857 }, "geometry": { "type": "Point", "coordinates": [ 129.326569, 35.484207, 115.0 ] } },
{ "type": "Feature", "properties": { "value": 14.036 }, "geometry": { "type": "Point", "coordinates": [ 129.327667, 35.484203, 115.0 ] } },
{ "type": "Feature", "properties": { "value": 3.7188 }, "geometry": { "type": "Point", "coordinates": [ 129.328766, 35.484203, 115.0 ] } },
{ "type": "Feature", "properties": { "value": 0.1242 }, "geometry": { "type": "Point", "coordinates": [ 129.329865, 35.4842, 115.0 ] } },
{ "type": "Feature", "properties": { "value": 0.5589 }, "geometry": { "type": "Point", "coordinates": [ 129.323257, 35.485119, 115.0 ] } },
{ "type": "Feature", "properties": { "value": 3.9518 }, "geometry": { "type": "Point", "coordinates": [ 129.324371, 35.485115, 115.0 ] } },
{ "type": "Feature", "properties": { "value": 13.28 }, "geometry": { "type": "Point", "coordinates": [ 129.32547, 35.485111, 115.0 ] } },
{ "type": "Feature", "properties": { "value": 19.939 }, "geometry": { "type": "Point", "coordinates": [ 129.326569, 35.485107, 115.0 ] } },
{ "type": "Feature", "properties": { "value": 11.25 }, "geometry": { "type": "Point", "coordinates": [ 129.327667, 35.485107, 115.0 ] } },
{ "type": "Feature", "properties": { "value": 2.6873 }, "geometry": { "type": "Point", "coordinates": [ 129.328766, 35.485104, 115.0 ] } },
{ "type": "Feature", "properties": { "value": 1.4697 }, "geometry": { "type": "Point", "coordinates": [ 129.323273, 35.486019, 115.0 ] } },
{ "type": "Feature", "properties": { "value": 8.0766 }, "geometry": { "type": "Point", "coordinates": [ 129.324371, 35.486015, 115.0 ] } },
{ "type": "Feature", "properties": { "value": 20.014 }, "geometry": { "type": "Point", "coordinates": [ 129.32547, 35.486012, 115.0 ] } },
{ "type": "Feature", "properties": { "value": 21.947 }, "geometry": { "type": "Point", "coordinates": [ 129.326569, 35.486012, 115.0 ] } },
{ "type": "Feature", "properties": { "value": 10.202 }, "geometry": { "type": "Point", "coordinates": [ 129.327667, 35.486008, 115.0 ] } },
{ "type": "Feature", "properties": { "value": 2.0599 }, "geometry": { "type": "Point", "coordinates": [ 129.328781, 35.486004, 115.0 ] } },
{ "type": "Feature", "properties": { "value": 0.5638 }, "geometry": { "type": "Point", "coordinates": [ 129.322174, 35.486923, 115.0 ] } },
{ "type": "Feature", "properties": { "value": 3.5458 }, "geometry": { "type": "Point", "coordinates": [ 129.323273, 35.486919, 115.0 ] } },
{ "type": "Feature", "properties": { "value": 15.297 }, "geometry": { "type": "Point", "coordinates": [ 129.324371, 35.486916, 115.0 ] } },
{ "type": "Feature", "properties": { "value": 29.007 }, "geometry": { "type": "Point", "coordinates": [ 129.32547, 35.486916, 115.0 ] } },
{ "type": "Feature", "properties": { "value": 23.6 }, "geometry": { "type": "Point", "coordinates": [ 129.326569, 35.486912, 115.0 ] } },
{ "type": "Feature", "properties": { "value": 8.6664 }, "geometry": { "type": "Point", "coordinates": [ 129.327682, 35.486908, 115.0 ] } },
{ "type": "Feature", "properties": { "value": 1.384 }, "geometry": { "type": "Point", "coordinates": [ 129.328781, 35.486904, 115.0 ] } },
{ "type": "Feature", "properties": { "value": 1.7173 }, "geometry": { "type": "Point", "coordinates": [ 129.322174, 35.487823, 115.0 ] } },
{ "type": "Feature", "properties": { "value": 7.2529 }, "geometry": { "type": "Point", "coordinates": [ 129.323273, 35.48782, 115.0 ] } },
{ "type": "Feature", "properties": { "value": 23.279 }, "geometry": { "type": "Point", "coordinates": [ 129.324371, 35.48782, 115.0 ] } },
{ "type": "Feature", "properties": { "value": 33.536 }, "geometry": { "type": "Point", "coordinates": [ 129.32547, 35.487816, 115.0 ] } },
{ "type": "Feature", "properties": { "value": 21.461 }, "geometry": { "type": "Point", "coordinates": [ 129.326584, 35.487812, 115.0 ] } },
{ "type": "Feature", "properties": { "value": 6.4611 }, "geometry": { "type": "Point", "coordinates": [ 129.327682, 35.487808, 115.0 ] } },
{ "type": "Feature", "properties": { "value": 0.8168 }, "geometry": { "type": "Point", "coordinates": [ 129.328781, 35.487808, 115.0 ] } },
{ "type": "Feature", "properties": { "value": 0.0 }, "geometry": { "type": "Point", "coordinates": [ 129.314453, 35.488747, 115.0 ] } },
{ "type": "Feature", "properties": { "value": 0.0 }, "geometry": { "type": "Point", "coordinates": [ 129.315567, 35.488743, 115.0 ] } },
{ "type": "Feature", "properties": { "value": 0.0 }, "geometry": { "type": "Point", "coordinates": [ 129.316666, 35.488739, 115.0 ] } },
{ "type": "Feature", "properties": { "value": 0.3651 }, "geometry": { "type": "Point", "coordinates": [ 129.321075, 35.488728, 115.0 ] } },
{ "type": "Feature", "properties": { "value": 2.5417 }, "geometry": { "type": "Point", "coordinates": [ 129.322174, 35.488728, 115.0 ] } },
{ "type": "Feature", "properties": { "value": 11.169 }, "geometry": { "type": "Point", "coordinates": [ 129.323273, 35.488724, 115.0 ] } },
{ "type": "Feature", "properties": { "value": 26.143 }, "geometry": { "type": "Point", "coordinates": [ 129.324371, 35.48872, 115.0 ] } },
{ "type": "Feature", "properties": { "value": 29.36 }, "geometry": { "type": "Point", "coordinates": [ 129.325485, 35.488716, 115.0 ] } },
{ "type": "Feature", "properties": { "value": 15.754 }, "geometry": { "type": "Point", "coordinates": [ 129.326584, 35.488712, 115.0 ] } },
{ "type": "Feature", "properties": { "value": 4.0934 }, "geometry": { "type": "Point", "coordinates": [ 129.327682, 35.488712, 115.0 ] } },
{ "type": "Feature", "properties": { "value": 0.3501 }, "geometry": { "type": "Point", "coordinates": [ 129.328781, 35.488708, 115.0 ] } },
{ "type": "Feature", "properties": { "value": 0.0 }, "geometry": { "type": "Point", "coordinates": [ 129.313354, 35.489651, 115.0 ] } },
{ "type": "Feature", "properties": { "value": 0.0 }, "geometry": { "type": "Point", "coordinates": [ 129.314468, 35.489647, 115.0 ] } },
{ "type": "Feature", "properties": { "value": 0.0 }, "geometry": { "type": "Point", "coordinates": [ 129.315567, 35.489643, 115.0 ] } },
{ "type": "Feature", "properties": { "value": 0.0 }, "geometry": { "type": "Point", "coordinates": [ 129.316666, 35.489643, 115.0 ] } },
{ "type": "Feature", "properties": { "value": 0.0 }, "geometry": { "type": "Point", "coordinates": [ 129.317764, 35.489639, 115.0 ] } },
{ "type": "Feature", "properties": { "value": 0.9916 }, "geometry": { "type": "Point", "coordinates": [ 129.321075, 35.489632, 115.0 ] } },
{ "type": "Feature", "properties": { "value": 4.727 }, "geometry": { "type": "Point", "coordinates": [ 129.322174, 35.489628, 115.0 ] } },
{ "type": "Feature", "properties": { "value": 13.352 }, "geometry": { "type": "Point", "coordinates": [ 129.323273, 35.489624, 115.0 ] } },
{ "type": "Feature", "properties": { "value": 22.03 }, "geometry": { "type": "Point", "coordinates": [ 129.324387, 35.48962, 115.0 ] } },
{ "type": "Feature", "properties": { "value": 19.767 }, "geometry": { "type": "Point", "coordinates": [ 129.325485, 35.489616, 115.0 ] } },
{ "type": "Feature", "properties": { "value": 9.3976 }, "geometry": { "type": "Point", "coordinates": [ 129.326584, 35.489616, 115.0 ] } },
{ "type": "Feature", "properties": { "value": 2.1966 }, "geometry": { "type": "Point", "coordinates": [ 129.327682, 35.489613, 115.0 ] } },
{ "type": "Feature", "properties": { "value": 0.0006 }, "geometry": { "type": "Point", "coordinates": [ 129.312271, 35.490555, 115.0 ] } },
{ "type": "Feature", "properties": { "value": 0.0009 }, "geometry": { "type": "Point", "coordinates": [ 129.31337, 35.490551, 115.0 ] } },
{ "type": "Feature", "properties": { "value": 0.0003 }, "geometry": { "type": "Point", "coordinates": [ 129.314468, 35.490547, 115.0 ] } },
{ "type": "Feature", "properties": { "value": 0.0001 }, "geometry": { "type": "Point", "coordinates": [ 129.315567, 35.490547, 115.0 ] } },
{ "type": "Feature", "properties": { "value": 0.0 }, "geometry": { "type": "Point", "coordinates": [ 129.316666, 35.490543, 115.0 ] } },
{ "type": "Feature", "properties": { "value": 0.0 }, "geometry": { "type": "Point", "coordinates": [ 129.31778, 35.49054, 115.0 ] } },
{ "type": "Feature", "properties": { "value": 0.3673 }, "geometry": { "type": "Point", "coordinates": [ 129.319977, 35.490536, 115.0 ] } },
{ "type": "Feature", "properties": { "value": 2.3167 }, "geometry": { "type": "Point", "coordinates": [ 129.321075, 35.490532, 115.0 ] } },
{ "type": "Feature", "properties": { "value": 7.9645 }, "geometry": { "type": "Point", "coordinates": [ 129.322174, 35.490528, 115.0 ] } },
{ "type": "Feature", "properties": { "value": 16.22 }, "geometry": { "type": "Point", "coordinates": [ 129.323288, 35.490524, 115.0 ] } },
{ "type": "Feature", "properties": { "value": 19.0 }, "geometry": { "type": "Point", "coordinates": [ 129.324387, 35.490524, 115.0 ] } },
{ "type": "Feature", "properties": { "value": 12.731 }, "geometry": { "type": "Point", "coordinates": [ 129.325485, 35.49052, 115.0 ] } },
{ "type": "Feature", "properties": { "value": 5.0338 }, "geometry": { "type": "Point", "coordinates": [ 129.326584, 35.490517, 115.0 ] } },
{ "type": "Feature", "properties": { "value": 1.0204 }, "geometry": { "type": "Point", "coordinates": [ 129.327698, 35.490513, 115.0 ] } },
{ "type": "Feature", "properties": { "value": 0.0025 }, "geometry": { "type": "Point", "coordinates": [ 129.310059, 35.491463, 115.0 ] } },
{ "type": "Feature", "properties": { "value": 0.0276 }, "geometry": { "type": "Point", "coordinates": [ 129.311172, 35.491459, 115.0 ] } },
{ "type": "Feature", "properties": { "value": 0.0603 }, "geometry": { "type": "Point", "coordinates": [ 129.312271, 35.491455, 115.0 ] } },
{ "type": "Feature", "properties": { "value": 0.0424 }, "geometry": { "type": "Point", "coordinates": [ 129.31337, 35.491451, 115.0 ] } },
{ "type": "Feature", "properties": { "value": 0.0087 }, "geometry": { "type": "Point", "coordinates": [ 129.314468, 35.491451, 115.0 ] } },
{ "type": "Feature", "properties": { "value": 0.0003 }, "geometry": { "type": "Point", "coordinates": [ 129.315567, 35.491447, 115.0 ] } },
{ "type": "Feature", "properties": { "value": 0.0 }, "geometry": { "type": "Point", "coordinates": [ 129.316681, 35.491444, 115.0 ] } },
{ "type": "Feature", "properties": { "value": 0.04 }, "geometry": { "type": "Point", "coordinates": [ 129.318878, 35.49144, 115.0 ] } },
{ "type": "Feature", "properties": { "value": 1.1515 }, "geometry": { "type": "Point", "coordinates": [ 129.319977, 35.491436, 115.0 ] } },
{ "type": "Feature", "properties": { "value": 4.7103 }, "geometry": { "type": "Point", "coordinates": [ 129.321091, 35.491432, 115.0 ] } },
{ "type": "Feature", "properties": { "value": 11.89 }, "geometry": { "type": "Point", "coordinates": [ 129.322189, 35.491428, 115.0 ] } },
{ "type": "Feature", "properties": { "value": 18.284 }, "geometry": { "type": "Point", "coordinates": [ 129.323288, 35.491428, 115.0 ] } },
{ "type": "Feature", "properties": { "value": 16.783 }, "geometry": { "type": "Point", "coordinates": [ 129.324387, 35.491425, 115.0 ] } },
{ "type": "Feature", "properties": { "value": 9.3019 }, "geometry": { "type": "Point", "coordinates": [ 129.325485, 35.491421, 115.0 ] } },
{ "type": "Feature", "properties": { "value": 2.7641 }, "geometry": { "type": "Point", "coordinates": [ 129.326599, 35.491417, 115.0 ] } },
{ "type": "Feature", "properties": { "value": 0.4034 }, "geometry": { "type": "Point", "coordinates": [ 129.327698, 35.491413, 115.0 ] } },
{ "type": "Feature", "properties": { "value": 0.0127 }, "geometry": { "type": "Point", "coordinates": [ 129.30896, 35.492367, 115.0 ] } },
{ "type": "Feature", "properties": { "value": 0.1633 }, "geometry": { "type": "Point", "coordinates": [ 129.310074, 35.492363, 115.0 ] } },
{ "type": "Feature", "properties": { "value": 0.5616 }, "geometry": { "type": "Point", "coordinates": [ 129.311172, 35.492359, 115.0 ] } },
{ "type": "Feature", "properties": { "value": 0.7306 }, "geometry": { "type": "Point", "coordinates": [ 129.312271, 35.492355, 115.0 ] } },
{ "type": "Feature", "properties": { "value": 0.3651 }, "geometry": { "type": "Point", "coordinates": [ 129.31337, 35.492355, 115.0 ] } },
{ "type": "Feature", "properties": { "value": 0.06 }, "geometry": { "type": "Point", "coordinates": [ 129.314468, 35.492352, 115.0 ] } },
{ "type": "Feature", "properties": { "value": 0.0018 }, "geometry": { "type": "Point", "coordinates": [ 129.315582, 35.492348, 115.0 ] } },
{ "type": "Feature", "properties": { "value": 0.0 }, "geometry": { "type": "Point", "coordinates": [ 129.316681, 35.492344, 115.0 ] } },
{ "type": "Feature", "properties": { "value": 0.5905 }, "geometry": { "type": "Point", "coordinates": [ 129.318878, 35.49234, 115.0 ] } },
{ "type": "Feature", "properties": { "value": 2.7947 }, "geometry": { "type": "Point", "coordinates": [ 129.319992, 35.492336, 115.0 ] } },
{ "type": "Feature", "properties": { "value": 8.2413 }, "geometry": { "type": "Point", "coordinates": [ 129.321091, 35.492332, 115.0 ] } },
{ "type": "Feature", "properties": { "value": 15.633 }, "geometry": { "type": "Point", "coordinates": [ 129.322189, 35.492332, 115.0 ] } },
{ "type": "Feature", "properties": { "value": 18.439 }, "geometry": { "type": "Point", "coordinates": [ 129.323288, 35.492329, 115.0 ] } },
{ "type": "Feature", "properties": { "value": 15.042 }, "geometry": { "type": "Point", "coordinates": [ 129.324387, 35.492325, 115.0 ] } },
{ "type": "Feature", "properties": { "value": 7.0889 }, "geometry": { "type": "Point", "coordinates": [ 129.3255, 35.492321, 115.0 ] } },
{ "type": "Feature", "properties": { "value": 1.5785 }, "geometry": { "type": "Point", "coordinates": [ 129.326599, 35.492317, 115.0 ] } },
{ "type": "Feature", "properties": { "value": 0.2902 }, "geometry": { "type": "Point", "coordinates": [ 129.308975, 35.493267, 115.0 ] } },
{ "type": "Feature", "properties": { "value": 1.6356 }, "geometry": { "type": "Point", "coordinates": [ 129.310074, 35.493263, 115.0 ] } },
{ "type": "Feature", "properties": { "value": 3.5554 }, "geometry": { "type": "Point", "coordinates": [ 129.311172, 35.493259, 115.0 ] } },
{ "type": "Feature", "properties": { "value": 3.117 }, "geometry": { "type": "Point", "coordinates": [ 129.312271, 35.493259, 115.0 ] } },
{ "type": "Feature", "properties": { "value": 1.118 }, "geometry": { "type": "Point", "coordinates": [ 129.31337, 35.493256, 115.0 ] } },
{ "type": "Feature", "properties": { "value": 0.1344 }, "geometry": { "type": "Point", "coordinates": [ 129.314484, 35.493252, 115.0 ] } },
{ "type": "Feature", "properties": { "value": 0.0028 }, "geometry": { "type": "Point", "coordinates": [ 129.315582, 35.493248, 115.0 ] } },
{ "type": "Feature", "properties": { "value": 0.3233 }, "geometry": { "type": "Point", "coordinates": [ 129.31778, 35.493244, 115.0 ] } },
{ "type": "Feature", "properties": { "value": 1.7742 }, "geometry": { "type": "Point", "coordinates": [ 129.318893, 35.49324, 115.0 ] } },
{ "type": "Feature", "properties": { "value": 5.729 }, "geometry": { "type": "Point", "coordinates": [ 129.319992, 35.493237, 115.0 ] } },
{ "type": "Feature", "properties": { "value": 12.536 }, "geometry": { "type": "Point", "coordinates": [ 129.321091, 35.493237, 115.0 ] } },
{ "type": "Feature", "properties": { "value": 18.09 }, "geometry": { "type": "Point", "coordinates": [ 129.322189, 35.493233, 115.0 ] } },
{ "type": "Feature", "properties": { "value": 16.557 }, "geometry": { "type": "Point", "coordinates": [ 129.323288, 35.493229, 115.0 ] } },
{ "type": "Feature", "properties": { "value": 10.649 }, "geometry": { "type": "Point", "coordinates": [ 129.324402, 35.493225, 115.0 ] } },
{ "type": "Feature", "properties": { "value": 4.2933 }, "geometry": { "type": "Point", "coordinates": [ 129.3255, 35.493225, 115.0 ] } },
{ "type": "Feature", "properties": { "value": 0.7581 }, "geometry": { "type": "Point", "coordinates": [ 129.326599, 35.493221, 115.0 ] } },
{ "type": "Feature", "properties": { "value": 0.1534 }, "geometry": { "type": "Point", "coordinates": [ 129.307877, 35.494171, 115.0 ] } },
{ "type": "Feature", "properties": { "value": 1.7826 }, "geometry": { "type": "Point", "coordinates": [ 129.308975, 35.494167, 115.0 ] } },
{ "type": "Feature", "properties": { "value": 7.0539 }, "geometry": { "type": "Point", "coordinates": [ 129.310074, 35.494164, 115.0 ] } },
{ "type": "Feature", "properties": { "value": 10.76 }, "geometry": { "type": "Point", "coordinates": [ 129.311172, 35.494164, 115.0 ] } },
{ "type": "Feature", "properties": { "value": 6.5417 }, "geometry": { "type": "Point", "coordinates": [ 129.312271, 35.49416, 115.0 ] } },
{ "type": "Feature", "properties": { "value": 1.654 }, "geometry": { "type": "Point", "coordinates": [ 129.313385, 35.494156, 115.0 ] } },
{ "type": "Feature", "properties": { "value": 0.1267 }, "geometry": { "type": "Point", "coordinates": [ 129.314484, 35.494152, 115.0 ] } },
{ "type": "Feature", "properties": { "value": 0.0011 }, "geometry": { "type": "Point", "coordinates": [ 129.315582, 35.494152, 115.0 ] } },
{ "type": "Feature", "properties": { "value": 0.1893 }, "geometry": { "type": "Point", "coordinates": [ 129.316681, 35.494148, 115.0 ] } },
{ "type": "Feature", "properties": { "value": 1.2647 }, "geometry": { "type": "Point", "coordinates": [ 129.317795, 35.494144, 115.0 ] } },
{ "type": "Feature", "properties": { "value": 4.2416 }, "geometry": { "type": "Point", "coordinates": [ 129.318893, 35.494141, 115.0 ] } },
{ "type": "Feature", "properties": { "value": 10.075 }, "geometry": { "type": "Point", "coordinates": [ 129.319992, 35.494141, 115.0 ] } },
{ "type": "Feature", "properties": { "value": 16.649 }, "geometry": { "type": "Point", "coordinates": [ 129.321091, 35.494137, 115.0 ] } },
{ "type": "Feature", "properties": { "value": 18.468 }, "geometry": { "type": "Point", "coordinates": [ 129.322189, 35.494133, 115.0 ] } },
{ "type": "Feature", "properties": { "value": 13.225 }, "geometry": { "type": "Point", "coordinates": [ 129.323303, 35.494129, 115.0 ] } },
{ "type": "Feature", "properties": { "value": 6.2939 }, "geometry": { "type": "Point", "coordinates": [ 129.324402, 35.494129, 115.0 ] } },
{ "type": "Feature", "properties": { "value": 1.9949 }, "geometry": { "type": "Point", "coordinates": [ 129.3255, 35.494125, 115.0 ] } },
{ "type": "Feature", "properties": { "value": 0.202 }, "geometry": { "type": "Point", "coordinates": [ 129.326599, 35.494122, 115.0 ] } },
{ "type": "Feature", "properties": { "value": 0.7989 }, "geometry": { "type": "Point", "coordinates": [ 129.307877, 35.495071, 115.0 ] } },
{ "type": "Feature", "properties": { "value": 5.823 }, "geometry": { "type": "Point", "coordinates": [ 129.308975, 35.495068, 115.0 ] } },
{ "type": "Feature", "properties": { "value": 15.997 }, "geometry": { "type": "Point", "coordinates": [ 129.310074, 35.495068, 115.0 ] } },
{ "type": "Feature", "properties": { "value": 18.992 }, "geometry": { "type": "Point", "coordinates": [ 129.311172, 35.495064, 115.0 ] } },
{ "type": "Feature", "properties": { "value": 8.2486 }, "geometry": { "type": "Point", "coordinates": [ 129.312286, 35.49506, 115.0 ] } },
{ "type": "Feature", "properties": { "value": 1.3786 }, "geometry": { "type": "Point", "coordinates": [ 129.313385, 35.495056, 115.0 ] } },
{ "type": "Feature", "properties": { "value": 0.0619 }, "geometry": { "type": "Point", "coordinates": [ 129.314484, 35.495056, 115.0 ] } },
{ "type": "Feature", "properties": { "value": 0.0772 }, "geometry": { "type": "Point", "coordinates": [ 129.315582, 35.495052, 115.0 ] } },
{ "type": "Feature", "properties": { "value": 1.0288 }, "geometry": { "type": "Point", "coordinates": [ 129.316696, 35.495049, 115.0 ] } },
{ "type": "Feature", "properties": { "value": 3.4291 }, "geometry": { "type": "Point", "coordinates": [ 129.317795, 35.495045, 115.0 ] } },
{ "type": "Feature", "properties": { "value": 8.4514 }, "geometry": { "type": "Point", "coordinates": [ 129.318893, 35.495045, 115.0 ] } },
{ "type": "Feature", "properties": { "value": 15.195 }, "geometry": { "type": "Point", "coordinates": [ 129.319992, 35.495041, 115.0 ] } },
{ "type": "Feature", "properties": { "value": 19.276 }, "geometry": { "type": "Point", "coordinates": [ 129.321091, 35.495037, 115.0 ] } },
{ "type": "Feature", "properties": { "value": 16.625 }, "geometry": { "type": "Point", "coordinates": [ 129.322205, 35.495033, 115.0 ] } },
{ "type": "Feature", "properties": { "value": 9.3936 }, "geometry": { "type": "Point", "coordinates": [ 129.323303, 35.495033, 115.0 ] } },
{ "type": "Feature", "properties": { "value": 3.6564 }, "geometry": { "type": "Point", "coordinates": [ 129.324402, 35.495029, 115.0 ] } },
{ "type": "Feature", "properties": { "value": 0.855 }, "geometry": { "type": "Point", "coordinates": [ 129.3255, 35.495026, 115.0 ] } },
{ "type": "Feature", "properties": { "value": 0.0082 }, "geometry": { "type": "Point", "coordinates": [ 129.305679, 35.495979, 115.0 ] } },
{ "type": "Feature", "properties": { "value": 0.3716 }, "geometry": { "type": "Point", "coordinates": [ 129.306778, 35.495975, 115.0 ] } },
{ "type": "Feature", "properties": { "value": 2.7221 }, "geometry": { "type": "Point", "coordinates": [ 129.307877, 35.495972, 115.0 ] } },
{ "type": "Feature", "properties": { "value": 11.886 }, "geometry": { "type": "Point", "coordinates": [ 129.308975, 35.495972, 115.0 ] } },
{ "type": "Feature", "properties": { "value": 23.286 }, "geometry": { "type": "Point", "coordinates": [ 129.310074, 35.495968, 115.0 ] } },
{ "type": "Feature", "properties": { "value": 20.479 }, "geometry": { "type": "Point", "coordinates": [ 129.311188, 35.495964, 115.0 ] } },
{ "type": "Feature", "properties": { "value": 6.8475 }, "geometry": { "type": "Point", "coordinates": [ 129.312286, 35.495964, 115.0 ] } },
{ "type": "Feature", "properties": { "value": 0.805 }, "geometry": { "type": "Point", "coordinates": [ 129.313385, 35.49596, 115.0 ] } },
{ "type": "Feature", "properties": { "value": 0.0473 }, "geometry": { "type": "Point", "coordinates": [ 129.314484, 35.495956, 115.0 ] } },
{ "type": "Feature", "properties": { "value": 0.9253 }, "geometry": { "type": "Point", "coordinates": [ 129.315598, 35.495953, 115.0 ] } },
{ "type": "Feature", "properties": { "value": 3.0045 }, "geometry": { "type": "Point", "coordinates": [ 129.316696, 35.495949, 115.0 ] } },
{ "type": "Feature", "properties": { "value": 7.4563 }, "geometry": { "type": "Point", "coordinates": [ 129.317795, 35.495949, 115.0 ] } },
{ "type": "Feature", "properties": { "value": 14.051 }, "geometry": { "type": "Point", "coordinates": [ 129.318893, 35.495945, 115.0 ] } },
{ "type": "Feature", "properties": { "value": 19.543 }, "geometry": { "type": "Point", "coordinates": [ 129.319992, 35.495941, 115.0 ] } },
{ "type": "Feature", "properties": { "value": 19.354 }, "geometry": { "type": "Point", "coordinates": [ 129.321106, 35.495937, 115.0 ] } },
{ "type": "Feature", "properties": { "value": 13.147 }, "geometry": { "type": "Point", "coordinates": [ 129.322205, 35.495937, 115.0 ] } },
{ "type": "Feature", "properties": { "value": 6.5785 }, "geometry": { "type": "Point", "coordinates": [ 129.323303, 35.495934, 115.0 ] } },
{ "type": "Feature", "properties": { "value": 2.0032 }, "geometry": { "type": "Point", "coordinates": [ 129.324402, 35.49593, 115.0 ] } },
{ "type": "Feature", "properties": { "value": 0.2848 }, "geometry": { "type": "Point", "coordinates": [ 129.325516, 35.495926, 115.0 ] } },
{ "type": "Feature", "properties": { "value": 0.1277 }, "geometry": { "type": "Point", "coordinates": [ 129.303467, 35.496887, 115.0 ] } },
{ "type": "Feature", "properties": { "value": 0.381 }, "geometry": { "type": "Point", "coordinates": [ 129.304581, 35.496883, 115.0 ] } },
{ "type": "Feature", "properties": { "value": 0.9482 }, "geometry": { "type": "Point", "coordinates": [ 129.305679, 35.49688, 115.0 ] } },
{ "type": "Feature", "properties": { "value": 2.4971 }, "geometry": { "type": "Point", "coordinates": [ 129.306778, 35.496876, 115.0 ] } },
{ "type": "Feature", "properties": { "value": 7.5162 }, "geometry": { "type": "Point", "coordinates": [ 129.307877, 35.496876, 115.0 ] } },
{ "type": "Feature", "properties": { "value": 18.182 }, "geometry": { "type": "Point", "coordinates": [ 129.308975, 35.496872, 115.0 ] } },
{ "type": "Feature", "properties": { "value": 24.539 }, "geometry": { "type": "Point", "coordinates": [ 129.310089, 35.496868, 115.0 ] } },
{ "type": "Feature", "properties": { "value": 15.933 }, "geometry": { "type": "Point", "coordinates": [ 129.311188, 35.496868, 115.0 ] } },
{ "type": "Feature", "properties": { "value": 4.0977 }, "geometry": { "type": "Point", "coordinates": [ 129.312286, 35.496864, 115.0 ] } },
{ "type": "Feature", "properties": { "value": 0.4243 }, "geometry": { "type": "Point", "coordinates": [ 129.313385, 35.496861, 115.0 ] } },
{ "type": "Feature", "properties": { "value": 0.7533 }, "geometry": { "type": "Point", "coordinates": [ 129.314499, 35.496857, 115.0 ] } },
{ "type": "Feature", "properties": { "value": 2.5814 }, "geometry": { "type": "Point", "coordinates": [ 129.315598, 35.496857, 115.0 ] } },
{ "type": "Feature", "properties": { "value": 6.6374 }, "geometry": { "type": "Point", "coordinates": [ 129.316696, 35.496853, 115.0 ] } },
{ "type": "Feature", "properties": { "value": 13.059 }, "geometry": { "type": "Point", "coordinates": [ 129.317795, 35.496849, 115.0 ] } },
{ "type": "Feature", "properties": { "value": 19.389 }, "geometry": { "type": "Point", "coordinates": [ 129.318893, 35.496845, 115.0 ] } },
{ "type": "Feature", "properties": { "value": 21.267 }, "geometry": { "type": "Point", "coordinates": [ 129.320007, 35.496841, 115.0 ] } },
{ "type": "Feature", "properties": { "value": 16.7 }, "geometry": { "type": "Point", "coordinates": [ 129.321106, 35.496841, 115.0 ] } },
{ "type": "Feature", "properties": { "value": 9.8732 }, "geometry": { "type": "Point", "coordinates": [ 129.322205, 35.496838, 115.0 ] } },
{ "type": "Feature", "properties": { "value": 4.0418 }, "geometry": { "type": "Point", "coordinates": [ 129.323303, 35.496834, 115.0 ] } },
{ "type": "Feature", "properties": { "value": 0.8536 }, "geometry": { "type": "Point", "coordinates": [ 129.324417, 35.49683, 115.0 ] } },
{ "type": "Feature", "properties": { "value": 0.037 }, "geometry": { "type": "Point", "coordinates": [ 129.30127, 35.497791, 115.0 ] } },
{ "type": "Feature", "properties": { "value": 0.2523 }, "geometry": { "type": "Point", "coordinates": [ 129.302368, 35.497791, 115.0 ] } },
{ "type": "Feature", "properties": { "value": 0.9872 }, "geometry": { "type": "Point", "coordinates": [ 129.303482, 35.497787, 115.0 ] } },
{ "type": "Feature", "properties": { "value": 2.48 }, "geometry": { "type": "Point", "coordinates": [ 129.304581, 35.497784, 115.0 ] } },
{ "type": "Feature", "properties": { "value": 4.952 }, "geometry": { "type": "Point", "coordinates": [ 129.305679, 35.49778, 115.0 ] } },
{ "type": "Feature", "properties": { "value": 8.9516 }, "geometry": { "type": "Point", "coordinates": [ 129.306778, 35.49778, 115.0 ] } },
{ "type": "Feature", "properties": { "value": 15.36 }, "geometry": { "type": "Point", "coordinates": [ 129.307877, 35.497776, 115.0 ] } },
{ "type": "Feature", "properties": { "value": 21.583 }, "geometry": { "type": "Point", "coordinates": [ 129.30899, 35.497772, 115.0 ] } },
{ "type": "Feature", "properties": { "value": 19.486 }, "geometry": { "type": "Point", "coordinates": [ 129.310089, 35.497772, 115.0 ] } },
{ "type": "Feature", "properties": { "value": 9.2524 }, "geometry": { "type": "Point", "coordinates": [ 129.311188, 35.497768, 115.0 ] } },
{ "type": "Feature", "properties": { "value": 1.8063 }, "geometry": { "type": "Point", "coordinates": [ 129.312286, 35.497765, 115.0 ] } },
{ "type": "Feature", "properties": { "value": 0.5983 }, "geometry": { "type": "Point", "coordinates": [ 129.3134, 35.497761, 115.0 ] } },
{ "type": "Feature", "properties": { "value": 1.9768 }, "geometry": { "type": "Point", "coordinates": [ 129.314499, 35.497761, 115.0 ] } },
{ "type": "Feature", "properties": { "value": 5.5446 }, "geometry": { "type": "Point", "coordinates": [ 129.315598, 35.497757, 115.0 ] } },
{ "type": "Feature", "properties": { "value": 11.342 }, "geometry": { "type": "Point", "coordinates": [ 129.316696, 35.497753, 115.0 ] } },
{ "type": "Feature", "properties": { "value": 18.388 }, "geometry": { "type": "Point", "coordinates": [ 129.317795, 35.497749, 115.0 ] } },
{ "type": "Feature", "properties": { "value": 22.321 }, "geometry": { "type": "Point", "coordinates": [ 129.318909, 35.497749, 115.0 ] } },
{ "type": "Feature", "properties": { "value": 19.435 }, "geometry": { "type": "Point", "coordinates": [ 129.320007, 35.497746, 115.0 ] } },
{ "type": "Feature", "properties": { "value": 12.545 }, "geometry": { "type": "Point", "coordinates": [ 129.321106, 35.497742, 115.0 ] } },
{ "type": "Feature", "properties": { "value": 6.6679 }, "geometry": { "type": "Point", "coordinates": [ 129.322205, 35.497738, 115.0 ] } },
{ "type": "Feature", "properties": { "value": 1.9005 }, "geometry": { "type": "Point", "coordinates": [ 129.323318, 35.497734, 115.0 ] } },
{ "type": "Feature", "properties": { "value": 0.2311 }, "geometry": { "type": "Point", "coordinates": [ 129.324417, 35.497734, 115.0 ] } },
{ "type": "Feature", "properties": { "value": 0.1741 }, "geometry": { "type": "Point", "coordinates": [ 129.30127, 35.498695, 115.0 ] } },
{ "type": "Feature", "properties": { "value": 1.0136 }, "geometry": { "type": "Point", "coordinates": [ 129.302368, 35.498692, 115.0 ] } },
{ "type": "Feature", "properties": { "value": 3.4575 }, "geometry": { "type": "Point", "coordinates": [ 129.303482, 35.498688, 115.0 ] } },
{ "type": "Feature", "properties": { "value": 7.9079 }, "geometry": { "type": "Point", "coordinates": [ 129.304581, 35.498684, 115.0 ] } },
{ "type": "Feature", "properties": { "value": 13.227 }, "geometry": { "type": "Point", "coordinates": [ 129.305679, 35.498684, 115.0 ] } },
{ "type": "Feature", "properties": { "value": 17.968 }, "geometry": { "type": "Point", "coordinates": [ 129.306778, 35.49868, 115.0 ] } },
{ "type": "Feature", "properties": { "value": 20.421 }, "geometry": { "type": "Point", "coordinates": [ 129.307892, 35.498676, 115.0 ] } },
{ "type": "Feature", "properties": { "value": 18.346 }, "geometry": { "type": "Point", "coordinates": [ 129.30899, 35.498676, 115.0 ] } },
{ "type": "Feature", "properties": { "value": 11.022 }, "geometry": { "type": "Point", "coordinates": [ 129.310089, 35.498672, 115.0 ] } },
{ "type": "Feature", "properties": { "value": 3.6898 }, "geometry": { "type": "Point", "coordinates": [ 129.311188, 35.498669, 115.0 ] } },
{ "type": "Feature", "properties": { "value": 0.655 }, "geometry": { "type": "Point", "coordinates": [ 129.312302, 35.498665, 115.0 ] } },
{ "type": "Feature", "properties": { "value": 0.9712 }, "geometry": { "type": "Point", "coordinates": [ 129.3134, 35.498665, 115.0 ] } },
{ "type": "Feature", "properties": { "value": 3.4361 }, "geometry": { "type": "Point", "coordinates": [ 129.314499, 35.498661, 115.0 ] } },
{ "type": "Feature", "properties": { "value": 8.0459 }, "geometry": { "type": "Point", "coordinates": [ 129.315598, 35.498657, 115.0 ] } },
{ "type": "Feature", "properties": { "value": 14.618 }, "geometry": { "type": "Point", "coordinates": [ 129.316696, 35.498653, 115.0 ] } },
{ "type": "Feature", "properties": { "value": 20.307 }, "geometry": { "type": "Point", "coordinates": [ 129.31781, 35.498653, 115.0 ] } },
{ "type": "Feature", "properties": { "value": 24.131 }, "geometry": { "type": "Point", "coordinates": [ 129.318909, 35.49865, 115.0 ] } },
{ "type": "Feature", "properties": { "value": 14.772 }, "geometry": { "type": "Point", "coordinates": [ 129.320007, 35.498646, 115.0 ] } },
{ "type": "Feature", "properties": { "value": 9.2622 }, "geometry": { "type": "Point", "coordinates": [ 129.321106, 35.498642, 115.0 ] } },
{ "type": "Feature", "properties": { "value": 3.6482 }, "geometry": { "type": "Point", "coordinates": [ 129.32222, 35.498638, 115.0 ] } },
{ "type": "Feature", "properties": { "value": 0.7146 }, "geometry": { "type": "Point", "coordinates": [ 129.323318, 35.498638, 115.0 ] } },
{ "type": "Feature", "properties": { "value": 0.0288 }, "geometry": { "type": "Point", "coordinates": [ 129.300171, 35.499599, 115.0 ] } },
{ "type": "Feature", "properties": { "value": 0.3617 }, "geometry": { "type": "Point", "coordinates": [ 129.30127, 35.499596, 115.0 ] } },
{ "type": "Feature", "properties": { "value": 1.9556 }, "geometry": { "type": "Point", "coordinates": [ 129.302383, 35.499592, 115.0 ] } },
{ "type": "Feature", "properties": { "value": 6.3139 }, "geometry": { "type": "Point", "coordinates": [ 129.303482, 35.499588, 115.0 ] } },
{ "type": "Feature", "properties": { "value": 13.1 }, "geometry": { "type": "Point", "coordinates": [ 129.304581, 35.499588, 115.0 ] } },
{ "type": "Feature", "properties": { "value": 18.818 }, "geometry": { "type": "Point", "coordinates": [ 129.305679, 35.499584, 115.0 ] } },
{ "type": "Feature", "properties": { "value": 20.253 }, "geometry": { "type": "Point", "coordinates": [ 129.306793, 35.49958, 115.0 ] } },
{ "type": "Feature", "properties": { "value": 16.891 }, "geometry": { "type": "Point", "coordinates": [ 129.307892, 35.49958, 115.0 ] } },
{ "type": "Feature", "properties": { "value": 10.38 }, "geometry": { "type": "Point", "coordinates": [ 129.30899, 35.499577, 115.0 ] } },
{ "type": "Feature", "properties": { "value": 4.1612 }, "geometry": { "type": "Point", "coordinates": [ 129.310089, 35.499573, 115.0 ] } },
{ "type": "Feature", "properties": { "value": 0.924 }, "geometry": { "type": "Point", "coordinates": [ 129.311203, 35.499569, 115.0 ] } },
{ "type": "Feature", "properties": { "value": 0.2661 }, "geometry": { "type": "Point", "coordinates": [ 129.312302, 35.499569, 115.0 ] } },
{ "type": "Feature", "properties": { "value": 1.1735 }, "geometry": { "type": "Point", "coordinates": [ 129.3134, 35.499565, 115.0 ] } },
{ "type": "Feature", "properties": { "value": 3.8418 }, "geometry": { "type": "Point", "coordinates": [ 129.314499, 35.499561, 115.0 ] } },
{ "type": "Feature", "properties": { "value": 8.4744 }, "geometry": { "type": "Point", "coordinates": [ 129.315598, 35.499557, 115.0 ] } },
{ "type": "Feature", "properties": { "value": 14.27 }, "geometry": { "type": "Point", "coordinates": [ 129.316711, 35.499557, 115.0 ] } },
{ "type": "Feature", "properties": { "value": 19.464 }, "geometry": { "type": "Point", "coordinates": [ 129.31781, 35.499554, 115.0 ] } },
{ "type": "Feature", "properties": { "value": 19.865 }, "geometry": { "type": "Point", "coordinates": [ 129.318909, 35.49955, 115.0 ] } },
{ "type": "Feature", "properties": { "value": 10.608 }, "geometry": { "type": "Point", "coordinates": [ 129.320007, 35.499546, 115.0 ] } },
{ "type": "Feature", "properties": { "value": 5.4455 }, "geometry": { "type": "Point", "coordinates": [ 129.321121, 35.499546, 115.0 ] } },
{ "type": "Feature", "properties": { "value": 1.5623 }, "geometry": { "type": "Point", "coordinates": [ 129.32222, 35.499542, 115.0 ] } },
{ "type": "Feature", "properties": { "value": 0.1222 }, "geometry": { "type": "Point", "coordinates": [ 129.323318, 35.499538, 115.0 ] } },
{ "type": "Feature", "properties": { "value": 0.0342 }, "geometry": { "type": "Point", "coordinates": [ 129.300171, 35.5005, 115.0 ] } },
{ "type": "Feature", "properties": { "value": 0.3946 }, "geometry": { "type": "Point", "coordinates": [ 129.301285, 35.500496, 115.0 ] } },
{ "type": "Feature", "properties": { "value": 2.0795 }, "geometry": { "type": "Point", "coordinates": [ 129.302383, 35.500492, 115.0 ] } },
{ "type": "Feature", "properties": { "value": 6.3257 }, "geometry": { "type": "Point", "coordinates": [ 129.303482, 35.500492, 115.0 ] } },
{ "type": "Feature", "properties": { "value": 11.943 }, "geometry": { "type": "Point", "coordinates": [ 129.304581, 35.500488, 115.0 ] } },
{ "type": "Feature", "properties": { "value": 14.979 }, "geometry": { "type": "Point", "coordinates": [ 129.305695, 35.500484, 115.0 ] } },
{ "type": "Feature", "properties": { "value": 13.042 }, "geometry": { "type": "Point", "coordinates": [ 129.306793, 35.500484, 115.0 ] } },
{ "type": "Feature", "properties": { "value": 8.2323 }, "geometry": { "type": "Point", "coordinates": [ 129.307892, 35.500481, 115.0 ] } },
{ "type": "Feature", "properties": { "value": 3.6258 }, "geometry": { "type": "Point", "coordinates": [ 129.30899, 35.500477, 115.0 ] } },
{ "type": "Feature", "properties": { "value": 0.9826 }, "geometry": { "type": "Point", "coordinates": [ 129.310104, 35.500473, 115.0 ] } },
{ "type": "Feature", "properties": { "value": 0.1291 }, "geometry": { "type": "Point", "coordinates": [ 129.311203, 35.500473, 115.0 ] } },
{ "type": "Feature", "properties": { "value": 0.1569 }, "geometry": { "type": "Point", "coordinates": [ 129.312302, 35.500469, 115.0 ] } },
{ "type": "Feature", "properties": { "value": 0.8926 }, "geometry": { "type": "Point", "coordinates": [ 129.3134, 35.500465, 115.0 ] } },
{ "type": "Feature", "properties": { "value": 2.9858 }, "geometry": { "type": "Point", "coordinates": [ 129.314499, 35.500462, 115.0 ] } },
{ "type": "Feature", "properties": { "value": 6.7977 }, "geometry": { "type": "Point", "coordinates": [ 129.315613, 35.500462, 115.0 ] } },
{ "type": "Feature", "properties": { "value": 11.323 }, "geometry": { "type": "Point", "coordinates": [ 129.316711, 35.500458, 115.0 ] } },
{ "type": "Feature", "properties": { "value": 14.242 }, "geometry": { "type": "Point", "coordinates": [ 129.31781, 35.500454, 115.0 ] } },
{ "type": "Feature", "properties": { "value": 11.78 }, "geometry": { "type": "Point", "coordinates": [ 129.318909, 35.50045, 115.0 ] } },
{ "type": "Feature", "properties": { "value": 6.1284 }, "geometry": { "type": "Point", "coordinates": [ 129.320023, 35.50045, 115.0 ] } },
{ "type": "Feature", "properties": { "value": 2.4214 }, "geometry": { "type": "Point", "coordinates": [ 129.321121, 35.500446, 115.0 ] } },
{ "type": "Feature", "properties": { "value": 0.4619 }, "geometry": { "type": "Point", "coordinates": [ 129.32222, 35.500443, 115.0 ] } },
{ "type": "Feature", "properties": { "value": 0.0222 }, "geometry": { "type": "Point", "coordinates": [ 129.300186, 35.5014, 115.0 ] } },
{ "type": "Feature", "properties": { "value": 0.2355 }, "geometry": { "type": "Point", "coordinates": [ 129.301285, 35.501396, 115.0 ] } },
{ "type": "Feature", "properties": { "value": 1.2288 }, "geometry": { "type": "Point", "coordinates": [ 129.302383, 35.501396, 115.0 ] } },
{ "type": "Feature", "properties": { "value": 3.5664 }, "geometry": { "type": "Point", "coordinates": [ 129.303482, 35.501392, 115.0 ] } },
{ "type": "Feature", "properties": { "value": 6.2315 }, "geometry": { "type": "Point", "coordinates": [ 129.304596, 35.501389, 115.0 ] } },
{ "type": "Feature", "properties": { "value": 6.8314 }, "geometry": { "type": "Point", "coordinates": [ 129.305695, 35.501389, 115.0 ] } },
{ "type": "Feature", "properties": { "value": 4.8604 }, "geometry": { "type": "Point", "coordinates": [ 129.306793, 35.501385, 115.0 ] } },
{ "type": "Feature", "properties": { "value": 2.3352 }, "geometry": { "type": "Point", "coordinates": [ 129.307892, 35.501381, 115.0 ] } },
{ "type": "Feature", "properties": { "value": 0.7511 }, "geometry": { "type": "Point", "coordinates": [ 129.309006, 35.501377, 115.0 ] } },
{ "type": "Feature", "properties": { "value": 0.1214 }, "geometry": { "type": "Point", "coordinates": [ 129.310104, 35.501377, 115.0 ] } },
{ "type": "Feature", "properties": { "value": 0.0698 }, "geometry": { "type": "Point", "coordinates": [ 129.312302, 35.501369, 115.0 ] } },
{ "type": "Feature", "properties": { "value": 0.4714 }, "geometry": { "type": "Point", "coordinates": [ 129.3134, 35.501366, 115.0 ] } },
{ "type": "Feature", "properties": { "value": 1.6085 }, "geometry": { "type": "Point", "coordinates": [ 129.314514, 35.501366, 115.0 ] } },
{ "type": "Feature", "properties": { "value": 3.7011 }, "geometry": { "type": "Point", "coordinates": [ 129.315613, 35.501362, 115.0 ] } },
{ "type": "Feature", "properties": { "value": 6.128 }, "geometry": { "type": "Point", "coordinates": [ 129.316711, 35.501358, 115.0 ] } },
{ "type": "Feature", "properties": { "value": 6.9659 }, "geometry": { "type": "Point", "coordinates": [ 129.31781, 35.501354, 115.0 ] } },
{ "type": "Feature", "properties": { "value": 4.7889 }, "geometry": { "type": "Point", "coordinates": [ 129.318924, 35.501354, 115.0 ] } },
{ "type": "Feature", "properties": { "value": 2.4735 }, "geometry": { "type": "Point", "coordinates": [ 129.320023, 35.50135, 115.0 ] } },
{ "type": "Feature", "properties": { "value": 0.7454 }, "geometry": { "type": "Point", "coordinates": [ 129.321121, 35.501347, 115.0 ] } }
]
}
