{
"type": "FeatureCollection",
"features": [
{ "type": "Feature", "properties": { "value": 7.413 }, "geometry": { "type": "Point", "coordinates": [ 129.32756, 35.458969, 30.0 ] } },
{ "type": "Feature", "properties": { "value": 187.58 }, "geometry": { "type": "Point", "coordinates": [ 129.32756, 35.459869, 30.0 ] } },
{ "type": "Feature", "properties": { "value": 299.14 }, "geometry": { "type": "Point", "coordinates": [ 129.327576, 35.46077, 30.0 ] } },
{ "type": "Feature", "properties": { "value": 245.67 }, "geometry": { "type": "Point", "coordinates": [ 129.327576, 35.461674, 30.0 ] } },
{ "type": "Feature", "properties": { "value": 188.81 }, "geometry": { "type": "Point", "coordinates": [ 129.327576, 35.462574, 30.0 ] } },
{ "type": "Feature", "properties": { "value": 1.8003 }, "geometry": { "type": "Point", "coordinates": [ 129.328674, 35.46257, 30.0 ] } },
{ "type": "Feature", "properties": { "value": 119.08 }, "geometry": { "type": "Point", "coordinates": [ 129.327576, 35.463474, 30.0 ] } },
{ "type": "Feature", "properties": { "value": 15.387 }, "geometry": { "type": "Point", "coordinates": [ 129.32869, 35.46347, 30.0 ] } },
{ "type": "Feature", "properties": { "value": 68.02 }, "geometry": { "type": "Point", "coordinates": [ 129.327591, 35.464375, 30.0 ] } },
{ "type": "Feature", "properties": { "value": 57.151 }, "geometry": { "type": "Point", "coordinates": [ 129.32869, 35.464375, 30.0 ] } },
{ "type": "Feature", "properties": { "value": 32.478 }, "geometry": { "type": "Point", "coordinates": [ 129.327591, 35.465279, 30.0 ] } },
{ "type": "Feature", "properties": { "value": 92.821 }, "geometry": { "type": "Point", "coordinates": [ 129.32869, 35.465275, 30.0 ] } },
{ "type": "Feature", "properties": { "value": 14.531 }, "geometry": { "type": "Point", "coordinates": [ 129.327591, 35.466179, 30.0 ] } },
{ "type": "Feature", "properties": { "value": 95.417 }, "geometry": { "type": "Point", "coordinates": [ 129.32869, 35.466175, 30.0 ] } },
{ "type": "Feature", "properties": { "value": 6.8761 }, "geometry": { "type": "Point", "coordinates": [ 129.327591, 35.467079, 30.0 ] } },
{ "type": "Feature", "properties": { "value": 91.615 }, "geometry": { "type": "Point", "coordinates": [ 129.328705, 35.467075, 30.0 ] } },
{ "type": "Feature", "properties": { "value": 4.5328 }, "geometry": { "type": "Point", "coordinates": [ 129.329803, 35.467075, 30.0 ] } },
{ "type": "Feature", "properties": { "value": 3.0808 }, "geometry": { "type": "Point", "coordinates": [ 129.327606, 35.467983, 30.0 ] } },
{ "type": "Feature", "properties": { "value": 78.663 }, "geometry": { "type": "Point", "coordinates": [ 129.328705, 35.467979, 30.0 ] } },
{ "type": "Feature", "properties": { "value": 12.873 }, "geometry": { "type": "Point", "coordinates": [ 129.329803, 35.467976, 30.0 ] } },
{ "type": "Feature", "properties": { "value": 1.4317 }, "geometry": { "type": "Point", "coordinates": [ 129.327606, 35.468884, 30.0 ] } },
{ "type": "Feature", "properties": { "value": 62.518 }, "geometry": { "type": "Point", "coordinates": [ 129.328705, 35.46888, 30.0 ] } },
{ "type": "Feature", "properties": { "value": 29.884 }, "geometry": { "type": "Point", "coordinates": [ 129.329803, 35.468876, 30.0 ] } },
{ "type": "Feature", "properties": { "value": 47.15 }, "geometry": { "type": "Point", "coordinates": [ 129.328705, 35.46978, 30.0 ] } },
{ "type": "Feature", "properties": { "value": 60.041 }, "geometry": { "type": "Point", "coordinates": [ 129.329819, 35.469776, 30.0 ] } },
{ "type": "Feature", "properties": { "value": 2.1186 }, "geometry": { "type": "Point", "coordinates": [ 129.330917, 35.469776, 30.0 ] } },
{ "type": "Feature", "properties": { "value": 35.136 }, "geometry": { "type": "Point", "coordinates": [ 129.32872, 35.470684, 30.0 ] } },
{ "type": "Feature", "properties": { "value": 104.66 }, "geometry": { "type": "Point", "coordinates": [ 129.329819, 35.47068, 30.0 ] } },
{ "type": "Feature", "properties": { "value": 11.843 }, "geometry": { "type": "Point", "coordinates": [ 129.330917, 35.470676, 30.0 ] } },
{ "type": "Feature", "properties": { "value": 24.646 }, "geometry": { "type": "Point", "coordinates": [ 129.32872, 35.471584, 30.0 ] } },
{ "type": "Feature", "properties": { "value": 133.17 }, "geometry": { "type": "Point", "coordinates": [ 129.329819, 35.471581, 30.0 ] } },
{ "type": "Feature", "properties": { "value": 34.514 }, "geometry": { "type": "Point", "coordinates": [ 129.330917, 35.471577, 30.0 ] } },
{ "type": "Feature", "properties": { "value": 13.055 }, "geometry": { "type": "Point", "coordinates": [ 129.32872, 35.472485, 30.0 ] } },
{ "type": "Feature", "properties": { "value": 117.29 }, "geometry": { "type": "Point", "coordinates": [ 129.329819, 35.472481, 30.0 ] } },
{ "type": "Feature", "properties": { "value": 68.048 }, "geometry": { "type": "Point", "coordinates": [ 129.330917, 35.472477, 30.0 ] } },
{ "type": "Feature", "properties": { "value": 2.9365 }, "geometry": { "type": "Point", "coordinates": [ 129.332031, 35.472477, 30.0 ] } },
{ "type": "Feature", "properties": { "value": 5.3643 }, "geometry": { "type": "Point", "coordinates": [ 129.32872, 35.473385, 30.0 ] } },
{ "type": "Feature", "properties": { "value": 82.033 }, "geometry": { "type": "Point", "coordinates": [ 129.329819, 35.473385, 30.0 ] } },
{ "type": "Feature", "properties": { "value": 96.81 }, "geometry": { "type": "Point", "coordinates": [ 129.330933, 35.473381, 30.0 ] } },
{ "type": "Feature", "properties": { "value": 11.021 }, "geometry": { "type": "Point", "coordinates": [ 129.332031, 35.473377, 30.0 ] } },
{ "type": "Feature", "properties": { "value": 1.8793 }, "geometry": { "type": "Point", "coordinates": [ 129.328735, 35.474289, 30.0 ] } },
{ "type": "Feature", "properties": { "value": 46.602 }, "geometry": { "type": "Point", "coordinates": [ 129.329834, 35.474285, 30.0 ] } },
{ "type": "Feature", "properties": { "value": 95.447 }, "geometry": { "type": "Point", "coordinates": [ 129.330933, 35.474281, 30.0 ] } },
{ "type": "Feature", "properties": { "value": 25.771 }, "geometry": { "type": "Point", "coordinates": [ 129.332031, 35.474277, 30.0 ] } },
{ "type": "Feature", "properties": { "value": 1.1171 }, "geometry": { "type": "Point", "coordinates": [ 129.33313, 35.474274, 30.0 ] } },
{ "type": "Feature", "properties": { "value": 0.2227 }, "geometry": { "type": "Point", "coordinates": [ 129.328735, 35.475189, 30.0 ] } },
{ "type": "Feature", "properties": { "value": 24.341 }, "geometry": { "type": "Point", "coordinates": [ 129.329834, 35.475185, 30.0 ] } },
{ "type": "Feature", "properties": { "value": 78.441 }, "geometry": { "type": "Point", "coordinates": [ 129.330933, 35.475182, 30.0 ] } },
{ "type": "Feature", "properties": { "value": 44.365 }, "geometry": { "type": "Point", "coordinates": [ 129.332031, 35.475178, 30.0 ] } },
{ "type": "Feature", "properties": { "value": 5.048 }, "geometry": { "type": "Point", "coordinates": [ 129.333145, 35.475178, 30.0 ] } },
{ "type": "Feature", "properties": { "value": 11.659 }, "geometry": { "type": "Point", "coordinates": [ 129.329834, 35.476086, 30.0 ] } },
{ "type": "Feature", "properties": { "value": 57.89 }, "geometry": { "type": "Point", "coordinates": [ 129.330933, 35.476086, 30.0 ] } },
{ "type": "Feature", "properties": { "value": 60.035 }, "geometry": { "type": "Point", "coordinates": [ 129.332047, 35.476082, 30.0 ] } },
{ "type": "Feature", "properties": { "value": 13.879 }, "geometry": { "type": "Point", "coordinates": [ 129.333145, 35.476078, 30.0 ] } },
{ "type": "Feature", "properties": { "value": 0.2959 }, "geometry": { "type": "Point", "coordinates": [ 129.334244, 35.476074, 30.0 ] } },
{ "type": "Feature", "properties": { "value": 4.7657 }, "geometry": { "type": "Point", "coordinates": [ 129.329834, 35.47699, 30.0 ] } },
{ "type": "Feature", "properties": { "value": 38.144 }, "geometry": { "type": "Point", "coordinates": [ 129.330948, 35.476986, 30.0 ] } },
{ "type": "Feature", "properties": { "value": 67.701 }, "geometry": { "type": "Point", "coordinates": [ 129.332047, 35.476982, 30.0 ] } },
{ "type": "Feature", "properties": { "value": 28.837 }, "geometry": { "type": "Point", "coordinates": [ 129.333145, 35.476978, 30.0 ] } },
{ "type": "Feature", "properties": { "value": 3.1542 }, "geometry": { "type": "Point", "coordinates": [ 129.334244, 35.476974, 30.0 ] } },
{ "type": "Feature", "properties": { "value": 1.6471 }, "geometry": { "type": "Point", "coordinates": [ 129.329849, 35.47789, 30.0 ] } },
{ "type": "Feature", "properties": { "value": 22.028 }, "geometry": { "type": "Point", "coordinates": [ 129.330948, 35.477886, 30.0 ] } },
{ "type": "Feature", "properties": { "value": 63.711 }, "geometry": { "type": "Point", "coordinates": [ 129.332047, 35.477882, 30.0 ] } },
{ "type": "Feature", "properties": { "value": 47.052 }, "geometry": { "type": "Point", "coordinates": [ 129.333145, 35.477879, 30.0 ] } },
{ "type": "Feature", "properties": { "value": 9.8413 }, "geometry": { "type": "Point", "coordinates": [ 129.334259, 35.477879, 30.0 ] } },
{ "type": "Feature", "properties": { "value": 0.1732 }, "geometry": { "type": "Point", "coordinates": [ 129.335358, 35.477875, 30.0 ] } },
{ "type": "Feature", "properties": { "value": 10.81 }, "geometry": { "type": "Point", "coordinates": [ 129.330948, 35.478786, 30.0 ] } },
{ "type": "Feature", "properties": { "value": 48.764 }, "geometry": { "type": "Point", "coordinates": [ 129.332047, 35.478786, 30.0 ] } },
{ "type": "Feature", "properties": { "value": 60.082 }, "geometry": { "type": "Point", "coordinates": [ 129.33316, 35.478783, 30.0 ] } },
{ "type": "Feature", "properties": { "value": 22.667 }, "geometry": { "type": "Point", "coordinates": [ 129.334259, 35.478779, 30.0 ] } },
{ "type": "Feature", "properties": { "value": 2.8961 }, "geometry": { "type": "Point", "coordinates": [ 129.335358, 35.478775, 30.0 ] } },
{ "type": "Feature", "properties": { "value": 4.5236 }, "geometry": { "type": "Point", "coordinates": [ 129.330948, 35.479691, 30.0 ] } },
{ "type": "Feature", "properties": { "value": 31.165 }, "geometry": { "type": "Point", "coordinates": [ 129.332062, 35.479687, 30.0 ] } },
{ "type": "Feature", "properties": { "value": 61.757 }, "geometry": { "type": "Point", "coordinates": [ 129.33316, 35.479683, 30.0 ] } },
{ "type": "Feature", "properties": { "value": 40.295 }, "geometry": { "type": "Point", "coordinates": [ 129.334259, 35.479679, 30.0 ] } },
{ "type": "Feature", "properties": { "value": 9.9208 }, "geometry": { "type": "Point", "coordinates": [ 129.335358, 35.479675, 30.0 ] } },
{ "type": "Feature", "properties": { "value": 0.8279 }, "geometry": { "type": "Point", "coordinates": [ 129.336456, 35.479675, 30.0 ] } },
{ "type": "Feature", "properties": { "value": 1.572 }, "geometry": { "type": "Point", "coordinates": [ 129.330963, 35.480591, 30.0 ] } },
{ "type": "Feature", "properties": { "value": 17.0 }, "geometry": { "type": "Point", "coordinates": [ 129.332062, 35.480587, 30.0 ] } },
{ "type": "Feature", "properties": { "value": 52.048 }, "geometry": { "type": "Point", "coordinates": [ 129.33316, 35.480583, 30.0 ] } },
{ "type": "Feature", "properties": { "value": 55.318 }, "geometry": { "type": "Point", "coordinates": [ 129.334259, 35.480579, 30.0 ] } },
{ "type": "Feature", "properties": { "value": 23.39 }, "geometry": { "type": "Point", "coordinates": [ 129.335358, 35.480579, 30.0 ] } },
{ "type": "Feature", "properties": { "value": 4.6668 }, "geometry": { "type": "Point", "coordinates": [ 129.336472, 35.480576, 30.0 ] } },
{ "type": "Feature", "properties": { "value": 0.1014 }, "geometry": { "type": "Point", "coordinates": [ 129.33757, 35.480572, 30.0 ] } },
{ "type": "Feature", "properties": { "value": 7.9352 }, "geometry": { "type": "Point", "coordinates": [ 129.332062, 35.481487, 30.0 ] } },
{ "type": "Feature", "properties": { "value": 35.446 }, "geometry": { "type": "Point", "coordinates": [ 129.33316, 35.481487, 30.0 ] } },
{ "type": "Feature", "properties": { "value": 56.835 }, "geometry": { "type": "Point", "coordinates": [ 129.334259, 35.481483, 30.0 ] } },
{ "type": "Feature", "properties": { "value": 38.959 }, "geometry": { "type": "Point", "coordinates": [ 129.335373, 35.48148, 30.0 ] } },
{ "type": "Feature", "properties": { "value": 13.327 }, "geometry": { "type": "Point", "coordinates": [ 129.336472, 35.481476, 30.0 ] } },
{ "type": "Feature", "properties": { "value": 2.6202 }, "geometry": { "type": "Point", "coordinates": [ 129.33757, 35.481472, 30.0 ] } },
{ "type": "Feature", "properties": { "value": 3.376 }, "geometry": { "type": "Point", "coordinates": [ 129.332062, 35.482391, 30.0 ] } },
{ "type": "Feature", "properties": { "value": 20.441 }, "geometry": { "type": "Point", "coordinates": [ 129.333176, 35.482388, 30.0 ] } },
{ "type": "Feature", "properties": { "value": 47.216 }, "geometry": { "type": "Point", "coordinates": [ 129.334274, 35.482384, 30.0 ] } },
{ "type": "Feature", "properties": { "value": 49.38 }, "geometry": { "type": "Point", "coordinates": [ 129.335373, 35.48238, 30.0 ] } },
{ "type": "Feature", "properties": { "value": 26.615 }, "geometry": { "type": "Point", "coordinates": [ 129.336472, 35.482376, 30.0 ] } },
{ "type": "Feature", "properties": { "value": 8.4878 }, "geometry": { "type": "Point", "coordinates": [ 129.33757, 35.482376, 30.0 ] } },
{ "type": "Feature", "properties": { "value": 1.7813 }, "geometry": { "type": "Point", "coordinates": [ 129.338684, 35.482372, 30.0 ] } },
{ "type": "Feature", "properties": { "value": 1.3305 }, "geometry": { "type": "Point", "coordinates": [ 129.332077, 35.483292, 30.0 ] } },
{ "type": "Feature", "properties": { "value": 10.68 }, "geometry": { "type": "Point", "coordinates": [ 129.333176, 35.483288, 30.0 ] } },
{ "type": "Feature", "properties": { "value": 33.096 }, "geometry": { "type": "Point", "coordinates": [ 129.334274, 35.483284, 30.0 ] } },
{ "type": "Feature", "properties": { "value": 48.539 }, "geometry": { "type": "Point", "coordinates": [ 129.335373, 35.48328, 30.0 ] } },
{ "type": "Feature", "properties": { "value": 38.351 }, "geometry": { "type": "Point", "coordinates": [ 129.336472, 35.48328, 30.0 ] } },
{ "type": "Feature", "properties": { "value": 18.352 }, "geometry": { "type": "Point", "coordinates": [ 129.337585, 35.483276, 30.0 ] } },
{ "type": "Feature", "properties": { "value": 6.0261 }, "geometry": { "type": "Point", "coordinates": [ 129.338684, 35.483273, 30.0 ] } },
{ "type": "Feature", "properties": { "value": 1.4915 }, "geometry": { "type": "Point", "coordinates": [ 129.339783, 35.483269, 30.0 ] } },
{ "type": "Feature", "properties": { "value": 0.0545 }, "geometry": { "type": "Point", "coordinates": [ 129.340881, 35.483265, 30.0 ] } },
{ "type": "Feature", "properties": { "value": 0.2935 }, "geometry": { "type": "Point", "coordinates": [ 129.332077, 35.484192, 30.0 ] } },
{ "type": "Feature", "properties": { "value": 5.1091 }, "geometry": { "type": "Point", "coordinates": [ 129.333176, 35.484188, 30.0 ] } },
{ "type": "Feature", "properties": { "value": 19.988 }, "geometry": { "type": "Point", "coordinates": [ 129.334274, 35.484188, 30.0 ] } },
{ "type": "Feature", "properties": { "value": 38.929 }, "geometry": { "type": "Point", "coordinates": [ 129.335373, 35.484184, 30.0 ] } },
{ "type": "Feature", "properties": { "value": 42.481 }, "geometry": { "type": "Point", "coordinates": [ 129.336487, 35.48418, 30.0 ] } },
{ "type": "Feature", "properties": { "value": 28.858 }, "geometry": { "type": "Point", "coordinates": [ 129.337585, 35.484177, 30.0 ] } },
{ "type": "Feature", "properties": { "value": 13.564 }, "geometry": { "type": "Point", "coordinates": [ 129.338684, 35.484173, 30.0 ] } },
{ "type": "Feature", "properties": { "value": 4.9123 }, "geometry": { "type": "Point", "coordinates": [ 129.339783, 35.484173, 30.0 ] } },
{ "type": "Feature", "properties": { "value": 1.4339 }, "geometry": { "type": "Point", "coordinates": [ 129.340897, 35.484169, 30.0 ] } },
{ "type": "Feature", "properties": { "value": 0.1638 }, "geometry": { "type": "Point", "coordinates": [ 129.341995, 35.484165, 30.0 ] } },
{ "type": "Feature", "properties": { "value": 2.2048 }, "geometry": { "type": "Point", "coordinates": [ 129.333176, 35.485092, 30.0 ] } },
{ "type": "Feature", "properties": { "value": 10.664 }, "geometry": { "type": "Point", "coordinates": [ 129.334274, 35.485088, 30.0 ] } },
{ "type": "Feature", "properties": { "value": 26.625 }, "geometry": { "type": "Point", "coordinates": [ 129.335388, 35.485085, 30.0 ] } },
{ "type": "Feature", "properties": { "value": 38.416 }, "geometry": { "type": "Point", "coordinates": [ 129.336487, 35.485081, 30.0 ] } },
{ "type": "Feature", "properties": { "value": 35.287 }, "geometry": { "type": "Point", "coordinates": [ 129.337585, 35.485077, 30.0 ] } },
{ "type": "Feature", "properties": { "value": 22.645 }, "geometry": { "type": "Point", "coordinates": [ 129.338684, 35.485077, 30.0 ] } },
{ "type": "Feature", "properties": { "value": 11.09 }, "geometry": { "type": "Point", "coordinates": [ 129.339798, 35.485073, 30.0 ] } },
{ "type": "Feature", "properties": { "value": 4.3985 }, "geometry": { "type": "Point", "coordinates": [ 129.340897, 35.485069, 30.0 ] } },
{ "type": "Feature", "properties": { "value": 1.458 }, "geometry": { "type": "Point", "coordinates": [ 129.341995, 35.485065, 30.0 ] } },
{ "type": "Feature", "properties": { "value": 0.3503 }, "geometry": { "type": "Point", "coordinates": [ 129.343094, 35.485062, 30.0 ] } },
{ "type": "Feature", "properties": { "value": 0.8251 }, "geometry": { "type": "Point", "coordinates": [ 129.333176, 35.485992, 30.0 ] } },
{ "type": "Feature", "properties": { "value": 5.0781 }, "geometry": { "type": "Point", "coordinates": [ 129.33429, 35.485989, 30.0 ] } },
{ "type": "Feature", "properties": { "value": 15.817 }, "geometry": { "type": "Point", "coordinates": [ 129.335388, 35.485985, 30.0 ] } },
{ "type": "Feature", "properties": { "value": 29.226 }, "geometry": { "type": "Point", "coordinates": [ 129.336487, 35.485981, 30.0 ] } },
{ "type": "Feature", "properties": { "value": 35.114 }, "geometry": { "type": "Point", "coordinates": [ 129.337585, 35.485981, 30.0 ] } },
{ "type": "Feature", "properties": { "value": 29.599 }, "geometry": { "type": "Point", "coordinates": [ 129.338699, 35.485977, 30.0 ] } },
{ "type": "Feature", "properties": { "value": 18.865 }, "geometry": { "type": "Point", "coordinates": [ 129.339798, 35.485973, 30.0 ] } },
{ "type": "Feature", "properties": { "value": 9.6553 }, "geometry": { "type": "Point", "coordinates": [ 129.340897, 35.48597, 30.0 ] } },
{ "type": "Feature", "properties": { "value": 4.1774 }, "geometry": { "type": "Point", "coordinates": [ 129.341995, 35.485966, 30.0 ] } },
{ "type": "Feature", "properties": { "value": 1.5943 }, "geometry": { "type": "Point", "coordinates": [ 129.343094, 35.485966, 30.0 ] } },
{ "type": "Feature", "properties": { "value": 0.5177 }, "geometry": { "type": "Point", "coordinates": [ 129.344208, 35.485962, 30.0 ] } },
{ "type": "Feature", "properties": { "value": 0.0379 }, "geometry": { "type": "Point", "coordinates": [ 129.333191, 35.486893, 30.0 ] } },
{ "type": "Feature", "properties": { "value": 2.162 }, "geometry": { "type": "Point", "coordinates": [ 129.33429, 35.486889, 30.0 ] } },
{ "type": "Feature", "properties": { "value": 8.3044 }, "geometry": { "type": "Point", "coordinates": [ 129.335388, 35.486889, 30.0 ] } },
{ "type": "Feature", "properties": { "value": 19.137 }, "geometry": { "type": "Point", "coordinates": [ 129.336487, 35.486885, 30.0 ] } },
{ "type": "Feature", "properties": { "value": 29.191 }, "geometry": { "type": "Point", "coordinates": [ 129.337601, 35.486881, 30.0 ] } },
{ "type": "Feature", "properties": { "value": 31.332 }, "geometry": { "type": "Point", "coordinates": [ 129.338699, 35.486877, 30.0 ] } },
{ "type": "Feature", "properties": { "value": 25.265 }, "geometry": { "type": "Point", "coordinates": [ 129.339798, 35.486874, 30.0 ] } },
{ "type": "Feature", "properties": { "value": 16.322 }, "geometry": { "type": "Point", "coordinates": [ 129.340897, 35.486874, 30.0 ] } },
{ "type": "Feature", "properties": { "value": 8.8745 }, "geometry": { "type": "Point", "coordinates": [ 129.341995, 35.48687, 30.0 ] } },
{ "type": "Feature", "properties": { "value": 4.2606 }, "geometry": { "type": "Point", "coordinates": [ 129.343109, 35.486866, 30.0 ] } },
{ "type": "Feature", "properties": { "value": 1.8415 }, "geometry": { "type": "Point", "coordinates": [ 129.344208, 35.486862, 30.0 ] } },
{ "type": "Feature", "properties": { "value": 0.7262 }, "geometry": { "type": "Point", "coordinates": [ 129.345306, 35.486858, 30.0 ] } },
{ "type": "Feature", "properties": { "value": 0.2105 }, "geometry": { "type": "Point", "coordinates": [ 129.346405, 35.486855, 30.0 ] } },
{ "type": "Feature", "properties": { "value": 0.7835 }, "geometry": { "type": "Point", "coordinates": [ 129.33429, 35.487793, 30.0 ] } },
{ "type": "Feature", "properties": { "value": 3.9173 }, "geometry": { "type": "Point", "coordinates": [ 129.335388, 35.487789, 30.0 ] } },
{ "type": "Feature", "properties": { "value": 11.034 }, "geometry": { "type": "Point", "coordinates": [ 129.336502, 35.487785, 30.0 ] } },
{ "type": "Feature", "properties": { "value": 20.703 }, "geometry": { "type": "Point", "coordinates": [ 129.337601, 35.487782, 30.0 ] } },
{ "type": "Feature", "properties": { "value": 27.451 }, "geometry": { "type": "Point", "coordinates": [ 129.338699, 35.487778, 30.0 ] } },
{ "type": "Feature", "properties": { "value": 27.439 }, "geometry": { "type": "Point", "coordinates": [ 129.339798, 35.487778, 30.0 ] } },
{ "type": "Feature", "properties": { "value": 21.974 }, "geometry": { "type": "Point", "coordinates": [ 129.340912, 35.487774, 30.0 ] } },
{ "type": "Feature", "properties": { "value": 14.698 }, "geometry": { "type": "Point", "coordinates": [ 129.34201, 35.48777, 30.0 ] } },
{ "type": "Feature", "properties": { "value": 8.5986 }, "geometry": { "type": "Point", "coordinates": [ 129.343109, 35.487766, 30.0 ] } },
{ "type": "Feature", "properties": { "value": 4.5189 }, "geometry": { "type": "Point", "coordinates": [ 129.344208, 35.487762, 30.0 ] } },
{ "type": "Feature", "properties": { "value": 2.2027 }, "geometry": { "type": "Point", "coordinates": [ 129.345306, 35.487759, 30.0 ] } },
{ "type": "Feature", "properties": { "value": 1.0141 }, "geometry": { "type": "Point", "coordinates": [ 129.34642, 35.487759, 30.0 ] } },
{ "type": "Feature", "properties": { "value": 0.4117 }, "geometry": { "type": "Point", "coordinates": [ 129.347519, 35.487755, 30.0 ] } },
{ "type": "Feature", "properties": { "value": 0.064 }, "geometry": { "type": "Point", "coordinates": [ 129.348618, 35.487751, 30.0 ] } },
{ "type": "Feature", "properties": { "value": 0.081 }, "geometry": { "type": "Point", "coordinates": [ 129.33429, 35.488693, 30.0 ] } },
{ "type": "Feature", "properties": { "value": 1.6531 }, "geometry": { "type": "Point", "coordinates": [ 129.335403, 35.488689, 30.0 ] } },
{ "type": "Feature", "properties": { "value": 5.6687 }, "geometry": { "type": "Point", "coordinates": [ 129.336502, 35.488686, 30.0 ] } },
{ "type": "Feature", "properties": { "value": 12.821 }, "geometry": { "type": "Point", "coordinates": [ 129.337601, 35.488682, 30.0 ] } },
{ "type": "Feature", "properties": { "value": 20.595 }, "geometry": { "type": "Point", "coordinates": [ 129.338699, 35.488682, 30.0 ] } },
{ "type": "Feature", "properties": { "value": 25.08 }, "geometry": { "type": "Point", "coordinates": [ 129.339813, 35.488678, 30.0 ] } },
{ "type": "Feature", "properties": { "value": 24.425 }, "geometry": { "type": "Point", "coordinates": [ 129.340912, 35.488674, 30.0 ] } },
{ "type": "Feature", "properties": { "value": 19.777 }, "geometry": { "type": "Point", "coordinates": [ 129.34201, 35.48867, 30.0 ] } },
{ "type": "Feature", "properties": { "value": 13.852 }, "geometry": { "type": "Point", "coordinates": [ 129.343109, 35.488667, 30.0 ] } },
{ "type": "Feature", "properties": { "value": 8.6729 }, "geometry": { "type": "Point", "coordinates": [ 129.344208, 35.488667, 30.0 ] } },
{ "type": "Feature", "properties": { "value": 4.9944 }, "geometry": { "type": "Point", "coordinates": [ 129.345322, 35.488663, 30.0 ] } },
{ "type": "Feature", "properties": { "value": 2.6922 }, "geometry": { "type": "Point", "coordinates": [ 129.34642, 35.488659, 30.0 ] } },
{ "type": "Feature", "properties": { "value": 1.3498 }, "geometry": { "type": "Point", "coordinates": [ 129.347519, 35.488655, 30.0 ] } },
{ "type": "Feature", "properties": { "value": 0.6235 }, "geometry": { "type": "Point", "coordinates": [ 129.348618, 35.488651, 30.0 ] } },
{ "type": "Feature", "properties": { "value": 0.236 }, "geometry": { "type": "Point", "coordinates": [ 129.349731, 35.488647, 30.0 ] } },
{ "type": "Feature", "properties": { "value": 0.0033 }, "geometry": { "type": "Point", "coordinates": [ 129.378372, 35.488564, 30.0 ] } },
{ "type": "Feature", "properties": { "value": 0.0171 }, "geometry": { "type": "Point", "coordinates": [ 129.379471, 35.48856, 30.0 ] } },
{ "type": "Feature", "properties": { "value": 0.0208 }, "geometry": { "type": "Point", "coordinates": [ 129.380585, 35.488556, 30.0 ] } },
{ "type": "Feature", "properties": { "value": 0.0215 }, "geometry": { "type": "Point", "coordinates": [ 129.381683, 35.488552, 30.0 ] } },
{ "type": "Feature", "properties": { "value": 0.6003 }, "geometry": { "type": "Point", "coordinates": [ 129.335403, 35.48959, 30.0 ] } },
{ "type": "Feature", "properties": { "value": 2.6279 }, "geometry": { "type": "Point", "coordinates": [ 129.336502, 35.48959, 30.0 ] } },
{ "type": "Feature", "properties": { "value": 7.0623 }, "geometry": { "type": "Point", "coordinates": [ 129.337601, 35.489586, 30.0 ] } },
{ "type": "Feature", "properties": { "value": 13.589 }, "geometry": { "type": "Point", "coordinates": [ 129.338715, 35.489582, 30.0 ] } },
{ "type": "Feature", "properties": { "value": 19.793 }, "geometry": { "type": "Point", "coordinates": [ 129.339813, 35.489578, 30.0 ] } },
{ "type": "Feature", "properties": { "value": 23.097 }, "geometry": { "type": "Point", "coordinates": [ 129.340912, 35.489574, 30.0 ] } },
{ "type": "Feature", "properties": { "value": 22.407 }, "geometry": { "type": "Point", "coordinates": [ 129.34201, 35.489571, 30.0 ] } },
{ "type": "Feature", "properties": { "value": 18.608 }, "geometry": { "type": "Point", "coordinates": [ 129.343109, 35.489571, 30.0 ] } },
{ "type": "Feature", "properties": { "value": 13.665 }, "geometry": { "type": "Point", "coordinates": [ 129.344223, 35.489567, 30.0 ] } },
{ "type": "Feature", "properties": { "value": 9.1369 }, "geometry": { "type": "Point", "coordinates": [ 129.345322, 35.489563, 30.0 ] } },
{ "type": "Feature", "properties": { "value": 5.6583 }, "geometry": { "type": "Point", "coordinates": [ 129.34642, 35.489559, 30.0 ] } },
{ "type": "Feature", "properties": { "value": 3.2578 }, "geometry": { "type": "Point", "coordinates": [ 129.347519, 35.489555, 30.0 ] } },
{ "type": "Feature", "properties": { "value": 1.7706 }, "geometry": { "type": "Point", "coordinates": [ 129.348633, 35.489555, 30.0 ] } },
{ "type": "Feature", "properties": { "value": 0.9162 }, "geometry": { "type": "Point", "coordinates": [ 129.349731, 35.489552, 30.0 ] } },
{ "type": "Feature", "properties": { "value": 0.4268 }, "geometry": { "type": "Point", "coordinates": [ 129.35083, 35.489548, 30.0 ] } },
{ "type": "Feature", "properties": { "value": 0.1364 }, "geometry": { "type": "Point", "coordinates": [ 129.351929, 35.489544, 30.0 ] } },
{ "type": "Feature", "properties": { "value": 0.0325 }, "geometry": { "type": "Point", "coordinates": [ 129.376175, 35.489471, 30.0 ] } },
{ "type": "Feature", "properties": { "value": 0.0574 }, "geometry": { "type": "Point", "coordinates": [ 129.377274, 35.489468, 30.0 ] } },
{ "type": "Feature", "properties": { "value": 0.0691 }, "geometry": { "type": "Point", "coordinates": [ 129.378387, 35.489464, 30.0 ] } },
{ "type": "Feature", "properties": { "value": 0.0773 }, "geometry": { "type": "Point", "coordinates": [ 129.379486, 35.48946, 30.0 ] } },
{ "type": "Feature", "properties": { "value": 0.0755 }, "geometry": { "type": "Point", "coordinates": [ 129.380585, 35.489456, 30.0 ] } },
{ "type": "Feature", "properties": { "value": 0.0706 }, "geometry": { "type": "Point", "coordinates": [ 129.381683, 35.489452, 30.0 ] } },
{ "type": "Feature", "properties": { "value": 0.0228 }, "geometry": { "type": "Point", "coordinates": [ 129.335403, 35.490494, 30.0 ] } },
{ "type": "Feature", "properties": { "value": 1.0643 }, "geometry": { "type": "Point", "coordinates": [ 129.336502, 35.49049, 30.0 ] } },
{ "type": "Feature", "properties": { "value": 3.4722 }, "geometry": { "type": "Point", "coordinates": [ 129.337616, 35.490486, 30.0 ] } },
{ "type": "Feature", "properties": { "value": 7.8722 }, "geometry": { "type": "Point", "coordinates": [ 129.338715, 35.490482, 30.0 ] } },
{ "type": "Feature", "properties": { "value": 13.597 }, "geometry": { "type": "Point", "coordinates": [ 129.339813, 35.490479, 30.0 ] } },
{ "type": "Feature", "properties": { "value": 18.836 }, "geometry": { "type": "Point", "coordinates": [ 129.340912, 35.490479, 30.0 ] } },
{ "type": "Feature", "properties": { "value": 21.597 }, "geometry": { "type": "Point", "coordinates": [ 129.34201, 35.490475, 30.0 ] } },
{ "type": "Feature", "properties": { "value": 21.022 }, "geometry": { "type": "Point", "coordinates": [ 129.343124, 35.490471, 30.0 ] } },
{ "type": "Feature", "properties": { "value": 18.006 }, "geometry": { "type": "Point", "coordinates": [ 129.344223, 35.490467, 30.0 ] } },
{ "type": "Feature", "properties": { "value": 13.906 }, "geometry": { "type": "Point", "coordinates": [ 129.345322, 35.490463, 30.0 ] } },
{ "type": "Feature", "properties": { "value": 9.851 }, "geometry": { "type": "Point", "coordinates": [ 129.34642, 35.490459, 30.0 ] } },
{ "type": "Feature", "properties": { "value": 6.4666 }, "geometry": { "type": "Point", "coordinates": [ 129.347534, 35.490459, 30.0 ] } },
{ "type": "Feature", "properties": { "value": 3.971 }, "geometry": { "type": "Point", "coordinates": [ 129.348633, 35.490456, 30.0 ] } },
{ "type": "Feature", "properties": { "value": 2.3153 }, "geometry": { "type": "Point", "coordinates": [ 129.349731, 35.490452, 30.0 ] } },
{ "type": "Feature", "properties": { "value": 1.3047 }, "geometry": { "type": "Point", "coordinates": [ 129.35083, 35.490448, 30.0 ] } },
{ "type": "Feature", "properties": { "value": 0.7098 }, "geometry": { "type": "Point", "coordinates": [ 129.351929, 35.490444, 30.0 ] } },
{ "type": "Feature", "properties": { "value": 0.3564 }, "geometry": { "type": "Point", "coordinates": [ 129.353043, 35.49044, 30.0 ] } },
{ "type": "Feature", "properties": { "value": 0.1148 }, "geometry": { "type": "Point", "coordinates": [ 129.354141, 35.49044, 30.0 ] } },
{ "type": "Feature", "properties": { "value": 0.0719 }, "geometry": { "type": "Point", "coordinates": [ 129.373978, 35.490379, 30.0 ] } },
{ "type": "Feature", "properties": { "value": 0.1084 }, "geometry": { "type": "Point", "coordinates": [ 129.375076, 35.490376, 30.0 ] } },
{ "type": "Feature", "properties": { "value": 0.1369 }, "geometry": { "type": "Point", "coordinates": [ 129.376175, 35.490372, 30.0 ] } },
{ "type": "Feature", "properties": { "value": 0.1591 }, "geometry": { "type": "Point", "coordinates": [ 129.377289, 35.490368, 30.0 ] } },
{ "type": "Feature", "properties": { "value": 0.1758 }, "geometry": { "type": "Point", "coordinates": [ 129.378387, 35.490364, 30.0 ] } },
{ "type": "Feature", "properties": { "value": 0.1824 }, "geometry": { "type": "Point", "coordinates": [ 129.379486, 35.49036, 30.0 ] } },
{ "type": "Feature", "properties": { "value": 0.1784 }, "geometry": { "type": "Point", "coordinates": [ 129.380585, 35.490356, 30.0 ] } },
{ "type": "Feature", "properties": { "value": 0.1641 }, "geometry": { "type": "Point", "coordinates": [ 129.381683, 35.490356, 30.0 ] } },
{ "type": "Feature", "properties": { "value": 0.357 }, "geometry": { "type": "Point", "coordinates": [ 129.336517, 35.49139, 30.0 ] } },
{ "type": "Feature", "properties": { "value": 1.5248 }, "geometry": { "type": "Point", "coordinates": [ 129.337616, 35.491386, 30.0 ] } },
{ "type": "Feature", "properties": { "value": 4.0364 }, "geometry": { "type": "Point", "coordinates": [ 129.338715, 35.491383, 30.0 ] } },
{ "type": "Feature", "properties": { "value": 8.157 }, "geometry": { "type": "Point", "coordinates": [ 129.339813, 35.491383, 30.0 ] } },
{ "type": "Feature", "properties": { "value": 13.253 }, "geometry": { "type": "Point", "coordinates": [ 129.340927, 35.491379, 30.0 ] } },
{ "type": "Feature", "properties": { "value": 17.732 }, "geometry": { "type": "Point", "coordinates": [ 129.342026, 35.491375, 30.0 ] } },
{ "type": "Feature", "properties": { "value": 20.109 }, "geometry": { "type": "Point", "coordinates": [ 129.343124, 35.491371, 30.0 ] } },
{ "type": "Feature", "properties": { "value": 19.942 }, "geometry": { "type": "Point", "coordinates": [ 129.344223, 35.491367, 30.0 ] } },
{ "type": "Feature", "properties": { "value": 17.693 }, "geometry": { "type": "Point", "coordinates": [ 129.345322, 35.491367, 30.0 ] } },
{ "type": "Feature", "properties": { "value": 14.323 }, "geometry": { "type": "Point", "coordinates": [ 129.346436, 35.491364, 30.0 ] } },
{ "type": "Feature", "properties": { "value": 10.665 }, "geometry": { "type": "Point", "coordinates": [ 129.347534, 35.49136, 30.0 ] } },
{ "type": "Feature", "properties": { "value": 7.3632 }, "geometry": { "type": "Point", "coordinates": [ 129.348633, 35.491356, 30.0 ] } },
{ "type": "Feature", "properties": { "value": 4.801 }, "geometry": { "type": "Point", "coordinates": [ 129.349731, 35.491352, 30.0 ] } },
{ "type": "Feature", "properties": { "value": 3.0254 }, "geometry": { "type": "Point", "coordinates": [ 129.350845, 35.491348, 30.0 ] } },
{ "type": "Feature", "properties": { "value": 1.8715 }, "geometry": { "type": "Point", "coordinates": [ 129.351944, 35.491348, 30.0 ] } },
{ "type": "Feature", "properties": { "value": 1.133 }, "geometry": { "type": "Point", "coordinates": [ 129.353043, 35.491344, 30.0 ] } },
{ "type": "Feature", "properties": { "value": 0.6834 }, "geometry": { "type": "Point", "coordinates": [ 129.354141, 35.491341, 30.0 ] } },
{ "type": "Feature", "properties": { "value": 0.4238 }, "geometry": { "type": "Point", "coordinates": [ 129.35524, 35.491337, 30.0 ] } },
{ "type": "Feature", "properties": { "value": 0.2498 }, "geometry": { "type": "Point", "coordinates": [ 129.356354, 35.491333, 30.0 ] } },
{ "type": "Feature", "properties": { "value": 0.1415 }, "geometry": { "type": "Point", "coordinates": [ 129.357452, 35.491329, 30.0 ] } },
{ "type": "Feature", "properties": { "value": 0.0624 }, "geometry": { "type": "Point", "coordinates": [ 129.358551, 35.491325, 30.0 ] } },
{ "type": "Feature", "properties": { "value": 0.0291 }, "geometry": { "type": "Point", "coordinates": [ 129.369568, 35.491295, 30.0 ] } },
{ "type": "Feature", "properties": { "value": 0.081 }, "geometry": { "type": "Point", "coordinates": [ 129.370682, 35.491291, 30.0 ] } },
{ "type": "Feature", "properties": { "value": 0.1272 }, "geometry": { "type": "Point", "coordinates": [ 129.37178, 35.491287, 30.0 ] } },
{ "type": "Feature", "properties": { "value": 0.1796 }, "geometry": { "type": "Point", "coordinates": [ 129.372879, 35.491283, 30.0 ] } },
{ "type": "Feature", "properties": { "value": 0.2271 }, "geometry": { "type": "Point", "coordinates": [ 129.373978, 35.49128, 30.0 ] } },
{ "type": "Feature", "properties": { "value": 0.2713 }, "geometry": { "type": "Point", "coordinates": [ 129.375076, 35.491276, 30.0 ] } },
{ "type": "Feature", "properties": { "value": 0.3136 }, "geometry": { "type": "Point", "coordinates": [ 129.37619, 35.491272, 30.0 ] } },
{ "type": "Feature", "properties": { "value": 0.3491 }, "geometry": { "type": "Point", "coordinates": [ 129.377289, 35.491268, 30.0 ] } },
{ "type": "Feature", "properties": { "value": 0.3725 }, "geometry": { "type": "Point", "coordinates": [ 129.378387, 35.491268, 30.0 ] } },
{ "type": "Feature", "properties": { "value": 0.3789 }, "geometry": { "type": "Point", "coordinates": [ 129.379486, 35.491264, 30.0 ] } },
{ "type": "Feature", "properties": { "value": 0.3658 }, "geometry": { "type": "Point", "coordinates": [ 129.3806, 35.491261, 30.0 ] } },
{ "type": "Feature", "properties": { "value": 0.3289 }, "geometry": { "type": "Point", "coordinates": [ 129.381699, 35.491257, 30.0 ] } },
{ "type": "Feature", "properties": { "value": 0.5553 }, "geometry": { "type": "Point", "coordinates": [ 129.337616, 35.49229, 30.0 ] } },
{ "type": "Feature", "properties": { "value": 1.8466 }, "geometry": { "type": "Point", "coordinates": [ 129.338715, 35.492287, 30.0 ] } },
{ "type": "Feature", "properties": { "value": 4.3498 }, "geometry": { "type": "Point", "coordinates": [ 129.339828, 35.492283, 30.0 ] } },
{ "type": "Feature", "properties": { "value": 8.1431 }, "geometry": { "type": "Point", "coordinates": [ 129.340927, 35.492279, 30.0 ] } },
{ "type": "Feature", "properties": { "value": 12.59 }, "geometry": { "type": "Point", "coordinates": [ 129.342026, 35.492275, 30.0 ] } },
{ "type": "Feature", "properties": { "value": 16.509 }, "geometry": { "type": "Point", "coordinates": [ 129.343124, 35.492271, 30.0 ] } },
{ "type": "Feature", "properties": { "value": 18.772 }, "geometry": { "type": "Point", "coordinates": [ 129.344223, 35.492271, 30.0 ] } },
{ "type": "Feature", "properties": { "value": 18.992 }, "geometry": { "type": "Point", "coordinates": [ 129.345337, 35.492268, 30.0 ] } },
{ "type": "Feature", "properties": { "value": 17.441 }, "geometry": { "type": "Point", "coordinates": [ 129.346436, 35.492264, 30.0 ] } },
{ "type": "Feature", "properties": { "value": 14.661 }, "geometry": { "type": "Point", "coordinates": [ 129.347534, 35.49226, 30.0 ] } },
{ "type": "Feature", "properties": { "value": 11.381 }, "geometry": { "type": "Point", "coordinates": [ 129.348633, 35.492256, 30.0 ] } },
{ "type": "Feature", "properties": { "value": 8.3119 }, "geometry": { "type": "Point", "coordinates": [ 129.349747, 35.492252, 30.0 ] } },
{ "type": "Feature", "properties": { "value": 5.8279 }, "geometry": { "type": "Point", "coordinates": [ 129.350845, 35.492252, 30.0 ] } },
{ "type": "Feature", "properties": { "value": 3.97 }, "geometry": { "type": "Point", "coordinates": [ 129.351944, 35.492249, 30.0 ] } },
{ "type": "Feature", "properties": { "value": 2.6672 }, "geometry": { "type": "Point", "coordinates": [ 129.353043, 35.492245, 30.0 ] } },
{ "type": "Feature", "properties": { "value": 1.7897 }, "geometry": { "type": "Point", "coordinates": [ 129.354141, 35.492241, 30.0 ] } },
{ "type": "Feature", "properties": { "value": 1.2263 }, "geometry": { "type": "Point", "coordinates": [ 129.355255, 35.492237, 30.0 ] } },
{ "type": "Feature", "properties": { "value": 0.851 }, "geometry": { "type": "Point", "coordinates": [ 129.356354, 35.492233, 30.0 ] } },
{ "type": "Feature", "properties": { "value": 0.6081 }, "geometry": { "type": "Point", "coordinates": [ 129.357452, 35.492233, 30.0 ] } },
{ "type": "Feature", "properties": { "value": 0.4563 }, "geometry": { "type": "Point", "coordinates": [ 129.358551, 35.492229, 30.0 ] } },
{ "type": "Feature", "properties": { "value": 0.3438 }, "geometry": { "type": "Point", "coordinates": [ 129.359665, 35.492226, 30.0 ] } },
{ "type": "Feature", "properties": { "value": 0.2697 }, "geometry": { "type": "Point", "coordinates": [ 129.360764, 35.492222, 30.0 ] } },
{ "type": "Feature", "properties": { "value": 0.2209 }, "geometry": { "type": "Point", "coordinates": [ 129.361862, 35.492218, 30.0 ] } },
{ "type": "Feature", "properties": { "value": 0.1876 }, "geometry": { "type": "Point", "coordinates": [ 129.362961, 35.492214, 30.0 ] } },
{ "type": "Feature", "properties": { "value": 0.1652 }, "geometry": { "type": "Point", "coordinates": [ 129.364059, 35.49221, 30.0 ] } },
{ "type": "Feature", "properties": { "value": 0.1629 }, "geometry": { "type": "Point", "coordinates": [ 129.365173, 35.49221, 30.0 ] } },
{ "type": "Feature", "properties": { "value": 0.1615 }, "geometry": { "type": "Point", "coordinates": [ 129.366272, 35.492207, 30.0 ] } },
{ "type": "Feature", "properties": { "value": 0.1735 }, "geometry": { "type": "Point", "coordinates": [ 129.367371, 35.492203, 30.0 ] } },
{ "type": "Feature", "properties": { "value": 0.2009 }, "geometry": { "type": "Point", "coordinates": [ 129.368469, 35.492199, 30.0 ] } },
{ "type": "Feature", "properties": { "value": 0.2348 }, "geometry": { "type": "Point", "coordinates": [ 129.369583, 35.492195, 30.0 ] } },
{ "type": "Feature", "properties": { "value": 0.2841 }, "geometry": { "type": "Point", "coordinates": [ 129.370682, 35.492191, 30.0 ] } },
{ "type": "Feature", "properties": { "value": 0.3467 }, "geometry": { "type": "Point", "coordinates": [ 129.37178, 35.492188, 30.0 ] } },
{ "type": "Feature", "properties": { "value": 0.4175 }, "geometry": { "type": "Point", "coordinates": [ 129.372879, 35.492184, 30.0 ] } },
{ "type": "Feature", "properties": { "value": 0.4889 }, "geometry": { "type": "Point", "coordinates": [ 129.373978, 35.49218, 30.0 ] } },
{ "type": "Feature", "properties": { "value": 0.5615 }, "geometry": { "type": "Point", "coordinates": [ 129.375092, 35.49218, 30.0 ] } },
{ "type": "Feature", "properties": { "value": 0.6315 }, "geometry": { "type": "Point", "coordinates": [ 129.37619, 35.492176, 30.0 ] } },
{ "type": "Feature", "properties": { "value": 0.6824 }, "geometry": { "type": "Point", "coordinates": [ 129.377289, 35.492172, 30.0 ] } },
{ "type": "Feature", "properties": { "value": 0.7102 }, "geometry": { "type": "Point", "coordinates": [ 129.378387, 35.492168, 30.0 ] } },
{ "type": "Feature", "properties": { "value": 0.7078 }, "geometry": { "type": "Point", "coordinates": [ 129.379501, 35.492165, 30.0 ] } },
{ "type": "Feature", "properties": { "value": 0.6735 }, "geometry": { "type": "Point", "coordinates": [ 129.3806, 35.492161, 30.0 ] } },
{ "type": "Feature", "properties": { "value": 0.603 }, "geometry": { "type": "Point", "coordinates": [ 129.381699, 35.492157, 30.0 ] } },
{ "type": "Feature", "properties": { "value": 0.0442 }, "geometry": { "type": "Point", "coordinates": [ 129.337616, 35.493191, 30.0 ] } },
{ "type": "Feature", "properties": { "value": 0.727 }, "geometry": { "type": "Point", "coordinates": [ 129.33873, 35.493187, 30.0 ] } },
{ "type": "Feature", "properties": { "value": 2.0728 }, "geometry": { "type": "Point", "coordinates": [ 129.339828, 35.493183, 30.0 ] } },
{ "type": "Feature", "properties": { "value": 4.4609 }, "geometry": { "type": "Point", "coordinates": [ 129.340927, 35.493179, 30.0 ] } },
{ "type": "Feature", "properties": { "value": 7.8958 }, "geometry": { "type": "Point", "coordinates": [ 129.342026, 35.493179, 30.0 ] } },
{ "type": "Feature", "properties": { "value": 11.839 }, "geometry": { "type": "Point", "coordinates": [ 129.343124, 35.493176, 30.0 ] } },
{ "type": "Feature", "properties": { "value": 15.348 }, "geometry": { "type": "Point", "coordinates": [ 129.344238, 35.493172, 30.0 ] } },
{ "type": "Feature", "properties": { "value": 17.594 }, "geometry": { "type": "Point", "coordinates": [ 129.345337, 35.493168, 30.0 ] } },
{ "type": "Feature", "properties": { "value": 18.175 }, "geometry": { "type": "Point", "coordinates": [ 129.346436, 35.493164, 30.0 ] } },
{ "type": "Feature", "properties": { "value": 17.15 }, "geometry": { "type": "Point", "coordinates": [ 129.347534, 35.49316, 30.0 ] } },
{ "type": "Feature", "properties": { "value": 14.967 }, "geometry": { "type": "Point", "coordinates": [ 129.348648, 35.49316, 30.0 ] } },
{ "type": "Feature", "properties": { "value": 12.232 }, "geometry": { "type": "Point", "coordinates": [ 129.349747, 35.493156, 30.0 ] } },
{ "type": "Feature", "properties": { "value": 9.5045 }, "geometry": { "type": "Point", "coordinates": [ 129.350845, 35.493153, 30.0 ] } },
{ "type": "Feature", "properties": { "value": 7.1083 }, "geometry": { "type": "Point", "coordinates": [ 129.351944, 35.493149, 30.0 ] } },
{ "type": "Feature", "properties": { "value": 5.2086 }, "geometry": { "type": "Point", "coordinates": [ 129.353043, 35.493145, 30.0 ] } },
{ "type": "Feature", "properties": { "value": 3.8023 }, "geometry": { "type": "Point", "coordinates": [ 129.354156, 35.493141, 30.0 ] } },
{ "type": "Feature", "properties": { "value": 2.7778 }, "geometry": { "type": "Point", "coordinates": [ 129.355255, 35.493141, 30.0 ] } },
{ "type": "Feature", "properties": { "value": 2.0622 }, "geometry": { "type": "Point", "coordinates": [ 129.356354, 35.493137, 30.0 ] } },
{ "type": "Feature", "properties": { "value": 1.559 }, "geometry": { "type": "Point", "coordinates": [ 129.357452, 35.493134, 30.0 ] } },
{ "type": "Feature", "properties": { "value": 1.2131 }, "geometry": { "type": "Point", "coordinates": [ 129.358566, 35.49313, 30.0 ] } },
{ "type": "Feature", "properties": { "value": 0.968 }, "geometry": { "type": "Point", "coordinates": [ 129.359665, 35.493126, 30.0 ] } },
{ "type": "Feature", "properties": { "value": 0.7958 }, "geometry": { "type": "Point", "coordinates": [ 129.360764, 35.493122, 30.0 ] } },
{ "type": "Feature", "properties": { "value": 0.6682 }, "geometry": { "type": "Point", "coordinates": [ 129.361862, 35.493118, 30.0 ] } },
{ "type": "Feature", "properties": { "value": 0.5806 }, "geometry": { "type": "Point", "coordinates": [ 129.362961, 35.493118, 30.0 ] } },
{ "type": "Feature", "properties": { "value": 0.5275 }, "geometry": { "type": "Point", "coordinates": [ 129.364075, 35.493114, 30.0 ] } },
{ "type": "Feature", "properties": { "value": 0.4893 }, "geometry": { "type": "Point", "coordinates": [ 129.365173, 35.493111, 30.0 ] } },
{ "type": "Feature", "properties": { "value": 0.4795 }, "geometry": { "type": "Point", "coordinates": [ 129.366272, 35.493107, 30.0 ] } },
{ "type": "Feature", "properties": { "value": 0.4896 }, "geometry": { "type": "Point", "coordinates": [ 129.367371, 35.493103, 30.0 ] } },
{ "type": "Feature", "properties": { "value": 0.5183 }, "geometry": { "type": "Point", "coordinates": [ 129.368484, 35.493099, 30.0 ] } },
{ "type": "Feature", "properties": { "value": 0.5716 }, "geometry": { "type": "Point", "coordinates": [ 129.369583, 35.493095, 30.0 ] } },
{ "type": "Feature", "properties": { "value": 0.6422 }, "geometry": { "type": "Point", "coordinates": [ 129.370682, 35.493092, 30.0 ] } },
{ "type": "Feature", "properties": { "value": 0.7387 }, "geometry": { "type": "Point", "coordinates": [ 129.37178, 35.493088, 30.0 ] } },
{ "type": "Feature", "properties": { "value": 0.8382 }, "geometry": { "type": "Point", "coordinates": [ 129.372894, 35.493088, 30.0 ] } },
{ "type": "Feature", "properties": { "value": 0.9477 }, "geometry": { "type": "Point", "coordinates": [ 129.373993, 35.493084, 30.0 ] } },
{ "type": "Feature", "properties": { "value": 1.0545 }, "geometry": { "type": "Point", "coordinates": [ 129.375092, 35.49308, 30.0 ] } },
{ "type": "Feature", "properties": { "value": 1.1494 }, "geometry": { "type": "Point", "coordinates": [ 129.37619, 35.493076, 30.0 ] } },
{ "type": "Feature", "properties": { "value": 1.2164 }, "geometry": { "type": "Point", "coordinates": [ 129.377289, 35.493073, 30.0 ] } },
{ "type": "Feature", "properties": { "value": 1.2427 }, "geometry": { "type": "Point", "coordinates": [ 129.378403, 35.493069, 30.0 ] } },
{ "type": "Feature", "properties": { "value": 1.2203 }, "geometry": { "type": "Point", "coordinates": [ 129.379501, 35.493065, 30.0 ] } },
{ "type": "Feature", "properties": { "value": 1.1412 }, "geometry": { "type": "Point", "coordinates": [ 129.3806, 35.493061, 30.0 ] } },
{ "type": "Feature", "properties": { "value": 1.0169 }, "geometry": { "type": "Point", "coordinates": [ 129.381699, 35.493057, 30.0 ] } },
{ "type": "Feature", "properties": { "value": 0.2059 }, "geometry": { "type": "Point", "coordinates": [ 129.33873, 35.494087, 30.0 ] } },
{ "type": "Feature", "properties": { "value": 0.8632 }, "geometry": { "type": "Point", "coordinates": [ 129.339828, 35.494083, 30.0 ] } },
{ "type": "Feature", "properties": { "value": 2.1908 }, "geometry": { "type": "Point", "coordinates": [ 129.340927, 35.494083, 30.0 ] } },
{ "type": "Feature", "properties": { "value": 4.4213 }, "geometry": { "type": "Point", "coordinates": [ 129.342026, 35.49408, 30.0 ] } },
{ "type": "Feature", "properties": { "value": 7.5461 }, "geometry": { "type": "Point", "coordinates": [ 129.34314, 35.494076, 30.0 ] } },
{ "type": "Feature", "properties": { "value": 11.073 }, "geometry": { "type": "Point", "coordinates": [ 129.344238, 35.494072, 30.0 ] } },
{ "type": "Feature", "properties": { "value": 14.316 }, "geometry": { "type": "Point", "coordinates": [ 129.345337, 35.494068, 30.0 ] } },
{ "type": "Feature", "properties": { "value": 16.567 }, "geometry": { "type": "Point", "coordinates": [ 129.346436, 35.494068, 30.0 ] } },
{ "type": "Feature", "properties": { "value": 17.515 }, "geometry": { "type": "Point", "coordinates": [ 129.347549, 35.494064, 30.0 ] } },
{ "type": "Feature", "properties": { "value": 17.08 }, "geometry": { "type": "Point", "coordinates": [ 129.348648, 35.494061, 30.0 ] } },
{ "type": "Feature", "properties": { "value": 15.468 }, "geometry": { "type": "Point", "coordinates": [ 129.349747, 35.494057, 30.0 ] } },
{ "type": "Feature", "properties": { "value": 13.24 }, "geometry": { "type": "Point", "coordinates": [ 129.350845, 35.494053, 30.0 ] } },
{ "type": "Feature", "properties": { "value": 10.867 }, "geometry": { "type": "Point", "coordinates": [ 129.351959, 35.494049, 30.0 ] } },
{ "type": "Feature", "properties": { "value": 8.6378 }, "geometry": { "type": "Point", "coordinates": [ 129.353058, 35.494049, 30.0 ] } },
{ "type": "Feature", "properties": { "value": 6.752 }, "geometry": { "type": "Point", "coordinates": [ 129.354156, 35.494045, 30.0 ] } },
{ "type": "Feature", "properties": { "value": 5.2555 }, "geometry": { "type": "Point", "coordinates": [ 129.355255, 35.494041, 30.0 ] } },
{ "type": "Feature", "properties": { "value": 4.1036 }, "geometry": { "type": "Point", "coordinates": [ 129.356354, 35.494038, 30.0 ] } },
{ "type": "Feature", "properties": { "value": 3.2471 }, "geometry": { "type": "Point", "coordinates": [ 129.357468, 35.494034, 30.0 ] } },
{ "type": "Feature", "properties": { "value": 2.6097 }, "geometry": { "type": "Point", "coordinates": [ 129.358566, 35.49403, 30.0 ] } },
{ "type": "Feature", "properties": { "value": 2.1387 }, "geometry": { "type": "Point", "coordinates": [ 129.359665, 35.494026, 30.0 ] } },
{ "type": "Feature", "properties": { "value": 1.7948 }, "geometry": { "type": "Point", "coordinates": [ 129.360764, 35.494026, 30.0 ] } },
{ "type": "Feature", "properties": { "value": 1.5367 }, "geometry": { "type": "Point", "coordinates": [ 129.361877, 35.494022, 30.0 ] } },
{ "type": "Feature", "properties": { "value": 1.3431 }, "geometry": { "type": "Point", "coordinates": [ 129.362976, 35.494019, 30.0 ] } },
{ "type": "Feature", "properties": { "value": 1.2154 }, "geometry": { "type": "Point", "coordinates": [ 129.364075, 35.494015, 30.0 ] } },
{ "type": "Feature", "properties": { "value": 1.1257 }, "geometry": { "type": "Point", "coordinates": [ 129.365173, 35.494011, 30.0 ] } },
{ "type": "Feature", "properties": { "value": 1.0844 }, "geometry": { "type": "Point", "coordinates": [ 129.366272, 35.494007, 30.0 ] } },
{ "type": "Feature", "properties": { "value": 1.0765 }, "geometry": { "type": "Point", "coordinates": [ 129.367386, 35.494003, 30.0 ] } },
{ "type": "Feature", "properties": { "value": 1.1033 }, "geometry": { "type": "Point", "coordinates": [ 129.368484, 35.493999, 30.0 ] } },
{ "type": "Feature", "properties": { "value": 1.1663 }, "geometry": { "type": "Point", "coordinates": [ 129.369583, 35.493999, 30.0 ] } },
{ "type": "Feature", "properties": { "value": 1.2646 }, "geometry": { "type": "Point", "coordinates": [ 129.370682, 35.493996, 30.0 ] } },
{ "type": "Feature", "properties": { "value": 1.3889 }, "geometry": { "type": "Point", "coordinates": [ 129.371796, 35.493992, 30.0 ] } },
{ "type": "Feature", "properties": { "value": 1.5275 }, "geometry": { "type": "Point", "coordinates": [ 129.372894, 35.493988, 30.0 ] } },
{ "type": "Feature", "properties": { "value": 1.6722 }, "geometry": { "type": "Point", "coordinates": [ 129.373993, 35.493984, 30.0 ] } },
{ "type": "Feature", "properties": { "value": 1.8148 }, "geometry": { "type": "Point", "coordinates": [ 129.375092, 35.49398, 30.0 ] } },
{ "type": "Feature", "properties": { "value": 1.9302 }, "geometry": { "type": "Point", "coordinates": [ 129.37619, 35.493977, 30.0 ] } },
{ "type": "Feature", "properties": { "value": 2.0016 }, "geometry": { "type": "Point", "coordinates": [ 129.377304, 35.493973, 30.0 ] } },
{ "type": "Feature", "properties": { "value": 2.0087 }, "geometry": { "type": "Point", "coordinates": [ 129.378403, 35.493969, 30.0 ] } },
{ "type": "Feature", "properties": { "value": 1.9396 }, "geometry": { "type": "Point", "coordinates": [ 129.379501, 35.493965, 30.0 ] } },
{ "type": "Feature", "properties": { "value": 1.7943 }, "geometry": { "type": "Point", "coordinates": [ 129.3806, 35.493965, 30.0 ] } },
{ "type": "Feature", "properties": { "value": 1.5779 }, "geometry": { "type": "Point", "coordinates": [ 129.381714, 35.493961, 30.0 ] } },
{ "type": "Feature", "properties": { "value": 0.2862 }, "geometry": { "type": "Point", "coordinates": [ 129.339828, 35.494987, 30.0 ] } },
{ "type": "Feature", "properties": { "value": 0.9481 }, "geometry": { "type": "Point", "coordinates": [ 129.340942, 35.494984, 30.0 ] } },
{ "type": "Feature", "properties": { "value": 2.2217 }, "geometry": { "type": "Point", "coordinates": [ 129.342041, 35.49498, 30.0 ] } },
{ "type": "Feature", "properties": { "value": 4.2655 }, "geometry": { "type": "Point", "coordinates": [ 129.34314, 35.494976, 30.0 ] } },
{ "type": "Feature", "properties": { "value": 7.045 }, "geometry": { "type": "Point", "coordinates": [ 129.344238, 35.494972, 30.0 ] } },
{ "type": "Feature", "properties": { "value": 10.237 }, "geometry": { "type": "Point", "coordinates": [ 129.345337, 35.494972, 30.0 ] } },
{ "type": "Feature", "properties": { "value": 13.251 }, "geometry": { "type": "Point", "coordinates": [ 129.346451, 35.494968, 30.0 ] } },
{ "type": "Feature", "properties": { "value": 15.589 }, "geometry": { "type": "Point", "coordinates": [ 129.347549, 35.494965, 30.0 ] } },
{ "type": "Feature", "properties": { "value": 16.873 }, "geometry": { "type": "Point", "coordinates": [ 129.348648, 35.494961, 30.0 ] } },
{ "type": "Feature", "properties": { "value": 16.875 }, "geometry": { "type": "Point", "coordinates": [ 129.349747, 35.494957, 30.0 ] } },
{ "type": "Feature", "properties": { "value": 15.82 }, "geometry": { "type": "Point", "coordinates": [ 129.350861, 35.494953, 30.0 ] } },
{ "type": "Feature", "properties": { "value": 14.147 }, "geometry": { "type": "Point", "coordinates": [ 129.351959, 35.494953, 30.0 ] } },
{ "type": "Feature", "properties": { "value": 12.133 }, "geometry": { "type": "Point", "coordinates": [ 129.353058, 35.494949, 30.0 ] } },
{ "type": "Feature", "properties": { "value": 10.149 }, "geometry": { "type": "Point", "coordinates": [ 129.354156, 35.494946, 30.0 ] } },
{ "type": "Feature", "properties": { "value": 8.3983 }, "geometry": { "type": "Point", "coordinates": [ 129.355255, 35.494942, 30.0 ] } },
{ "type": "Feature", "properties": { "value": 6.9156 }, "geometry": { "type": "Point", "coordinates": [ 129.356369, 35.494938, 30.0 ] } },
{ "type": "Feature", "properties": { "value": 5.7122 }, "geometry": { "type": "Point", "coordinates": [ 129.357468, 35.494934, 30.0 ] } },
{ "type": "Feature", "properties": { "value": 4.7575 }, "geometry": { "type": "Point", "coordinates": [ 129.358566, 35.494934, 30.0 ] } },
{ "type": "Feature", "properties": { "value": 4.0135 }, "geometry": { "type": "Point", "coordinates": [ 129.359665, 35.49493, 30.0 ] } },
{ "type": "Feature", "properties": { "value": 3.434 }, "geometry": { "type": "Point", "coordinates": [ 129.360779, 35.494926, 30.0 ] } },
{ "type": "Feature", "properties": { "value": 2.9824 }, "geometry": { "type": "Point", "coordinates": [ 129.361877, 35.494923, 30.0 ] } },
{ "type": "Feature", "properties": { "value": 2.6347 }, "geometry": { "type": "Point", "coordinates": [ 129.362976, 35.494919, 30.0 ] } },
{ "type": "Feature", "properties": { "value": 2.3845 }, "geometry": { "type": "Point", "coordinates": [ 129.364075, 35.494915, 30.0 ] } },
{ "type": "Feature", "properties": { "value": 2.2125 }, "geometry": { "type": "Point", "coordinates": [ 129.365173, 35.494911, 30.0 ] } },
{ "type": "Feature", "properties": { "value": 2.1049 }, "geometry": { "type": "Point", "coordinates": [ 129.366287, 35.494907, 30.0 ] } },
{ "type": "Feature", "properties": { "value": 2.0547 }, "geometry": { "type": "Point", "coordinates": [ 129.367386, 35.494907, 30.0 ] } },
{ "type": "Feature", "properties": { "value": 2.0631 }, "geometry": { "type": "Point", "coordinates": [ 129.368484, 35.494904, 30.0 ] } },
{ "type": "Feature", "properties": { "value": 2.1244 }, "geometry": { "type": "Point", "coordinates": [ 129.369583, 35.4949, 30.0 ] } },
{ "type": "Feature", "properties": { "value": 2.236 }, "geometry": { "type": "Point", "coordinates": [ 129.370697, 35.494896, 30.0 ] } },
{ "type": "Feature", "properties": { "value": 2.376 }, "geometry": { "type": "Point", "coordinates": [ 129.371796, 35.494892, 30.0 ] } },
{ "type": "Feature", "properties": { "value": 2.5408 }, "geometry": { "type": "Point", "coordinates": [ 129.372894, 35.494888, 30.0 ] } },
{ "type": "Feature", "properties": { "value": 2.7172 }, "geometry": { "type": "Point", "coordinates": [ 129.373993, 35.494884, 30.0 ] } },
{ "type": "Feature", "properties": { "value": 2.8763 }, "geometry": { "type": "Point", "coordinates": [ 129.375107, 35.494881, 30.0 ] } },
{ "type": "Feature", "properties": { "value": 2.9957 }, "geometry": { "type": "Point", "coordinates": [ 129.376205, 35.494877, 30.0 ] } },
{ "type": "Feature", "properties": { "value": 3.045 }, "geometry": { "type": "Point", "coordinates": [ 129.377304, 35.494877, 30.0 ] } },
{ "type": "Feature", "properties": { "value": 3.0043 }, "geometry": { "type": "Point", "coordinates": [ 129.378403, 35.494873, 30.0 ] } },
{ "type": "Feature", "properties": { "value": 2.8568 }, "geometry": { "type": "Point", "coordinates": [ 129.379501, 35.494869, 30.0 ] } },
{ "type": "Feature", "properties": { "value": 2.6084 }, "geometry": { "type": "Point", "coordinates": [ 129.380615, 35.494865, 30.0 ] } },
{ "type": "Feature", "properties": { "value": 2.2697 }, "geometry": { "type": "Point", "coordinates": [ 129.381714, 35.494862, 30.0 ] } },
{ "type": "Feature", "properties": { "value": 0.3408 }, "geometry": { "type": "Point", "coordinates": [ 129.340942, 35.495884, 30.0 ] } },
{ "type": "Feature", "properties": { "value": 0.9804 }, "geometry": { "type": "Point", "coordinates": [ 129.342041, 35.49588, 30.0 ] } },
{ "type": "Feature", "properties": { "value": 2.1341 }, "geometry": { "type": "Point", "coordinates": [ 129.34314, 35.49588, 30.0 ] } },
{ "type": "Feature", "properties": { "value": 3.9483 }, "geometry": { "type": "Point", "coordinates": [ 129.344238, 35.495876, 30.0 ] } },
{ "type": "Feature", "properties": { "value": 6.4185 }, "geometry": { "type": "Point", "coordinates": [ 129.345352, 35.495872, 30.0 ] } },
{ "type": "Feature", "properties": { "value": 9.2459 }, "geometry": { "type": "Point", "coordinates": [ 129.346451, 35.495869, 30.0 ] } },
{ "type": "Feature", "properties": { "value": 12.032 }, "geometry": { "type": "Point", "coordinates": [ 129.347549, 35.495865, 30.0 ] } },
{ "type": "Feature", "properties": { "value": 14.386 }, "geometry": { "type": "Point", "coordinates": [ 129.348648, 35.495861, 30.0 ] } },
{ "type": "Feature", "properties": { "value": 15.878 }, "geometry": { "type": "Point", "coordinates": [ 129.349762, 35.495861, 30.0 ] } },
{ "type": "Feature", "properties": { "value": 16.262 }, "geometry": { "type": "Point", "coordinates": [ 129.350861, 35.495857, 30.0 ] } },
{ "type": "Feature", "properties": { "value": 15.702 }, "geometry": { "type": "Point", "coordinates": [ 129.351959, 35.495853, 30.0 ] } },
{ "type": "Feature", "properties": { "value": 14.507 }, "geometry": { "type": "Point", "coordinates": [ 129.353058, 35.49585, 30.0 ] } },
{ "type": "Feature", "properties": { "value": 13.009 }, "geometry": { "type": "Point", "coordinates": [ 129.354156, 35.495846, 30.0 ] } },
{ "type": "Feature", "properties": { "value": 11.449 }, "geometry": { "type": "Point", "coordinates": [ 129.35527, 35.495842, 30.0 ] } },
{ "type": "Feature", "properties": { "value": 9.9552 }, "geometry": { "type": "Point", "coordinates": [ 129.356369, 35.495838, 30.0 ] } },
{ "type": "Feature", "properties": { "value": 8.6081 }, "geometry": { "type": "Point", "coordinates": [ 129.357468, 35.495838, 30.0 ] } },
{ "type": "Feature", "properties": { "value": 7.4439 }, "geometry": { "type": "Point", "coordinates": [ 129.358566, 35.495834, 30.0 ] } },
{ "type": "Feature", "properties": { "value": 6.4655 }, "geometry": { "type": "Point", "coordinates": [ 129.35968, 35.495831, 30.0 ] } },
{ "type": "Feature", "properties": { "value": 5.6569 }, "geometry": { "type": "Point", "coordinates": [ 129.360779, 35.495827, 30.0 ] } },
{ "type": "Feature", "properties": { "value": 5.0041 }, "geometry": { "type": "Point", "coordinates": [ 129.361877, 35.495823, 30.0 ] } },
{ "type": "Feature", "properties": { "value": 4.4867 }, "geometry": { "type": "Point", "coordinates": [ 129.362976, 35.495819, 30.0 ] } },
{ "type": "Feature", "properties": { "value": 4.0953 }, "geometry": { "type": "Point", "coordinates": [ 129.36409, 35.495815, 30.0 ] } },
{ "type": "Feature", "properties": { "value": 3.8007 }, "geometry": { "type": "Point", "coordinates": [ 129.365189, 35.495815, 30.0 ] } },
{ "type": "Feature", "properties": { "value": 3.5989 }, "geometry": { "type": "Point", "coordinates": [ 129.366287, 35.495811, 30.0 ] } },
{ "type": "Feature", "properties": { "value": 3.4779 }, "geometry": { "type": "Point", "coordinates": [ 129.367386, 35.495808, 30.0 ] } },
{ "type": "Feature", "properties": { "value": 3.4371 }, "geometry": { "type": "Point", "coordinates": [ 129.368484, 35.495804, 30.0 ] } },
{ "type": "Feature", "properties": { "value": 3.4708 }, "geometry": { "type": "Point", "coordinates": [ 129.369598, 35.4958, 30.0 ] } },
{ "type": "Feature", "properties": { "value": 3.5673 }, "geometry": { "type": "Point", "coordinates": [ 129.370697, 35.495796, 30.0 ] } },
{ "type": "Feature", "properties": { "value": 3.7053 }, "geometry": { "type": "Point", "coordinates": [ 129.371796, 35.495792, 30.0 ] } },
{ "type": "Feature", "properties": { "value": 3.8746 }, "geometry": { "type": "Point", "coordinates": [ 129.372894, 35.495789, 30.0 ] } },
{ "type": "Feature", "properties": { "value": 4.0477 }, "geometry": { "type": "Point", "coordinates": [ 129.374008, 35.495785, 30.0 ] } },
{ "type": "Feature", "properties": { "value": 4.1945 }, "geometry": { "type": "Point", "coordinates": [ 129.375107, 35.495785, 30.0 ] } },
{ "type": "Feature", "properties": { "value": 4.2809 }, "geometry": { "type": "Point", "coordinates": [ 129.376205, 35.495781, 30.0 ] } },
{ "type": "Feature", "properties": { "value": 4.2766 }, "geometry": { "type": "Point", "coordinates": [ 129.377304, 35.495777, 30.0 ] } },
{ "type": "Feature", "properties": { "value": 4.149 }, "geometry": { "type": "Point", "coordinates": [ 129.378403, 35.495773, 30.0 ] } },
{ "type": "Feature", "properties": { "value": 3.8947 }, "geometry": { "type": "Point", "coordinates": [ 129.379517, 35.49577, 30.0 ] } },
{ "type": "Feature", "properties": { "value": 3.511 }, "geometry": { "type": "Point", "coordinates": [ 129.380615, 35.495766, 30.0 ] } },
{ "type": "Feature", "properties": { "value": 3.0252 }, "geometry": { "type": "Point", "coordinates": [ 129.381714, 35.495762, 30.0 ] } },
{ "type": "Feature", "properties": { "value": 0.3582 }, "geometry": { "type": "Point", "coordinates": [ 129.342041, 35.496784, 30.0 ] } },
{ "type": "Feature", "properties": { "value": 0.9453 }, "geometry": { "type": "Point", "coordinates": [ 129.34314, 35.49678, 30.0 ] } },
{ "type": "Feature", "properties": { "value": 1.9516 }, "geometry": { "type": "Point", "coordinates": [ 129.344254, 35.496777, 30.0 ] } },
{ "type": "Feature", "properties": { "value": 3.5276 }, "geometry": { "type": "Point", "coordinates": [ 129.345352, 35.496773, 30.0 ] } },
{ "type": "Feature", "properties": { "value": 5.6176 }, "geometry": { "type": "Point", "coordinates": [ 129.346451, 35.496769, 30.0 ] } },
{ "type": "Feature", "properties": { "value": 8.0674 }, "geometry": { "type": "Point", "coordinates": [ 129.347549, 35.496765, 30.0 ] } },
{ "type": "Feature", "properties": { "value": 10.605 }, "geometry": { "type": "Point", "coordinates": [ 129.348663, 35.496765, 30.0 ] } },
{ "type": "Feature", "properties": { "value": 12.856 }, "geometry": { "type": "Point", "coordinates": [ 129.349762, 35.496761, 30.0 ] } },
{ "type": "Feature", "properties": { "value": 14.374 }, "geometry": { "type": "Point", "coordinates": [ 129.350861, 35.496758, 30.0 ] } },
{ "type": "Feature", "properties": { "value": 14.962 }, "geometry": { "type": "Point", "coordinates": [ 129.351959, 35.496754, 30.0 ] } },
{ "type": "Feature", "properties": { "value": 14.882 }, "geometry": { "type": "Point", "coordinates": [ 129.353073, 35.49675, 30.0 ] } },
{ "type": "Feature", "properties": { "value": 14.305 }, "geometry": { "type": "Point", "coordinates": [ 129.354172, 35.496746, 30.0 ] } },
{ "type": "Feature", "properties": { "value": 13.415 }, "geometry": { "type": "Point", "coordinates": [ 129.35527, 35.496746, 30.0 ] } },
{ "type": "Feature", "properties": { "value": 12.332 }, "geometry": { "type": "Point", "coordinates": [ 129.356369, 35.496742, 30.0 ] } },
{ "type": "Feature", "properties": { "value": 11.174 }, "geometry": { "type": "Point", "coordinates": [ 129.357468, 35.496738, 30.0 ] } },
{ "type": "Feature", "properties": { "value": 10.059 }, "geometry": { "type": "Point", "coordinates": [ 129.358582, 35.496735, 30.0 ] } },
{ "type": "Feature", "properties": { "value": 9.0351 }, "geometry": { "type": "Point", "coordinates": [ 129.35968, 35.496731, 30.0 ] } },
{ "type": "Feature", "properties": { "value": 8.1283 }, "geometry": { "type": "Point", "coordinates": [ 129.360779, 35.496727, 30.0 ] } },
{ "type": "Feature", "properties": { "value": 7.3569 }, "geometry": { "type": "Point", "coordinates": [ 129.361877, 35.496723, 30.0 ] } },
{ "type": "Feature", "properties": { "value": 6.7086 }, "geometry": { "type": "Point", "coordinates": [ 129.362991, 35.496723, 30.0 ] } },
{ "type": "Feature", "properties": { "value": 6.181 }, "geometry": { "type": "Point", "coordinates": [ 129.36409, 35.496719, 30.0 ] } },
{ "type": "Feature", "properties": { "value": 5.763 }, "geometry": { "type": "Point", "coordinates": [ 129.365189, 35.496716, 30.0 ] } },
{ "type": "Feature", "properties": { "value": 5.4512 }, "geometry": { "type": "Point", "coordinates": [ 129.366287, 35.496712, 30.0 ] } },
{ "type": "Feature", "properties": { "value": 5.2418 }, "geometry": { "type": "Point", "coordinates": [ 129.367386, 35.496708, 30.0 ] } },
{ "type": "Feature", "properties": { "value": 5.1301 }, "geometry": { "type": "Point", "coordinates": [ 129.3685, 35.496704, 30.0 ] } },
{ "type": "Feature", "properties": { "value": 5.1093 }, "geometry": { "type": "Point", "coordinates": [ 129.369598, 35.4967, 30.0 ] } },
{ "type": "Feature", "properties": { "value": 5.1595 }, "geometry": { "type": "Point", "coordinates": [ 129.370697, 35.496696, 30.0 ] } },
{ "type": "Feature", "properties": { "value": 5.2629 }, "geometry": { "type": "Point", "coordinates": [ 129.371796, 35.496696, 30.0 ] } },
{ "type": "Feature", "properties": { "value": 5.3949 }, "geometry": { "type": "Point", "coordinates": [ 129.37291, 35.496693, 30.0 ] } },
{ "type": "Feature", "properties": { "value": 5.5296 }, "geometry": { "type": "Point", "coordinates": [ 129.374008, 35.496689, 30.0 ] } },
{ "type": "Feature", "properties": { "value": 5.6236 }, "geometry": { "type": "Point", "coordinates": [ 129.375107, 35.496685, 30.0 ] } },
{ "type": "Feature", "properties": { "value": 5.6374 }, "geometry": { "type": "Point", "coordinates": [ 129.376205, 35.496681, 30.0 ] } },
{ "type": "Feature", "properties": { "value": 5.5407 }, "geometry": { "type": "Point", "coordinates": [ 129.377319, 35.496677, 30.0 ] } },
{ "type": "Feature", "properties": { "value": 5.3005 }, "geometry": { "type": "Point", "coordinates": [ 129.378418, 35.496674, 30.0 ] } },
{ "type": "Feature", "properties": { "value": 4.9088 }, "geometry": { "type": "Point", "coordinates": [ 129.379517, 35.49667, 30.0 ] } },
{ "type": "Feature", "properties": { "value": 4.3739 }, "geometry": { "type": "Point", "coordinates": [ 129.380615, 35.496666, 30.0 ] } },
{ "type": "Feature", "properties": { "value": 3.7343 }, "geometry": { "type": "Point", "coordinates": [ 129.381714, 35.496662, 30.0 ] } },
{ "type": "Feature", "properties": { "value": 0.3272 }, "geometry": { "type": "Point", "coordinates": [ 129.343155, 35.497681, 30.0 ] } },
{ "type": "Feature", "properties": { "value": 0.8307 }, "geometry": { "type": "Point", "coordinates": [ 129.344254, 35.497677, 30.0 ] } },
{ "type": "Feature", "properties": { "value": 1.6779 }, "geometry": { "type": "Point", "coordinates": [ 129.345352, 35.497673, 30.0 ] } },
{ "type": "Feature", "properties": { "value": 2.9717 }, "geometry": { "type": "Point", "coordinates": [ 129.346451, 35.497673, 30.0 ] } },
{ "type": "Feature", "properties": { "value": 4.7028 }, "geometry": { "type": "Point", "coordinates": [ 129.347565, 35.497669, 30.0 ] } },
{ "type": "Feature", "properties": { "value": 6.7566 }, "geometry": { "type": "Point", "coordinates": [ 129.348663, 35.497665, 30.0 ] } },
{ "type": "Feature", "properties": { "value": 8.9194 }, "geometry": { "type": "Point", "coordinates": [ 129.349762, 35.497662, 30.0 ] } },
{ "type": "Feature", "properties": { "value": 10.855 }, "geometry": { "type": "Point", "coordinates": [ 129.350861, 35.497658, 30.0 ] } },
{ "type": "Feature", "properties": { "value": 12.27 }, "geometry": { "type": "Point", "coordinates": [ 129.351974, 35.497654, 30.0 ] } },
{ "type": "Feature", "properties": { "value": 13.197 }, "geometry": { "type": "Point", "coordinates": [ 129.353073, 35.497654, 30.0 ] } },
{ "type": "Feature", "properties": { "value": 13.628 }, "geometry": { "type": "Point", "coordinates": [ 129.354172, 35.49765, 30.0 ] } },
{ "type": "Feature", "properties": { "value": 13.615 }, "geometry": { "type": "Point", "coordinates": [ 129.35527, 35.497646, 30.0 ] } },
{ "type": "Feature", "properties": { "value": 13.212 }, "geometry": { "type": "Point", "coordinates": [ 129.356369, 35.497643, 30.0 ] } },
{ "type": "Feature", "properties": { "value": 12.55 }, "geometry": { "type": "Point", "coordinates": [ 129.357483, 35.497639, 30.0 ] } },
{ "type": "Feature", "properties": { "value": 11.787 }, "geometry": { "type": "Point", "coordinates": [ 129.358582, 35.497635, 30.0 ] } },
{ "type": "Feature", "properties": { "value": 10.985 }, "geometry": { "type": "Point", "coordinates": [ 129.35968, 35.497631, 30.0 ] } },
{ "type": "Feature", "properties": { "value": 10.194 }, "geometry": { "type": "Point", "coordinates": [ 129.360779, 35.497631, 30.0 ] } },
{ "type": "Feature", "properties": { "value": 9.4563 }, "geometry": { "type": "Point", "coordinates": [ 129.361893, 35.497627, 30.0 ] } },
{ "type": "Feature", "properties": { "value": 8.7968 }, "geometry": { "type": "Point", "coordinates": [ 129.362991, 35.497623, 30.0 ] } },
{ "type": "Feature", "properties": { "value": 8.2161 }, "geometry": { "type": "Point", "coordinates": [ 129.36409, 35.49762, 30.0 ] } },
{ "type": "Feature", "properties": { "value": 7.7308 }, "geometry": { "type": "Point", "coordinates": [ 129.365189, 35.497616, 30.0 ] } },
{ "type": "Feature", "properties": { "value": 7.3448 }, "geometry": { "type": "Point", "coordinates": [ 129.366302, 35.497612, 30.0 ] } },
{ "type": "Feature", "properties": { "value": 7.0577 }, "geometry": { "type": "Point", "coordinates": [ 129.367401, 35.497608, 30.0 ] } },
{ "type": "Feature", "properties": { "value": 6.8693 }, "geometry": { "type": "Point", "coordinates": [ 129.3685, 35.497604, 30.0 ] } },
{ "type": "Feature", "properties": { "value": 6.7743 }, "geometry": { "type": "Point", "coordinates": [ 129.369598, 35.497604, 30.0 ] } },
{ "type": "Feature", "properties": { "value": 6.7563 }, "geometry": { "type": "Point", "coordinates": [ 129.370697, 35.497601, 30.0 ] } },
{ "type": "Feature", "properties": { "value": 6.7919 }, "geometry": { "type": "Point", "coordinates": [ 129.371811, 35.497597, 30.0 ] } },
{ "type": "Feature", "properties": { "value": 6.8585 }, "geometry": { "type": "Point", "coordinates": [ 129.37291, 35.497593, 30.0 ] } },
{ "type": "Feature", "properties": { "value": 6.912 }, "geometry": { "type": "Point", "coordinates": [ 129.374008, 35.497589, 30.0 ] } },
{ "type": "Feature", "properties": { "value": 6.915 }, "geometry": { "type": "Point", "coordinates": [ 129.375107, 35.497585, 30.0 ] } },
{ "type": "Feature", "properties": { "value": 6.8323 }, "geometry": { "type": "Point", "coordinates": [ 129.376221, 35.497581, 30.0 ] } },
{ "type": "Feature", "properties": { "value": 6.6152 }, "geometry": { "type": "Point", "coordinates": [ 129.377319, 35.497578, 30.0 ] } },
{ "type": "Feature", "properties": { "value": 6.2467 }, "geometry": { "type": "Point", "coordinates": [ 129.378418, 35.497574, 30.0 ] } },
{ "type": "Feature", "properties": { "value": 5.7154 }, "geometry": { "type": "Point", "coordinates": [ 129.379517, 35.497574, 30.0 ] } },
{ "type": "Feature", "properties": { "value": 5.0414 }, "geometry": { "type": "Point", "coordinates": [ 129.380615, 35.49757, 30.0 ] } },
{ "type": "Feature", "properties": { "value": 4.2624 }, "geometry": { "type": "Point", "coordinates": [ 129.381729, 35.497566, 30.0 ] } },
{ "type": "Feature", "properties": { "value": 0.2747 }, "geometry": { "type": "Point", "coordinates": [ 129.344254, 35.498581, 30.0 ] } },
{ "type": "Feature", "properties": { "value": 0.6715 }, "geometry": { "type": "Point", "coordinates": [ 129.345352, 35.498577, 30.0 ] } },
{ "type": "Feature", "properties": { "value": 1.346 }, "geometry": { "type": "Point", "coordinates": [ 129.346466, 35.498573, 30.0 ] } },
{ "type": "Feature", "properties": { "value": 2.3626 }, "geometry": { "type": "Point", "coordinates": [ 129.347565, 35.498569, 30.0 ] } },
{ "type": "Feature", "properties": { "value": 3.7218 }, "geometry": { "type": "Point", "coordinates": [ 129.348663, 35.498566, 30.0 ] } },
{ "type": "Feature", "properties": { "value": 5.3292 }, "geometry": { "type": "Point", "coordinates": [ 129.349762, 35.498562, 30.0 ] } },
{ "type": "Feature", "properties": { "value": 7.0476 }, "geometry": { "type": "Point", "coordinates": [ 129.350876, 35.498562, 30.0 ] } },
{ "type": "Feature", "properties": { "value": 8.686 }, "geometry": { "type": "Point", "coordinates": [ 129.351974, 35.498558, 30.0 ] } },
{ "type": "Feature", "properties": { "value": 10.124 }, "geometry": { "type": "Point", "coordinates": [ 129.353073, 35.498554, 30.0 ] } },
{ "type": "Feature", "properties": { "value": 11.232 }, "geometry": { "type": "Point", "coordinates": [ 129.354172, 35.49855, 30.0 ] } },
{ "type": "Feature", "properties": { "value": 11.94 }, "geometry": { "type": "Point", "coordinates": [ 129.35527, 35.498547, 30.0 ] } },
{ "type": "Feature", "properties": { "value": 12.246 }, "geometry": { "type": "Point", "coordinates": [ 129.356384, 35.498543, 30.0 ] } },
{ "type": "Feature", "properties": { "value": 12.237 }, "geometry": { "type": "Point", "coordinates": [ 129.357483, 35.498539, 30.0 ] } },
{ "type": "Feature", "properties": { "value": 12.012 }, "geometry": { "type": "Point", "coordinates": [ 129.358582, 35.498539, 30.0 ] } },
{ "type": "Feature", "properties": { "value": 11.645 }, "geometry": { "type": "Point", "coordinates": [ 129.35968, 35.498535, 30.0 ] } },
{ "type": "Feature", "properties": { "value": 11.183 }, "geometry": { "type": "Point", "coordinates": [ 129.360794, 35.498531, 30.0 ] } },
{ "type": "Feature", "properties": { "value": 10.665 }, "geometry": { "type": "Point", "coordinates": [ 129.361893, 35.498528, 30.0 ] } },
{ "type": "Feature", "properties": { "value": 10.144 }, "geometry": { "type": "Point", "coordinates": [ 129.362991, 35.498524, 30.0 ] } },
{ "type": "Feature", "properties": { "value": 9.6473 }, "geometry": { "type": "Point", "coordinates": [ 129.36409, 35.49852, 30.0 ] } },
{ "type": "Feature", "properties": { "value": 9.1904 }, "geometry": { "type": "Point", "coordinates": [ 129.365204, 35.498516, 30.0 ] } },
{ "type": "Feature", "properties": { "value": 8.7973 }, "geometry": { "type": "Point", "coordinates": [ 129.366302, 35.498512, 30.0 ] } },
{ "type": "Feature", "properties": { "value": 8.4828 }, "geometry": { "type": "Point", "coordinates": [ 129.367401, 35.498512, 30.0 ] } },
{ "type": "Feature", "properties": { "value": 8.2468 }, "geometry": { "type": "Point", "coordinates": [ 129.3685, 35.498508, 30.0 ] } },
{ "type": "Feature", "properties": { "value": 8.0889 }, "geometry": { "type": "Point", "coordinates": [ 129.369598, 35.498505, 30.0 ] } },
{ "type": "Feature", "properties": { "value": 8.0054 }, "geometry": { "type": "Point", "coordinates": [ 129.370712, 35.498501, 30.0 ] } },
{ "type": "Feature", "properties": { "value": 7.9632 }, "geometry": { "type": "Point", "coordinates": [ 129.371811, 35.498497, 30.0 ] } },
{ "type": "Feature", "properties": { "value": 7.9393 }, "geometry": { "type": "Point", "coordinates": [ 129.37291, 35.498493, 30.0 ] } },
{ "type": "Feature", "properties": { "value": 7.8973 }, "geometry": { "type": "Point", "coordinates": [ 129.374008, 35.498489, 30.0 ] } },
{ "type": "Feature", "properties": { "value": 7.8007 }, "geometry": { "type": "Point", "coordinates": [ 129.375122, 35.498486, 30.0 ] } },
{ "type": "Feature", "properties": { "value": 7.6027 }, "geometry": { "type": "Point", "coordinates": [ 129.376221, 35.498482, 30.0 ] } },
{ "type": "Feature", "properties": { "value": 7.2712 }, "geometry": { "type": "Point", "coordinates": [ 129.377319, 35.498482, 30.0 ] } },
{ "type": "Feature", "properties": { "value": 6.7867 }, "geometry": { "type": "Point", "coordinates": [ 129.378418, 35.498478, 30.0 ] } },
{ "type": "Feature", "properties": { "value": 6.142 }, "geometry": { "type": "Point", "coordinates": [ 129.379532, 35.498474, 30.0 ] } },
{ "type": "Feature", "properties": { "value": 5.3689 }, "geometry": { "type": "Point", "coordinates": [ 129.38063, 35.49847, 30.0 ] } },
{ "type": "Feature", "properties": { "value": 4.5037 }, "geometry": { "type": "Point", "coordinates": [ 129.381729, 35.498466, 30.0 ] } },
{ "type": "Feature", "properties": { "value": 0.1849 }, "geometry": { "type": "Point", "coordinates": [ 129.345367, 35.499477, 30.0 ] } },
{ "type": "Feature", "properties": { "value": 0.5101 }, "geometry": { "type": "Point", "coordinates": [ 129.346466, 35.499474, 30.0 ] } },
{ "type": "Feature", "properties": { "value": 1.0203 }, "geometry": { "type": "Point", "coordinates": [ 129.347565, 35.49947, 30.0 ] } },
{ "type": "Feature", "properties": { "value": 1.7667 }, "geometry": { "type": "Point", "coordinates": [ 129.348663, 35.499466, 30.0 ] } },
{ "type": "Feature", "properties": { "value": 2.7746 }, "geometry": { "type": "Point", "coordinates": [ 129.349777, 35.499466, 30.0 ] } },
{ "type": "Feature", "properties": { "value": 3.9913 }, "geometry": { "type": "Point", "coordinates": [ 129.350876, 35.499462, 30.0 ] } },
{ "type": "Feature", "properties": { "value": 5.3429 }, "geometry": { "type": "Point", "coordinates": [ 129.351974, 35.499458, 30.0 ] } },
{ "type": "Feature", "properties": { "value": 6.7223 }, "geometry": { "type": "Point", "coordinates": [ 129.353073, 35.499454, 30.0 ] } },
{ "type": "Feature", "properties": { "value": 7.9954 }, "geometry": { "type": "Point", "coordinates": [ 129.354187, 35.499451, 30.0 ] } },
{ "type": "Feature", "properties": { "value": 9.0531 }, "geometry": { "type": "Point", "coordinates": [ 129.355286, 35.499447, 30.0 ] } },
{ "type": "Feature", "properties": { "value": 9.8442 }, "geometry": { "type": "Point", "coordinates": [ 129.356384, 35.499447, 30.0 ] } },
{ "type": "Feature", "properties": { "value": 10.382 }, "geometry": { "type": "Point", "coordinates": [ 129.357483, 35.499443, 30.0 ] } },
{ "type": "Feature", "properties": { "value": 10.689 }, "geometry": { "type": "Point", "coordinates": [ 129.358582, 35.499439, 30.0 ] } },
{ "type": "Feature", "properties": { "value": 10.809 }, "geometry": { "type": "Point", "coordinates": [ 129.359695, 35.499435, 30.0 ] } },
{ "type": "Feature", "properties": { "value": 10.751 }, "geometry": { "type": "Point", "coordinates": [ 129.360794, 35.499432, 30.0 ] } },
{ "type": "Feature", "properties": { "value": 10.58 }, "geometry": { "type": "Point", "coordinates": [ 129.361893, 35.499428, 30.0 ] } },
{ "type": "Feature", "properties": { "value": 10.315 }, "geometry": { "type": "Point", "coordinates": [ 129.362991, 35.499424, 30.0 ] } },
{ "type": "Feature", "properties": { "value": 10.011 }, "geometry": { "type": "Point", "coordinates": [ 129.364105, 35.499424, 30.0 ] } },
{ "type": "Feature", "properties": { "value": 9.692 }, "geometry": { "type": "Point", "coordinates": [ 129.365204, 35.49942, 30.0 ] } },
{ "type": "Feature", "properties": { "value": 9.3784 }, "geometry": { "type": "Point", "coordinates": [ 129.366302, 35.499416, 30.0 ] } },
{ "type": "Feature", "properties": { "value": 9.1009 }, "geometry": { "type": "Point", "coordinates": [ 129.367401, 35.499413, 30.0 ] } },
{ "type": "Feature", "properties": { "value": 8.876 }, "geometry": { "type": "Point", "coordinates": [ 129.368515, 35.499409, 30.0 ] } },
{ "type": "Feature", "properties": { "value": 8.696 }, "geometry": { "type": "Point", "coordinates": [ 129.369614, 35.499405, 30.0 ] } },
{ "type": "Feature", "properties": { "value": 8.5679 }, "geometry": { "type": "Point", "coordinates": [ 129.370712, 35.499401, 30.0 ] } },
{ "type": "Feature", "properties": { "value": 8.4649 }, "geometry": { "type": "Point", "coordinates": [ 129.371811, 35.499397, 30.0 ] } },
{ "type": "Feature", "properties": { "value": 8.3662 }, "geometry": { "type": "Point", "coordinates": [ 129.37291, 35.499393, 30.0 ] } },
{ "type": "Feature", "properties": { "value": 8.2397 }, "geometry": { "type": "Point", "coordinates": [ 129.374023, 35.499393, 30.0 ] } },
{ "type": "Feature", "properties": { "value": 8.0556 }, "geometry": { "type": "Point", "coordinates": [ 129.375122, 35.49939, 30.0 ] } },
{ "type": "Feature", "properties": { "value": 7.765 }, "geometry": { "type": "Point", "coordinates": [ 129.376221, 35.499386, 30.0 ] } },
{ "type": "Feature", "properties": { "value": 7.3497 }, "geometry": { "type": "Point", "coordinates": [ 129.377319, 35.499382, 30.0 ] } },
{ "type": "Feature", "properties": { "value": 6.7904 }, "geometry": { "type": "Point", "coordinates": [ 129.378433, 35.499378, 30.0 ] } },
{ "type": "Feature", "properties": { "value": 6.0924 }, "geometry": { "type": "Point", "coordinates": [ 129.379532, 35.499374, 30.0 ] } },
{ "type": "Feature", "properties": { "value": 5.2785 }, "geometry": { "type": "Point", "coordinates": [ 129.38063, 35.499371, 30.0 ] } },
{ "type": "Feature", "properties": { "value": 4.3976 }, "geometry": { "type": "Point", "coordinates": [ 129.381729, 35.499367, 30.0 ] } },
{ "type": "Feature", "properties": { "value": 0.0861 }, "geometry": { "type": "Point", "coordinates": [ 129.346466, 35.500374, 30.0 ] } },
{ "type": "Feature", "properties": { "value": 0.3536 }, "geometry": { "type": "Point", "coordinates": [ 129.347565, 35.500374, 30.0 ] } },
{ "type": "Feature", "properties": { "value": 0.7228 }, "geometry": { "type": "Point", "coordinates": [ 129.348679, 35.50037, 30.0 ] } },
{ "type": "Feature", "properties": { "value": 1.2597 }, "geometry": { "type": "Point", "coordinates": [ 129.349777, 35.500366, 30.0 ] } },
{ "type": "Feature", "properties": { "value": 1.9749 }, "geometry": { "type": "Point", "coordinates": [ 129.350876, 35.500362, 30.0 ] } },
{ "type": "Feature", "properties": { "value": 2.8688 }, "geometry": { "type": "Point", "coordinates": [ 129.351974, 35.500359, 30.0 ] } },
{ "type": "Feature", "properties": { "value": 3.8836 }, "geometry": { "type": "Point", "coordinates": [ 129.353088, 35.500355, 30.0 ] } },
{ "type": "Feature", "properties": { "value": 4.9554 }, "geometry": { "type": "Point", "coordinates": [ 129.354187, 35.500355, 30.0 ] } },
{ "type": "Feature", "properties": { "value": 5.9974 }, "geometry": { "type": "Point", "coordinates": [ 129.355286, 35.500351, 30.0 ] } },
{ "type": "Feature", "properties": { "value": 6.9188 }, "geometry": { "type": "Point", "coordinates": [ 129.356384, 35.500347, 30.0 ] } },
{ "type": "Feature", "properties": { "value": 7.7087 }, "geometry": { "type": "Point", "coordinates": [ 129.357483, 35.500343, 30.0 ] } },
{ "type": "Feature", "properties": { "value": 8.3395 }, "geometry": { "type": "Point", "coordinates": [ 129.358597, 35.50034, 30.0 ] } },
{ "type": "Feature", "properties": { "value": 8.8053 }, "geometry": { "type": "Point", "coordinates": [ 129.359695, 35.500336, 30.0 ] } },
{ "type": "Feature", "properties": { "value": 9.102 }, "geometry": { "type": "Point", "coordinates": [ 129.360794, 35.500332, 30.0 ] } },
{ "type": "Feature", "properties": { "value": 9.2485 }, "geometry": { "type": "Point", "coordinates": [ 129.361893, 35.500332, 30.0 ] } },
{ "type": "Feature", "properties": { "value": 9.2671 }, "geometry": { "type": "Point", "coordinates": [ 129.363007, 35.500328, 30.0 ] } },
{ "type": "Feature", "properties": { "value": 9.2048 }, "geometry": { "type": "Point", "coordinates": [ 129.364105, 35.500324, 30.0 ] } },
{ "type": "Feature", "properties": { "value": 9.0719 }, "geometry": { "type": "Point", "coordinates": [ 129.365204, 35.50032, 30.0 ] } },
{ "type": "Feature", "properties": { "value": 8.9107 }, "geometry": { "type": "Point", "coordinates": [ 129.366302, 35.500317, 30.0 ] } },
{ "type": "Feature", "properties": { "value": 8.7294 }, "geometry": { "type": "Point", "coordinates": [ 129.367416, 35.500313, 30.0 ] } },
{ "type": "Feature", "properties": { "value": 8.563 }, "geometry": { "type": "Point", "coordinates": [ 129.368515, 35.500309, 30.0 ] } },
{ "type": "Feature", "properties": { "value": 8.4144 }, "geometry": { "type": "Point", "coordinates": [ 129.369614, 35.500305, 30.0 ] } },
{ "type": "Feature", "properties": { "value": 8.279 }, "geometry": { "type": "Point", "coordinates": [ 129.370712, 35.500301, 30.0 ] } },
{ "type": "Feature", "properties": { "value": 8.1527 }, "geometry": { "type": "Point", "coordinates": [ 129.371811, 35.500301, 30.0 ] } },
{ "type": "Feature", "properties": { "value": 8.0179 }, "geometry": { "type": "Point", "coordinates": [ 129.372925, 35.500298, 30.0 ] } },
{ "type": "Feature", "properties": { "value": 7.8424 }, "geometry": { "type": "Point", "coordinates": [ 129.374023, 35.500294, 30.0 ] } },
{ "type": "Feature", "properties": { "value": 7.6071 }, "geometry": { "type": "Point", "coordinates": [ 129.375122, 35.50029, 30.0 ] } },
{ "type": "Feature", "properties": { "value": 7.2711 }, "geometry": { "type": "Point", "coordinates": [ 129.376221, 35.500286, 30.0 ] } },
{ "type": "Feature", "properties": { "value": 6.824 }, "geometry": { "type": "Point", "coordinates": [ 129.377335, 35.500282, 30.0 ] } },
{ "type": "Feature", "properties": { "value": 6.2532 }, "geometry": { "type": "Point", "coordinates": [ 129.378433, 35.500278, 30.0 ] } },
{ "type": "Feature", "properties": { "value": 5.5671 }, "geometry": { "type": "Point", "coordinates": [ 129.379532, 35.500275, 30.0 ] } },
{ "type": "Feature", "properties": { "value": 4.7889 }, "geometry": { "type": "Point", "coordinates": [ 129.38063, 35.500271, 30.0 ] } },
{ "type": "Feature", "properties": { "value": 3.9631 }, "geometry": { "type": "Point", "coordinates": [ 129.381744, 35.500267, 30.0 ] } },
{ "type": "Feature", "properties": { "value": 0.2203 }, "geometry": { "type": "Point", "coordinates": [ 129.348679, 35.50127, 30.0 ] } },
{ "type": "Feature", "properties": { "value": 0.473 }, "geometry": { "type": "Point", "coordinates": [ 129.349777, 35.501266, 30.0 ] } },
{ "type": "Feature", "properties": { "value": 0.8373 }, "geometry": { "type": "Point", "coordinates": [ 129.350876, 35.501263, 30.0 ] } },
{ "type": "Feature", "properties": { "value": 1.3434 }, "geometry": { "type": "Point", "coordinates": [ 129.35199, 35.501259, 30.0 ] } },
{ "type": "Feature", "properties": { "value": 1.969 }, "geometry": { "type": "Point", "coordinates": [ 129.353088, 35.501259, 30.0 ] } },
{ "type": "Feature", "properties": { "value": 2.6965 }, "geometry": { "type": "Point", "coordinates": [ 129.354187, 35.501255, 30.0 ] } },
{ "type": "Feature", "properties": { "value": 3.4845 }, "geometry": { "type": "Point", "coordinates": [ 129.355286, 35.501251, 30.0 ] } },
{ "type": "Feature", "properties": { "value": 4.2833 }, "geometry": { "type": "Point", "coordinates": [ 129.3564, 35.501247, 30.0 ] } },
{ "type": "Feature", "properties": { "value": 5.0515 }, "geometry": { "type": "Point", "coordinates": [ 129.357498, 35.501244, 30.0 ] } },
{ "type": "Feature", "properties": { "value": 5.7619 }, "geometry": { "type": "Point", "coordinates": [ 129.358597, 35.50124, 30.0 ] } },
{ "type": "Feature", "properties": { "value": 6.3671 }, "geometry": { "type": "Point", "coordinates": [ 129.359695, 35.50124, 30.0 ] } },
{ "type": "Feature", "properties": { "value": 6.8304 }, "geometry": { "type": "Point", "coordinates": [ 129.360794, 35.501236, 30.0 ] } },
{ "type": "Feature", "properties": { "value": 7.1603 }, "geometry": { "type": "Point", "coordinates": [ 129.361908, 35.501232, 30.0 ] } },
{ "type": "Feature", "properties": { "value": 7.3808 }, "geometry": { "type": "Point", "coordinates": [ 129.363007, 35.501228, 30.0 ] } },
{ "type": "Feature", "properties": { "value": 7.5024 }, "geometry": { "type": "Point", "coordinates": [ 129.364105, 35.501225, 30.0 ] } },
{ "type": "Feature", "properties": { "value": 7.5585 }, "geometry": { "type": "Point", "coordinates": [ 129.365204, 35.501221, 30.0 ] } },
{ "type": "Feature", "properties": { "value": 7.5435 }, "geometry": { "type": "Point", "coordinates": [ 129.366318, 35.501217, 30.0 ] } },
{ "type": "Feature", "properties": { "value": 7.4897 }, "geometry": { "type": "Point", "coordinates": [ 129.367416, 35.501213, 30.0 ] } },
{ "type": "Feature", "properties": { "value": 7.4108 }, "geometry": { "type": "Point", "coordinates": [ 129.368515, 35.501213, 30.0 ] } },
{ "type": "Feature", "properties": { "value": 7.3199 }, "geometry": { "type": "Point", "coordinates": [ 129.369614, 35.501209, 30.0 ] } },
{ "type": "Feature", "properties": { "value": 7.227 }, "geometry": { "type": "Point", "coordinates": [ 129.370728, 35.501205, 30.0 ] } },
{ "type": "Feature", "properties": { "value": 7.1154 }, "geometry": { "type": "Point", "coordinates": [ 129.371826, 35.501202, 30.0 ] } },
{ "type": "Feature", "properties": { "value": 6.9837 }, "geometry": { "type": "Point", "coordinates": [ 129.372925, 35.501198, 30.0 ] } },
{ "type": "Feature", "properties": { "value": 6.8037 }, "geometry": { "type": "Point", "coordinates": [ 129.374023, 35.501194, 30.0 ] } },
{ "type": "Feature", "properties": { "value": 6.5609 }, "geometry": { "type": "Point", "coordinates": [ 129.375122, 35.50119, 30.0 ] } },
{ "type": "Feature", "properties": { "value": 6.2379 }, "geometry": { "type": "Point", "coordinates": [ 129.376236, 35.501186, 30.0 ] } },
{ "type": "Feature", "properties": { "value": 5.8135 }, "geometry": { "type": "Point", "coordinates": [ 129.377335, 35.501183, 30.0 ] } },
{ "type": "Feature", "properties": { "value": 5.2957 }, "geometry": { "type": "Point", "coordinates": [ 129.378433, 35.501179, 30.0 ] } },
{ "type": "Feature", "properties": { "value": 4.6818 }, "geometry": { "type": "Point", "coordinates": [ 129.379532, 35.501179, 30.0 ] } },
{ "type": "Feature", "properties": { "value": 4.0069 }, "geometry": { "type": "Point", "coordinates": [ 129.380646, 35.501175, 30.0 ] } },
{ "type": "Feature", "properties": { "value": 3.2954 }, "geometry": { "type": "Point", "coordinates": [ 129.381744, 35.501171, 30.0 ] } }
]
}
