{
"type": "FeatureCollection",
"features": [
{ "type": "Feature", "properties": { "value": 0.0 }, "geometry": { "type": "Point", "coordinates": [ 129.29335, 35.441029, 115.0 ] } },
{ "type": "Feature", "properties": { "value": 0.0 }, "geometry": { "type": "Point", "coordinates": [ 129.291153, 35.441936, 115.0 ] } },
{ "type": "Feature", "properties": { "value": 0.0001 }, "geometry": { "type": "Point", "coordinates": [ 129.292252, 35.441933, 115.0 ] } },
{ "type": "Feature", "properties": { "value": 0.0001 }, "geometry": { "type": "Point", "coordinates": [ 129.29335, 35.441933, 115.0 ] } },
{ "type": "Feature", "properties": { "value": 0.0 }, "geometry": { "type": "Point", "coordinates": [ 129.294449, 35.441929, 115.0 ] } },
{ "type": "Feature", "properties": { "value": 0.0021 }, "geometry": { "type": "Point", "coordinates": [ 129.291153, 35.442837, 115.0 ] } },
{ "type": "Feature", "properties": { "value": 0.0145 }, "geometry": { "type": "Point", "coordinates": [ 129.292252, 35.442837, 115.0 ] } },
{ "type": "Feature", "properties": { "value": 0.007 }, "geometry": { "type": "Point", "coordinates": [ 129.29335, 35.442833, 115.0 ] } },
{ "type": "Feature", "properties": { "value": 0.0001 }, "geometry": { "type": "Point", "coordinates": [ 129.294464, 35.442829, 115.0 ] } },
{ "type": "Feature", "properties": { "value": 0.0012 }, "geometry": { "type": "Point", "coordinates": [ 129.290054, 35.443741, 115.0 ] } },
{ "type": "Feature", "properties": { "value": 0.0494 }, "geometry": { "type": "Point", "coordinates": [ 129.291153, 35.443741, 115.0 ] } },
{ "type": "Feature", "properties": { "value": 0.149 }, "geometry": { "type": "Point", "coordinates": [ 129.292252, 35.443737, 115.0 ] } },
{ "type": "Feature", "properties": { "value": 0.0515 }, "geometry": { "type": "Point", "coordinates": [ 129.293365, 35.443733, 115.0 ] } },
{ "type": "Feature", "properties": { "value": 0.001 }, "geometry": { "type": "Point", "coordinates": [ 129.294464, 35.443733, 115.0 ] } },
{ "type": "Feature", "properties": { "value": 0.0213 }, "geometry": { "type": "Point", "coordinates": [ 129.290054, 35.444645, 115.0 ] } },
{ "type": "Feature", "properties": { "value": 0.2461 }, "geometry": { "type": "Point", "coordinates": [ 129.291153, 35.444641, 115.0 ] } },
{ "type": "Feature", "properties": { "value": 0.3965 }, "geometry": { "type": "Point", "coordinates": [ 129.292267, 35.444637, 115.0 ] } },
{ "type": "Feature", "properties": { "value": 0.0954 }, "geometry": { "type": "Point", "coordinates": [ 129.293365, 35.444637, 115.0 ] } },
{ "type": "Feature", "properties": { "value": 0.0013 }, "geometry": { "type": "Point", "coordinates": [ 129.294464, 35.444633, 115.0 ] } },
{ "type": "Feature", "properties": { "value": 0.0046 }, "geometry": { "type": "Point", "coordinates": [ 129.288956, 35.445549, 115.0 ] } },
{ "type": "Feature", "properties": { "value": 0.1553 }, "geometry": { "type": "Point", "coordinates": [ 129.290054, 35.445545, 115.0 ] } },
{ "type": "Feature", "properties": { "value": 0.7036 }, "geometry": { "type": "Point", "coordinates": [ 129.291168, 35.445541, 115.0 ] } },
{ "type": "Feature", "properties": { "value": 0.5711 }, "geometry": { "type": "Point", "coordinates": [ 129.292267, 35.445541, 115.0 ] } },
{ "type": "Feature", "properties": { "value": 0.068 }, "geometry": { "type": "Point", "coordinates": [ 129.293365, 35.445538, 115.0 ] } },
{ "type": "Feature", "properties": { "value": 0.0349 }, "geometry": { "type": "Point", "coordinates": [ 129.288956, 35.446449, 115.0 ] } },
{ "type": "Feature", "properties": { "value": 0.503 }, "geometry": { "type": "Point", "coordinates": [ 129.29007, 35.446445, 115.0 ] } },
{ "type": "Feature", "properties": { "value": 1.274 }, "geometry": { "type": "Point", "coordinates": [ 129.291168, 35.446442, 115.0 ] } },
{ "type": "Feature", "properties": { "value": 0.631 }, "geometry": { "type": "Point", "coordinates": [ 129.292267, 35.446442, 115.0 ] } },
{ "type": "Feature", "properties": { "value": 0.0458 }, "geometry": { "type": "Point", "coordinates": [ 129.293365, 35.446438, 115.0 ] } },
{ "type": "Feature", "properties": { "value": 0.0017 }, "geometry": { "type": "Point", "coordinates": [ 129.287872, 35.447353, 115.0 ] } },
{ "type": "Feature", "properties": { "value": 0.1438 }, "geometry": { "type": "Point", "coordinates": [ 129.288971, 35.44735, 115.0 ] } },
{ "type": "Feature", "properties": { "value": 0.959 }, "geometry": { "type": "Point", "coordinates": [ 129.29007, 35.447346, 115.0 ] } },
{ "type": "Feature", "properties": { "value": 1.3687 }, "geometry": { "type": "Point", "coordinates": [ 129.291168, 35.447346, 115.0 ] } },
{ "type": "Feature", "properties": { "value": 0.4064 }, "geometry": { "type": "Point", "coordinates": [ 129.292267, 35.447342, 115.0 ] } },
{ "type": "Feature", "properties": { "value": 0.0182 }, "geometry": { "type": "Point", "coordinates": [ 129.293365, 35.447338, 115.0 ] } },
{ "type": "Feature", "properties": { "value": 0.0356 }, "geometry": { "type": "Point", "coordinates": [ 129.287872, 35.448254, 115.0 ] } },
{ "type": "Feature", "properties": { "value": 0.4893 }, "geometry": { "type": "Point", "coordinates": [ 129.288971, 35.44825, 115.0 ] } },
{ "type": "Feature", "properties": { "value": 1.4729 }, "geometry": { "type": "Point", "coordinates": [ 129.29007, 35.44825, 115.0 ] } },
{ "type": "Feature", "properties": { "value": 1.0999 }, "geometry": { "type": "Point", "coordinates": [ 129.291168, 35.448246, 115.0 ] } },
{ "type": "Feature", "properties": { "value": 0.1788 }, "geometry": { "type": "Point", "coordinates": [ 129.292267, 35.448242, 115.0 ] } },
{ "type": "Feature", "properties": { "value": 0.0031 }, "geometry": { "type": "Point", "coordinates": [ 129.293381, 35.448242, 115.0 ] } },
{ "type": "Feature", "properties": { "value": 0.2297 }, "geometry": { "type": "Point", "coordinates": [ 129.287872, 35.449154, 115.0 ] } },
{ "type": "Feature", "properties": { "value": 1.4867 }, "geometry": { "type": "Point", "coordinates": [ 129.288971, 35.449154, 115.0 ] } },
{ "type": "Feature", "properties": { "value": 2.3126 }, "geometry": { "type": "Point", "coordinates": [ 129.29007, 35.44915, 115.0 ] } },
{ "type": "Feature", "properties": { "value": 0.9196 }, "geometry": { "type": "Point", "coordinates": [ 129.291168, 35.449146, 115.0 ] } },
{ "type": "Feature", "properties": { "value": 0.0777 }, "geometry": { "type": "Point", "coordinates": [ 129.292282, 35.449146, 115.0 ] } },
{ "type": "Feature", "properties": { "value": 0.0316 }, "geometry": { "type": "Point", "coordinates": [ 129.286774, 35.450058, 115.0 ] } },
{ "type": "Feature", "properties": { "value": 0.8563 }, "geometry": { "type": "Point", "coordinates": [ 129.287872, 35.450058, 115.0 ] } },
{ "type": "Feature", "properties": { "value": 3.8923 }, "geometry": { "type": "Point", "coordinates": [ 129.288971, 35.450054, 115.0 ] } },
{ "type": "Feature", "properties": { "value": 4.2129 }, "geometry": { "type": "Point", "coordinates": [ 129.290085, 35.45005, 115.0 ] } },
{ "type": "Feature", "properties": { "value": 1.1116 }, "geometry": { "type": "Point", "coordinates": [ 129.291183, 35.45005, 115.0 ] } },
{ "type": "Feature", "properties": { "value": 0.0528 }, "geometry": { "type": "Point", "coordinates": [ 129.292282, 35.450047, 115.0 ] } },
{ "type": "Feature", "properties": { "value": 0.1103 }, "geometry": { "type": "Point", "coordinates": [ 129.286774, 35.450962, 115.0 ] } },
{ "type": "Feature", "properties": { "value": 2.0314 }, "geometry": { "type": "Point", "coordinates": [ 129.287872, 35.450958, 115.0 ] } },
{ "type": "Feature", "properties": { "value": 7.9407 }, "geometry": { "type": "Point", "coordinates": [ 129.288986, 35.450954, 115.0 ] } },
{ "type": "Feature", "properties": { "value": 8.0041 }, "geometry": { "type": "Point", "coordinates": [ 129.290085, 35.450954, 115.0 ] } },
{ "type": "Feature", "properties": { "value": 2.0483 }, "geometry": { "type": "Point", "coordinates": [ 129.291183, 35.450951, 115.0 ] } },
{ "type": "Feature", "properties": { "value": 0.1073 }, "geometry": { "type": "Point", "coordinates": [ 129.292282, 35.450947, 115.0 ] } },
{ "type": "Feature", "properties": { "value": 0.2011 }, "geometry": { "type": "Point", "coordinates": [ 129.286774, 35.451862, 115.0 ] } },
{ "type": "Feature", "properties": { "value": 3.3839 }, "geometry": { "type": "Point", "coordinates": [ 129.287888, 35.451859, 115.0 ] } },
{ "type": "Feature", "properties": { "value": 12.756 }, "geometry": { "type": "Point", "coordinates": [ 129.288986, 35.451855, 115.0 ] } },
{ "type": "Feature", "properties": { "value": 13.052 }, "geometry": { "type": "Point", "coordinates": [ 129.290085, 35.451855, 115.0 ] } },
{ "type": "Feature", "properties": { "value": 3.6783 }, "geometry": { "type": "Point", "coordinates": [ 129.291183, 35.451851, 115.0 ] } },
{ "type": "Feature", "properties": { "value": 0.2472 }, "geometry": { "type": "Point", "coordinates": [ 129.292282, 35.451847, 115.0 ] } },
{ "type": "Feature", "properties": { "value": 0.3187 }, "geometry": { "type": "Point", "coordinates": [ 129.286789, 35.452763, 115.0 ] } },
{ "type": "Feature", "properties": { "value": 4.5032 }, "geometry": { "type": "Point", "coordinates": [ 129.287888, 35.452759, 115.0 ] } },
{ "type": "Feature", "properties": { "value": 16.257 }, "geometry": { "type": "Point", "coordinates": [ 129.288986, 35.452759, 115.0 ] } },
{ "type": "Feature", "properties": { "value": 17.068 }, "geometry": { "type": "Point", "coordinates": [ 129.290085, 35.452755, 115.0 ] } },
{ "type": "Feature", "properties": { "value": 5.2467 }, "geometry": { "type": "Point", "coordinates": [ 129.291183, 35.452751, 115.0 ] } },
{ "type": "Feature", "properties": { "value": 0.4269 }, "geometry": { "type": "Point", "coordinates": [ 129.292297, 35.452751, 115.0 ] } },
{ "type": "Feature", "properties": { "value": 0.4482 }, "geometry": { "type": "Point", "coordinates": [ 129.286789, 35.453663, 115.0 ] } },
{ "type": "Feature", "properties": { "value": 5.2226 }, "geometry": { "type": "Point", "coordinates": [ 129.287888, 35.453663, 115.0 ] } },
{ "type": "Feature", "properties": { "value": 17.294 }, "geometry": { "type": "Point", "coordinates": [ 129.288986, 35.453659, 115.0 ] } },
{ "type": "Feature", "properties": { "value": 17.86 }, "geometry": { "type": "Point", "coordinates": [ 129.290085, 35.453655, 115.0 ] } },
{ "type": "Feature", "properties": { "value": 5.7259 }, "geometry": { "type": "Point", "coordinates": [ 129.291199, 35.453655, 115.0 ] } },
{ "type": "Feature", "properties": { "value": 0.5155 }, "geometry": { "type": "Point", "coordinates": [ 129.292297, 35.453651, 115.0 ] } },
{ "type": "Feature", "properties": { "value": 0.6606 }, "geometry": { "type": "Point", "coordinates": [ 129.286789, 35.454567, 115.0 ] } },
{ "type": "Feature", "properties": { "value": 5.7795 }, "geometry": { "type": "Point", "coordinates": [ 129.287888, 35.454563, 115.0 ] } },
{ "type": "Feature", "properties": { "value": 16.548 }, "geometry": { "type": "Point", "coordinates": [ 129.288986, 35.454559, 115.0 ] } },
{ "type": "Feature", "properties": { "value": 15.932 }, "geometry": { "type": "Point", "coordinates": [ 129.2901, 35.454559, 115.0 ] } },
{ "type": "Feature", "properties": { "value": 5.0524 }, "geometry": { "type": "Point", "coordinates": [ 129.291199, 35.454556, 115.0 ] } },
{ "type": "Feature", "properties": { "value": 0.4696 }, "geometry": { "type": "Point", "coordinates": [ 129.292297, 35.454552, 115.0 ] } },
{ "type": "Feature", "properties": { "value": 1.0855 }, "geometry": { "type": "Point", "coordinates": [ 129.286789, 35.455467, 115.0 ] } },
{ "type": "Feature", "properties": { "value": 6.7757 }, "geometry": { "type": "Point", "coordinates": [ 129.287888, 35.455463, 115.0 ] } },
{ "type": "Feature", "properties": { "value": 15.588 }, "geometry": { "type": "Point", "coordinates": [ 129.289001, 35.455463, 115.0 ] } },
{ "type": "Feature", "properties": { "value": 13.227 }, "geometry": { "type": "Point", "coordinates": [ 129.2901, 35.45546, 115.0 ] } },
{ "type": "Feature", "properties": { "value": 3.965 }, "geometry": { "type": "Point", "coordinates": [ 129.291199, 35.455456, 115.0 ] } },
{ "type": "Feature", "properties": { "value": 0.3719 }, "geometry": { "type": "Point", "coordinates": [ 129.292297, 35.455452, 115.0 ] } },
{ "type": "Feature", "properties": { "value": 0.1491 }, "geometry": { "type": "Point", "coordinates": [ 129.28569, 35.456371, 115.0 ] } },
{ "type": "Feature", "properties": { "value": 1.909 }, "geometry": { "type": "Point", "coordinates": [ 129.286789, 35.456367, 115.0 ] } },
{ "type": "Feature", "properties": { "value": 8.5924 }, "geometry": { "type": "Point", "coordinates": [ 129.287903, 35.456367, 115.0 ] } },
{ "type": "Feature", "properties": { "value": 15.564 }, "geometry": { "type": "Point", "coordinates": [ 129.289001, 35.456364, 115.0 ] } },
{ "type": "Feature", "properties": { "value": 11.175 }, "geometry": { "type": "Point", "coordinates": [ 129.2901, 35.45636, 115.0 ] } },
{ "type": "Feature", "properties": { "value": 3.029 }, "geometry": { "type": "Point", "coordinates": [ 129.291199, 35.456356, 115.0 ] } },
{ "type": "Feature", "properties": { "value": 0.2609 }, "geometry": { "type": "Point", "coordinates": [ 129.292297, 35.456356, 115.0 ] } },
{ "type": "Feature", "properties": { "value": 0.3554 }, "geometry": { "type": "Point", "coordinates": [ 129.28569, 35.457272, 115.0 ] } },
{ "type": "Feature", "properties": { "value": 3.0728 }, "geometry": { "type": "Point", "coordinates": [ 129.286804, 35.457268, 115.0 ] } },
{ "type": "Feature", "properties": { "value": 10.672 }, "geometry": { "type": "Point", "coordinates": [ 129.287903, 35.457268, 115.0 ] } },
{ "type": "Feature", "properties": { "value": 15.667 }, "geometry": { "type": "Point", "coordinates": [ 129.289001, 35.457264, 115.0 ] } },
{ "type": "Feature", "properties": { "value": 9.5569 }, "geometry": { "type": "Point", "coordinates": [ 129.2901, 35.45726, 115.0 ] } },
{ "type": "Feature", "properties": { "value": 2.3168 }, "geometry": { "type": "Point", "coordinates": [ 129.291199, 35.45726, 115.0 ] } },
{ "type": "Feature", "properties": { "value": 0.185 }, "geometry": { "type": "Point", "coordinates": [ 129.292313, 35.457256, 115.0 ] } },
{ "type": "Feature", "properties": { "value": 0.749 }, "geometry": { "type": "Point", "coordinates": [ 129.285706, 35.458172, 115.0 ] } },
{ "type": "Feature", "properties": { "value": 4.6024 }, "geometry": { "type": "Point", "coordinates": [ 129.286804, 35.458172, 115.0 ] } },
{ "type": "Feature", "properties": { "value": 12.46 }, "geometry": { "type": "Point", "coordinates": [ 129.287903, 35.458168, 115.0 ] } },
{ "type": "Feature", "properties": { "value": 15.019 }, "geometry": { "type": "Point", "coordinates": [ 129.289001, 35.458164, 115.0 ] } },
{ "type": "Feature", "properties": { "value": 7.8523 }, "geometry": { "type": "Point", "coordinates": [ 129.2901, 35.458164, 115.0 ] } },
{ "type": "Feature", "properties": { "value": 1.6992 }, "geometry": { "type": "Point", "coordinates": [ 129.291214, 35.45816, 115.0 ] } },
{ "type": "Feature", "properties": { "value": 0.1132 }, "geometry": { "type": "Point", "coordinates": [ 129.292313, 35.458157, 115.0 ] } },
{ "type": "Feature", "properties": { "value": 0.1471 }, "geometry": { "type": "Point", "coordinates": [ 129.284607, 35.459076, 115.0 ] } },
{ "type": "Feature", "properties": { "value": 1.5494 }, "geometry": { "type": "Point", "coordinates": [ 129.285706, 35.459076, 115.0 ] } },
{ "type": "Feature", "properties": { "value": 6.6409 }, "geometry": { "type": "Point", "coordinates": [ 129.286804, 35.459072, 115.0 ] } },
{ "type": "Feature", "properties": { "value": 13.906 }, "geometry": { "type": "Point", "coordinates": [ 129.287903, 35.459068, 115.0 ] } },
{ "type": "Feature", "properties": { "value": 13.708 }, "geometry": { "type": "Point", "coordinates": [ 129.289001, 35.459068, 115.0 ] } },
{ "type": "Feature", "properties": { "value": 6.1313 }, "geometry": { "type": "Point", "coordinates": [ 129.290115, 35.459064, 115.0 ] } },
{ "type": "Feature", "properties": { "value": 1.172 }, "geometry": { "type": "Point", "coordinates": [ 129.291214, 35.459061, 115.0 ] } },
{ "type": "Feature", "properties": { "value": 0.0437 }, "geometry": { "type": "Point", "coordinates": [ 129.292313, 35.459061, 115.0 ] } },
{ "type": "Feature", "properties": { "value": 0.5809 }, "geometry": { "type": "Point", "coordinates": [ 129.284607, 35.45998, 115.0 ] } },
{ "type": "Feature", "properties": { "value": 3.1337 }, "geometry": { "type": "Point", "coordinates": [ 129.285706, 35.459976, 115.0 ] } },
{ "type": "Feature", "properties": { "value": 9.3055 }, "geometry": { "type": "Point", "coordinates": [ 129.286804, 35.459972, 115.0 ] } },
{ "type": "Feature", "properties": { "value": 14.676 }, "geometry": { "type": "Point", "coordinates": [ 129.287903, 35.459972, 115.0 ] } },
{ "type": "Feature", "properties": { "value": 11.622 }, "geometry": { "type": "Point", "coordinates": [ 129.289017, 35.459969, 115.0 ] } },
{ "type": "Feature", "properties": { "value": 4.3955 }, "geometry": { "type": "Point", "coordinates": [ 129.290115, 35.459965, 115.0 ] } },
{ "type": "Feature", "properties": { "value": 0.7355 }, "geometry": { "type": "Point", "coordinates": [ 129.291214, 35.459965, 115.0 ] } },
{ "type": "Feature", "properties": { "value": 0.2543 }, "geometry": { "type": "Point", "coordinates": [ 129.283508, 35.460884, 115.0 ] } },
{ "type": "Feature", "properties": { "value": 1.7125 }, "geometry": { "type": "Point", "coordinates": [ 129.284607, 35.46088, 115.0 ] } },
{ "type": "Feature", "properties": { "value": 6.1006 }, "geometry": { "type": "Point", "coordinates": [ 129.285706, 35.460876, 115.0 ] } },
{ "type": "Feature", "properties": { "value": 12.573 }, "geometry": { "type": "Point", "coordinates": [ 129.286804, 35.460876, 115.0 ] } },
{ "type": "Feature", "properties": { "value": 14.555 }, "geometry": { "type": "Point", "coordinates": [ 129.287918, 35.460873, 115.0 ] } },
{ "type": "Feature", "properties": { "value": 8.9926 }, "geometry": { "type": "Point", "coordinates": [ 129.289017, 35.460869, 115.0 ] } },
{ "type": "Feature", "properties": { "value": 2.7815 }, "geometry": { "type": "Point", "coordinates": [ 129.290115, 35.460865, 115.0 ] } },
{ "type": "Feature", "properties": { "value": 0.3889 }, "geometry": { "type": "Point", "coordinates": [ 129.291214, 35.460865, 115.0 ] } },
{ "type": "Feature", "properties": { "value": 0.0016 }, "geometry": { "type": "Point", "coordinates": [ 129.327576, 35.46077, 115.0 ] } },
{ "type": "Feature", "properties": { "value": 0.1441 }, "geometry": { "type": "Point", "coordinates": [ 129.28241, 35.461788, 115.0 ] } },
{ "type": "Feature", "properties": { "value": 1.1089 }, "geometry": { "type": "Point", "coordinates": [ 129.283508, 35.461784, 115.0 ] } },
{ "type": "Feature", "properties": { "value": 4.3242 }, "geometry": { "type": "Point", "coordinates": [ 129.284607, 35.461781, 115.0 ] } },
{ "type": "Feature", "properties": { "value": 10.723 }, "geometry": { "type": "Point", "coordinates": [ 129.285706, 35.461781, 115.0 ] } },
{ "type": "Feature", "properties": { "value": 15.881 }, "geometry": { "type": "Point", "coordinates": [ 129.286819, 35.461777, 115.0 ] } },
{ "type": "Feature", "properties": { "value": 13.522 }, "geometry": { "type": "Point", "coordinates": [ 129.287918, 35.461773, 115.0 ] } },
{ "type": "Feature", "properties": { "value": 6.3593 }, "geometry": { "type": "Point", "coordinates": [ 129.289017, 35.461769, 115.0 ] } },
{ "type": "Feature", "properties": { "value": 1.5641 }, "geometry": { "type": "Point", "coordinates": [ 129.290115, 35.461769, 115.0 ] } },
{ "type": "Feature", "properties": { "value": 0.1638 }, "geometry": { "type": "Point", "coordinates": [ 129.291214, 35.461765, 115.0 ] } },
{ "type": "Feature", "properties": { "value": 0.0301 }, "geometry": { "type": "Point", "coordinates": [ 129.327576, 35.461674, 115.0 ] } },
{ "type": "Feature", "properties": { "value": 0.0168 }, "geometry": { "type": "Point", "coordinates": [ 129.279114, 35.462696, 115.0 ] } },
{ "type": "Feature", "properties": { "value": 0.0648 }, "geometry": { "type": "Point", "coordinates": [ 129.280212, 35.462692, 115.0 ] } },
{ "type": "Feature", "properties": { "value": 0.3604 }, "geometry": { "type": "Point", "coordinates": [ 129.281311, 35.462688, 115.0 ] } },
{ "type": "Feature", "properties": { "value": 1.1929 }, "geometry": { "type": "Point", "coordinates": [ 129.28241, 35.462688, 115.0 ] } },
{ "type": "Feature", "properties": { "value": 3.5476 }, "geometry": { "type": "Point", "coordinates": [ 129.283508, 35.462685, 115.0 ] } },
{ "type": "Feature", "properties": { "value": 8.8342 }, "geometry": { "type": "Point", "coordinates": [ 129.284607, 35.462681, 115.0 ] } },
{ "type": "Feature", "properties": { "value": 15.555 }, "geometry": { "type": "Point", "coordinates": [ 129.285721, 35.462681, 115.0 ] } },
{ "type": "Feature", "properties": { "value": 17.197 }, "geometry": { "type": "Point", "coordinates": [ 129.286819, 35.462677, 115.0 ] } },
{ "type": "Feature", "properties": { "value": 11.126 }, "geometry": { "type": "Point", "coordinates": [ 129.287918, 35.462673, 115.0 ] } },
{ "type": "Feature", "properties": { "value": 4.0246 }, "geometry": { "type": "Point", "coordinates": [ 129.289017, 35.462673, 115.0 ] } },
{ "type": "Feature", "properties": { "value": 0.7612 }, "geometry": { "type": "Point", "coordinates": [ 129.290115, 35.462669, 115.0 ] } },
{ "type": "Feature", "properties": { "value": 0.0646 }, "geometry": { "type": "Point", "coordinates": [ 129.327576, 35.462574, 115.0 ] } },
{ "type": "Feature", "properties": { "value": 0.0486 }, "geometry": { "type": "Point", "coordinates": [ 129.278015, 35.4636, 115.0 ] } },
{ "type": "Feature", "properties": { "value": 0.2006 }, "geometry": { "type": "Point", "coordinates": [ 129.279114, 35.463596, 115.0 ] } },
{ "type": "Feature", "properties": { "value": 0.7014 }, "geometry": { "type": "Point", "coordinates": [ 129.280212, 35.463593, 115.0 ] } },
{ "type": "Feature", "properties": { "value": 1.8227 }, "geometry": { "type": "Point", "coordinates": [ 129.281311, 35.463593, 115.0 ] } },
{ "type": "Feature", "properties": { "value": 4.2411 }, "geometry": { "type": "Point", "coordinates": [ 129.28241, 35.463589, 115.0 ] } },
{ "type": "Feature", "properties": { "value": 8.6298 }, "geometry": { "type": "Point", "coordinates": [ 129.283524, 35.463585, 115.0 ] } },
{ "type": "Feature", "properties": { "value": 14.381 }, "geometry": { "type": "Point", "coordinates": [ 129.284622, 35.463585, 115.0 ] } },
{ "type": "Feature", "properties": { "value": 17.826 }, "geometry": { "type": "Point", "coordinates": [ 129.285721, 35.463581, 115.0 ] } },
{ "type": "Feature", "properties": { "value": 14.722 }, "geometry": { "type": "Point", "coordinates": [ 129.286819, 35.463577, 115.0 ] } },
{ "type": "Feature", "properties": { "value": 7.3805 }, "geometry": { "type": "Point", "coordinates": [ 129.287918, 35.463577, 115.0 ] } },
{ "type": "Feature", "properties": { "value": 2.0968 }, "geometry": { "type": "Point", "coordinates": [ 129.289017, 35.463573, 115.0 ] } },
{ "type": "Feature", "properties": { "value": 0.2989 }, "geometry": { "type": "Point", "coordinates": [ 129.290131, 35.46357, 115.0 ] } },
{ "type": "Feature", "properties": { "value": 0.1136 }, "geometry": { "type": "Point", "coordinates": [ 129.327576, 35.463474, 115.0 ] } },
{ "type": "Feature", "properties": { "value": 0.0063 }, "geometry": { "type": "Point", "coordinates": [ 129.32869, 35.46347, 115.0 ] } },
{ "type": "Feature", "properties": { "value": 0.0198 }, "geometry": { "type": "Point", "coordinates": [ 129.276917, 35.464504, 115.0 ] } },
{ "type": "Feature", "properties": { "value": 0.1732 }, "geometry": { "type": "Point", "coordinates": [ 129.278015, 35.4645, 115.0 ] } },
{ "type": "Feature", "properties": { "value": 0.7644 }, "geometry": { "type": "Point", "coordinates": [ 129.279114, 35.464497, 115.0 ] } },
{ "type": "Feature", "properties": { "value": 2.2849 }, "geometry": { "type": "Point", "coordinates": [ 129.280212, 35.464497, 115.0 ] } },
{ "type": "Feature", "properties": { "value": 5.1881 }, "geometry": { "type": "Point", "coordinates": [ 129.281311, 35.464493, 115.0 ] } },
{ "type": "Feature", "properties": { "value": 9.7369 }, "geometry": { "type": "Point", "coordinates": [ 129.282425, 35.464489, 115.0 ] } },
{ "type": "Feature", "properties": { "value": 14.945 }, "geometry": { "type": "Point", "coordinates": [ 129.283524, 35.464489, 115.0 ] } },
{ "type": "Feature", "properties": { "value": 17.899 }, "geometry": { "type": "Point", "coordinates": [ 129.284622, 35.464485, 115.0 ] } },
{ "type": "Feature", "properties": { "value": 15.838 }, "geometry": { "type": "Point", "coordinates": [ 129.285721, 35.464481, 115.0 ] } },
{ "type": "Feature", "properties": { "value": 9.6418 }, "geometry": { "type": "Point", "coordinates": [ 129.286819, 35.464481, 115.0 ] } },
{ "type": "Feature", "properties": { "value": 3.7106 }, "geometry": { "type": "Point", "coordinates": [ 129.287933, 35.464478, 115.0 ] } },
{ "type": "Feature", "properties": { "value": 0.827 }, "geometry": { "type": "Point", "coordinates": [ 129.289032, 35.464474, 115.0 ] } },
{ "type": "Feature", "properties": { "value": 0.0191 }, "geometry": { "type": "Point", "coordinates": [ 129.290131, 35.464474, 115.0 ] } },
{ "type": "Feature", "properties": { "value": 0.2395 }, "geometry": { "type": "Point", "coordinates": [ 129.327591, 35.464375, 115.0 ] } },
{ "type": "Feature", "properties": { "value": 0.0241 }, "geometry": { "type": "Point", "coordinates": [ 129.32869, 35.464375, 115.0 ] } },
{ "type": "Feature", "properties": { "value": 0.0589 }, "geometry": { "type": "Point", "coordinates": [ 129.276917, 35.465405, 115.0 ] } },
{ "type": "Feature", "properties": { "value": 0.3717 }, "geometry": { "type": "Point", "coordinates": [ 129.278015, 35.465401, 115.0 ] } },
{ "type": "Feature", "properties": { "value": 1.5554 }, "geometry": { "type": "Point", "coordinates": [ 129.279114, 35.465401, 115.0 ] } },
{ "type": "Feature", "properties": { "value": 4.3094 }, "geometry": { "type": "Point", "coordinates": [ 129.280212, 35.465397, 115.0 ] } },
{ "type": "Feature", "properties": { "value": 8.8277 }, "geometry": { "type": "Point", "coordinates": [ 129.281326, 35.465393, 115.0 ] } },
{ "type": "Feature", "properties": { "value": 14.062 }, "geometry": { "type": "Point", "coordinates": [ 129.282425, 35.465393, 115.0 ] } },
{ "type": "Feature", "properties": { "value": 17.397 }, "geometry": { "type": "Point", "coordinates": [ 129.283524, 35.465389, 115.0 ] } },
{ "type": "Feature", "properties": { "value": 16.061 }, "geometry": { "type": "Point", "coordinates": [ 129.284622, 35.465385, 115.0 ] } },
{ "type": "Feature", "properties": { "value": 10.609 }, "geometry": { "type": "Point", "coordinates": [ 129.285721, 35.465385, 115.0 ] } },
{ "type": "Feature", "properties": { "value": 4.7901 }, "geometry": { "type": "Point", "coordinates": [ 129.286835, 35.465382, 115.0 ] } },
{ "type": "Feature", "properties": { "value": 1.3764 }, "geometry": { "type": "Point", "coordinates": [ 129.287933, 35.465378, 115.0 ] } },
{ "type": "Feature", "properties": { "value": 0.2027 }, "geometry": { "type": "Point", "coordinates": [ 129.289032, 35.465378, 115.0 ] } },
{ "type": "Feature", "properties": { "value": 0.844 }, "geometry": { "type": "Point", "coordinates": [ 129.327591, 35.465279, 115.0 ] } },
{ "type": "Feature", "properties": { "value": 0.2141 }, "geometry": { "type": "Point", "coordinates": [ 129.32869, 35.465275, 115.0 ] } },
{ "type": "Feature", "properties": { "value": 0.0725 }, "geometry": { "type": "Point", "coordinates": [ 129.276917, 35.466305, 115.0 ] } },
{ "type": "Feature", "properties": { "value": 0.4537 }, "geometry": { "type": "Point", "coordinates": [ 129.278015, 35.466305, 115.0 ] } },
{ "type": "Feature", "properties": { "value": 1.8413 }, "geometry": { "type": "Point", "coordinates": [ 129.279114, 35.466301, 115.0 ] } },
{ "type": "Feature", "properties": { "value": 4.8336 }, "geometry": { "type": "Point", "coordinates": [ 129.280228, 35.466297, 115.0 ] } },
{ "type": "Feature", "properties": { "value": 9.0138 }, "geometry": { "type": "Point", "coordinates": [ 129.281326, 35.466297, 115.0 ] } },
{ "type": "Feature", "properties": { "value": 12.601 }, "geometry": { "type": "Point", "coordinates": [ 129.282425, 35.466293, 115.0 ] } },
{ "type": "Feature", "properties": { "value": 13.124 }, "geometry": { "type": "Point", "coordinates": [ 129.283524, 35.46629, 115.0 ] } },
{ "type": "Feature", "properties": { "value": 9.8666 }, "geometry": { "type": "Point", "coordinates": [ 129.284622, 35.46629, 115.0 ] } },
{ "type": "Feature", "properties": { "value": 5.1239 }, "geometry": { "type": "Point", "coordinates": [ 129.285736, 35.466286, 115.0 ] } },
{ "type": "Feature", "properties": { "value": 1.7559 }, "geometry": { "type": "Point", "coordinates": [ 129.286835, 35.466282, 115.0 ] } },
{ "type": "Feature", "properties": { "value": 0.3529 }, "geometry": { "type": "Point", "coordinates": [ 129.287933, 35.466278, 115.0 ] } },
{ "type": "Feature", "properties": { "value": 2.7288 }, "geometry": { "type": "Point", "coordinates": [ 129.327591, 35.466179, 115.0 ] } },
{ "type": "Feature", "properties": { "value": 1.4571 }, "geometry": { "type": "Point", "coordinates": [ 129.32869, 35.466175, 115.0 ] } },
{ "type": "Feature", "properties": { "value": 0.0524 }, "geometry": { "type": "Point", "coordinates": [ 129.276917, 35.467209, 115.0 ] } },
{ "type": "Feature", "properties": { "value": 0.3254 }, "geometry": { "type": "Point", "coordinates": [ 129.278015, 35.467205, 115.0 ] } },
{ "type": "Feature", "properties": { "value": 1.2811 }, "geometry": { "type": "Point", "coordinates": [ 129.279129, 35.467201, 115.0 ] } },
{ "type": "Feature", "properties": { "value": 3.2125 }, "geometry": { "type": "Point", "coordinates": [ 129.280228, 35.467201, 115.0 ] } },
{ "type": "Feature", "properties": { "value": 5.5184 }, "geometry": { "type": "Point", "coordinates": [ 129.281326, 35.467197, 115.0 ] } },
{ "type": "Feature", "properties": { "value": 6.901 }, "geometry": { "type": "Point", "coordinates": [ 129.282425, 35.467194, 115.0 ] } },
{ "type": "Feature", "properties": { "value": 6.2474 }, "geometry": { "type": "Point", "coordinates": [ 129.283524, 35.46719, 115.0 ] } },
{ "type": "Feature", "properties": { "value": 3.9831 }, "geometry": { "type": "Point", "coordinates": [ 129.284637, 35.46719, 115.0 ] } },
{ "type": "Feature", "properties": { "value": 1.7012 }, "geometry": { "type": "Point", "coordinates": [ 129.285736, 35.467186, 115.0 ] } },
{ "type": "Feature", "properties": { "value": 0.4615 }, "geometry": { "type": "Point", "coordinates": [ 129.286835, 35.467182, 115.0 ] } },
{ "type": "Feature", "properties": { "value": 5.8354 }, "geometry": { "type": "Point", "coordinates": [ 129.327591, 35.467079, 115.0 ] } },
{ "type": "Feature", "properties": { "value": 4.1716 }, "geometry": { "type": "Point", "coordinates": [ 129.328705, 35.467075, 115.0 ] } },
{ "type": "Feature", "properties": { "value": 0.0169 }, "geometry": { "type": "Point", "coordinates": [ 129.276917, 35.468109, 115.0 ] } },
{ "type": "Feature", "properties": { "value": 0.1346 }, "geometry": { "type": "Point", "coordinates": [ 129.27803, 35.468105, 115.0 ] } },
{ "type": "Feature", "properties": { "value": 0.5139 }, "geometry": { "type": "Point", "coordinates": [ 129.279129, 35.468102, 115.0 ] } },
{ "type": "Feature", "properties": { "value": 1.2618 }, "geometry": { "type": "Point", "coordinates": [ 129.280228, 35.468102, 115.0 ] } },
{ "type": "Feature", "properties": { "value": 2.0274 }, "geometry": { "type": "Point", "coordinates": [ 129.281326, 35.468098, 115.0 ] } },
{ "type": "Feature", "properties": { "value": 2.2747 }, "geometry": { "type": "Point", "coordinates": [ 129.282425, 35.468094, 115.0 ] } },
{ "type": "Feature", "properties": { "value": 1.8262 }, "geometry": { "type": "Point", "coordinates": [ 129.283539, 35.468094, 115.0 ] } },
{ "type": "Feature", "properties": { "value": 1.0078 }, "geometry": { "type": "Point", "coordinates": [ 129.284637, 35.46809, 115.0 ] } },
{ "type": "Feature", "properties": { "value": 0.3539 }, "geometry": { "type": "Point", "coordinates": [ 129.285736, 35.468086, 115.0 ] } },
{ "type": "Feature", "properties": { "value": 0.0173 }, "geometry": { "type": "Point", "coordinates": [ 129.286835, 35.468086, 115.0 ] } },
{ "type": "Feature", "properties": { "value": 9.9739 }, "geometry": { "type": "Point", "coordinates": [ 129.327606, 35.467983, 115.0 ] } },
{ "type": "Feature", "properties": { "value": 7.9768 }, "geometry": { "type": "Point", "coordinates": [ 129.328705, 35.467979, 115.0 ] } },
{ "type": "Feature", "properties": { "value": 0.0243 }, "geometry": { "type": "Point", "coordinates": [ 129.27803, 35.469006, 115.0 ] } },
{ "type": "Feature", "properties": { "value": 0.1198 }, "geometry": { "type": "Point", "coordinates": [ 129.279129, 35.469006, 115.0 ] } },
{ "type": "Feature", "properties": { "value": 0.2814 }, "geometry": { "type": "Point", "coordinates": [ 129.280228, 35.469002, 115.0 ] } },
{ "type": "Feature", "properties": { "value": 0.437 }, "geometry": { "type": "Point", "coordinates": [ 129.281326, 35.468998, 115.0 ] } },
{ "type": "Feature", "properties": { "value": 0.434 }, "geometry": { "type": "Point", "coordinates": [ 129.28244, 35.468998, 115.0 ] } },
{ "type": "Feature", "properties": { "value": 0.3184 }, "geometry": { "type": "Point", "coordinates": [ 129.283539, 35.468994, 115.0 ] } },
{ "type": "Feature", "properties": { "value": 0.1292 }, "geometry": { "type": "Point", "coordinates": [ 129.284637, 35.46899, 115.0 ] } },
{ "type": "Feature", "properties": { "value": 13.169 }, "geometry": { "type": "Point", "coordinates": [ 129.327606, 35.468884, 115.0 ] } },
{ "type": "Feature", "properties": { "value": 11.118 }, "geometry": { "type": "Point", "coordinates": [ 129.328705, 35.46888, 115.0 ] } },
{ "type": "Feature", "properties": { "value": 0.0237 }, "geometry": { "type": "Point", "coordinates": [ 129.280228, 35.469902, 115.0 ] } },
{ "type": "Feature", "properties": { "value": 0.0468 }, "geometry": { "type": "Point", "coordinates": [ 129.281342, 35.469902, 115.0 ] } },
{ "type": "Feature", "properties": { "value": 0.0176 }, "geometry": { "type": "Point", "coordinates": [ 129.28244, 35.469898, 115.0 ] } },
{ "type": "Feature", "properties": { "value": 0.2227 }, "geometry": { "type": "Point", "coordinates": [ 129.326508, 35.469788, 115.0 ] } },
{ "type": "Feature", "properties": { "value": 12.853 }, "geometry": { "type": "Point", "coordinates": [ 129.327606, 35.469784, 115.0 ] } },
{ "type": "Feature", "properties": { "value": 11.483 }, "geometry": { "type": "Point", "coordinates": [ 129.328705, 35.46978, 115.0 ] } },
{ "type": "Feature", "properties": { "value": 0.2942 }, "geometry": { "type": "Point", "coordinates": [ 129.326508, 35.470688, 115.0 ] } },
{ "type": "Feature", "properties": { "value": 10.602 }, "geometry": { "type": "Point", "coordinates": [ 129.327606, 35.470684, 115.0 ] } },
{ "type": "Feature", "properties": { "value": 7.9944 }, "geometry": { "type": "Point", "coordinates": [ 129.32872, 35.470684, 115.0 ] } },
{ "type": "Feature", "properties": { "value": 0.0114 }, "geometry": { "type": "Point", "coordinates": [ 129.329819, 35.47068, 115.0 ] } },
{ "type": "Feature", "properties": { "value": 0.338 }, "geometry": { "type": "Point", "coordinates": [ 129.326508, 35.471588, 115.0 ] } },
{ "type": "Feature", "properties": { "value": 6.5768 }, "geometry": { "type": "Point", "coordinates": [ 129.327621, 35.471588, 115.0 ] } },
{ "type": "Feature", "properties": { "value": 2.9966 }, "geometry": { "type": "Point", "coordinates": [ 129.32872, 35.471584, 115.0 ] } },
{ "type": "Feature", "properties": { "value": 0.0304 }, "geometry": { "type": "Point", "coordinates": [ 129.329819, 35.471581, 115.0 ] } },
{ "type": "Feature", "properties": { "value": 0.3132 }, "geometry": { "type": "Point", "coordinates": [ 129.326523, 35.472492, 115.0 ] } },
{ "type": "Feature", "properties": { "value": 3.2484 }, "geometry": { "type": "Point", "coordinates": [ 129.327621, 35.472488, 115.0 ] } },
{ "type": "Feature", "properties": { "value": 0.986 }, "geometry": { "type": "Point", "coordinates": [ 129.32872, 35.472485, 115.0 ] } },
{ "type": "Feature", "properties": { "value": 0.0188 }, "geometry": { "type": "Point", "coordinates": [ 129.329819, 35.472481, 115.0 ] } },
{ "type": "Feature", "properties": { "value": 0.5252 }, "geometry": { "type": "Point", "coordinates": [ 129.326523, 35.473392, 115.0 ] } },
{ "type": "Feature", "properties": { "value": 2.7869 }, "geometry": { "type": "Point", "coordinates": [ 129.327621, 35.473389, 115.0 ] } },
{ "type": "Feature", "properties": { "value": 1.0363 }, "geometry": { "type": "Point", "coordinates": [ 129.32872, 35.473385, 115.0 ] } },
{ "type": "Feature", "properties": { "value": 0.0697 }, "geometry": { "type": "Point", "coordinates": [ 129.329819, 35.473385, 115.0 ] } },
{ "type": "Feature", "properties": { "value": 0.8438 }, "geometry": { "type": "Point", "coordinates": [ 129.326523, 35.474293, 115.0 ] } },
{ "type": "Feature", "properties": { "value": 2.9623 }, "geometry": { "type": "Point", "coordinates": [ 129.327621, 35.474289, 115.0 ] } },
{ "type": "Feature", "properties": { "value": 1.7348 }, "geometry": { "type": "Point", "coordinates": [ 129.328735, 35.474289, 115.0 ] } },
{ "type": "Feature", "properties": { "value": 0.2727 }, "geometry": { "type": "Point", "coordinates": [ 129.329834, 35.474285, 115.0 ] } },
{ "type": "Feature", "properties": { "value": 0.966 }, "geometry": { "type": "Point", "coordinates": [ 129.326523, 35.475193, 115.0 ] } },
{ "type": "Feature", "properties": { "value": 3.308 }, "geometry": { "type": "Point", "coordinates": [ 129.327637, 35.475193, 115.0 ] } },
{ "type": "Feature", "properties": { "value": 2.6158 }, "geometry": { "type": "Point", "coordinates": [ 129.328735, 35.475189, 115.0 ] } },
{ "type": "Feature", "properties": { "value": 0.6148 }, "geometry": { "type": "Point", "coordinates": [ 129.329834, 35.475185, 115.0 ] } },
{ "type": "Feature", "properties": { "value": 0.0229 }, "geometry": { "type": "Point", "coordinates": [ 129.325424, 35.476097, 115.0 ] } },
{ "type": "Feature", "properties": { "value": 1.4546 }, "geometry": { "type": "Point", "coordinates": [ 129.326538, 35.476097, 115.0 ] } },
{ "type": "Feature", "properties": { "value": 6.2427 }, "geometry": { "type": "Point", "coordinates": [ 129.327637, 35.476093, 115.0 ] } },
{ "type": "Feature", "properties": { "value": 5.0686 }, "geometry": { "type": "Point", "coordinates": [ 129.328735, 35.476089, 115.0 ] } },
{ "type": "Feature", "properties": { "value": 1.1053 }, "geometry": { "type": "Point", "coordinates": [ 129.329834, 35.476086, 115.0 ] } },
{ "type": "Feature", "properties": { "value": 0.1389 }, "geometry": { "type": "Point", "coordinates": [ 129.325439, 35.477001, 115.0 ] } },
{ "type": "Feature", "properties": { "value": 3.2846 }, "geometry": { "type": "Point", "coordinates": [ 129.326538, 35.476997, 115.0 ] } },
{ "type": "Feature", "properties": { "value": 14.859 }, "geometry": { "type": "Point", "coordinates": [ 129.327637, 35.476994, 115.0 ] } },
{ "type": "Feature", "properties": { "value": 10.57 }, "geometry": { "type": "Point", "coordinates": [ 129.328735, 35.47699, 115.0 ] } },
{ "type": "Feature", "properties": { "value": 1.7068 }, "geometry": { "type": "Point", "coordinates": [ 129.329834, 35.47699, 115.0 ] } },
{ "type": "Feature", "properties": { "value": 0.5373 }, "geometry": { "type": "Point", "coordinates": [ 129.325439, 35.477901, 115.0 ] } },
{ "type": "Feature", "properties": { "value": 8.3825 }, "geometry": { "type": "Point", "coordinates": [ 129.326538, 35.477898, 115.0 ] } },
{ "type": "Feature", "properties": { "value": 28.42 }, "geometry": { "type": "Point", "coordinates": [ 129.327637, 35.477894, 115.0 ] } },
{ "type": "Feature", "properties": { "value": 16.985 }, "geometry": { "type": "Point", "coordinates": [ 129.328735, 35.477894, 115.0 ] } },
{ "type": "Feature", "properties": { "value": 2.2103 }, "geometry": { "type": "Point", "coordinates": [ 129.329849, 35.47789, 115.0 ] } },
{ "type": "Feature", "properties": { "value": 1.7415 }, "geometry": { "type": "Point", "coordinates": [ 129.325439, 35.478802, 115.0 ] } },
{ "type": "Feature", "properties": { "value": 16.628 }, "geometry": { "type": "Point", "coordinates": [ 129.326538, 35.478798, 115.0 ] } },
{ "type": "Feature", "properties": { "value": 38.146 }, "geometry": { "type": "Point", "coordinates": [ 129.327637, 35.478798, 115.0 ] } },
{ "type": "Feature", "properties": { "value": 19.57 }, "geometry": { "type": "Point", "coordinates": [ 129.328751, 35.478794, 115.0 ] } },
{ "type": "Feature", "properties": { "value": 2.2834 }, "geometry": { "type": "Point", "coordinates": [ 129.329849, 35.47879, 115.0 ] } },
{ "type": "Feature", "properties": { "value": 3.5957 }, "geometry": { "type": "Point", "coordinates": [ 129.325439, 35.479706, 115.0 ] } },
{ "type": "Feature", "properties": { "value": 21.6 }, "geometry": { "type": "Point", "coordinates": [ 129.326553, 35.479702, 115.0 ] } },
{ "type": "Feature", "properties": { "value": 35.14 }, "geometry": { "type": "Point", "coordinates": [ 129.327652, 35.479698, 115.0 ] } },
{ "type": "Feature", "properties": { "value": 16.513 }, "geometry": { "type": "Point", "coordinates": [ 129.328751, 35.479694, 115.0 ] } },
{ "type": "Feature", "properties": { "value": 2.0124 }, "geometry": { "type": "Point", "coordinates": [ 129.329849, 35.479691, 115.0 ] } },
{ "type": "Feature", "properties": { "value": 0.0736 }, "geometry": { "type": "Point", "coordinates": [ 129.324341, 35.48061, 115.0 ] } },
{ "type": "Feature", "properties": { "value": 4.5237 }, "geometry": { "type": "Point", "coordinates": [ 129.325455, 35.480606, 115.0 ] } },
{ "type": "Feature", "properties": { "value": 18.94 }, "geometry": { "type": "Point", "coordinates": [ 129.326553, 35.480602, 115.0 ] } },
{ "type": "Feature", "properties": { "value": 25.124 }, "geometry": { "type": "Point", "coordinates": [ 129.327652, 35.480598, 115.0 ] } },
{ "type": "Feature", "properties": { "value": 11.796 }, "geometry": { "type": "Point", "coordinates": [ 129.328751, 35.480595, 115.0 ] } },
{ "type": "Feature", "properties": { "value": 1.562 }, "geometry": { "type": "Point", "coordinates": [ 129.329849, 35.480595, 115.0 ] } },
{ "type": "Feature", "properties": { "value": 0.3884 }, "geometry": { "type": "Point", "coordinates": [ 129.324356, 35.48151, 115.0 ] } },
{ "type": "Feature", "properties": { "value": 4.3391 }, "geometry": { "type": "Point", "coordinates": [ 129.325455, 35.481506, 115.0 ] } },
{ "type": "Feature", "properties": { "value": 15.665 }, "geometry": { "type": "Point", "coordinates": [ 129.326553, 35.481503, 115.0 ] } },
{ "type": "Feature", "properties": { "value": 20.948 }, "geometry": { "type": "Point", "coordinates": [ 129.327652, 35.481503, 115.0 ] } },
{ "type": "Feature", "properties": { "value": 9.6529 }, "geometry": { "type": "Point", "coordinates": [ 129.328751, 35.481499, 115.0 ] } },
{ "type": "Feature", "properties": { "value": 1.1734 }, "geometry": { "type": "Point", "coordinates": [ 129.329865, 35.481495, 115.0 ] } },
{ "type": "Feature", "properties": { "value": 0.5677 }, "geometry": { "type": "Point", "coordinates": [ 129.324356, 35.48241, 115.0 ] } },
{ "type": "Feature", "properties": { "value": 4.8617 }, "geometry": { "type": "Point", "coordinates": [ 129.325455, 35.482407, 115.0 ] } },
{ "type": "Feature", "properties": { "value": 16.771 }, "geometry": { "type": "Point", "coordinates": [ 129.326553, 35.482407, 115.0 ] } },
{ "type": "Feature", "properties": { "value": 21.622 }, "geometry": { "type": "Point", "coordinates": [ 129.327652, 35.482403, 115.0 ] } },
{ "type": "Feature", "properties": { "value": 8.6694 }, "geometry": { "type": "Point", "coordinates": [ 129.328766, 35.482399, 115.0 ] } },
{ "type": "Feature", "properties": { "value": 0.8734 }, "geometry": { "type": "Point", "coordinates": [ 129.329865, 35.482395, 115.0 ] } },
{ "type": "Feature", "properties": { "value": 1.0255 }, "geometry": { "type": "Point", "coordinates": [ 129.324356, 35.483311, 115.0 ] } },
{ "type": "Feature", "properties": { "value": 6.7523 }, "geometry": { "type": "Point", "coordinates": [ 129.325455, 35.483311, 115.0 ] } },
{ "type": "Feature", "properties": { "value": 19.616 }, "geometry": { "type": "Point", "coordinates": [ 129.326553, 35.483307, 115.0 ] } },
{ "type": "Feature", "properties": { "value": 19.75 }, "geometry": { "type": "Point", "coordinates": [ 129.327667, 35.483303, 115.0 ] } },
{ "type": "Feature", "properties": { "value": 6.4129 }, "geometry": { "type": "Point", "coordinates": [ 129.328766, 35.483299, 115.0 ] } },
{ "type": "Feature", "properties": { "value": 0.5747 }, "geometry": { "type": "Point", "coordinates": [ 129.329865, 35.483295, 115.0 ] } },
{ "type": "Feature", "properties": { "value": 0.1275 }, "geometry": { "type": "Point", "coordinates": [ 129.323257, 35.484215, 115.0 ] } },
{ "type": "Feature", "properties": { "value": 1.9073 }, "geometry": { "type": "Point", "coordinates": [ 129.324356, 35.484215, 115.0 ] } },
{ "type": "Feature", "properties": { "value": 9.3851 }, "geometry": { "type": "Point", "coordinates": [ 129.325455, 35.484211, 115.0 ] } },
{ "type": "Feature", "properties": { "value": 20.235 }, "geometry": { "type": "Point", "coordinates": [ 129.326569, 35.484207, 115.0 ] } },
{ "type": "Feature", "properties": { "value": 15.058 }, "geometry": { "type": "Point", "coordinates": [ 129.327667, 35.484203, 115.0 ] } },
{ "type": "Feature", "properties": { "value": 4.1948 }, "geometry": { "type": "Point", "coordinates": [ 129.328766, 35.484203, 115.0 ] } },
{ "type": "Feature", "properties": { "value": 0.2831 }, "geometry": { "type": "Point", "coordinates": [ 129.329865, 35.4842, 115.0 ] } },
{ "type": "Feature", "properties": { "value": 0.4612 }, "geometry": { "type": "Point", "coordinates": [ 129.323257, 35.485119, 115.0 ] } },
{ "type": "Feature", "properties": { "value": 3.6186 }, "geometry": { "type": "Point", "coordinates": [ 129.324371, 35.485115, 115.0 ] } },
{ "type": "Feature", "properties": { "value": 12.998 }, "geometry": { "type": "Point", "coordinates": [ 129.32547, 35.485111, 115.0 ] } },
{ "type": "Feature", "properties": { "value": 20.64 }, "geometry": { "type": "Point", "coordinates": [ 129.326569, 35.485107, 115.0 ] } },
{ "type": "Feature", "properties": { "value": 12.35 }, "geometry": { "type": "Point", "coordinates": [ 129.327667, 35.485107, 115.0 ] } },
{ "type": "Feature", "properties": { "value": 3.1305 }, "geometry": { "type": "Point", "coordinates": [ 129.328766, 35.485104, 115.0 ] } },
{ "type": "Feature", "properties": { "value": 0.1075 }, "geometry": { "type": "Point", "coordinates": [ 129.32988, 35.4851, 115.0 ] } },
{ "type": "Feature", "properties": { "value": 1.2347 }, "geometry": { "type": "Point", "coordinates": [ 129.323273, 35.486019, 115.0 ] } },
{ "type": "Feature", "properties": { "value": 7.3901 }, "geometry": { "type": "Point", "coordinates": [ 129.324371, 35.486015, 115.0 ] } },
{ "type": "Feature", "properties": { "value": 19.665 }, "geometry": { "type": "Point", "coordinates": [ 129.32547, 35.486012, 115.0 ] } },
{ "type": "Feature", "properties": { "value": 23.029 }, "geometry": { "type": "Point", "coordinates": [ 129.326569, 35.486012, 115.0 ] } },
{ "type": "Feature", "properties": { "value": 11.411 }, "geometry": { "type": "Point", "coordinates": [ 129.327667, 35.486008, 115.0 ] } },
{ "type": "Feature", "properties": { "value": 2.4886 }, "geometry": { "type": "Point", "coordinates": [ 129.328781, 35.486004, 115.0 ] } },
{ "type": "Feature", "properties": { "value": 0.3819 }, "geometry": { "type": "Point", "coordinates": [ 129.322174, 35.486923, 115.0 ] } },
{ "type": "Feature", "properties": { "value": 2.9281 }, "geometry": { "type": "Point", "coordinates": [ 129.323273, 35.486919, 115.0 ] } },
{ "type": "Feature", "properties": { "value": 13.945 }, "geometry": { "type": "Point", "coordinates": [ 129.324371, 35.486916, 115.0 ] } },
{ "type": "Feature", "properties": { "value": 28.647 }, "geometry": { "type": "Point", "coordinates": [ 129.32547, 35.486916, 115.0 ] } },
{ "type": "Feature", "properties": { "value": 25.072 }, "geometry": { "type": "Point", "coordinates": [ 129.326569, 35.486912, 115.0 ] } },
{ "type": "Feature", "properties": { "value": 9.89 }, "geometry": { "type": "Point", "coordinates": [ 129.327682, 35.486908, 115.0 ] } },
{ "type": "Feature", "properties": { "value": 1.7189 }, "geometry": { "type": "Point", "coordinates": [ 129.328781, 35.486904, 115.0 ] } },
{ "type": "Feature", "properties": { "value": 1.2296 }, "geometry": { "type": "Point", "coordinates": [ 129.322174, 35.487823, 115.0 ] } },
{ "type": "Feature", "properties": { "value": 5.9517 }, "geometry": { "type": "Point", "coordinates": [ 129.323273, 35.48782, 115.0 ] } },
{ "type": "Feature", "properties": { "value": 21.252 }, "geometry": { "type": "Point", "coordinates": [ 129.324371, 35.48782, 115.0 ] } },
{ "type": "Feature", "properties": { "value": 33.506 }, "geometry": { "type": "Point", "coordinates": [ 129.32547, 35.487816, 115.0 ] } },
{ "type": "Feature", "properties": { "value": 23.297 }, "geometry": { "type": "Point", "coordinates": [ 129.326584, 35.487812, 115.0 ] } },
{ "type": "Feature", "properties": { "value": 7.5955 }, "geometry": { "type": "Point", "coordinates": [ 129.327682, 35.487808, 115.0 ] } },
{ "type": "Feature", "properties": { "value": 1.09 }, "geometry": { "type": "Point", "coordinates": [ 129.328781, 35.487808, 115.0 ] } },
{ "type": "Feature", "properties": { "value": 0.0 }, "geometry": { "type": "Point", "coordinates": [ 129.313354, 35.48875, 115.0 ] } },
{ "type": "Feature", "properties": { "value": 0.0 }, "geometry": { "type": "Point", "coordinates": [ 129.314453, 35.488747, 115.0 ] } },
{ "type": "Feature", "properties": { "value": 0.0 }, "geometry": { "type": "Point", "coordinates": [ 129.315567, 35.488743, 115.0 ] } },
{ "type": "Feature", "properties": { "value": 0.0 }, "geometry": { "type": "Point", "coordinates": [ 129.316666, 35.488739, 115.0 ] } },
{ "type": "Feature", "properties": { "value": 0.0977 }, "geometry": { "type": "Point", "coordinates": [ 129.321075, 35.488728, 115.0 ] } },
{ "type": "Feature", "properties": { "value": 1.8116 }, "geometry": { "type": "Point", "coordinates": [ 129.322174, 35.488728, 115.0 ] } },
{ "type": "Feature", "properties": { "value": 9.1725 }, "geometry": { "type": "Point", "coordinates": [ 129.323273, 35.488724, 115.0 ] } },
{ "type": "Feature", "properties": { "value": 24.166 }, "geometry": { "type": "Point", "coordinates": [ 129.324371, 35.48872, 115.0 ] } },
{ "type": "Feature", "properties": { "value": 30.096 }, "geometry": { "type": "Point", "coordinates": [ 129.325485, 35.488716, 115.0 ] } },
{ "type": "Feature", "properties": { "value": 17.756 }, "geometry": { "type": "Point", "coordinates": [ 129.326584, 35.488712, 115.0 ] } },
{ "type": "Feature", "properties": { "value": 5.0829 }, "geometry": { "type": "Point", "coordinates": [ 129.327682, 35.488712, 115.0 ] } },
{ "type": "Feature", "properties": { "value": 0.578 }, "geometry": { "type": "Point", "coordinates": [ 129.328781, 35.488708, 115.0 ] } },
{ "type": "Feature", "properties": { "value": 0.0 }, "geometry": { "type": "Point", "coordinates": [ 129.312256, 35.489655, 115.0 ] } },
{ "type": "Feature", "properties": { "value": 0.0 }, "geometry": { "type": "Point", "coordinates": [ 129.313354, 35.489651, 115.0 ] } },
{ "type": "Feature", "properties": { "value": 0.0 }, "geometry": { "type": "Point", "coordinates": [ 129.314468, 35.489647, 115.0 ] } },
{ "type": "Feature", "properties": { "value": 0.0 }, "geometry": { "type": "Point", "coordinates": [ 129.315567, 35.489643, 115.0 ] } },
{ "type": "Feature", "properties": { "value": 0.0 }, "geometry": { "type": "Point", "coordinates": [ 129.316666, 35.489643, 115.0 ] } },
{ "type": "Feature", "properties": { "value": 0.5969 }, "geometry": { "type": "Point", "coordinates": [ 129.321075, 35.489632, 115.0 ] } },
{ "type": "Feature", "properties": { "value": 3.4469 }, "geometry": { "type": "Point", "coordinates": [ 129.322174, 35.489628, 115.0 ] } },
{ "type": "Feature", "properties": { "value": 11.154 }, "geometry": { "type": "Point", "coordinates": [ 129.323273, 35.489624, 115.0 ] } },
{ "type": "Feature", "properties": { "value": 20.925 }, "geometry": { "type": "Point", "coordinates": [ 129.324387, 35.48962, 115.0 ] } },
{ "type": "Feature", "properties": { "value": 21.116 }, "geometry": { "type": "Point", "coordinates": [ 129.325485, 35.489616, 115.0 ] } },
{ "type": "Feature", "properties": { "value": 11.233 }, "geometry": { "type": "Point", "coordinates": [ 129.326584, 35.489616, 115.0 ] } },
{ "type": "Feature", "properties": { "value": 2.959 }, "geometry": { "type": "Point", "coordinates": [ 129.327682, 35.489613, 115.0 ] } },
{ "type": "Feature", "properties": { "value": 0.1436 }, "geometry": { "type": "Point", "coordinates": [ 129.328796, 35.489609, 115.0 ] } },
{ "type": "Feature", "properties": { "value": 0.0013 }, "geometry": { "type": "Point", "coordinates": [ 129.312271, 35.490555, 115.0 ] } },
{ "type": "Feature", "properties": { "value": 0.0018 }, "geometry": { "type": "Point", "coordinates": [ 129.31337, 35.490551, 115.0 ] } },
{ "type": "Feature", "properties": { "value": 0.0008 }, "geometry": { "type": "Point", "coordinates": [ 129.314468, 35.490547, 115.0 ] } },
{ "type": "Feature", "properties": { "value": 0.0001 }, "geometry": { "type": "Point", "coordinates": [ 129.315567, 35.490547, 115.0 ] } },
{ "type": "Feature", "properties": { "value": 0.0 }, "geometry": { "type": "Point", "coordinates": [ 129.316666, 35.490543, 115.0 ] } },
{ "type": "Feature", "properties": { "value": 0.1302 }, "geometry": { "type": "Point", "coordinates": [ 129.319977, 35.490536, 115.0 ] } },
{ "type": "Feature", "properties": { "value": 1.5175 }, "geometry": { "type": "Point", "coordinates": [ 129.321075, 35.490532, 115.0 ] } },
{ "type": "Feature", "properties": { "value": 6.0868 }, "geometry": { "type": "Point", "coordinates": [ 129.322174, 35.490528, 115.0 ] } },
{ "type": "Feature", "properties": { "value": 14.218 }, "geometry": { "type": "Point", "coordinates": [ 129.323288, 35.490524, 115.0 ] } },
{ "type": "Feature", "properties": { "value": 18.956 }, "geometry": { "type": "Point", "coordinates": [ 129.324387, 35.490524, 115.0 ] } },
{ "type": "Feature", "properties": { "value": 14.421 }, "geometry": { "type": "Point", "coordinates": [ 129.325485, 35.49052, 115.0 ] } },
{ "type": "Feature", "properties": { "value": 6.4859 }, "geometry": { "type": "Point", "coordinates": [ 129.326584, 35.490517, 115.0 ] } },
{ "type": "Feature", "properties": { "value": 1.5425 }, "geometry": { "type": "Point", "coordinates": [ 129.327698, 35.490513, 115.0 ] } },
{ "type": "Feature", "properties": { "value": 0.0016 }, "geometry": { "type": "Point", "coordinates": [ 129.310059, 35.491463, 115.0 ] } },
{ "type": "Feature", "properties": { "value": 0.03 }, "geometry": { "type": "Point", "coordinates": [ 129.311172, 35.491459, 115.0 ] } },
{ "type": "Feature", "properties": { "value": 0.0762 }, "geometry": { "type": "Point", "coordinates": [ 129.312271, 35.491455, 115.0 ] } },
{ "type": "Feature", "properties": { "value": 0.0579 }, "geometry": { "type": "Point", "coordinates": [ 129.31337, 35.491451, 115.0 ] } },
{ "type": "Feature", "properties": { "value": 0.0117 }, "geometry": { "type": "Point", "coordinates": [ 129.314468, 35.491451, 115.0 ] } },
{ "type": "Feature", "properties": { "value": 0.0004 }, "geometry": { "type": "Point", "coordinates": [ 129.315567, 35.491447, 115.0 ] } },
{ "type": "Feature", "properties": { "value": 0.0 }, "geometry": { "type": "Point", "coordinates": [ 129.316681, 35.491444, 115.0 ] } },
{ "type": "Feature", "properties": { "value": 0.6895 }, "geometry": { "type": "Point", "coordinates": [ 129.319977, 35.491436, 115.0 ] } },
{ "type": "Feature", "properties": { "value": 3.3362 }, "geometry": { "type": "Point", "coordinates": [ 129.321091, 35.491432, 115.0 ] } },
{ "type": "Feature", "properties": { "value": 9.703 }, "geometry": { "type": "Point", "coordinates": [ 129.322189, 35.491428, 115.0 ] } },
{ "type": "Feature", "properties": { "value": 17.106 }, "geometry": { "type": "Point", "coordinates": [ 129.323288, 35.491428, 115.0 ] } },
{ "type": "Feature", "properties": { "value": 17.945 }, "geometry": { "type": "Point", "coordinates": [ 129.324387, 35.491425, 115.0 ] } },
{ "type": "Feature", "properties": { "value": 11.398 }, "geometry": { "type": "Point", "coordinates": [ 129.325485, 35.491421, 115.0 ] } },
{ "type": "Feature", "properties": { "value": 3.8922 }, "geometry": { "type": "Point", "coordinates": [ 129.326599, 35.491417, 115.0 ] } },
{ "type": "Feature", "properties": { "value": 0.7328 }, "geometry": { "type": "Point", "coordinates": [ 129.327698, 35.491413, 115.0 ] } },
{ "type": "Feature", "properties": { "value": 0.1417 }, "geometry": { "type": "Point", "coordinates": [ 129.310074, 35.492363, 115.0 ] } },
{ "type": "Feature", "properties": { "value": 0.5665 }, "geometry": { "type": "Point", "coordinates": [ 129.311172, 35.492359, 115.0 ] } },
{ "type": "Feature", "properties": { "value": 0.8288 }, "geometry": { "type": "Point", "coordinates": [ 129.312271, 35.492355, 115.0 ] } },
{ "type": "Feature", "properties": { "value": 0.4315 }, "geometry": { "type": "Point", "coordinates": [ 129.31337, 35.492355, 115.0 ] } },
{ "type": "Feature", "properties": { "value": 0.0709 }, "geometry": { "type": "Point", "coordinates": [ 129.314468, 35.492352, 115.0 ] } },
{ "type": "Feature", "properties": { "value": 0.0019 }, "geometry": { "type": "Point", "coordinates": [ 129.315582, 35.492348, 115.0 ] } },
{ "type": "Feature", "properties": { "value": 0.2994 }, "geometry": { "type": "Point", "coordinates": [ 129.318878, 35.49234, 115.0 ] } },
{ "type": "Feature", "properties": { "value": 1.8494 }, "geometry": { "type": "Point", "coordinates": [ 129.319992, 35.492336, 115.0 ] } },
{ "type": "Feature", "properties": { "value": 6.3234 }, "geometry": { "type": "Point", "coordinates": [ 129.321091, 35.492332, 115.0 ] } },
{ "type": "Feature", "properties": { "value": 13.749 }, "geometry": { "type": "Point", "coordinates": [ 129.322189, 35.492332, 115.0 ] } },
{ "type": "Feature", "properties": { "value": 18.591 }, "geometry": { "type": "Point", "coordinates": [ 129.323288, 35.492329, 115.0 ] } },
{ "type": "Feature", "properties": { "value": 17.422 }, "geometry": { "type": "Point", "coordinates": [ 129.324387, 35.492325, 115.0 ] } },
{ "type": "Feature", "properties": { "value": 9.4629 }, "geometry": { "type": "Point", "coordinates": [ 129.3255, 35.492321, 115.0 ] } },
{ "type": "Feature", "properties": { "value": 2.4743 }, "geometry": { "type": "Point", "coordinates": [ 129.326599, 35.492317, 115.0 ] } },
{ "type": "Feature", "properties": { "value": 0.2494 }, "geometry": { "type": "Point", "coordinates": [ 129.327698, 35.492317, 115.0 ] } },
{ "type": "Feature", "properties": { "value": 0.1836 }, "geometry": { "type": "Point", "coordinates": [ 129.308975, 35.493267, 115.0 ] } },
{ "type": "Feature", "properties": { "value": 1.3468 }, "geometry": { "type": "Point", "coordinates": [ 129.310074, 35.493263, 115.0 ] } },
{ "type": "Feature", "properties": { "value": 3.4295 }, "geometry": { "type": "Point", "coordinates": [ 129.311172, 35.493259, 115.0 ] } },
{ "type": "Feature", "properties": { "value": 3.329 }, "geometry": { "type": "Point", "coordinates": [ 129.312271, 35.493259, 115.0 ] } },
{ "type": "Feature", "properties": { "value": 1.2471 }, "geometry": { "type": "Point", "coordinates": [ 129.31337, 35.493256, 115.0 ] } },
{ "type": "Feature", "properties": { "value": 0.1486 }, "geometry": { "type": "Point", "coordinates": [ 129.314484, 35.493252, 115.0 ] } },
{ "type": "Feature", "properties": { "value": 0.0028 }, "geometry": { "type": "Point", "coordinates": [ 129.315582, 35.493248, 115.0 ] } },
{ "type": "Feature", "properties": { "value": 0.0264 }, "geometry": { "type": "Point", "coordinates": [ 129.31778, 35.493244, 115.0 ] } },
{ "type": "Feature", "properties": { "value": 1.1018 }, "geometry": { "type": "Point", "coordinates": [ 129.318893, 35.49324, 115.0 ] } },
{ "type": "Feature", "properties": { "value": 4.1391 }, "geometry": { "type": "Point", "coordinates": [ 129.319992, 35.493237, 115.0 ] } },
{ "type": "Feature", "properties": { "value": 10.383 }, "geometry": { "type": "Point", "coordinates": [ 129.321091, 35.493237, 115.0 ] } },
{ "type": "Feature", "properties": { "value": 17.163 }, "geometry": { "type": "Point", "coordinates": [ 129.322189, 35.493233, 115.0 ] } },
{ "type": "Feature", "properties": { "value": 18.032 }, "geometry": { "type": "Point", "coordinates": [ 129.323288, 35.493229, 115.0 ] } },
{ "type": "Feature", "properties": { "value": 13.345 }, "geometry": { "type": "Point", "coordinates": [ 129.324402, 35.493225, 115.0 ] } },
{ "type": "Feature", "properties": { "value": 6.2484 }, "geometry": { "type": "Point", "coordinates": [ 129.3255, 35.493225, 115.0 ] } },
{ "type": "Feature", "properties": { "value": 1.3319 }, "geometry": { "type": "Point", "coordinates": [ 129.326599, 35.493221, 115.0 ] } },
{ "type": "Feature", "properties": { "value": 0.0463 }, "geometry": { "type": "Point", "coordinates": [ 129.307877, 35.494171, 115.0 ] } },
{ "type": "Feature", "properties": { "value": 1.037 }, "geometry": { "type": "Point", "coordinates": [ 129.308975, 35.494167, 115.0 ] } },
{ "type": "Feature", "properties": { "value": 5.6093 }, "geometry": { "type": "Point", "coordinates": [ 129.310074, 35.494164, 115.0 ] } },
{ "type": "Feature", "properties": { "value": 10.246 }, "geometry": { "type": "Point", "coordinates": [ 129.311172, 35.494164, 115.0 ] } },
{ "type": "Feature", "properties": { "value": 6.8188 }, "geometry": { "type": "Point", "coordinates": [ 129.312271, 35.49416, 115.0 ] } },
{ "type": "Feature", "properties": { "value": 1.781 }, "geometry": { "type": "Point", "coordinates": [ 129.313385, 35.494156, 115.0 ] } },
{ "type": "Feature", "properties": { "value": 0.1404 }, "geometry": { "type": "Point", "coordinates": [ 129.314484, 35.494152, 115.0 ] } },
{ "type": "Feature", "properties": { "value": 0.0005 }, "geometry": { "type": "Point", "coordinates": [ 129.315582, 35.494152, 115.0 ] } },
{ "type": "Feature", "properties": { "value": 0.7451 }, "geometry": { "type": "Point", "coordinates": [ 129.317795, 35.494144, 115.0 ] } },
{ "type": "Feature", "properties": { "value": 2.9048 }, "geometry": { "type": "Point", "coordinates": [ 129.318893, 35.494141, 115.0 ] } },
{ "type": "Feature", "properties": { "value": 7.8577 }, "geometry": { "type": "Point", "coordinates": [ 129.319992, 35.494141, 115.0 ] } },
{ "type": "Feature", "properties": { "value": 14.827 }, "geometry": { "type": "Point", "coordinates": [ 129.321091, 35.494137, 115.0 ] } },
{ "type": "Feature", "properties": { "value": 18.824 }, "geometry": { "type": "Point", "coordinates": [ 129.322189, 35.494133, 115.0 ] } },
{ "type": "Feature", "properties": { "value": 15.499 }, "geometry": { "type": "Point", "coordinates": [ 129.323303, 35.494129, 115.0 ] } },
{ "type": "Feature", "properties": { "value": 8.5252 }, "geometry": { "type": "Point", "coordinates": [ 129.324402, 35.494129, 115.0 ] } },
{ "type": "Feature", "properties": { "value": 3.1598 }, "geometry": { "type": "Point", "coordinates": [ 129.3255, 35.494125, 115.0 ] } },
{ "type": "Feature", "properties": { "value": 0.5131 }, "geometry": { "type": "Point", "coordinates": [ 129.326599, 35.494122, 115.0 ] } },
{ "type": "Feature", "properties": { "value": 0.256 }, "geometry": { "type": "Point", "coordinates": [ 129.307877, 35.495071, 115.0 ] } },
{ "type": "Feature", "properties": { "value": 3.3377 }, "geometry": { "type": "Point", "coordinates": [ 129.308975, 35.495068, 115.0 ] } },
{ "type": "Feature", "properties": { "value": 12.899 }, "geometry": { "type": "Point", "coordinates": [ 129.310074, 35.495068, 115.0 ] } },
{ "type": "Feature", "properties": { "value": 18.823 }, "geometry": { "type": "Point", "coordinates": [ 129.311172, 35.495064, 115.0 ] } },
{ "type": "Feature", "properties": { "value": 9.1328 }, "geometry": { "type": "Point", "coordinates": [ 129.312286, 35.49506, 115.0 ] } },
{ "type": "Feature", "properties": { "value": 1.5803 }, "geometry": { "type": "Point", "coordinates": [ 129.313385, 35.495056, 115.0 ] } },
{ "type": "Feature", "properties": { "value": 0.0669 }, "geometry": { "type": "Point", "coordinates": [ 129.314484, 35.495056, 115.0 ] } },
{ "type": "Feature", "properties": { "value": 0.5799 }, "geometry": { "type": "Point", "coordinates": [ 129.316696, 35.495049, 115.0 ] } },
{ "type": "Feature", "properties": { "value": 2.2828 }, "geometry": { "type": "Point", "coordinates": [ 129.317795, 35.495045, 115.0 ] } },
{ "type": "Feature", "properties": { "value": 6.2937 }, "geometry": { "type": "Point", "coordinates": [ 129.318893, 35.495045, 115.0 ] } },
{ "type": "Feature", "properties": { "value": 12.765 }, "geometry": { "type": "Point", "coordinates": [ 129.319992, 35.495041, 115.0 ] } },
{ "type": "Feature", "properties": { "value": 18.394 }, "geometry": { "type": "Point", "coordinates": [ 129.321091, 35.495037, 115.0 ] } },
{ "type": "Feature", "properties": { "value": 18.115 }, "geometry": { "type": "Point", "coordinates": [ 129.322205, 35.495033, 115.0 ] } },
{ "type": "Feature", "properties": { "value": 11.777 }, "geometry": { "type": "Point", "coordinates": [ 129.323303, 35.495033, 115.0 ] } },
{ "type": "Feature", "properties": { "value": 5.3148 }, "geometry": { "type": "Point", "coordinates": [ 129.324402, 35.495029, 115.0 ] } },
{ "type": "Feature", "properties": { "value": 1.4891 }, "geometry": { "type": "Point", "coordinates": [ 129.3255, 35.495026, 115.0 ] } },
{ "type": "Feature", "properties": { "value": 0.0741 }, "geometry": { "type": "Point", "coordinates": [ 129.326614, 35.495022, 115.0 ] } },
{ "type": "Feature", "properties": { "value": 0.0852 }, "geometry": { "type": "Point", "coordinates": [ 129.306778, 35.495975, 115.0 ] } },
{ "type": "Feature", "properties": { "value": 1.2543 }, "geometry": { "type": "Point", "coordinates": [ 129.307877, 35.495972, 115.0 ] } },
{ "type": "Feature", "properties": { "value": 7.9294 }, "geometry": { "type": "Point", "coordinates": [ 129.308975, 35.495972, 115.0 ] } },
{ "type": "Feature", "properties": { "value": 21.646 }, "geometry": { "type": "Point", "coordinates": [ 129.310074, 35.495968, 115.0 ] } },
{ "type": "Feature", "properties": { "value": 23.927 }, "geometry": { "type": "Point", "coordinates": [ 129.311188, 35.495964, 115.0 ] } },
{ "type": "Feature", "properties": { "value": 9.4721 }, "geometry": { "type": "Point", "coordinates": [ 129.312286, 35.495964, 115.0 ] } },
{ "type": "Feature", "properties": { "value": 1.2259 }, "geometry": { "type": "Point", "coordinates": [ 129.313385, 35.49596, 115.0 ] } },
{ "type": "Feature", "properties": { "value": 0.5432 }, "geometry": { "type": "Point", "coordinates": [ 129.315598, 35.495953, 115.0 ] } },
{ "type": "Feature", "properties": { "value": 2.0509 }, "geometry": { "type": "Point", "coordinates": [ 129.316696, 35.495949, 115.0 ] } },
{ "type": "Feature", "properties": { "value": 5.5167 }, "geometry": { "type": "Point", "coordinates": [ 129.317795, 35.495949, 115.0 ] } },
{ "type": "Feature", "properties": { "value": 11.418 }, "geometry": { "type": "Point", "coordinates": [ 129.318893, 35.495945, 115.0 ] } },
{ "type": "Feature", "properties": { "value": 17.686 }, "geometry": { "type": "Point", "coordinates": [ 129.319992, 35.495941, 115.0 ] } },
{ "type": "Feature", "properties": { "value": 19.701 }, "geometry": { "type": "Point", "coordinates": [ 129.321106, 35.495937, 115.0 ] } },
{ "type": "Feature", "properties": { "value": 15.24 }, "geometry": { "type": "Point", "coordinates": [ 129.322205, 35.495937, 115.0 ] } },
{ "type": "Feature", "properties": { "value": 8.7582 }, "geometry": { "type": "Point", "coordinates": [ 129.323303, 35.495934, 115.0 ] } },
{ "type": "Feature", "properties": { "value": 3.1059 }, "geometry": { "type": "Point", "coordinates": [ 129.324402, 35.49593, 115.0 ] } },
{ "type": "Feature", "properties": { "value": 0.6429 }, "geometry": { "type": "Point", "coordinates": [ 129.325516, 35.495926, 115.0 ] } },
{ "type": "Feature", "properties": { "value": 0.2381 }, "geometry": { "type": "Point", "coordinates": [ 129.304581, 35.496883, 115.0 ] } },
{ "type": "Feature", "properties": { "value": 0.6457 }, "geometry": { "type": "Point", "coordinates": [ 129.305679, 35.49688, 115.0 ] } },
{ "type": "Feature", "properties": { "value": 1.6581 }, "geometry": { "type": "Point", "coordinates": [ 129.306778, 35.496876, 115.0 ] } },
{ "type": "Feature", "properties": { "value": 5.3644 }, "geometry": { "type": "Point", "coordinates": [ 129.307877, 35.496876, 115.0 ] } },
{ "type": "Feature", "properties": { "value": 16.287 }, "geometry": { "type": "Point", "coordinates": [ 129.308975, 35.496872, 115.0 ] } },
{ "type": "Feature", "properties": { "value": 28.826 }, "geometry": { "type": "Point", "coordinates": [ 129.310089, 35.496868, 115.0 ] } },
{ "type": "Feature", "properties": { "value": 23.872 }, "geometry": { "type": "Point", "coordinates": [ 129.311188, 35.496868, 115.0 ] } },
{ "type": "Feature", "properties": { "value": 7.7901 }, "geometry": { "type": "Point", "coordinates": [ 129.312286, 35.496864, 115.0 ] } },
{ "type": "Feature", "properties": { "value": 0.8333 }, "geometry": { "type": "Point", "coordinates": [ 129.313385, 35.496861, 115.0 ] } },
{ "type": "Feature", "properties": { "value": 0.6499 }, "geometry": { "type": "Point", "coordinates": [ 129.314499, 35.496857, 115.0 ] } },
{ "type": "Feature", "properties": { "value": 2.0929 }, "geometry": { "type": "Point", "coordinates": [ 129.315598, 35.496857, 115.0 ] } },
{ "type": "Feature", "properties": { "value": 5.3035 }, "geometry": { "type": "Point", "coordinates": [ 129.316696, 35.496853, 115.0 ] } },
{ "type": "Feature", "properties": { "value": 10.873 }, "geometry": { "type": "Point", "coordinates": [ 129.317795, 35.496849, 115.0 ] } },
{ "type": "Feature", "properties": { "value": 17.314 }, "geometry": { "type": "Point", "coordinates": [ 129.318893, 35.496845, 115.0 ] } },
{ "type": "Feature", "properties": { "value": 20.762 }, "geometry": { "type": "Point", "coordinates": [ 129.320007, 35.496841, 115.0 ] } },
{ "type": "Feature", "properties": { "value": 18.117 }, "geometry": { "type": "Point", "coordinates": [ 129.321106, 35.496841, 115.0 ] } },
{ "type": "Feature", "properties": { "value": 12.107 }, "geometry": { "type": "Point", "coordinates": [ 129.322205, 35.496838, 115.0 ] } },
{ "type": "Feature", "properties": { "value": 5.6779 }, "geometry": { "type": "Point", "coordinates": [ 129.323303, 35.496834, 115.0 ] } },
{ "type": "Feature", "properties": { "value": 1.4184 }, "geometry": { "type": "Point", "coordinates": [ 129.324417, 35.49683, 115.0 ] } },
{ "type": "Feature", "properties": { "value": 0.0832 }, "geometry": { "type": "Point", "coordinates": [ 129.325516, 35.49683, 115.0 ] } },
{ "type": "Feature", "properties": { "value": 0.0657 }, "geometry": { "type": "Point", "coordinates": [ 129.300171, 35.497795, 115.0 ] } },
{ "type": "Feature", "properties": { "value": 0.2273 }, "geometry": { "type": "Point", "coordinates": [ 129.30127, 35.497791, 115.0 ] } },
{ "type": "Feature", "properties": { "value": 0.5458 }, "geometry": { "type": "Point", "coordinates": [ 129.302368, 35.497791, 115.0 ] } },
{ "type": "Feature", "properties": { "value": 1.1284 }, "geometry": { "type": "Point", "coordinates": [ 129.303482, 35.497787, 115.0 ] } },
{ "type": "Feature", "properties": { "value": 2.2247 }, "geometry": { "type": "Point", "coordinates": [ 129.304581, 35.497784, 115.0 ] } },
{ "type": "Feature", "properties": { "value": 4.1978 }, "geometry": { "type": "Point", "coordinates": [ 129.305679, 35.49778, 115.0 ] } },
{ "type": "Feature", "properties": { "value": 7.8766 }, "geometry": { "type": "Point", "coordinates": [ 129.306778, 35.49778, 115.0 ] } },
{ "type": "Feature", "properties": { "value": 15.231 }, "geometry": { "type": "Point", "coordinates": [ 129.307877, 35.497776, 115.0 ] } },
{ "type": "Feature", "properties": { "value": 25.827 }, "geometry": { "type": "Point", "coordinates": [ 129.30899, 35.497772, 115.0 ] } },
{ "type": "Feature", "properties": { "value": 29.094 }, "geometry": { "type": "Point", "coordinates": [ 129.310089, 35.497772, 115.0 ] } },
{ "type": "Feature", "properties": { "value": 17.37 }, "geometry": { "type": "Point", "coordinates": [ 129.311188, 35.497768, 115.0 ] } },
{ "type": "Feature", "properties": { "value": 4.5744 }, "geometry": { "type": "Point", "coordinates": [ 129.312286, 35.497765, 115.0 ] } },
{ "type": "Feature", "properties": { "value": 1.3788 }, "geometry": { "type": "Point", "coordinates": [ 129.3134, 35.497761, 115.0 ] } },
{ "type": "Feature", "properties": { "value": 2.6831 }, "geometry": { "type": "Point", "coordinates": [ 129.314499, 35.497761, 115.0 ] } },
{ "type": "Feature", "properties": { "value": 5.9642 }, "geometry": { "type": "Point", "coordinates": [ 129.315598, 35.497757, 115.0 ] } },
{ "type": "Feature", "properties": { "value": 10.969 }, "geometry": { "type": "Point", "coordinates": [ 129.316696, 35.497753, 115.0 ] } },
{ "type": "Feature", "properties": { "value": 17.48 }, "geometry": { "type": "Point", "coordinates": [ 129.317795, 35.497749, 115.0 ] } },
{ "type": "Feature", "properties": { "value": 22.044 }, "geometry": { "type": "Point", "coordinates": [ 129.318909, 35.497749, 115.0 ] } },
{ "type": "Feature", "properties": { "value": 20.538 }, "geometry": { "type": "Point", "coordinates": [ 129.320007, 35.497746, 115.0 ] } },
{ "type": "Feature", "properties": { "value": 14.481 }, "geometry": { "type": "Point", "coordinates": [ 129.321106, 35.497742, 115.0 ] } },
{ "type": "Feature", "properties": { "value": 8.6283 }, "geometry": { "type": "Point", "coordinates": [ 129.322205, 35.497738, 115.0 ] } },
{ "type": "Feature", "properties": { "value": 2.7931 }, "geometry": { "type": "Point", "coordinates": [ 129.323318, 35.497734, 115.0 ] } },
{ "type": "Feature", "properties": { "value": 0.4818 }, "geometry": { "type": "Point", "coordinates": [ 129.324417, 35.497734, 115.0 ] } },
{ "type": "Feature", "properties": { "value": 0.0585 }, "geometry": { "type": "Point", "coordinates": [ 129.297974, 35.498703, 115.0 ] } },
{ "type": "Feature", "properties": { "value": 0.2715 }, "geometry": { "type": "Point", "coordinates": [ 129.299072, 35.498699, 115.0 ] } },
{ "type": "Feature", "properties": { "value": 0.7914 }, "geometry": { "type": "Point", "coordinates": [ 129.300171, 35.498695, 115.0 ] } },
{ "type": "Feature", "properties": { "value": 1.7159 }, "geometry": { "type": "Point", "coordinates": [ 129.30127, 35.498695, 115.0 ] } },
{ "type": "Feature", "properties": { "value": 3.1707 }, "geometry": { "type": "Point", "coordinates": [ 129.302368, 35.498692, 115.0 ] } },
{ "type": "Feature", "properties": { "value": 5.5693 }, "geometry": { "type": "Point", "coordinates": [ 129.303482, 35.498688, 115.0 ] } },
{ "type": "Feature", "properties": { "value": 9.1905 }, "geometry": { "type": "Point", "coordinates": [ 129.304581, 35.498684, 115.0 ] } },
{ "type": "Feature", "properties": { "value": 13.827 }, "geometry": { "type": "Point", "coordinates": [ 129.305679, 35.498684, 115.0 ] } },
{ "type": "Feature", "properties": { "value": 19.347 }, "geometry": { "type": "Point", "coordinates": [ 129.306778, 35.49868, 115.0 ] } },
{ "type": "Feature", "properties": { "value": 25.199 }, "geometry": { "type": "Point", "coordinates": [ 129.307892, 35.498676, 115.0 ] } },
{ "type": "Feature", "properties": { "value": 27.45 }, "geometry": { "type": "Point", "coordinates": [ 129.30899, 35.498676, 115.0 ] } },
{ "type": "Feature", "properties": { "value": 20.421 }, "geometry": { "type": "Point", "coordinates": [ 129.310089, 35.498672, 115.0 ] } },
{ "type": "Feature", "properties": { "value": 8.6659 }, "geometry": { "type": "Point", "coordinates": [ 129.311188, 35.498669, 115.0 ] } },
{ "type": "Feature", "properties": { "value": 2.7204 }, "geometry": { "type": "Point", "coordinates": [ 129.312302, 35.498665, 115.0 ] } },
{ "type": "Feature", "properties": { "value": 3.4513 }, "geometry": { "type": "Point", "coordinates": [ 129.3134, 35.498665, 115.0 ] } },
{ "type": "Feature", "properties": { "value": 7.2184 }, "geometry": { "type": "Point", "coordinates": [ 129.314499, 35.498661, 115.0 ] } },
{ "type": "Feature", "properties": { "value": 12.147 }, "geometry": { "type": "Point", "coordinates": [ 129.315598, 35.498657, 115.0 ] } },
{ "type": "Feature", "properties": { "value": 18.053 }, "geometry": { "type": "Point", "coordinates": [ 129.316696, 35.498653, 115.0 ] } },
{ "type": "Feature", "properties": { "value": 22.928 }, "geometry": { "type": "Point", "coordinates": [ 129.31781, 35.498653, 115.0 ] } },
{ "type": "Feature", "properties": { "value": 27.062 }, "geometry": { "type": "Point", "coordinates": [ 129.318909, 35.49865, 115.0 ] } },
{ "type": "Feature", "properties": { "value": 17.042 }, "geometry": { "type": "Point", "coordinates": [ 129.320007, 35.498646, 115.0 ] } },
{ "type": "Feature", "properties": { "value": 11.513 }, "geometry": { "type": "Point", "coordinates": [ 129.321106, 35.498642, 115.0 ] } },
{ "type": "Feature", "properties": { "value": 4.979 }, "geometry": { "type": "Point", "coordinates": [ 129.32222, 35.498638, 115.0 ] } },
{ "type": "Feature", "properties": { "value": 1.1241 }, "geometry": { "type": "Point", "coordinates": [ 129.323318, 35.498638, 115.0 ] } },
{ "type": "Feature", "properties": { "value": 0.0492 }, "geometry": { "type": "Point", "coordinates": [ 129.324417, 35.498634, 115.0 ] } },
{ "type": "Feature", "properties": { "value": 0.0329 }, "geometry": { "type": "Point", "coordinates": [ 129.296875, 35.499607, 115.0 ] } },
{ "type": "Feature", "properties": { "value": 0.2913 }, "geometry": { "type": "Point", "coordinates": [ 129.297974, 35.499603, 115.0 ] } },
{ "type": "Feature", "properties": { "value": 1.1793 }, "geometry": { "type": "Point", "coordinates": [ 129.299072, 35.499599, 115.0 ] } },
{ "type": "Feature", "properties": { "value": 3.1097 }, "geometry": { "type": "Point", "coordinates": [ 129.300171, 35.499599, 115.0 ] } },
{ "type": "Feature", "properties": { "value": 6.2194 }, "geometry": { "type": "Point", "coordinates": [ 129.30127, 35.499596, 115.0 ] } },
{ "type": "Feature", "properties": { "value": 10.323 }, "geometry": { "type": "Point", "coordinates": [ 129.302383, 35.499592, 115.0 ] } },
{ "type": "Feature", "properties": { "value": 15.48 }, "geometry": { "type": "Point", "coordinates": [ 129.303482, 35.499588, 115.0 ] } },
{ "type": "Feature", "properties": { "value": 21.164 }, "geometry": { "type": "Point", "coordinates": [ 129.304581, 35.499588, 115.0 ] } },
{ "type": "Feature", "properties": { "value": 25.463 }, "geometry": { "type": "Point", "coordinates": [ 129.305679, 35.499584, 115.0 ] } },
{ "type": "Feature", "properties": { "value": 26.893 }, "geometry": { "type": "Point", "coordinates": [ 129.306793, 35.49958, 115.0 ] } },
{ "type": "Feature", "properties": { "value": 24.887 }, "geometry": { "type": "Point", "coordinates": [ 129.307892, 35.49958, 115.0 ] } },
{ "type": "Feature", "properties": { "value": 18.501 }, "geometry": { "type": "Point", "coordinates": [ 129.30899, 35.499577, 115.0 ] } },
{ "type": "Feature", "properties": { "value": 9.4444 }, "geometry": { "type": "Point", "coordinates": [ 129.310089, 35.499573, 115.0 ] } },
{ "type": "Feature", "properties": { "value": 3.4144 }, "geometry": { "type": "Point", "coordinates": [ 129.311203, 35.499569, 115.0 ] } },
{ "type": "Feature", "properties": { "value": 3.2574 }, "geometry": { "type": "Point", "coordinates": [ 129.312302, 35.499569, 115.0 ] } },
{ "type": "Feature", "properties": { "value": 7.3319 }, "geometry": { "type": "Point", "coordinates": [ 129.3134, 35.499565, 115.0 ] } },
{ "type": "Feature", "properties": { "value": 13.544 }, "geometry": { "type": "Point", "coordinates": [ 129.314499, 35.499561, 115.0 ] } },
{ "type": "Feature", "properties": { "value": 19.591 }, "geometry": { "type": "Point", "coordinates": [ 129.315598, 35.499557, 115.0 ] } },
{ "type": "Feature", "properties": { "value": 24.463 }, "geometry": { "type": "Point", "coordinates": [ 129.316711, 35.499557, 115.0 ] } },
{ "type": "Feature", "properties": { "value": 27.853 }, "geometry": { "type": "Point", "coordinates": [ 129.31781, 35.499554, 115.0 ] } },
{ "type": "Feature", "properties": { "value": 26.271 }, "geometry": { "type": "Point", "coordinates": [ 129.318909, 35.49955, 115.0 ] } },
{ "type": "Feature", "properties": { "value": 13.793 }, "geometry": { "type": "Point", "coordinates": [ 129.320007, 35.499546, 115.0 ] } },
{ "type": "Feature", "properties": { "value": 7.325 }, "geometry": { "type": "Point", "coordinates": [ 129.321121, 35.499546, 115.0 ] } },
{ "type": "Feature", "properties": { "value": 2.2341 }, "geometry": { "type": "Point", "coordinates": [ 129.32222, 35.499542, 115.0 ] } },
{ "type": "Feature", "properties": { "value": 0.3443 }, "geometry": { "type": "Point", "coordinates": [ 129.323318, 35.499538, 115.0 ] } },
{ "type": "Feature", "properties": { "value": 0.1266 }, "geometry": { "type": "Point", "coordinates": [ 129.296875, 35.500507, 115.0 ] } },
{ "type": "Feature", "properties": { "value": 0.7808 }, "geometry": { "type": "Point", "coordinates": [ 129.297974, 35.500504, 115.0 ] } },
{ "type": "Feature", "properties": { "value": 2.8976 }, "geometry": { "type": "Point", "coordinates": [ 129.299072, 35.500504, 115.0 ] } },
{ "type": "Feature", "properties": { "value": 7.3165 }, "geometry": { "type": "Point", "coordinates": [ 129.300171, 35.5005, 115.0 ] } },
{ "type": "Feature", "properties": { "value": 13.668 }, "geometry": { "type": "Point", "coordinates": [ 129.301285, 35.500496, 115.0 ] } },
{ "type": "Feature", "properties": { "value": 20.298 }, "geometry": { "type": "Point", "coordinates": [ 129.302383, 35.500492, 115.0 ] } },
{ "type": "Feature", "properties": { "value": 25.898 }, "geometry": { "type": "Point", "coordinates": [ 129.303482, 35.500492, 115.0 ] } },
{ "type": "Feature", "properties": { "value": 29.151 }, "geometry": { "type": "Point", "coordinates": [ 129.304581, 35.500488, 115.0 ] } },
{ "type": "Feature", "properties": { "value": 27.998 }, "geometry": { "type": "Point", "coordinates": [ 129.305695, 35.500484, 115.0 ] } },
{ "type": "Feature", "properties": { "value": 22.456 }, "geometry": { "type": "Point", "coordinates": [ 129.306793, 35.500484, 115.0 ] } },
{ "type": "Feature", "properties": { "value": 14.969 }, "geometry": { "type": "Point", "coordinates": [ 129.307892, 35.500481, 115.0 ] } },
{ "type": "Feature", "properties": { "value": 7.7834 }, "geometry": { "type": "Point", "coordinates": [ 129.30899, 35.500477, 115.0 ] } },
{ "type": "Feature", "properties": { "value": 2.9829 }, "geometry": { "type": "Point", "coordinates": [ 129.310104, 35.500473, 115.0 ] } },
{ "type": "Feature", "properties": { "value": 1.9892 }, "geometry": { "type": "Point", "coordinates": [ 129.311203, 35.500473, 115.0 ] } },
{ "type": "Feature", "properties": { "value": 4.7811 }, "geometry": { "type": "Point", "coordinates": [ 129.312302, 35.500469, 115.0 ] } },
{ "type": "Feature", "properties": { "value": 10.895 }, "geometry": { "type": "Point", "coordinates": [ 129.3134, 35.500465, 115.0 ] } },
{ "type": "Feature", "properties": { "value": 19.041 }, "geometry": { "type": "Point", "coordinates": [ 129.314499, 35.500462, 115.0 ] } },
{ "type": "Feature", "properties": { "value": 26.052 }, "geometry": { "type": "Point", "coordinates": [ 129.315613, 35.500462, 115.0 ] } },
{ "type": "Feature", "properties": { "value": 29.384 }, "geometry": { "type": "Point", "coordinates": [ 129.316711, 35.500458, 115.0 ] } },
{ "type": "Feature", "properties": { "value": 27.997 }, "geometry": { "type": "Point", "coordinates": [ 129.31781, 35.500454, 115.0 ] } },
{ "type": "Feature", "properties": { "value": 19.624 }, "geometry": { "type": "Point", "coordinates": [ 129.318909, 35.50045, 115.0 ] } },
{ "type": "Feature", "properties": { "value": 9.4166 }, "geometry": { "type": "Point", "coordinates": [ 129.320023, 35.50045, 115.0 ] } },
{ "type": "Feature", "properties": { "value": 3.621 }, "geometry": { "type": "Point", "coordinates": [ 129.321121, 35.500446, 115.0 ] } },
{ "type": "Feature", "properties": { "value": 0.7641 }, "geometry": { "type": "Point", "coordinates": [ 129.32222, 35.500443, 115.0 ] } },
{ "type": "Feature", "properties": { "value": 0.0187 }, "geometry": { "type": "Point", "coordinates": [ 129.295776, 35.501411, 115.0 ] } },
{ "type": "Feature", "properties": { "value": 0.2145 }, "geometry": { "type": "Point", "coordinates": [ 129.296875, 35.501408, 115.0 ] } },
{ "type": "Feature", "properties": { "value": 1.2153 }, "geometry": { "type": "Point", "coordinates": [ 129.297974, 35.501408, 115.0 ] } },
{ "type": "Feature", "properties": { "value": 4.3754 }, "geometry": { "type": "Point", "coordinates": [ 129.299072, 35.501404, 115.0 ] } },
{ "type": "Feature", "properties": { "value": 10.604 }, "geometry": { "type": "Point", "coordinates": [ 129.300186, 35.5014, 115.0 ] } },
{ "type": "Feature", "properties": { "value": 18.564 }, "geometry": { "type": "Point", "coordinates": [ 129.301285, 35.501396, 115.0 ] } },
{ "type": "Feature", "properties": { "value": 24.952 }, "geometry": { "type": "Point", "coordinates": [ 129.302383, 35.501396, 115.0 ] } },
{ "type": "Feature", "properties": { "value": 27.343 }, "geometry": { "type": "Point", "coordinates": [ 129.303482, 35.501392, 115.0 ] } },
{ "type": "Feature", "properties": { "value": 25.27 }, "geometry": { "type": "Point", "coordinates": [ 129.304596, 35.501389, 115.0 ] } },
{ "type": "Feature", "properties": { "value": 19.31 }, "geometry": { "type": "Point", "coordinates": [ 129.305695, 35.501389, 115.0 ] } },
{ "type": "Feature", "properties": { "value": 11.748 }, "geometry": { "type": "Point", "coordinates": [ 129.306793, 35.501385, 115.0 ] } },
{ "type": "Feature", "properties": { "value": 5.6314 }, "geometry": { "type": "Point", "coordinates": [ 129.307892, 35.501381, 115.0 ] } },
{ "type": "Feature", "properties": { "value": 2.075 }, "geometry": { "type": "Point", "coordinates": [ 129.309006, 35.501377, 115.0 ] } },
{ "type": "Feature", "properties": { "value": 0.8839 }, "geometry": { "type": "Point", "coordinates": [ 129.310104, 35.501377, 115.0 ] } },
{ "type": "Feature", "properties": { "value": 1.8968 }, "geometry": { "type": "Point", "coordinates": [ 129.311203, 35.501373, 115.0 ] } },
{ "type": "Feature", "properties": { "value": 5.6411 }, "geometry": { "type": "Point", "coordinates": [ 129.312302, 35.501369, 115.0 ] } },
{ "type": "Feature", "properties": { "value": 12.207 }, "geometry": { "type": "Point", "coordinates": [ 129.3134, 35.501366, 115.0 ] } },
{ "type": "Feature", "properties": { "value": 20.064 }, "geometry": { "type": "Point", "coordinates": [ 129.314514, 35.501366, 115.0 ] } },
{ "type": "Feature", "properties": { "value": 25.643 }, "geometry": { "type": "Point", "coordinates": [ 129.315613, 35.501362, 115.0 ] } },
{ "type": "Feature", "properties": { "value": 26.352 }, "geometry": { "type": "Point", "coordinates": [ 129.316711, 35.501358, 115.0 ] } },
{ "type": "Feature", "properties": { "value": 20.757 }, "geometry": { "type": "Point", "coordinates": [ 129.31781, 35.501354, 115.0 ] } },
{ "type": "Feature", "properties": { "value": 11.045 }, "geometry": { "type": "Point", "coordinates": [ 129.318924, 35.501354, 115.0 ] } },
{ "type": "Feature", "properties": { "value": 4.8431 }, "geometry": { "type": "Point", "coordinates": [ 129.320023, 35.50135, 115.0 ] } },
{ "type": "Feature", "properties": { "value": 1.3224 }, "geometry": { "type": "Point", "coordinates": [ 129.321121, 35.501347, 115.0 ] } },
{ "type": "Feature", "properties": { "value": 0.0448 }, "geometry": { "type": "Point", "coordinates": [ 129.32222, 35.501343, 115.0 ] } }
]
}
