{
"type": "FeatureCollection",
"features": [
{ "type": "Feature", "properties": { "value": 0.0 }, "geometry": { "type": "Point", "coordinates": [ 129.322128, 35.477909, 450.0 ] } },
{ "type": "Feature", "properties": { "value": 0.0 }, "geometry": { "type": "Point", "coordinates": [ 129.323227, 35.477909, 450.0 ] } },
{ "type": "Feature", "properties": { "value": 0.0 }, "geometry": { "type": "Point", "coordinates": [ 129.324341, 35.477905, 450.0 ] } },
{ "type": "Feature", "properties": { "value": 0.0 }, "geometry": { "type": "Point", "coordinates": [ 129.325439, 35.477901, 450.0 ] } },
{ "type": "Feature", "properties": { "value": 0.0 }, "geometry": { "type": "Point", "coordinates": [ 129.32103, 35.478813, 450.0 ] } },
{ "type": "Feature", "properties": { "value": 0.0 }, "geometry": { "type": "Point", "coordinates": [ 129.322128, 35.478813, 450.0 ] } },
{ "type": "Feature", "properties": { "value": 0.0 }, "geometry": { "type": "Point", "coordinates": [ 129.323242, 35.478809, 450.0 ] } },
{ "type": "Feature", "properties": { "value": 0.0 }, "geometry": { "type": "Point", "coordinates": [ 129.324341, 35.478806, 450.0 ] } },
{ "type": "Feature", "properties": { "value": 0.0 }, "geometry": { "type": "Point", "coordinates": [ 129.325439, 35.478802, 450.0 ] } },
{ "type": "Feature", "properties": { "value": 0.0 }, "geometry": { "type": "Point", "coordinates": [ 129.326538, 35.478798, 450.0 ] } },
{ "type": "Feature", "properties": { "value": 0.0 }, "geometry": { "type": "Point", "coordinates": [ 129.32103, 35.479717, 450.0 ] } },
{ "type": "Feature", "properties": { "value": 0.0 }, "geometry": { "type": "Point", "coordinates": [ 129.322144, 35.479713, 450.0 ] } },
{ "type": "Feature", "properties": { "value": 0.0 }, "geometry": { "type": "Point", "coordinates": [ 129.323242, 35.47971, 450.0 ] } },
{ "type": "Feature", "properties": { "value": 0.0 }, "geometry": { "type": "Point", "coordinates": [ 129.324341, 35.479706, 450.0 ] } },
{ "type": "Feature", "properties": { "value": 0.0 }, "geometry": { "type": "Point", "coordinates": [ 129.325439, 35.479706, 450.0 ] } },
{ "type": "Feature", "properties": { "value": 0.0 }, "geometry": { "type": "Point", "coordinates": [ 129.326553, 35.479702, 450.0 ] } },
{ "type": "Feature", "properties": { "value": 0.0 }, "geometry": { "type": "Point", "coordinates": [ 129.321045, 35.480618, 450.0 ] } },
{ "type": "Feature", "properties": { "value": 0.0 }, "geometry": { "type": "Point", "coordinates": [ 129.322144, 35.480614, 450.0 ] } },
{ "type": "Feature", "properties": { "value": 0.0 }, "geometry": { "type": "Point", "coordinates": [ 129.323242, 35.48061, 450.0 ] } },
{ "type": "Feature", "properties": { "value": 0.0 }, "geometry": { "type": "Point", "coordinates": [ 129.324341, 35.48061, 450.0 ] } },
{ "type": "Feature", "properties": { "value": 0.0 }, "geometry": { "type": "Point", "coordinates": [ 129.325455, 35.480606, 450.0 ] } },
{ "type": "Feature", "properties": { "value": 0.0 }, "geometry": { "type": "Point", "coordinates": [ 129.326553, 35.480602, 450.0 ] } },
{ "type": "Feature", "properties": { "value": 0.0 }, "geometry": { "type": "Point", "coordinates": [ 129.327652, 35.480598, 450.0 ] } },
{ "type": "Feature", "properties": { "value": 0.0 }, "geometry": { "type": "Point", "coordinates": [ 129.322144, 35.481514, 450.0 ] } },
{ "type": "Feature", "properties": { "value": 0.0 }, "geometry": { "type": "Point", "coordinates": [ 129.323242, 35.481514, 450.0 ] } },
{ "type": "Feature", "properties": { "value": 0.0 }, "geometry": { "type": "Point", "coordinates": [ 129.324356, 35.48151, 450.0 ] } },
{ "type": "Feature", "properties": { "value": 0.0 }, "geometry": { "type": "Point", "coordinates": [ 129.325455, 35.481506, 450.0 ] } },
{ "type": "Feature", "properties": { "value": 0.0 }, "geometry": { "type": "Point", "coordinates": [ 129.326553, 35.481503, 450.0 ] } },
{ "type": "Feature", "properties": { "value": 0.0 }, "geometry": { "type": "Point", "coordinates": [ 129.327652, 35.481503, 450.0 ] } },
{ "type": "Feature", "properties": { "value": 0.0 }, "geometry": { "type": "Point", "coordinates": [ 129.328751, 35.481499, 450.0 ] } },
{ "type": "Feature", "properties": { "value": 0.0 }, "geometry": { "type": "Point", "coordinates": [ 129.322144, 35.482418, 450.0 ] } },
{ "type": "Feature", "properties": { "value": 0.0 }, "geometry": { "type": "Point", "coordinates": [ 129.323257, 35.482414, 450.0 ] } },
{ "type": "Feature", "properties": { "value": 0.0 }, "geometry": { "type": "Point", "coordinates": [ 129.324356, 35.48241, 450.0 ] } },
{ "type": "Feature", "properties": { "value": 0.0 }, "geometry": { "type": "Point", "coordinates": [ 129.325455, 35.482407, 450.0 ] } },
{ "type": "Feature", "properties": { "value": 0.0 }, "geometry": { "type": "Point", "coordinates": [ 129.326553, 35.482407, 450.0 ] } },
{ "type": "Feature", "properties": { "value": 0.0 }, "geometry": { "type": "Point", "coordinates": [ 129.327652, 35.482403, 450.0 ] } },
{ "type": "Feature", "properties": { "value": 0.0 }, "geometry": { "type": "Point", "coordinates": [ 129.328766, 35.482399, 450.0 ] } },
{ "type": "Feature", "properties": { "value": 0.0 }, "geometry": { "type": "Point", "coordinates": [ 129.329865, 35.482395, 450.0 ] } },
{ "type": "Feature", "properties": { "value": 0.0 }, "geometry": { "type": "Point", "coordinates": [ 129.323257, 35.483315, 450.0 ] } },
{ "type": "Feature", "properties": { "value": 0.0 }, "geometry": { "type": "Point", "coordinates": [ 129.324356, 35.483311, 450.0 ] } },
{ "type": "Feature", "properties": { "value": 0.0 }, "geometry": { "type": "Point", "coordinates": [ 129.325455, 35.483311, 450.0 ] } },
{ "type": "Feature", "properties": { "value": 0.0001 }, "geometry": { "type": "Point", "coordinates": [ 129.326553, 35.483307, 450.0 ] } },
{ "type": "Feature", "properties": { "value": 0.0002 }, "geometry": { "type": "Point", "coordinates": [ 129.327667, 35.483303, 450.0 ] } },
{ "type": "Feature", "properties": { "value": 0.0002 }, "geometry": { "type": "Point", "coordinates": [ 129.328766, 35.483299, 450.0 ] } },
{ "type": "Feature", "properties": { "value": 0.0001 }, "geometry": { "type": "Point", "coordinates": [ 129.329865, 35.483295, 450.0 ] } },
{ "type": "Feature", "properties": { "value": 0.0 }, "geometry": { "type": "Point", "coordinates": [ 129.330963, 35.483295, 450.0 ] } },
{ "type": "Feature", "properties": { "value": 0.0 }, "geometry": { "type": "Point", "coordinates": [ 129.323257, 35.484215, 450.0 ] } },
{ "type": "Feature", "properties": { "value": 0.0 }, "geometry": { "type": "Point", "coordinates": [ 129.324356, 35.484215, 450.0 ] } },
{ "type": "Feature", "properties": { "value": 0.0 }, "geometry": { "type": "Point", "coordinates": [ 129.325455, 35.484211, 450.0 ] } },
{ "type": "Feature", "properties": { "value": 0.0002 }, "geometry": { "type": "Point", "coordinates": [ 129.326569, 35.484207, 450.0 ] } },
{ "type": "Feature", "properties": { "value": 0.0004 }, "geometry": { "type": "Point", "coordinates": [ 129.327667, 35.484203, 450.0 ] } },
{ "type": "Feature", "properties": { "value": 0.0005 }, "geometry": { "type": "Point", "coordinates": [ 129.328766, 35.484203, 450.0 ] } },
{ "type": "Feature", "properties": { "value": 0.0004 }, "geometry": { "type": "Point", "coordinates": [ 129.329865, 35.4842, 450.0 ] } },
{ "type": "Feature", "properties": { "value": 0.0002 }, "geometry": { "type": "Point", "coordinates": [ 129.330978, 35.484196, 450.0 ] } },
{ "type": "Feature", "properties": { "value": 0.0 }, "geometry": { "type": "Point", "coordinates": [ 129.332077, 35.484192, 450.0 ] } },
{ "type": "Feature", "properties": { "value": 0.0 }, "geometry": { "type": "Point", "coordinates": [ 129.324371, 35.485115, 450.0 ] } },
{ "type": "Feature", "properties": { "value": 0.0 }, "geometry": { "type": "Point", "coordinates": [ 129.32547, 35.485111, 450.0 ] } },
{ "type": "Feature", "properties": { "value": 0.0002 }, "geometry": { "type": "Point", "coordinates": [ 129.326569, 35.485107, 450.0 ] } },
{ "type": "Feature", "properties": { "value": 0.0006 }, "geometry": { "type": "Point", "coordinates": [ 129.327667, 35.485107, 450.0 ] } },
{ "type": "Feature", "properties": { "value": 0.0011 }, "geometry": { "type": "Point", "coordinates": [ 129.328766, 35.485104, 450.0 ] } },
{ "type": "Feature", "properties": { "value": 0.0015 }, "geometry": { "type": "Point", "coordinates": [ 129.32988, 35.4851, 450.0 ] } },
{ "type": "Feature", "properties": { "value": 0.001 }, "geometry": { "type": "Point", "coordinates": [ 129.330978, 35.485096, 450.0 ] } },
{ "type": "Feature", "properties": { "value": 0.0004 }, "geometry": { "type": "Point", "coordinates": [ 129.332077, 35.485092, 450.0 ] } },
{ "type": "Feature", "properties": { "value": 0.0001 }, "geometry": { "type": "Point", "coordinates": [ 129.333176, 35.485092, 450.0 ] } },
{ "type": "Feature", "properties": { "value": 0.0 }, "geometry": { "type": "Point", "coordinates": [ 129.32547, 35.486012, 450.0 ] } },
{ "type": "Feature", "properties": { "value": 0.0002 }, "geometry": { "type": "Point", "coordinates": [ 129.326569, 35.486012, 450.0 ] } },
{ "type": "Feature", "properties": { "value": 0.0009 }, "geometry": { "type": "Point", "coordinates": [ 129.327667, 35.486008, 450.0 ] } },
{ "type": "Feature", "properties": { "value": 0.0023 }, "geometry": { "type": "Point", "coordinates": [ 129.328781, 35.486004, 450.0 ] } },
{ "type": "Feature", "properties": { "value": 0.0035 }, "geometry": { "type": "Point", "coordinates": [ 129.32988, 35.486, 450.0 ] } },
{ "type": "Feature", "properties": { "value": 0.0029 }, "geometry": { "type": "Point", "coordinates": [ 129.330978, 35.485996, 450.0 ] } },
{ "type": "Feature", "properties": { "value": 0.0017 }, "geometry": { "type": "Point", "coordinates": [ 129.332077, 35.485996, 450.0 ] } },
{ "type": "Feature", "properties": { "value": 0.0008 }, "geometry": { "type": "Point", "coordinates": [ 129.333176, 35.485992, 450.0 ] } },
{ "type": "Feature", "properties": { "value": 0.0003 }, "geometry": { "type": "Point", "coordinates": [ 129.33429, 35.485989, 450.0 ] } },
{ "type": "Feature", "properties": { "value": 0.0 }, "geometry": { "type": "Point", "coordinates": [ 129.32547, 35.486916, 450.0 ] } },
{ "type": "Feature", "properties": { "value": 0.0002 }, "geometry": { "type": "Point", "coordinates": [ 129.326569, 35.486912, 450.0 ] } },
{ "type": "Feature", "properties": { "value": 0.001 }, "geometry": { "type": "Point", "coordinates": [ 129.327682, 35.486908, 450.0 ] } },
{ "type": "Feature", "properties": { "value": 0.0032 }, "geometry": { "type": "Point", "coordinates": [ 129.328781, 35.486904, 450.0 ] } },
{ "type": "Feature", "properties": { "value": 0.006 }, "geometry": { "type": "Point", "coordinates": [ 129.32988, 35.486904, 450.0 ] } },
{ "type": "Feature", "properties": { "value": 0.0069 }, "geometry": { "type": "Point", "coordinates": [ 129.330978, 35.4869, 450.0 ] } },
{ "type": "Feature", "properties": { "value": 0.0057 }, "geometry": { "type": "Point", "coordinates": [ 129.332092, 35.486897, 450.0 ] } },
{ "type": "Feature", "properties": { "value": 0.0036 }, "geometry": { "type": "Point", "coordinates": [ 129.333191, 35.486893, 450.0 ] } },
{ "type": "Feature", "properties": { "value": 0.0017 }, "geometry": { "type": "Point", "coordinates": [ 129.33429, 35.486889, 450.0 ] } },
{ "type": "Feature", "properties": { "value": 0.0006 }, "geometry": { "type": "Point", "coordinates": [ 129.335388, 35.486889, 450.0 ] } },
{ "type": "Feature", "properties": { "value": 0.0001 }, "geometry": { "type": "Point", "coordinates": [ 129.326584, 35.487812, 450.0 ] } },
{ "type": "Feature", "properties": { "value": 0.0008 }, "geometry": { "type": "Point", "coordinates": [ 129.327682, 35.487808, 450.0 ] } },
{ "type": "Feature", "properties": { "value": 0.0033 }, "geometry": { "type": "Point", "coordinates": [ 129.328781, 35.487808, 450.0 ] } },
{ "type": "Feature", "properties": { "value": 0.0081 }, "geometry": { "type": "Point", "coordinates": [ 129.32988, 35.487804, 450.0 ] } },
{ "type": "Feature", "properties": { "value": 0.0126 }, "geometry": { "type": "Point", "coordinates": [ 129.330994, 35.487801, 450.0 ] } },
{ "type": "Feature", "properties": { "value": 0.0136 }, "geometry": { "type": "Point", "coordinates": [ 129.332092, 35.487797, 450.0 ] } },
{ "type": "Feature", "properties": { "value": 0.011 }, "geometry": { "type": "Point", "coordinates": [ 129.333191, 35.487793, 450.0 ] } },
{ "type": "Feature", "properties": { "value": 0.0067 }, "geometry": { "type": "Point", "coordinates": [ 129.33429, 35.487793, 450.0 ] } },
{ "type": "Feature", "properties": { "value": 0.0033 }, "geometry": { "type": "Point", "coordinates": [ 129.335388, 35.487789, 450.0 ] } },
{ "type": "Feature", "properties": { "value": 0.0011 }, "geometry": { "type": "Point", "coordinates": [ 129.336502, 35.487785, 450.0 ] } },
{ "type": "Feature", "properties": { "value": 0.0 }, "geometry": { "type": "Point", "coordinates": [ 129.326584, 35.488712, 450.0 ] } },
{ "type": "Feature", "properties": { "value": 0.0005 }, "geometry": { "type": "Point", "coordinates": [ 129.327682, 35.488712, 450.0 ] } },
{ "type": "Feature", "properties": { "value": 0.0028 }, "geometry": { "type": "Point", "coordinates": [ 129.328781, 35.488708, 450.0 ] } },
{ "type": "Feature", "properties": { "value": 0.009 }, "geometry": { "type": "Point", "coordinates": [ 129.329895, 35.488705, 450.0 ] } },
{ "type": "Feature", "properties": { "value": 0.0174 }, "geometry": { "type": "Point", "coordinates": [ 129.330994, 35.488701, 450.0 ] } },
{ "type": "Feature", "properties": { "value": 0.0239 }, "geometry": { "type": "Point", "coordinates": [ 129.332092, 35.488697, 450.0 ] } },
{ "type": "Feature", "properties": { "value": 0.0247 }, "geometry": { "type": "Point", "coordinates": [ 129.333191, 35.488697, 450.0 ] } },
{ "type": "Feature", "properties": { "value": 0.0194 }, "geometry": { "type": "Point", "coordinates": [ 129.33429, 35.488693, 450.0 ] } },
{ "type": "Feature", "properties": { "value": 0.0123 }, "geometry": { "type": "Point", "coordinates": [ 129.335403, 35.488689, 450.0 ] } },
{ "type": "Feature", "properties": { "value": 0.0062 }, "geometry": { "type": "Point", "coordinates": [ 129.336502, 35.488686, 450.0 ] } },
{ "type": "Feature", "properties": { "value": 0.0023 }, "geometry": { "type": "Point", "coordinates": [ 129.337601, 35.488682, 450.0 ] } },
{ "type": "Feature", "properties": { "value": 0.0002 }, "geometry": { "type": "Point", "coordinates": [ 129.327682, 35.489613, 450.0 ] } },
{ "type": "Feature", "properties": { "value": 0.0019 }, "geometry": { "type": "Point", "coordinates": [ 129.328796, 35.489609, 450.0 ] } },
{ "type": "Feature", "properties": { "value": 0.0081 }, "geometry": { "type": "Point", "coordinates": [ 129.329895, 35.489605, 450.0 ] } },
{ "type": "Feature", "properties": { "value": 0.0199 }, "geometry": { "type": "Point", "coordinates": [ 129.330994, 35.489605, 450.0 ] } },
{ "type": "Feature", "properties": { "value": 0.0338 }, "geometry": { "type": "Point", "coordinates": [ 129.332092, 35.489601, 450.0 ] } },
{ "type": "Feature", "properties": { "value": 0.0439 }, "geometry": { "type": "Point", "coordinates": [ 129.333191, 35.489597, 450.0 ] } },
{ "type": "Feature", "properties": { "value": 0.0437 }, "geometry": { "type": "Point", "coordinates": [ 129.334305, 35.489594, 450.0 ] } },
{ "type": "Feature", "properties": { "value": 0.0341 }, "geometry": { "type": "Point", "coordinates": [ 129.335403, 35.48959, 450.0 ] } },
{ "type": "Feature", "properties": { "value": 0.0214 }, "geometry": { "type": "Point", "coordinates": [ 129.336502, 35.48959, 450.0 ] } },
{ "type": "Feature", "properties": { "value": 0.0111 }, "geometry": { "type": "Point", "coordinates": [ 129.337601, 35.489586, 450.0 ] } },
{ "type": "Feature", "properties": { "value": 0.0047 }, "geometry": { "type": "Point", "coordinates": [ 129.338715, 35.489582, 450.0 ] } },
{ "type": "Feature", "properties": { "value": 0.0 }, "geometry": { "type": "Point", "coordinates": [ 129.327698, 35.490513, 450.0 ] } },
{ "type": "Feature", "properties": { "value": 0.0011 }, "geometry": { "type": "Point", "coordinates": [ 129.328796, 35.490509, 450.0 ] } },
{ "type": "Feature", "properties": { "value": 0.006 }, "geometry": { "type": "Point", "coordinates": [ 129.329895, 35.490509, 450.0 ] } },
{ "type": "Feature", "properties": { "value": 0.019 }, "geometry": { "type": "Point", "coordinates": [ 129.330994, 35.490505, 450.0 ] } },
{ "type": "Feature", "properties": { "value": 0.0402 }, "geometry": { "type": "Point", "coordinates": [ 129.332092, 35.490501, 450.0 ] } },
{ "type": "Feature", "properties": { "value": 0.0639 }, "geometry": { "type": "Point", "coordinates": [ 129.333206, 35.490498, 450.0 ] } },
{ "type": "Feature", "properties": { "value": 0.0776 }, "geometry": { "type": "Point", "coordinates": [ 129.334305, 35.490494, 450.0 ] } },
{ "type": "Feature", "properties": { "value": 0.0727 }, "geometry": { "type": "Point", "coordinates": [ 129.335403, 35.490494, 450.0 ] } },
{ "type": "Feature", "properties": { "value": 0.0545 }, "geometry": { "type": "Point", "coordinates": [ 129.336502, 35.49049, 450.0 ] } },
{ "type": "Feature", "properties": { "value": 0.0339 }, "geometry": { "type": "Point", "coordinates": [ 129.337616, 35.490486, 450.0 ] } },
{ "type": "Feature", "properties": { "value": 0.0179 }, "geometry": { "type": "Point", "coordinates": [ 129.338715, 35.490482, 450.0 ] } },
{ "type": "Feature", "properties": { "value": 0.0077 }, "geometry": { "type": "Point", "coordinates": [ 129.339813, 35.490479, 450.0 ] } },
{ "type": "Feature", "properties": { "value": 0.0017 }, "geometry": { "type": "Point", "coordinates": [ 129.340912, 35.490479, 450.0 ] } },
{ "type": "Feature", "properties": { "value": 0.0004 }, "geometry": { "type": "Point", "coordinates": [ 129.328796, 35.491413, 450.0 ] } },
{ "type": "Feature", "properties": { "value": 0.0035 }, "geometry": { "type": "Point", "coordinates": [ 129.329895, 35.491409, 450.0 ] } },
{ "type": "Feature", "properties": { "value": 0.0139 }, "geometry": { "type": "Point", "coordinates": [ 129.331009, 35.491405, 450.0 ] } },
{ "type": "Feature", "properties": { "value": 0.0366 }, "geometry": { "type": "Point", "coordinates": [ 129.332108, 35.491402, 450.0 ] } },
{ "type": "Feature", "properties": { "value": 0.0716 }, "geometry": { "type": "Point", "coordinates": [ 129.333206, 35.491398, 450.0 ] } },
{ "type": "Feature", "properties": { "value": 0.105 }, "geometry": { "type": "Point", "coordinates": [ 129.334305, 35.491398, 450.0 ] } },
{ "type": "Feature", "properties": { "value": 0.1191 }, "geometry": { "type": "Point", "coordinates": [ 129.335403, 35.491394, 450.0 ] } },
{ "type": "Feature", "properties": { "value": 0.1051 }, "geometry": { "type": "Point", "coordinates": [ 129.336517, 35.49139, 450.0 ] } },
{ "type": "Feature", "properties": { "value": 0.0773 }, "geometry": { "type": "Point", "coordinates": [ 129.337616, 35.491386, 450.0 ] } },
{ "type": "Feature", "properties": { "value": 0.0507 }, "geometry": { "type": "Point", "coordinates": [ 129.338715, 35.491383, 450.0 ] } },
{ "type": "Feature", "properties": { "value": 0.0284 }, "geometry": { "type": "Point", "coordinates": [ 129.339813, 35.491383, 450.0 ] } },
{ "type": "Feature", "properties": { "value": 0.0133 }, "geometry": { "type": "Point", "coordinates": [ 129.340927, 35.491379, 450.0 ] } },
{ "type": "Feature", "properties": { "value": 0.0054 }, "geometry": { "type": "Point", "coordinates": [ 129.342026, 35.491375, 450.0 ] } },
{ "type": "Feature", "properties": { "value": 0.0014 }, "geometry": { "type": "Point", "coordinates": [ 129.32991, 35.49231, 450.0 ] } },
{ "type": "Feature", "properties": { "value": 0.0075 }, "geometry": { "type": "Point", "coordinates": [ 129.331009, 35.492306, 450.0 ] } },
{ "type": "Feature", "properties": { "value": 0.0256 }, "geometry": { "type": "Point", "coordinates": [ 129.332108, 35.492306, 450.0 ] } },
{ "type": "Feature", "properties": { "value": 0.0615 }, "geometry": { "type": "Point", "coordinates": [ 129.333206, 35.492302, 450.0 ] } },
{ "type": "Feature", "properties": { "value": 0.11 }, "geometry": { "type": "Point", "coordinates": [ 129.334305, 35.492298, 450.0 ] } },
{ "type": "Feature", "properties": { "value": 0.1492 }, "geometry": { "type": "Point", "coordinates": [ 129.335419, 35.492294, 450.0 ] } },
{ "type": "Feature", "properties": { "value": 0.1574 }, "geometry": { "type": "Point", "coordinates": [ 129.336517, 35.49229, 450.0 ] } },
{ "type": "Feature", "properties": { "value": 0.1381 }, "geometry": { "type": "Point", "coordinates": [ 129.337616, 35.49229, 450.0 ] } },
{ "type": "Feature", "properties": { "value": 0.1082 }, "geometry": { "type": "Point", "coordinates": [ 129.338715, 35.492287, 450.0 ] } },
{ "type": "Feature", "properties": { "value": 0.0757 }, "geometry": { "type": "Point", "coordinates": [ 129.339828, 35.492283, 450.0 ] } },
{ "type": "Feature", "properties": { "value": 0.0469 }, "geometry": { "type": "Point", "coordinates": [ 129.340927, 35.492279, 450.0 ] } },
{ "type": "Feature", "properties": { "value": 0.0265 }, "geometry": { "type": "Point", "coordinates": [ 129.342026, 35.492275, 450.0 ] } },
{ "type": "Feature", "properties": { "value": 0.0131 }, "geometry": { "type": "Point", "coordinates": [ 129.343124, 35.492271, 450.0 ] } },
{ "type": "Feature", "properties": { "value": 0.0039 }, "geometry": { "type": "Point", "coordinates": [ 129.344223, 35.492271, 450.0 ] } },
{ "type": "Feature", "properties": { "value": 0.0031 }, "geometry": { "type": "Point", "coordinates": [ 129.331009, 35.49321, 450.0 ] } },
{ "type": "Feature", "properties": { "value": 0.0146 }, "geometry": { "type": "Point", "coordinates": [ 129.332108, 35.493206, 450.0 ] } },
{ "type": "Feature", "properties": { "value": 0.0435 }, "geometry": { "type": "Point", "coordinates": [ 129.333206, 35.493202, 450.0 ] } },
{ "type": "Feature", "properties": { "value": 0.0912 }, "geometry": { "type": "Point", "coordinates": [ 129.33432, 35.493198, 450.0 ] } },
{ "type": "Feature", "properties": { "value": 0.1465 }, "geometry": { "type": "Point", "coordinates": [ 129.335419, 35.493195, 450.0 ] } },
{ "type": "Feature", "properties": { "value": 0.1859 }, "geometry": { "type": "Point", "coordinates": [ 129.336517, 35.493195, 450.0 ] } },
{ "type": "Feature", "properties": { "value": 0.1965 }, "geometry": { "type": "Point", "coordinates": [ 129.337616, 35.493191, 450.0 ] } },
{ "type": "Feature", "properties": { "value": 0.1832 }, "geometry": { "type": "Point", "coordinates": [ 129.33873, 35.493187, 450.0 ] } },
{ "type": "Feature", "properties": { "value": 0.157 }, "geometry": { "type": "Point", "coordinates": [ 129.339828, 35.493183, 450.0 ] } },
{ "type": "Feature", "properties": { "value": 0.1219 }, "geometry": { "type": "Point", "coordinates": [ 129.340927, 35.493179, 450.0 ] } },
{ "type": "Feature", "properties": { "value": 0.0838 }, "geometry": { "type": "Point", "coordinates": [ 129.342026, 35.493179, 450.0 ] } },
{ "type": "Feature", "properties": { "value": 0.0512 }, "geometry": { "type": "Point", "coordinates": [ 129.343124, 35.493176, 450.0 ] } },
{ "type": "Feature", "properties": { "value": 0.0275 }, "geometry": { "type": "Point", "coordinates": [ 129.344238, 35.493172, 450.0 ] } },
{ "type": "Feature", "properties": { "value": 0.0123 }, "geometry": { "type": "Point", "coordinates": [ 129.345337, 35.493168, 450.0 ] } },
{ "type": "Feature", "properties": { "value": 0.0008 }, "geometry": { "type": "Point", "coordinates": [ 129.331009, 35.49411, 450.0 ] } },
{ "type": "Feature", "properties": { "value": 0.0066 }, "geometry": { "type": "Point", "coordinates": [ 129.332108, 35.494106, 450.0 ] } },
{ "type": "Feature", "properties": { "value": 0.0238 }, "geometry": { "type": "Point", "coordinates": [ 129.333221, 35.494102, 450.0 ] } },
{ "type": "Feature", "properties": { "value": 0.0605 }, "geometry": { "type": "Point", "coordinates": [ 129.33432, 35.494099, 450.0 ] } },
{ "type": "Feature", "properties": { "value": 0.1156 }, "geometry": { "type": "Point", "coordinates": [ 129.335419, 35.494099, 450.0 ] } },
{ "type": "Feature", "properties": { "value": 0.1747 }, "geometry": { "type": "Point", "coordinates": [ 129.336517, 35.494095, 450.0 ] } },
{ "type": "Feature", "properties": { "value": 0.2248 }, "geometry": { "type": "Point", "coordinates": [ 129.337631, 35.494091, 450.0 ] } },
{ "type": "Feature", "properties": { "value": 0.2556 }, "geometry": { "type": "Point", "coordinates": [ 129.33873, 35.494087, 450.0 ] } },
{ "type": "Feature", "properties": { "value": 0.2627 }, "geometry": { "type": "Point", "coordinates": [ 129.339828, 35.494083, 450.0 ] } },
{ "type": "Feature", "properties": { "value": 0.2422 }, "geometry": { "type": "Point", "coordinates": [ 129.340927, 35.494083, 450.0 ] } },
{ "type": "Feature", "properties": { "value": 0.1953 }, "geometry": { "type": "Point", "coordinates": [ 129.342026, 35.49408, 450.0 ] } },
{ "type": "Feature", "properties": { "value": 0.1392 }, "geometry": { "type": "Point", "coordinates": [ 129.34314, 35.494076, 450.0 ] } },
{ "type": "Feature", "properties": { "value": 0.0901 }, "geometry": { "type": "Point", "coordinates": [ 129.344238, 35.494072, 450.0 ] } },
{ "type": "Feature", "properties": { "value": 0.054 }, "geometry": { "type": "Point", "coordinates": [ 129.345337, 35.494068, 450.0 ] } },
{ "type": "Feature", "properties": { "value": 0.029 }, "geometry": { "type": "Point", "coordinates": [ 129.346436, 35.494068, 450.0 ] } },
{ "type": "Feature", "properties": { "value": 0.0134 }, "geometry": { "type": "Point", "coordinates": [ 129.347549, 35.494064, 450.0 ] } },
{ "type": "Feature", "properties": { "value": 0.002 }, "geometry": { "type": "Point", "coordinates": [ 129.332123, 35.495007, 450.0 ] } },
{ "type": "Feature", "properties": { "value": 0.0092 }, "geometry": { "type": "Point", "coordinates": [ 129.333221, 35.495007, 450.0 ] } },
{ "type": "Feature", "properties": { "value": 0.0299 }, "geometry": { "type": "Point", "coordinates": [ 129.33432, 35.495003, 450.0 ] } },
{ "type": "Feature", "properties": { "value": 0.0726 }, "geometry": { "type": "Point", "coordinates": [ 129.335419, 35.494999, 450.0 ] } },
{ "type": "Feature", "properties": { "value": 0.136 }, "geometry": { "type": "Point", "coordinates": [ 129.336533, 35.494995, 450.0 ] } },
{ "type": "Feature", "properties": { "value": 0.2134 }, "geometry": { "type": "Point", "coordinates": [ 129.337631, 35.494991, 450.0 ] } },
{ "type": "Feature", "properties": { "value": 0.2935 }, "geometry": { "type": "Point", "coordinates": [ 129.33873, 35.494991, 450.0 ] } },
{ "type": "Feature", "properties": { "value": 0.3548 }, "geometry": { "type": "Point", "coordinates": [ 129.339828, 35.494987, 450.0 ] } },
{ "type": "Feature", "properties": { "value": 0.3745 }, "geometry": { "type": "Point", "coordinates": [ 129.340942, 35.494984, 450.0 ] } },
{ "type": "Feature", "properties": { "value": 0.3522 }, "geometry": { "type": "Point", "coordinates": [ 129.342041, 35.49498, 450.0 ] } },
{ "type": "Feature", "properties": { "value": 0.296 }, "geometry": { "type": "Point", "coordinates": [ 129.34314, 35.494976, 450.0 ] } },
{ "type": "Feature", "properties": { "value": 0.2243 }, "geometry": { "type": "Point", "coordinates": [ 129.344238, 35.494972, 450.0 ] } },
{ "type": "Feature", "properties": { "value": 0.1571 }, "geometry": { "type": "Point", "coordinates": [ 129.345337, 35.494972, 450.0 ] } },
{ "type": "Feature", "properties": { "value": 0.1045 }, "geometry": { "type": "Point", "coordinates": [ 129.346451, 35.494968, 450.0 ] } },
{ "type": "Feature", "properties": { "value": 0.0652 }, "geometry": { "type": "Point", "coordinates": [ 129.347549, 35.494965, 450.0 ] } },
{ "type": "Feature", "properties": { "value": 0.0367 }, "geometry": { "type": "Point", "coordinates": [ 129.348648, 35.494961, 450.0 ] } },
{ "type": "Feature", "properties": { "value": 0.0175 }, "geometry": { "type": "Point", "coordinates": [ 129.349747, 35.494957, 450.0 ] } },
{ "type": "Feature", "properties": { "value": 0.0026 }, "geometry": { "type": "Point", "coordinates": [ 129.333221, 35.495907, 450.0 ] } },
{ "type": "Feature", "properties": { "value": 0.0112 }, "geometry": { "type": "Point", "coordinates": [ 129.33432, 35.495903, 450.0 ] } },
{ "type": "Feature", "properties": { "value": 0.0372 }, "geometry": { "type": "Point", "coordinates": [ 129.335434, 35.495899, 450.0 ] } },
{ "type": "Feature", "properties": { "value": 0.0892 }, "geometry": { "type": "Point", "coordinates": [ 129.336533, 35.495895, 450.0 ] } },
{ "type": "Feature", "properties": { "value": 0.1699 }, "geometry": { "type": "Point", "coordinates": [ 129.337631, 35.495895, 450.0 ] } },
{ "type": "Feature", "properties": { "value": 0.2752 }, "geometry": { "type": "Point", "coordinates": [ 129.33873, 35.495892, 450.0 ] } },
{ "type": "Feature", "properties": { "value": 0.3819 }, "geometry": { "type": "Point", "coordinates": [ 129.339844, 35.495888, 450.0 ] } },
{ "type": "Feature", "properties": { "value": 0.4604 }, "geometry": { "type": "Point", "coordinates": [ 129.340942, 35.495884, 450.0 ] } },
{ "type": "Feature", "properties": { "value": 0.5023 }, "geometry": { "type": "Point", "coordinates": [ 129.342041, 35.49588, 450.0 ] } },
{ "type": "Feature", "properties": { "value": 0.4991 }, "geometry": { "type": "Point", "coordinates": [ 129.34314, 35.49588, 450.0 ] } },
{ "type": "Feature", "properties": { "value": 0.4406 }, "geometry": { "type": "Point", "coordinates": [ 129.344238, 35.495876, 450.0 ] } },
{ "type": "Feature", "properties": { "value": 0.3545 }, "geometry": { "type": "Point", "coordinates": [ 129.345352, 35.495872, 450.0 ] } },
{ "type": "Feature", "properties": { "value": 0.2705 }, "geometry": { "type": "Point", "coordinates": [ 129.346451, 35.495869, 450.0 ] } },
{ "type": "Feature", "properties": { "value": 0.1945 }, "geometry": { "type": "Point", "coordinates": [ 129.347549, 35.495865, 450.0 ] } },
{ "type": "Feature", "properties": { "value": 0.1297 }, "geometry": { "type": "Point", "coordinates": [ 129.348648, 35.495861, 450.0 ] } },
{ "type": "Feature", "properties": { "value": 0.0828 }, "geometry": { "type": "Point", "coordinates": [ 129.349762, 35.495861, 450.0 ] } },
{ "type": "Feature", "properties": { "value": 0.0515 }, "geometry": { "type": "Point", "coordinates": [ 129.350861, 35.495857, 450.0 ] } },
{ "type": "Feature", "properties": { "value": 0.0283 }, "geometry": { "type": "Point", "coordinates": [ 129.351959, 35.495853, 450.0 ] } },
{ "type": "Feature", "properties": { "value": 0.0125 }, "geometry": { "type": "Point", "coordinates": [ 129.353058, 35.49585, 450.0 ] } },
{ "type": "Feature", "properties": { "value": 0.0033 }, "geometry": { "type": "Point", "coordinates": [ 129.334335, 35.496803, 450.0 ] } },
{ "type": "Feature", "properties": { "value": 0.0149 }, "geometry": { "type": "Point", "coordinates": [ 129.335434, 35.496799, 450.0 ] } },
{ "type": "Feature", "properties": { "value": 0.0468 }, "geometry": { "type": "Point", "coordinates": [ 129.336533, 35.496799, 450.0 ] } },
{ "type": "Feature", "properties": { "value": 0.1099 }, "geometry": { "type": "Point", "coordinates": [ 129.337631, 35.496796, 450.0 ] } },
{ "type": "Feature", "properties": { "value": 0.2074 }, "geometry": { "type": "Point", "coordinates": [ 129.338745, 35.496792, 450.0 ] } },
{ "type": "Feature", "properties": { "value": 0.329 }, "geometry": { "type": "Point", "coordinates": [ 129.339844, 35.496788, 450.0 ] } },
{ "type": "Feature", "properties": { "value": 0.4551 }, "geometry": { "type": "Point", "coordinates": [ 129.340942, 35.496784, 450.0 ] } },
{ "type": "Feature", "properties": { "value": 0.575 }, "geometry": { "type": "Point", "coordinates": [ 129.342041, 35.496784, 450.0 ] } },
{ "type": "Feature", "properties": { "value": 0.6696 }, "geometry": { "type": "Point", "coordinates": [ 129.34314, 35.49678, 450.0 ] } },
{ "type": "Feature", "properties": { "value": 0.6904 }, "geometry": { "type": "Point", "coordinates": [ 129.344254, 35.496777, 450.0 ] } },
{ "type": "Feature", "properties": { "value": 0.6427 }, "geometry": { "type": "Point", "coordinates": [ 129.345352, 35.496773, 450.0 ] } },
{ "type": "Feature", "properties": { "value": 0.5554 }, "geometry": { "type": "Point", "coordinates": [ 129.346451, 35.496769, 450.0 ] } },
{ "type": "Feature", "properties": { "value": 0.4447 }, "geometry": { "type": "Point", "coordinates": [ 129.347549, 35.496765, 450.0 ] } },
{ "type": "Feature", "properties": { "value": 0.3292 }, "geometry": { "type": "Point", "coordinates": [ 129.348663, 35.496765, 450.0 ] } },
{ "type": "Feature", "properties": { "value": 0.2327 }, "geometry": { "type": "Point", "coordinates": [ 129.349762, 35.496761, 450.0 ] } },
{ "type": "Feature", "properties": { "value": 0.1604 }, "geometry": { "type": "Point", "coordinates": [ 129.350861, 35.496758, 450.0 ] } },
{ "type": "Feature", "properties": { "value": 0.1073 }, "geometry": { "type": "Point", "coordinates": [ 129.351959, 35.496754, 450.0 ] } },
{ "type": "Feature", "properties": { "value": 0.066 }, "geometry": { "type": "Point", "coordinates": [ 129.353073, 35.49675, 450.0 ] } },
{ "type": "Feature", "properties": { "value": 0.0365 }, "geometry": { "type": "Point", "coordinates": [ 129.354172, 35.496746, 450.0 ] } },
{ "type": "Feature", "properties": { "value": 0.0155 }, "geometry": { "type": "Point", "coordinates": [ 129.35527, 35.496746, 450.0 ] } },
{ "type": "Feature", "properties": { "value": 0.0041 }, "geometry": { "type": "Point", "coordinates": [ 129.356369, 35.496742, 450.0 ] } },
{ "type": "Feature", "properties": { "value": 0.0045 }, "geometry": { "type": "Point", "coordinates": [ 129.335434, 35.497704, 450.0 ] } },
{ "type": "Feature", "properties": { "value": 0.0188 }, "geometry": { "type": "Point", "coordinates": [ 129.336533, 35.4977, 450.0 ] } },
{ "type": "Feature", "properties": { "value": 0.056 }, "geometry": { "type": "Point", "coordinates": [ 129.337646, 35.497696, 450.0 ] } },
{ "type": "Feature", "properties": { "value": 0.125 }, "geometry": { "type": "Point", "coordinates": [ 129.338745, 35.497692, 450.0 ] } },
{ "type": "Feature", "properties": { "value": 0.2316 }, "geometry": { "type": "Point", "coordinates": [ 129.339844, 35.497692, 450.0 ] } },
{ "type": "Feature", "properties": { "value": 0.3735 }, "geometry": { "type": "Point", "coordinates": [ 129.340942, 35.497688, 450.0 ] } },
{ "type": "Feature", "properties": { "value": 0.5502 }, "geometry": { "type": "Point", "coordinates": [ 129.342041, 35.497684, 450.0 ] } },
{ "type": "Feature", "properties": { "value": 0.7428 }, "geometry": { "type": "Point", "coordinates": [ 129.343155, 35.497681, 450.0 ] } },
{ "type": "Feature", "properties": { "value": 0.8822 }, "geometry": { "type": "Point", "coordinates": [ 129.344254, 35.497677, 450.0 ] } },
{ "type": "Feature", "properties": { "value": 0.9352 }, "geometry": { "type": "Point", "coordinates": [ 129.345352, 35.497673, 450.0 ] } },
{ "type": "Feature", "properties": { "value": 0.9048 }, "geometry": { "type": "Point", "coordinates": [ 129.346451, 35.497673, 450.0 ] } },
{ "type": "Feature", "properties": { "value": 0.7986 }, "geometry": { "type": "Point", "coordinates": [ 129.347565, 35.497669, 450.0 ] } },
{ "type": "Feature", "properties": { "value": 0.6589 }, "geometry": { "type": "Point", "coordinates": [ 129.348663, 35.497665, 450.0 ] } },
{ "type": "Feature", "properties": { "value": 0.513 }, "geometry": { "type": "Point", "coordinates": [ 129.349762, 35.497662, 450.0 ] } },
{ "type": "Feature", "properties": { "value": 0.386 }, "geometry": { "type": "Point", "coordinates": [ 129.350861, 35.497658, 450.0 ] } },
{ "type": "Feature", "properties": { "value": 0.2782 }, "geometry": { "type": "Point", "coordinates": [ 129.351974, 35.497654, 450.0 ] } },
{ "type": "Feature", "properties": { "value": 0.1841 }, "geometry": { "type": "Point", "coordinates": [ 129.353073, 35.497654, 450.0 ] } },
{ "type": "Feature", "properties": { "value": 0.1075 }, "geometry": { "type": "Point", "coordinates": [ 129.354172, 35.49765, 450.0 ] } },
{ "type": "Feature", "properties": { "value": 0.0553 }, "geometry": { "type": "Point", "coordinates": [ 129.35527, 35.497646, 450.0 ] } },
{ "type": "Feature", "properties": { "value": 0.0227 }, "geometry": { "type": "Point", "coordinates": [ 129.356369, 35.497643, 450.0 ] } },
{ "type": "Feature", "properties": { "value": 0.0057 }, "geometry": { "type": "Point", "coordinates": [ 129.357483, 35.497639, 450.0 ] } },
{ "type": "Feature", "properties": { "value": 0.0059 }, "geometry": { "type": "Point", "coordinates": [ 129.336548, 35.4986, 450.0 ] } },
{ "type": "Feature", "properties": { "value": 0.0221 }, "geometry": { "type": "Point", "coordinates": [ 129.337646, 35.498596, 450.0 ] } },
{ "type": "Feature", "properties": { "value": 0.0596 }, "geometry": { "type": "Point", "coordinates": [ 129.338745, 35.498596, 450.0 ] } },
{ "type": "Feature", "properties": { "value": 0.1332 }, "geometry": { "type": "Point", "coordinates": [ 129.339844, 35.498592, 450.0 ] } },
{ "type": "Feature", "properties": { "value": 0.2595 }, "geometry": { "type": "Point", "coordinates": [ 129.340958, 35.498589, 450.0 ] } },
{ "type": "Feature", "properties": { "value": 0.45 }, "geometry": { "type": "Point", "coordinates": [ 129.342056, 35.498585, 450.0 ] } },
{ "type": "Feature", "properties": { "value": 0.6907 }, "geometry": { "type": "Point", "coordinates": [ 129.343155, 35.498581, 450.0 ] } },
{ "type": "Feature", "properties": { "value": 0.925 }, "geometry": { "type": "Point", "coordinates": [ 129.344254, 35.498581, 450.0 ] } },
{ "type": "Feature", "properties": { "value": 1.0961 }, "geometry": { "type": "Point", "coordinates": [ 129.345352, 35.498577, 450.0 ] } },
{ "type": "Feature", "properties": { "value": 1.1753 }, "geometry": { "type": "Point", "coordinates": [ 129.346466, 35.498573, 450.0 ] } },
{ "type": "Feature", "properties": { "value": 1.1515 }, "geometry": { "type": "Point", "coordinates": [ 129.347565, 35.498569, 450.0 ] } },
{ "type": "Feature", "properties": { "value": 1.0546 }, "geometry": { "type": "Point", "coordinates": [ 129.348663, 35.498566, 450.0 ] } },
{ "type": "Feature", "properties": { "value": 0.9126 }, "geometry": { "type": "Point", "coordinates": [ 129.349762, 35.498562, 450.0 ] } },
{ "type": "Feature", "properties": { "value": 0.7475 }, "geometry": { "type": "Point", "coordinates": [ 129.350876, 35.498562, 450.0 ] } },
{ "type": "Feature", "properties": { "value": 0.5699 }, "geometry": { "type": "Point", "coordinates": [ 129.351974, 35.498558, 450.0 ] } },
{ "type": "Feature", "properties": { "value": 0.3926 }, "geometry": { "type": "Point", "coordinates": [ 129.353073, 35.498554, 450.0 ] } },
{ "type": "Feature", "properties": { "value": 0.2411 }, "geometry": { "type": "Point", "coordinates": [ 129.354172, 35.49855, 450.0 ] } },
{ "type": "Feature", "properties": { "value": 0.1293 }, "geometry": { "type": "Point", "coordinates": [ 129.35527, 35.498547, 450.0 ] } },
{ "type": "Feature", "properties": { "value": 0.0587 }, "geometry": { "type": "Point", "coordinates": [ 129.356384, 35.498543, 450.0 ] } },
{ "type": "Feature", "properties": { "value": 0.0206 }, "geometry": { "type": "Point", "coordinates": [ 129.357483, 35.498539, 450.0 ] } },
{ "type": "Feature", "properties": { "value": 0.0051 }, "geometry": { "type": "Point", "coordinates": [ 129.358582, 35.498539, 450.0 ] } },
{ "type": "Feature", "properties": { "value": 0.006 }, "geometry": { "type": "Point", "coordinates": [ 129.337646, 35.4995, 450.0 ] } },
{ "type": "Feature", "properties": { "value": 0.0216 }, "geometry": { "type": "Point", "coordinates": [ 129.338745, 35.499496, 450.0 ] } },
{ "type": "Feature", "properties": { "value": 0.0601 }, "geometry": { "type": "Point", "coordinates": [ 129.339859, 35.499493, 450.0 ] } },
{ "type": "Feature", "properties": { "value": 0.1476 }, "geometry": { "type": "Point", "coordinates": [ 129.340958, 35.499489, 450.0 ] } },
{ "type": "Feature", "properties": { "value": 0.3051 }, "geometry": { "type": "Point", "coordinates": [ 129.342056, 35.499485, 450.0 ] } },
{ "type": "Feature", "properties": { "value": 0.5232 }, "geometry": { "type": "Point", "coordinates": [ 129.343155, 35.499485, 450.0 ] } },
{ "type": "Feature", "properties": { "value": 0.7775 }, "geometry": { "type": "Point", "coordinates": [ 129.344254, 35.499481, 450.0 ] } },
{ "type": "Feature", "properties": { "value": 1.0295 }, "geometry": { "type": "Point", "coordinates": [ 129.345367, 35.499477, 450.0 ] } },
{ "type": "Feature", "properties": { "value": 1.2268 }, "geometry": { "type": "Point", "coordinates": [ 129.346466, 35.499474, 450.0 ] } },
{ "type": "Feature", "properties": { "value": 1.3296 }, "geometry": { "type": "Point", "coordinates": [ 129.347565, 35.49947, 450.0 ] } },
{ "type": "Feature", "properties": { "value": 1.3461 }, "geometry": { "type": "Point", "coordinates": [ 129.348663, 35.499466, 450.0 ] } },
{ "type": "Feature", "properties": { "value": 1.2858 }, "geometry": { "type": "Point", "coordinates": [ 129.349777, 35.499466, 450.0 ] } },
{ "type": "Feature", "properties": { "value": 1.1432 }, "geometry": { "type": "Point", "coordinates": [ 129.350876, 35.499462, 450.0 ] } },
{ "type": "Feature", "properties": { "value": 0.9261 }, "geometry": { "type": "Point", "coordinates": [ 129.351974, 35.499458, 450.0 ] } },
{ "type": "Feature", "properties": { "value": 0.6726 }, "geometry": { "type": "Point", "coordinates": [ 129.353073, 35.499454, 450.0 ] } },
{ "type": "Feature", "properties": { "value": 0.4313 }, "geometry": { "type": "Point", "coordinates": [ 129.354187, 35.499451, 450.0 ] } },
{ "type": "Feature", "properties": { "value": 0.2384 }, "geometry": { "type": "Point", "coordinates": [ 129.355286, 35.499447, 450.0 ] } },
{ "type": "Feature", "properties": { "value": 0.111 }, "geometry": { "type": "Point", "coordinates": [ 129.356384, 35.499447, 450.0 ] } },
{ "type": "Feature", "properties": { "value": 0.0421 }, "geometry": { "type": "Point", "coordinates": [ 129.357483, 35.499443, 450.0 ] } },
{ "type": "Feature", "properties": { "value": 0.0121 }, "geometry": { "type": "Point", "coordinates": [ 129.358582, 35.499439, 450.0 ] } },
{ "type": "Feature", "properties": { "value": 0.0018 }, "geometry": { "type": "Point", "coordinates": [ 129.359695, 35.499435, 450.0 ] } },
{ "type": "Feature", "properties": { "value": 0.0047 }, "geometry": { "type": "Point", "coordinates": [ 129.33876, 35.500397, 450.0 ] } },
{ "type": "Feature", "properties": { "value": 0.0202 }, "geometry": { "type": "Point", "coordinates": [ 129.339859, 35.500393, 450.0 ] } },
{ "type": "Feature", "properties": { "value": 0.0641 }, "geometry": { "type": "Point", "coordinates": [ 129.340958, 35.500393, 450.0 ] } },
{ "type": "Feature", "properties": { "value": 0.162 }, "geometry": { "type": "Point", "coordinates": [ 129.342056, 35.500389, 450.0 ] } },
{ "type": "Feature", "properties": { "value": 0.3156 }, "geometry": { "type": "Point", "coordinates": [ 129.343155, 35.500385, 450.0 ] } },
{ "type": "Feature", "properties": { "value": 0.5175 }, "geometry": { "type": "Point", "coordinates": [ 129.344269, 35.500381, 450.0 ] } },
{ "type": "Feature", "properties": { "value": 0.7635 }, "geometry": { "type": "Point", "coordinates": [ 129.345367, 35.500378, 450.0 ] } },
{ "type": "Feature", "properties": { "value": 1.0178 }, "geometry": { "type": "Point", "coordinates": [ 129.346466, 35.500374, 450.0 ] } },
{ "type": "Feature", "properties": { "value": 1.217 }, "geometry": { "type": "Point", "coordinates": [ 129.347565, 35.500374, 450.0 ] } },
{ "type": "Feature", "properties": { "value": 1.359 }, "geometry": { "type": "Point", "coordinates": [ 129.348679, 35.50037, 450.0 ] } },
{ "type": "Feature", "properties": { "value": 1.4308 }, "geometry": { "type": "Point", "coordinates": [ 129.349777, 35.500366, 450.0 ] } },
{ "type": "Feature", "properties": { "value": 1.385 }, "geometry": { "type": "Point", "coordinates": [ 129.350876, 35.500362, 450.0 ] } },
{ "type": "Feature", "properties": { "value": 1.2027 }, "geometry": { "type": "Point", "coordinates": [ 129.351974, 35.500359, 450.0 ] } },
{ "type": "Feature", "properties": { "value": 0.9223 }, "geometry": { "type": "Point", "coordinates": [ 129.353088, 35.500355, 450.0 ] } },
{ "type": "Feature", "properties": { "value": 0.6133 }, "geometry": { "type": "Point", "coordinates": [ 129.354187, 35.500355, 450.0 ] } },
{ "type": "Feature", "properties": { "value": 0.3488 }, "geometry": { "type": "Point", "coordinates": [ 129.355286, 35.500351, 450.0 ] } },
{ "type": "Feature", "properties": { "value": 0.1673 }, "geometry": { "type": "Point", "coordinates": [ 129.356384, 35.500347, 450.0 ] } },
{ "type": "Feature", "properties": { "value": 0.0655 }, "geometry": { "type": "Point", "coordinates": [ 129.357483, 35.500343, 450.0 ] } },
{ "type": "Feature", "properties": { "value": 0.0202 }, "geometry": { "type": "Point", "coordinates": [ 129.358597, 35.50034, 450.0 ] } },
{ "type": "Feature", "properties": { "value": 0.0044 }, "geometry": { "type": "Point", "coordinates": [ 129.359695, 35.500336, 450.0 ] } },
{ "type": "Feature", "properties": { "value": 0.0028 }, "geometry": { "type": "Point", "coordinates": [ 129.339859, 35.501297, 450.0 ] } },
{ "type": "Feature", "properties": { "value": 0.0214 }, "geometry": { "type": "Point", "coordinates": [ 129.340958, 35.501293, 450.0 ] } },
{ "type": "Feature", "properties": { "value": 0.0659 }, "geometry": { "type": "Point", "coordinates": [ 129.342056, 35.501289, 450.0 ] } },
{ "type": "Feature", "properties": { "value": 0.1518 }, "geometry": { "type": "Point", "coordinates": [ 129.34317, 35.501286, 450.0 ] } },
{ "type": "Feature", "properties": { "value": 0.2803 }, "geometry": { "type": "Point", "coordinates": [ 129.344269, 35.501282, 450.0 ] } },
{ "type": "Feature", "properties": { "value": 0.46 }, "geometry": { "type": "Point", "coordinates": [ 129.345367, 35.501278, 450.0 ] } },
{ "type": "Feature", "properties": { "value": 0.6823 }, "geometry": { "type": "Point", "coordinates": [ 129.346466, 35.501278, 450.0 ] } },
{ "type": "Feature", "properties": { "value": 0.9097 }, "geometry": { "type": "Point", "coordinates": [ 129.34758, 35.501274, 450.0 ] } },
{ "type": "Feature", "properties": { "value": 1.1222 }, "geometry": { "type": "Point", "coordinates": [ 129.348679, 35.50127, 450.0 ] } },
{ "type": "Feature", "properties": { "value": 1.2884 }, "geometry": { "type": "Point", "coordinates": [ 129.349777, 35.501266, 450.0 ] } },
{ "type": "Feature", "properties": { "value": 1.3454 }, "geometry": { "type": "Point", "coordinates": [ 129.350876, 35.501263, 450.0 ] } },
{ "type": "Feature", "properties": { "value": 1.2463 }, "geometry": { "type": "Point", "coordinates": [ 129.35199, 35.501259, 450.0 ] } },
{ "type": "Feature", "properties": { "value": 1.0035 }, "geometry": { "type": "Point", "coordinates": [ 129.353088, 35.501259, 450.0 ] } },
{ "type": "Feature", "properties": { "value": 0.6896 }, "geometry": { "type": "Point", "coordinates": [ 129.354187, 35.501255, 450.0 ] } },
{ "type": "Feature", "properties": { "value": 0.4017 }, "geometry": { "type": "Point", "coordinates": [ 129.355286, 35.501251, 450.0 ] } },
{ "type": "Feature", "properties": { "value": 0.1948 }, "geometry": { "type": "Point", "coordinates": [ 129.3564, 35.501247, 450.0 ] } },
{ "type": "Feature", "properties": { "value": 0.0773 }, "geometry": { "type": "Point", "coordinates": [ 129.357498, 35.501244, 450.0 ] } },
{ "type": "Feature", "properties": { "value": 0.024 }, "geometry": { "type": "Point", "coordinates": [ 129.358597, 35.50124, 450.0 ] } },
{ "type": "Feature", "properties": { "value": 0.0053 }, "geometry": { "type": "Point", "coordinates": [ 129.359695, 35.50124, 450.0 ] } }
]
}
