{
"type": "FeatureCollection",
"features": [
{ "type": "Feature", "properties": { "value": 0.0037 }, "geometry": { "type": "Point", "coordinates": [ 129.32756, 35.458969, 60.0 ] } },
{ "type": "Feature", "properties": { "value": 4.0958 }, "geometry": { "type": "Point", "coordinates": [ 129.32756, 35.459869, 60.0 ] } },
{ "type": "Feature", "properties": { "value": 105.19 }, "geometry": { "type": "Point", "coordinates": [ 129.327576, 35.46077, 60.0 ] } },
{ "type": "Feature", "properties": { "value": 190.66 }, "geometry": { "type": "Point", "coordinates": [ 129.327576, 35.461674, 60.0 ] } },
{ "type": "Feature", "properties": { "value": 168.55 }, "geometry": { "type": "Point", "coordinates": [ 129.327576, 35.462574, 60.0 ] } },
{ "type": "Feature", "properties": { "value": 135.03 }, "geometry": { "type": "Point", "coordinates": [ 129.327576, 35.463474, 60.0 ] } },
{ "type": "Feature", "properties": { "value": 3.3926 }, "geometry": { "type": "Point", "coordinates": [ 129.32869, 35.46347, 60.0 ] } },
{ "type": "Feature", "properties": { "value": 117.02 }, "geometry": { "type": "Point", "coordinates": [ 129.327591, 35.464375, 60.0 ] } },
{ "type": "Feature", "properties": { "value": 10.149 }, "geometry": { "type": "Point", "coordinates": [ 129.32869, 35.464375, 60.0 ] } },
{ "type": "Feature", "properties": { "value": 116.52 }, "geometry": { "type": "Point", "coordinates": [ 129.327591, 35.465279, 60.0 ] } },
{ "type": "Feature", "properties": { "value": 25.131 }, "geometry": { "type": "Point", "coordinates": [ 129.32869, 35.465275, 60.0 ] } },
{ "type": "Feature", "properties": { "value": 112.41 }, "geometry": { "type": "Point", "coordinates": [ 129.327591, 35.466179, 60.0 ] } },
{ "type": "Feature", "properties": { "value": 45.746 }, "geometry": { "type": "Point", "coordinates": [ 129.32869, 35.466175, 60.0 ] } },
{ "type": "Feature", "properties": { "value": 108.47 }, "geometry": { "type": "Point", "coordinates": [ 129.327591, 35.467079, 60.0 ] } },
{ "type": "Feature", "properties": { "value": 62.175 }, "geometry": { "type": "Point", "coordinates": [ 129.328705, 35.467075, 60.0 ] } },
{ "type": "Feature", "properties": { "value": 103.38 }, "geometry": { "type": "Point", "coordinates": [ 129.327606, 35.467983, 60.0 ] } },
{ "type": "Feature", "properties": { "value": 71.754 }, "geometry": { "type": "Point", "coordinates": [ 129.328705, 35.467979, 60.0 ] } },
{ "type": "Feature", "properties": { "value": 98.993 }, "geometry": { "type": "Point", "coordinates": [ 129.327606, 35.468884, 60.0 ] } },
{ "type": "Feature", "properties": { "value": 76.44 }, "geometry": { "type": "Point", "coordinates": [ 129.328705, 35.46888, 60.0 ] } },
{ "type": "Feature", "properties": { "value": 1.8048 }, "geometry": { "type": "Point", "coordinates": [ 129.326508, 35.469788, 60.0 ] } },
{ "type": "Feature", "properties": { "value": 95.067 }, "geometry": { "type": "Point", "coordinates": [ 129.327606, 35.469784, 60.0 ] } },
{ "type": "Feature", "properties": { "value": 78.392 }, "geometry": { "type": "Point", "coordinates": [ 129.328705, 35.46978, 60.0 ] } },
{ "type": "Feature", "properties": { "value": 2.7509 }, "geometry": { "type": "Point", "coordinates": [ 129.326508, 35.470688, 60.0 ] } },
{ "type": "Feature", "properties": { "value": 90.065 }, "geometry": { "type": "Point", "coordinates": [ 129.327606, 35.470684, 60.0 ] } },
{ "type": "Feature", "properties": { "value": 75.287 }, "geometry": { "type": "Point", "coordinates": [ 129.32872, 35.470684, 60.0 ] } },
{ "type": "Feature", "properties": { "value": 1.2656 }, "geometry": { "type": "Point", "coordinates": [ 129.329819, 35.47068, 60.0 ] } },
{ "type": "Feature", "properties": { "value": 3.7307 }, "geometry": { "type": "Point", "coordinates": [ 129.326508, 35.471588, 60.0 ] } },
{ "type": "Feature", "properties": { "value": 80.711 }, "geometry": { "type": "Point", "coordinates": [ 129.327621, 35.471588, 60.0 ] } },
{ "type": "Feature", "properties": { "value": 59.73 }, "geometry": { "type": "Point", "coordinates": [ 129.32872, 35.471584, 60.0 ] } },
{ "type": "Feature", "properties": { "value": 1.3548 }, "geometry": { "type": "Point", "coordinates": [ 129.329819, 35.471581, 60.0 ] } },
{ "type": "Feature", "properties": { "value": 4.6871 }, "geometry": { "type": "Point", "coordinates": [ 129.326523, 35.472492, 60.0 ] } },
{ "type": "Feature", "properties": { "value": 65.082 }, "geometry": { "type": "Point", "coordinates": [ 129.327621, 35.472488, 60.0 ] } },
{ "type": "Feature", "properties": { "value": 39.832 }, "geometry": { "type": "Point", "coordinates": [ 129.32872, 35.472485, 60.0 ] } },
{ "type": "Feature", "properties": { "value": 1.3642 }, "geometry": { "type": "Point", "coordinates": [ 129.329819, 35.472481, 60.0 ] } },
{ "type": "Feature", "properties": { "value": 6.2824 }, "geometry": { "type": "Point", "coordinates": [ 129.326523, 35.473392, 60.0 ] } },
{ "type": "Feature", "properties": { "value": 51.38 }, "geometry": { "type": "Point", "coordinates": [ 129.327621, 35.473389, 60.0 ] } },
{ "type": "Feature", "properties": { "value": 33.103 }, "geometry": { "type": "Point", "coordinates": [ 129.32872, 35.473385, 60.0 ] } },
{ "type": "Feature", "properties": { "value": 2.3512 }, "geometry": { "type": "Point", "coordinates": [ 129.329819, 35.473385, 60.0 ] } },
{ "type": "Feature", "properties": { "value": 8.0297 }, "geometry": { "type": "Point", "coordinates": [ 129.326523, 35.474293, 60.0 ] } },
{ "type": "Feature", "properties": { "value": 44.68 }, "geometry": { "type": "Point", "coordinates": [ 129.327621, 35.474289, 60.0 ] } },
{ "type": "Feature", "properties": { "value": 33.77 }, "geometry": { "type": "Point", "coordinates": [ 129.328735, 35.474289, 60.0 ] } },
{ "type": "Feature", "properties": { "value": 4.0004 }, "geometry": { "type": "Point", "coordinates": [ 129.329834, 35.474285, 60.0 ] } },
{ "type": "Feature", "properties": { "value": 9.1761 }, "geometry": { "type": "Point", "coordinates": [ 129.326523, 35.475193, 60.0 ] } },
{ "type": "Feature", "properties": { "value": 44.502 }, "geometry": { "type": "Point", "coordinates": [ 129.327637, 35.475193, 60.0 ] } },
{ "type": "Feature", "properties": { "value": 36.158 }, "geometry": { "type": "Point", "coordinates": [ 129.328735, 35.475189, 60.0 ] } },
{ "type": "Feature", "properties": { "value": 5.2443 }, "geometry": { "type": "Point", "coordinates": [ 129.329834, 35.475185, 60.0 ] } },
{ "type": "Feature", "properties": { "value": 11.355 }, "geometry": { "type": "Point", "coordinates": [ 129.326538, 35.476097, 60.0 ] } },
{ "type": "Feature", "properties": { "value": 51.106 }, "geometry": { "type": "Point", "coordinates": [ 129.327637, 35.476093, 60.0 ] } },
{ "type": "Feature", "properties": { "value": 40.391 }, "geometry": { "type": "Point", "coordinates": [ 129.328735, 35.476089, 60.0 ] } },
{ "type": "Feature", "properties": { "value": 6.0363 }, "geometry": { "type": "Point", "coordinates": [ 129.329834, 35.476086, 60.0 ] } },
{ "type": "Feature", "properties": { "value": 0.5832 }, "geometry": { "type": "Point", "coordinates": [ 129.325439, 35.477001, 60.0 ] } },
{ "type": "Feature", "properties": { "value": 14.386 }, "geometry": { "type": "Point", "coordinates": [ 129.326538, 35.476997, 60.0 ] } },
{ "type": "Feature", "properties": { "value": 57.21 }, "geometry": { "type": "Point", "coordinates": [ 129.327637, 35.476994, 60.0 ] } },
{ "type": "Feature", "properties": { "value": 41.601 }, "geometry": { "type": "Point", "coordinates": [ 129.328735, 35.47699, 60.0 ] } },
{ "type": "Feature", "properties": { "value": 5.9184 }, "geometry": { "type": "Point", "coordinates": [ 129.329834, 35.47699, 60.0 ] } },
{ "type": "Feature", "properties": { "value": 0.7125 }, "geometry": { "type": "Point", "coordinates": [ 129.325439, 35.477901, 60.0 ] } },
{ "type": "Feature", "properties": { "value": 12.638 }, "geometry": { "type": "Point", "coordinates": [ 129.326538, 35.477898, 60.0 ] } },
{ "type": "Feature", "properties": { "value": 41.972 }, "geometry": { "type": "Point", "coordinates": [ 129.327637, 35.477894, 60.0 ] } },
{ "type": "Feature", "properties": { "value": 28.286 }, "geometry": { "type": "Point", "coordinates": [ 129.328735, 35.477894, 60.0 ] } },
{ "type": "Feature", "properties": { "value": 3.9686 }, "geometry": { "type": "Point", "coordinates": [ 129.329849, 35.47789, 60.0 ] } },
{ "type": "Feature", "properties": { "value": 0.2953 }, "geometry": { "type": "Point", "coordinates": [ 129.325439, 35.478802, 60.0 ] } },
{ "type": "Feature", "properties": { "value": 4.8325 }, "geometry": { "type": "Point", "coordinates": [ 129.326538, 35.478798, 60.0 ] } },
{ "type": "Feature", "properties": { "value": 14.123 }, "geometry": { "type": "Point", "coordinates": [ 129.327637, 35.478798, 60.0 ] } },
{ "type": "Feature", "properties": { "value": 9.0693 }, "geometry": { "type": "Point", "coordinates": [ 129.328751, 35.478794, 60.0 ] } },
{ "type": "Feature", "properties": { "value": 1.2394 }, "geometry": { "type": "Point", "coordinates": [ 129.329849, 35.47879, 60.0 ] } },
{ "type": "Feature", "properties": { "value": 0.576 }, "geometry": { "type": "Point", "coordinates": [ 129.326553, 35.479702, 60.0 ] } },
{ "type": "Feature", "properties": { "value": 1.7187 }, "geometry": { "type": "Point", "coordinates": [ 129.327652, 35.479698, 60.0 ] } },
{ "type": "Feature", "properties": { "value": 1.0724 }, "geometry": { "type": "Point", "coordinates": [ 129.328751, 35.479694, 60.0 ] } },
{ "type": "Feature", "properties": { "value": 0.1214 }, "geometry": { "type": "Point", "coordinates": [ 129.329849, 35.479691, 60.0 ] } },
{ "type": "Feature", "properties": { "value": 0.0435 }, "geometry": { "type": "Point", "coordinates": [ 129.327652, 35.480598, 60.0 ] } }
]
}
