{
"type": "FeatureCollection",
"features": [
{ "type": "Feature", "properties": { "value": 0.0026 }, "geometry": { "type": "Point", "coordinates": [ 129.32756, 35.458969, 60.0 ] } },
{ "type": "Feature", "properties": { "value": 2.8383 }, "geometry": { "type": "Point", "coordinates": [ 129.32756, 35.459869, 60.0 ] } },
{ "type": "Feature", "properties": { "value": 71.783 }, "geometry": { "type": "Point", "coordinates": [ 129.327576, 35.46077, 60.0 ] } },
{ "type": "Feature", "properties": { "value": 128.16 }, "geometry": { "type": "Point", "coordinates": [ 129.327576, 35.461674, 60.0 ] } },
{ "type": "Feature", "properties": { "value": 111.29 }, "geometry": { "type": "Point", "coordinates": [ 129.327576, 35.462574, 60.0 ] } },
{ "type": "Feature", "properties": { "value": 87.178 }, "geometry": { "type": "Point", "coordinates": [ 129.327576, 35.463474, 60.0 ] } },
{ "type": "Feature", "properties": { "value": 2.7466 }, "geometry": { "type": "Point", "coordinates": [ 129.32869, 35.46347, 60.0 ] } },
{ "type": "Feature", "properties": { "value": 73.412 }, "geometry": { "type": "Point", "coordinates": [ 129.327591, 35.464375, 60.0 ] } },
{ "type": "Feature", "properties": { "value": 8.321 }, "geometry": { "type": "Point", "coordinates": [ 129.32869, 35.464375, 60.0 ] } },
{ "type": "Feature", "properties": { "value": 70.857 }, "geometry": { "type": "Point", "coordinates": [ 129.327591, 35.465279, 60.0 ] } },
{ "type": "Feature", "properties": { "value": 20.755 }, "geometry": { "type": "Point", "coordinates": [ 129.32869, 35.465275, 60.0 ] } },
{ "type": "Feature", "properties": { "value": 66.159 }, "geometry": { "type": "Point", "coordinates": [ 129.327591, 35.466179, 60.0 ] } },
{ "type": "Feature", "properties": { "value": 37.793 }, "geometry": { "type": "Point", "coordinates": [ 129.32869, 35.466175, 60.0 ] } },
{ "type": "Feature", "properties": { "value": 61.825 }, "geometry": { "type": "Point", "coordinates": [ 129.327591, 35.467079, 60.0 ] } },
{ "type": "Feature", "properties": { "value": 51.759 }, "geometry": { "type": "Point", "coordinates": [ 129.328705, 35.467075, 60.0 ] } },
{ "type": "Feature", "properties": { "value": 57.249 }, "geometry": { "type": "Point", "coordinates": [ 129.327606, 35.467983, 60.0 ] } },
{ "type": "Feature", "properties": { "value": 59.984 }, "geometry": { "type": "Point", "coordinates": [ 129.328705, 35.467979, 60.0 ] } },
{ "type": "Feature", "properties": { "value": 53.96 }, "geometry": { "type": "Point", "coordinates": [ 129.327606, 35.468884, 60.0 ] } },
{ "type": "Feature", "properties": { "value": 63.846 }, "geometry": { "type": "Point", "coordinates": [ 129.328705, 35.46888, 60.0 ] } },
{ "type": "Feature", "properties": { "value": 50.978 }, "geometry": { "type": "Point", "coordinates": [ 129.327606, 35.469784, 60.0 ] } },
{ "type": "Feature", "properties": { "value": 64.88 }, "geometry": { "type": "Point", "coordinates": [ 129.328705, 35.46978, 60.0 ] } },
{ "type": "Feature", "properties": { "value": 1.2308 }, "geometry": { "type": "Point", "coordinates": [ 129.329819, 35.469776, 60.0 ] } },
{ "type": "Feature", "properties": { "value": 0.5659 }, "geometry": { "type": "Point", "coordinates": [ 129.326508, 35.470688, 60.0 ] } },
{ "type": "Feature", "properties": { "value": 47.558 }, "geometry": { "type": "Point", "coordinates": [ 129.327606, 35.470684, 60.0 ] } },
{ "type": "Feature", "properties": { "value": 62.852 }, "geometry": { "type": "Point", "coordinates": [ 129.32872, 35.470684, 60.0 ] } },
{ "type": "Feature", "properties": { "value": 2.0398 }, "geometry": { "type": "Point", "coordinates": [ 129.329819, 35.47068, 60.0 ] } },
{ "type": "Feature", "properties": { "value": 0.973 }, "geometry": { "type": "Point", "coordinates": [ 129.326508, 35.471588, 60.0 ] } },
{ "type": "Feature", "properties": { "value": 41.156 }, "geometry": { "type": "Point", "coordinates": [ 129.327621, 35.471588, 60.0 ] } },
{ "type": "Feature", "properties": { "value": 51.1 }, "geometry": { "type": "Point", "coordinates": [ 129.32872, 35.471584, 60.0 ] } },
{ "type": "Feature", "properties": { "value": 2.1709 }, "geometry": { "type": "Point", "coordinates": [ 129.329819, 35.471581, 60.0 ] } },
{ "type": "Feature", "properties": { "value": 1.1493 }, "geometry": { "type": "Point", "coordinates": [ 129.326523, 35.472492, 60.0 ] } },
{ "type": "Feature", "properties": { "value": 31.762 }, "geometry": { "type": "Point", "coordinates": [ 129.327621, 35.472488, 60.0 ] } },
{ "type": "Feature", "properties": { "value": 35.228 }, "geometry": { "type": "Point", "coordinates": [ 129.32872, 35.472485, 60.0 ] } },
{ "type": "Feature", "properties": { "value": 2.2414 }, "geometry": { "type": "Point", "coordinates": [ 129.329819, 35.472481, 60.0 ] } },
{ "type": "Feature", "properties": { "value": 1.2236 }, "geometry": { "type": "Point", "coordinates": [ 129.326523, 35.473392, 60.0 ] } },
{ "type": "Feature", "properties": { "value": 24.903 }, "geometry": { "type": "Point", "coordinates": [ 129.327621, 35.473389, 60.0 ] } },
{ "type": "Feature", "properties": { "value": 29.413 }, "geometry": { "type": "Point", "coordinates": [ 129.32872, 35.473385, 60.0 ] } },
{ "type": "Feature", "properties": { "value": 3.1977 }, "geometry": { "type": "Point", "coordinates": [ 129.329819, 35.473385, 60.0 ] } },
{ "type": "Feature", "properties": { "value": 1.3872 }, "geometry": { "type": "Point", "coordinates": [ 129.326523, 35.474293, 60.0 ] } },
{ "type": "Feature", "properties": { "value": 21.214 }, "geometry": { "type": "Point", "coordinates": [ 129.327621, 35.474289, 60.0 ] } },
{ "type": "Feature", "properties": { "value": 30.211 }, "geometry": { "type": "Point", "coordinates": [ 129.328735, 35.474289, 60.0 ] } },
{ "type": "Feature", "properties": { "value": 5.1271 }, "geometry": { "type": "Point", "coordinates": [ 129.329834, 35.474285, 60.0 ] } },
{ "type": "Feature", "properties": { "value": 1.5914 }, "geometry": { "type": "Point", "coordinates": [ 129.326523, 35.475193, 60.0 ] } },
{ "type": "Feature", "properties": { "value": 20.848 }, "geometry": { "type": "Point", "coordinates": [ 129.327637, 35.475193, 60.0 ] } },
{ "type": "Feature", "properties": { "value": 33.709 }, "geometry": { "type": "Point", "coordinates": [ 129.328735, 35.475189, 60.0 ] } },
{ "type": "Feature", "properties": { "value": 7.5078 }, "geometry": { "type": "Point", "coordinates": [ 129.329834, 35.475185, 60.0 ] } },
{ "type": "Feature", "properties": { "value": 2.0389 }, "geometry": { "type": "Point", "coordinates": [ 129.326538, 35.476097, 60.0 ] } },
{ "type": "Feature", "properties": { "value": 25.143 }, "geometry": { "type": "Point", "coordinates": [ 129.327637, 35.476093, 60.0 ] } },
{ "type": "Feature", "properties": { "value": 40.131 }, "geometry": { "type": "Point", "coordinates": [ 129.328735, 35.476089, 60.0 ] } },
{ "type": "Feature", "properties": { "value": 9.4362 }, "geometry": { "type": "Point", "coordinates": [ 129.329834, 35.476086, 60.0 ] } },
{ "type": "Feature", "properties": { "value": 3.1349 }, "geometry": { "type": "Point", "coordinates": [ 129.326538, 35.476997, 60.0 ] } },
{ "type": "Feature", "properties": { "value": 32.47 }, "geometry": { "type": "Point", "coordinates": [ 129.327637, 35.476994, 60.0 ] } },
{ "type": "Feature", "properties": { "value": 47.067 }, "geometry": { "type": "Point", "coordinates": [ 129.328735, 35.47699, 60.0 ] } },
{ "type": "Feature", "properties": { "value": 10.602 }, "geometry": { "type": "Point", "coordinates": [ 129.329834, 35.47699, 60.0 ] } },
{ "type": "Feature", "properties": { "value": 4.8803 }, "geometry": { "type": "Point", "coordinates": [ 129.326538, 35.477898, 60.0 ] } },
{ "type": "Feature", "properties": { "value": 38.048 }, "geometry": { "type": "Point", "coordinates": [ 129.327637, 35.477894, 60.0 ] } },
{ "type": "Feature", "properties": { "value": 49.188 }, "geometry": { "type": "Point", "coordinates": [ 129.328735, 35.477894, 60.0 ] } },
{ "type": "Feature", "properties": { "value": 10.947 }, "geometry": { "type": "Point", "coordinates": [ 129.329849, 35.47789, 60.0 ] } },
{ "type": "Feature", "properties": { "value": 6.6959 }, "geometry": { "type": "Point", "coordinates": [ 129.326538, 35.478798, 60.0 ] } },
{ "type": "Feature", "properties": { "value": 40.623 }, "geometry": { "type": "Point", "coordinates": [ 129.327637, 35.478798, 60.0 ] } },
{ "type": "Feature", "properties": { "value": 47.958 }, "geometry": { "type": "Point", "coordinates": [ 129.328751, 35.478794, 60.0 ] } },
{ "type": "Feature", "properties": { "value": 11.035 }, "geometry": { "type": "Point", "coordinates": [ 129.329849, 35.47879, 60.0 ] } },
{ "type": "Feature", "properties": { "value": 8.1689 }, "geometry": { "type": "Point", "coordinates": [ 129.326553, 35.479702, 60.0 ] } },
{ "type": "Feature", "properties": { "value": 41.59 }, "geometry": { "type": "Point", "coordinates": [ 129.327652, 35.479698, 60.0 ] } },
{ "type": "Feature", "properties": { "value": 46.468 }, "geometry": { "type": "Point", "coordinates": [ 129.328751, 35.479694, 60.0 ] } },
{ "type": "Feature", "properties": { "value": 11.258 }, "geometry": { "type": "Point", "coordinates": [ 129.329849, 35.479691, 60.0 ] } },
{ "type": "Feature", "properties": { "value": 0.1385 }, "geometry": { "type": "Point", "coordinates": [ 129.330948, 35.479691, 60.0 ] } },
{ "type": "Feature", "properties": { "value": 9.2222 }, "geometry": { "type": "Point", "coordinates": [ 129.326553, 35.480602, 60.0 ] } },
{ "type": "Feature", "properties": { "value": 40.737 }, "geometry": { "type": "Point", "coordinates": [ 129.327652, 35.480598, 60.0 ] } },
{ "type": "Feature", "properties": { "value": 44.508 }, "geometry": { "type": "Point", "coordinates": [ 129.328751, 35.480595, 60.0 ] } },
{ "type": "Feature", "properties": { "value": 11.528 }, "geometry": { "type": "Point", "coordinates": [ 129.329849, 35.480595, 60.0 ] } },
{ "type": "Feature", "properties": { "value": 0.5226 }, "geometry": { "type": "Point", "coordinates": [ 129.330963, 35.480591, 60.0 ] } },
{ "type": "Feature", "properties": { "value": 0.5334 }, "geometry": { "type": "Point", "coordinates": [ 129.325455, 35.481506, 60.0 ] } },
{ "type": "Feature", "properties": { "value": 10.341 }, "geometry": { "type": "Point", "coordinates": [ 129.326553, 35.481503, 60.0 ] } },
{ "type": "Feature", "properties": { "value": 40.739 }, "geometry": { "type": "Point", "coordinates": [ 129.327652, 35.481503, 60.0 ] } },
{ "type": "Feature", "properties": { "value": 42.755 }, "geometry": { "type": "Point", "coordinates": [ 129.328751, 35.481499, 60.0 ] } },
{ "type": "Feature", "properties": { "value": 11.463 }, "geometry": { "type": "Point", "coordinates": [ 129.329865, 35.481495, 60.0 ] } },
{ "type": "Feature", "properties": { "value": 0.6073 }, "geometry": { "type": "Point", "coordinates": [ 129.330963, 35.481491, 60.0 ] } },
{ "type": "Feature", "properties": { "value": 0.963 }, "geometry": { "type": "Point", "coordinates": [ 129.325455, 35.482407, 60.0 ] } },
{ "type": "Feature", "properties": { "value": 12.481 }, "geometry": { "type": "Point", "coordinates": [ 129.326553, 35.482407, 60.0 ] } },
{ "type": "Feature", "properties": { "value": 42.707 }, "geometry": { "type": "Point", "coordinates": [ 129.327652, 35.482403, 60.0 ] } },
{ "type": "Feature", "properties": { "value": 41.119 }, "geometry": { "type": "Point", "coordinates": [ 129.328766, 35.482399, 60.0 ] } },
{ "type": "Feature", "properties": { "value": 11.02 }, "geometry": { "type": "Point", "coordinates": [ 129.329865, 35.482395, 60.0 ] } },
{ "type": "Feature", "properties": { "value": 0.6446 }, "geometry": { "type": "Point", "coordinates": [ 129.330963, 35.482391, 60.0 ] } },
{ "type": "Feature", "properties": { "value": 1.6122 }, "geometry": { "type": "Point", "coordinates": [ 129.325455, 35.483311, 60.0 ] } },
{ "type": "Feature", "properties": { "value": 15.45 }, "geometry": { "type": "Point", "coordinates": [ 129.326553, 35.483307, 60.0 ] } },
{ "type": "Feature", "properties": { "value": 44.335 }, "geometry": { "type": "Point", "coordinates": [ 129.327667, 35.483303, 60.0 ] } },
{ "type": "Feature", "properties": { "value": 38.807 }, "geometry": { "type": "Point", "coordinates": [ 129.328766, 35.483299, 60.0 ] } },
{ "type": "Feature", "properties": { "value": 10.272 }, "geometry": { "type": "Point", "coordinates": [ 129.329865, 35.483295, 60.0 ] } },
{ "type": "Feature", "properties": { "value": 0.6547 }, "geometry": { "type": "Point", "coordinates": [ 129.330963, 35.483295, 60.0 ] } },
{ "type": "Feature", "properties": { "value": 2.5838 }, "geometry": { "type": "Point", "coordinates": [ 129.325455, 35.484211, 60.0 ] } },
{ "type": "Feature", "properties": { "value": 18.767 }, "geometry": { "type": "Point", "coordinates": [ 129.326569, 35.484207, 60.0 ] } },
{ "type": "Feature", "properties": { "value": 44.554 }, "geometry": { "type": "Point", "coordinates": [ 129.327667, 35.484203, 60.0 ] } },
{ "type": "Feature", "properties": { "value": 35.38 }, "geometry": { "type": "Point", "coordinates": [ 129.328766, 35.484203, 60.0 ] } },
{ "type": "Feature", "properties": { "value": 9.2055 }, "geometry": { "type": "Point", "coordinates": [ 129.329865, 35.4842, 60.0 ] } },
{ "type": "Feature", "properties": { "value": 0.5947 }, "geometry": { "type": "Point", "coordinates": [ 129.330978, 35.484196, 60.0 ] } },
{ "type": "Feature", "properties": { "value": 4.1394 }, "geometry": { "type": "Point", "coordinates": [ 129.32547, 35.485111, 60.0 ] } },
{ "type": "Feature", "properties": { "value": 22.775 }, "geometry": { "type": "Point", "coordinates": [ 129.326569, 35.485107, 60.0 ] } },
{ "type": "Feature", "properties": { "value": 44.828 }, "geometry": { "type": "Point", "coordinates": [ 129.327667, 35.485107, 60.0 ] } },
{ "type": "Feature", "properties": { "value": 31.825 }, "geometry": { "type": "Point", "coordinates": [ 129.328766, 35.485104, 60.0 ] } },
{ "type": "Feature", "properties": { "value": 7.8165 }, "geometry": { "type": "Point", "coordinates": [ 129.32988, 35.4851, 60.0 ] } },
{ "type": "Feature", "properties": { "value": 0.4202 }, "geometry": { "type": "Point", "coordinates": [ 129.330978, 35.485096, 60.0 ] } },
{ "type": "Feature", "properties": { "value": 0.4191 }, "geometry": { "type": "Point", "coordinates": [ 129.324371, 35.486015, 60.0 ] } },
{ "type": "Feature", "properties": { "value": 6.6238 }, "geometry": { "type": "Point", "coordinates": [ 129.32547, 35.486012, 60.0 ] } },
{ "type": "Feature", "properties": { "value": 27.933 }, "geometry": { "type": "Point", "coordinates": [ 129.326569, 35.486012, 60.0 ] } },
{ "type": "Feature", "properties": { "value": 45.499 }, "geometry": { "type": "Point", "coordinates": [ 129.327667, 35.486008, 60.0 ] } },
{ "type": "Feature", "properties": { "value": 28.2 }, "geometry": { "type": "Point", "coordinates": [ 129.328781, 35.486004, 60.0 ] } },
{ "type": "Feature", "properties": { "value": 6.3771 }, "geometry": { "type": "Point", "coordinates": [ 129.32988, 35.486, 60.0 ] } },
{ "type": "Feature", "properties": { "value": 0.2214 }, "geometry": { "type": "Point", "coordinates": [ 129.330978, 35.485996, 60.0 ] } },
{ "type": "Feature", "properties": { "value": 1.1074 }, "geometry": { "type": "Point", "coordinates": [ 129.324371, 35.486916, 60.0 ] } },
{ "type": "Feature", "properties": { "value": 9.9046 }, "geometry": { "type": "Point", "coordinates": [ 129.32547, 35.486916, 60.0 ] } },
{ "type": "Feature", "properties": { "value": 33.116 }, "geometry": { "type": "Point", "coordinates": [ 129.326569, 35.486912, 60.0 ] } },
{ "type": "Feature", "properties": { "value": 44.967 }, "geometry": { "type": "Point", "coordinates": [ 129.327682, 35.486908, 60.0 ] } },
{ "type": "Feature", "properties": { "value": 24.317 }, "geometry": { "type": "Point", "coordinates": [ 129.328781, 35.486904, 60.0 ] } },
{ "type": "Feature", "properties": { "value": 5.0631 }, "geometry": { "type": "Point", "coordinates": [ 129.32988, 35.486904, 60.0 ] } },
{ "type": "Feature", "properties": { "value": 1.9917 }, "geometry": { "type": "Point", "coordinates": [ 129.324371, 35.48782, 60.0 ] } },
{ "type": "Feature", "properties": { "value": 13.421 }, "geometry": { "type": "Point", "coordinates": [ 129.32547, 35.487816, 60.0 ] } },
{ "type": "Feature", "properties": { "value": 37.207 }, "geometry": { "type": "Point", "coordinates": [ 129.326584, 35.487812, 60.0 ] } },
{ "type": "Feature", "properties": { "value": 43.451 }, "geometry": { "type": "Point", "coordinates": [ 129.327682, 35.487808, 60.0 ] } },
{ "type": "Feature", "properties": { "value": 21.02 }, "geometry": { "type": "Point", "coordinates": [ 129.328781, 35.487808, 60.0 ] } },
{ "type": "Feature", "properties": { "value": 4.0955 }, "geometry": { "type": "Point", "coordinates": [ 129.32988, 35.487804, 60.0 ] } },
{ "type": "Feature", "properties": { "value": 3.0761 }, "geometry": { "type": "Point", "coordinates": [ 129.324371, 35.48872, 60.0 ] } },
{ "type": "Feature", "properties": { "value": 16.92 }, "geometry": { "type": "Point", "coordinates": [ 129.325485, 35.488716, 60.0 ] } },
{ "type": "Feature", "properties": { "value": 40.227 }, "geometry": { "type": "Point", "coordinates": [ 129.326584, 35.488712, 60.0 ] } },
{ "type": "Feature", "properties": { "value": 41.761 }, "geometry": { "type": "Point", "coordinates": [ 129.327682, 35.488712, 60.0 ] } },
{ "type": "Feature", "properties": { "value": 18.613 }, "geometry": { "type": "Point", "coordinates": [ 129.328781, 35.488708, 60.0 ] } },
{ "type": "Feature", "properties": { "value": 3.4428 }, "geometry": { "type": "Point", "coordinates": [ 129.329895, 35.488705, 60.0 ] } },
{ "type": "Feature", "properties": { "value": 4.4328 }, "geometry": { "type": "Point", "coordinates": [ 129.324387, 35.48962, 60.0 ] } },
{ "type": "Feature", "properties": { "value": 20.182 }, "geometry": { "type": "Point", "coordinates": [ 129.325485, 35.489616, 60.0 ] } },
{ "type": "Feature", "properties": { "value": 42.051 }, "geometry": { "type": "Point", "coordinates": [ 129.326584, 35.489616, 60.0 ] } },
{ "type": "Feature", "properties": { "value": 39.661 }, "geometry": { "type": "Point", "coordinates": [ 129.327682, 35.489613, 60.0 ] } },
{ "type": "Feature", "properties": { "value": 16.657 }, "geometry": { "type": "Point", "coordinates": [ 129.328796, 35.489609, 60.0 ] } },
{ "type": "Feature", "properties": { "value": 3.0095 }, "geometry": { "type": "Point", "coordinates": [ 129.329895, 35.489605, 60.0 ] } },
{ "type": "Feature", "properties": { "value": 0.7305 }, "geometry": { "type": "Point", "coordinates": [ 129.323288, 35.490524, 60.0 ] } },
{ "type": "Feature", "properties": { "value": 6.4881 }, "geometry": { "type": "Point", "coordinates": [ 129.324387, 35.490524, 60.0 ] } },
{ "type": "Feature", "properties": { "value": 23.699 }, "geometry": { "type": "Point", "coordinates": [ 129.325485, 35.49052, 60.0 ] } },
{ "type": "Feature", "properties": { "value": 42.525 }, "geometry": { "type": "Point", "coordinates": [ 129.326584, 35.490517, 60.0 ] } },
{ "type": "Feature", "properties": { "value": 36.305 }, "geometry": { "type": "Point", "coordinates": [ 129.327698, 35.490513, 60.0 ] } },
{ "type": "Feature", "properties": { "value": 14.284 }, "geometry": { "type": "Point", "coordinates": [ 129.328796, 35.490509, 60.0 ] } },
{ "type": "Feature", "properties": { "value": 2.4763 }, "geometry": { "type": "Point", "coordinates": [ 129.329895, 35.490509, 60.0 ] } },
{ "type": "Feature", "properties": { "value": 1.7338 }, "geometry": { "type": "Point", "coordinates": [ 129.323288, 35.491428, 60.0 ] } },
{ "type": "Feature", "properties": { "value": 9.8692 }, "geometry": { "type": "Point", "coordinates": [ 129.324387, 35.491425, 60.0 ] } },
{ "type": "Feature", "properties": { "value": 28.489 }, "geometry": { "type": "Point", "coordinates": [ 129.325485, 35.491421, 60.0 ] } },
{ "type": "Feature", "properties": { "value": 42.277 }, "geometry": { "type": "Point", "coordinates": [ 129.326599, 35.491417, 60.0 ] } },
{ "type": "Feature", "properties": { "value": 31.559 }, "geometry": { "type": "Point", "coordinates": [ 129.327698, 35.491413, 60.0 ] } },
{ "type": "Feature", "properties": { "value": 11.338 }, "geometry": { "type": "Point", "coordinates": [ 129.328796, 35.491413, 60.0 ] } },
{ "type": "Feature", "properties": { "value": 1.8463 }, "geometry": { "type": "Point", "coordinates": [ 129.329895, 35.491409, 60.0 ] } },
{ "type": "Feature", "properties": { "value": 0.2445 }, "geometry": { "type": "Point", "coordinates": [ 129.322189, 35.492332, 60.0 ] } },
{ "type": "Feature", "properties": { "value": 3.5065 }, "geometry": { "type": "Point", "coordinates": [ 129.323288, 35.492329, 60.0 ] } },
{ "type": "Feature", "properties": { "value": 14.869 }, "geometry": { "type": "Point", "coordinates": [ 129.324387, 35.492325, 60.0 ] } },
{ "type": "Feature", "properties": { "value": 33.932 }, "geometry": { "type": "Point", "coordinates": [ 129.3255, 35.492321, 60.0 ] } },
{ "type": "Feature", "properties": { "value": 41.128 }, "geometry": { "type": "Point", "coordinates": [ 129.326599, 35.492317, 60.0 ] } },
{ "type": "Feature", "properties": { "value": 26.005 }, "geometry": { "type": "Point", "coordinates": [ 129.327698, 35.492317, 60.0 ] } },
{ "type": "Feature", "properties": { "value": 8.2778 }, "geometry": { "type": "Point", "coordinates": [ 129.328796, 35.492313, 60.0 ] } },
{ "type": "Feature", "properties": { "value": 1.1695 }, "geometry": { "type": "Point", "coordinates": [ 129.32991, 35.49231, 60.0 ] } },
{ "type": "Feature", "properties": { "value": 1.042 }, "geometry": { "type": "Point", "coordinates": [ 129.322189, 35.493233, 60.0 ] } },
{ "type": "Feature", "properties": { "value": 6.41 }, "geometry": { "type": "Point", "coordinates": [ 129.323288, 35.493229, 60.0 ] } },
{ "type": "Feature", "properties": { "value": 20.855 }, "geometry": { "type": "Point", "coordinates": [ 129.324402, 35.493225, 60.0 ] } },
{ "type": "Feature", "properties": { "value": 38.094 }, "geometry": { "type": "Point", "coordinates": [ 129.3255, 35.493225, 60.0 ] } },
{ "type": "Feature", "properties": { "value": 38.034 }, "geometry": { "type": "Point", "coordinates": [ 129.326599, 35.493221, 60.0 ] } },
{ "type": "Feature", "properties": { "value": 20.325 }, "geometry": { "type": "Point", "coordinates": [ 129.327698, 35.493217, 60.0 ] } },
{ "type": "Feature", "properties": { "value": 5.6462 }, "geometry": { "type": "Point", "coordinates": [ 129.328812, 35.493214, 60.0 ] } },
{ "type": "Feature", "properties": { "value": 0.6694 }, "geometry": { "type": "Point", "coordinates": [ 129.32991, 35.49321, 60.0 ] } },
{ "type": "Feature", "properties": { "value": 2.4849 }, "geometry": { "type": "Point", "coordinates": [ 129.322189, 35.494133, 60.0 ] } },
{ "type": "Feature", "properties": { "value": 10.696 }, "geometry": { "type": "Point", "coordinates": [ 129.323303, 35.494129, 60.0 ] } },
{ "type": "Feature", "properties": { "value": 27.11 }, "geometry": { "type": "Point", "coordinates": [ 129.324402, 35.494129, 60.0 ] } },
{ "type": "Feature", "properties": { "value": 39.991 }, "geometry": { "type": "Point", "coordinates": [ 129.3255, 35.494125, 60.0 ] } },
{ "type": "Feature", "properties": { "value": 33.142 }, "geometry": { "type": "Point", "coordinates": [ 129.326599, 35.494122, 60.0 ] } },
{ "type": "Feature", "properties": { "value": 15.064 }, "geometry": { "type": "Point", "coordinates": [ 129.327713, 35.494118, 60.0 ] } },
{ "type": "Feature", "properties": { "value": 3.6209 }, "geometry": { "type": "Point", "coordinates": [ 129.328812, 35.494114, 60.0 ] } },
{ "type": "Feature", "properties": { "value": 0.1934 }, "geometry": { "type": "Point", "coordinates": [ 129.32991, 35.494114, 60.0 ] } },
{ "type": "Feature", "properties": { "value": 0.9213 }, "geometry": { "type": "Point", "coordinates": [ 129.321091, 35.495037, 60.0 ] } },
{ "type": "Feature", "properties": { "value": 5.1753 }, "geometry": { "type": "Point", "coordinates": [ 129.322205, 35.495033, 60.0 ] } },
{ "type": "Feature", "properties": { "value": 16.573 }, "geometry": { "type": "Point", "coordinates": [ 129.323303, 35.495033, 60.0 ] } },
{ "type": "Feature", "properties": { "value": 32.957 }, "geometry": { "type": "Point", "coordinates": [ 129.324402, 35.495029, 60.0 ] } },
{ "type": "Feature", "properties": { "value": 39.268 }, "geometry": { "type": "Point", "coordinates": [ 129.3255, 35.495026, 60.0 ] } },
{ "type": "Feature", "properties": { "value": 27.116 }, "geometry": { "type": "Point", "coordinates": [ 129.326614, 35.495022, 60.0 ] } },
{ "type": "Feature", "properties": { "value": 10.545 }, "geometry": { "type": "Point", "coordinates": [ 129.327713, 35.495022, 60.0 ] } },
{ "type": "Feature", "properties": { "value": 2.1698 }, "geometry": { "type": "Point", "coordinates": [ 129.328812, 35.495018, 60.0 ] } },
{ "type": "Feature", "properties": { "value": 0.2909 }, "geometry": { "type": "Point", "coordinates": [ 129.319992, 35.495941, 60.0 ] } },
{ "type": "Feature", "properties": { "value": 2.5917 }, "geometry": { "type": "Point", "coordinates": [ 129.321106, 35.495937, 60.0 ] } },
{ "type": "Feature", "properties": { "value": 9.7634 }, "geometry": { "type": "Point", "coordinates": [ 129.322205, 35.495937, 60.0 ] } },
{ "type": "Feature", "properties": { "value": 23.874 }, "geometry": { "type": "Point", "coordinates": [ 129.323303, 35.495934, 60.0 ] } },
{ "type": "Feature", "properties": { "value": 37.287 }, "geometry": { "type": "Point", "coordinates": [ 129.324402, 35.49593, 60.0 ] } },
{ "type": "Feature", "properties": { "value": 35.915 }, "geometry": { "type": "Point", "coordinates": [ 129.325516, 35.495926, 60.0 ] } },
{ "type": "Feature", "properties": { "value": 20.634 }, "geometry": { "type": "Point", "coordinates": [ 129.326614, 35.495926, 60.0 ] } },
{ "type": "Feature", "properties": { "value": 6.853 }, "geometry": { "type": "Point", "coordinates": [ 129.327713, 35.495922, 60.0 ] } },
{ "type": "Feature", "properties": { "value": 1.1981 }, "geometry": { "type": "Point", "coordinates": [ 129.328812, 35.495918, 60.0 ] } },
{ "type": "Feature", "properties": { "value": 1.34 }, "geometry": { "type": "Point", "coordinates": [ 129.320007, 35.496841, 60.0 ] } },
{ "type": "Feature", "properties": { "value": 5.7849 }, "geometry": { "type": "Point", "coordinates": [ 129.321106, 35.496841, 60.0 ] } },
{ "type": "Feature", "properties": { "value": 16.351 }, "geometry": { "type": "Point", "coordinates": [ 129.322205, 35.496838, 60.0 ] } },
{ "type": "Feature", "properties": { "value": 31.053 }, "geometry": { "type": "Point", "coordinates": [ 129.323303, 35.496834, 60.0 ] } },
{ "type": "Feature", "properties": { "value": 38.617 }, "geometry": { "type": "Point", "coordinates": [ 129.324417, 35.49683, 60.0 ] } },
{ "type": "Feature", "properties": { "value": 30.283 }, "geometry": { "type": "Point", "coordinates": [ 129.325516, 35.49683, 60.0 ] } },
{ "type": "Feature", "properties": { "value": 14.479 }, "geometry": { "type": "Point", "coordinates": [ 129.326614, 35.496826, 60.0 ] } },
{ "type": "Feature", "properties": { "value": 4.0729 }, "geometry": { "type": "Point", "coordinates": [ 129.327713, 35.496822, 60.0 ] } },
{ "type": "Feature", "properties": { "value": 0.5262 }, "geometry": { "type": "Point", "coordinates": [ 129.328827, 35.496819, 60.0 ] } },
{ "type": "Feature", "properties": { "value": 0.666 }, "geometry": { "type": "Point", "coordinates": [ 129.318909, 35.497749, 60.0 ] } },
{ "type": "Feature", "properties": { "value": 3.4515 }, "geometry": { "type": "Point", "coordinates": [ 129.320007, 35.497746, 60.0 ] } },
{ "type": "Feature", "properties": { "value": 10.932 }, "geometry": { "type": "Point", "coordinates": [ 129.321106, 35.497742, 60.0 ] } },
{ "type": "Feature", "properties": { "value": 23.907 }, "geometry": { "type": "Point", "coordinates": [ 129.322205, 35.497738, 60.0 ] } },
{ "type": "Feature", "properties": { "value": 36.002 }, "geometry": { "type": "Point", "coordinates": [ 129.323318, 35.497734, 60.0 ] } },
{ "type": "Feature", "properties": { "value": 36.074 }, "geometry": { "type": "Point", "coordinates": [ 129.324417, 35.497734, 60.0 ] } },
{ "type": "Feature", "properties": { "value": 23.207 }, "geometry": { "type": "Point", "coordinates": [ 129.325516, 35.49773, 60.0 ] } },
{ "type": "Feature", "properties": { "value": 9.2637 }, "geometry": { "type": "Point", "coordinates": [ 129.326614, 35.497726, 60.0 ] } },
{ "type": "Feature", "properties": { "value": 2.1673 }, "geometry": { "type": "Point", "coordinates": [ 129.327728, 35.497723, 60.0 ] } },
{ "type": "Feature", "properties": { "value": 0.2817 }, "geometry": { "type": "Point", "coordinates": [ 129.31781, 35.498653, 60.0 ] } },
{ "type": "Feature", "properties": { "value": 1.8721 }, "geometry": { "type": "Point", "coordinates": [ 129.318909, 35.49865, 60.0 ] } },
{ "type": "Feature", "properties": { "value": 6.9296 }, "geometry": { "type": "Point", "coordinates": [ 129.320007, 35.498646, 60.0 ] } },
{ "type": "Feature", "properties": { "value": 17.369 }, "geometry": { "type": "Point", "coordinates": [ 129.321106, 35.498642, 60.0 ] } },
{ "type": "Feature", "properties": { "value": 30.554 }, "geometry": { "type": "Point", "coordinates": [ 129.32222, 35.498638, 60.0 ] } },
{ "type": "Feature", "properties": { "value": 37.548 }, "geometry": { "type": "Point", "coordinates": [ 129.323318, 35.498638, 60.0 ] } },
{ "type": "Feature", "properties": { "value": 30.564 }, "geometry": { "type": "Point", "coordinates": [ 129.324417, 35.498634, 60.0 ] } },
{ "type": "Feature", "properties": { "value": 16.167 }, "geometry": { "type": "Point", "coordinates": [ 129.325516, 35.498631, 60.0 ] } },
{ "type": "Feature", "properties": { "value": 5.3905 }, "geometry": { "type": "Point", "coordinates": [ 129.32663, 35.498627, 60.0 ] } },
{ "type": "Feature", "properties": { "value": 0.9983 }, "geometry": { "type": "Point", "coordinates": [ 129.327728, 35.498627, 60.0 ] } },
{ "type": "Feature", "properties": { "value": 0.8081 }, "geometry": { "type": "Point", "coordinates": [ 129.31781, 35.499554, 60.0 ] } },
{ "type": "Feature", "properties": { "value": 3.5662 }, "geometry": { "type": "Point", "coordinates": [ 129.318909, 35.49955, 60.0 ] } },
{ "type": "Feature", "properties": { "value": 11.063 }, "geometry": { "type": "Point", "coordinates": [ 129.320007, 35.499546, 60.0 ] } },
{ "type": "Feature", "properties": { "value": 22.851 }, "geometry": { "type": "Point", "coordinates": [ 129.321121, 35.499546, 60.0 ] } },
{ "type": "Feature", "properties": { "value": 33.93 }, "geometry": { "type": "Point", "coordinates": [ 129.32222, 35.499542, 60.0 ] } },
{ "type": "Feature", "properties": { "value": 34.718 }, "geometry": { "type": "Point", "coordinates": [ 129.323318, 35.499538, 60.0 ] } },
{ "type": "Feature", "properties": { "value": 23.376 }, "geometry": { "type": "Point", "coordinates": [ 129.324417, 35.499535, 60.0 ] } },
{ "type": "Feature", "properties": { "value": 10.284 }, "geometry": { "type": "Point", "coordinates": [ 129.325531, 35.499531, 60.0 ] } },
{ "type": "Feature", "properties": { "value": 2.8385 }, "geometry": { "type": "Point", "coordinates": [ 129.32663, 35.499531, 60.0 ] } },
{ "type": "Feature", "properties": { "value": 0.291 }, "geometry": { "type": "Point", "coordinates": [ 129.327728, 35.499527, 60.0 ] } },
{ "type": "Feature", "properties": { "value": 0.1733 }, "geometry": { "type": "Point", "coordinates": [ 129.316711, 35.500458, 60.0 ] } },
{ "type": "Feature", "properties": { "value": 1.2904 }, "geometry": { "type": "Point", "coordinates": [ 129.31781, 35.500454, 60.0 ] } },
{ "type": "Feature", "properties": { "value": 4.9855 }, "geometry": { "type": "Point", "coordinates": [ 129.318909, 35.50045, 60.0 ] } },
{ "type": "Feature", "properties": { "value": 13.42 }, "geometry": { "type": "Point", "coordinates": [ 129.320023, 35.50045, 60.0 ] } },
{ "type": "Feature", "properties": { "value": 24.265 }, "geometry": { "type": "Point", "coordinates": [ 129.321121, 35.500446, 60.0 ] } },
{ "type": "Feature", "properties": { "value": 31.729 }, "geometry": { "type": "Point", "coordinates": [ 129.32222, 35.500443, 60.0 ] } },
{ "type": "Feature", "properties": { "value": 27.789 }, "geometry": { "type": "Point", "coordinates": [ 129.323318, 35.500439, 60.0 ] } },
{ "type": "Feature", "properties": { "value": 15.865 }, "geometry": { "type": "Point", "coordinates": [ 129.324432, 35.500435, 60.0 ] } },
{ "type": "Feature", "properties": { "value": 5.8951 }, "geometry": { "type": "Point", "coordinates": [ 129.325531, 35.500435, 60.0 ] } },
{ "type": "Feature", "properties": { "value": 1.3319 }, "geometry": { "type": "Point", "coordinates": [ 129.32663, 35.500431, 60.0 ] } },
{ "type": "Feature", "properties": { "value": 0.2436 }, "geometry": { "type": "Point", "coordinates": [ 129.316711, 35.501358, 60.0 ] } },
{ "type": "Feature", "properties": { "value": 1.4175 }, "geometry": { "type": "Point", "coordinates": [ 129.31781, 35.501354, 60.0 ] } },
{ "type": "Feature", "properties": { "value": 5.2086 }, "geometry": { "type": "Point", "coordinates": [ 129.318924, 35.501354, 60.0 ] } },
{ "type": "Feature", "properties": { "value": 12.306 }, "geometry": { "type": "Point", "coordinates": [ 129.320023, 35.50135, 60.0 ] } },
{ "type": "Feature", "properties": { "value": 20.686 }, "geometry": { "type": "Point", "coordinates": [ 129.321121, 35.501347, 60.0 ] } },
{ "type": "Feature", "properties": { "value": 24.199 }, "geometry": { "type": "Point", "coordinates": [ 129.32222, 35.501343, 60.0 ] } },
{ "type": "Feature", "properties": { "value": 18.534 }, "geometry": { "type": "Point", "coordinates": [ 129.323334, 35.501339, 60.0 ] } },
{ "type": "Feature", "properties": { "value": 9.2613 }, "geometry": { "type": "Point", "coordinates": [ 129.324432, 35.501339, 60.0 ] } },
{ "type": "Feature", "properties": { "value": 2.9744 }, "geometry": { "type": "Point", "coordinates": [ 129.325531, 35.501335, 60.0 ] } },
{ "type": "Feature", "properties": { "value": 0.4976 }, "geometry": { "type": "Point", "coordinates": [ 129.32663, 35.501331, 60.0 ] } }
]
}
