{
"type": "FeatureCollection",
"features": [
{ "type": "Feature", "properties": { "value": 0.0009 }, "geometry": { "type": "Point", "coordinates": [ 129.327576, 35.46077, 115.0 ] } },
{ "type": "Feature", "properties": { "value": 0.0151 }, "geometry": { "type": "Point", "coordinates": [ 129.327576, 35.461674, 115.0 ] } },
{ "type": "Feature", "properties": { "value": 0.0266 }, "geometry": { "type": "Point", "coordinates": [ 129.327576, 35.462574, 115.0 ] } },
{ "type": "Feature", "properties": { "value": 0.0028 }, "geometry": { "type": "Point", "coordinates": [ 129.328674, 35.46257, 115.0 ] } },
{ "type": "Feature", "properties": { "value": 0.0359 }, "geometry": { "type": "Point", "coordinates": [ 129.327576, 35.463474, 115.0 ] } },
{ "type": "Feature", "properties": { "value": 0.0177 }, "geometry": { "type": "Point", "coordinates": [ 129.32869, 35.46347, 115.0 ] } },
{ "type": "Feature", "properties": { "value": 0.0536 }, "geometry": { "type": "Point", "coordinates": [ 129.327591, 35.464375, 115.0 ] } },
{ "type": "Feature", "properties": { "value": 0.0627 }, "geometry": { "type": "Point", "coordinates": [ 129.32869, 35.464375, 115.0 ] } },
{ "type": "Feature", "properties": { "value": 0.1236 }, "geometry": { "type": "Point", "coordinates": [ 129.327591, 35.465279, 115.0 ] } },
{ "type": "Feature", "properties": { "value": 0.5023 }, "geometry": { "type": "Point", "coordinates": [ 129.32869, 35.465275, 115.0 ] } },
{ "type": "Feature", "properties": { "value": 0.2438 }, "geometry": { "type": "Point", "coordinates": [ 129.327591, 35.466179, 115.0 ] } },
{ "type": "Feature", "properties": { "value": 2.8623 }, "geometry": { "type": "Point", "coordinates": [ 129.32869, 35.466175, 115.0 ] } },
{ "type": "Feature", "properties": { "value": 0.3015 }, "geometry": { "type": "Point", "coordinates": [ 129.327591, 35.467079, 115.0 ] } },
{ "type": "Feature", "properties": { "value": 6.7809 }, "geometry": { "type": "Point", "coordinates": [ 129.328705, 35.467075, 115.0 ] } },
{ "type": "Feature", "properties": { "value": 0.4757 }, "geometry": { "type": "Point", "coordinates": [ 129.329803, 35.467075, 115.0 ] } },
{ "type": "Feature", "properties": { "value": 0.257 }, "geometry": { "type": "Point", "coordinates": [ 129.327606, 35.467983, 115.0 ] } },
{ "type": "Feature", "properties": { "value": 9.8892 }, "geometry": { "type": "Point", "coordinates": [ 129.328705, 35.467979, 115.0 ] } },
{ "type": "Feature", "properties": { "value": 2.5283 }, "geometry": { "type": "Point", "coordinates": [ 129.329803, 35.467976, 115.0 ] } },
{ "type": "Feature", "properties": { "value": 0.1608 }, "geometry": { "type": "Point", "coordinates": [ 129.327606, 35.468884, 115.0 ] } },
{ "type": "Feature", "properties": { "value": 9.9195 }, "geometry": { "type": "Point", "coordinates": [ 129.328705, 35.46888, 115.0 ] } },
{ "type": "Feature", "properties": { "value": 6.4497 }, "geometry": { "type": "Point", "coordinates": [ 129.329803, 35.468876, 115.0 ] } },
{ "type": "Feature", "properties": { "value": 6.6849 }, "geometry": { "type": "Point", "coordinates": [ 129.328705, 35.46978, 115.0 ] } },
{ "type": "Feature", "properties": { "value": 8.1775 }, "geometry": { "type": "Point", "coordinates": [ 129.329819, 35.469776, 115.0 ] } },
{ "type": "Feature", "properties": { "value": 0.1624 }, "geometry": { "type": "Point", "coordinates": [ 129.330917, 35.469776, 115.0 ] } },
{ "type": "Feature", "properties": { "value": 2.7438 }, "geometry": { "type": "Point", "coordinates": [ 129.32872, 35.470684, 115.0 ] } },
{ "type": "Feature", "properties": { "value": 4.5873 }, "geometry": { "type": "Point", "coordinates": [ 129.329819, 35.47068, 115.0 ] } },
{ "type": "Feature", "properties": { "value": 0.1773 }, "geometry": { "type": "Point", "coordinates": [ 129.330917, 35.470676, 115.0 ] } },
{ "type": "Feature", "properties": { "value": 0.564 }, "geometry": { "type": "Point", "coordinates": [ 129.32872, 35.471584, 115.0 ] } },
{ "type": "Feature", "properties": { "value": 1.2856 }, "geometry": { "type": "Point", "coordinates": [ 129.329819, 35.471581, 115.0 ] } },
{ "type": "Feature", "properties": { "value": 0.1517 }, "geometry": { "type": "Point", "coordinates": [ 129.330917, 35.471577, 115.0 ] } },
{ "type": "Feature", "properties": { "value": 0.0942 }, "geometry": { "type": "Point", "coordinates": [ 129.32872, 35.472485, 115.0 ] } },
{ "type": "Feature", "properties": { "value": 0.5383 }, "geometry": { "type": "Point", "coordinates": [ 129.329819, 35.472481, 115.0 ] } },
{ "type": "Feature", "properties": { "value": 0.3595 }, "geometry": { "type": "Point", "coordinates": [ 129.330917, 35.472477, 115.0 ] } },
{ "type": "Feature", "properties": { "value": 0.0275 }, "geometry": { "type": "Point", "coordinates": [ 129.332031, 35.472477, 115.0 ] } },
{ "type": "Feature", "properties": { "value": 0.0339 }, "geometry": { "type": "Point", "coordinates": [ 129.32872, 35.473385, 115.0 ] } },
{ "type": "Feature", "properties": { "value": 0.7157 }, "geometry": { "type": "Point", "coordinates": [ 129.329819, 35.473385, 115.0 ] } },
{ "type": "Feature", "properties": { "value": 1.8146 }, "geometry": { "type": "Point", "coordinates": [ 129.330933, 35.473381, 115.0 ] } },
{ "type": "Feature", "properties": { "value": 0.568 }, "geometry": { "type": "Point", "coordinates": [ 129.332031, 35.473377, 115.0 ] } },
{ "type": "Feature", "properties": { "value": 0.0285 }, "geometry": { "type": "Point", "coordinates": [ 129.328735, 35.474289, 115.0 ] } },
{ "type": "Feature", "properties": { "value": 1.3551 }, "geometry": { "type": "Point", "coordinates": [ 129.329834, 35.474285, 115.0 ] } },
{ "type": "Feature", "properties": { "value": 6.0935 }, "geometry": { "type": "Point", "coordinates": [ 129.330933, 35.474281, 115.0 ] } },
{ "type": "Feature", "properties": { "value": 3.3453 }, "geometry": { "type": "Point", "coordinates": [ 129.332031, 35.474277, 115.0 ] } },
{ "type": "Feature", "properties": { "value": 0.22 }, "geometry": { "type": "Point", "coordinates": [ 129.33313, 35.474274, 115.0 ] } },
{ "type": "Feature", "properties": { "value": 1.5041 }, "geometry": { "type": "Point", "coordinates": [ 129.329834, 35.475185, 115.0 ] } },
{ "type": "Feature", "properties": { "value": 10.024 }, "geometry": { "type": "Point", "coordinates": [ 129.330933, 35.475182, 115.0 ] } },
{ "type": "Feature", "properties": { "value": 8.4813 }, "geometry": { "type": "Point", "coordinates": [ 129.332031, 35.475178, 115.0 ] } },
{ "type": "Feature", "properties": { "value": 1.1714 }, "geometry": { "type": "Point", "coordinates": [ 129.333145, 35.475178, 115.0 ] } },
{ "type": "Feature", "properties": { "value": 1.1486 }, "geometry": { "type": "Point", "coordinates": [ 129.329834, 35.476086, 115.0 ] } },
{ "type": "Feature", "properties": { "value": 11.219 }, "geometry": { "type": "Point", "coordinates": [ 129.330933, 35.476086, 115.0 ] } },
{ "type": "Feature", "properties": { "value": 14.834 }, "geometry": { "type": "Point", "coordinates": [ 129.332047, 35.476082, 115.0 ] } },
{ "type": "Feature", "properties": { "value": 3.7784 }, "geometry": { "type": "Point", "coordinates": [ 129.333145, 35.476078, 115.0 ] } },
{ "type": "Feature", "properties": { "value": 0.1089 }, "geometry": { "type": "Point", "coordinates": [ 129.334244, 35.476074, 115.0 ] } },
{ "type": "Feature", "properties": { "value": 0.7386 }, "geometry": { "type": "Point", "coordinates": [ 129.329834, 35.47699, 115.0 ] } },
{ "type": "Feature", "properties": { "value": 9.0934 }, "geometry": { "type": "Point", "coordinates": [ 129.330948, 35.476986, 115.0 ] } },
{ "type": "Feature", "properties": { "value": 18.771 }, "geometry": { "type": "Point", "coordinates": [ 129.332047, 35.476982, 115.0 ] } },
{ "type": "Feature", "properties": { "value": 8.6181 }, "geometry": { "type": "Point", "coordinates": [ 129.333145, 35.476978, 115.0 ] } },
{ "type": "Feature", "properties": { "value": 1.027 }, "geometry": { "type": "Point", "coordinates": [ 129.334244, 35.476974, 115.0 ] } },
{ "type": "Feature", "properties": { "value": 0.3606 }, "geometry": { "type": "Point", "coordinates": [ 129.329849, 35.47789, 115.0 ] } },
{ "type": "Feature", "properties": { "value": 5.8182 }, "geometry": { "type": "Point", "coordinates": [ 129.330948, 35.477886, 115.0 ] } },
{ "type": "Feature", "properties": { "value": 18.365 }, "geometry": { "type": "Point", "coordinates": [ 129.332047, 35.477882, 115.0 ] } },
{ "type": "Feature", "properties": { "value": 14.683 }, "geometry": { "type": "Point", "coordinates": [ 129.333145, 35.477879, 115.0 ] } },
{ "type": "Feature", "properties": { "value": 3.3504 }, "geometry": { "type": "Point", "coordinates": [ 129.334259, 35.477879, 115.0 ] } },
{ "type": "Feature", "properties": { "value": 0.1003 }, "geometry": { "type": "Point", "coordinates": [ 129.335358, 35.477875, 115.0 ] } },
{ "type": "Feature", "properties": { "value": 3.1182 }, "geometry": { "type": "Point", "coordinates": [ 129.330948, 35.478786, 115.0 ] } },
{ "type": "Feature", "properties": { "value": 14.948 }, "geometry": { "type": "Point", "coordinates": [ 129.332047, 35.478786, 115.0 ] } },
{ "type": "Feature", "properties": { "value": 19.834 }, "geometry": { "type": "Point", "coordinates": [ 129.33316, 35.478783, 115.0 ] } },
{ "type": "Feature", "properties": { "value": 8.0038 }, "geometry": { "type": "Point", "coordinates": [ 129.334259, 35.478779, 115.0 ] } },
{ "type": "Feature", "properties": { "value": 1.0077 }, "geometry": { "type": "Point", "coordinates": [ 129.335358, 35.478775, 115.0 ] } },
{ "type": "Feature", "properties": { "value": 1.3729 }, "geometry": { "type": "Point", "coordinates": [ 129.330948, 35.479691, 115.0 ] } },
{ "type": "Feature", "properties": { "value": 9.9424 }, "geometry": { "type": "Point", "coordinates": [ 129.332062, 35.479687, 115.0 ] } },
{ "type": "Feature", "properties": { "value": 21.131 }, "geometry": { "type": "Point", "coordinates": [ 129.33316, 35.479683, 115.0 ] } },
{ "type": "Feature", "properties": { "value": 14.478 }, "geometry": { "type": "Point", "coordinates": [ 129.334259, 35.479679, 115.0 ] } },
{ "type": "Feature", "properties": { "value": 3.4725 }, "geometry": { "type": "Point", "coordinates": [ 129.335358, 35.479675, 115.0 ] } },
{ "type": "Feature", "properties": { "value": 0.2908 }, "geometry": { "type": "Point", "coordinates": [ 129.336456, 35.479675, 115.0 ] } },
{ "type": "Feature", "properties": { "value": 0.4631 }, "geometry": { "type": "Point", "coordinates": [ 129.330963, 35.480591, 115.0 ] } },
{ "type": "Feature", "properties": { "value": 5.3817 }, "geometry": { "type": "Point", "coordinates": [ 129.332062, 35.480587, 115.0 ] } },
{ "type": "Feature", "properties": { "value": 17.806 }, "geometry": { "type": "Point", "coordinates": [ 129.33316, 35.480583, 115.0 ] } },
{ "type": "Feature", "properties": { "value": 20.098 }, "geometry": { "type": "Point", "coordinates": [ 129.334259, 35.480579, 115.0 ] } },
{ "type": "Feature", "properties": { "value": 8.6098 }, "geometry": { "type": "Point", "coordinates": [ 129.335358, 35.480579, 115.0 ] } },
{ "type": "Feature", "properties": { "value": 1.7423 }, "geometry": { "type": "Point", "coordinates": [ 129.336472, 35.480576, 115.0 ] } },
{ "type": "Feature", "properties": { "value": 0.0818 }, "geometry": { "type": "Point", "coordinates": [ 129.33757, 35.480572, 115.0 ] } },
{ "type": "Feature", "properties": { "value": 2.4884 }, "geometry": { "type": "Point", "coordinates": [ 129.332062, 35.481487, 115.0 ] } },
{ "type": "Feature", "properties": { "value": 12.147 }, "geometry": { "type": "Point", "coordinates": [ 129.33316, 35.481487, 115.0 ] } },
{ "type": "Feature", "properties": { "value": 21.105 }, "geometry": { "type": "Point", "coordinates": [ 129.334259, 35.481483, 115.0 ] } },
{ "type": "Feature", "properties": { "value": 15.01 }, "geometry": { "type": "Point", "coordinates": [ 129.335373, 35.48148, 115.0 ] } },
{ "type": "Feature", "properties": { "value": 5.3545 }, "geometry": { "type": "Point", "coordinates": [ 129.336472, 35.481476, 115.0 ] } },
{ "type": "Feature", "properties": { "value": 1.1356 }, "geometry": { "type": "Point", "coordinates": [ 129.33757, 35.481472, 115.0 ] } },
{ "type": "Feature", "properties": { "value": 0.0308 }, "geometry": { "type": "Point", "coordinates": [ 129.338669, 35.481472, 115.0 ] } },
{ "type": "Feature", "properties": { "value": 1.0734 }, "geometry": { "type": "Point", "coordinates": [ 129.332062, 35.482391, 115.0 ] } },
{ "type": "Feature", "properties": { "value": 7.0305 }, "geometry": { "type": "Point", "coordinates": [ 129.333176, 35.482388, 115.0 ] } },
{ "type": "Feature", "properties": { "value": 17.399 }, "geometry": { "type": "Point", "coordinates": [ 129.334274, 35.482384, 115.0 ] } },
{ "type": "Feature", "properties": { "value": 18.899 }, "geometry": { "type": "Point", "coordinates": [ 129.335373, 35.48238, 115.0 ] } },
{ "type": "Feature", "properties": { "value": 10.537 }, "geometry": { "type": "Point", "coordinates": [ 129.336472, 35.482376, 115.0 ] } },
{ "type": "Feature", "properties": { "value": 3.5827 }, "geometry": { "type": "Point", "coordinates": [ 129.33757, 35.482376, 115.0 ] } },
{ "type": "Feature", "properties": { "value": 0.8285 }, "geometry": { "type": "Point", "coordinates": [ 129.338684, 35.482372, 115.0 ] } },
{ "type": "Feature", "properties": { "value": 0.0172 }, "geometry": { "type": "Point", "coordinates": [ 129.339783, 35.482368, 115.0 ] } },
{ "type": "Feature", "properties": { "value": 0.4221 }, "geometry": { "type": "Point", "coordinates": [ 129.332077, 35.483292, 115.0 ] } },
{ "type": "Feature", "properties": { "value": 3.6875 }, "geometry": { "type": "Point", "coordinates": [ 129.333176, 35.483288, 115.0 ] } },
{ "type": "Feature", "properties": { "value": 12.04 }, "geometry": { "type": "Point", "coordinates": [ 129.334274, 35.483284, 115.0 ] } },
{ "type": "Feature", "properties": { "value": 18.459 }, "geometry": { "type": "Point", "coordinates": [ 129.335373, 35.48328, 115.0 ] } },
{ "type": "Feature", "properties": { "value": 15.081 }, "geometry": { "type": "Point", "coordinates": [ 129.336472, 35.48328, 115.0 ] } },
{ "type": "Feature", "properties": { "value": 7.6377 }, "geometry": { "type": "Point", "coordinates": [ 129.337585, 35.483276, 115.0 ] } },
{ "type": "Feature", "properties": { "value": 2.7082 }, "geometry": { "type": "Point", "coordinates": [ 129.338684, 35.483273, 115.0 ] } },
{ "type": "Feature", "properties": { "value": 0.7055 }, "geometry": { "type": "Point", "coordinates": [ 129.339783, 35.483269, 115.0 ] } },
{ "type": "Feature", "properties": { "value": 0.0557 }, "geometry": { "type": "Point", "coordinates": [ 129.340881, 35.483265, 115.0 ] } },
{ "type": "Feature", "properties": { "value": 0.0707 }, "geometry": { "type": "Point", "coordinates": [ 129.332077, 35.484192, 115.0 ] } },
{ "type": "Feature", "properties": { "value": 1.7544 }, "geometry": { "type": "Point", "coordinates": [ 129.333176, 35.484188, 115.0 ] } },
{ "type": "Feature", "properties": { "value": 7.2219 }, "geometry": { "type": "Point", "coordinates": [ 129.334274, 35.484188, 115.0 ] } },
{ "type": "Feature", "properties": { "value": 14.756 }, "geometry": { "type": "Point", "coordinates": [ 129.335373, 35.484184, 115.0 ] } },
{ "type": "Feature", "properties": { "value": 16.809 }, "geometry": { "type": "Point", "coordinates": [ 129.336487, 35.48418, 115.0 ] } },
{ "type": "Feature", "properties": { "value": 12.051 }, "geometry": { "type": "Point", "coordinates": [ 129.337585, 35.484177, 115.0 ] } },
{ "type": "Feature", "properties": { "value": 6.009 }, "geometry": { "type": "Point", "coordinates": [ 129.338684, 35.484173, 115.0 ] } },
{ "type": "Feature", "properties": { "value": 2.2657 }, "geometry": { "type": "Point", "coordinates": [ 129.339783, 35.484173, 115.0 ] } },
{ "type": "Feature", "properties": { "value": 0.6852 }, "geometry": { "type": "Point", "coordinates": [ 129.340897, 35.484169, 115.0 ] } },
{ "type": "Feature", "properties": { "value": 0.122 }, "geometry": { "type": "Point", "coordinates": [ 129.341995, 35.484165, 115.0 ] } },
{ "type": "Feature", "properties": { "value": 0.7431 }, "geometry": { "type": "Point", "coordinates": [ 129.333176, 35.485092, 115.0 ] } },
{ "type": "Feature", "properties": { "value": 3.7928 }, "geometry": { "type": "Point", "coordinates": [ 129.334274, 35.485088, 115.0 ] } },
{ "type": "Feature", "properties": { "value": 9.9291 }, "geometry": { "type": "Point", "coordinates": [ 129.335388, 35.485085, 115.0 ] } },
{ "type": "Feature", "properties": { "value": 15.123 }, "geometry": { "type": "Point", "coordinates": [ 129.336487, 35.485081, 115.0 ] } },
{ "type": "Feature", "properties": { "value": 14.725 }, "geometry": { "type": "Point", "coordinates": [ 129.337585, 35.485077, 115.0 ] } },
{ "type": "Feature", "properties": { "value": 9.9812 }, "geometry": { "type": "Point", "coordinates": [ 129.338684, 35.485077, 115.0 ] } },
{ "type": "Feature", "properties": { "value": 5.0698 }, "geometry": { "type": "Point", "coordinates": [ 129.339798, 35.485073, 115.0 ] } },
{ "type": "Feature", "properties": { "value": 2.07 }, "geometry": { "type": "Point", "coordinates": [ 129.340897, 35.485069, 115.0 ] } },
{ "type": "Feature", "properties": { "value": 0.711 }, "geometry": { "type": "Point", "coordinates": [ 129.341995, 35.485065, 115.0 ] } },
{ "type": "Feature", "properties": { "value": 0.1815 }, "geometry": { "type": "Point", "coordinates": [ 129.343094, 35.485062, 115.0 ] } },
{ "type": "Feature", "properties": { "value": 0.261 }, "geometry": { "type": "Point", "coordinates": [ 129.333176, 35.485992, 115.0 ] } },
{ "type": "Feature", "properties": { "value": 1.7812 }, "geometry": { "type": "Point", "coordinates": [ 129.33429, 35.485989, 115.0 ] } },
{ "type": "Feature", "properties": { "value": 5.8201 }, "geometry": { "type": "Point", "coordinates": [ 129.335388, 35.485985, 115.0 ] } },
{ "type": "Feature", "properties": { "value": 11.413 }, "geometry": { "type": "Point", "coordinates": [ 129.336487, 35.485981, 115.0 ] } },
{ "type": "Feature", "properties": { "value": 14.524 }, "geometry": { "type": "Point", "coordinates": [ 129.337585, 35.485981, 115.0 ] } },
{ "type": "Feature", "properties": { "value": 12.9 }, "geometry": { "type": "Point", "coordinates": [ 129.338699, 35.485977, 115.0 ] } },
{ "type": "Feature", "properties": { "value": 8.5705 }, "geometry": { "type": "Point", "coordinates": [ 129.339798, 35.485973, 115.0 ] } },
{ "type": "Feature", "properties": { "value": 4.5336 }, "geometry": { "type": "Point", "coordinates": [ 129.340897, 35.48597, 115.0 ] } },
{ "type": "Feature", "properties": { "value": 2.0277 }, "geometry": { "type": "Point", "coordinates": [ 129.341995, 35.485966, 115.0 ] } },
{ "type": "Feature", "properties": { "value": 0.8044 }, "geometry": { "type": "Point", "coordinates": [ 129.343094, 35.485966, 115.0 ] } },
{ "type": "Feature", "properties": { "value": 0.2685 }, "geometry": { "type": "Point", "coordinates": [ 129.344208, 35.485962, 115.0 ] } },
{ "type": "Feature", "properties": { "value": 0.7576 }, "geometry": { "type": "Point", "coordinates": [ 129.33429, 35.486889, 115.0 ] } },
{ "type": "Feature", "properties": { "value": 3.0636 }, "geometry": { "type": "Point", "coordinates": [ 129.335388, 35.486889, 115.0 ] } },
{ "type": "Feature", "properties": { "value": 7.4674 }, "geometry": { "type": "Point", "coordinates": [ 129.336487, 35.486885, 115.0 ] } },
{ "type": "Feature", "properties": { "value": 12.005 }, "geometry": { "type": "Point", "coordinates": [ 129.337601, 35.486881, 115.0 ] } },
{ "type": "Feature", "properties": { "value": 13.595 }, "geometry": { "type": "Point", "coordinates": [ 129.338699, 35.486877, 115.0 ] } },
{ "type": "Feature", "properties": { "value": 11.508 }, "geometry": { "type": "Point", "coordinates": [ 129.339798, 35.486874, 115.0 ] } },
{ "type": "Feature", "properties": { "value": 7.7108 }, "geometry": { "type": "Point", "coordinates": [ 129.340897, 35.486874, 115.0 ] } },
{ "type": "Feature", "properties": { "value": 4.3257 }, "geometry": { "type": "Point", "coordinates": [ 129.341995, 35.48687, 115.0 ] } },
{ "type": "Feature", "properties": { "value": 2.1328 }, "geometry": { "type": "Point", "coordinates": [ 129.343109, 35.486866, 115.0 ] } },
{ "type": "Feature", "properties": { "value": 0.9496 }, "geometry": { "type": "Point", "coordinates": [ 129.344208, 35.486862, 115.0 ] } },
{ "type": "Feature", "properties": { "value": 0.3904 }, "geometry": { "type": "Point", "coordinates": [ 129.345306, 35.486858, 115.0 ] } },
{ "type": "Feature", "properties": { "value": 0.128 }, "geometry": { "type": "Point", "coordinates": [ 129.346405, 35.486855, 115.0 ] } },
{ "type": "Feature", "properties": { "value": 0.2691 }, "geometry": { "type": "Point", "coordinates": [ 129.33429, 35.487793, 115.0 ] } },
{ "type": "Feature", "properties": { "value": 1.4549 }, "geometry": { "type": "Point", "coordinates": [ 129.335388, 35.487789, 115.0 ] } },
{ "type": "Feature", "properties": { "value": 4.327 }, "geometry": { "type": "Point", "coordinates": [ 129.336502, 35.487785, 115.0 ] } },
{ "type": "Feature", "properties": { "value": 8.5471 }, "geometry": { "type": "Point", "coordinates": [ 129.337601, 35.487782, 115.0 ] } },
{ "type": "Feature", "properties": { "value": 12.023 }, "geometry": { "type": "Point", "coordinates": [ 129.338699, 35.487778, 115.0 ] } },
{ "type": "Feature", "properties": { "value": 12.659 }, "geometry": { "type": "Point", "coordinates": [ 129.339798, 35.487778, 115.0 ] } },
{ "type": "Feature", "properties": { "value": 10.508 }, "geometry": { "type": "Point", "coordinates": [ 129.340912, 35.487774, 115.0 ] } },
{ "type": "Feature", "properties": { "value": 7.2422 }, "geometry": { "type": "Point", "coordinates": [ 129.34201, 35.48777, 115.0 ] } },
{ "type": "Feature", "properties": { "value": 4.3456 }, "geometry": { "type": "Point", "coordinates": [ 129.343109, 35.487766, 115.0 ] } },
{ "type": "Feature", "properties": { "value": 2.3578 }, "geometry": { "type": "Point", "coordinates": [ 129.344208, 35.487762, 115.0 ] } },
{ "type": "Feature", "properties": { "value": 1.1789 }, "geometry": { "type": "Point", "coordinates": [ 129.345306, 35.487759, 115.0 ] } },
{ "type": "Feature", "properties": { "value": 0.5518 }, "geometry": { "type": "Point", "coordinates": [ 129.34642, 35.487759, 115.0 ] } },
{ "type": "Feature", "properties": { "value": 0.2348 }, "geometry": { "type": "Point", "coordinates": [ 129.347519, 35.487755, 115.0 ] } },
{ "type": "Feature", "properties": { "value": 0.0496 }, "geometry": { "type": "Point", "coordinates": [ 129.348618, 35.487751, 115.0 ] } },
{ "type": "Feature", "properties": { "value": 0.0009 }, "geometry": { "type": "Point", "coordinates": [ 129.381683, 35.487652, 115.0 ] } },
{ "type": "Feature", "properties": { "value": 0.6269 }, "geometry": { "type": "Point", "coordinates": [ 129.335403, 35.488689, 115.0 ] } },
{ "type": "Feature", "properties": { "value": 2.2435 }, "geometry": { "type": "Point", "coordinates": [ 129.336502, 35.488686, 115.0 ] } },
{ "type": "Feature", "properties": { "value": 5.3325 }, "geometry": { "type": "Point", "coordinates": [ 129.337601, 35.488682, 115.0 ] } },
{ "type": "Feature", "properties": { "value": 9.0858 }, "geometry": { "type": "Point", "coordinates": [ 129.338699, 35.488682, 115.0 ] } },
{ "type": "Feature", "properties": { "value": 11.653 }, "geometry": { "type": "Point", "coordinates": [ 129.339813, 35.488678, 115.0 ] } },
{ "type": "Feature", "properties": { "value": 11.778 }, "geometry": { "type": "Point", "coordinates": [ 129.340912, 35.488674, 115.0 ] } },
{ "type": "Feature", "properties": { "value": 9.8309 }, "geometry": { "type": "Point", "coordinates": [ 129.34201, 35.48867, 115.0 ] } },
{ "type": "Feature", "properties": { "value": 7.0794 }, "geometry": { "type": "Point", "coordinates": [ 129.343109, 35.488667, 115.0 ] } },
{ "type": "Feature", "properties": { "value": 4.5453 }, "geometry": { "type": "Point", "coordinates": [ 129.344208, 35.488667, 115.0 ] } },
{ "type": "Feature", "properties": { "value": 2.6756 }, "geometry": { "type": "Point", "coordinates": [ 129.345322, 35.488663, 115.0 ] } },
{ "type": "Feature", "properties": { "value": 1.4709 }, "geometry": { "type": "Point", "coordinates": [ 129.34642, 35.488659, 115.0 ] } },
{ "type": "Feature", "properties": { "value": 0.7552 }, "geometry": { "type": "Point", "coordinates": [ 129.347519, 35.488655, 115.0 ] } },
{ "type": "Feature", "properties": { "value": 0.3672 }, "geometry": { "type": "Point", "coordinates": [ 129.348618, 35.488651, 115.0 ] } },
{ "type": "Feature", "properties": { "value": 0.1499 }, "geometry": { "type": "Point", "coordinates": [ 129.349731, 35.488647, 115.0 ] } },
{ "type": "Feature", "properties": { "value": 0.0089 }, "geometry": { "type": "Point", "coordinates": [ 129.35083, 35.488647, 115.0 ] } },
{ "type": "Feature", "properties": { "value": 0.0019 }, "geometry": { "type": "Point", "coordinates": [ 129.377274, 35.488567, 115.0 ] } },
{ "type": "Feature", "properties": { "value": 0.0127 }, "geometry": { "type": "Point", "coordinates": [ 129.378372, 35.488564, 115.0 ] } },
{ "type": "Feature", "properties": { "value": 0.0184 }, "geometry": { "type": "Point", "coordinates": [ 129.379471, 35.48856, 115.0 ] } },
{ "type": "Feature", "properties": { "value": 0.0198 }, "geometry": { "type": "Point", "coordinates": [ 129.380585, 35.488556, 115.0 ] } },
{ "type": "Feature", "properties": { "value": 0.0181 }, "geometry": { "type": "Point", "coordinates": [ 129.381683, 35.488552, 115.0 ] } },
{ "type": "Feature", "properties": { "value": 0.2212 }, "geometry": { "type": "Point", "coordinates": [ 129.335403, 35.48959, 115.0 ] } },
{ "type": "Feature", "properties": { "value": 1.0396 }, "geometry": { "type": "Point", "coordinates": [ 129.336502, 35.48959, 115.0 ] } },
{ "type": "Feature", "properties": { "value": 2.9367 }, "geometry": { "type": "Point", "coordinates": [ 129.337601, 35.489586, 115.0 ] } },
{ "type": "Feature", "properties": { "value": 5.9596 }, "geometry": { "type": "Point", "coordinates": [ 129.338715, 35.489582, 115.0 ] } },
{ "type": "Feature", "properties": { "value": 9.141 }, "geometry": { "type": "Point", "coordinates": [ 129.339813, 35.489578, 115.0 ] } },
{ "type": "Feature", "properties": { "value": 11.072 }, "geometry": { "type": "Point", "coordinates": [ 129.340912, 35.489574, 115.0 ] } },
{ "type": "Feature", "properties": { "value": 11.052 }, "geometry": { "type": "Point", "coordinates": [ 129.34201, 35.489571, 115.0 ] } },
{ "type": "Feature", "properties": { "value": 9.4405 }, "geometry": { "type": "Point", "coordinates": [ 129.343109, 35.489571, 115.0 ] } },
{ "type": "Feature", "properties": { "value": 7.1158 }, "geometry": { "type": "Point", "coordinates": [ 129.344223, 35.489567, 115.0 ] } },
{ "type": "Feature", "properties": { "value": 4.8592 }, "geometry": { "type": "Point", "coordinates": [ 129.345322, 35.489563, 115.0 ] } },
{ "type": "Feature", "properties": { "value": 3.0561 }, "geometry": { "type": "Point", "coordinates": [ 129.34642, 35.489559, 115.0 ] } },
{ "type": "Feature", "properties": { "value": 1.7979 }, "geometry": { "type": "Point", "coordinates": [ 129.347519, 35.489555, 115.0 ] } },
{ "type": "Feature", "properties": { "value": 0.9948 }, "geometry": { "type": "Point", "coordinates": [ 129.348633, 35.489555, 115.0 ] } },
{ "type": "Feature", "properties": { "value": 0.5312 }, "geometry": { "type": "Point", "coordinates": [ 129.349731, 35.489552, 115.0 ] } },
{ "type": "Feature", "properties": { "value": 0.2601 }, "geometry": { "type": "Point", "coordinates": [ 129.35083, 35.489548, 115.0 ] } },
{ "type": "Feature", "properties": { "value": 0.1076 }, "geometry": { "type": "Point", "coordinates": [ 129.351929, 35.489544, 115.0 ] } },
{ "type": "Feature", "properties": { "value": 0.0114 }, "geometry": { "type": "Point", "coordinates": [ 129.375076, 35.489475, 115.0 ] } },
{ "type": "Feature", "properties": { "value": 0.0366 }, "geometry": { "type": "Point", "coordinates": [ 129.376175, 35.489471, 115.0 ] } },
{ "type": "Feature", "properties": { "value": 0.0473 }, "geometry": { "type": "Point", "coordinates": [ 129.377274, 35.489468, 115.0 ] } },
{ "type": "Feature", "properties": { "value": 0.0553 }, "geometry": { "type": "Point", "coordinates": [ 129.378387, 35.489464, 115.0 ] } },
{ "type": "Feature", "properties": { "value": 0.0576 }, "geometry": { "type": "Point", "coordinates": [ 129.379486, 35.48946, 115.0 ] } },
{ "type": "Feature", "properties": { "value": 0.0571 }, "geometry": { "type": "Point", "coordinates": [ 129.380585, 35.489456, 115.0 ] } },
{ "type": "Feature", "properties": { "value": 0.0542 }, "geometry": { "type": "Point", "coordinates": [ 129.381683, 35.489452, 115.0 ] } },
{ "type": "Feature", "properties": { "value": 0.4242 }, "geometry": { "type": "Point", "coordinates": [ 129.336502, 35.49049, 115.0 ] } },
{ "type": "Feature", "properties": { "value": 1.4375 }, "geometry": { "type": "Point", "coordinates": [ 129.337616, 35.490486, 115.0 ] } },
{ "type": "Feature", "properties": { "value": 3.4343 }, "geometry": { "type": "Point", "coordinates": [ 129.338715, 35.490482, 115.0 ] } },
{ "type": "Feature", "properties": { "value": 6.2039 }, "geometry": { "type": "Point", "coordinates": [ 129.339813, 35.490479, 115.0 ] } },
{ "type": "Feature", "properties": { "value": 8.8939 }, "geometry": { "type": "Point", "coordinates": [ 129.340912, 35.490479, 115.0 ] } },
{ "type": "Feature", "properties": { "value": 10.481 }, "geometry": { "type": "Point", "coordinates": [ 129.34201, 35.490475, 115.0 ] } },
{ "type": "Feature", "properties": { "value": 10.507 }, "geometry": { "type": "Point", "coordinates": [ 129.343124, 35.490471, 115.0 ] } },
{ "type": "Feature", "properties": { "value": 9.2188 }, "geometry": { "type": "Point", "coordinates": [ 129.344223, 35.490467, 115.0 ] } },
{ "type": "Feature", "properties": { "value": 7.2472 }, "geometry": { "type": "Point", "coordinates": [ 129.345322, 35.490463, 115.0 ] } },
{ "type": "Feature", "properties": { "value": 5.2042 }, "geometry": { "type": "Point", "coordinates": [ 129.34642, 35.490459, 115.0 ] } },
{ "type": "Feature", "properties": { "value": 3.468 }, "geometry": { "type": "Point", "coordinates": [ 129.347534, 35.490459, 115.0 ] } },
{ "type": "Feature", "properties": { "value": 2.1774 }, "geometry": { "type": "Point", "coordinates": [ 129.348633, 35.490456, 115.0 ] } },
{ "type": "Feature", "properties": { "value": 1.3124 }, "geometry": { "type": "Point", "coordinates": [ 129.349731, 35.490452, 115.0 ] } },
{ "type": "Feature", "properties": { "value": 0.7661 }, "geometry": { "type": "Point", "coordinates": [ 129.35083, 35.490448, 115.0 ] } },
{ "type": "Feature", "properties": { "value": 0.4339 }, "geometry": { "type": "Point", "coordinates": [ 129.351929, 35.490444, 115.0 ] } },
{ "type": "Feature", "properties": { "value": 0.2358 }, "geometry": { "type": "Point", "coordinates": [ 129.353043, 35.49044, 115.0 ] } },
{ "type": "Feature", "properties": { "value": 0.1172 }, "geometry": { "type": "Point", "coordinates": [ 129.354141, 35.49044, 115.0 ] } },
{ "type": "Feature", "properties": { "value": 0.0281 }, "geometry": { "type": "Point", "coordinates": [ 129.35524, 35.490437, 115.0 ] } },
{ "type": "Feature", "properties": { "value": 0.0011 }, "geometry": { "type": "Point", "coordinates": [ 129.371765, 35.490387, 115.0 ] } },
{ "type": "Feature", "properties": { "value": 0.04 }, "geometry": { "type": "Point", "coordinates": [ 129.372879, 35.490383, 115.0 ] } },
{ "type": "Feature", "properties": { "value": 0.0705 }, "geometry": { "type": "Point", "coordinates": [ 129.373978, 35.490379, 115.0 ] } },
{ "type": "Feature", "properties": { "value": 0.0891 }, "geometry": { "type": "Point", "coordinates": [ 129.375076, 35.490376, 115.0 ] } },
{ "type": "Feature", "properties": { "value": 0.1051 }, "geometry": { "type": "Point", "coordinates": [ 129.376175, 35.490372, 115.0 ] } },
{ "type": "Feature", "properties": { "value": 0.1201 }, "geometry": { "type": "Point", "coordinates": [ 129.377289, 35.490368, 115.0 ] } },
{ "type": "Feature", "properties": { "value": 0.1296 }, "geometry": { "type": "Point", "coordinates": [ 129.378387, 35.490364, 115.0 ] } },
{ "type": "Feature", "properties": { "value": 0.133 }, "geometry": { "type": "Point", "coordinates": [ 129.379486, 35.49036, 115.0 ] } },
{ "type": "Feature", "properties": { "value": 0.13 }, "geometry": { "type": "Point", "coordinates": [ 129.380585, 35.490356, 115.0 ] } },
{ "type": "Feature", "properties": { "value": 0.117 }, "geometry": { "type": "Point", "coordinates": [ 129.381683, 35.490356, 115.0 ] } },
{ "type": "Feature", "properties": { "value": 0.1195 }, "geometry": { "type": "Point", "coordinates": [ 129.336517, 35.49139, 115.0 ] } },
{ "type": "Feature", "properties": { "value": 0.6181 }, "geometry": { "type": "Point", "coordinates": [ 129.337616, 35.491386, 115.0 ] } },
{ "type": "Feature", "properties": { "value": 1.7476 }, "geometry": { "type": "Point", "coordinates": [ 129.338715, 35.491383, 115.0 ] } },
{ "type": "Feature", "properties": { "value": 3.6848 }, "geometry": { "type": "Point", "coordinates": [ 129.339813, 35.491383, 115.0 ] } },
{ "type": "Feature", "properties": { "value": 6.1735 }, "geometry": { "type": "Point", "coordinates": [ 129.340927, 35.491379, 115.0 ] } },
{ "type": "Feature", "properties": { "value": 8.5015 }, "geometry": { "type": "Point", "coordinates": [ 129.342026, 35.491375, 115.0 ] } },
{ "type": "Feature", "properties": { "value": 9.9135 }, "geometry": { "type": "Point", "coordinates": [ 129.343124, 35.491371, 115.0 ] } },
{ "type": "Feature", "properties": { "value": 10.047 }, "geometry": { "type": "Point", "coordinates": [ 129.344223, 35.491367, 115.0 ] } },
{ "type": "Feature", "properties": { "value": 9.0517 }, "geometry": { "type": "Point", "coordinates": [ 129.345322, 35.491367, 115.0 ] } },
{ "type": "Feature", "properties": { "value": 7.3949 }, "geometry": { "type": "Point", "coordinates": [ 129.346436, 35.491364, 115.0 ] } },
{ "type": "Feature", "properties": { "value": 5.5675 }, "geometry": { "type": "Point", "coordinates": [ 129.347534, 35.49136, 115.0 ] } },
{ "type": "Feature", "properties": { "value": 3.936 }, "geometry": { "type": "Point", "coordinates": [ 129.348633, 35.491356, 115.0 ] } },
{ "type": "Feature", "properties": { "value": 2.6514 }, "geometry": { "type": "Point", "coordinates": [ 129.349731, 35.491352, 115.0 ] } },
{ "type": "Feature", "properties": { "value": 1.7267 }, "geometry": { "type": "Point", "coordinates": [ 129.350845, 35.491348, 115.0 ] } },
{ "type": "Feature", "properties": { "value": 1.1061 }, "geometry": { "type": "Point", "coordinates": [ 129.351944, 35.491348, 115.0 ] } },
{ "type": "Feature", "properties": { "value": 0.6992 }, "geometry": { "type": "Point", "coordinates": [ 129.353043, 35.491344, 115.0 ] } },
{ "type": "Feature", "properties": { "value": 0.4439 }, "geometry": { "type": "Point", "coordinates": [ 129.354141, 35.491341, 115.0 ] } },
{ "type": "Feature", "properties": { "value": 0.2826 }, "geometry": { "type": "Point", "coordinates": [ 129.35524, 35.491337, 115.0 ] } },
{ "type": "Feature", "properties": { "value": 0.1861 }, "geometry": { "type": "Point", "coordinates": [ 129.356354, 35.491333, 115.0 ] } },
{ "type": "Feature", "properties": { "value": 0.1205 }, "geometry": { "type": "Point", "coordinates": [ 129.357452, 35.491329, 115.0 ] } },
{ "type": "Feature", "properties": { "value": 0.0817 }, "geometry": { "type": "Point", "coordinates": [ 129.358551, 35.491325, 115.0 ] } },
{ "type": "Feature", "properties": { "value": 0.0519 }, "geometry": { "type": "Point", "coordinates": [ 129.35965, 35.491325, 115.0 ] } },
{ "type": "Feature", "properties": { "value": 0.0205 }, "geometry": { "type": "Point", "coordinates": [ 129.360764, 35.491322, 115.0 ] } },
{ "type": "Feature", "properties": { "value": 0.0049 }, "geometry": { "type": "Point", "coordinates": [ 129.361862, 35.491318, 115.0 ] } },
{ "type": "Feature", "properties": { "value": 0.0134 }, "geometry": { "type": "Point", "coordinates": [ 129.367371, 35.491299, 115.0 ] } },
{ "type": "Feature", "properties": { "value": 0.034 }, "geometry": { "type": "Point", "coordinates": [ 129.368469, 35.491299, 115.0 ] } },
{ "type": "Feature", "properties": { "value": 0.0557 }, "geometry": { "type": "Point", "coordinates": [ 129.369568, 35.491295, 115.0 ] } },
{ "type": "Feature", "properties": { "value": 0.0792 }, "geometry": { "type": "Point", "coordinates": [ 129.370682, 35.491291, 115.0 ] } },
{ "type": "Feature", "properties": { "value": 0.1073 }, "geometry": { "type": "Point", "coordinates": [ 129.37178, 35.491287, 115.0 ] } },
{ "type": "Feature", "properties": { "value": 0.1412 }, "geometry": { "type": "Point", "coordinates": [ 129.372879, 35.491283, 115.0 ] } },
{ "type": "Feature", "properties": { "value": 0.1709 }, "geometry": { "type": "Point", "coordinates": [ 129.373978, 35.49128, 115.0 ] } },
{ "type": "Feature", "properties": { "value": 0.2011 }, "geometry": { "type": "Point", "coordinates": [ 129.375076, 35.491276, 115.0 ] } },
{ "type": "Feature", "properties": { "value": 0.2296 }, "geometry": { "type": "Point", "coordinates": [ 129.37619, 35.491272, 115.0 ] } },
{ "type": "Feature", "properties": { "value": 0.2537 }, "geometry": { "type": "Point", "coordinates": [ 129.377289, 35.491268, 115.0 ] } },
{ "type": "Feature", "properties": { "value": 0.2654 }, "geometry": { "type": "Point", "coordinates": [ 129.378387, 35.491268, 115.0 ] } },
{ "type": "Feature", "properties": { "value": 0.2673 }, "geometry": { "type": "Point", "coordinates": [ 129.379486, 35.491264, 115.0 ] } },
{ "type": "Feature", "properties": { "value": 0.2559 }, "geometry": { "type": "Point", "coordinates": [ 129.3806, 35.491261, 115.0 ] } },
{ "type": "Feature", "properties": { "value": 0.2309 }, "geometry": { "type": "Point", "coordinates": [ 129.381699, 35.491257, 115.0 ] } },
{ "type": "Feature", "properties": { "value": 0.218 }, "geometry": { "type": "Point", "coordinates": [ 129.337616, 35.49229, 115.0 ] } },
{ "type": "Feature", "properties": { "value": 0.7842 }, "geometry": { "type": "Point", "coordinates": [ 129.338715, 35.492287, 115.0 ] } },
{ "type": "Feature", "properties": { "value": 1.9341 }, "geometry": { "type": "Point", "coordinates": [ 129.339828, 35.492283, 115.0 ] } },
{ "type": "Feature", "properties": { "value": 3.7507 }, "geometry": { "type": "Point", "coordinates": [ 129.340927, 35.492279, 115.0 ] } },
{ "type": "Feature", "properties": { "value": 5.9761 }, "geometry": { "type": "Point", "coordinates": [ 129.342026, 35.492275, 115.0 ] } },
{ "type": "Feature", "properties": { "value": 8.0346 }, "geometry": { "type": "Point", "coordinates": [ 129.343124, 35.492271, 115.0 ] } },
{ "type": "Feature", "properties": { "value": 9.3428 }, "geometry": { "type": "Point", "coordinates": [ 129.344223, 35.492271, 115.0 ] } },
{ "type": "Feature", "properties": { "value": 9.5899 }, "geometry": { "type": "Point", "coordinates": [ 129.345337, 35.492268, 115.0 ] } },
{ "type": "Feature", "properties": { "value": 8.878 }, "geometry": { "type": "Point", "coordinates": [ 129.346436, 35.492264, 115.0 ] } },
{ "type": "Feature", "properties": { "value": 7.541 }, "geometry": { "type": "Point", "coordinates": [ 129.347534, 35.49226, 115.0 ] } },
{ "type": "Feature", "properties": { "value": 5.9763 }, "geometry": { "type": "Point", "coordinates": [ 129.348633, 35.492256, 115.0 ] } },
{ "type": "Feature", "properties": { "value": 4.4986 }, "geometry": { "type": "Point", "coordinates": [ 129.349747, 35.492252, 115.0 ] } },
{ "type": "Feature", "properties": { "value": 3.2568 }, "geometry": { "type": "Point", "coordinates": [ 129.350845, 35.492252, 115.0 ] } },
{ "type": "Feature", "properties": { "value": 2.2967 }, "geometry": { "type": "Point", "coordinates": [ 129.351944, 35.492249, 115.0 ] } },
{ "type": "Feature", "properties": { "value": 1.5938 }, "geometry": { "type": "Point", "coordinates": [ 129.353043, 35.492245, 115.0 ] } },
{ "type": "Feature", "properties": { "value": 1.1078 }, "geometry": { "type": "Point", "coordinates": [ 129.354141, 35.492241, 115.0 ] } },
{ "type": "Feature", "properties": { "value": 0.7801 }, "geometry": { "type": "Point", "coordinates": [ 129.355255, 35.492237, 115.0 ] } },
{ "type": "Feature", "properties": { "value": 0.5614 }, "geometry": { "type": "Point", "coordinates": [ 129.356354, 35.492233, 115.0 ] } },
{ "type": "Feature", "properties": { "value": 0.4156 }, "geometry": { "type": "Point", "coordinates": [ 129.357452, 35.492233, 115.0 ] } },
{ "type": "Feature", "properties": { "value": 0.3204 }, "geometry": { "type": "Point", "coordinates": [ 129.358551, 35.492229, 115.0 ] } },
{ "type": "Feature", "properties": { "value": 0.2522 }, "geometry": { "type": "Point", "coordinates": [ 129.359665, 35.492226, 115.0 ] } },
{ "type": "Feature", "properties": { "value": 0.2025 }, "geometry": { "type": "Point", "coordinates": [ 129.360764, 35.492222, 115.0 ] } },
{ "type": "Feature", "properties": { "value": 0.1754 }, "geometry": { "type": "Point", "coordinates": [ 129.361862, 35.492218, 115.0 ] } },
{ "type": "Feature", "properties": { "value": 0.1517 }, "geometry": { "type": "Point", "coordinates": [ 129.362961, 35.492214, 115.0 ] } },
{ "type": "Feature", "properties": { "value": 0.1398 }, "geometry": { "type": "Point", "coordinates": [ 129.364059, 35.49221, 115.0 ] } },
{ "type": "Feature", "properties": { "value": 0.1345 }, "geometry": { "type": "Point", "coordinates": [ 129.365173, 35.49221, 115.0 ] } },
{ "type": "Feature", "properties": { "value": 0.1368 }, "geometry": { "type": "Point", "coordinates": [ 129.366272, 35.492207, 115.0 ] } },
{ "type": "Feature", "properties": { "value": 0.1451 }, "geometry": { "type": "Point", "coordinates": [ 129.367371, 35.492203, 115.0 ] } },
{ "type": "Feature", "properties": { "value": 0.1621 }, "geometry": { "type": "Point", "coordinates": [ 129.368469, 35.492199, 115.0 ] } },
{ "type": "Feature", "properties": { "value": 0.1855 }, "geometry": { "type": "Point", "coordinates": [ 129.369583, 35.492195, 115.0 ] } },
{ "type": "Feature", "properties": { "value": 0.218 }, "geometry": { "type": "Point", "coordinates": [ 129.370682, 35.492191, 115.0 ] } },
{ "type": "Feature", "properties": { "value": 0.2618 }, "geometry": { "type": "Point", "coordinates": [ 129.37178, 35.492188, 115.0 ] } },
{ "type": "Feature", "properties": { "value": 0.3064 }, "geometry": { "type": "Point", "coordinates": [ 129.372879, 35.492184, 115.0 ] } },
{ "type": "Feature", "properties": { "value": 0.3545 }, "geometry": { "type": "Point", "coordinates": [ 129.373978, 35.49218, 115.0 ] } },
{ "type": "Feature", "properties": { "value": 0.4028 }, "geometry": { "type": "Point", "coordinates": [ 129.375092, 35.49218, 115.0 ] } },
{ "type": "Feature", "properties": { "value": 0.4455 }, "geometry": { "type": "Point", "coordinates": [ 129.37619, 35.492176, 115.0 ] } },
{ "type": "Feature", "properties": { "value": 0.4785 }, "geometry": { "type": "Point", "coordinates": [ 129.377289, 35.492172, 115.0 ] } },
{ "type": "Feature", "properties": { "value": 0.4926 }, "geometry": { "type": "Point", "coordinates": [ 129.378387, 35.492168, 115.0 ] } },
{ "type": "Feature", "properties": { "value": 0.4877 }, "geometry": { "type": "Point", "coordinates": [ 129.379501, 35.492165, 115.0 ] } },
{ "type": "Feature", "properties": { "value": 0.4605 }, "geometry": { "type": "Point", "coordinates": [ 129.3806, 35.492161, 115.0 ] } },
{ "type": "Feature", "properties": { "value": 0.4116 }, "geometry": { "type": "Point", "coordinates": [ 129.381699, 35.492157, 115.0 ] } },
{ "type": "Feature", "properties": { "value": 0.3022 }, "geometry": { "type": "Point", "coordinates": [ 129.33873, 35.493187, 115.0 ] } },
{ "type": "Feature", "properties": { "value": 0.8982 }, "geometry": { "type": "Point", "coordinates": [ 129.339828, 35.493183, 115.0 ] } },
{ "type": "Feature", "properties": { "value": 2.0205 }, "geometry": { "type": "Point", "coordinates": [ 129.340927, 35.493179, 115.0 ] } },
{ "type": "Feature", "properties": { "value": 3.6952 }, "geometry": { "type": "Point", "coordinates": [ 129.342026, 35.493179, 115.0 ] } },
{ "type": "Feature", "properties": { "value": 5.6823 }, "geometry": { "type": "Point", "coordinates": [ 129.343124, 35.493176, 115.0 ] } },
{ "type": "Feature", "properties": { "value": 7.5202 }, "geometry": { "type": "Point", "coordinates": [ 129.344238, 35.493172, 115.0 ] } },
{ "type": "Feature", "properties": { "value": 8.7505 }, "geometry": { "type": "Point", "coordinates": [ 129.345337, 35.493168, 115.0 ] } },
{ "type": "Feature", "properties": { "value": 9.1371 }, "geometry": { "type": "Point", "coordinates": [ 129.346436, 35.493164, 115.0 ] } },
{ "type": "Feature", "properties": { "value": 8.7243 }, "geometry": { "type": "Point", "coordinates": [ 129.347534, 35.49316, 115.0 ] } },
{ "type": "Feature", "properties": { "value": 7.7495 }, "geometry": { "type": "Point", "coordinates": [ 129.348648, 35.49316, 115.0 ] } },
{ "type": "Feature", "properties": { "value": 6.4999 }, "geometry": { "type": "Point", "coordinates": [ 129.349747, 35.493156, 115.0 ] } },
{ "type": "Feature", "properties": { "value": 5.1991 }, "geometry": { "type": "Point", "coordinates": [ 129.350845, 35.493153, 115.0 ] } },
{ "type": "Feature", "properties": { "value": 4.0121 }, "geometry": { "type": "Point", "coordinates": [ 129.351944, 35.493149, 115.0 ] } },
{ "type": "Feature", "properties": { "value": 3.0253 }, "geometry": { "type": "Point", "coordinates": [ 129.353043, 35.493145, 115.0 ] } },
{ "type": "Feature", "properties": { "value": 2.2616 }, "geometry": { "type": "Point", "coordinates": [ 129.354156, 35.493141, 115.0 ] } },
{ "type": "Feature", "properties": { "value": 1.6972 }, "geometry": { "type": "Point", "coordinates": [ 129.355255, 35.493141, 115.0 ] } },
{ "type": "Feature", "properties": { "value": 1.2907 }, "geometry": { "type": "Point", "coordinates": [ 129.356354, 35.493137, 115.0 ] } },
{ "type": "Feature", "properties": { "value": 1.0023 }, "geometry": { "type": "Point", "coordinates": [ 129.357452, 35.493134, 115.0 ] } },
{ "type": "Feature", "properties": { "value": 0.7964 }, "geometry": { "type": "Point", "coordinates": [ 129.358566, 35.49313, 115.0 ] } },
{ "type": "Feature", "properties": { "value": 0.6499 }, "geometry": { "type": "Point", "coordinates": [ 129.359665, 35.493126, 115.0 ] } },
{ "type": "Feature", "properties": { "value": 0.5441 }, "geometry": { "type": "Point", "coordinates": [ 129.360764, 35.493122, 115.0 ] } },
{ "type": "Feature", "properties": { "value": 0.4673 }, "geometry": { "type": "Point", "coordinates": [ 129.361862, 35.493118, 115.0 ] } },
{ "type": "Feature", "properties": { "value": 0.4164 }, "geometry": { "type": "Point", "coordinates": [ 129.362961, 35.493118, 115.0 ] } },
{ "type": "Feature", "properties": { "value": 0.3817 }, "geometry": { "type": "Point", "coordinates": [ 129.364075, 35.493114, 115.0 ] } },
{ "type": "Feature", "properties": { "value": 0.3583 }, "geometry": { "type": "Point", "coordinates": [ 129.365173, 35.493111, 115.0 ] } },
{ "type": "Feature", "properties": { "value": 0.3548 }, "geometry": { "type": "Point", "coordinates": [ 129.366272, 35.493107, 115.0 ] } },
{ "type": "Feature", "properties": { "value": 0.3621 }, "geometry": { "type": "Point", "coordinates": [ 129.367371, 35.493103, 115.0 ] } },
{ "type": "Feature", "properties": { "value": 0.3841 }, "geometry": { "type": "Point", "coordinates": [ 129.368484, 35.493099, 115.0 ] } },
{ "type": "Feature", "properties": { "value": 0.4177 }, "geometry": { "type": "Point", "coordinates": [ 129.369583, 35.493095, 115.0 ] } },
{ "type": "Feature", "properties": { "value": 0.469 }, "geometry": { "type": "Point", "coordinates": [ 129.370682, 35.493092, 115.0 ] } },
{ "type": "Feature", "properties": { "value": 0.528 }, "geometry": { "type": "Point", "coordinates": [ 129.37178, 35.493088, 115.0 ] } },
{ "type": "Feature", "properties": { "value": 0.5936 }, "geometry": { "type": "Point", "coordinates": [ 129.372894, 35.493088, 115.0 ] } },
{ "type": "Feature", "properties": { "value": 0.6651 }, "geometry": { "type": "Point", "coordinates": [ 129.373993, 35.493084, 115.0 ] } },
{ "type": "Feature", "properties": { "value": 0.7335 }, "geometry": { "type": "Point", "coordinates": [ 129.375092, 35.49308, 115.0 ] } },
{ "type": "Feature", "properties": { "value": 0.7926 }, "geometry": { "type": "Point", "coordinates": [ 129.37619, 35.493076, 115.0 ] } },
{ "type": "Feature", "properties": { "value": 0.8319 }, "geometry": { "type": "Point", "coordinates": [ 129.377289, 35.493073, 115.0 ] } },
{ "type": "Feature", "properties": { "value": 0.8431 }, "geometry": { "type": "Point", "coordinates": [ 129.378403, 35.493069, 115.0 ] } },
{ "type": "Feature", "properties": { "value": 0.8205 }, "geometry": { "type": "Point", "coordinates": [ 129.379501, 35.493065, 115.0 ] } },
{ "type": "Feature", "properties": { "value": 0.764 }, "geometry": { "type": "Point", "coordinates": [ 129.3806, 35.493061, 115.0 ] } },
{ "type": "Feature", "properties": { "value": 0.6753 }, "geometry": { "type": "Point", "coordinates": [ 129.381699, 35.493057, 115.0 ] } },
{ "type": "Feature", "properties": { "value": 0.0678 }, "geometry": { "type": "Point", "coordinates": [ 129.33873, 35.494087, 115.0 ] } },
{ "type": "Feature", "properties": { "value": 0.3657 }, "geometry": { "type": "Point", "coordinates": [ 129.339828, 35.494083, 115.0 ] } },
{ "type": "Feature", "properties": { "value": 0.9697 }, "geometry": { "type": "Point", "coordinates": [ 129.340927, 35.494083, 115.0 ] } },
{ "type": "Feature", "properties": { "value": 2.0275 }, "geometry": { "type": "Point", "coordinates": [ 129.342026, 35.49408, 115.0 ] } },
{ "type": "Feature", "properties": { "value": 3.5398 }, "geometry": { "type": "Point", "coordinates": [ 129.34314, 35.494076, 115.0 ] } },
{ "type": "Feature", "properties": { "value": 5.3048 }, "geometry": { "type": "Point", "coordinates": [ 129.344238, 35.494072, 115.0 ] } },
{ "type": "Feature", "properties": { "value": 6.9634 }, "geometry": { "type": "Point", "coordinates": [ 129.345337, 35.494068, 115.0 ] } },
{ "type": "Feature", "properties": { "value": 8.1618 }, "geometry": { "type": "Point", "coordinates": [ 129.346436, 35.494068, 115.0 ] } },
{ "type": "Feature", "properties": { "value": 8.7305 }, "geometry": { "type": "Point", "coordinates": [ 129.347549, 35.494064, 115.0 ] } },
{ "type": "Feature", "properties": { "value": 8.6521 }, "geometry": { "type": "Point", "coordinates": [ 129.348648, 35.494061, 115.0 ] } },
{ "type": "Feature", "properties": { "value": 8.0305 }, "geometry": { "type": "Point", "coordinates": [ 129.349747, 35.494057, 115.0 ] } },
{ "type": "Feature", "properties": { "value": 7.0582 }, "geometry": { "type": "Point", "coordinates": [ 129.350845, 35.494053, 115.0 ] } },
{ "type": "Feature", "properties": { "value": 5.9519 }, "geometry": { "type": "Point", "coordinates": [ 129.351959, 35.494049, 115.0 ] } },
{ "type": "Feature", "properties": { "value": 4.8513 }, "geometry": { "type": "Point", "coordinates": [ 129.353058, 35.494049, 115.0 ] } },
{ "type": "Feature", "properties": { "value": 3.8842 }, "geometry": { "type": "Point", "coordinates": [ 129.354156, 35.494045, 115.0 ] } },
{ "type": "Feature", "properties": { "value": 3.0946 }, "geometry": { "type": "Point", "coordinates": [ 129.355255, 35.494041, 115.0 ] } },
{ "type": "Feature", "properties": { "value": 2.4747 }, "geometry": { "type": "Point", "coordinates": [ 129.356354, 35.494038, 115.0 ] } },
{ "type": "Feature", "properties": { "value": 1.9989 }, "geometry": { "type": "Point", "coordinates": [ 129.357468, 35.494034, 115.0 ] } },
{ "type": "Feature", "properties": { "value": 1.643 }, "geometry": { "type": "Point", "coordinates": [ 129.358566, 35.49403, 115.0 ] } },
{ "type": "Feature", "properties": { "value": 1.3751 }, "geometry": { "type": "Point", "coordinates": [ 129.359665, 35.494026, 115.0 ] } },
{ "type": "Feature", "properties": { "value": 1.1708 }, "geometry": { "type": "Point", "coordinates": [ 129.360764, 35.494026, 115.0 ] } },
{ "type": "Feature", "properties": { "value": 1.0185 }, "geometry": { "type": "Point", "coordinates": [ 129.361877, 35.494022, 115.0 ] } },
{ "type": "Feature", "properties": { "value": 0.9058 }, "geometry": { "type": "Point", "coordinates": [ 129.362976, 35.494019, 115.0 ] } },
{ "type": "Feature", "properties": { "value": 0.8263 }, "geometry": { "type": "Point", "coordinates": [ 129.364075, 35.494015, 115.0 ] } },
{ "type": "Feature", "properties": { "value": 0.7794 }, "geometry": { "type": "Point", "coordinates": [ 129.365173, 35.494011, 115.0 ] } },
{ "type": "Feature", "properties": { "value": 0.7565 }, "geometry": { "type": "Point", "coordinates": [ 129.366272, 35.494007, 115.0 ] } },
{ "type": "Feature", "properties": { "value": 0.7558 }, "geometry": { "type": "Point", "coordinates": [ 129.367386, 35.494003, 115.0 ] } },
{ "type": "Feature", "properties": { "value": 0.777 }, "geometry": { "type": "Point", "coordinates": [ 129.368484, 35.493999, 115.0 ] } },
{ "type": "Feature", "properties": { "value": 0.8199 }, "geometry": { "type": "Point", "coordinates": [ 129.369583, 35.493999, 115.0 ] } },
{ "type": "Feature", "properties": { "value": 0.8862 }, "geometry": { "type": "Point", "coordinates": [ 129.370682, 35.493996, 115.0 ] } },
{ "type": "Feature", "properties": { "value": 0.9622 }, "geometry": { "type": "Point", "coordinates": [ 129.371796, 35.493992, 115.0 ] } },
{ "type": "Feature", "properties": { "value": 1.049 }, "geometry": { "type": "Point", "coordinates": [ 129.372894, 35.493988, 115.0 ] } },
{ "type": "Feature", "properties": { "value": 1.1415 }, "geometry": { "type": "Point", "coordinates": [ 129.373993, 35.493984, 115.0 ] } },
{ "type": "Feature", "properties": { "value": 1.2297 }, "geometry": { "type": "Point", "coordinates": [ 129.375092, 35.49398, 115.0 ] } },
{ "type": "Feature", "properties": { "value": 1.2981 }, "geometry": { "type": "Point", "coordinates": [ 129.37619, 35.493977, 115.0 ] } },
{ "type": "Feature", "properties": { "value": 1.3364 }, "geometry": { "type": "Point", "coordinates": [ 129.377304, 35.493973, 115.0 ] } },
{ "type": "Feature", "properties": { "value": 1.3313 }, "geometry": { "type": "Point", "coordinates": [ 129.378403, 35.493969, 115.0 ] } },
{ "type": "Feature", "properties": { "value": 1.2755 }, "geometry": { "type": "Point", "coordinates": [ 129.379501, 35.493965, 115.0 ] } },
{ "type": "Feature", "properties": { "value": 1.1722 }, "geometry": { "type": "Point", "coordinates": [ 129.3806, 35.493965, 115.0 ] } },
{ "type": "Feature", "properties": { "value": 1.0254 }, "geometry": { "type": "Point", "coordinates": [ 129.381714, 35.493961, 115.0 ] } },
{ "type": "Feature", "properties": { "value": 0.1033 }, "geometry": { "type": "Point", "coordinates": [ 129.339828, 35.494987, 115.0 ] } },
{ "type": "Feature", "properties": { "value": 0.4095 }, "geometry": { "type": "Point", "coordinates": [ 129.340942, 35.494984, 115.0 ] } },
{ "type": "Feature", "properties": { "value": 0.989 }, "geometry": { "type": "Point", "coordinates": [ 129.342041, 35.49498, 115.0 ] } },
{ "type": "Feature", "properties": { "value": 1.958 }, "geometry": { "type": "Point", "coordinates": [ 129.34314, 35.494976, 115.0 ] } },
{ "type": "Feature", "properties": { "value": 3.296 }, "geometry": { "type": "Point", "coordinates": [ 129.344238, 35.494972, 115.0 ] } },
{ "type": "Feature", "properties": { "value": 4.8505 }, "geometry": { "type": "Point", "coordinates": [ 129.345337, 35.494972, 115.0 ] } },
{ "type": "Feature", "properties": { "value": 6.3636 }, "geometry": { "type": "Point", "coordinates": [ 129.346451, 35.494968, 115.0 ] } },
{ "type": "Feature", "properties": { "value": 7.5848 }, "geometry": { "type": "Point", "coordinates": [ 129.347549, 35.494965, 115.0 ] } },
{ "type": "Feature", "properties": { "value": 8.3318 }, "geometry": { "type": "Point", "coordinates": [ 129.348648, 35.494961, 115.0 ] } },
{ "type": "Feature", "properties": { "value": 8.5201 }, "geometry": { "type": "Point", "coordinates": [ 129.349747, 35.494957, 115.0 ] } },
{ "type": "Feature", "properties": { "value": 8.198 }, "geometry": { "type": "Point", "coordinates": [ 129.350861, 35.494953, 115.0 ] } },
{ "type": "Feature", "properties": { "value": 7.5063 }, "geometry": { "type": "Point", "coordinates": [ 129.351959, 35.494953, 115.0 ] } },
{ "type": "Feature", "properties": { "value": 6.5943 }, "geometry": { "type": "Point", "coordinates": [ 129.353058, 35.494949, 115.0 ] } },
{ "type": "Feature", "properties": { "value": 5.6538 }, "geometry": { "type": "Point", "coordinates": [ 129.354156, 35.494946, 115.0 ] } },
{ "type": "Feature", "properties": { "value": 4.7795 }, "geometry": { "type": "Point", "coordinates": [ 129.355255, 35.494942, 115.0 ] } },
{ "type": "Feature", "properties": { "value": 4.0229 }, "geometry": { "type": "Point", "coordinates": [ 129.356369, 35.494938, 115.0 ] } },
{ "type": "Feature", "properties": { "value": 3.3912 }, "geometry": { "type": "Point", "coordinates": [ 129.357468, 35.494934, 115.0 ] } },
{ "type": "Feature", "properties": { "value": 2.8786 }, "geometry": { "type": "Point", "coordinates": [ 129.358566, 35.494934, 115.0 ] } },
{ "type": "Feature", "properties": { "value": 2.4705 }, "geometry": { "type": "Point", "coordinates": [ 129.359665, 35.49493, 115.0 ] } },
{ "type": "Feature", "properties": { "value": 2.144 }, "geometry": { "type": "Point", "coordinates": [ 129.360779, 35.494926, 115.0 ] } },
{ "type": "Feature", "properties": { "value": 1.8911 }, "geometry": { "type": "Point", "coordinates": [ 129.361877, 35.494923, 115.0 ] } },
{ "type": "Feature", "properties": { "value": 1.6983 }, "geometry": { "type": "Point", "coordinates": [ 129.362976, 35.494919, 115.0 ] } },
{ "type": "Feature", "properties": { "value": 1.5584 }, "geometry": { "type": "Point", "coordinates": [ 129.364075, 35.494915, 115.0 ] } },
{ "type": "Feature", "properties": { "value": 1.4632 }, "geometry": { "type": "Point", "coordinates": [ 129.365173, 35.494911, 115.0 ] } },
{ "type": "Feature", "properties": { "value": 1.4068 }, "geometry": { "type": "Point", "coordinates": [ 129.366287, 35.494907, 115.0 ] } },
{ "type": "Feature", "properties": { "value": 1.3863 }, "geometry": { "type": "Point", "coordinates": [ 129.367386, 35.494907, 115.0 ] } },
{ "type": "Feature", "properties": { "value": 1.3972 }, "geometry": { "type": "Point", "coordinates": [ 129.368484, 35.494904, 115.0 ] } },
{ "type": "Feature", "properties": { "value": 1.4393 }, "geometry": { "type": "Point", "coordinates": [ 129.369583, 35.4949, 115.0 ] } },
{ "type": "Feature", "properties": { "value": 1.5082 }, "geometry": { "type": "Point", "coordinates": [ 129.370697, 35.494896, 115.0 ] } },
{ "type": "Feature", "properties": { "value": 1.5965 }, "geometry": { "type": "Point", "coordinates": [ 129.371796, 35.494892, 115.0 ] } },
{ "type": "Feature", "properties": { "value": 1.6977 }, "geometry": { "type": "Point", "coordinates": [ 129.372894, 35.494888, 115.0 ] } },
{ "type": "Feature", "properties": { "value": 1.8046 }, "geometry": { "type": "Point", "coordinates": [ 129.373993, 35.494884, 115.0 ] } },
{ "type": "Feature", "properties": { "value": 1.8974 }, "geometry": { "type": "Point", "coordinates": [ 129.375107, 35.494881, 115.0 ] } },
{ "type": "Feature", "properties": { "value": 1.964 }, "geometry": { "type": "Point", "coordinates": [ 129.376205, 35.494877, 115.0 ] } },
{ "type": "Feature", "properties": { "value": 1.9839 }, "geometry": { "type": "Point", "coordinates": [ 129.377304, 35.494877, 115.0 ] } },
{ "type": "Feature", "properties": { "value": 1.944 }, "geometry": { "type": "Point", "coordinates": [ 129.378403, 35.494873, 115.0 ] } },
{ "type": "Feature", "properties": { "value": 1.8379 }, "geometry": { "type": "Point", "coordinates": [ 129.379501, 35.494869, 115.0 ] } },
{ "type": "Feature", "properties": { "value": 1.6679 }, "geometry": { "type": "Point", "coordinates": [ 129.380615, 35.494865, 115.0 ] } },
{ "type": "Feature", "properties": { "value": 1.444 }, "geometry": { "type": "Point", "coordinates": [ 129.381714, 35.494862, 115.0 ] } },
{ "type": "Feature", "properties": { "value": 0.1355 }, "geometry": { "type": "Point", "coordinates": [ 129.340942, 35.495884, 115.0 ] } },
{ "type": "Feature", "properties": { "value": 0.4263 }, "geometry": { "type": "Point", "coordinates": [ 129.342041, 35.49588, 115.0 ] } },
{ "type": "Feature", "properties": { "value": 0.9558 }, "geometry": { "type": "Point", "coordinates": [ 129.34314, 35.49588, 115.0 ] } },
{ "type": "Feature", "properties": { "value": 1.8055 }, "geometry": { "type": "Point", "coordinates": [ 129.344238, 35.495876, 115.0 ] } },
{ "type": "Feature", "properties": { "value": 2.9666 }, "geometry": { "type": "Point", "coordinates": [ 129.345352, 35.495872, 115.0 ] } },
{ "type": "Feature", "properties": { "value": 4.3264 }, "geometry": { "type": "Point", "coordinates": [ 129.346451, 35.495869, 115.0 ] } },
{ "type": "Feature", "properties": { "value": 5.7102 }, "geometry": { "type": "Point", "coordinates": [ 129.347549, 35.495865, 115.0 ] } },
{ "type": "Feature", "properties": { "value": 6.9224 }, "geometry": { "type": "Point", "coordinates": [ 129.348648, 35.495861, 115.0 ] } },
{ "type": "Feature", "properties": { "value": 7.7761 }, "geometry": { "type": "Point", "coordinates": [ 129.349762, 35.495861, 115.0 ] } },
{ "type": "Feature", "properties": { "value": 8.1609 }, "geometry": { "type": "Point", "coordinates": [ 129.350861, 35.495857, 115.0 ] } },
{ "type": "Feature", "properties": { "value": 8.0777 }, "geometry": { "type": "Point", "coordinates": [ 129.351959, 35.495853, 115.0 ] } },
{ "type": "Feature", "properties": { "value": 7.6513 }, "geometry": { "type": "Point", "coordinates": [ 129.353058, 35.49585, 115.0 ] } },
{ "type": "Feature", "properties": { "value": 7.0135 }, "geometry": { "type": "Point", "coordinates": [ 129.354156, 35.495846, 115.0 ] } },
{ "type": "Feature", "properties": { "value": 6.2966 }, "geometry": { "type": "Point", "coordinates": [ 129.35527, 35.495842, 115.0 ] } },
{ "type": "Feature", "properties": { "value": 5.5851 }, "geometry": { "type": "Point", "coordinates": [ 129.356369, 35.495838, 115.0 ] } },
{ "type": "Feature", "properties": { "value": 4.9239 }, "geometry": { "type": "Point", "coordinates": [ 129.357468, 35.495838, 115.0 ] } },
{ "type": "Feature", "properties": { "value": 4.3373 }, "geometry": { "type": "Point", "coordinates": [ 129.358566, 35.495834, 115.0 ] } },
{ "type": "Feature", "properties": { "value": 3.8356 }, "geometry": { "type": "Point", "coordinates": [ 129.35968, 35.495831, 115.0 ] } },
{ "type": "Feature", "properties": { "value": 3.4099 }, "geometry": { "type": "Point", "coordinates": [ 129.360779, 35.495827, 115.0 ] } },
{ "type": "Feature", "properties": { "value": 3.0612 }, "geometry": { "type": "Point", "coordinates": [ 129.361877, 35.495823, 115.0 ] } },
{ "type": "Feature", "properties": { "value": 2.7829 }, "geometry": { "type": "Point", "coordinates": [ 129.362976, 35.495819, 115.0 ] } },
{ "type": "Feature", "properties": { "value": 2.57 }, "geometry": { "type": "Point", "coordinates": [ 129.36409, 35.495815, 115.0 ] } },
{ "type": "Feature", "properties": { "value": 2.4153 }, "geometry": { "type": "Point", "coordinates": [ 129.365189, 35.495815, 115.0 ] } },
{ "type": "Feature", "properties": { "value": 2.3113 }, "geometry": { "type": "Point", "coordinates": [ 129.366287, 35.495811, 115.0 ] } },
{ "type": "Feature", "properties": { "value": 2.2547 }, "geometry": { "type": "Point", "coordinates": [ 129.367386, 35.495808, 115.0 ] } },
{ "type": "Feature", "properties": { "value": 2.2418 }, "geometry": { "type": "Point", "coordinates": [ 129.368484, 35.495804, 115.0 ] } },
{ "type": "Feature", "properties": { "value": 2.2712 }, "geometry": { "type": "Point", "coordinates": [ 129.369598, 35.4958, 115.0 ] } },
{ "type": "Feature", "properties": { "value": 2.3312 }, "geometry": { "type": "Point", "coordinates": [ 129.370697, 35.495796, 115.0 ] } },
{ "type": "Feature", "properties": { "value": 2.4144 }, "geometry": { "type": "Point", "coordinates": [ 129.371796, 35.495792, 115.0 ] } },
{ "type": "Feature", "properties": { "value": 2.5159 }, "geometry": { "type": "Point", "coordinates": [ 129.372894, 35.495789, 115.0 ] } },
{ "type": "Feature", "properties": { "value": 2.6164 }, "geometry": { "type": "Point", "coordinates": [ 129.374008, 35.495785, 115.0 ] } },
{ "type": "Feature", "properties": { "value": 2.697 }, "geometry": { "type": "Point", "coordinates": [ 129.375107, 35.495785, 115.0 ] } },
{ "type": "Feature", "properties": { "value": 2.739 }, "geometry": { "type": "Point", "coordinates": [ 129.376205, 35.495781, 115.0 ] } },
{ "type": "Feature", "properties": { "value": 2.722 }, "geometry": { "type": "Point", "coordinates": [ 129.377304, 35.495777, 115.0 ] } },
{ "type": "Feature", "properties": { "value": 2.6278 }, "geometry": { "type": "Point", "coordinates": [ 129.378403, 35.495773, 115.0 ] } },
{ "type": "Feature", "properties": { "value": 2.4519 }, "geometry": { "type": "Point", "coordinates": [ 129.379517, 35.49577, 115.0 ] } },
{ "type": "Feature", "properties": { "value": 2.197 }, "geometry": { "type": "Point", "coordinates": [ 129.380615, 35.495766, 115.0 ] } },
{ "type": "Feature", "properties": { "value": 1.8836 }, "geometry": { "type": "Point", "coordinates": [ 129.381714, 35.495762, 115.0 ] } },
{ "type": "Feature", "properties": { "value": 0.1448 }, "geometry": { "type": "Point", "coordinates": [ 129.342041, 35.496784, 115.0 ] } },
{ "type": "Feature", "properties": { "value": 0.4048 }, "geometry": { "type": "Point", "coordinates": [ 129.34314, 35.49678, 115.0 ] } },
{ "type": "Feature", "properties": { "value": 0.8687 }, "geometry": { "type": "Point", "coordinates": [ 129.344254, 35.496777, 115.0 ] } },
{ "type": "Feature", "properties": { "value": 1.5862 }, "geometry": { "type": "Point", "coordinates": [ 129.345352, 35.496773, 115.0 ] } },
{ "type": "Feature", "properties": { "value": 2.5603 }, "geometry": { "type": "Point", "coordinates": [ 129.346451, 35.496769, 115.0 ] } },
{ "type": "Feature", "properties": { "value": 3.7309 }, "geometry": { "type": "Point", "coordinates": [ 129.347549, 35.496765, 115.0 ] } },
{ "type": "Feature", "properties": { "value": 4.9647 }, "geometry": { "type": "Point", "coordinates": [ 129.348663, 35.496765, 115.0 ] } },
{ "type": "Feature", "properties": { "value": 6.107 }, "geometry": { "type": "Point", "coordinates": [ 129.349762, 35.496761, 115.0 ] } },
{ "type": "Feature", "properties": { "value": 6.977 }, "geometry": { "type": "Point", "coordinates": [ 129.350861, 35.496758, 115.0 ] } },
{ "type": "Feature", "properties": { "value": 7.4652 }, "geometry": { "type": "Point", "coordinates": [ 129.351959, 35.496754, 115.0 ] } },
{ "type": "Feature", "properties": { "value": 7.6099 }, "geometry": { "type": "Point", "coordinates": [ 129.353073, 35.49675, 115.0 ] } },
{ "type": "Feature", "properties": { "value": 7.4667 }, "geometry": { "type": "Point", "coordinates": [ 129.354172, 35.496746, 115.0 ] } },
{ "type": "Feature", "properties": { "value": 7.1344 }, "geometry": { "type": "Point", "coordinates": [ 129.35527, 35.496746, 115.0 ] } },
{ "type": "Feature", "properties": { "value": 6.6785 }, "geometry": { "type": "Point", "coordinates": [ 129.356369, 35.496742, 115.0 ] } },
{ "type": "Feature", "properties": { "value": 6.1653 }, "geometry": { "type": "Point", "coordinates": [ 129.357468, 35.496738, 115.0 ] } },
{ "type": "Feature", "properties": { "value": 5.6482 }, "geometry": { "type": "Point", "coordinates": [ 129.358582, 35.496735, 115.0 ] } },
{ "type": "Feature", "properties": { "value": 5.1618 }, "geometry": { "type": "Point", "coordinates": [ 129.35968, 35.496731, 115.0 ] } },
{ "type": "Feature", "properties": { "value": 4.7134 }, "geometry": { "type": "Point", "coordinates": [ 129.360779, 35.496727, 115.0 ] } },
{ "type": "Feature", "properties": { "value": 4.3223 }, "geometry": { "type": "Point", "coordinates": [ 129.361877, 35.496723, 115.0 ] } },
{ "type": "Feature", "properties": { "value": 3.9937 }, "geometry": { "type": "Point", "coordinates": [ 129.362991, 35.496723, 115.0 ] } },
{ "type": "Feature", "properties": { "value": 3.7262 }, "geometry": { "type": "Point", "coordinates": [ 129.36409, 35.496719, 115.0 ] } },
{ "type": "Feature", "properties": { "value": 3.5247 }, "geometry": { "type": "Point", "coordinates": [ 129.365189, 35.496716, 115.0 ] } },
{ "type": "Feature", "properties": { "value": 3.3762 }, "geometry": { "type": "Point", "coordinates": [ 129.366287, 35.496712, 115.0 ] } },
{ "type": "Feature", "properties": { "value": 3.2793 }, "geometry": { "type": "Point", "coordinates": [ 129.367386, 35.496708, 115.0 ] } },
{ "type": "Feature", "properties": { "value": 3.2323 }, "geometry": { "type": "Point", "coordinates": [ 129.3685, 35.496704, 115.0 ] } },
{ "type": "Feature", "properties": { "value": 3.2297 }, "geometry": { "type": "Point", "coordinates": [ 129.369598, 35.4967, 115.0 ] } },
{ "type": "Feature", "properties": { "value": 3.2671 }, "geometry": { "type": "Point", "coordinates": [ 129.370697, 35.496696, 115.0 ] } },
{ "type": "Feature", "properties": { "value": 3.329 }, "geometry": { "type": "Point", "coordinates": [ 129.371796, 35.496696, 115.0 ] } },
{ "type": "Feature", "properties": { "value": 3.4044 }, "geometry": { "type": "Point", "coordinates": [ 129.37291, 35.496693, 115.0 ] } },
{ "type": "Feature", "properties": { "value": 3.4773 }, "geometry": { "type": "Point", "coordinates": [ 129.374008, 35.496689, 115.0 ] } },
{ "type": "Feature", "properties": { "value": 3.5251 }, "geometry": { "type": "Point", "coordinates": [ 129.375107, 35.496685, 115.0 ] } },
{ "type": "Feature", "properties": { "value": 3.5205 }, "geometry": { "type": "Point", "coordinates": [ 129.376205, 35.496681, 115.0 ] } },
{ "type": "Feature", "properties": { "value": 3.4457 }, "geometry": { "type": "Point", "coordinates": [ 129.377319, 35.496677, 115.0 ] } },
{ "type": "Feature", "properties": { "value": 3.2814 }, "geometry": { "type": "Point", "coordinates": [ 129.378418, 35.496674, 115.0 ] } },
{ "type": "Feature", "properties": { "value": 3.0235 }, "geometry": { "type": "Point", "coordinates": [ 129.379517, 35.49667, 115.0 ] } },
{ "type": "Feature", "properties": { "value": 2.6817 }, "geometry": { "type": "Point", "coordinates": [ 129.380615, 35.496666, 115.0 ] } },
{ "type": "Feature", "properties": { "value": 2.2776 }, "geometry": { "type": "Point", "coordinates": [ 129.381714, 35.496662, 115.0 ] } },
{ "type": "Feature", "properties": { "value": 0.133 }, "geometry": { "type": "Point", "coordinates": [ 129.343155, 35.497681, 115.0 ] } },
{ "type": "Feature", "properties": { "value": 0.3526 }, "geometry": { "type": "Point", "coordinates": [ 129.344254, 35.497677, 115.0 ] } },
{ "type": "Feature", "properties": { "value": 0.7342 }, "geometry": { "type": "Point", "coordinates": [ 129.345352, 35.497673, 115.0 ] } },
{ "type": "Feature", "properties": { "value": 1.3161 }, "geometry": { "type": "Point", "coordinates": [ 129.346451, 35.497673, 115.0 ] } },
{ "type": "Feature", "properties": { "value": 2.1143 }, "geometry": { "type": "Point", "coordinates": [ 129.347565, 35.497669, 115.0 ] } },
{ "type": "Feature", "properties": { "value": 3.0817 }, "geometry": { "type": "Point", "coordinates": [ 129.348663, 35.497665, 115.0 ] } },
{ "type": "Feature", "properties": { "value": 4.1311 }, "geometry": { "type": "Point", "coordinates": [ 129.349762, 35.497662, 115.0 ] } },
{ "type": "Feature", "properties": { "value": 5.1252 }, "geometry": { "type": "Point", "coordinates": [ 129.350861, 35.497658, 115.0 ] } },
{ "type": "Feature", "properties": { "value": 5.9438 }, "geometry": { "type": "Point", "coordinates": [ 129.351974, 35.497654, 115.0 ] } },
{ "type": "Feature", "properties": { "value": 6.5315 }, "geometry": { "type": "Point", "coordinates": [ 129.353073, 35.497654, 115.0 ] } },
{ "type": "Feature", "properties": { "value": 6.8701 }, "geometry": { "type": "Point", "coordinates": [ 129.354172, 35.49765, 115.0 ] } },
{ "type": "Feature", "properties": { "value": 6.9839 }, "geometry": { "type": "Point", "coordinates": [ 129.35527, 35.497646, 115.0 ] } },
{ "type": "Feature", "properties": { "value": 6.9025 }, "geometry": { "type": "Point", "coordinates": [ 129.356369, 35.497643, 115.0 ] } },
{ "type": "Feature", "properties": { "value": 6.685 }, "geometry": { "type": "Point", "coordinates": [ 129.357483, 35.497639, 115.0 ] } },
{ "type": "Feature", "properties": { "value": 6.3858 }, "geometry": { "type": "Point", "coordinates": [ 129.358582, 35.497635, 115.0 ] } },
{ "type": "Feature", "properties": { "value": 6.0423 }, "geometry": { "type": "Point", "coordinates": [ 129.35968, 35.497631, 115.0 ] } },
{ "type": "Feature", "properties": { "value": 5.6916 }, "geometry": { "type": "Point", "coordinates": [ 129.360779, 35.497631, 115.0 ] } },
{ "type": "Feature", "properties": { "value": 5.3487 }, "geometry": { "type": "Point", "coordinates": [ 129.361893, 35.497627, 115.0 ] } },
{ "type": "Feature", "properties": { "value": 5.0388 }, "geometry": { "type": "Point", "coordinates": [ 129.362991, 35.497623, 115.0 ] } },
{ "type": "Feature", "properties": { "value": 4.771 }, "geometry": { "type": "Point", "coordinates": [ 129.36409, 35.49762, 115.0 ] } },
{ "type": "Feature", "properties": { "value": 4.5538 }, "geometry": { "type": "Point", "coordinates": [ 129.365189, 35.497616, 115.0 ] } },
{ "type": "Feature", "properties": { "value": 4.3814 }, "geometry": { "type": "Point", "coordinates": [ 129.366302, 35.497612, 115.0 ] } },
{ "type": "Feature", "properties": { "value": 4.2576 }, "geometry": { "type": "Point", "coordinates": [ 129.367401, 35.497608, 115.0 ] } },
{ "type": "Feature", "properties": { "value": 4.1799 }, "geometry": { "type": "Point", "coordinates": [ 129.3685, 35.497604, 115.0 ] } },
{ "type": "Feature", "properties": { "value": 4.1476 }, "geometry": { "type": "Point", "coordinates": [ 129.369598, 35.497604, 115.0 ] } },
{ "type": "Feature", "properties": { "value": 4.1478 }, "geometry": { "type": "Point", "coordinates": [ 129.370697, 35.497601, 115.0 ] } },
{ "type": "Feature", "properties": { "value": 4.172 }, "geometry": { "type": "Point", "coordinates": [ 129.371811, 35.497597, 115.0 ] } },
{ "type": "Feature", "properties": { "value": 4.2079 }, "geometry": { "type": "Point", "coordinates": [ 129.37291, 35.497593, 115.0 ] } },
{ "type": "Feature", "properties": { "value": 4.2348 }, "geometry": { "type": "Point", "coordinates": [ 129.374008, 35.497589, 115.0 ] } },
{ "type": "Feature", "properties": { "value": 4.2284 }, "geometry": { "type": "Point", "coordinates": [ 129.375107, 35.497585, 115.0 ] } },
{ "type": "Feature", "properties": { "value": 4.1644 }, "geometry": { "type": "Point", "coordinates": [ 129.376221, 35.497581, 115.0 ] } },
{ "type": "Feature", "properties": { "value": 4.0206 }, "geometry": { "type": "Point", "coordinates": [ 129.377319, 35.497578, 115.0 ] } },
{ "type": "Feature", "properties": { "value": 3.7821 }, "geometry": { "type": "Point", "coordinates": [ 129.378418, 35.497574, 115.0 ] } },
{ "type": "Feature", "properties": { "value": 3.4477 }, "geometry": { "type": "Point", "coordinates": [ 129.379517, 35.497574, 115.0 ] } },
{ "type": "Feature", "properties": { "value": 3.0272 }, "geometry": { "type": "Point", "coordinates": [ 129.380615, 35.49757, 115.0 ] } },
{ "type": "Feature", "properties": { "value": 2.5494 }, "geometry": { "type": "Point", "coordinates": [ 129.381729, 35.497566, 115.0 ] } },
{ "type": "Feature", "properties": { "value": 0.1084 }, "geometry": { "type": "Point", "coordinates": [ 129.344254, 35.498581, 115.0 ] } },
{ "type": "Feature", "properties": { "value": 0.2871 }, "geometry": { "type": "Point", "coordinates": [ 129.345352, 35.498577, 115.0 ] } },
{ "type": "Feature", "properties": { "value": 0.5827 }, "geometry": { "type": "Point", "coordinates": [ 129.346466, 35.498573, 115.0 ] } },
{ "type": "Feature", "properties": { "value": 1.0373 }, "geometry": { "type": "Point", "coordinates": [ 129.347565, 35.498569, 115.0 ] } },
{ "type": "Feature", "properties": { "value": 1.6496 }, "geometry": { "type": "Point", "coordinates": [ 129.348663, 35.498566, 115.0 ] } },
{ "type": "Feature", "properties": { "value": 2.4175 }, "geometry": { "type": "Point", "coordinates": [ 129.349762, 35.498562, 115.0 ] } },
{ "type": "Feature", "properties": { "value": 3.2588 }, "geometry": { "type": "Point", "coordinates": [ 129.350876, 35.498562, 115.0 ] } },
{ "type": "Feature", "properties": { "value": 4.0979 }, "geometry": { "type": "Point", "coordinates": [ 129.351974, 35.498558, 115.0 ] } },
{ "type": "Feature", "properties": { "value": 4.8568 }, "geometry": { "type": "Point", "coordinates": [ 129.353073, 35.498554, 115.0 ] } },
{ "type": "Feature", "properties": { "value": 5.4724 }, "geometry": { "type": "Point", "coordinates": [ 129.354172, 35.49855, 115.0 ] } },
{ "type": "Feature", "properties": { "value": 5.9178 }, "geometry": { "type": "Point", "coordinates": [ 129.35527, 35.498547, 115.0 ] } },
{ "type": "Feature", "properties": { "value": 6.1826 }, "geometry": { "type": "Point", "coordinates": [ 129.356384, 35.498543, 115.0 ] } },
{ "type": "Feature", "properties": { "value": 6.2954 }, "geometry": { "type": "Point", "coordinates": [ 129.357483, 35.498539, 115.0 ] } },
{ "type": "Feature", "properties": { "value": 6.2825 }, "geometry": { "type": "Point", "coordinates": [ 129.358582, 35.498539, 115.0 ] } },
{ "type": "Feature", "properties": { "value": 6.1829 }, "geometry": { "type": "Point", "coordinates": [ 129.35968, 35.498535, 115.0 ] } },
{ "type": "Feature", "properties": { "value": 6.0131 }, "geometry": { "type": "Point", "coordinates": [ 129.360794, 35.498531, 115.0 ] } },
{ "type": "Feature", "properties": { "value": 5.8136 }, "geometry": { "type": "Point", "coordinates": [ 129.361893, 35.498528, 115.0 ] } },
{ "type": "Feature", "properties": { "value": 5.6015 }, "geometry": { "type": "Point", "coordinates": [ 129.362991, 35.498524, 115.0 ] } },
{ "type": "Feature", "properties": { "value": 5.3975 }, "geometry": { "type": "Point", "coordinates": [ 129.36409, 35.49852, 115.0 ] } },
{ "type": "Feature", "properties": { "value": 5.2189 }, "geometry": { "type": "Point", "coordinates": [ 129.365204, 35.498516, 115.0 ] } },
{ "type": "Feature", "properties": { "value": 5.0629 }, "geometry": { "type": "Point", "coordinates": [ 129.366302, 35.498512, 115.0 ] } },
{ "type": "Feature", "properties": { "value": 4.9402 }, "geometry": { "type": "Point", "coordinates": [ 129.367401, 35.498512, 115.0 ] } },
{ "type": "Feature", "properties": { "value": 4.8515 }, "geometry": { "type": "Point", "coordinates": [ 129.3685, 35.498508, 115.0 ] } },
{ "type": "Feature", "properties": { "value": 4.7959 }, "geometry": { "type": "Point", "coordinates": [ 129.369598, 35.498505, 115.0 ] } },
{ "type": "Feature", "properties": { "value": 4.7646 }, "geometry": { "type": "Point", "coordinates": [ 129.370712, 35.498501, 115.0 ] } },
{ "type": "Feature", "properties": { "value": 4.7508 }, "geometry": { "type": "Point", "coordinates": [ 129.371811, 35.498497, 115.0 ] } },
{ "type": "Feature", "properties": { "value": 4.7409 }, "geometry": { "type": "Point", "coordinates": [ 129.37291, 35.498493, 115.0 ] } },
{ "type": "Feature", "properties": { "value": 4.7144 }, "geometry": { "type": "Point", "coordinates": [ 129.374008, 35.498489, 115.0 ] } },
{ "type": "Feature", "properties": { "value": 4.6519 }, "geometry": { "type": "Point", "coordinates": [ 129.375122, 35.498486, 115.0 ] } },
{ "type": "Feature", "properties": { "value": 4.5269 }, "geometry": { "type": "Point", "coordinates": [ 129.376221, 35.498482, 115.0 ] } },
{ "type": "Feature", "properties": { "value": 4.3205 }, "geometry": { "type": "Point", "coordinates": [ 129.377319, 35.498482, 115.0 ] } },
{ "type": "Feature", "properties": { "value": 4.022 }, "geometry": { "type": "Point", "coordinates": [ 129.378418, 35.498478, 115.0 ] } },
{ "type": "Feature", "properties": { "value": 3.6288 }, "geometry": { "type": "Point", "coordinates": [ 129.379532, 35.498474, 115.0 ] } },
{ "type": "Feature", "properties": { "value": 3.1605 }, "geometry": { "type": "Point", "coordinates": [ 129.38063, 35.49847, 115.0 ] } },
{ "type": "Feature", "properties": { "value": 2.6401 }, "geometry": { "type": "Point", "coordinates": [ 129.381729, 35.498466, 115.0 ] } },
{ "type": "Feature", "properties": { "value": 0.0677 }, "geometry": { "type": "Point", "coordinates": [ 129.345367, 35.499477, 115.0 ] } },
{ "type": "Feature", "properties": { "value": 0.2092 }, "geometry": { "type": "Point", "coordinates": [ 129.346466, 35.499474, 115.0 ] } },
{ "type": "Feature", "properties": { "value": 0.4344 }, "geometry": { "type": "Point", "coordinates": [ 129.347565, 35.49947, 115.0 ] } },
{ "type": "Feature", "properties": { "value": 0.7664 }, "geometry": { "type": "Point", "coordinates": [ 129.348663, 35.499466, 115.0 ] } },
{ "type": "Feature", "properties": { "value": 1.2309 }, "geometry": { "type": "Point", "coordinates": [ 129.349777, 35.499466, 115.0 ] } },
{ "type": "Feature", "properties": { "value": 1.8027 }, "geometry": { "type": "Point", "coordinates": [ 129.350876, 35.499462, 115.0 ] } },
{ "type": "Feature", "properties": { "value": 2.4557 }, "geometry": { "type": "Point", "coordinates": [ 129.351974, 35.499458, 115.0 ] } },
{ "type": "Feature", "properties": { "value": 3.1356 }, "geometry": { "type": "Point", "coordinates": [ 129.353073, 35.499454, 115.0 ] } },
{ "type": "Feature", "properties": { "value": 3.7844 }, "geometry": { "type": "Point", "coordinates": [ 129.354187, 35.499451, 115.0 ] } },
{ "type": "Feature", "properties": { "value": 4.356 }, "geometry": { "type": "Point", "coordinates": [ 129.355286, 35.499447, 115.0 ] } },
{ "type": "Feature", "properties": { "value": 4.8193 }, "geometry": { "type": "Point", "coordinates": [ 129.356384, 35.499447, 115.0 ] } },
{ "type": "Feature", "properties": { "value": 5.1701 }, "geometry": { "type": "Point", "coordinates": [ 129.357483, 35.499443, 115.0 ] } },
{ "type": "Feature", "properties": { "value": 5.4039 }, "geometry": { "type": "Point", "coordinates": [ 129.358582, 35.499439, 115.0 ] } },
{ "type": "Feature", "properties": { "value": 5.5368 }, "geometry": { "type": "Point", "coordinates": [ 129.359695, 35.499435, 115.0 ] } },
{ "type": "Feature", "properties": { "value": 5.5824 }, "geometry": { "type": "Point", "coordinates": [ 129.360794, 35.499432, 115.0 ] } },
{ "type": "Feature", "properties": { "value": 5.5589 }, "geometry": { "type": "Point", "coordinates": [ 129.361893, 35.499428, 115.0 ] } },
{ "type": "Feature", "properties": { "value": 5.4923 }, "geometry": { "type": "Point", "coordinates": [ 129.362991, 35.499424, 115.0 ] } },
{ "type": "Feature", "properties": { "value": 5.4066 }, "geometry": { "type": "Point", "coordinates": [ 129.364105, 35.499424, 115.0 ] } },
{ "type": "Feature", "properties": { "value": 5.3074 }, "geometry": { "type": "Point", "coordinates": [ 129.365204, 35.49942, 115.0 ] } },
{ "type": "Feature", "properties": { "value": 5.2137 }, "geometry": { "type": "Point", "coordinates": [ 129.366302, 35.499416, 115.0 ] } },
{ "type": "Feature", "properties": { "value": 5.1265 }, "geometry": { "type": "Point", "coordinates": [ 129.367401, 35.499413, 115.0 ] } },
{ "type": "Feature", "properties": { "value": 5.0526 }, "geometry": { "type": "Point", "coordinates": [ 129.368515, 35.499409, 115.0 ] } },
{ "type": "Feature", "properties": { "value": 4.9965 }, "geometry": { "type": "Point", "coordinates": [ 129.369614, 35.499405, 115.0 ] } },
{ "type": "Feature", "properties": { "value": 4.9499 }, "geometry": { "type": "Point", "coordinates": [ 129.370712, 35.499401, 115.0 ] } },
{ "type": "Feature", "properties": { "value": 4.9092 }, "geometry": { "type": "Point", "coordinates": [ 129.371811, 35.499397, 115.0 ] } },
{ "type": "Feature", "properties": { "value": 4.8634 }, "geometry": { "type": "Point", "coordinates": [ 129.37291, 35.499393, 115.0 ] } },
{ "type": "Feature", "properties": { "value": 4.7948 }, "geometry": { "type": "Point", "coordinates": [ 129.374023, 35.499393, 115.0 ] } },
{ "type": "Feature", "properties": { "value": 4.6872 }, "geometry": { "type": "Point", "coordinates": [ 129.375122, 35.49939, 115.0 ] } },
{ "type": "Feature", "properties": { "value": 4.5174 }, "geometry": { "type": "Point", "coordinates": [ 129.376221, 35.499386, 115.0 ] } },
{ "type": "Feature", "properties": { "value": 4.2704 }, "geometry": { "type": "Point", "coordinates": [ 129.377319, 35.499382, 115.0 ] } },
{ "type": "Feature", "properties": { "value": 3.9395 }, "geometry": { "type": "Point", "coordinates": [ 129.378433, 35.499378, 115.0 ] } },
{ "type": "Feature", "properties": { "value": 3.5254 }, "geometry": { "type": "Point", "coordinates": [ 129.379532, 35.499374, 115.0 ] } },
{ "type": "Feature", "properties": { "value": 3.0462 }, "geometry": { "type": "Point", "coordinates": [ 129.38063, 35.499371, 115.0 ] } },
{ "type": "Feature", "properties": { "value": 2.5276 }, "geometry": { "type": "Point", "coordinates": [ 129.381729, 35.499367, 115.0 ] } },
{ "type": "Feature", "properties": { "value": 0.1395 }, "geometry": { "type": "Point", "coordinates": [ 129.347565, 35.500374, 115.0 ] } },
{ "type": "Feature", "properties": { "value": 0.2979 }, "geometry": { "type": "Point", "coordinates": [ 129.348679, 35.50037, 115.0 ] } },
{ "type": "Feature", "properties": { "value": 0.5381 }, "geometry": { "type": "Point", "coordinates": [ 129.349777, 35.500366, 115.0 ] } },
{ "type": "Feature", "properties": { "value": 0.8711 }, "geometry": { "type": "Point", "coordinates": [ 129.350876, 35.500362, 115.0 ] } },
{ "type": "Feature", "properties": { "value": 1.2829 }, "geometry": { "type": "Point", "coordinates": [ 129.351974, 35.500359, 115.0 ] } },
{ "type": "Feature", "properties": { "value": 1.7637 }, "geometry": { "type": "Point", "coordinates": [ 129.353088, 35.500355, 115.0 ] } },
{ "type": "Feature", "properties": { "value": 2.2832 }, "geometry": { "type": "Point", "coordinates": [ 129.354187, 35.500355, 115.0 ] } },
{ "type": "Feature", "properties": { "value": 2.8021 }, "geometry": { "type": "Point", "coordinates": [ 129.355286, 35.500351, 115.0 ] } },
{ "type": "Feature", "properties": { "value": 3.287 }, "geometry": { "type": "Point", "coordinates": [ 129.356384, 35.500347, 115.0 ] } },
{ "type": "Feature", "properties": { "value": 3.7187 }, "geometry": { "type": "Point", "coordinates": [ 129.357483, 35.500343, 115.0 ] } },
{ "type": "Feature", "properties": { "value": 4.0775 }, "geometry": { "type": "Point", "coordinates": [ 129.358597, 35.50034, 115.0 ] } },
{ "type": "Feature", "properties": { "value": 4.3574 }, "geometry": { "type": "Point", "coordinates": [ 129.359695, 35.500336, 115.0 ] } },
{ "type": "Feature", "properties": { "value": 4.5608 }, "geometry": { "type": "Point", "coordinates": [ 129.360794, 35.500332, 115.0 ] } },
{ "type": "Feature", "properties": { "value": 4.6891 }, "geometry": { "type": "Point", "coordinates": [ 129.361893, 35.500332, 115.0 ] } },
{ "type": "Feature", "properties": { "value": 4.7654 }, "geometry": { "type": "Point", "coordinates": [ 129.363007, 35.500328, 115.0 ] } },
{ "type": "Feature", "properties": { "value": 4.7978 }, "geometry": { "type": "Point", "coordinates": [ 129.364105, 35.500324, 115.0 ] } },
{ "type": "Feature", "properties": { "value": 4.8033 }, "geometry": { "type": "Point", "coordinates": [ 129.365204, 35.50032, 115.0 ] } },
{ "type": "Feature", "properties": { "value": 4.785 }, "geometry": { "type": "Point", "coordinates": [ 129.366302, 35.500317, 115.0 ] } },
{ "type": "Feature", "properties": { "value": 4.7582 }, "geometry": { "type": "Point", "coordinates": [ 129.367416, 35.500313, 115.0 ] } },
{ "type": "Feature", "properties": { "value": 4.7233 }, "geometry": { "type": "Point", "coordinates": [ 129.368515, 35.500309, 115.0 ] } },
{ "type": "Feature", "properties": { "value": 4.686 }, "geometry": { "type": "Point", "coordinates": [ 129.369614, 35.500305, 115.0 ] } },
{ "type": "Feature", "properties": { "value": 4.6485 }, "geometry": { "type": "Point", "coordinates": [ 129.370712, 35.500301, 115.0 ] } },
{ "type": "Feature", "properties": { "value": 4.6003 }, "geometry": { "type": "Point", "coordinates": [ 129.371811, 35.500301, 115.0 ] } },
{ "type": "Feature", "properties": { "value": 4.539 }, "geometry": { "type": "Point", "coordinates": [ 129.372925, 35.500298, 115.0 ] } },
{ "type": "Feature", "properties": { "value": 4.4512 }, "geometry": { "type": "Point", "coordinates": [ 129.374023, 35.500294, 115.0 ] } },
{ "type": "Feature", "properties": { "value": 4.3222 }, "geometry": { "type": "Point", "coordinates": [ 129.375122, 35.50029, 115.0 ] } },
{ "type": "Feature", "properties": { "value": 4.1352 }, "geometry": { "type": "Point", "coordinates": [ 129.376221, 35.500286, 115.0 ] } },
{ "type": "Feature", "properties": { "value": 3.8799 }, "geometry": { "type": "Point", "coordinates": [ 129.377335, 35.500282, 115.0 ] } },
{ "type": "Feature", "properties": { "value": 3.5529 }, "geometry": { "type": "Point", "coordinates": [ 129.378433, 35.500278, 115.0 ] } },
{ "type": "Feature", "properties": { "value": 3.1562 }, "geometry": { "type": "Point", "coordinates": [ 129.379532, 35.500275, 115.0 ] } },
{ "type": "Feature", "properties": { "value": 2.7106 }, "geometry": { "type": "Point", "coordinates": [ 129.38063, 35.500271, 115.0 ] } },
{ "type": "Feature", "properties": { "value": 2.2362 }, "geometry": { "type": "Point", "coordinates": [ 129.381744, 35.500267, 115.0 ] } },
{ "type": "Feature", "properties": { "value": 0.078 }, "geometry": { "type": "Point", "coordinates": [ 129.348679, 35.50127, 115.0 ] } },
{ "type": "Feature", "properties": { "value": 0.1941 }, "geometry": { "type": "Point", "coordinates": [ 129.349777, 35.501266, 115.0 ] } },
{ "type": "Feature", "properties": { "value": 0.3566 }, "geometry": { "type": "Point", "coordinates": [ 129.350876, 35.501263, 115.0 ] } },
{ "type": "Feature", "properties": { "value": 0.5843 }, "geometry": { "type": "Point", "coordinates": [ 129.35199, 35.501259, 115.0 ] } },
{ "type": "Feature", "properties": { "value": 0.8693 }, "geometry": { "type": "Point", "coordinates": [ 129.353088, 35.501259, 115.0 ] } },
{ "type": "Feature", "properties": { "value": 1.205 }, "geometry": { "type": "Point", "coordinates": [ 129.354187, 35.501255, 115.0 ] } },
{ "type": "Feature", "properties": { "value": 1.5835 }, "geometry": { "type": "Point", "coordinates": [ 129.355286, 35.501251, 115.0 ] } },
{ "type": "Feature", "properties": { "value": 1.9733 }, "geometry": { "type": "Point", "coordinates": [ 129.3564, 35.501247, 115.0 ] } },
{ "type": "Feature", "properties": { "value": 2.3529 }, "geometry": { "type": "Point", "coordinates": [ 129.357498, 35.501244, 115.0 ] } },
{ "type": "Feature", "properties": { "value": 2.714 }, "geometry": { "type": "Point", "coordinates": [ 129.358597, 35.50124, 115.0 ] } },
{ "type": "Feature", "properties": { "value": 3.0331 }, "geometry": { "type": "Point", "coordinates": [ 129.359695, 35.50124, 115.0 ] } },
{ "type": "Feature", "properties": { "value": 3.2976 }, "geometry": { "type": "Point", "coordinates": [ 129.360794, 35.501236, 115.0 ] } },
{ "type": "Feature", "properties": { "value": 3.5016 }, "geometry": { "type": "Point", "coordinates": [ 129.361908, 35.501232, 115.0 ] } },
{ "type": "Feature", "properties": { "value": 3.6629 }, "geometry": { "type": "Point", "coordinates": [ 129.363007, 35.501228, 115.0 ] } },
{ "type": "Feature", "properties": { "value": 3.7812 }, "geometry": { "type": "Point", "coordinates": [ 129.364105, 35.501225, 115.0 ] } },
{ "type": "Feature", "properties": { "value": 3.8659 }, "geometry": { "type": "Point", "coordinates": [ 129.365204, 35.501221, 115.0 ] } },
{ "type": "Feature", "properties": { "value": 3.9221 }, "geometry": { "type": "Point", "coordinates": [ 129.366318, 35.501217, 115.0 ] } },
{ "type": "Feature", "properties": { "value": 3.9514 }, "geometry": { "type": "Point", "coordinates": [ 129.367416, 35.501213, 115.0 ] } },
{ "type": "Feature", "properties": { "value": 3.9625 }, "geometry": { "type": "Point", "coordinates": [ 129.368515, 35.501213, 115.0 ] } },
{ "type": "Feature", "properties": { "value": 3.9598 }, "geometry": { "type": "Point", "coordinates": [ 129.369614, 35.501209, 115.0 ] } },
{ "type": "Feature", "properties": { "value": 3.9433 }, "geometry": { "type": "Point", "coordinates": [ 129.370728, 35.501205, 115.0 ] } },
{ "type": "Feature", "properties": { "value": 3.9088 }, "geometry": { "type": "Point", "coordinates": [ 129.371826, 35.501202, 115.0 ] } },
{ "type": "Feature", "properties": { "value": 3.8529 }, "geometry": { "type": "Point", "coordinates": [ 129.372925, 35.501198, 115.0 ] } },
{ "type": "Feature", "properties": { "value": 3.7679 }, "geometry": { "type": "Point", "coordinates": [ 129.374023, 35.501194, 115.0 ] } },
{ "type": "Feature", "properties": { "value": 3.6428 }, "geometry": { "type": "Point", "coordinates": [ 129.375122, 35.50119, 115.0 ] } },
{ "type": "Feature", "properties": { "value": 3.4689 }, "geometry": { "type": "Point", "coordinates": [ 129.376236, 35.501186, 115.0 ] } },
{ "type": "Feature", "properties": { "value": 3.2369 }, "geometry": { "type": "Point", "coordinates": [ 129.377335, 35.501183, 115.0 ] } },
{ "type": "Feature", "properties": { "value": 2.9475 }, "geometry": { "type": "Point", "coordinates": [ 129.378433, 35.501179, 115.0 ] } },
{ "type": "Feature", "properties": { "value": 2.6048 }, "geometry": { "type": "Point", "coordinates": [ 129.379532, 35.501179, 115.0 ] } },
{ "type": "Feature", "properties": { "value": 2.2247 }, "geometry": { "type": "Point", "coordinates": [ 129.380646, 35.501175, 115.0 ] } },
{ "type": "Feature", "properties": { "value": 1.8265 }, "geometry": { "type": "Point", "coordinates": [ 129.381744, 35.501171, 115.0 ] } }
]
}
