{
"type": "FeatureCollection",
"features": [
{ "type": "Feature", "properties": { "value": 0.0 }, "geometry": { "type": "Point", "coordinates": [ 129.325363, 35.458973, 225.0 ] } },
{ "type": "Feature", "properties": { "value": 0.0 }, "geometry": { "type": "Point", "coordinates": [ 129.326462, 35.458973, 225.0 ] } },
{ "type": "Feature", "properties": { "value": 0.0 }, "geometry": { "type": "Point", "coordinates": [ 129.32756, 35.458969, 225.0 ] } },
{ "type": "Feature", "properties": { "value": 0.0014 }, "geometry": { "type": "Point", "coordinates": [ 129.325363, 35.459877, 225.0 ] } },
{ "type": "Feature", "properties": { "value": 0.0037 }, "geometry": { "type": "Point", "coordinates": [ 129.326462, 35.459873, 225.0 ] } },
{ "type": "Feature", "properties": { "value": 0.0025 }, "geometry": { "type": "Point", "coordinates": [ 129.32756, 35.459869, 225.0 ] } },
{ "type": "Feature", "properties": { "value": 0.0004 }, "geometry": { "type": "Point", "coordinates": [ 129.328674, 35.459866, 225.0 ] } },
{ "type": "Feature", "properties": { "value": 0.0031 }, "geometry": { "type": "Point", "coordinates": [ 129.324265, 35.460781, 225.0 ] } },
{ "type": "Feature", "properties": { "value": 0.0277 }, "geometry": { "type": "Point", "coordinates": [ 129.325363, 35.460777, 225.0 ] } },
{ "type": "Feature", "properties": { "value": 0.0669 }, "geometry": { "type": "Point", "coordinates": [ 129.326477, 35.460773, 225.0 ] } },
{ "type": "Feature", "properties": { "value": 0.0426 }, "geometry": { "type": "Point", "coordinates": [ 129.327576, 35.46077, 225.0 ] } },
{ "type": "Feature", "properties": { "value": 0.012 }, "geometry": { "type": "Point", "coordinates": [ 129.328674, 35.46077, 225.0 ] } },
{ "type": "Feature", "properties": { "value": 0.0362 }, "geometry": { "type": "Point", "coordinates": [ 129.324265, 35.461681, 225.0 ] } },
{ "type": "Feature", "properties": { "value": 0.16 }, "geometry": { "type": "Point", "coordinates": [ 129.325378, 35.461678, 225.0 ] } },
{ "type": "Feature", "properties": { "value": 0.3491 }, "geometry": { "type": "Point", "coordinates": [ 129.326477, 35.461674, 225.0 ] } },
{ "type": "Feature", "properties": { "value": 0.2193 }, "geometry": { "type": "Point", "coordinates": [ 129.327576, 35.461674, 225.0 ] } },
{ "type": "Feature", "properties": { "value": 0.0814 }, "geometry": { "type": "Point", "coordinates": [ 129.328674, 35.46167, 225.0 ] } },
{ "type": "Feature", "properties": { "value": 0.01 }, "geometry": { "type": "Point", "coordinates": [ 129.329773, 35.461666, 225.0 ] } },
{ "type": "Feature", "properties": { "value": 0.0242 }, "geometry": { "type": "Point", "coordinates": [ 129.323166, 35.462585, 225.0 ] } },
{ "type": "Feature", "properties": { "value": 0.139 }, "geometry": { "type": "Point", "coordinates": [ 129.32428, 35.462582, 225.0 ] } },
{ "type": "Feature", "properties": { "value": 0.4744 }, "geometry": { "type": "Point", "coordinates": [ 129.325378, 35.462578, 225.0 ] } },
{ "type": "Feature", "properties": { "value": 0.8765 }, "geometry": { "type": "Point", "coordinates": [ 129.326477, 35.462578, 225.0 ] } },
{ "type": "Feature", "properties": { "value": 0.5846 }, "geometry": { "type": "Point", "coordinates": [ 129.327576, 35.462574, 225.0 ] } },
{ "type": "Feature", "properties": { "value": 0.2557 }, "geometry": { "type": "Point", "coordinates": [ 129.328674, 35.46257, 225.0 ] } },
{ "type": "Feature", "properties": { "value": 0.0504 }, "geometry": { "type": "Point", "coordinates": [ 129.329788, 35.462566, 225.0 ] } },
{ "type": "Feature", "properties": { "value": 0.0975 }, "geometry": { "type": "Point", "coordinates": [ 129.323181, 35.463486, 225.0 ] } },
{ "type": "Feature", "properties": { "value": 0.3734 }, "geometry": { "type": "Point", "coordinates": [ 129.32428, 35.463486, 225.0 ] } },
{ "type": "Feature", "properties": { "value": 0.9826 }, "geometry": { "type": "Point", "coordinates": [ 129.325378, 35.463482, 225.0 ] } },
{ "type": "Feature", "properties": { "value": 1.4824 }, "geometry": { "type": "Point", "coordinates": [ 129.326477, 35.463478, 225.0 ] } },
{ "type": "Feature", "properties": { "value": 1.1092 }, "geometry": { "type": "Point", "coordinates": [ 129.327576, 35.463474, 225.0 ] } },
{ "type": "Feature", "properties": { "value": 0.5177 }, "geometry": { "type": "Point", "coordinates": [ 129.32869, 35.46347, 225.0 ] } },
{ "type": "Feature", "properties": { "value": 0.1377 }, "geometry": { "type": "Point", "coordinates": [ 129.329788, 35.46347, 225.0 ] } },
{ "type": "Feature", "properties": { "value": 0.0074 }, "geometry": { "type": "Point", "coordinates": [ 129.330887, 35.463467, 225.0 ] } },
{ "type": "Feature", "properties": { "value": 0.0491 }, "geometry": { "type": "Point", "coordinates": [ 129.322083, 35.46439, 225.0 ] } },
{ "type": "Feature", "properties": { "value": 0.2402 }, "geometry": { "type": "Point", "coordinates": [ 129.323181, 35.46439, 225.0 ] } },
{ "type": "Feature", "properties": { "value": 0.7565 }, "geometry": { "type": "Point", "coordinates": [ 129.32428, 35.464386, 225.0 ] } },
{ "type": "Feature", "properties": { "value": 1.6117 }, "geometry": { "type": "Point", "coordinates": [ 129.325378, 35.464382, 225.0 ] } },
{ "type": "Feature", "properties": { "value": 2.1311 }, "geometry": { "type": "Point", "coordinates": [ 129.326477, 35.464378, 225.0 ] } },
{ "type": "Feature", "properties": { "value": 1.7081 }, "geometry": { "type": "Point", "coordinates": [ 129.327591, 35.464375, 225.0 ] } },
{ "type": "Feature", "properties": { "value": 0.8493 }, "geometry": { "type": "Point", "coordinates": [ 129.32869, 35.464375, 225.0 ] } },
{ "type": "Feature", "properties": { "value": 0.2774 }, "geometry": { "type": "Point", "coordinates": [ 129.329788, 35.464371, 225.0 ] } },
{ "type": "Feature", "properties": { "value": 0.053 }, "geometry": { "type": "Point", "coordinates": [ 129.330887, 35.464367, 225.0 ] } },
{ "type": "Feature", "properties": { "value": 0.1285 }, "geometry": { "type": "Point", "coordinates": [ 129.322083, 35.465294, 225.0 ] } },
{ "type": "Feature", "properties": { "value": 0.4575 }, "geometry": { "type": "Point", "coordinates": [ 129.323181, 35.46529, 225.0 ] } },
{ "type": "Feature", "properties": { "value": 1.2124 }, "geometry": { "type": "Point", "coordinates": [ 129.32428, 35.465286, 225.0 ] } },
{ "type": "Feature", "properties": { "value": 2.2742 }, "geometry": { "type": "Point", "coordinates": [ 129.325394, 35.465282, 225.0 ] } },
{ "type": "Feature", "properties": { "value": 2.8351 }, "geometry": { "type": "Point", "coordinates": [ 129.326492, 35.465279, 225.0 ] } },
{ "type": "Feature", "properties": { "value": 2.2987 }, "geometry": { "type": "Point", "coordinates": [ 129.327591, 35.465279, 225.0 ] } },
{ "type": "Feature", "properties": { "value": 1.2476 }, "geometry": { "type": "Point", "coordinates": [ 129.32869, 35.465275, 225.0 ] } },
{ "type": "Feature", "properties": { "value": 0.4594 }, "geometry": { "type": "Point", "coordinates": [ 129.329788, 35.465271, 225.0 ] } },
{ "type": "Feature", "properties": { "value": 0.1162 }, "geometry": { "type": "Point", "coordinates": [ 129.330887, 35.465267, 225.0 ] } },
{ "type": "Feature", "properties": { "value": 0.0568 }, "geometry": { "type": "Point", "coordinates": [ 129.320984, 35.466198, 225.0 ] } },
{ "type": "Feature", "properties": { "value": 0.2442 }, "geometry": { "type": "Point", "coordinates": [ 129.322083, 35.466194, 225.0 ] } },
{ "type": "Feature", "properties": { "value": 0.725 }, "geometry": { "type": "Point", "coordinates": [ 129.323181, 35.46619, 225.0 ] } },
{ "type": "Feature", "properties": { "value": 1.6683 }, "geometry": { "type": "Point", "coordinates": [ 129.324295, 35.466187, 225.0 ] } },
{ "type": "Feature", "properties": { "value": 2.8285 }, "geometry": { "type": "Point", "coordinates": [ 129.325394, 35.466187, 225.0 ] } },
{ "type": "Feature", "properties": { "value": 3.3849 }, "geometry": { "type": "Point", "coordinates": [ 129.326492, 35.466183, 225.0 ] } },
{ "type": "Feature", "properties": { "value": 2.7653 }, "geometry": { "type": "Point", "coordinates": [ 129.327591, 35.466179, 225.0 ] } },
{ "type": "Feature", "properties": { "value": 1.6114 }, "geometry": { "type": "Point", "coordinates": [ 129.32869, 35.466175, 225.0 ] } },
{ "type": "Feature", "properties": { "value": 0.6661 }, "geometry": { "type": "Point", "coordinates": [ 129.329803, 35.466171, 225.0 ] } },
{ "type": "Feature", "properties": { "value": 0.2013 }, "geometry": { "type": "Point", "coordinates": [ 129.330902, 35.466171, 225.0 ] } },
{ "type": "Feature", "properties": { "value": 0.0261 }, "geometry": { "type": "Point", "coordinates": [ 129.332001, 35.466167, 225.0 ] } },
{ "type": "Feature", "properties": { "value": 0.1198 }, "geometry": { "type": "Point", "coordinates": [ 129.320984, 35.467098, 225.0 ] } },
{ "type": "Feature", "properties": { "value": 0.3955 }, "geometry": { "type": "Point", "coordinates": [ 129.322083, 35.467094, 225.0 ] } },
{ "type": "Feature", "properties": { "value": 1.0166 }, "geometry": { "type": "Point", "coordinates": [ 129.323196, 35.467091, 225.0 ] } },
{ "type": "Feature", "properties": { "value": 2.0678 }, "geometry": { "type": "Point", "coordinates": [ 129.324295, 35.467091, 225.0 ] } },
{ "type": "Feature", "properties": { "value": 3.2037 }, "geometry": { "type": "Point", "coordinates": [ 129.325394, 35.467087, 225.0 ] } },
{ "type": "Feature", "properties": { "value": 3.6816 }, "geometry": { "type": "Point", "coordinates": [ 129.326492, 35.467083, 225.0 ] } },
{ "type": "Feature", "properties": { "value": 3.0481 }, "geometry": { "type": "Point", "coordinates": [ 129.327591, 35.467079, 225.0 ] } },
{ "type": "Feature", "properties": { "value": 1.8794 }, "geometry": { "type": "Point", "coordinates": [ 129.328705, 35.467075, 225.0 ] } },
{ "type": "Feature", "properties": { "value": 0.8577 }, "geometry": { "type": "Point", "coordinates": [ 129.329803, 35.467075, 225.0 ] } },
{ "type": "Feature", "properties": { "value": 0.2935 }, "geometry": { "type": "Point", "coordinates": [ 129.330902, 35.467072, 225.0 ] } },
{ "type": "Feature", "properties": { "value": 0.0696 }, "geometry": { "type": "Point", "coordinates": [ 129.332001, 35.467068, 225.0 ] } },
{ "type": "Feature", "properties": { "value": 0.0488 }, "geometry": { "type": "Point", "coordinates": [ 129.319885, 35.468002, 225.0 ] } },
{ "type": "Feature", "properties": { "value": 0.2014 }, "geometry": { "type": "Point", "coordinates": [ 129.320984, 35.467999, 225.0 ] } },
{ "type": "Feature", "properties": { "value": 0.5602 }, "geometry": { "type": "Point", "coordinates": [ 129.322098, 35.467995, 225.0 ] } },
{ "type": "Feature", "properties": { "value": 1.2793 }, "geometry": { "type": "Point", "coordinates": [ 129.323196, 35.467995, 225.0 ] } },
{ "type": "Feature", "properties": { "value": 2.3587 }, "geometry": { "type": "Point", "coordinates": [ 129.324295, 35.467991, 225.0 ] } },
{ "type": "Feature", "properties": { "value": 3.3772 }, "geometry": { "type": "Point", "coordinates": [ 129.325394, 35.467987, 225.0 ] } },
{ "type": "Feature", "properties": { "value": 3.7556 }, "geometry": { "type": "Point", "coordinates": [ 129.326492, 35.467983, 225.0 ] } },
{ "type": "Feature", "properties": { "value": 3.1741 }, "geometry": { "type": "Point", "coordinates": [ 129.327606, 35.467983, 225.0 ] } },
{ "type": "Feature", "properties": { "value": 2.0454 }, "geometry": { "type": "Point", "coordinates": [ 129.328705, 35.467979, 225.0 ] } },
{ "type": "Feature", "properties": { "value": 1.0155 }, "geometry": { "type": "Point", "coordinates": [ 129.329803, 35.467976, 225.0 ] } },
{ "type": "Feature", "properties": { "value": 0.3952 }, "geometry": { "type": "Point", "coordinates": [ 129.330902, 35.467972, 225.0 ] } },
{ "type": "Feature", "properties": { "value": 0.1209 }, "geometry": { "type": "Point", "coordinates": [ 129.332001, 35.467968, 225.0 ] } },
{ "type": "Feature", "properties": { "value": 0.0022 }, "geometry": { "type": "Point", "coordinates": [ 129.318787, 35.468906, 225.0 ] } },
{ "type": "Feature", "properties": { "value": 0.0969 }, "geometry": { "type": "Point", "coordinates": [ 129.319885, 35.468903, 225.0 ] } },
{ "type": "Feature", "properties": { "value": 0.2861 }, "geometry": { "type": "Point", "coordinates": [ 129.320999, 35.468899, 225.0 ] } },
{ "type": "Feature", "properties": { "value": 0.7146 }, "geometry": { "type": "Point", "coordinates": [ 129.322098, 35.468899, 225.0 ] } },
{ "type": "Feature", "properties": { "value": 1.483 }, "geometry": { "type": "Point", "coordinates": [ 129.323196, 35.468895, 225.0 ] } },
{ "type": "Feature", "properties": { "value": 2.5279 }, "geometry": { "type": "Point", "coordinates": [ 129.324295, 35.468891, 225.0 ] } },
{ "type": "Feature", "properties": { "value": 3.4428 }, "geometry": { "type": "Point", "coordinates": [ 129.325394, 35.468887, 225.0 ] } },
{ "type": "Feature", "properties": { "value": 3.7289 }, "geometry": { "type": "Point", "coordinates": [ 129.326508, 35.468887, 225.0 ] } },
{ "type": "Feature", "properties": { "value": 3.1728 }, "geometry": { "type": "Point", "coordinates": [ 129.327606, 35.468884, 225.0 ] } },
{ "type": "Feature", "properties": { "value": 2.1243 }, "geometry": { "type": "Point", "coordinates": [ 129.328705, 35.46888, 225.0 ] } },
{ "type": "Feature", "properties": { "value": 1.1269 }, "geometry": { "type": "Point", "coordinates": [ 129.329803, 35.468876, 225.0 ] } },
{ "type": "Feature", "properties": { "value": 0.4812 }, "geometry": { "type": "Point", "coordinates": [ 129.330902, 35.468872, 225.0 ] } },
{ "type": "Feature", "properties": { "value": 0.1666 }, "geometry": { "type": "Point", "coordinates": [ 129.332016, 35.468872, 225.0 ] } },
{ "type": "Feature", "properties": { "value": 0.0318 }, "geometry": { "type": "Point", "coordinates": [ 129.333115, 35.468868, 225.0 ] } },
{ "type": "Feature", "properties": { "value": 0.037 }, "geometry": { "type": "Point", "coordinates": [ 129.318787, 35.469807, 225.0 ] } },
{ "type": "Feature", "properties": { "value": 0.1379 }, "geometry": { "type": "Point", "coordinates": [ 129.319901, 35.469803, 225.0 ] } },
{ "type": "Feature", "properties": { "value": 0.374 }, "geometry": { "type": "Point", "coordinates": [ 129.320999, 35.469803, 225.0 ] } },
{ "type": "Feature", "properties": { "value": 0.8438 }, "geometry": { "type": "Point", "coordinates": [ 129.322098, 35.469799, 225.0 ] } },
{ "type": "Feature", "properties": { "value": 1.6182 }, "geometry": { "type": "Point", "coordinates": [ 129.323196, 35.469795, 225.0 ] } },
{ "type": "Feature", "properties": { "value": 2.587 }, "geometry": { "type": "Point", "coordinates": [ 129.324295, 35.469791, 225.0 ] } },
{ "type": "Feature", "properties": { "value": 3.3792 }, "geometry": { "type": "Point", "coordinates": [ 129.325409, 35.469791, 225.0 ] } },
{ "type": "Feature", "properties": { "value": 3.5891 }, "geometry": { "type": "Point", "coordinates": [ 129.326508, 35.469788, 225.0 ] } },
{ "type": "Feature", "properties": { "value": 3.076 }, "geometry": { "type": "Point", "coordinates": [ 129.327606, 35.469784, 225.0 ] } },
{ "type": "Feature", "properties": { "value": 2.127 }, "geometry": { "type": "Point", "coordinates": [ 129.328705, 35.46978, 225.0 ] } },
{ "type": "Feature", "properties": { "value": 1.1915 }, "geometry": { "type": "Point", "coordinates": [ 129.329819, 35.469776, 225.0 ] } },
{ "type": "Feature", "properties": { "value": 0.5484 }, "geometry": { "type": "Point", "coordinates": [ 129.330917, 35.469776, 225.0 ] } },
{ "type": "Feature", "properties": { "value": 0.209 }, "geometry": { "type": "Point", "coordinates": [ 129.332016, 35.469772, 225.0 ] } },
{ "type": "Feature", "properties": { "value": 0.0627 }, "geometry": { "type": "Point", "coordinates": [ 129.333115, 35.469769, 225.0 ] } },
{ "type": "Feature", "properties": { "value": 0.01 }, "geometry": { "type": "Point", "coordinates": [ 129.317688, 35.470711, 225.0 ] } },
{ "type": "Feature", "properties": { "value": 0.062 }, "geometry": { "type": "Point", "coordinates": [ 129.318802, 35.470707, 225.0 ] } },
{ "type": "Feature", "properties": { "value": 0.1833 }, "geometry": { "type": "Point", "coordinates": [ 129.319901, 35.470707, 225.0 ] } },
{ "type": "Feature", "properties": { "value": 0.4461 }, "geometry": { "type": "Point", "coordinates": [ 129.320999, 35.470703, 225.0 ] } },
{ "type": "Feature", "properties": { "value": 0.9352 }, "geometry": { "type": "Point", "coordinates": [ 129.322098, 35.470699, 225.0 ] } },
{ "type": "Feature", "properties": { "value": 1.6808 }, "geometry": { "type": "Point", "coordinates": [ 129.323212, 35.470695, 225.0 ] } },
{ "type": "Feature", "properties": { "value": 2.5506 }, "geometry": { "type": "Point", "coordinates": [ 129.32431, 35.470695, 225.0 ] } },
{ "type": "Feature", "properties": { "value": 3.2205 }, "geometry": { "type": "Point", "coordinates": [ 129.325409, 35.470692, 225.0 ] } },
{ "type": "Feature", "properties": { "value": 3.3689 }, "geometry": { "type": "Point", "coordinates": [ 129.326508, 35.470688, 225.0 ] } },
{ "type": "Feature", "properties": { "value": 2.9041 }, "geometry": { "type": "Point", "coordinates": [ 129.327606, 35.470684, 225.0 ] } },
{ "type": "Feature", "properties": { "value": 2.0577 }, "geometry": { "type": "Point", "coordinates": [ 129.32872, 35.470684, 225.0 ] } },
{ "type": "Feature", "properties": { "value": 1.209 }, "geometry": { "type": "Point", "coordinates": [ 129.329819, 35.47068, 225.0 ] } },
{ "type": "Feature", "properties": { "value": 0.5939 }, "geometry": { "type": "Point", "coordinates": [ 129.330917, 35.470676, 225.0 ] } },
{ "type": "Feature", "properties": { "value": 0.2457 }, "geometry": { "type": "Point", "coordinates": [ 129.332016, 35.470673, 225.0 ] } },
{ "type": "Feature", "properties": { "value": 0.086 }, "geometry": { "type": "Point", "coordinates": [ 129.333115, 35.470669, 225.0 ] } },
{ "type": "Feature", "properties": { "value": 0.0129 }, "geometry": { "type": "Point", "coordinates": [ 129.334229, 35.470669, 225.0 ] } },
{ "type": "Feature", "properties": { "value": 0.019 }, "geometry": { "type": "Point", "coordinates": [ 129.317703, 35.471615, 225.0 ] } },
{ "type": "Feature", "properties": { "value": 0.0828 }, "geometry": { "type": "Point", "coordinates": [ 129.318802, 35.471611, 225.0 ] } },
{ "type": "Feature", "properties": { "value": 0.2174 }, "geometry": { "type": "Point", "coordinates": [ 129.319901, 35.471607, 225.0 ] } },
{ "type": "Feature", "properties": { "value": 0.4954 }, "geometry": { "type": "Point", "coordinates": [ 129.320999, 35.471603, 225.0 ] } },
{ "type": "Feature", "properties": { "value": 0.9761 }, "geometry": { "type": "Point", "coordinates": [ 129.322113, 35.4716, 225.0 ] } },
{ "type": "Feature", "properties": { "value": 1.6627 }, "geometry": { "type": "Point", "coordinates": [ 129.323212, 35.4716, 225.0 ] } },
{ "type": "Feature", "properties": { "value": 2.4168 }, "geometry": { "type": "Point", "coordinates": [ 129.32431, 35.471596, 225.0 ] } },
{ "type": "Feature", "properties": { "value": 2.9716 }, "geometry": { "type": "Point", "coordinates": [ 129.325409, 35.471592, 225.0 ] } },
{ "type": "Feature", "properties": { "value": 3.0739 }, "geometry": { "type": "Point", "coordinates": [ 129.326508, 35.471588, 225.0 ] } },
{ "type": "Feature", "properties": { "value": 2.6624 }, "geometry": { "type": "Point", "coordinates": [ 129.327621, 35.471588, 225.0 ] } },
{ "type": "Feature", "properties": { "value": 1.9291 }, "geometry": { "type": "Point", "coordinates": [ 129.32872, 35.471584, 225.0 ] } },
{ "type": "Feature", "properties": { "value": 1.1799 }, "geometry": { "type": "Point", "coordinates": [ 129.329819, 35.471581, 225.0 ] } },
{ "type": "Feature", "properties": { "value": 0.6132 }, "geometry": { "type": "Point", "coordinates": [ 129.330917, 35.471577, 225.0 ] } },
{ "type": "Feature", "properties": { "value": 0.2708 }, "geometry": { "type": "Point", "coordinates": [ 129.332016, 35.471573, 225.0 ] } },
{ "type": "Feature", "properties": { "value": 0.1018 }, "geometry": { "type": "Point", "coordinates": [ 129.33313, 35.471573, 225.0 ] } },
{ "type": "Feature", "properties": { "value": 0.0233 }, "geometry": { "type": "Point", "coordinates": [ 129.334229, 35.471569, 225.0 ] } },
{ "type": "Feature", "properties": { "value": 0.0051 }, "geometry": { "type": "Point", "coordinates": [ 129.316605, 35.472519, 225.0 ] } },
{ "type": "Feature", "properties": { "value": 0.0297 }, "geometry": { "type": "Point", "coordinates": [ 129.317703, 35.472515, 225.0 ] } },
{ "type": "Feature", "properties": { "value": 0.0955 }, "geometry": { "type": "Point", "coordinates": [ 129.318802, 35.472511, 225.0 ] } },
{ "type": "Feature", "properties": { "value": 0.2377 }, "geometry": { "type": "Point", "coordinates": [ 129.319901, 35.472507, 225.0 ] } },
{ "type": "Feature", "properties": { "value": 0.5124 }, "geometry": { "type": "Point", "coordinates": [ 129.321014, 35.472507, 225.0 ] } },
{ "type": "Feature", "properties": { "value": 0.9593 }, "geometry": { "type": "Point", "coordinates": [ 129.322113, 35.472504, 225.0 ] } },
{ "type": "Feature", "properties": { "value": 1.5629 }, "geometry": { "type": "Point", "coordinates": [ 129.323212, 35.4725, 225.0 ] } },
{ "type": "Feature", "properties": { "value": 2.1955 }, "geometry": { "type": "Point", "coordinates": [ 129.32431, 35.472496, 225.0 ] } },
{ "type": "Feature", "properties": { "value": 2.6372 }, "geometry": { "type": "Point", "coordinates": [ 129.325409, 35.472492, 225.0 ] } },
{ "type": "Feature", "properties": { "value": 2.7073 }, "geometry": { "type": "Point", "coordinates": [ 129.326523, 35.472492, 225.0 ] } },
{ "type": "Feature", "properties": { "value": 2.354 }, "geometry": { "type": "Point", "coordinates": [ 129.327621, 35.472488, 225.0 ] } },
{ "type": "Feature", "properties": { "value": 1.7433 }, "geometry": { "type": "Point", "coordinates": [ 129.32872, 35.472485, 225.0 ] } },
{ "type": "Feature", "properties": { "value": 1.1004 }, "geometry": { "type": "Point", "coordinates": [ 129.329819, 35.472481, 225.0 ] } },
{ "type": "Feature", "properties": { "value": 0.596 }, "geometry": { "type": "Point", "coordinates": [ 129.330917, 35.472477, 225.0 ] } },
{ "type": "Feature", "properties": { "value": 0.2795 }, "geometry": { "type": "Point", "coordinates": [ 129.332031, 35.472477, 225.0 ] } },
{ "type": "Feature", "properties": { "value": 0.1114 }, "geometry": { "type": "Point", "coordinates": [ 129.33313, 35.472473, 225.0 ] } },
{ "type": "Feature", "properties": { "value": 0.0344 }, "geometry": { "type": "Point", "coordinates": [ 129.334229, 35.472469, 225.0 ] } },
{ "type": "Feature", "properties": { "value": 0.0061 }, "geometry": { "type": "Point", "coordinates": [ 129.335327, 35.472466, 225.0 ] } },
{ "type": "Feature", "properties": { "value": 0.008 }, "geometry": { "type": "Point", "coordinates": [ 129.316605, 35.473419, 225.0 ] } },
{ "type": "Feature", "properties": { "value": 0.0369 }, "geometry": { "type": "Point", "coordinates": [ 129.317703, 35.473415, 225.0 ] } },
{ "type": "Feature", "properties": { "value": 0.1057 }, "geometry": { "type": "Point", "coordinates": [ 129.318802, 35.473412, 225.0 ] } },
{ "type": "Feature", "properties": { "value": 0.2412 }, "geometry": { "type": "Point", "coordinates": [ 129.319916, 35.473412, 225.0 ] } },
{ "type": "Feature", "properties": { "value": 0.494 }, "geometry": { "type": "Point", "coordinates": [ 129.321014, 35.473408, 225.0 ] } },
{ "type": "Feature", "properties": { "value": 0.8833 }, "geometry": { "type": "Point", "coordinates": [ 129.322113, 35.473404, 225.0 ] } },
{ "type": "Feature", "properties": { "value": 1.3818 }, "geometry": { "type": "Point", "coordinates": [ 129.323212, 35.4734, 225.0 ] } },
{ "type": "Feature", "properties": { "value": 1.8888 }, "geometry": { "type": "Point", "coordinates": [ 129.32431, 35.473396, 225.0 ] } },
{ "type": "Feature", "properties": { "value": 2.2301 }, "geometry": { "type": "Point", "coordinates": [ 129.325424, 35.473396, 225.0 ] } },
{ "type": "Feature", "properties": { "value": 2.2711 }, "geometry": { "type": "Point", "coordinates": [ 129.326523, 35.473392, 225.0 ] } },
{ "type": "Feature", "properties": { "value": 1.9899 }, "geometry": { "type": "Point", "coordinates": [ 129.327621, 35.473389, 225.0 ] } },
{ "type": "Feature", "properties": { "value": 1.5017 }, "geometry": { "type": "Point", "coordinates": [ 129.32872, 35.473385, 225.0 ] } },
{ "type": "Feature", "properties": { "value": 0.9765 }, "geometry": { "type": "Point", "coordinates": [ 129.329819, 35.473385, 225.0 ] } },
{ "type": "Feature", "properties": { "value": 0.5501 }, "geometry": { "type": "Point", "coordinates": [ 129.330933, 35.473381, 225.0 ] } },
{ "type": "Feature", "properties": { "value": 0.2701 }, "geometry": { "type": "Point", "coordinates": [ 129.332031, 35.473377, 225.0 ] } },
{ "type": "Feature", "properties": { "value": 0.1132 }, "geometry": { "type": "Point", "coordinates": [ 129.33313, 35.473373, 225.0 ] } },
{ "type": "Feature", "properties": { "value": 0.0401 }, "geometry": { "type": "Point", "coordinates": [ 129.334229, 35.47337, 225.0 ] } },
{ "type": "Feature", "properties": { "value": 0.0076 }, "geometry": { "type": "Point", "coordinates": [ 129.335342, 35.47337, 225.0 ] } },
{ "type": "Feature", "properties": { "value": 0.0126 }, "geometry": { "type": "Point", "coordinates": [ 129.316605, 35.474319, 225.0 ] } },
{ "type": "Feature", "properties": { "value": 0.04 }, "geometry": { "type": "Point", "coordinates": [ 129.317703, 35.474316, 225.0 ] } },
{ "type": "Feature", "properties": { "value": 0.1027 }, "geometry": { "type": "Point", "coordinates": [ 129.318817, 35.474316, 225.0 ] } },
{ "type": "Feature", "properties": { "value": 0.2243 }, "geometry": { "type": "Point", "coordinates": [ 129.319916, 35.474312, 225.0 ] } },
{ "type": "Feature", "properties": { "value": 0.4407 }, "geometry": { "type": "Point", "coordinates": [ 129.321014, 35.474308, 225.0 ] } },
{ "type": "Feature", "properties": { "value": 0.7585 }, "geometry": { "type": "Point", "coordinates": [ 129.322113, 35.474304, 225.0 ] } },
{ "type": "Feature", "properties": { "value": 1.1495 }, "geometry": { "type": "Point", "coordinates": [ 129.323212, 35.4743, 225.0 ] } },
{ "type": "Feature", "properties": { "value": 1.5337 }, "geometry": { "type": "Point", "coordinates": [ 129.324326, 35.4743, 225.0 ] } },
{ "type": "Feature", "properties": { "value": 1.7838 }, "geometry": { "type": "Point", "coordinates": [ 129.325424, 35.474297, 225.0 ] } },
{ "type": "Feature", "properties": { "value": 1.8066 }, "geometry": { "type": "Point", "coordinates": [ 129.326523, 35.474293, 225.0 ] } },
{ "type": "Feature", "properties": { "value": 1.5911 }, "geometry": { "type": "Point", "coordinates": [ 129.327621, 35.474289, 225.0 ] } },
{ "type": "Feature", "properties": { "value": 1.2197 }, "geometry": { "type": "Point", "coordinates": [ 129.328735, 35.474289, 225.0 ] } },
{ "type": "Feature", "properties": { "value": 0.8141 }, "geometry": { "type": "Point", "coordinates": [ 129.329834, 35.474285, 225.0 ] } },
{ "type": "Feature", "properties": { "value": 0.4754 }, "geometry": { "type": "Point", "coordinates": [ 129.330933, 35.474281, 225.0 ] } },
{ "type": "Feature", "properties": { "value": 0.244 }, "geometry": { "type": "Point", "coordinates": [ 129.332031, 35.474277, 225.0 ] } },
{ "type": "Feature", "properties": { "value": 0.1075 }, "geometry": { "type": "Point", "coordinates": [ 129.33313, 35.474274, 225.0 ] } },
{ "type": "Feature", "properties": { "value": 0.04 }, "geometry": { "type": "Point", "coordinates": [ 129.334244, 35.474274, 225.0 ] } },
{ "type": "Feature", "properties": { "value": 0.0117 }, "geometry": { "type": "Point", "coordinates": [ 129.335342, 35.47427, 225.0 ] } },
{ "type": "Feature", "properties": { "value": 0.0131 }, "geometry": { "type": "Point", "coordinates": [ 129.316605, 35.47522, 225.0 ] } },
{ "type": "Feature", "properties": { "value": 0.0361 }, "geometry": { "type": "Point", "coordinates": [ 129.317719, 35.47522, 225.0 ] } },
{ "type": "Feature", "properties": { "value": 0.0908 }, "geometry": { "type": "Point", "coordinates": [ 129.318817, 35.475216, 225.0 ] } },
{ "type": "Feature", "properties": { "value": 0.1918 }, "geometry": { "type": "Point", "coordinates": [ 129.319916, 35.475212, 225.0 ] } },
{ "type": "Feature", "properties": { "value": 0.3651 }, "geometry": { "type": "Point", "coordinates": [ 129.321014, 35.475208, 225.0 ] } },
{ "type": "Feature", "properties": { "value": 0.607 }, "geometry": { "type": "Point", "coordinates": [ 129.322113, 35.475208, 225.0 ] } },
{ "type": "Feature", "properties": { "value": 0.9015 }, "geometry": { "type": "Point", "coordinates": [ 129.323227, 35.475204, 225.0 ] } },
{ "type": "Feature", "properties": { "value": 1.1803 }, "geometry": { "type": "Point", "coordinates": [ 129.324326, 35.475201, 225.0 ] } },
{ "type": "Feature", "properties": { "value": 1.3567 }, "geometry": { "type": "Point", "coordinates": [ 129.325424, 35.475197, 225.0 ] } },
{ "type": "Feature", "properties": { "value": 1.3689 }, "geometry": { "type": "Point", "coordinates": [ 129.326523, 35.475193, 225.0 ] } },
{ "type": "Feature", "properties": { "value": 1.2112 }, "geometry": { "type": "Point", "coordinates": [ 129.327637, 35.475193, 225.0 ] } },
{ "type": "Feature", "properties": { "value": 0.9376 }, "geometry": { "type": "Point", "coordinates": [ 129.328735, 35.475189, 225.0 ] } },
{ "type": "Feature", "properties": { "value": 0.6404 }, "geometry": { "type": "Point", "coordinates": [ 129.329834, 35.475185, 225.0 ] } },
{ "type": "Feature", "properties": { "value": 0.384 }, "geometry": { "type": "Point", "coordinates": [ 129.330933, 35.475182, 225.0 ] } },
{ "type": "Feature", "properties": { "value": 0.2035 }, "geometry": { "type": "Point", "coordinates": [ 129.332031, 35.475178, 225.0 ] } },
{ "type": "Feature", "properties": { "value": 0.0927 }, "geometry": { "type": "Point", "coordinates": [ 129.333145, 35.475178, 225.0 ] } },
{ "type": "Feature", "properties": { "value": 0.0353 }, "geometry": { "type": "Point", "coordinates": [ 129.334244, 35.475174, 225.0 ] } },
{ "type": "Feature", "properties": { "value": 0.0123 }, "geometry": { "type": "Point", "coordinates": [ 129.335342, 35.47517, 225.0 ] } },
{ "type": "Feature", "properties": { "value": 0.0096 }, "geometry": { "type": "Point", "coordinates": [ 129.31662, 35.476124, 225.0 ] } },
{ "type": "Feature", "properties": { "value": 0.0312 }, "geometry": { "type": "Point", "coordinates": [ 129.317719, 35.47612, 225.0 ] } },
{ "type": "Feature", "properties": { "value": 0.0725 }, "geometry": { "type": "Point", "coordinates": [ 129.318817, 35.476116, 225.0 ] } },
{ "type": "Feature", "properties": { "value": 0.1505 }, "geometry": { "type": "Point", "coordinates": [ 129.319916, 35.476112, 225.0 ] } },
{ "type": "Feature", "properties": { "value": 0.2811 }, "geometry": { "type": "Point", "coordinates": [ 129.32103, 35.476112, 225.0 ] } },
{ "type": "Feature", "properties": { "value": 0.4572 }, "geometry": { "type": "Point", "coordinates": [ 129.322128, 35.476109, 225.0 ] } },
{ "type": "Feature", "properties": { "value": 0.6666 }, "geometry": { "type": "Point", "coordinates": [ 129.323227, 35.476105, 225.0 ] } },
{ "type": "Feature", "properties": { "value": 0.8577 }, "geometry": { "type": "Point", "coordinates": [ 129.324326, 35.476101, 225.0 ] } },
{ "type": "Feature", "properties": { "value": 0.9797 }, "geometry": { "type": "Point", "coordinates": [ 129.325424, 35.476097, 225.0 ] } },
{ "type": "Feature", "properties": { "value": 0.9851 }, "geometry": { "type": "Point", "coordinates": [ 129.326538, 35.476097, 225.0 ] } },
{ "type": "Feature", "properties": { "value": 0.8712 }, "geometry": { "type": "Point", "coordinates": [ 129.327637, 35.476093, 225.0 ] } },
{ "type": "Feature", "properties": { "value": 0.6828 }, "geometry": { "type": "Point", "coordinates": [ 129.328735, 35.476089, 225.0 ] } },
{ "type": "Feature", "properties": { "value": 0.4734 }, "geometry": { "type": "Point", "coordinates": [ 129.329834, 35.476086, 225.0 ] } },
{ "type": "Feature", "properties": { "value": 0.2896 }, "geometry": { "type": "Point", "coordinates": [ 129.330933, 35.476086, 225.0 ] } },
{ "type": "Feature", "properties": { "value": 0.1572 }, "geometry": { "type": "Point", "coordinates": [ 129.332047, 35.476082, 225.0 ] } },
{ "type": "Feature", "properties": { "value": 0.0732 }, "geometry": { "type": "Point", "coordinates": [ 129.333145, 35.476078, 225.0 ] } },
{ "type": "Feature", "properties": { "value": 0.0309 }, "geometry": { "type": "Point", "coordinates": [ 129.334244, 35.476074, 225.0 ] } },
{ "type": "Feature", "properties": { "value": 0.0091 }, "geometry": { "type": "Point", "coordinates": [ 129.335342, 35.47607, 225.0 ] } },
{ "type": "Feature", "properties": { "value": 0.0079 }, "geometry": { "type": "Point", "coordinates": [ 129.31662, 35.477024, 225.0 ] } },
{ "type": "Feature", "properties": { "value": 0.0223 }, "geometry": { "type": "Point", "coordinates": [ 129.317719, 35.47702, 225.0 ] } },
{ "type": "Feature", "properties": { "value": 0.0527 }, "geometry": { "type": "Point", "coordinates": [ 129.318817, 35.477016, 225.0 ] } },
{ "type": "Feature", "properties": { "value": 0.1085 }, "geometry": { "type": "Point", "coordinates": [ 129.319931, 35.477016, 225.0 ] } },
{ "type": "Feature", "properties": { "value": 0.198 }, "geometry": { "type": "Point", "coordinates": [ 129.32103, 35.477013, 225.0 ] } },
{ "type": "Feature", "properties": { "value": 0.321 }, "geometry": { "type": "Point", "coordinates": [ 129.322128, 35.477009, 225.0 ] } },
{ "type": "Feature", "properties": { "value": 0.4619 }, "geometry": { "type": "Point", "coordinates": [ 129.323227, 35.477005, 225.0 ] } },
{ "type": "Feature", "properties": { "value": 0.5879 }, "geometry": { "type": "Point", "coordinates": [ 129.324326, 35.477005, 225.0 ] } },
{ "type": "Feature", "properties": { "value": 0.6648 }, "geometry": { "type": "Point", "coordinates": [ 129.325439, 35.477001, 225.0 ] } },
{ "type": "Feature", "properties": { "value": 0.6668 }, "geometry": { "type": "Point", "coordinates": [ 129.326538, 35.476997, 225.0 ] } },
{ "type": "Feature", "properties": { "value": 0.593 }, "geometry": { "type": "Point", "coordinates": [ 129.327637, 35.476994, 225.0 ] } },
{ "type": "Feature", "properties": { "value": 0.468 }, "geometry": { "type": "Point", "coordinates": [ 129.328735, 35.47699, 225.0 ] } },
{ "type": "Feature", "properties": { "value": 0.3254 }, "geometry": { "type": "Point", "coordinates": [ 129.329834, 35.47699, 225.0 ] } },
{ "type": "Feature", "properties": { "value": 0.2034 }, "geometry": { "type": "Point", "coordinates": [ 129.330948, 35.476986, 225.0 ] } },
{ "type": "Feature", "properties": { "value": 0.112 }, "geometry": { "type": "Point", "coordinates": [ 129.332047, 35.476982, 225.0 ] } },
{ "type": "Feature", "properties": { "value": 0.0522 }, "geometry": { "type": "Point", "coordinates": [ 129.333145, 35.476978, 225.0 ] } },
{ "type": "Feature", "properties": { "value": 0.0217 }, "geometry": { "type": "Point", "coordinates": [ 129.334244, 35.476974, 225.0 ] } },
{ "type": "Feature", "properties": { "value": 0.0075 }, "geometry": { "type": "Point", "coordinates": [ 129.335342, 35.476974, 225.0 ] } },
{ "type": "Feature", "properties": { "value": 0.0043 }, "geometry": { "type": "Point", "coordinates": [ 129.31662, 35.477924, 225.0 ] } },
{ "type": "Feature", "properties": { "value": 0.016 }, "geometry": { "type": "Point", "coordinates": [ 129.317719, 35.477921, 225.0 ] } },
{ "type": "Feature", "properties": { "value": 0.0368 }, "geometry": { "type": "Point", "coordinates": [ 129.318832, 35.477921, 225.0 ] } },
{ "type": "Feature", "properties": { "value": 0.0715 }, "geometry": { "type": "Point", "coordinates": [ 129.319931, 35.477917, 225.0 ] } },
{ "type": "Feature", "properties": { "value": 0.13 }, "geometry": { "type": "Point", "coordinates": [ 129.32103, 35.477913, 225.0 ] } },
{ "type": "Feature", "properties": { "value": 0.2088 }, "geometry": { "type": "Point", "coordinates": [ 129.322128, 35.477909, 225.0 ] } },
{ "type": "Feature", "properties": { "value": 0.2978 }, "geometry": { "type": "Point", "coordinates": [ 129.323227, 35.477909, 225.0 ] } },
{ "type": "Feature", "properties": { "value": 0.3758 }, "geometry": { "type": "Point", "coordinates": [ 129.324341, 35.477905, 225.0 ] } },
{ "type": "Feature", "properties": { "value": 0.4226 }, "geometry": { "type": "Point", "coordinates": [ 129.325439, 35.477901, 225.0 ] } },
{ "type": "Feature", "properties": { "value": 0.423 }, "geometry": { "type": "Point", "coordinates": [ 129.326538, 35.477898, 225.0 ] } },
{ "type": "Feature", "properties": { "value": 0.3768 }, "geometry": { "type": "Point", "coordinates": [ 129.327637, 35.477894, 225.0 ] } },
{ "type": "Feature", "properties": { "value": 0.299 }, "geometry": { "type": "Point", "coordinates": [ 129.328735, 35.477894, 225.0 ] } },
{ "type": "Feature", "properties": { "value": 0.2094 }, "geometry": { "type": "Point", "coordinates": [ 129.329849, 35.47789, 225.0 ] } },
{ "type": "Feature", "properties": { "value": 0.1324 }, "geometry": { "type": "Point", "coordinates": [ 129.330948, 35.477886, 225.0 ] } },
{ "type": "Feature", "properties": { "value": 0.0736 }, "geometry": { "type": "Point", "coordinates": [ 129.332047, 35.477882, 225.0 ] } },
{ "type": "Feature", "properties": { "value": 0.0362 }, "geometry": { "type": "Point", "coordinates": [ 129.333145, 35.477879, 225.0 ] } },
{ "type": "Feature", "properties": { "value": 0.0155 }, "geometry": { "type": "Point", "coordinates": [ 129.334259, 35.477879, 225.0 ] } },
{ "type": "Feature", "properties": { "value": 0.004 }, "geometry": { "type": "Point", "coordinates": [ 129.335358, 35.477875, 225.0 ] } },
{ "type": "Feature", "properties": { "value": 0.0013 }, "geometry": { "type": "Point", "coordinates": [ 129.31662, 35.478825, 225.0 ] } },
{ "type": "Feature", "properties": { "value": 0.0091 }, "geometry": { "type": "Point", "coordinates": [ 129.317734, 35.478825, 225.0 ] } },
{ "type": "Feature", "properties": { "value": 0.0221 }, "geometry": { "type": "Point", "coordinates": [ 129.318832, 35.478821, 225.0 ] } },
{ "type": "Feature", "properties": { "value": 0.0451 }, "geometry": { "type": "Point", "coordinates": [ 129.319931, 35.478817, 225.0 ] } },
{ "type": "Feature", "properties": { "value": 0.0781 }, "geometry": { "type": "Point", "coordinates": [ 129.32103, 35.478813, 225.0 ] } },
{ "type": "Feature", "properties": { "value": 0.1252 }, "geometry": { "type": "Point", "coordinates": [ 129.322128, 35.478813, 225.0 ] } },
{ "type": "Feature", "properties": { "value": 0.1751 }, "geometry": { "type": "Point", "coordinates": [ 129.323242, 35.478809, 225.0 ] } },
{ "type": "Feature", "properties": { "value": 0.2227 }, "geometry": { "type": "Point", "coordinates": [ 129.324341, 35.478806, 225.0 ] } },
{ "type": "Feature", "properties": { "value": 0.2493 }, "geometry": { "type": "Point", "coordinates": [ 129.325439, 35.478802, 225.0 ] } },
{ "type": "Feature", "properties": { "value": 0.2492 }, "geometry": { "type": "Point", "coordinates": [ 129.326538, 35.478798, 225.0 ] } },
{ "type": "Feature", "properties": { "value": 0.2224 }, "geometry": { "type": "Point", "coordinates": [ 129.327637, 35.478798, 225.0 ] } },
{ "type": "Feature", "properties": { "value": 0.1772 }, "geometry": { "type": "Point", "coordinates": [ 129.328751, 35.478794, 225.0 ] } },
{ "type": "Feature", "properties": { "value": 0.1245 }, "geometry": { "type": "Point", "coordinates": [ 129.329849, 35.47879, 225.0 ] } },
{ "type": "Feature", "properties": { "value": 0.0771 }, "geometry": { "type": "Point", "coordinates": [ 129.330948, 35.478786, 225.0 ] } },
{ "type": "Feature", "properties": { "value": 0.0443 }, "geometry": { "type": "Point", "coordinates": [ 129.332047, 35.478786, 225.0 ] } },
{ "type": "Feature", "properties": { "value": 0.0215 }, "geometry": { "type": "Point", "coordinates": [ 129.33316, 35.478783, 225.0 ] } },
{ "type": "Feature", "properties": { "value": 0.0087 }, "geometry": { "type": "Point", "coordinates": [ 129.334259, 35.478779, 225.0 ] } },
{ "type": "Feature", "properties": { "value": 0.0012 }, "geometry": { "type": "Point", "coordinates": [ 129.335358, 35.478775, 225.0 ] } },
{ "type": "Feature", "properties": { "value": 0.0042 }, "geometry": { "type": "Point", "coordinates": [ 129.317734, 35.479725, 225.0 ] } },
{ "type": "Feature", "properties": { "value": 0.0115 }, "geometry": { "type": "Point", "coordinates": [ 129.318832, 35.479721, 225.0 ] } },
{ "type": "Feature", "properties": { "value": 0.0247 }, "geometry": { "type": "Point", "coordinates": [ 129.319931, 35.479717, 225.0 ] } },
{ "type": "Feature", "properties": { "value": 0.0423 }, "geometry": { "type": "Point", "coordinates": [ 129.32103, 35.479717, 225.0 ] } },
{ "type": "Feature", "properties": { "value": 0.0689 }, "geometry": { "type": "Point", "coordinates": [ 129.322144, 35.479713, 225.0 ] } },
{ "type": "Feature", "properties": { "value": 0.0956 }, "geometry": { "type": "Point", "coordinates": [ 129.323242, 35.47971, 225.0 ] } },
{ "type": "Feature", "properties": { "value": 0.1218 }, "geometry": { "type": "Point", "coordinates": [ 129.324341, 35.479706, 225.0 ] } },
{ "type": "Feature", "properties": { "value": 0.1359 }, "geometry": { "type": "Point", "coordinates": [ 129.325439, 35.479706, 225.0 ] } },
{ "type": "Feature", "properties": { "value": 0.1357 }, "geometry": { "type": "Point", "coordinates": [ 129.326553, 35.479702, 225.0 ] } },
{ "type": "Feature", "properties": { "value": 0.1213 }, "geometry": { "type": "Point", "coordinates": [ 129.327652, 35.479698, 225.0 ] } },
{ "type": "Feature", "properties": { "value": 0.0948 }, "geometry": { "type": "Point", "coordinates": [ 129.328751, 35.479694, 225.0 ] } },
{ "type": "Feature", "properties": { "value": 0.068 }, "geometry": { "type": "Point", "coordinates": [ 129.329849, 35.479691, 225.0 ] } },
{ "type": "Feature", "properties": { "value": 0.0438 }, "geometry": { "type": "Point", "coordinates": [ 129.330948, 35.479691, 225.0 ] } },
{ "type": "Feature", "properties": { "value": 0.024 }, "geometry": { "type": "Point", "coordinates": [ 129.332062, 35.479687, 225.0 ] } },
{ "type": "Feature", "properties": { "value": 0.011 }, "geometry": { "type": "Point", "coordinates": [ 129.33316, 35.479683, 225.0 ] } },
{ "type": "Feature", "properties": { "value": 0.0039 }, "geometry": { "type": "Point", "coordinates": [ 129.334259, 35.479679, 225.0 ] } },
{ "type": "Feature", "properties": { "value": 0.0011 }, "geometry": { "type": "Point", "coordinates": [ 129.317734, 35.480625, 225.0 ] } },
{ "type": "Feature", "properties": { "value": 0.0049 }, "geometry": { "type": "Point", "coordinates": [ 129.318832, 35.480621, 225.0 ] } },
{ "type": "Feature", "properties": { "value": 0.0118 }, "geometry": { "type": "Point", "coordinates": [ 129.319931, 35.480621, 225.0 ] } },
{ "type": "Feature", "properties": { "value": 0.0223 }, "geometry": { "type": "Point", "coordinates": [ 129.321045, 35.480618, 225.0 ] } },
{ "type": "Feature", "properties": { "value": 0.0342 }, "geometry": { "type": "Point", "coordinates": [ 129.322144, 35.480614, 225.0 ] } },
{ "type": "Feature", "properties": { "value": 0.0472 }, "geometry": { "type": "Point", "coordinates": [ 129.323242, 35.48061, 225.0 ] } },
{ "type": "Feature", "properties": { "value": 0.0612 }, "geometry": { "type": "Point", "coordinates": [ 129.324341, 35.48061, 225.0 ] } },
{ "type": "Feature", "properties": { "value": 0.0681 }, "geometry": { "type": "Point", "coordinates": [ 129.325455, 35.480606, 225.0 ] } },
{ "type": "Feature", "properties": { "value": 0.068 }, "geometry": { "type": "Point", "coordinates": [ 129.326553, 35.480602, 225.0 ] } },
{ "type": "Feature", "properties": { "value": 0.0608 }, "geometry": { "type": "Point", "coordinates": [ 129.327652, 35.480598, 225.0 ] } },
{ "type": "Feature", "properties": { "value": 0.0466 }, "geometry": { "type": "Point", "coordinates": [ 129.328751, 35.480595, 225.0 ] } },
{ "type": "Feature", "properties": { "value": 0.0336 }, "geometry": { "type": "Point", "coordinates": [ 129.329849, 35.480595, 225.0 ] } },
{ "type": "Feature", "properties": { "value": 0.0217 }, "geometry": { "type": "Point", "coordinates": [ 129.330963, 35.480591, 225.0 ] } },
{ "type": "Feature", "properties": { "value": 0.0113 }, "geometry": { "type": "Point", "coordinates": [ 129.332062, 35.480587, 225.0 ] } },
{ "type": "Feature", "properties": { "value": 0.0046 }, "geometry": { "type": "Point", "coordinates": [ 129.33316, 35.480583, 225.0 ] } },
{ "type": "Feature", "properties": { "value": 0.001 }, "geometry": { "type": "Point", "coordinates": [ 129.334259, 35.480579, 225.0 ] } },
{ "type": "Feature", "properties": { "value": 0.0012 }, "geometry": { "type": "Point", "coordinates": [ 129.318848, 35.481525, 225.0 ] } },
{ "type": "Feature", "properties": { "value": 0.0046 }, "geometry": { "type": "Point", "coordinates": [ 129.319946, 35.481522, 225.0 ] } },
{ "type": "Feature", "properties": { "value": 0.0098 }, "geometry": { "type": "Point", "coordinates": [ 129.321045, 35.481518, 225.0 ] } },
{ "type": "Feature", "properties": { "value": 0.0149 }, "geometry": { "type": "Point", "coordinates": [ 129.322144, 35.481514, 225.0 ] } },
{ "type": "Feature", "properties": { "value": 0.0225 }, "geometry": { "type": "Point", "coordinates": [ 129.323242, 35.481514, 225.0 ] } },
{ "type": "Feature", "properties": { "value": 0.0278 }, "geometry": { "type": "Point", "coordinates": [ 129.324356, 35.48151, 225.0 ] } },
{ "type": "Feature", "properties": { "value": 0.0309 }, "geometry": { "type": "Point", "coordinates": [ 129.325455, 35.481506, 225.0 ] } },
{ "type": "Feature", "properties": { "value": 0.0308 }, "geometry": { "type": "Point", "coordinates": [ 129.326553, 35.481503, 225.0 ] } },
{ "type": "Feature", "properties": { "value": 0.0276 }, "geometry": { "type": "Point", "coordinates": [ 129.327652, 35.481503, 225.0 ] } },
{ "type": "Feature", "properties": { "value": 0.0222 }, "geometry": { "type": "Point", "coordinates": [ 129.328751, 35.481499, 225.0 ] } },
{ "type": "Feature", "properties": { "value": 0.0145 }, "geometry": { "type": "Point", "coordinates": [ 129.329865, 35.481495, 225.0 ] } },
{ "type": "Feature", "properties": { "value": 0.0095 }, "geometry": { "type": "Point", "coordinates": [ 129.330963, 35.481491, 225.0 ] } },
{ "type": "Feature", "properties": { "value": 0.0044 }, "geometry": { "type": "Point", "coordinates": [ 129.332062, 35.481487, 225.0 ] } },
{ "type": "Feature", "properties": { "value": 0.0011 }, "geometry": { "type": "Point", "coordinates": [ 129.33316, 35.481487, 225.0 ] } },
{ "type": "Feature", "properties": { "value": 0.0011 }, "geometry": { "type": "Point", "coordinates": [ 129.319946, 35.482422, 225.0 ] } },
{ "type": "Feature", "properties": { "value": 0.0036 }, "geometry": { "type": "Point", "coordinates": [ 129.321045, 35.482418, 225.0 ] } },
{ "type": "Feature", "properties": { "value": 0.0054 }, "geometry": { "type": "Point", "coordinates": [ 129.322144, 35.482418, 225.0 ] } },
{ "type": "Feature", "properties": { "value": 0.0073 }, "geometry": { "type": "Point", "coordinates": [ 129.323257, 35.482414, 225.0 ] } },
{ "type": "Feature", "properties": { "value": 0.0111 }, "geometry": { "type": "Point", "coordinates": [ 129.324356, 35.48241, 225.0 ] } },
{ "type": "Feature", "properties": { "value": 0.0123 }, "geometry": { "type": "Point", "coordinates": [ 129.325455, 35.482407, 225.0 ] } },
{ "type": "Feature", "properties": { "value": 0.0123 }, "geometry": { "type": "Point", "coordinates": [ 129.326553, 35.482407, 225.0 ] } },
{ "type": "Feature", "properties": { "value": 0.011 }, "geometry": { "type": "Point", "coordinates": [ 129.327652, 35.482403, 225.0 ] } },
{ "type": "Feature", "properties": { "value": 0.0071 }, "geometry": { "type": "Point", "coordinates": [ 129.328766, 35.482399, 225.0 ] } },
{ "type": "Feature", "properties": { "value": 0.0052 }, "geometry": { "type": "Point", "coordinates": [ 129.329865, 35.482395, 225.0 ] } },
{ "type": "Feature", "properties": { "value": 0.0017 }, "geometry": { "type": "Point", "coordinates": [ 129.330963, 35.482391, 225.0 ] } },
{ "type": "Feature", "properties": { "value": 0.001 }, "geometry": { "type": "Point", "coordinates": [ 129.332062, 35.482391, 225.0 ] } },
{ "type": "Feature", "properties": { "value": 0.0012 }, "geometry": { "type": "Point", "coordinates": [ 129.322159, 35.483318, 225.0 ] } },
{ "type": "Feature", "properties": { "value": 0.0016 }, "geometry": { "type": "Point", "coordinates": [ 129.323257, 35.483315, 225.0 ] } },
{ "type": "Feature", "properties": { "value": 0.0037 }, "geometry": { "type": "Point", "coordinates": [ 129.324356, 35.483311, 225.0 ] } },
{ "type": "Feature", "properties": { "value": 0.0041 }, "geometry": { "type": "Point", "coordinates": [ 129.325455, 35.483311, 225.0 ] } },
{ "type": "Feature", "properties": { "value": 0.0041 }, "geometry": { "type": "Point", "coordinates": [ 129.326553, 35.483307, 225.0 ] } },
{ "type": "Feature", "properties": { "value": 0.0037 }, "geometry": { "type": "Point", "coordinates": [ 129.327667, 35.483303, 225.0 ] } },
{ "type": "Feature", "properties": { "value": 0.0015 }, "geometry": { "type": "Point", "coordinates": [ 129.328766, 35.483299, 225.0 ] } },
{ "type": "Feature", "properties": { "value": 0.0011 }, "geometry": { "type": "Point", "coordinates": [ 129.329865, 35.483295, 225.0 ] } },
{ "type": "Feature", "properties": { "value": 0.0008 }, "geometry": { "type": "Point", "coordinates": [ 129.325455, 35.484211, 225.0 ] } },
{ "type": "Feature", "properties": { "value": 0.0008 }, "geometry": { "type": "Point", "coordinates": [ 129.326569, 35.484207, 225.0 ] } }
]
}
