{
"type": "FeatureCollection",
"features": [
{ "type": "Feature", "properties": { "value": 10.413 }, "geometry": { "type": "Point", "coordinates": [ 129.32756, 35.458969, 10.0 ] } },
{ "type": "Feature", "properties": { "value": 81.244 }, "geometry": { "type": "Point", "coordinates": [ 129.32756, 35.459869, 10.0 ] } },
{ "type": "Feature", "properties": { "value": 53.023 }, "geometry": { "type": "Point", "coordinates": [ 129.327576, 35.46077, 10.0 ] } },
{ "type": "Feature", "properties": { "value": 47.057 }, "geometry": { "type": "Point", "coordinates": [ 129.327576, 35.461674, 10.0 ] } },
{ "type": "Feature", "properties": { "value": 58.252 }, "geometry": { "type": "Point", "coordinates": [ 129.327576, 35.462574, 10.0 ] } },
{ "type": "Feature", "properties": { "value": 60.945 }, "geometry": { "type": "Point", "coordinates": [ 129.327576, 35.463474, 10.0 ] } },
{ "type": "Feature", "properties": { "value": 0.7486 }, "geometry": { "type": "Point", "coordinates": [ 129.32869, 35.46347, 10.0 ] } },
{ "type": "Feature", "properties": { "value": 56.55 }, "geometry": { "type": "Point", "coordinates": [ 129.327591, 35.464375, 10.0 ] } },
{ "type": "Feature", "properties": { "value": 4.459 }, "geometry": { "type": "Point", "coordinates": [ 129.32869, 35.464375, 10.0 ] } },
{ "type": "Feature", "properties": { "value": 38.245 }, "geometry": { "type": "Point", "coordinates": [ 129.327591, 35.465279, 10.0 ] } },
{ "type": "Feature", "properties": { "value": 7.2818 }, "geometry": { "type": "Point", "coordinates": [ 129.32869, 35.465275, 10.0 ] } },
{ "type": "Feature", "properties": { "value": 25.188 }, "geometry": { "type": "Point", "coordinates": [ 129.327591, 35.466179, 10.0 ] } },
{ "type": "Feature", "properties": { "value": 7.6868 }, "geometry": { "type": "Point", "coordinates": [ 129.32869, 35.466175, 10.0 ] } },
{ "type": "Feature", "properties": { "value": 21.191 }, "geometry": { "type": "Point", "coordinates": [ 129.327591, 35.467079, 10.0 ] } },
{ "type": "Feature", "properties": { "value": 9.2935 }, "geometry": { "type": "Point", "coordinates": [ 129.328705, 35.467075, 10.0 ] } },
{ "type": "Feature", "properties": { "value": 20.011 }, "geometry": { "type": "Point", "coordinates": [ 129.327606, 35.467983, 10.0 ] } },
{ "type": "Feature", "properties": { "value": 11.343 }, "geometry": { "type": "Point", "coordinates": [ 129.328705, 35.467979, 10.0 ] } },
{ "type": "Feature", "properties": { "value": 22.038 }, "geometry": { "type": "Point", "coordinates": [ 129.327606, 35.468884, 10.0 ] } },
{ "type": "Feature", "properties": { "value": 14.39 }, "geometry": { "type": "Point", "coordinates": [ 129.328705, 35.46888, 10.0 ] } },
{ "type": "Feature", "properties": { "value": 0.6842 }, "geometry": { "type": "Point", "coordinates": [ 129.326508, 35.469788, 10.0 ] } },
{ "type": "Feature", "properties": { "value": 28.991 }, "geometry": { "type": "Point", "coordinates": [ 129.327606, 35.469784, 10.0 ] } },
{ "type": "Feature", "properties": { "value": 20.042 }, "geometry": { "type": "Point", "coordinates": [ 129.328705, 35.46978, 10.0 ] } },
{ "type": "Feature", "properties": { "value": 1.4179 }, "geometry": { "type": "Point", "coordinates": [ 129.326508, 35.470688, 10.0 ] } },
{ "type": "Feature", "properties": { "value": 38.964 }, "geometry": { "type": "Point", "coordinates": [ 129.327606, 35.470684, 10.0 ] } },
{ "type": "Feature", "properties": { "value": 32.086 }, "geometry": { "type": "Point", "coordinates": [ 129.32872, 35.470684, 10.0 ] } },
{ "type": "Feature", "properties": { "value": 0.8235 }, "geometry": { "type": "Point", "coordinates": [ 129.329819, 35.47068, 10.0 ] } },
{ "type": "Feature", "properties": { "value": 2.7218 }, "geometry": { "type": "Point", "coordinates": [ 129.326508, 35.471588, 10.0 ] } },
{ "type": "Feature", "properties": { "value": 57.243 }, "geometry": { "type": "Point", "coordinates": [ 129.327621, 35.471588, 10.0 ] } },
{ "type": "Feature", "properties": { "value": 60.81 }, "geometry": { "type": "Point", "coordinates": [ 129.32872, 35.471584, 10.0 ] } },
{ "type": "Feature", "properties": { "value": 2.5477 }, "geometry": { "type": "Point", "coordinates": [ 129.329819, 35.471581, 10.0 ] } },
{ "type": "Feature", "properties": { "value": 5.2326 }, "geometry": { "type": "Point", "coordinates": [ 129.326523, 35.472492, 10.0 ] } },
{ "type": "Feature", "properties": { "value": 86.5 }, "geometry": { "type": "Point", "coordinates": [ 129.327621, 35.472488, 10.0 ] } },
{ "type": "Feature", "properties": { "value": 95.034 }, "geometry": { "type": "Point", "coordinates": [ 129.32872, 35.472485, 10.0 ] } },
{ "type": "Feature", "properties": { "value": 4.7775 }, "geometry": { "type": "Point", "coordinates": [ 129.329819, 35.472481, 10.0 ] } },
{ "type": "Feature", "properties": { "value": 9.7372 }, "geometry": { "type": "Point", "coordinates": [ 129.326523, 35.473392, 10.0 ] } },
{ "type": "Feature", "properties": { "value": 104.33 }, "geometry": { "type": "Point", "coordinates": [ 129.327621, 35.473389, 10.0 ] } },
{ "type": "Feature", "properties": { "value": 102.83 }, "geometry": { "type": "Point", "coordinates": [ 129.32872, 35.473385, 10.0 ] } },
{ "type": "Feature", "properties": { "value": 7.2964 }, "geometry": { "type": "Point", "coordinates": [ 129.329819, 35.473385, 10.0 ] } },
{ "type": "Feature", "properties": { "value": 14.571 }, "geometry": { "type": "Point", "coordinates": [ 129.326523, 35.474293, 10.0 ] } },
{ "type": "Feature", "properties": { "value": 109.58 }, "geometry": { "type": "Point", "coordinates": [ 129.327621, 35.474289, 10.0 ] } },
{ "type": "Feature", "properties": { "value": 96.018 }, "geometry": { "type": "Point", "coordinates": [ 129.328735, 35.474289, 10.0 ] } },
{ "type": "Feature", "properties": { "value": 8.7903 }, "geometry": { "type": "Point", "coordinates": [ 129.329834, 35.474285, 10.0 ] } },
{ "type": "Feature", "properties": { "value": 19.354 }, "geometry": { "type": "Point", "coordinates": [ 129.326523, 35.475193, 10.0 ] } },
{ "type": "Feature", "properties": { "value": 113.73 }, "geometry": { "type": "Point", "coordinates": [ 129.327637, 35.475193, 10.0 ] } },
{ "type": "Feature", "properties": { "value": 90.146 }, "geometry": { "type": "Point", "coordinates": [ 129.328735, 35.475189, 10.0 ] } },
{ "type": "Feature", "properties": { "value": 8.4641 }, "geometry": { "type": "Point", "coordinates": [ 129.329834, 35.475185, 10.0 ] } },
{ "type": "Feature", "properties": { "value": 24.261 }, "geometry": { "type": "Point", "coordinates": [ 129.326538, 35.476097, 10.0 ] } },
{ "type": "Feature", "properties": { "value": 105.14 }, "geometry": { "type": "Point", "coordinates": [ 129.327637, 35.476093, 10.0 ] } },
{ "type": "Feature", "properties": { "value": 76.708 }, "geometry": { "type": "Point", "coordinates": [ 129.328735, 35.476089, 10.0 ] } },
{ "type": "Feature", "properties": { "value": 7.7078 }, "geometry": { "type": "Point", "coordinates": [ 129.329834, 35.476086, 10.0 ] } },
{ "type": "Feature", "properties": { "value": 1.0859 }, "geometry": { "type": "Point", "coordinates": [ 129.325439, 35.477001, 10.0 ] } },
{ "type": "Feature", "properties": { "value": 27.988 }, "geometry": { "type": "Point", "coordinates": [ 129.326538, 35.476997, 10.0 ] } },
{ "type": "Feature", "properties": { "value": 87.046 }, "geometry": { "type": "Point", "coordinates": [ 129.327637, 35.476994, 10.0 ] } },
{ "type": "Feature", "properties": { "value": 58.227 }, "geometry": { "type": "Point", "coordinates": [ 129.328735, 35.47699, 10.0 ] } },
{ "type": "Feature", "properties": { "value": 6.6508 }, "geometry": { "type": "Point", "coordinates": [ 129.329834, 35.47699, 10.0 ] } },
{ "type": "Feature", "properties": { "value": 2.4248 }, "geometry": { "type": "Point", "coordinates": [ 129.325439, 35.477901, 10.0 ] } },
{ "type": "Feature", "properties": { "value": 29.692 }, "geometry": { "type": "Point", "coordinates": [ 129.326538, 35.477898, 10.0 ] } },
{ "type": "Feature", "properties": { "value": 71.525 }, "geometry": { "type": "Point", "coordinates": [ 129.327637, 35.477894, 10.0 ] } },
{ "type": "Feature", "properties": { "value": 43.789 }, "geometry": { "type": "Point", "coordinates": [ 129.328735, 35.477894, 10.0 ] } },
{ "type": "Feature", "properties": { "value": 5.6824 }, "geometry": { "type": "Point", "coordinates": [ 129.329849, 35.47789, 10.0 ] } },
{ "type": "Feature", "properties": { "value": 3.8362 }, "geometry": { "type": "Point", "coordinates": [ 129.325439, 35.478802, 10.0 ] } },
{ "type": "Feature", "properties": { "value": 32.051 }, "geometry": { "type": "Point", "coordinates": [ 129.326538, 35.478798, 10.0 ] } },
{ "type": "Feature", "properties": { "value": 66.545 }, "geometry": { "type": "Point", "coordinates": [ 129.327637, 35.478798, 10.0 ] } },
{ "type": "Feature", "properties": { "value": 36.603 }, "geometry": { "type": "Point", "coordinates": [ 129.328751, 35.478794, 10.0 ] } },
{ "type": "Feature", "properties": { "value": 4.8685 }, "geometry": { "type": "Point", "coordinates": [ 129.329849, 35.47879, 10.0 ] } },
{ "type": "Feature", "properties": { "value": 5.9414 }, "geometry": { "type": "Point", "coordinates": [ 129.325439, 35.479706, 10.0 ] } },
{ "type": "Feature", "properties": { "value": 40.196 }, "geometry": { "type": "Point", "coordinates": [ 129.326553, 35.479702, 10.0 ] } },
{ "type": "Feature", "properties": { "value": 75.317 }, "geometry": { "type": "Point", "coordinates": [ 129.327652, 35.479698, 10.0 ] } },
{ "type": "Feature", "properties": { "value": 35.608 }, "geometry": { "type": "Point", "coordinates": [ 129.328751, 35.479694, 10.0 ] } },
{ "type": "Feature", "properties": { "value": 4.2391 }, "geometry": { "type": "Point", "coordinates": [ 129.329849, 35.479691, 10.0 ] } },
{ "type": "Feature", "properties": { "value": 10.479 }, "geometry": { "type": "Point", "coordinates": [ 129.325455, 35.480606, 10.0 ] } },
{ "type": "Feature", "properties": { "value": 57.039 }, "geometry": { "type": "Point", "coordinates": [ 129.326553, 35.480602, 10.0 ] } },
{ "type": "Feature", "properties": { "value": 88.547 }, "geometry": { "type": "Point", "coordinates": [ 129.327652, 35.480598, 10.0 ] } },
{ "type": "Feature", "properties": { "value": 35.069 }, "geometry": { "type": "Point", "coordinates": [ 129.328751, 35.480595, 10.0 ] } },
{ "type": "Feature", "properties": { "value": 3.6386 }, "geometry": { "type": "Point", "coordinates": [ 129.329849, 35.480595, 10.0 ] } },
{ "type": "Feature", "properties": { "value": 1.1156 }, "geometry": { "type": "Point", "coordinates": [ 129.324356, 35.48151, 10.0 ] } },
{ "type": "Feature", "properties": { "value": 18.304 }, "geometry": { "type": "Point", "coordinates": [ 129.325455, 35.481506, 10.0 ] } },
{ "type": "Feature", "properties": { "value": 73.309 }, "geometry": { "type": "Point", "coordinates": [ 129.326553, 35.481503, 10.0 ] } },
{ "type": "Feature", "properties": { "value": 87.011 }, "geometry": { "type": "Point", "coordinates": [ 129.327652, 35.481503, 10.0 ] } },
{ "type": "Feature", "properties": { "value": 29.361 }, "geometry": { "type": "Point", "coordinates": [ 129.328751, 35.481499, 10.0 ] } },
{ "type": "Feature", "properties": { "value": 2.9183 }, "geometry": { "type": "Point", "coordinates": [ 129.329865, 35.481495, 10.0 ] } },
{ "type": "Feature", "properties": { "value": 2.8267 }, "geometry": { "type": "Point", "coordinates": [ 129.324356, 35.48241, 10.0 ] } },
{ "type": "Feature", "properties": { "value": 27.568 }, "geometry": { "type": "Point", "coordinates": [ 129.325455, 35.482407, 10.0 ] } },
{ "type": "Feature", "properties": { "value": 80.31 }, "geometry": { "type": "Point", "coordinates": [ 129.326553, 35.482407, 10.0 ] } },
{ "type": "Feature", "properties": { "value": 74.266 }, "geometry": { "type": "Point", "coordinates": [ 129.327652, 35.482403, 10.0 ] } },
{ "type": "Feature", "properties": { "value": 22.424 }, "geometry": { "type": "Point", "coordinates": [ 129.328766, 35.482399, 10.0 ] } },
{ "type": "Feature", "properties": { "value": 2.2884 }, "geometry": { "type": "Point", "coordinates": [ 129.329865, 35.482395, 10.0 ] } },
{ "type": "Feature", "properties": { "value": 5.4674 }, "geometry": { "type": "Point", "coordinates": [ 129.324356, 35.483311, 10.0 ] } },
{ "type": "Feature", "properties": { "value": 36.168 }, "geometry": { "type": "Point", "coordinates": [ 129.325455, 35.483311, 10.0 ] } },
{ "type": "Feature", "properties": { "value": 81.389 }, "geometry": { "type": "Point", "coordinates": [ 129.326553, 35.483307, 10.0 ] } },
{ "type": "Feature", "properties": { "value": 65.345 }, "geometry": { "type": "Point", "coordinates": [ 129.327667, 35.483303, 10.0 ] } },
{ "type": "Feature", "properties": { "value": 18.999 }, "geometry": { "type": "Point", "coordinates": [ 129.328766, 35.483299, 10.0 ] } },
{ "type": "Feature", "properties": { "value": 1.8122 }, "geometry": { "type": "Point", "coordinates": [ 129.329865, 35.483295, 10.0 ] } },
{ "type": "Feature", "properties": { "value": 7.6375 }, "geometry": { "type": "Point", "coordinates": [ 129.324356, 35.484215, 10.0 ] } },
{ "type": "Feature", "properties": { "value": 40.256 }, "geometry": { "type": "Point", "coordinates": [ 129.325455, 35.484211, 10.0 ] } },
{ "type": "Feature", "properties": { "value": 76.902 }, "geometry": { "type": "Point", "coordinates": [ 129.326569, 35.484207, 10.0 ] } },
{ "type": "Feature", "properties": { "value": 57.392 }, "geometry": { "type": "Point", "coordinates": [ 129.327667, 35.484203, 10.0 ] } },
{ "type": "Feature", "properties": { "value": 15.689 }, "geometry": { "type": "Point", "coordinates": [ 129.328766, 35.484203, 10.0 ] } },
{ "type": "Feature", "properties": { "value": 1.3667 }, "geometry": { "type": "Point", "coordinates": [ 129.329865, 35.4842, 10.0 ] } },
{ "type": "Feature", "properties": { "value": 0.3578 }, "geometry": { "type": "Point", "coordinates": [ 129.323257, 35.485119, 10.0 ] } },
{ "type": "Feature", "properties": { "value": 6.8808 }, "geometry": { "type": "Point", "coordinates": [ 129.324371, 35.485115, 10.0 ] } },
{ "type": "Feature", "properties": { "value": 31.152 }, "geometry": { "type": "Point", "coordinates": [ 129.32547, 35.485111, 10.0 ] } },
{ "type": "Feature", "properties": { "value": 53.368 }, "geometry": { "type": "Point", "coordinates": [ 129.326569, 35.485107, 10.0 ] } },
{ "type": "Feature", "properties": { "value": 36.619 }, "geometry": { "type": "Point", "coordinates": [ 129.327667, 35.485107, 10.0 ] } },
{ "type": "Feature", "properties": { "value": 9.0977 }, "geometry": { "type": "Point", "coordinates": [ 129.328766, 35.485104, 10.0 ] } },
{ "type": "Feature", "properties": { "value": 0.6962 }, "geometry": { "type": "Point", "coordinates": [ 129.32988, 35.4851, 10.0 ] } },
{ "type": "Feature", "properties": { "value": 0.1589 }, "geometry": { "type": "Point", "coordinates": [ 129.323273, 35.486019, 10.0 ] } },
{ "type": "Feature", "properties": { "value": 3.1599 }, "geometry": { "type": "Point", "coordinates": [ 129.324371, 35.486015, 10.0 ] } },
{ "type": "Feature", "properties": { "value": 13.04 }, "geometry": { "type": "Point", "coordinates": [ 129.32547, 35.486012, 10.0 ] } },
{ "type": "Feature", "properties": { "value": 20.979 }, "geometry": { "type": "Point", "coordinates": [ 129.326569, 35.486012, 10.0 ] } },
{ "type": "Feature", "properties": { "value": 13.344 }, "geometry": { "type": "Point", "coordinates": [ 129.327667, 35.486008, 10.0 ] } },
{ "type": "Feature", "properties": { "value": 3.101 }, "geometry": { "type": "Point", "coordinates": [ 129.328781, 35.486004, 10.0 ] } },
{ "type": "Feature", "properties": { "value": 0.1038 }, "geometry": { "type": "Point", "coordinates": [ 129.32988, 35.486, 10.0 ] } },
{ "type": "Feature", "properties": { "value": 0.6415 }, "geometry": { "type": "Point", "coordinates": [ 129.324371, 35.486916, 10.0 ] } },
{ "type": "Feature", "properties": { "value": 2.5879 }, "geometry": { "type": "Point", "coordinates": [ 129.32547, 35.486916, 10.0 ] } },
{ "type": "Feature", "properties": { "value": 4.1358 }, "geometry": { "type": "Point", "coordinates": [ 129.326569, 35.486912, 10.0 ] } },
{ "type": "Feature", "properties": { "value": 2.5469 }, "geometry": { "type": "Point", "coordinates": [ 129.327682, 35.486908, 10.0 ] } },
{ "type": "Feature", "properties": { "value": 0.5496 }, "geometry": { "type": "Point", "coordinates": [ 129.328781, 35.486904, 10.0 ] } },
{ "type": "Feature", "properties": { "value": 0.0402 }, "geometry": { "type": "Point", "coordinates": [ 129.324371, 35.48782, 10.0 ] } },
{ "type": "Feature", "properties": { "value": 0.2232 }, "geometry": { "type": "Point", "coordinates": [ 129.32547, 35.487816, 10.0 ] } },
{ "type": "Feature", "properties": { "value": 0.3699 }, "geometry": { "type": "Point", "coordinates": [ 129.326584, 35.487812, 10.0 ] } },
{ "type": "Feature", "properties": { "value": 0.201 }, "geometry": { "type": "Point", "coordinates": [ 129.327682, 35.487808, 10.0 ] } }
]
}
