{
"type": "FeatureCollection",
"features": [
{ "type": "Feature", "properties": { "value": 0.0024 }, "geometry": { "type": "Point", "coordinates": [ 129.32756, 35.458969, 60.0 ] } },
{ "type": "Feature", "properties": { "value": 2.7046 }, "geometry": { "type": "Point", "coordinates": [ 129.32756, 35.459869, 60.0 ] } },
{ "type": "Feature", "properties": { "value": 69.738 }, "geometry": { "type": "Point", "coordinates": [ 129.327576, 35.46077, 60.0 ] } },
{ "type": "Feature", "properties": { "value": 126.84 }, "geometry": { "type": "Point", "coordinates": [ 129.327576, 35.461674, 60.0 ] } },
{ "type": "Feature", "properties": { "value": 112.56 }, "geometry": { "type": "Point", "coordinates": [ 129.327576, 35.462574, 60.0 ] } },
{ "type": "Feature", "properties": { "value": 90.579 }, "geometry": { "type": "Point", "coordinates": [ 129.327576, 35.463474, 60.0 ] } },
{ "type": "Feature", "properties": { "value": 2.1663 }, "geometry": { "type": "Point", "coordinates": [ 129.32869, 35.46347, 60.0 ] } },
{ "type": "Feature", "properties": { "value": 78.955 }, "geometry": { "type": "Point", "coordinates": [ 129.327591, 35.464375, 60.0 ] } },
{ "type": "Feature", "properties": { "value": 6.459 }, "geometry": { "type": "Point", "coordinates": [ 129.32869, 35.464375, 60.0 ] } },
{ "type": "Feature", "properties": { "value": 79.429 }, "geometry": { "type": "Point", "coordinates": [ 129.327591, 35.465279, 60.0 ] } },
{ "type": "Feature", "properties": { "value": 16.018 }, "geometry": { "type": "Point", "coordinates": [ 129.32869, 35.465275, 60.0 ] } },
{ "type": "Feature", "properties": { "value": 79.774 }, "geometry": { "type": "Point", "coordinates": [ 129.327591, 35.466179, 60.0 ] } },
{ "type": "Feature", "properties": { "value": 28.963 }, "geometry": { "type": "Point", "coordinates": [ 129.32869, 35.466175, 60.0 ] } },
{ "type": "Feature", "properties": { "value": 76.062 }, "geometry": { "type": "Point", "coordinates": [ 129.327591, 35.467079, 60.0 ] } },
{ "type": "Feature", "properties": { "value": 38.22 }, "geometry": { "type": "Point", "coordinates": [ 129.328705, 35.467075, 60.0 ] } },
{ "type": "Feature", "properties": { "value": 72.971 }, "geometry": { "type": "Point", "coordinates": [ 129.327606, 35.467983, 60.0 ] } },
{ "type": "Feature", "properties": { "value": 43.951 }, "geometry": { "type": "Point", "coordinates": [ 129.328705, 35.467979, 60.0 ] } },
{ "type": "Feature", "properties": { "value": 0.7595 }, "geometry": { "type": "Point", "coordinates": [ 129.326508, 35.468887, 60.0 ] } },
{ "type": "Feature", "properties": { "value": 70.735 }, "geometry": { "type": "Point", "coordinates": [ 129.327606, 35.468884, 60.0 ] } },
{ "type": "Feature", "properties": { "value": 46.162 }, "geometry": { "type": "Point", "coordinates": [ 129.328705, 35.46888, 60.0 ] } },
{ "type": "Feature", "properties": { "value": 1.6222 }, "geometry": { "type": "Point", "coordinates": [ 129.326508, 35.469788, 60.0 ] } },
{ "type": "Feature", "properties": { "value": 68.885 }, "geometry": { "type": "Point", "coordinates": [ 129.327606, 35.469784, 60.0 ] } },
{ "type": "Feature", "properties": { "value": 46.371 }, "geometry": { "type": "Point", "coordinates": [ 129.328705, 35.46978, 60.0 ] } },
{ "type": "Feature", "properties": { "value": 2.5998 }, "geometry": { "type": "Point", "coordinates": [ 129.326508, 35.470688, 60.0 ] } },
{ "type": "Feature", "properties": { "value": 65.881 }, "geometry": { "type": "Point", "coordinates": [ 129.327606, 35.470684, 60.0 ] } },
{ "type": "Feature", "properties": { "value": 43.813 }, "geometry": { "type": "Point", "coordinates": [ 129.32872, 35.470684, 60.0 ] } },
{ "type": "Feature", "properties": { "value": 3.5673 }, "geometry": { "type": "Point", "coordinates": [ 129.326508, 35.471588, 60.0 ] } },
{ "type": "Feature", "properties": { "value": 59.044 }, "geometry": { "type": "Point", "coordinates": [ 129.327621, 35.471588, 60.0 ] } },
{ "type": "Feature", "properties": { "value": 34.48 }, "geometry": { "type": "Point", "coordinates": [ 129.32872, 35.471584, 60.0 ] } },
{ "type": "Feature", "properties": { "value": 0.5249 }, "geometry": { "type": "Point", "coordinates": [ 129.329819, 35.471581, 60.0 ] } },
{ "type": "Feature", "properties": { "value": 4.2776 }, "geometry": { "type": "Point", "coordinates": [ 129.326523, 35.472492, 60.0 ] } },
{ "type": "Feature", "properties": { "value": 47.203 }, "geometry": { "type": "Point", "coordinates": [ 129.327621, 35.472488, 60.0 ] } },
{ "type": "Feature", "properties": { "value": 22.862 }, "geometry": { "type": "Point", "coordinates": [ 129.32872, 35.472485, 60.0 ] } },
{ "type": "Feature", "properties": { "value": 0.5523 }, "geometry": { "type": "Point", "coordinates": [ 129.329819, 35.472481, 60.0 ] } },
{ "type": "Feature", "properties": { "value": 5.5283 }, "geometry": { "type": "Point", "coordinates": [ 129.326523, 35.473392, 60.0 ] } },
{ "type": "Feature", "properties": { "value": 36.884 }, "geometry": { "type": "Point", "coordinates": [ 129.327621, 35.473389, 60.0 ] } },
{ "type": "Feature", "properties": { "value": 19.099 }, "geometry": { "type": "Point", "coordinates": [ 129.32872, 35.473385, 60.0 ] } },
{ "type": "Feature", "properties": { "value": 1.0504 }, "geometry": { "type": "Point", "coordinates": [ 129.329819, 35.473385, 60.0 ] } },
{ "type": "Feature", "properties": { "value": 6.9378 }, "geometry": { "type": "Point", "coordinates": [ 129.326523, 35.474293, 60.0 ] } },
{ "type": "Feature", "properties": { "value": 31.628 }, "geometry": { "type": "Point", "coordinates": [ 129.327621, 35.474289, 60.0 ] } },
{ "type": "Feature", "properties": { "value": 19.687 }, "geometry": { "type": "Point", "coordinates": [ 129.328735, 35.474289, 60.0 ] } },
{ "type": "Feature", "properties": { "value": 1.9188 }, "geometry": { "type": "Point", "coordinates": [ 129.329834, 35.474285, 60.0 ] } },
{ "type": "Feature", "properties": { "value": 7.9393 }, "geometry": { "type": "Point", "coordinates": [ 129.326523, 35.475193, 60.0 ] } },
{ "type": "Feature", "properties": { "value": 31.402 }, "geometry": { "type": "Point", "coordinates": [ 129.327637, 35.475193, 60.0 ] } },
{ "type": "Feature", "properties": { "value": 21.017 }, "geometry": { "type": "Point", "coordinates": [ 129.328735, 35.475189, 60.0 ] } },
{ "type": "Feature", "properties": { "value": 2.5211 }, "geometry": { "type": "Point", "coordinates": [ 129.329834, 35.475185, 60.0 ] } },
{ "type": "Feature", "properties": { "value": 0.2746 }, "geometry": { "type": "Point", "coordinates": [ 129.325424, 35.476097, 60.0 ] } },
{ "type": "Feature", "properties": { "value": 9.817 }, "geometry": { "type": "Point", "coordinates": [ 129.326538, 35.476097, 60.0 ] } },
{ "type": "Feature", "properties": { "value": 36.017 }, "geometry": { "type": "Point", "coordinates": [ 129.327637, 35.476093, 60.0 ] } },
{ "type": "Feature", "properties": { "value": 23.331 }, "geometry": { "type": "Point", "coordinates": [ 129.328735, 35.476089, 60.0 ] } },
{ "type": "Feature", "properties": { "value": 2.7922 }, "geometry": { "type": "Point", "coordinates": [ 129.329834, 35.476086, 60.0 ] } },
{ "type": "Feature", "properties": { "value": 0.8205 }, "geometry": { "type": "Point", "coordinates": [ 129.325439, 35.477001, 60.0 ] } },
{ "type": "Feature", "properties": { "value": 13.747 }, "geometry": { "type": "Point", "coordinates": [ 129.326538, 35.476997, 60.0 ] } },
{ "type": "Feature", "properties": { "value": 43.227 }, "geometry": { "type": "Point", "coordinates": [ 129.327637, 35.476994, 60.0 ] } },
{ "type": "Feature", "properties": { "value": 25.272 }, "geometry": { "type": "Point", "coordinates": [ 129.328735, 35.47699, 60.0 ] } },
{ "type": "Feature", "properties": { "value": 2.8474 }, "geometry": { "type": "Point", "coordinates": [ 129.329834, 35.47699, 60.0 ] } },
{ "type": "Feature", "properties": { "value": 1.7486 }, "geometry": { "type": "Point", "coordinates": [ 129.325439, 35.477901, 60.0 ] } },
{ "type": "Feature", "properties": { "value": 19.472 }, "geometry": { "type": "Point", "coordinates": [ 129.326538, 35.477898, 60.0 ] } },
{ "type": "Feature", "properties": { "value": 47.192 }, "geometry": { "type": "Point", "coordinates": [ 129.327637, 35.477894, 60.0 ] } },
{ "type": "Feature", "properties": { "value": 24.329 }, "geometry": { "type": "Point", "coordinates": [ 129.328735, 35.477894, 60.0 ] } },
{ "type": "Feature", "properties": { "value": 2.6636 }, "geometry": { "type": "Point", "coordinates": [ 129.329849, 35.47789, 60.0 ] } },
{ "type": "Feature", "properties": { "value": 3.3749 }, "geometry": { "type": "Point", "coordinates": [ 129.325439, 35.478802, 60.0 ] } },
{ "type": "Feature", "properties": { "value": 25.272 }, "geometry": { "type": "Point", "coordinates": [ 129.326538, 35.478798, 60.0 ] } },
{ "type": "Feature", "properties": { "value": 47.255 }, "geometry": { "type": "Point", "coordinates": [ 129.327637, 35.478798, 60.0 ] } },
{ "type": "Feature", "properties": { "value": 21.419 }, "geometry": { "type": "Point", "coordinates": [ 129.328751, 35.478794, 60.0 ] } },
{ "type": "Feature", "properties": { "value": 2.2177 }, "geometry": { "type": "Point", "coordinates": [ 129.329849, 35.47879, 60.0 ] } },
{ "type": "Feature", "properties": { "value": 5.5166 }, "geometry": { "type": "Point", "coordinates": [ 129.325439, 35.479706, 60.0 ] } },
{ "type": "Feature", "properties": { "value": 30.291 }, "geometry": { "type": "Point", "coordinates": [ 129.326553, 35.479702, 60.0 ] } },
{ "type": "Feature", "properties": { "value": 45.528 }, "geometry": { "type": "Point", "coordinates": [ 129.327652, 35.479698, 60.0 ] } },
{ "type": "Feature", "properties": { "value": 18.281 }, "geometry": { "type": "Point", "coordinates": [ 129.328751, 35.479694, 60.0 ] } },
{ "type": "Feature", "properties": { "value": 1.7953 }, "geometry": { "type": "Point", "coordinates": [ 129.329849, 35.479691, 60.0 ] } },
{ "type": "Feature", "properties": { "value": 0.3709 }, "geometry": { "type": "Point", "coordinates": [ 129.324341, 35.48061, 60.0 ] } },
{ "type": "Feature", "properties": { "value": 8.1818 }, "geometry": { "type": "Point", "coordinates": [ 129.325455, 35.480606, 60.0 ] } },
{ "type": "Feature", "properties": { "value": 33.726 }, "geometry": { "type": "Point", "coordinates": [ 129.326553, 35.480602, 60.0 ] } },
{ "type": "Feature", "properties": { "value": 41.684 }, "geometry": { "type": "Point", "coordinates": [ 129.327652, 35.480598, 60.0 ] } },
{ "type": "Feature", "properties": { "value": 15.108 }, "geometry": { "type": "Point", "coordinates": [ 129.328751, 35.480595, 60.0 ] } },
{ "type": "Feature", "properties": { "value": 1.4565 }, "geometry": { "type": "Point", "coordinates": [ 129.329849, 35.480595, 60.0 ] } },
{ "type": "Feature", "properties": { "value": 1.0446 }, "geometry": { "type": "Point", "coordinates": [ 129.324356, 35.48151, 60.0 ] } },
{ "type": "Feature", "properties": { "value": 11.001 }, "geometry": { "type": "Point", "coordinates": [ 129.325455, 35.481506, 60.0 ] } },
{ "type": "Feature", "properties": { "value": 35.536 }, "geometry": { "type": "Point", "coordinates": [ 129.326553, 35.481503, 60.0 ] } },
{ "type": "Feature", "properties": { "value": 37.468 }, "geometry": { "type": "Point", "coordinates": [ 129.327652, 35.481503, 60.0 ] } },
{ "type": "Feature", "properties": { "value": 12.29 }, "geometry": { "type": "Point", "coordinates": [ 129.328751, 35.481499, 60.0 ] } },
{ "type": "Feature", "properties": { "value": 1.0834 }, "geometry": { "type": "Point", "coordinates": [ 129.329865, 35.481495, 60.0 ] } },
{ "type": "Feature", "properties": { "value": 2.0406 }, "geometry": { "type": "Point", "coordinates": [ 129.324356, 35.48241, 60.0 ] } },
{ "type": "Feature", "properties": { "value": 14.658 }, "geometry": { "type": "Point", "coordinates": [ 129.325455, 35.482407, 60.0 ] } },
{ "type": "Feature", "properties": { "value": 37.731 }, "geometry": { "type": "Point", "coordinates": [ 129.326553, 35.482407, 60.0 ] } },
{ "type": "Feature", "properties": { "value": 33.579 }, "geometry": { "type": "Point", "coordinates": [ 129.327652, 35.482403, 60.0 ] } },
{ "type": "Feature", "properties": { "value": 9.6876 }, "geometry": { "type": "Point", "coordinates": [ 129.328766, 35.482399, 60.0 ] } },
{ "type": "Feature", "properties": { "value": 0.74 }, "geometry": { "type": "Point", "coordinates": [ 129.329865, 35.482395, 60.0 ] } },
{ "type": "Feature", "properties": { "value": 3.7623 }, "geometry": { "type": "Point", "coordinates": [ 129.324356, 35.483311, 60.0 ] } },
{ "type": "Feature", "properties": { "value": 19.553 }, "geometry": { "type": "Point", "coordinates": [ 129.325455, 35.483311, 60.0 ] } },
{ "type": "Feature", "properties": { "value": 39.411 }, "geometry": { "type": "Point", "coordinates": [ 129.326553, 35.483307, 60.0 ] } },
{ "type": "Feature", "properties": { "value": 28.708 }, "geometry": { "type": "Point", "coordinates": [ 129.327667, 35.483303, 60.0 ] } },
{ "type": "Feature", "properties": { "value": 7.2705 }, "geometry": { "type": "Point", "coordinates": [ 129.328766, 35.483299, 60.0 ] } },
{ "type": "Feature", "properties": { "value": 0.4401 }, "geometry": { "type": "Point", "coordinates": [ 129.329865, 35.483295, 60.0 ] } },
{ "type": "Feature", "properties": { "value": 0.625 }, "geometry": { "type": "Point", "coordinates": [ 129.323257, 35.484215, 60.0 ] } },
{ "type": "Feature", "properties": { "value": 6.5696 }, "geometry": { "type": "Point", "coordinates": [ 129.324356, 35.484215, 60.0 ] } },
{ "type": "Feature", "properties": { "value": 25.119 }, "geometry": { "type": "Point", "coordinates": [ 129.325455, 35.484211, 60.0 ] } },
{ "type": "Feature", "properties": { "value": 39.089 }, "geometry": { "type": "Point", "coordinates": [ 129.326569, 35.484207, 60.0 ] } },
{ "type": "Feature", "properties": { "value": 23.22 }, "geometry": { "type": "Point", "coordinates": [ 129.327667, 35.484203, 60.0 ] } },
{ "type": "Feature", "properties": { "value": 5.1375 }, "geometry": { "type": "Point", "coordinates": [ 129.328766, 35.484203, 60.0 ] } },
{ "type": "Feature", "properties": { "value": 0.1186 }, "geometry": { "type": "Point", "coordinates": [ 129.329865, 35.4842, 60.0 ] } },
{ "type": "Feature", "properties": { "value": 1.6687 }, "geometry": { "type": "Point", "coordinates": [ 129.323257, 35.485119, 60.0 ] } },
{ "type": "Feature", "properties": { "value": 10.838 }, "geometry": { "type": "Point", "coordinates": [ 129.324371, 35.485115, 60.0 ] } },
{ "type": "Feature", "properties": { "value": 30.7 }, "geometry": { "type": "Point", "coordinates": [ 129.32547, 35.485111, 60.0 ] } },
{ "type": "Feature", "properties": { "value": 37.189 }, "geometry": { "type": "Point", "coordinates": [ 129.326569, 35.485107, 60.0 ] } },
{ "type": "Feature", "properties": { "value": 18.19 }, "geometry": { "type": "Point", "coordinates": [ 129.327667, 35.485107, 60.0 ] } },
{ "type": "Feature", "properties": { "value": 3.4784 }, "geometry": { "type": "Point", "coordinates": [ 129.328766, 35.485104, 60.0 ] } },
{ "type": "Feature", "properties": { "value": 0.092 }, "geometry": { "type": "Point", "coordinates": [ 129.322159, 35.486023, 60.0 ] } },
{ "type": "Feature", "properties": { "value": 3.6327 }, "geometry": { "type": "Point", "coordinates": [ 129.323273, 35.486019, 60.0 ] } },
{ "type": "Feature", "properties": { "value": 16.893 }, "geometry": { "type": "Point", "coordinates": [ 129.324371, 35.486015, 60.0 ] } },
{ "type": "Feature", "properties": { "value": 35.976 }, "geometry": { "type": "Point", "coordinates": [ 129.32547, 35.486012, 60.0 ] } },
{ "type": "Feature", "properties": { "value": 34.066 }, "geometry": { "type": "Point", "coordinates": [ 129.326569, 35.486012, 60.0 ] } },
{ "type": "Feature", "properties": { "value": 13.772 }, "geometry": { "type": "Point", "coordinates": [ 129.327667, 35.486008, 60.0 ] } },
{ "type": "Feature", "properties": { "value": 2.2389 }, "geometry": { "type": "Point", "coordinates": [ 129.328781, 35.486004, 60.0 ] } },
{ "type": "Feature", "properties": { "value": 0.9848 }, "geometry": { "type": "Point", "coordinates": [ 129.322174, 35.486923, 60.0 ] } },
{ "type": "Feature", "properties": { "value": 7.1405 }, "geometry": { "type": "Point", "coordinates": [ 129.323273, 35.486919, 60.0 ] } },
{ "type": "Feature", "properties": { "value": 24.16 }, "geometry": { "type": "Point", "coordinates": [ 129.324371, 35.486916, 60.0 ] } },
{ "type": "Feature", "properties": { "value": 39.108 }, "geometry": { "type": "Point", "coordinates": [ 129.32547, 35.486916, 60.0 ] } },
{ "type": "Feature", "properties": { "value": 29.314 }, "geometry": { "type": "Point", "coordinates": [ 129.326569, 35.486912, 60.0 ] } },
{ "type": "Feature", "properties": { "value": 9.8128 }, "geometry": { "type": "Point", "coordinates": [ 129.327682, 35.486908, 60.0 ] } },
{ "type": "Feature", "properties": { "value": 1.3133 }, "geometry": { "type": "Point", "coordinates": [ 129.328781, 35.486904, 60.0 ] } },
{ "type": "Feature", "properties": { "value": 2.5481 }, "geometry": { "type": "Point", "coordinates": [ 129.322174, 35.487823, 60.0 ] } },
{ "type": "Feature", "properties": { "value": 12.46 }, "geometry": { "type": "Point", "coordinates": [ 129.323273, 35.48782, 60.0 ] } },
{ "type": "Feature", "properties": { "value": 31.194 }, "geometry": { "type": "Point", "coordinates": [ 129.324371, 35.48782, 60.0 ] } },
{ "type": "Feature", "properties": { "value": 38.937 }, "geometry": { "type": "Point", "coordinates": [ 129.32547, 35.487816, 60.0 ] } },
{ "type": "Feature", "properties": { "value": 23.414 }, "geometry": { "type": "Point", "coordinates": [ 129.326584, 35.487812, 60.0 ] } },
{ "type": "Feature", "properties": { "value": 6.5103 }, "geometry": { "type": "Point", "coordinates": [ 129.327682, 35.487808, 60.0 ] } },
{ "type": "Feature", "properties": { "value": 0.704 }, "geometry": { "type": "Point", "coordinates": [ 129.328781, 35.487808, 60.0 ] } },
{ "type": "Feature", "properties": { "value": 0.7229 }, "geometry": { "type": "Point", "coordinates": [ 129.321075, 35.488728, 60.0 ] } },
{ "type": "Feature", "properties": { "value": 5.3951 }, "geometry": { "type": "Point", "coordinates": [ 129.322174, 35.488728, 60.0 ] } },
{ "type": "Feature", "properties": { "value": 19.166 }, "geometry": { "type": "Point", "coordinates": [ 129.323273, 35.488724, 60.0 ] } },
{ "type": "Feature", "properties": { "value": 36.394 }, "geometry": { "type": "Point", "coordinates": [ 129.324371, 35.48872, 60.0 ] } },
{ "type": "Feature", "properties": { "value": 35.641 }, "geometry": { "type": "Point", "coordinates": [ 129.325485, 35.488716, 60.0 ] } },
{ "type": "Feature", "properties": { "value": 17.361 }, "geometry": { "type": "Point", "coordinates": [ 129.326584, 35.488712, 60.0 ] } },
{ "type": "Feature", "properties": { "value": 4.0144 }, "geometry": { "type": "Point", "coordinates": [ 129.327682, 35.488712, 60.0 ] } },
{ "type": "Feature", "properties": { "value": 0.1005 }, "geometry": { "type": "Point", "coordinates": [ 129.328781, 35.488708, 60.0 ] } },
{ "type": "Feature", "properties": { "value": 2.1196 }, "geometry": { "type": "Point", "coordinates": [ 129.321075, 35.489632, 60.0 ] } },
{ "type": "Feature", "properties": { "value": 9.9195 }, "geometry": { "type": "Point", "coordinates": [ 129.322174, 35.489628, 60.0 ] } },
{ "type": "Feature", "properties": { "value": 26.073 }, "geometry": { "type": "Point", "coordinates": [ 129.323273, 35.489624, 60.0 ] } },
{ "type": "Feature", "properties": { "value": 38.068 }, "geometry": { "type": "Point", "coordinates": [ 129.324387, 35.48962, 60.0 ] } },
{ "type": "Feature", "properties": { "value": 29.619 }, "geometry": { "type": "Point", "coordinates": [ 129.325485, 35.489616, 60.0 ] } },
{ "type": "Feature", "properties": { "value": 11.796 }, "geometry": { "type": "Point", "coordinates": [ 129.326584, 35.489616, 60.0 ] } },
{ "type": "Feature", "properties": { "value": 2.2699 }, "geometry": { "type": "Point", "coordinates": [ 129.327682, 35.489613, 60.0 ] } },
{ "type": "Feature", "properties": { "value": 0.795 }, "geometry": { "type": "Point", "coordinates": [ 129.319977, 35.490536, 60.0 ] } },
{ "type": "Feature", "properties": { "value": 4.8288 }, "geometry": { "type": "Point", "coordinates": [ 129.321075, 35.490532, 60.0 ] } },
{ "type": "Feature", "properties": { "value": 16.05 }, "geometry": { "type": "Point", "coordinates": [ 129.322174, 35.490528, 60.0 ] } },
{ "type": "Feature", "properties": { "value": 31.713 }, "geometry": { "type": "Point", "coordinates": [ 129.323288, 35.490524, 60.0 ] } },
{ "type": "Feature", "properties": { "value": 35.897 }, "geometry": { "type": "Point", "coordinates": [ 129.324387, 35.490524, 60.0 ] } },
{ "type": "Feature", "properties": { "value": 22.311 }, "geometry": { "type": "Point", "coordinates": [ 129.325485, 35.49052, 60.0 ] } },
{ "type": "Feature", "properties": { "value": 7.32 }, "geometry": { "type": "Point", "coordinates": [ 129.326584, 35.490517, 60.0 ] } },
{ "type": "Feature", "properties": { "value": 1.1441 }, "geometry": { "type": "Point", "coordinates": [ 129.327698, 35.490513, 60.0 ] } },
{ "type": "Feature", "properties": { "value": 0.1712 }, "geometry": { "type": "Point", "coordinates": [ 129.318878, 35.49144, 60.0 ] } },
{ "type": "Feature", "properties": { "value": 2.3673 }, "geometry": { "type": "Point", "coordinates": [ 129.319977, 35.491436, 60.0 ] } },
{ "type": "Feature", "properties": { "value": 9.3428 }, "geometry": { "type": "Point", "coordinates": [ 129.321091, 35.491432, 60.0 ] } },
{ "type": "Feature", "properties": { "value": 23.028 }, "geometry": { "type": "Point", "coordinates": [ 129.322189, 35.491428, 60.0 ] } },
{ "type": "Feature", "properties": { "value": 34.699 }, "geometry": { "type": "Point", "coordinates": [ 129.323288, 35.491428, 60.0 ] } },
{ "type": "Feature", "properties": { "value": 30.763 }, "geometry": { "type": "Point", "coordinates": [ 129.324387, 35.491425, 60.0 ] } },
{ "type": "Feature", "properties": { "value": 15.43 }, "geometry": { "type": "Point", "coordinates": [ 129.325485, 35.491421, 60.0 ] } },
{ "type": "Feature", "properties": { "value": 4.1746 }, "geometry": { "type": "Point", "coordinates": [ 129.326599, 35.491417, 60.0 ] } },
{ "type": "Feature", "properties": { "value": 0.4514 }, "geometry": { "type": "Point", "coordinates": [ 129.327698, 35.491413, 60.0 ] } },
{ "type": "Feature", "properties": { "value": 1.0274 }, "geometry": { "type": "Point", "coordinates": [ 129.318878, 35.49234, 60.0 ] } },
{ "type": "Feature", "properties": { "value": 5.0475 }, "geometry": { "type": "Point", "coordinates": [ 129.319992, 35.492336, 60.0 ] } },
{ "type": "Feature", "properties": { "value": 15.278 }, "geometry": { "type": "Point", "coordinates": [ 129.321091, 35.492332, 60.0 ] } },
{ "type": "Feature", "properties": { "value": 29.047 }, "geometry": { "type": "Point", "coordinates": [ 129.322189, 35.492332, 60.0 ] } },
{ "type": "Feature", "properties": { "value": 34.08 }, "geometry": { "type": "Point", "coordinates": [ 129.323288, 35.492329, 60.0 ] } },
{ "type": "Feature", "properties": { "value": 23.942 }, "geometry": { "type": "Point", "coordinates": [ 129.324387, 35.492325, 60.0 ] } },
{ "type": "Feature", "properties": { "value": 9.7052 }, "geometry": { "type": "Point", "coordinates": [ 129.3255, 35.492321, 60.0 ] } },
{ "type": "Feature", "properties": { "value": 2.1661 }, "geometry": { "type": "Point", "coordinates": [ 129.326599, 35.492317, 60.0 ] } },
{ "type": "Feature", "properties": { "value": 0.2656 }, "geometry": { "type": "Point", "coordinates": [ 129.31778, 35.493244, 60.0 ] } },
{ "type": "Feature", "properties": { "value": 2.075 }, "geometry": { "type": "Point", "coordinates": [ 129.318893, 35.49324, 60.0 ] } },
{ "type": "Feature", "properties": { "value": 8.2616 }, "geometry": { "type": "Point", "coordinates": [ 129.319992, 35.493237, 60.0 ] } },
{ "type": "Feature", "properties": { "value": 20.342 }, "geometry": { "type": "Point", "coordinates": [ 129.321091, 35.493237, 60.0 ] } },
{ "type": "Feature", "properties": { "value": 31.167 }, "geometry": { "type": "Point", "coordinates": [ 129.322189, 35.493233, 60.0 ] } },
{ "type": "Feature", "properties": { "value": 29.347 }, "geometry": { "type": "Point", "coordinates": [ 129.323288, 35.493229, 60.0 ] } },
{ "type": "Feature", "properties": { "value": 16.659 }, "geometry": { "type": "Point", "coordinates": [ 129.324402, 35.493225, 60.0 ] } },
{ "type": "Feature", "properties": { "value": 5.5232 }, "geometry": { "type": "Point", "coordinates": [ 129.3255, 35.493225, 60.0 ] } },
{ "type": "Feature", "properties": { "value": 0.9763 }, "geometry": { "type": "Point", "coordinates": [ 129.326599, 35.493221, 60.0 ] } },
{ "type": "Feature", "properties": { "value": 0.4518 }, "geometry": { "type": "Point", "coordinates": [ 129.317795, 35.494144, 60.0 ] } },
{ "type": "Feature", "properties": { "value": 2.7814 }, "geometry": { "type": "Point", "coordinates": [ 129.318893, 35.494141, 60.0 ] } },
{ "type": "Feature", "properties": { "value": 9.7101 }, "geometry": { "type": "Point", "coordinates": [ 129.319992, 35.494141, 60.0 ] } },
{ "type": "Feature", "properties": { "value": 20.645 }, "geometry": { "type": "Point", "coordinates": [ 129.321091, 35.494137, 60.0 ] } },
{ "type": "Feature", "properties": { "value": 26.803 }, "geometry": { "type": "Point", "coordinates": [ 129.322189, 35.494133, 60.0 ] } },
{ "type": "Feature", "properties": { "value": 21.129 }, "geometry": { "type": "Point", "coordinates": [ 129.323303, 35.494129, 60.0 ] } },
{ "type": "Feature", "properties": { "value": 10.015 }, "geometry": { "type": "Point", "coordinates": [ 129.324402, 35.494129, 60.0 ] } },
{ "type": "Feature", "properties": { "value": 2.7856 }, "geometry": { "type": "Point", "coordinates": [ 129.3255, 35.494125, 60.0 ] } },
{ "type": "Feature", "properties": { "value": 0.2934 }, "geometry": { "type": "Point", "coordinates": [ 129.326599, 35.494122, 60.0 ] } },
{ "type": "Feature", "properties": { "value": 0.0123 }, "geometry": { "type": "Point", "coordinates": [ 129.316696, 35.495049, 60.0 ] } },
{ "type": "Feature", "properties": { "value": 0.4271 }, "geometry": { "type": "Point", "coordinates": [ 129.317795, 35.495045, 60.0 ] } },
{ "type": "Feature", "properties": { "value": 2.4157 }, "geometry": { "type": "Point", "coordinates": [ 129.318893, 35.495045, 60.0 ] } },
{ "type": "Feature", "properties": { "value": 7.7498 }, "geometry": { "type": "Point", "coordinates": [ 129.319992, 35.495041, 60.0 ] } },
{ "type": "Feature", "properties": { "value": 14.861 }, "geometry": { "type": "Point", "coordinates": [ 129.321091, 35.495037, 60.0 ] } },
{ "type": "Feature", "properties": { "value": 17.168 }, "geometry": { "type": "Point", "coordinates": [ 129.322205, 35.495033, 60.0 ] } },
{ "type": "Feature", "properties": { "value": 11.891 }, "geometry": { "type": "Point", "coordinates": [ 129.323303, 35.495033, 60.0 ] } },
{ "type": "Feature", "properties": { "value": 4.8809 }, "geometry": { "type": "Point", "coordinates": [ 129.324402, 35.495029, 60.0 ] } },
{ "type": "Feature", "properties": { "value": 1.1565 }, "geometry": { "type": "Point", "coordinates": [ 129.3255, 35.495026, 60.0 ] } },
{ "type": "Feature", "properties": { "value": 0.238 }, "geometry": { "type": "Point", "coordinates": [ 129.317795, 35.495949, 60.0 ] } },
{ "type": "Feature", "properties": { "value": 1.3288 }, "geometry": { "type": "Point", "coordinates": [ 129.318893, 35.495945, 60.0 ] } },
{ "type": "Feature", "properties": { "value": 4.0456 }, "geometry": { "type": "Point", "coordinates": [ 129.319992, 35.495941, 60.0 ] } },
{ "type": "Feature", "properties": { "value": 7.2242 }, "geometry": { "type": "Point", "coordinates": [ 129.321106, 35.495937, 60.0 ] } },
{ "type": "Feature", "properties": { "value": 7.6736 }, "geometry": { "type": "Point", "coordinates": [ 129.322205, 35.495937, 60.0 ] } },
{ "type": "Feature", "properties": { "value": 4.8451 }, "geometry": { "type": "Point", "coordinates": [ 129.323303, 35.495934, 60.0 ] } },
{ "type": "Feature", "properties": { "value": 1.7851 }, "geometry": { "type": "Point", "coordinates": [ 129.324402, 35.49593, 60.0 ] } },
{ "type": "Feature", "properties": { "value": 0.3257 }, "geometry": { "type": "Point", "coordinates": [ 129.325516, 35.495926, 60.0 ] } },
{ "type": "Feature", "properties": { "value": 0.0741 }, "geometry": { "type": "Point", "coordinates": [ 129.317795, 35.496849, 60.0 ] } },
{ "type": "Feature", "properties": { "value": 0.4467 }, "geometry": { "type": "Point", "coordinates": [ 129.318893, 35.496845, 60.0 ] } },
{ "type": "Feature", "properties": { "value": 1.3262 }, "geometry": { "type": "Point", "coordinates": [ 129.320007, 35.496841, 60.0 ] } },
{ "type": "Feature", "properties": { "value": 2.2678 }, "geometry": { "type": "Point", "coordinates": [ 129.321106, 35.496841, 60.0 ] } },
{ "type": "Feature", "properties": { "value": 2.2618 }, "geometry": { "type": "Point", "coordinates": [ 129.322205, 35.496838, 60.0 ] } },
{ "type": "Feature", "properties": { "value": 1.3276 }, "geometry": { "type": "Point", "coordinates": [ 129.323303, 35.496834, 60.0 ] } },
{ "type": "Feature", "properties": { "value": 0.424 }, "geometry": { "type": "Point", "coordinates": [ 129.324417, 35.49683, 60.0 ] } },
{ "type": "Feature", "properties": { "value": 0.0791 }, "geometry": { "type": "Point", "coordinates": [ 129.318909, 35.497749, 60.0 ] } },
{ "type": "Feature", "properties": { "value": 0.2555 }, "geometry": { "type": "Point", "coordinates": [ 129.320007, 35.497746, 60.0 ] } },
{ "type": "Feature", "properties": { "value": 0.4306 }, "geometry": { "type": "Point", "coordinates": [ 129.321106, 35.497742, 60.0 ] } },
{ "type": "Feature", "properties": { "value": 0.4148 }, "geometry": { "type": "Point", "coordinates": [ 129.322205, 35.497738, 60.0 ] } },
{ "type": "Feature", "properties": { "value": 0.205 }, "geometry": { "type": "Point", "coordinates": [ 129.323318, 35.497734, 60.0 ] } },
{ "type": "Feature", "properties": { "value": 0.0161 }, "geometry": { "type": "Point", "coordinates": [ 129.324417, 35.497734, 60.0 ] } },
{ "type": "Feature", "properties": { "value": 0.0136 }, "geometry": { "type": "Point", "coordinates": [ 129.320007, 35.498646, 60.0 ] } },
{ "type": "Feature", "properties": { "value": 0.0194 }, "geometry": { "type": "Point", "coordinates": [ 129.321106, 35.498642, 60.0 ] } },
{ "type": "Feature", "properties": { "value": 0.0165 }, "geometry": { "type": "Point", "coordinates": [ 129.32222, 35.498638, 60.0 ] } }
]
}
