{
"type": "FeatureCollection",
"features": [
{ "type": "Feature", "properties": { "value": 7.4681 }, "geometry": { "type": "Point", "coordinates": [ 129.32756, 35.458969, 30.0 ] } },
{ "type": "Feature", "properties": { "value": 188.63 }, "geometry": { "type": "Point", "coordinates": [ 129.32756, 35.459869, 30.0 ] } },
{ "type": "Feature", "properties": { "value": 299.91 }, "geometry": { "type": "Point", "coordinates": [ 129.327576, 35.46077, 30.0 ] } },
{ "type": "Feature", "properties": { "value": 245.47 }, "geometry": { "type": "Point", "coordinates": [ 129.327576, 35.461674, 30.0 ] } },
{ "type": "Feature", "properties": { "value": 187.59 }, "geometry": { "type": "Point", "coordinates": [ 129.327576, 35.462574, 30.0 ] } },
{ "type": "Feature", "properties": { "value": 1.8593 }, "geometry": { "type": "Point", "coordinates": [ 129.328674, 35.46257, 30.0 ] } },
{ "type": "Feature", "properties": { "value": 117.4 }, "geometry": { "type": "Point", "coordinates": [ 129.327576, 35.463474, 30.0 ] } },
{ "type": "Feature", "properties": { "value": 15.876 }, "geometry": { "type": "Point", "coordinates": [ 129.32869, 35.46347, 30.0 ] } },
{ "type": "Feature", "properties": { "value": 66.351 }, "geometry": { "type": "Point", "coordinates": [ 129.327591, 35.464375, 30.0 ] } },
{ "type": "Feature", "properties": { "value": 58.768 }, "geometry": { "type": "Point", "coordinates": [ 129.32869, 35.464375, 30.0 ] } },
{ "type": "Feature", "properties": { "value": 31.263 }, "geometry": { "type": "Point", "coordinates": [ 129.327591, 35.465279, 30.0 ] } },
{ "type": "Feature", "properties": { "value": 94.919 }, "geometry": { "type": "Point", "coordinates": [ 129.32869, 35.465275, 30.0 ] } },
{ "type": "Feature", "properties": { "value": 13.773 }, "geometry": { "type": "Point", "coordinates": [ 129.327591, 35.466179, 30.0 ] } },
{ "type": "Feature", "properties": { "value": 96.808 }, "geometry": { "type": "Point", "coordinates": [ 129.32869, 35.466175, 30.0 ] } },
{ "type": "Feature", "properties": { "value": 0.5912 }, "geometry": { "type": "Point", "coordinates": [ 129.329803, 35.466171, 30.0 ] } },
{ "type": "Feature", "properties": { "value": 6.3916 }, "geometry": { "type": "Point", "coordinates": [ 129.327591, 35.467079, 30.0 ] } },
{ "type": "Feature", "properties": { "value": 91.893 }, "geometry": { "type": "Point", "coordinates": [ 129.328705, 35.467075, 30.0 ] } },
{ "type": "Feature", "properties": { "value": 4.9167 }, "geometry": { "type": "Point", "coordinates": [ 129.329803, 35.467075, 30.0 ] } },
{ "type": "Feature", "properties": { "value": 2.7959 }, "geometry": { "type": "Point", "coordinates": [ 129.327606, 35.467983, 30.0 ] } },
{ "type": "Feature", "properties": { "value": 77.724 }, "geometry": { "type": "Point", "coordinates": [ 129.328705, 35.467979, 30.0 ] } },
{ "type": "Feature", "properties": { "value": 13.913 }, "geometry": { "type": "Point", "coordinates": [ 129.329803, 35.467976, 30.0 ] } },
{ "type": "Feature", "properties": { "value": 1.2634 }, "geometry": { "type": "Point", "coordinates": [ 129.327606, 35.468884, 30.0 ] } },
{ "type": "Feature", "properties": { "value": 60.577 }, "geometry": { "type": "Point", "coordinates": [ 129.328705, 35.46888, 30.0 ] } },
{ "type": "Feature", "properties": { "value": 31.811 }, "geometry": { "type": "Point", "coordinates": [ 129.329803, 35.468876, 30.0 ] } },
{ "type": "Feature", "properties": { "value": 44.649 }, "geometry": { "type": "Point", "coordinates": [ 129.328705, 35.46978, 30.0 ] } },
{ "type": "Feature", "properties": { "value": 62.83 }, "geometry": { "type": "Point", "coordinates": [ 129.329819, 35.469776, 30.0 ] } },
{ "type": "Feature", "properties": { "value": 2.5606 }, "geometry": { "type": "Point", "coordinates": [ 129.330917, 35.469776, 30.0 ] } },
{ "type": "Feature", "properties": { "value": 32.617 }, "geometry": { "type": "Point", "coordinates": [ 129.32872, 35.470684, 30.0 ] } },
{ "type": "Feature", "properties": { "value": 106.99 }, "geometry": { "type": "Point", "coordinates": [ 129.329819, 35.47068, 30.0 ] } },
{ "type": "Feature", "properties": { "value": 13.307 }, "geometry": { "type": "Point", "coordinates": [ 129.330917, 35.470676, 30.0 ] } },
{ "type": "Feature", "properties": { "value": 22.317 }, "geometry": { "type": "Point", "coordinates": [ 129.32872, 35.471584, 30.0 ] } },
{ "type": "Feature", "properties": { "value": 132.73 }, "geometry": { "type": "Point", "coordinates": [ 129.329819, 35.471581, 30.0 ] } },
{ "type": "Feature", "properties": { "value": 37.973 }, "geometry": { "type": "Point", "coordinates": [ 129.330917, 35.471577, 30.0 ] } },
{ "type": "Feature", "properties": { "value": 11.324 }, "geometry": { "type": "Point", "coordinates": [ 129.32872, 35.472485, 30.0 ] } },
{ "type": "Feature", "properties": { "value": 113.61 }, "geometry": { "type": "Point", "coordinates": [ 129.329819, 35.472481, 30.0 ] } },
{ "type": "Feature", "properties": { "value": 73.187 }, "geometry": { "type": "Point", "coordinates": [ 129.330917, 35.472477, 30.0 ] } },
{ "type": "Feature", "properties": { "value": 3.7436 }, "geometry": { "type": "Point", "coordinates": [ 129.332031, 35.472477, 30.0 ] } },
{ "type": "Feature", "properties": { "value": 4.4949 }, "geometry": { "type": "Point", "coordinates": [ 129.32872, 35.473385, 30.0 ] } },
{ "type": "Feature", "properties": { "value": 76.756 }, "geometry": { "type": "Point", "coordinates": [ 129.329819, 35.473385, 30.0 ] } },
{ "type": "Feature", "properties": { "value": 101.12 }, "geometry": { "type": "Point", "coordinates": [ 129.330933, 35.473381, 30.0 ] } },
{ "type": "Feature", "properties": { "value": 12.934 }, "geometry": { "type": "Point", "coordinates": [ 129.332031, 35.473377, 30.0 ] } },
{ "type": "Feature", "properties": { "value": 1.4365 }, "geometry": { "type": "Point", "coordinates": [ 129.328735, 35.474289, 30.0 ] } },
{ "type": "Feature", "properties": { "value": 42.049 }, "geometry": { "type": "Point", "coordinates": [ 129.329834, 35.474285, 30.0 ] } },
{ "type": "Feature", "properties": { "value": 96.149 }, "geometry": { "type": "Point", "coordinates": [ 129.330933, 35.474281, 30.0 ] } },
{ "type": "Feature", "properties": { "value": 29.076 }, "geometry": { "type": "Point", "coordinates": [ 129.332031, 35.474277, 30.0 ] } },
{ "type": "Feature", "properties": { "value": 1.4837 }, "geometry": { "type": "Point", "coordinates": [ 129.33313, 35.474274, 30.0 ] } },
{ "type": "Feature", "properties": { "value": 21.177 }, "geometry": { "type": "Point", "coordinates": [ 129.329834, 35.475185, 30.0 ] } },
{ "type": "Feature", "properties": { "value": 76.427 }, "geometry": { "type": "Point", "coordinates": [ 129.330933, 35.475182, 30.0 ] } },
{ "type": "Feature", "properties": { "value": 48.389 }, "geometry": { "type": "Point", "coordinates": [ 129.332031, 35.475178, 30.0 ] } },
{ "type": "Feature", "properties": { "value": 6.2317 }, "geometry": { "type": "Point", "coordinates": [ 129.333145, 35.475178, 30.0 ] } },
{ "type": "Feature", "properties": { "value": 9.7282 }, "geometry": { "type": "Point", "coordinates": [ 129.329834, 35.476086, 30.0 ] } },
{ "type": "Feature", "properties": { "value": 54.18 }, "geometry": { "type": "Point", "coordinates": [ 129.330933, 35.476086, 30.0 ] } },
{ "type": "Feature", "properties": { "value": 63.121 }, "geometry": { "type": "Point", "coordinates": [ 129.332047, 35.476082, 30.0 ] } },
{ "type": "Feature", "properties": { "value": 16.438 }, "geometry": { "type": "Point", "coordinates": [ 129.333145, 35.476078, 30.0 ] } },
{ "type": "Feature", "properties": { "value": 0.8357 }, "geometry": { "type": "Point", "coordinates": [ 129.334244, 35.476074, 30.0 ] } },
{ "type": "Feature", "properties": { "value": 3.7741 }, "geometry": { "type": "Point", "coordinates": [ 129.329834, 35.47699, 30.0 ] } },
{ "type": "Feature", "properties": { "value": 34.028 }, "geometry": { "type": "Point", "coordinates": [ 129.330948, 35.476986, 30.0 ] } },
{ "type": "Feature", "properties": { "value": 68.056 }, "geometry": { "type": "Point", "coordinates": [ 129.332047, 35.476982, 30.0 ] } },
{ "type": "Feature", "properties": { "value": 32.796 }, "geometry": { "type": "Point", "coordinates": [ 129.333145, 35.476978, 30.0 ] } },
{ "type": "Feature", "properties": { "value": 4.1171 }, "geometry": { "type": "Point", "coordinates": [ 129.334244, 35.476974, 30.0 ] } },
{ "type": "Feature", "properties": { "value": 1.1302 }, "geometry": { "type": "Point", "coordinates": [ 129.329849, 35.47789, 30.0 ] } },
{ "type": "Feature", "properties": { "value": 18.57 }, "geometry": { "type": "Point", "coordinates": [ 129.330948, 35.477886, 30.0 ] } },
{ "type": "Feature", "properties": { "value": 60.888 }, "geometry": { "type": "Point", "coordinates": [ 129.332047, 35.477882, 30.0 ] } },
{ "type": "Feature", "properties": { "value": 51.156 }, "geometry": { "type": "Point", "coordinates": [ 129.333145, 35.477879, 30.0 ] } },
{ "type": "Feature", "properties": { "value": 12.318 }, "geometry": { "type": "Point", "coordinates": [ 129.334259, 35.477879, 30.0 ] } },
{ "type": "Feature", "properties": { "value": 0.7597 }, "geometry": { "type": "Point", "coordinates": [ 129.335358, 35.477875, 30.0 ] } },
{ "type": "Feature", "properties": { "value": 8.5614 }, "geometry": { "type": "Point", "coordinates": [ 129.330948, 35.478786, 30.0 ] } },
{ "type": "Feature", "properties": { "value": 44.182 }, "geometry": { "type": "Point", "coordinates": [ 129.332047, 35.478786, 30.0 ] } },
{ "type": "Feature", "properties": { "value": 62.232 }, "geometry": { "type": "Point", "coordinates": [ 129.33316, 35.478783, 30.0 ] } },
{ "type": "Feature", "properties": { "value": 26.975 }, "geometry": { "type": "Point", "coordinates": [ 129.334259, 35.478779, 30.0 ] } },
{ "type": "Feature", "properties": { "value": 4.0886 }, "geometry": { "type": "Point", "coordinates": [ 129.335358, 35.478775, 30.0 ] } },
{ "type": "Feature", "properties": { "value": 3.3318 }, "geometry": { "type": "Point", "coordinates": [ 129.330948, 35.479691, 30.0 ] } },
{ "type": "Feature", "properties": { "value": 26.502 }, "geometry": { "type": "Point", "coordinates": [ 129.332062, 35.479687, 30.0 ] } },
{ "type": "Feature", "properties": { "value": 60.274 }, "geometry": { "type": "Point", "coordinates": [ 129.33316, 35.479683, 30.0 ] } },
{ "type": "Feature", "properties": { "value": 45.202 }, "geometry": { "type": "Point", "coordinates": [ 129.334259, 35.479679, 30.0 ] } },
{ "type": "Feature", "properties": { "value": 12.777 }, "geometry": { "type": "Point", "coordinates": [ 129.335358, 35.479675, 30.0 ] } },
{ "type": "Feature", "properties": { "value": 1.3599 }, "geometry": { "type": "Point", "coordinates": [ 129.336456, 35.479675, 30.0 ] } },
{ "type": "Feature", "properties": { "value": 0.9856 }, "geometry": { "type": "Point", "coordinates": [ 129.330963, 35.480591, 30.0 ] } },
{ "type": "Feature", "properties": { "value": 13.399 }, "geometry": { "type": "Point", "coordinates": [ 129.332062, 35.480587, 30.0 ] } },
{ "type": "Feature", "properties": { "value": 47.531 }, "geometry": { "type": "Point", "coordinates": [ 129.33316, 35.480583, 30.0 ] } },
{ "type": "Feature", "properties": { "value": 58.315 }, "geometry": { "type": "Point", "coordinates": [ 129.334259, 35.480579, 30.0 ] } },
{ "type": "Feature", "properties": { "value": 28.262 }, "geometry": { "type": "Point", "coordinates": [ 129.335358, 35.480579, 30.0 ] } },
{ "type": "Feature", "properties": { "value": 6.2833 }, "geometry": { "type": "Point", "coordinates": [ 129.336472, 35.480576, 30.0 ] } },
{ "type": "Feature", "properties": { "value": 0.4439 }, "geometry": { "type": "Point", "coordinates": [ 129.33757, 35.480572, 30.0 ] } },
{ "type": "Feature", "properties": { "value": 5.7544 }, "geometry": { "type": "Point", "coordinates": [ 129.332062, 35.481487, 30.0 ] } },
{ "type": "Feature", "properties": { "value": 30.36 }, "geometry": { "type": "Point", "coordinates": [ 129.33316, 35.481487, 30.0 ] } },
{ "type": "Feature", "properties": { "value": 56.558 }, "geometry": { "type": "Point", "coordinates": [ 129.334259, 35.481483, 30.0 ] } },
{ "type": "Feature", "properties": { "value": 43.934 }, "geometry": { "type": "Point", "coordinates": [ 129.335373, 35.48148, 30.0 ] } },
{ "type": "Feature", "properties": { "value": 16.753 }, "geometry": { "type": "Point", "coordinates": [ 129.336472, 35.481476, 30.0 ] } },
{ "type": "Feature", "properties": { "value": 3.663 }, "geometry": { "type": "Point", "coordinates": [ 129.33757, 35.481472, 30.0 ] } },
{ "type": "Feature", "properties": { "value": 0.2248 }, "geometry": { "type": "Point", "coordinates": [ 129.338669, 35.481472, 30.0 ] } },
{ "type": "Feature", "properties": { "value": 2.2586 }, "geometry": { "type": "Point", "coordinates": [ 129.332062, 35.482391, 30.0 ] } },
{ "type": "Feature", "properties": { "value": 16.501 }, "geometry": { "type": "Point", "coordinates": [ 129.333176, 35.482388, 30.0 ] } },
{ "type": "Feature", "properties": { "value": 43.7 }, "geometry": { "type": "Point", "coordinates": [ 129.334274, 35.482384, 30.0 ] } },
{ "type": "Feature", "properties": { "value": 51.303 }, "geometry": { "type": "Point", "coordinates": [ 129.335373, 35.48238, 30.0 ] } },
{ "type": "Feature", "properties": { "value": 30.859 }, "geometry": { "type": "Point", "coordinates": [ 129.336472, 35.482376, 30.0 ] } },
{ "type": "Feature", "properties": { "value": 10.979 }, "geometry": { "type": "Point", "coordinates": [ 129.33757, 35.482376, 30.0 ] } },
{ "type": "Feature", "properties": { "value": 2.6204 }, "geometry": { "type": "Point", "coordinates": [ 129.338684, 35.482372, 30.0 ] } },
{ "type": "Feature", "properties": { "value": 0.3103 }, "geometry": { "type": "Point", "coordinates": [ 129.339783, 35.482368, 30.0 ] } },
{ "type": "Feature", "properties": { "value": 0.7967 }, "geometry": { "type": "Point", "coordinates": [ 129.332077, 35.483292, 30.0 ] } },
{ "type": "Feature", "properties": { "value": 8.2188 }, "geometry": { "type": "Point", "coordinates": [ 129.333176, 35.483288, 30.0 ] } },
{ "type": "Feature", "properties": { "value": 28.719 }, "geometry": { "type": "Point", "coordinates": [ 129.334274, 35.483284, 30.0 ] } },
{ "type": "Feature", "properties": { "value": 46.947 }, "geometry": { "type": "Point", "coordinates": [ 129.335373, 35.48328, 30.0 ] } },
{ "type": "Feature", "properties": { "value": 41.241 }, "geometry": { "type": "Point", "coordinates": [ 129.336472, 35.48328, 30.0 ] } },
{ "type": "Feature", "properties": { "value": 21.922 }, "geometry": { "type": "Point", "coordinates": [ 129.337585, 35.483276, 30.0 ] } },
{ "type": "Feature", "properties": { "value": 8.0018 }, "geometry": { "type": "Point", "coordinates": [ 129.338684, 35.483273, 30.0 ] } },
{ "type": "Feature", "properties": { "value": 2.2467 }, "geometry": { "type": "Point", "coordinates": [ 129.339783, 35.483269, 30.0 ] } },
{ "type": "Feature", "properties": { "value": 0.4391 }, "geometry": { "type": "Point", "coordinates": [ 129.340881, 35.483265, 30.0 ] } },
{ "type": "Feature", "properties": { "value": 3.782 }, "geometry": { "type": "Point", "coordinates": [ 129.333176, 35.484188, 30.0 ] } },
{ "type": "Feature", "properties": { "value": 16.497 }, "geometry": { "type": "Point", "coordinates": [ 129.334274, 35.484188, 30.0 ] } },
{ "type": "Feature", "properties": { "value": 35.459 }, "geometry": { "type": "Point", "coordinates": [ 129.335373, 35.484184, 30.0 ] } },
{ "type": "Feature", "properties": { "value": 42.744 }, "geometry": { "type": "Point", "coordinates": [ 129.336487, 35.48418, 30.0 ] } },
{ "type": "Feature", "properties": { "value": 32.047 }, "geometry": { "type": "Point", "coordinates": [ 129.337585, 35.484177, 30.0 ] } },
{ "type": "Feature", "properties": { "value": 16.591 }, "geometry": { "type": "Point", "coordinates": [ 129.338684, 35.484173, 30.0 ] } },
{ "type": "Feature", "properties": { "value": 6.5724 }, "geometry": { "type": "Point", "coordinates": [ 129.339783, 35.484173, 30.0 ] } },
{ "type": "Feature", "properties": { "value": 2.1221 }, "geometry": { "type": "Point", "coordinates": [ 129.340897, 35.484169, 30.0 ] } },
{ "type": "Feature", "properties": { "value": 0.5336 }, "geometry": { "type": "Point", "coordinates": [ 129.341995, 35.484165, 30.0 ] } },
{ "type": "Feature", "properties": { "value": 1.543 }, "geometry": { "type": "Point", "coordinates": [ 129.333176, 35.485092, 30.0 ] } },
{ "type": "Feature", "properties": { "value": 8.4078 }, "geometry": { "type": "Point", "coordinates": [ 129.334274, 35.485088, 30.0 ] } },
{ "type": "Feature", "properties": { "value": 22.991 }, "geometry": { "type": "Point", "coordinates": [ 129.335388, 35.485085, 30.0 ] } },
{ "type": "Feature", "properties": { "value": 36.372 }, "geometry": { "type": "Point", "coordinates": [ 129.336487, 35.485081, 30.0 ] } },
{ "type": "Feature", "properties": { "value": 36.595 }, "geometry": { "type": "Point", "coordinates": [ 129.337585, 35.485077, 30.0 ] } },
{ "type": "Feature", "properties": { "value": 25.653 }, "geometry": { "type": "Point", "coordinates": [ 129.338684, 35.485077, 30.0 ] } },
{ "type": "Feature", "properties": { "value": 13.682 }, "geometry": { "type": "Point", "coordinates": [ 129.339798, 35.485073, 30.0 ] } },
{ "type": "Feature", "properties": { "value": 5.9106 }, "geometry": { "type": "Point", "coordinates": [ 129.340897, 35.485069, 30.0 ] } },
{ "type": "Feature", "properties": { "value": 2.1583 }, "geometry": { "type": "Point", "coordinates": [ 129.341995, 35.485065, 30.0 ] } },
{ "type": "Feature", "properties": { "value": 0.6417 }, "geometry": { "type": "Point", "coordinates": [ 129.343094, 35.485062, 30.0 ] } },
{ "type": "Feature", "properties": { "value": 0.4759 }, "geometry": { "type": "Point", "coordinates": [ 129.333176, 35.485992, 30.0 ] } },
{ "type": "Feature", "properties": { "value": 3.8097 }, "geometry": { "type": "Point", "coordinates": [ 129.33429, 35.485989, 30.0 ] } },
{ "type": "Feature", "properties": { "value": 12.968 }, "geometry": { "type": "Point", "coordinates": [ 129.335388, 35.485985, 30.0 ] } },
{ "type": "Feature", "properties": { "value": 26.106 }, "geometry": { "type": "Point", "coordinates": [ 129.336487, 35.485981, 30.0 ] } },
{ "type": "Feature", "properties": { "value": 34.132 }, "geometry": { "type": "Point", "coordinates": [ 129.337585, 35.485981, 30.0 ] } },
{ "type": "Feature", "properties": { "value": 31.262 }, "geometry": { "type": "Point", "coordinates": [ 129.338699, 35.485977, 30.0 ] } },
{ "type": "Feature", "properties": { "value": 21.606 }, "geometry": { "type": "Point", "coordinates": [ 129.339798, 35.485973, 30.0 ] } },
{ "type": "Feature", "properties": { "value": 11.975 }, "geometry": { "type": "Point", "coordinates": [ 129.340897, 35.48597, 30.0 ] } },
{ "type": "Feature", "properties": { "value": 5.6135 }, "geometry": { "type": "Point", "coordinates": [ 129.341995, 35.485966, 30.0 ] } },
{ "type": "Feature", "properties": { "value": 2.3137 }, "geometry": { "type": "Point", "coordinates": [ 129.343094, 35.485966, 30.0 ] } },
{ "type": "Feature", "properties": { "value": 0.8539 }, "geometry": { "type": "Point", "coordinates": [ 129.344208, 35.485962, 30.0 ] } },
{ "type": "Feature", "properties": { "value": 0.2011 }, "geometry": { "type": "Point", "coordinates": [ 129.345306, 35.485958, 30.0 ] } },
{ "type": "Feature", "properties": { "value": 1.5238 }, "geometry": { "type": "Point", "coordinates": [ 129.33429, 35.486889, 30.0 ] } },
{ "type": "Feature", "properties": { "value": 6.4552 }, "geometry": { "type": "Point", "coordinates": [ 129.335388, 35.486889, 30.0 ] } },
{ "type": "Feature", "properties": { "value": 16.16 }, "geometry": { "type": "Point", "coordinates": [ 129.336487, 35.486885, 30.0 ] } },
{ "type": "Feature", "properties": { "value": 26.684 }, "geometry": { "type": "Point", "coordinates": [ 129.337601, 35.486881, 30.0 ] } },
{ "type": "Feature", "properties": { "value": 30.944 }, "geometry": { "type": "Point", "coordinates": [ 129.338699, 35.486877, 30.0 ] } },
{ "type": "Feature", "properties": { "value": 26.986 }, "geometry": { "type": "Point", "coordinates": [ 129.339798, 35.486874, 30.0 ] } },
{ "type": "Feature", "properties": { "value": 18.817 }, "geometry": { "type": "Point", "coordinates": [ 129.340897, 35.486874, 30.0 ] } },
{ "type": "Feature", "properties": { "value": 11.025 }, "geometry": { "type": "Point", "coordinates": [ 129.341995, 35.48687, 30.0 ] } },
{ "type": "Feature", "properties": { "value": 5.6739 }, "geometry": { "type": "Point", "coordinates": [ 129.343109, 35.486866, 30.0 ] } },
{ "type": "Feature", "properties": { "value": 2.6512 }, "geometry": { "type": "Point", "coordinates": [ 129.344208, 35.486862, 30.0 ] } },
{ "type": "Feature", "properties": { "value": 1.1318 }, "geometry": { "type": "Point", "coordinates": [ 129.345306, 35.486858, 30.0 ] } },
{ "type": "Feature", "properties": { "value": 0.4398 }, "geometry": { "type": "Point", "coordinates": [ 129.346405, 35.486855, 30.0 ] } },
{ "type": "Feature", "properties": { "value": 0.0479 }, "geometry": { "type": "Point", "coordinates": [ 129.347519, 35.486855, 30.0 ] } },
{ "type": "Feature", "properties": { "value": 0.4916 }, "geometry": { "type": "Point", "coordinates": [ 129.33429, 35.487793, 30.0 ] } },
{ "type": "Feature", "properties": { "value": 2.878 }, "geometry": { "type": "Point", "coordinates": [ 129.335388, 35.487789, 30.0 ] } },
{ "type": "Feature", "properties": { "value": 8.8034 }, "geometry": { "type": "Point", "coordinates": [ 129.336502, 35.487785, 30.0 ] } },
{ "type": "Feature", "properties": { "value": 17.845 }, "geometry": { "type": "Point", "coordinates": [ 129.337601, 35.487782, 30.0 ] } },
{ "type": "Feature", "properties": { "value": 25.499 }, "geometry": { "type": "Point", "coordinates": [ 129.338699, 35.487778, 30.0 ] } },
{ "type": "Feature", "properties": { "value": 27.488 }, "geometry": { "type": "Point", "coordinates": [ 129.339798, 35.487778, 30.0 ] } },
{ "type": "Feature", "properties": { "value": 23.698 }, "geometry": { "type": "Point", "coordinates": [ 129.340912, 35.487774, 30.0 ] } },
{ "type": "Feature", "properties": { "value": 17.032 }, "geometry": { "type": "Point", "coordinates": [ 129.34201, 35.48777, 30.0 ] } },
{ "type": "Feature", "properties": { "value": 10.648 }, "geometry": { "type": "Point", "coordinates": [ 129.343109, 35.487766, 30.0 ] } },
{ "type": "Feature", "properties": { "value": 5.9907 }, "geometry": { "type": "Point", "coordinates": [ 129.344208, 35.487762, 30.0 ] } },
{ "type": "Feature", "properties": { "value": 3.1265 }, "geometry": { "type": "Point", "coordinates": [ 129.345306, 35.487759, 30.0 ] } },
{ "type": "Feature", "properties": { "value": 1.5473 }, "geometry": { "type": "Point", "coordinates": [ 129.34642, 35.487759, 30.0 ] } },
{ "type": "Feature", "properties": { "value": 0.7176 }, "geometry": { "type": "Point", "coordinates": [ 129.347519, 35.487755, 30.0 ] } },
{ "type": "Feature", "properties": { "value": 0.2743 }, "geometry": { "type": "Point", "coordinates": [ 129.348618, 35.487751, 30.0 ] } },
{ "type": "Feature", "properties": { "value": 0.0105 }, "geometry": { "type": "Point", "coordinates": [ 129.379471, 35.487659, 30.0 ] } },
{ "type": "Feature", "properties": { "value": 0.0152 }, "geometry": { "type": "Point", "coordinates": [ 129.380569, 35.487656, 30.0 ] } },
{ "type": "Feature", "properties": { "value": 0.0159 }, "geometry": { "type": "Point", "coordinates": [ 129.381683, 35.487652, 30.0 ] } },
{ "type": "Feature", "properties": { "value": 1.1404 }, "geometry": { "type": "Point", "coordinates": [ 129.335403, 35.488689, 30.0 ] } },
{ "type": "Feature", "properties": { "value": 4.2886 }, "geometry": { "type": "Point", "coordinates": [ 129.336502, 35.488686, 30.0 ] } },
{ "type": "Feature", "properties": { "value": 10.454 }, "geometry": { "type": "Point", "coordinates": [ 129.337601, 35.488682, 30.0 ] } },
{ "type": "Feature", "properties": { "value": 18.075 }, "geometry": { "type": "Point", "coordinates": [ 129.338699, 35.488682, 30.0 ] } },
{ "type": "Feature", "properties": { "value": 23.639 }, "geometry": { "type": "Point", "coordinates": [ 129.339813, 35.488678, 30.0 ] } },
{ "type": "Feature", "properties": { "value": 24.713 }, "geometry": { "type": "Point", "coordinates": [ 129.340912, 35.488674, 30.0 ] } },
{ "type": "Feature", "properties": { "value": 21.433 }, "geometry": { "type": "Point", "coordinates": [ 129.34201, 35.48867, 30.0 ] } },
{ "type": "Feature", "properties": { "value": 16.027 }, "geometry": { "type": "Point", "coordinates": [ 129.343109, 35.488667, 30.0 ] } },
{ "type": "Feature", "properties": { "value": 10.707 }, "geometry": { "type": "Point", "coordinates": [ 129.344208, 35.488667, 30.0 ] } },
{ "type": "Feature", "properties": { "value": 6.5793 }, "geometry": { "type": "Point", "coordinates": [ 129.345322, 35.488663, 30.0 ] } },
{ "type": "Feature", "properties": { "value": 3.7912 }, "geometry": { "type": "Point", "coordinates": [ 129.34642, 35.488659, 30.0 ] } },
{ "type": "Feature", "properties": { "value": 2.0458 }, "geometry": { "type": "Point", "coordinates": [ 129.347519, 35.488655, 30.0 ] } },
{ "type": "Feature", "properties": { "value": 1.0543 }, "geometry": { "type": "Point", "coordinates": [ 129.348618, 35.488651, 30.0 ] } },
{ "type": "Feature", "properties": { "value": 0.4945 }, "geometry": { "type": "Point", "coordinates": [ 129.349731, 35.488647, 30.0 ] } },
{ "type": "Feature", "properties": { "value": 0.1948 }, "geometry": { "type": "Point", "coordinates": [ 129.35083, 35.488647, 30.0 ] } },
{ "type": "Feature", "properties": { "value": 0.018 }, "geometry": { "type": "Point", "coordinates": [ 129.376175, 35.488571, 30.0 ] } },
{ "type": "Feature", "properties": { "value": 0.0408 }, "geometry": { "type": "Point", "coordinates": [ 129.377274, 35.488567, 30.0 ] } },
{ "type": "Feature", "properties": { "value": 0.0538 }, "geometry": { "type": "Point", "coordinates": [ 129.378372, 35.488564, 30.0 ] } },
{ "type": "Feature", "properties": { "value": 0.0596 }, "geometry": { "type": "Point", "coordinates": [ 129.379471, 35.48856, 30.0 ] } },
{ "type": "Feature", "properties": { "value": 0.0614 }, "geometry": { "type": "Point", "coordinates": [ 129.380585, 35.488556, 30.0 ] } },
{ "type": "Feature", "properties": { "value": 0.0577 }, "geometry": { "type": "Point", "coordinates": [ 129.381683, 35.488552, 30.0 ] } },
{ "type": "Feature", "properties": { "value": 0.349 }, "geometry": { "type": "Point", "coordinates": [ 129.335403, 35.48959, 30.0 ] } },
{ "type": "Feature", "properties": { "value": 1.8763 }, "geometry": { "type": "Point", "coordinates": [ 129.336502, 35.48959, 30.0 ] } },
{ "type": "Feature", "properties": { "value": 5.454 }, "geometry": { "type": "Point", "coordinates": [ 129.337601, 35.489586, 30.0 ] } },
{ "type": "Feature", "properties": { "value": 11.257 }, "geometry": { "type": "Point", "coordinates": [ 129.338715, 35.489582, 30.0 ] } },
{ "type": "Feature", "properties": { "value": 17.579 }, "geometry": { "type": "Point", "coordinates": [ 129.339813, 35.489578, 30.0 ] } },
{ "type": "Feature", "properties": { "value": 21.955 }, "geometry": { "type": "Point", "coordinates": [ 129.340912, 35.489574, 30.0 ] } },
{ "type": "Feature", "properties": { "value": 22.754 }, "geometry": { "type": "Point", "coordinates": [ 129.34201, 35.489571, 30.0 ] } },
{ "type": "Feature", "properties": { "value": 20.146 }, "geometry": { "type": "Point", "coordinates": [ 129.343109, 35.489571, 30.0 ] } },
{ "type": "Feature", "properties": { "value": 15.761 }, "geometry": { "type": "Point", "coordinates": [ 129.344223, 35.489567, 30.0 ] } },
{ "type": "Feature", "properties": { "value": 11.233 }, "geometry": { "type": "Point", "coordinates": [ 129.345322, 35.489563, 30.0 ] } },
{ "type": "Feature", "properties": { "value": 7.4031 }, "geometry": { "type": "Point", "coordinates": [ 129.34642, 35.489559, 30.0 ] } },
{ "type": "Feature", "properties": { "value": 4.5437 }, "geometry": { "type": "Point", "coordinates": [ 129.347519, 35.489555, 30.0 ] } },
{ "type": "Feature", "properties": { "value": 2.6444 }, "geometry": { "type": "Point", "coordinates": [ 129.348633, 35.489555, 30.0 ] } },
{ "type": "Feature", "properties": { "value": 1.483 }, "geometry": { "type": "Point", "coordinates": [ 129.349731, 35.489552, 30.0 ] } },
{ "type": "Feature", "properties": { "value": 0.8055 }, "geometry": { "type": "Point", "coordinates": [ 129.35083, 35.489548, 30.0 ] } },
{ "type": "Feature", "properties": { "value": 0.4077 }, "geometry": { "type": "Point", "coordinates": [ 129.351929, 35.489544, 30.0 ] } },
{ "type": "Feature", "properties": { "value": 0.1788 }, "geometry": { "type": "Point", "coordinates": [ 129.353027, 35.48954, 30.0 ] } },
{ "type": "Feature", "properties": { "value": 0.0353 }, "geometry": { "type": "Point", "coordinates": [ 129.373978, 35.489479, 30.0 ] } },
{ "type": "Feature", "properties": { "value": 0.0864 }, "geometry": { "type": "Point", "coordinates": [ 129.375076, 35.489475, 30.0 ] } },
{ "type": "Feature", "properties": { "value": 0.1106 }, "geometry": { "type": "Point", "coordinates": [ 129.376175, 35.489471, 30.0 ] } },
{ "type": "Feature", "properties": { "value": 0.131 }, "geometry": { "type": "Point", "coordinates": [ 129.377274, 35.489468, 30.0 ] } },
{ "type": "Feature", "properties": { "value": 0.1455 }, "geometry": { "type": "Point", "coordinates": [ 129.378387, 35.489464, 30.0 ] } },
{ "type": "Feature", "properties": { "value": 0.1514 }, "geometry": { "type": "Point", "coordinates": [ 129.379486, 35.48946, 30.0 ] } },
{ "type": "Feature", "properties": { "value": 0.1485 }, "geometry": { "type": "Point", "coordinates": [ 129.380585, 35.489456, 30.0 ] } },
{ "type": "Feature", "properties": { "value": 0.1372 }, "geometry": { "type": "Point", "coordinates": [ 129.381683, 35.489452, 30.0 ] } },
{ "type": "Feature", "properties": { "value": 0.7099 }, "geometry": { "type": "Point", "coordinates": [ 129.336502, 35.49049, 30.0 ] } },
{ "type": "Feature", "properties": { "value": 2.5205 }, "geometry": { "type": "Point", "coordinates": [ 129.337616, 35.490486, 30.0 ] } },
{ "type": "Feature", "properties": { "value": 6.1557 }, "geometry": { "type": "Point", "coordinates": [ 129.338715, 35.490482, 30.0 ] } },
{ "type": "Feature", "properties": { "value": 11.366 }, "geometry": { "type": "Point", "coordinates": [ 129.339813, 35.490479, 30.0 ] } },
{ "type": "Feature", "properties": { "value": 16.835 }, "geometry": { "type": "Point", "coordinates": [ 129.340912, 35.490479, 30.0 ] } },
{ "type": "Feature", "properties": { "value": 20.572 }, "geometry": { "type": "Point", "coordinates": [ 129.34201, 35.490475, 30.0 ] } },
{ "type": "Feature", "properties": { "value": 21.349 }, "geometry": { "type": "Point", "coordinates": [ 129.343124, 35.490471, 30.0 ] } },
{ "type": "Feature", "properties": { "value": 19.467 }, "geometry": { "type": "Point", "coordinates": [ 129.344223, 35.490467, 30.0 ] } },
{ "type": "Feature", "properties": { "value": 15.997 }, "geometry": { "type": "Point", "coordinates": [ 129.345322, 35.490463, 30.0 ] } },
{ "type": "Feature", "properties": { "value": 12.027 }, "geometry": { "type": "Point", "coordinates": [ 129.34642, 35.490459, 30.0 ] } },
{ "type": "Feature", "properties": { "value": 8.3729 }, "geometry": { "type": "Point", "coordinates": [ 129.347534, 35.490459, 30.0 ] } },
{ "type": "Feature", "properties": { "value": 5.4676 }, "geometry": { "type": "Point", "coordinates": [ 129.348633, 35.490456, 30.0 ] } },
{ "type": "Feature", "properties": { "value": 3.4125 }, "geometry": { "type": "Point", "coordinates": [ 129.349731, 35.490452, 30.0 ] } },
{ "type": "Feature", "properties": { "value": 2.0868 }, "geometry": { "type": "Point", "coordinates": [ 129.35083, 35.490448, 30.0 ] } },
{ "type": "Feature", "properties": { "value": 1.2572 }, "geometry": { "type": "Point", "coordinates": [ 129.351929, 35.490444, 30.0 ] } },
{ "type": "Feature", "properties": { "value": 0.7534 }, "geometry": { "type": "Point", "coordinates": [ 129.353043, 35.49044, 30.0 ] } },
{ "type": "Feature", "properties": { "value": 0.4428 }, "geometry": { "type": "Point", "coordinates": [ 129.354141, 35.49044, 30.0 ] } },
{ "type": "Feature", "properties": { "value": 0.259 }, "geometry": { "type": "Point", "coordinates": [ 129.35524, 35.490437, 30.0 ] } },
{ "type": "Feature", "properties": { "value": 0.1434 }, "geometry": { "type": "Point", "coordinates": [ 129.356339, 35.490433, 30.0 ] } },
{ "type": "Feature", "properties": { "value": 0.0397 }, "geometry": { "type": "Point", "coordinates": [ 129.357452, 35.490429, 30.0 ] } },
{ "type": "Feature", "properties": { "value": 0.0062 }, "geometry": { "type": "Point", "coordinates": [ 129.369568, 35.490391, 30.0 ] } },
{ "type": "Feature", "properties": { "value": 0.0541 }, "geometry": { "type": "Point", "coordinates": [ 129.370667, 35.490391, 30.0 ] } },
{ "type": "Feature", "properties": { "value": 0.0978 }, "geometry": { "type": "Point", "coordinates": [ 129.371765, 35.490387, 30.0 ] } },
{ "type": "Feature", "properties": { "value": 0.1464 }, "geometry": { "type": "Point", "coordinates": [ 129.372879, 35.490383, 30.0 ] } },
{ "type": "Feature", "properties": { "value": 0.1894 }, "geometry": { "type": "Point", "coordinates": [ 129.373978, 35.490379, 30.0 ] } },
{ "type": "Feature", "properties": { "value": 0.2267 }, "geometry": { "type": "Point", "coordinates": [ 129.375076, 35.490376, 30.0 ] } },
{ "type": "Feature", "properties": { "value": 0.2628 }, "geometry": { "type": "Point", "coordinates": [ 129.376175, 35.490372, 30.0 ] } },
{ "type": "Feature", "properties": { "value": 0.295 }, "geometry": { "type": "Point", "coordinates": [ 129.377289, 35.490368, 30.0 ] } },
{ "type": "Feature", "properties": { "value": 0.3134 }, "geometry": { "type": "Point", "coordinates": [ 129.378387, 35.490364, 30.0 ] } },
{ "type": "Feature", "properties": { "value": 0.3199 }, "geometry": { "type": "Point", "coordinates": [ 129.379486, 35.49036, 30.0 ] } },
{ "type": "Feature", "properties": { "value": 0.3103 }, "geometry": { "type": "Point", "coordinates": [ 129.380585, 35.490356, 30.0 ] } },
{ "type": "Feature", "properties": { "value": 0.2845 }, "geometry": { "type": "Point", "coordinates": [ 129.381683, 35.490356, 30.0 ] } },
{ "type": "Feature", "properties": { "value": 0.1396 }, "geometry": { "type": "Point", "coordinates": [ 129.336517, 35.49139, 30.0 ] } },
{ "type": "Feature", "properties": { "value": 1.018 }, "geometry": { "type": "Point", "coordinates": [ 129.337616, 35.491386, 30.0 ] } },
{ "type": "Feature", "properties": { "value": 2.9747 }, "geometry": { "type": "Point", "coordinates": [ 129.338715, 35.491383, 30.0 ] } },
{ "type": "Feature", "properties": { "value": 6.4234 }, "geometry": { "type": "Point", "coordinates": [ 129.339813, 35.491383, 30.0 ] } },
{ "type": "Feature", "properties": { "value": 11.128 }, "geometry": { "type": "Point", "coordinates": [ 129.340927, 35.491379, 30.0 ] } },
{ "type": "Feature", "properties": { "value": 15.872 }, "geometry": { "type": "Point", "coordinates": [ 129.342026, 35.491375, 30.0 ] } },
{ "type": "Feature", "properties": { "value": 19.166 }, "geometry": { "type": "Point", "coordinates": [ 129.343124, 35.491371, 30.0 ] } },
{ "type": "Feature", "properties": { "value": 20.189 }, "geometry": { "type": "Point", "coordinates": [ 129.344223, 35.491367, 30.0 ] } },
{ "type": "Feature", "properties": { "value": 19.012 }, "geometry": { "type": "Point", "coordinates": [ 129.345322, 35.491367, 30.0 ] } },
{ "type": "Feature", "properties": { "value": 16.28 }, "geometry": { "type": "Point", "coordinates": [ 129.346436, 35.491364, 30.0 ] } },
{ "type": "Feature", "properties": { "value": 12.82 }, "geometry": { "type": "Point", "coordinates": [ 129.347534, 35.49136, 30.0 ] } },
{ "type": "Feature", "properties": { "value": 9.3592 }, "geometry": { "type": "Point", "coordinates": [ 129.348633, 35.491356, 30.0 ] } },
{ "type": "Feature", "properties": { "value": 6.4734 }, "geometry": { "type": "Point", "coordinates": [ 129.349731, 35.491352, 30.0 ] } },
{ "type": "Feature", "properties": { "value": 4.3663 }, "geometry": { "type": "Point", "coordinates": [ 129.350845, 35.491348, 30.0 ] } },
{ "type": "Feature", "properties": { "value": 2.9078 }, "geometry": { "type": "Point", "coordinates": [ 129.351944, 35.491348, 30.0 ] } },
{ "type": "Feature", "properties": { "value": 1.919 }, "geometry": { "type": "Point", "coordinates": [ 129.353043, 35.491344, 30.0 ] } },
{ "type": "Feature", "properties": { "value": 1.2767 }, "geometry": { "type": "Point", "coordinates": [ 129.354141, 35.491341, 30.0 ] } },
{ "type": "Feature", "properties": { "value": 0.8665 }, "geometry": { "type": "Point", "coordinates": [ 129.35524, 35.491337, 30.0 ] } },
{ "type": "Feature", "properties": { "value": 0.6013 }, "geometry": { "type": "Point", "coordinates": [ 129.356354, 35.491333, 30.0 ] } },
{ "type": "Feature", "properties": { "value": 0.4356 }, "geometry": { "type": "Point", "coordinates": [ 129.357452, 35.491329, 30.0 ] } },
{ "type": "Feature", "properties": { "value": 0.32 }, "geometry": { "type": "Point", "coordinates": [ 129.358551, 35.491325, 30.0 ] } },
{ "type": "Feature", "properties": { "value": 0.2431 }, "geometry": { "type": "Point", "coordinates": [ 129.35965, 35.491325, 30.0 ] } },
{ "type": "Feature", "properties": { "value": 0.1945 }, "geometry": { "type": "Point", "coordinates": [ 129.360764, 35.491322, 30.0 ] } },
{ "type": "Feature", "properties": { "value": 0.1554 }, "geometry": { "type": "Point", "coordinates": [ 129.361862, 35.491318, 30.0 ] } },
{ "type": "Feature", "properties": { "value": 0.1416 }, "geometry": { "type": "Point", "coordinates": [ 129.362961, 35.491314, 30.0 ] } },
{ "type": "Feature", "properties": { "value": 0.1271 }, "geometry": { "type": "Point", "coordinates": [ 129.364059, 35.49131, 30.0 ] } },
{ "type": "Feature", "properties": { "value": 0.1259 }, "geometry": { "type": "Point", "coordinates": [ 129.365158, 35.491306, 30.0 ] } },
{ "type": "Feature", "properties": { "value": 0.1324 }, "geometry": { "type": "Point", "coordinates": [ 129.366272, 35.491302, 30.0 ] } },
{ "type": "Feature", "properties": { "value": 0.1434 }, "geometry": { "type": "Point", "coordinates": [ 129.367371, 35.491299, 30.0 ] } },
{ "type": "Feature", "properties": { "value": 0.1643 }, "geometry": { "type": "Point", "coordinates": [ 129.368469, 35.491299, 30.0 ] } },
{ "type": "Feature", "properties": { "value": 0.1982 }, "geometry": { "type": "Point", "coordinates": [ 129.369568, 35.491295, 30.0 ] } },
{ "type": "Feature", "properties": { "value": 0.239 }, "geometry": { "type": "Point", "coordinates": [ 129.370682, 35.491291, 30.0 ] } },
{ "type": "Feature", "properties": { "value": 0.2926 }, "geometry": { "type": "Point", "coordinates": [ 129.37178, 35.491287, 30.0 ] } },
{ "type": "Feature", "properties": { "value": 0.3556 }, "geometry": { "type": "Point", "coordinates": [ 129.372879, 35.491283, 30.0 ] } },
{ "type": "Feature", "properties": { "value": 0.4162 }, "geometry": { "type": "Point", "coordinates": [ 129.373978, 35.49128, 30.0 ] } },
{ "type": "Feature", "properties": { "value": 0.478 }, "geometry": { "type": "Point", "coordinates": [ 129.375076, 35.491276, 30.0 ] } },
{ "type": "Feature", "properties": { "value": 0.5366 }, "geometry": { "type": "Point", "coordinates": [ 129.37619, 35.491272, 30.0 ] } },
{ "type": "Feature", "properties": { "value": 0.5828 }, "geometry": { "type": "Point", "coordinates": [ 129.377289, 35.491268, 30.0 ] } },
{ "type": "Feature", "properties": { "value": 0.6058 }, "geometry": { "type": "Point", "coordinates": [ 129.378387, 35.491268, 30.0 ] } },
{ "type": "Feature", "properties": { "value": 0.6069 }, "geometry": { "type": "Point", "coordinates": [ 129.379486, 35.491264, 30.0 ] } },
{ "type": "Feature", "properties": { "value": 0.5782 }, "geometry": { "type": "Point", "coordinates": [ 129.3806, 35.491261, 30.0 ] } },
{ "type": "Feature", "properties": { "value": 0.5226 }, "geometry": { "type": "Point", "coordinates": [ 129.381699, 35.491257, 30.0 ] } },
{ "type": "Feature", "properties": { "value": 0.3215 }, "geometry": { "type": "Point", "coordinates": [ 129.337616, 35.49229, 30.0 ] } },
{ "type": "Feature", "properties": { "value": 1.2731 }, "geometry": { "type": "Point", "coordinates": [ 129.338715, 35.492287, 30.0 ] } },
{ "type": "Feature", "properties": { "value": 3.2116 }, "geometry": { "type": "Point", "coordinates": [ 129.339828, 35.492283, 30.0 ] } },
{ "type": "Feature", "properties": { "value": 6.433 }, "geometry": { "type": "Point", "coordinates": [ 129.340927, 35.492279, 30.0 ] } },
{ "type": "Feature", "properties": { "value": 10.598 }, "geometry": { "type": "Point", "coordinates": [ 129.342026, 35.492275, 30.0 ] } },
{ "type": "Feature", "properties": { "value": 14.752 }, "geometry": { "type": "Point", "coordinates": [ 129.343124, 35.492271, 30.0 ] } },
{ "type": "Feature", "properties": { "value": 17.781 }, "geometry": { "type": "Point", "coordinates": [ 129.344223, 35.492271, 30.0 ] } },
{ "type": "Feature", "properties": { "value": 19.028 }, "geometry": { "type": "Point", "coordinates": [ 129.345337, 35.492268, 30.0 ] } },
{ "type": "Feature", "properties": { "value": 18.422 }, "geometry": { "type": "Point", "coordinates": [ 129.346436, 35.492264, 30.0 ] } },
{ "type": "Feature", "properties": { "value": 16.296 }, "geometry": { "type": "Point", "coordinates": [ 129.347534, 35.49226, 30.0 ] } },
{ "type": "Feature", "properties": { "value": 13.306 }, "geometry": { "type": "Point", "coordinates": [ 129.348633, 35.492256, 30.0 ] } },
{ "type": "Feature", "properties": { "value": 10.259 }, "geometry": { "type": "Point", "coordinates": [ 129.349747, 35.492252, 30.0 ] } },
{ "type": "Feature", "properties": { "value": 7.641 }, "geometry": { "type": "Point", "coordinates": [ 129.350845, 35.492252, 30.0 ] } },
{ "type": "Feature", "properties": { "value": 5.5517 }, "geometry": { "type": "Point", "coordinates": [ 129.351944, 35.492249, 30.0 ] } },
{ "type": "Feature", "properties": { "value": 3.9815 }, "geometry": { "type": "Point", "coordinates": [ 129.353043, 35.492245, 30.0 ] } },
{ "type": "Feature", "properties": { "value": 2.8677 }, "geometry": { "type": "Point", "coordinates": [ 129.354141, 35.492241, 30.0 ] } },
{ "type": "Feature", "properties": { "value": 2.0831 }, "geometry": { "type": "Point", "coordinates": [ 129.355255, 35.492237, 30.0 ] } },
{ "type": "Feature", "properties": { "value": 1.5432 }, "geometry": { "type": "Point", "coordinates": [ 129.356354, 35.492233, 30.0 ] } },
{ "type": "Feature", "properties": { "value": 1.174 }, "geometry": { "type": "Point", "coordinates": [ 129.357452, 35.492233, 30.0 ] } },
{ "type": "Feature", "properties": { "value": 0.9172 }, "geometry": { "type": "Point", "coordinates": [ 129.358551, 35.492229, 30.0 ] } },
{ "type": "Feature", "properties": { "value": 0.741 }, "geometry": { "type": "Point", "coordinates": [ 129.359665, 35.492226, 30.0 ] } },
{ "type": "Feature", "properties": { "value": 0.6128 }, "geometry": { "type": "Point", "coordinates": [ 129.360764, 35.492222, 30.0 ] } },
{ "type": "Feature", "properties": { "value": 0.5247 }, "geometry": { "type": "Point", "coordinates": [ 129.361862, 35.492218, 30.0 ] } },
{ "type": "Feature", "properties": { "value": 0.4677 }, "geometry": { "type": "Point", "coordinates": [ 129.362961, 35.492214, 30.0 ] } },
{ "type": "Feature", "properties": { "value": 0.4271 }, "geometry": { "type": "Point", "coordinates": [ 129.364059, 35.49221, 30.0 ] } },
{ "type": "Feature", "properties": { "value": 0.4093 }, "geometry": { "type": "Point", "coordinates": [ 129.365173, 35.49221, 30.0 ] } },
{ "type": "Feature", "properties": { "value": 0.4055 }, "geometry": { "type": "Point", "coordinates": [ 129.366272, 35.492207, 30.0 ] } },
{ "type": "Feature", "properties": { "value": 0.4181 }, "geometry": { "type": "Point", "coordinates": [ 129.367371, 35.492203, 30.0 ] } },
{ "type": "Feature", "properties": { "value": 0.446 }, "geometry": { "type": "Point", "coordinates": [ 129.368469, 35.492199, 30.0 ] } },
{ "type": "Feature", "properties": { "value": 0.4928 }, "geometry": { "type": "Point", "coordinates": [ 129.369583, 35.492195, 30.0 ] } },
{ "type": "Feature", "properties": { "value": 0.5528 }, "geometry": { "type": "Point", "coordinates": [ 129.370682, 35.492191, 30.0 ] } },
{ "type": "Feature", "properties": { "value": 0.6341 }, "geometry": { "type": "Point", "coordinates": [ 129.37178, 35.492188, 30.0 ] } },
{ "type": "Feature", "properties": { "value": 0.7211 }, "geometry": { "type": "Point", "coordinates": [ 129.372879, 35.492184, 30.0 ] } },
{ "type": "Feature", "properties": { "value": 0.8134 }, "geometry": { "type": "Point", "coordinates": [ 129.373978, 35.49218, 30.0 ] } },
{ "type": "Feature", "properties": { "value": 0.9074 }, "geometry": { "type": "Point", "coordinates": [ 129.375092, 35.49218, 30.0 ] } },
{ "type": "Feature", "properties": { "value": 0.9881 }, "geometry": { "type": "Point", "coordinates": [ 129.37619, 35.492176, 30.0 ] } },
{ "type": "Feature", "properties": { "value": 1.0497 }, "geometry": { "type": "Point", "coordinates": [ 129.377289, 35.492172, 30.0 ] } },
{ "type": "Feature", "properties": { "value": 1.0742 }, "geometry": { "type": "Point", "coordinates": [ 129.378387, 35.492168, 30.0 ] } },
{ "type": "Feature", "properties": { "value": 1.0579 }, "geometry": { "type": "Point", "coordinates": [ 129.379501, 35.492165, 30.0 ] } },
{ "type": "Feature", "properties": { "value": 0.9945 }, "geometry": { "type": "Point", "coordinates": [ 129.3806, 35.492161, 30.0 ] } },
{ "type": "Feature", "properties": { "value": 0.8883 }, "geometry": { "type": "Point", "coordinates": [ 129.381699, 35.492157, 30.0 ] } },
{ "type": "Feature", "properties": { "value": 0.4502 }, "geometry": { "type": "Point", "coordinates": [ 129.33873, 35.493187, 30.0 ] } },
{ "type": "Feature", "properties": { "value": 1.4311 }, "geometry": { "type": "Point", "coordinates": [ 129.339828, 35.493183, 30.0 ] } },
{ "type": "Feature", "properties": { "value": 3.3005 }, "geometry": { "type": "Point", "coordinates": [ 129.340927, 35.493179, 30.0 ] } },
{ "type": "Feature", "properties": { "value": 6.2318 }, "geometry": { "type": "Point", "coordinates": [ 129.342026, 35.493179, 30.0 ] } },
{ "type": "Feature", "properties": { "value": 9.9095 }, "geometry": { "type": "Point", "coordinates": [ 129.343124, 35.493176, 30.0 ] } },
{ "type": "Feature", "properties": { "value": 13.583 }, "geometry": { "type": "Point", "coordinates": [ 129.344238, 35.493172, 30.0 ] } },
{ "type": "Feature", "properties": { "value": 16.402 }, "geometry": { "type": "Point", "coordinates": [ 129.345337, 35.493168, 30.0 ] } },
{ "type": "Feature", "properties": { "value": 17.792 }, "geometry": { "type": "Point", "coordinates": [ 129.346436, 35.493164, 30.0 ] } },
{ "type": "Feature", "properties": { "value": 17.585 }, "geometry": { "type": "Point", "coordinates": [ 129.347534, 35.49316, 30.0 ] } },
{ "type": "Feature", "properties": { "value": 16.067 }, "geometry": { "type": "Point", "coordinates": [ 129.348648, 35.49316, 30.0 ] } },
{ "type": "Feature", "properties": { "value": 13.809 }, "geometry": { "type": "Point", "coordinates": [ 129.349747, 35.493156, 30.0 ] } },
{ "type": "Feature", "properties": { "value": 11.32 }, "geometry": { "type": "Point", "coordinates": [ 129.350845, 35.493153, 30.0 ] } },
{ "type": "Feature", "properties": { "value": 8.9652 }, "geometry": { "type": "Point", "coordinates": [ 129.351944, 35.493149, 30.0 ] } },
{ "type": "Feature", "properties": { "value": 6.9652 }, "geometry": { "type": "Point", "coordinates": [ 129.353043, 35.493145, 30.0 ] } },
{ "type": "Feature", "properties": { "value": 5.3721 }, "geometry": { "type": "Point", "coordinates": [ 129.354156, 35.493141, 30.0 ] } },
{ "type": "Feature", "properties": { "value": 4.1487 }, "geometry": { "type": "Point", "coordinates": [ 129.355255, 35.493141, 30.0 ] } },
{ "type": "Feature", "properties": { "value": 3.2254 }, "geometry": { "type": "Point", "coordinates": [ 129.356354, 35.493137, 30.0 ] } },
{ "type": "Feature", "properties": { "value": 2.5534 }, "geometry": { "type": "Point", "coordinates": [ 129.357452, 35.493134, 30.0 ] } },
{ "type": "Feature", "properties": { "value": 2.0582 }, "geometry": { "type": "Point", "coordinates": [ 129.358566, 35.49313, 30.0 ] } },
{ "type": "Feature", "properties": { "value": 1.7021 }, "geometry": { "type": "Point", "coordinates": [ 129.359665, 35.493126, 30.0 ] } },
{ "type": "Feature", "properties": { "value": 1.4379 }, "geometry": { "type": "Point", "coordinates": [ 129.360764, 35.493122, 30.0 ] } },
{ "type": "Feature", "properties": { "value": 1.2456 }, "geometry": { "type": "Point", "coordinates": [ 129.361862, 35.493118, 30.0 ] } },
{ "type": "Feature", "properties": { "value": 1.1075 }, "geometry": { "type": "Point", "coordinates": [ 129.362961, 35.493118, 30.0 ] } },
{ "type": "Feature", "properties": { "value": 1.0104 }, "geometry": { "type": "Point", "coordinates": [ 129.364075, 35.493114, 30.0 ] } },
{ "type": "Feature", "properties": { "value": 0.9566 }, "geometry": { "type": "Point", "coordinates": [ 129.365173, 35.493111, 30.0 ] } },
{ "type": "Feature", "properties": { "value": 0.9256 }, "geometry": { "type": "Point", "coordinates": [ 129.366272, 35.493107, 30.0 ] } },
{ "type": "Feature", "properties": { "value": 0.9264 }, "geometry": { "type": "Point", "coordinates": [ 129.367371, 35.493103, 30.0 ] } },
{ "type": "Feature", "properties": { "value": 0.9598 }, "geometry": { "type": "Point", "coordinates": [ 129.368484, 35.493099, 30.0 ] } },
{ "type": "Feature", "properties": { "value": 1.0155 }, "geometry": { "type": "Point", "coordinates": [ 129.369583, 35.493095, 30.0 ] } },
{ "type": "Feature", "properties": { "value": 1.0995 }, "geometry": { "type": "Point", "coordinates": [ 129.370682, 35.493092, 30.0 ] } },
{ "type": "Feature", "properties": { "value": 1.2031 }, "geometry": { "type": "Point", "coordinates": [ 129.37178, 35.493088, 30.0 ] } },
{ "type": "Feature", "properties": { "value": 1.3274 }, "geometry": { "type": "Point", "coordinates": [ 129.372894, 35.493088, 30.0 ] } },
{ "type": "Feature", "properties": { "value": 1.4556 }, "geometry": { "type": "Point", "coordinates": [ 129.373993, 35.493084, 30.0 ] } },
{ "type": "Feature", "properties": { "value": 1.581 }, "geometry": { "type": "Point", "coordinates": [ 129.375092, 35.49308, 30.0 ] } },
{ "type": "Feature", "properties": { "value": 1.6816 }, "geometry": { "type": "Point", "coordinates": [ 129.37619, 35.493076, 30.0 ] } },
{ "type": "Feature", "properties": { "value": 1.7487 }, "geometry": { "type": "Point", "coordinates": [ 129.377289, 35.493073, 30.0 ] } },
{ "type": "Feature", "properties": { "value": 1.7571 }, "geometry": { "type": "Point", "coordinates": [ 129.378403, 35.493069, 30.0 ] } },
{ "type": "Feature", "properties": { "value": 1.7011 }, "geometry": { "type": "Point", "coordinates": [ 129.379501, 35.493065, 30.0 ] } },
{ "type": "Feature", "properties": { "value": 1.5795 }, "geometry": { "type": "Point", "coordinates": [ 129.3806, 35.493061, 30.0 ] } },
{ "type": "Feature", "properties": { "value": 1.398 }, "geometry": { "type": "Point", "coordinates": [ 129.381699, 35.493057, 30.0 ] } },
{ "type": "Feature", "properties": { "value": 0.5414 }, "geometry": { "type": "Point", "coordinates": [ 129.339828, 35.494083, 30.0 ] } },
{ "type": "Feature", "properties": { "value": 1.5186 }, "geometry": { "type": "Point", "coordinates": [ 129.340927, 35.494083, 30.0 ] } },
{ "type": "Feature", "properties": { "value": 3.2698 }, "geometry": { "type": "Point", "coordinates": [ 129.342026, 35.49408, 30.0 ] } },
{ "type": "Feature", "properties": { "value": 5.8956 }, "geometry": { "type": "Point", "coordinates": [ 129.34314, 35.494076, 30.0 ] } },
{ "type": "Feature", "properties": { "value": 9.1284 }, "geometry": { "type": "Point", "coordinates": [ 129.344238, 35.494072, 30.0 ] } },
{ "type": "Feature", "properties": { "value": 12.388 }, "geometry": { "type": "Point", "coordinates": [ 129.345337, 35.494068, 30.0 ] } },
{ "type": "Feature", "properties": { "value": 15.001 }, "geometry": { "type": "Point", "coordinates": [ 129.346436, 35.494068, 30.0 ] } },
{ "type": "Feature", "properties": { "value": 16.525 }, "geometry": { "type": "Point", "coordinates": [ 129.347549, 35.494064, 30.0 ] } },
{ "type": "Feature", "properties": { "value": 16.832 }, "geometry": { "type": "Point", "coordinates": [ 129.348648, 35.494061, 30.0 ] } },
{ "type": "Feature", "properties": { "value": 15.965 }, "geometry": { "type": "Point", "coordinates": [ 129.349747, 35.494057, 30.0 ] } },
{ "type": "Feature", "properties": { "value": 14.353 }, "geometry": { "type": "Point", "coordinates": [ 129.350845, 35.494053, 30.0 ] } },
{ "type": "Feature", "properties": { "value": 12.4 }, "geometry": { "type": "Point", "coordinates": [ 129.351959, 35.494049, 30.0 ] } },
{ "type": "Feature", "properties": { "value": 10.372 }, "geometry": { "type": "Point", "coordinates": [ 129.353058, 35.494049, 30.0 ] } },
{ "type": "Feature", "properties": { "value": 8.5291 }, "geometry": { "type": "Point", "coordinates": [ 129.354156, 35.494045, 30.0 ] } },
{ "type": "Feature", "properties": { "value": 6.9677 }, "geometry": { "type": "Point", "coordinates": [ 129.355255, 35.494041, 30.0 ] } },
{ "type": "Feature", "properties": { "value": 5.6919 }, "geometry": { "type": "Point", "coordinates": [ 129.356354, 35.494038, 30.0 ] } },
{ "type": "Feature", "properties": { "value": 4.6803 }, "geometry": { "type": "Point", "coordinates": [ 129.357468, 35.494034, 30.0 ] } },
{ "type": "Feature", "properties": { "value": 3.8944 }, "geometry": { "type": "Point", "coordinates": [ 129.358566, 35.49403, 30.0 ] } },
{ "type": "Feature", "properties": { "value": 3.2987 }, "geometry": { "type": "Point", "coordinates": [ 129.359665, 35.494026, 30.0 ] } },
{ "type": "Feature", "properties": { "value": 2.8399 }, "geometry": { "type": "Point", "coordinates": [ 129.360764, 35.494026, 30.0 ] } },
{ "type": "Feature", "properties": { "value": 2.4868 }, "geometry": { "type": "Point", "coordinates": [ 129.361877, 35.494022, 30.0 ] } },
{ "type": "Feature", "properties": { "value": 2.2169 }, "geometry": { "type": "Point", "coordinates": [ 129.362976, 35.494019, 30.0 ] } },
{ "type": "Feature", "properties": { "value": 2.024 }, "geometry": { "type": "Point", "coordinates": [ 129.364075, 35.494015, 30.0 ] } },
{ "type": "Feature", "properties": { "value": 1.8951 }, "geometry": { "type": "Point", "coordinates": [ 129.365173, 35.494011, 30.0 ] } },
{ "type": "Feature", "properties": { "value": 1.8193 }, "geometry": { "type": "Point", "coordinates": [ 129.366272, 35.494007, 30.0 ] } },
{ "type": "Feature", "properties": { "value": 1.7908 }, "geometry": { "type": "Point", "coordinates": [ 129.367386, 35.494003, 30.0 ] } },
{ "type": "Feature", "properties": { "value": 1.8023 }, "geometry": { "type": "Point", "coordinates": [ 129.368484, 35.493999, 30.0 ] } },
{ "type": "Feature", "properties": { "value": 1.8604 }, "geometry": { "type": "Point", "coordinates": [ 129.369583, 35.493999, 30.0 ] } },
{ "type": "Feature", "properties": { "value": 1.9641 }, "geometry": { "type": "Point", "coordinates": [ 129.370682, 35.493996, 30.0 ] } },
{ "type": "Feature", "properties": { "value": 2.0869 }, "geometry": { "type": "Point", "coordinates": [ 129.371796, 35.493992, 30.0 ] } },
{ "type": "Feature", "properties": { "value": 2.2323 }, "geometry": { "type": "Point", "coordinates": [ 129.372894, 35.493988, 30.0 ] } },
{ "type": "Feature", "properties": { "value": 2.3917 }, "geometry": { "type": "Point", "coordinates": [ 129.373993, 35.493984, 30.0 ] } },
{ "type": "Feature", "properties": { "value": 2.5332 }, "geometry": { "type": "Point", "coordinates": [ 129.375092, 35.49398, 30.0 ] } },
{ "type": "Feature", "properties": { "value": 2.6412 }, "geometry": { "type": "Point", "coordinates": [ 129.37619, 35.493977, 30.0 ] } },
{ "type": "Feature", "properties": { "value": 2.692 }, "geometry": { "type": "Point", "coordinates": [ 129.377304, 35.493973, 30.0 ] } },
{ "type": "Feature", "properties": { "value": 2.6605 }, "geometry": { "type": "Point", "coordinates": [ 129.378403, 35.493969, 30.0 ] } },
{ "type": "Feature", "properties": { "value": 2.5386 }, "geometry": { "type": "Point", "coordinates": [ 129.379501, 35.493965, 30.0 ] } },
{ "type": "Feature", "properties": { "value": 2.3261 }, "geometry": { "type": "Point", "coordinates": [ 129.3806, 35.493965, 30.0 ] } },
{ "type": "Feature", "properties": { "value": 2.0356 }, "geometry": { "type": "Point", "coordinates": [ 129.381714, 35.493961, 30.0 ] } },
{ "type": "Feature", "properties": { "value": 0.0536 }, "geometry": { "type": "Point", "coordinates": [ 129.339828, 35.494987, 30.0 ] } },
{ "type": "Feature", "properties": { "value": 0.6043 }, "geometry": { "type": "Point", "coordinates": [ 129.340942, 35.494984, 30.0 ] } },
{ "type": "Feature", "properties": { "value": 1.5262 }, "geometry": { "type": "Point", "coordinates": [ 129.342041, 35.49498, 30.0 ] } },
{ "type": "Feature", "properties": { "value": 3.1098 }, "geometry": { "type": "Point", "coordinates": [ 129.34314, 35.494976, 30.0 ] } },
{ "type": "Feature", "properties": { "value": 5.4054 }, "geometry": { "type": "Point", "coordinates": [ 129.344238, 35.494972, 30.0 ] } },
{ "type": "Feature", "properties": { "value": 8.2177 }, "geometry": { "type": "Point", "coordinates": [ 129.345337, 35.494972, 30.0 ] } },
{ "type": "Feature", "properties": { "value": 11.078 }, "geometry": { "type": "Point", "coordinates": [ 129.346451, 35.494968, 30.0 ] } },
{ "type": "Feature", "properties": { "value": 13.559 }, "geometry": { "type": "Point", "coordinates": [ 129.347549, 35.494965, 30.0 ] } },
{ "type": "Feature", "properties": { "value": 15.283 }, "geometry": { "type": "Point", "coordinates": [ 129.348648, 35.494961, 30.0 ] } },
{ "type": "Feature", "properties": { "value": 15.939 }, "geometry": { "type": "Point", "coordinates": [ 129.349747, 35.494957, 30.0 ] } },
{ "type": "Feature", "properties": { "value": 15.633 }, "geometry": { "type": "Point", "coordinates": [ 129.350861, 35.494953, 30.0 ] } },
{ "type": "Feature", "properties": { "value": 14.639 }, "geometry": { "type": "Point", "coordinates": [ 129.351959, 35.494953, 30.0 ] } },
{ "type": "Feature", "properties": { "value": 13.156 }, "geometry": { "type": "Point", "coordinates": [ 129.353058, 35.494949, 30.0 ] } },
{ "type": "Feature", "properties": { "value": 11.531 }, "geometry": { "type": "Point", "coordinates": [ 129.354156, 35.494946, 30.0 ] } },
{ "type": "Feature", "properties": { "value": 9.9809 }, "geometry": { "type": "Point", "coordinates": [ 129.355255, 35.494942, 30.0 ] } },
{ "type": "Feature", "properties": { "value": 8.5704 }, "geometry": { "type": "Point", "coordinates": [ 129.356369, 35.494938, 30.0 ] } },
{ "type": "Feature", "properties": { "value": 7.3493 }, "geometry": { "type": "Point", "coordinates": [ 129.357468, 35.494934, 30.0 ] } },
{ "type": "Feature", "properties": { "value": 6.33 }, "geometry": { "type": "Point", "coordinates": [ 129.358566, 35.494934, 30.0 ] } },
{ "type": "Feature", "properties": { "value": 5.5009 }, "geometry": { "type": "Point", "coordinates": [ 129.359665, 35.49493, 30.0 ] } },
{ "type": "Feature", "properties": { "value": 4.8264 }, "geometry": { "type": "Point", "coordinates": [ 129.360779, 35.494926, 30.0 ] } },
{ "type": "Feature", "properties": { "value": 4.2839 }, "geometry": { "type": "Point", "coordinates": [ 129.361877, 35.494923, 30.0 ] } },
{ "type": "Feature", "properties": { "value": 3.8598 }, "geometry": { "type": "Point", "coordinates": [ 129.362976, 35.494919, 30.0 ] } },
{ "type": "Feature", "properties": { "value": 3.5391 }, "geometry": { "type": "Point", "coordinates": [ 129.364075, 35.494915, 30.0 ] } },
{ "type": "Feature", "properties": { "value": 3.3088 }, "geometry": { "type": "Point", "coordinates": [ 129.365173, 35.494911, 30.0 ] } },
{ "type": "Feature", "properties": { "value": 3.1504 }, "geometry": { "type": "Point", "coordinates": [ 129.366287, 35.494907, 30.0 ] } },
{ "type": "Feature", "properties": { "value": 3.0641 }, "geometry": { "type": "Point", "coordinates": [ 129.367386, 35.494907, 30.0 ] } },
{ "type": "Feature", "properties": { "value": 3.0402 }, "geometry": { "type": "Point", "coordinates": [ 129.368484, 35.494904, 30.0 ] } },
{ "type": "Feature", "properties": { "value": 3.0771 }, "geometry": { "type": "Point", "coordinates": [ 129.369583, 35.4949, 30.0 ] } },
{ "type": "Feature", "properties": { "value": 3.1681 }, "geometry": { "type": "Point", "coordinates": [ 129.370697, 35.494896, 30.0 ] } },
{ "type": "Feature", "properties": { "value": 3.2929 }, "geometry": { "type": "Point", "coordinates": [ 129.371796, 35.494892, 30.0 ] } },
{ "type": "Feature", "properties": { "value": 3.4445 }, "geometry": { "type": "Point", "coordinates": [ 129.372894, 35.494888, 30.0 ] } },
{ "type": "Feature", "properties": { "value": 3.6084 }, "geometry": { "type": "Point", "coordinates": [ 129.373993, 35.494884, 30.0 ] } },
{ "type": "Feature", "properties": { "value": 3.7442 }, "geometry": { "type": "Point", "coordinates": [ 129.375107, 35.494881, 30.0 ] } },
{ "type": "Feature", "properties": { "value": 3.8295 }, "geometry": { "type": "Point", "coordinates": [ 129.376205, 35.494877, 30.0 ] } },
{ "type": "Feature", "properties": { "value": 3.8347 }, "geometry": { "type": "Point", "coordinates": [ 129.377304, 35.494877, 30.0 ] } },
{ "type": "Feature", "properties": { "value": 3.7313 }, "geometry": { "type": "Point", "coordinates": [ 129.378403, 35.494873, 30.0 ] } },
{ "type": "Feature", "properties": { "value": 3.5113 }, "geometry": { "type": "Point", "coordinates": [ 129.379501, 35.494869, 30.0 ] } },
{ "type": "Feature", "properties": { "value": 3.1782 }, "geometry": { "type": "Point", "coordinates": [ 129.380615, 35.494865, 30.0 ] } },
{ "type": "Feature", "properties": { "value": 2.7479 }, "geometry": { "type": "Point", "coordinates": [ 129.381714, 35.494862, 30.0 ] } },
{ "type": "Feature", "properties": { "value": 0.1613 }, "geometry": { "type": "Point", "coordinates": [ 129.340942, 35.495884, 30.0 ] } },
{ "type": "Feature", "properties": { "value": 0.6178 }, "geometry": { "type": "Point", "coordinates": [ 129.342041, 35.49588, 30.0 ] } },
{ "type": "Feature", "properties": { "value": 1.4435 }, "geometry": { "type": "Point", "coordinates": [ 129.34314, 35.49588, 30.0 ] } },
{ "type": "Feature", "properties": { "value": 2.8184 }, "geometry": { "type": "Point", "coordinates": [ 129.344238, 35.495876, 30.0 ] } },
{ "type": "Feature", "properties": { "value": 4.7813 }, "geometry": { "type": "Point", "coordinates": [ 129.345352, 35.495872, 30.0 ] } },
{ "type": "Feature", "properties": { "value": 7.1506 }, "geometry": { "type": "Point", "coordinates": [ 129.346451, 35.495869, 30.0 ] } },
{ "type": "Feature", "properties": { "value": 9.6594 }, "geometry": { "type": "Point", "coordinates": [ 129.347549, 35.495865, 30.0 ] } },
{ "type": "Feature", "properties": { "value": 11.989 }, "geometry": { "type": "Point", "coordinates": [ 129.348648, 35.495861, 30.0 ] } },
{ "type": "Feature", "properties": { "value": 13.759 }, "geometry": { "type": "Point", "coordinates": [ 129.349762, 35.495861, 30.0 ] } },
{ "type": "Feature", "properties": { "value": 14.69 }, "geometry": { "type": "Point", "coordinates": [ 129.350861, 35.495857, 30.0 ] } },
{ "type": "Feature", "properties": { "value": 14.782 }, "geometry": { "type": "Point", "coordinates": [ 129.351959, 35.495853, 30.0 ] } },
{ "type": "Feature", "properties": { "value": 14.261 }, "geometry": { "type": "Point", "coordinates": [ 129.353058, 35.49585, 30.0 ] } },
{ "type": "Feature", "properties": { "value": 13.357 }, "geometry": { "type": "Point", "coordinates": [ 129.354156, 35.495846, 30.0 ] } },
{ "type": "Feature", "properties": { "value": 12.254 }, "geometry": { "type": "Point", "coordinates": [ 129.35527, 35.495842, 30.0 ] } },
{ "type": "Feature", "properties": { "value": 11.076 }, "geometry": { "type": "Point", "coordinates": [ 129.356369, 35.495838, 30.0 ] } },
{ "type": "Feature", "properties": { "value": 9.9291 }, "geometry": { "type": "Point", "coordinates": [ 129.357468, 35.495838, 30.0 ] } },
{ "type": "Feature", "properties": { "value": 8.8749 }, "geometry": { "type": "Point", "coordinates": [ 129.358566, 35.495834, 30.0 ] } },
{ "type": "Feature", "properties": { "value": 7.938 }, "geometry": { "type": "Point", "coordinates": [ 129.35968, 35.495831, 30.0 ] } },
{ "type": "Feature", "properties": { "value": 7.13 }, "geometry": { "type": "Point", "coordinates": [ 129.360779, 35.495827, 30.0 ] } },
{ "type": "Feature", "properties": { "value": 6.4471 }, "geometry": { "type": "Point", "coordinates": [ 129.361877, 35.495823, 30.0 ] } },
{ "type": "Feature", "properties": { "value": 5.8867 }, "geometry": { "type": "Point", "coordinates": [ 129.362976, 35.495819, 30.0 ] } },
{ "type": "Feature", "properties": { "value": 5.4421 }, "geometry": { "type": "Point", "coordinates": [ 129.36409, 35.495815, 30.0 ] } },
{ "type": "Feature", "properties": { "value": 5.104 }, "geometry": { "type": "Point", "coordinates": [ 129.365189, 35.495815, 30.0 ] } },
{ "type": "Feature", "properties": { "value": 4.8499 }, "geometry": { "type": "Point", "coordinates": [ 129.366287, 35.495811, 30.0 ] } },
{ "type": "Feature", "properties": { "value": 4.6876 }, "geometry": { "type": "Point", "coordinates": [ 129.367386, 35.495808, 30.0 ] } },
{ "type": "Feature", "properties": { "value": 4.5981 }, "geometry": { "type": "Point", "coordinates": [ 129.368484, 35.495804, 30.0 ] } },
{ "type": "Feature", "properties": { "value": 4.5872 }, "geometry": { "type": "Point", "coordinates": [ 129.369598, 35.4958, 30.0 ] } },
{ "type": "Feature", "properties": { "value": 4.6411 }, "geometry": { "type": "Point", "coordinates": [ 129.370697, 35.495796, 30.0 ] } },
{ "type": "Feature", "properties": { "value": 4.7402 }, "geometry": { "type": "Point", "coordinates": [ 129.371796, 35.495792, 30.0 ] } },
{ "type": "Feature", "properties": { "value": 4.8665 }, "geometry": { "type": "Point", "coordinates": [ 129.372894, 35.495789, 30.0 ] } },
{ "type": "Feature", "properties": { "value": 4.9961 }, "geometry": { "type": "Point", "coordinates": [ 129.374008, 35.495785, 30.0 ] } },
{ "type": "Feature", "properties": { "value": 5.0956 }, "geometry": { "type": "Point", "coordinates": [ 129.375107, 35.495785, 30.0 ] } },
{ "type": "Feature", "properties": { "value": 5.1227 }, "geometry": { "type": "Point", "coordinates": [ 129.376205, 35.495781, 30.0 ] } },
{ "type": "Feature", "properties": { "value": 5.0481 }, "geometry": { "type": "Point", "coordinates": [ 129.377304, 35.495777, 30.0 ] } },
{ "type": "Feature", "properties": { "value": 4.8399 }, "geometry": { "type": "Point", "coordinates": [ 129.378403, 35.495773, 30.0 ] } },
{ "type": "Feature", "properties": { "value": 4.4978 }, "geometry": { "type": "Point", "coordinates": [ 129.379517, 35.49577, 30.0 ] } },
{ "type": "Feature", "properties": { "value": 4.0214 }, "geometry": { "type": "Point", "coordinates": [ 129.380615, 35.495766, 30.0 ] } },
{ "type": "Feature", "properties": { "value": 3.4464 }, "geometry": { "type": "Point", "coordinates": [ 129.381714, 35.495762, 30.0 ] } },
{ "type": "Feature", "properties": { "value": 0.1782 }, "geometry": { "type": "Point", "coordinates": [ 129.342041, 35.496784, 30.0 ] } },
{ "type": "Feature", "properties": { "value": 0.579 }, "geometry": { "type": "Point", "coordinates": [ 129.34314, 35.49678, 30.0 ] } },
{ "type": "Feature", "properties": { "value": 1.2886 }, "geometry": { "type": "Point", "coordinates": [ 129.344254, 35.496777, 30.0 ] } },
{ "type": "Feature", "properties": { "value": 2.4346 }, "geometry": { "type": "Point", "coordinates": [ 129.345352, 35.496773, 30.0 ] } },
{ "type": "Feature", "properties": { "value": 4.0278 }, "geometry": { "type": "Point", "coordinates": [ 129.346451, 35.496769, 30.0 ] } },
{ "type": "Feature", "properties": { "value": 5.9977 }, "geometry": { "type": "Point", "coordinates": [ 129.347549, 35.496765, 30.0 ] } },
{ "type": "Feature", "properties": { "value": 8.16 }, "geometry": { "type": "Point", "coordinates": [ 129.348663, 35.496765, 30.0 ] } },
{ "type": "Feature", "properties": { "value": 10.257 }, "geometry": { "type": "Point", "coordinates": [ 129.349762, 35.496761, 30.0 ] } },
{ "type": "Feature", "properties": { "value": 11.897 }, "geometry": { "type": "Point", "coordinates": [ 129.350861, 35.496758, 30.0 ] } },
{ "type": "Feature", "properties": { "value": 12.886 }, "geometry": { "type": "Point", "coordinates": [ 129.351959, 35.496754, 30.0 ] } },
{ "type": "Feature", "properties": { "value": 13.332 }, "geometry": { "type": "Point", "coordinates": [ 129.353073, 35.49675, 30.0 ] } },
{ "type": "Feature", "properties": { "value": 13.343 }, "geometry": { "type": "Point", "coordinates": [ 129.354172, 35.496746, 30.0 ] } },
{ "type": "Feature", "properties": { "value": 12.991 }, "geometry": { "type": "Point", "coordinates": [ 129.35527, 35.496746, 30.0 ] } },
{ "type": "Feature", "properties": { "value": 12.385 }, "geometry": { "type": "Point", "coordinates": [ 129.356369, 35.496742, 30.0 ] } },
{ "type": "Feature", "properties": { "value": 11.614 }, "geometry": { "type": "Point", "coordinates": [ 129.357468, 35.496738, 30.0 ] } },
{ "type": "Feature", "properties": { "value": 10.788 }, "geometry": { "type": "Point", "coordinates": [ 129.358582, 35.496735, 30.0 ] } },
{ "type": "Feature", "properties": { "value": 9.9799 }, "geometry": { "type": "Point", "coordinates": [ 129.35968, 35.496731, 30.0 ] } },
{ "type": "Feature", "properties": { "value": 9.214 }, "geometry": { "type": "Point", "coordinates": [ 129.360779, 35.496727, 30.0 ] } },
{ "type": "Feature", "properties": { "value": 8.5163 }, "geometry": { "type": "Point", "coordinates": [ 129.361877, 35.496723, 30.0 ] } },
{ "type": "Feature", "properties": { "value": 7.9069 }, "geometry": { "type": "Point", "coordinates": [ 129.362991, 35.496723, 30.0 ] } },
{ "type": "Feature", "properties": { "value": 7.3971 }, "geometry": { "type": "Point", "coordinates": [ 129.36409, 35.496719, 30.0 ] } },
{ "type": "Feature", "properties": { "value": 6.9745 }, "geometry": { "type": "Point", "coordinates": [ 129.365189, 35.496716, 30.0 ] } },
{ "type": "Feature", "properties": { "value": 6.6477 }, "geometry": { "type": "Point", "coordinates": [ 129.366287, 35.496712, 30.0 ] } },
{ "type": "Feature", "properties": { "value": 6.403 }, "geometry": { "type": "Point", "coordinates": [ 129.367386, 35.496708, 30.0 ] } },
{ "type": "Feature", "properties": { "value": 6.2532 }, "geometry": { "type": "Point", "coordinates": [ 129.3685, 35.496704, 30.0 ] } },
{ "type": "Feature", "properties": { "value": 6.1753 }, "geometry": { "type": "Point", "coordinates": [ 129.369598, 35.4967, 30.0 ] } },
{ "type": "Feature", "properties": { "value": 6.1686 }, "geometry": { "type": "Point", "coordinates": [ 129.370697, 35.496696, 30.0 ] } },
{ "type": "Feature", "properties": { "value": 6.2088 }, "geometry": { "type": "Point", "coordinates": [ 129.371796, 35.496696, 30.0 ] } },
{ "type": "Feature", "properties": { "value": 6.2842 }, "geometry": { "type": "Point", "coordinates": [ 129.37291, 35.496693, 30.0 ] } },
{ "type": "Feature", "properties": { "value": 6.3482 }, "geometry": { "type": "Point", "coordinates": [ 129.374008, 35.496689, 30.0 ] } },
{ "type": "Feature", "properties": { "value": 6.3709 }, "geometry": { "type": "Point", "coordinates": [ 129.375107, 35.496685, 30.0 ] } },
{ "type": "Feature", "properties": { "value": 6.3109 }, "geometry": { "type": "Point", "coordinates": [ 129.376205, 35.496681, 30.0 ] } },
{ "type": "Feature", "properties": { "value": 6.1293 }, "geometry": { "type": "Point", "coordinates": [ 129.377319, 35.496677, 30.0 ] } },
{ "type": "Feature", "properties": { "value": 5.8048 }, "geometry": { "type": "Point", "coordinates": [ 129.378418, 35.496674, 30.0 ] } },
{ "type": "Feature", "properties": { "value": 5.3258 }, "geometry": { "type": "Point", "coordinates": [ 129.379517, 35.49667, 30.0 ] } },
{ "type": "Feature", "properties": { "value": 4.7155 }, "geometry": { "type": "Point", "coordinates": [ 129.380615, 35.496666, 30.0 ] } },
{ "type": "Feature", "properties": { "value": 4.0045 }, "geometry": { "type": "Point", "coordinates": [ 129.381714, 35.496662, 30.0 ] } },
{ "type": "Feature", "properties": { "value": 0.1595 }, "geometry": { "type": "Point", "coordinates": [ 129.343155, 35.497681, 30.0 ] } },
{ "type": "Feature", "properties": { "value": 0.4909 }, "geometry": { "type": "Point", "coordinates": [ 129.344254, 35.497677, 30.0 ] } },
{ "type": "Feature", "properties": { "value": 1.0736 }, "geometry": { "type": "Point", "coordinates": [ 129.345352, 35.497673, 30.0 ] } },
{ "type": "Feature", "properties": { "value": 1.9748 }, "geometry": { "type": "Point", "coordinates": [ 129.346451, 35.497673, 30.0 ] } },
{ "type": "Feature", "properties": { "value": 3.2396 }, "geometry": { "type": "Point", "coordinates": [ 129.347565, 35.497669, 30.0 ] } },
{ "type": "Feature", "properties": { "value": 4.8177 }, "geometry": { "type": "Point", "coordinates": [ 129.348663, 35.497665, 30.0 ] } },
{ "type": "Feature", "properties": { "value": 6.5771 }, "geometry": { "type": "Point", "coordinates": [ 129.349762, 35.497662, 30.0 ] } },
{ "type": "Feature", "properties": { "value": 8.28 }, "geometry": { "type": "Point", "coordinates": [ 129.350861, 35.497658, 30.0 ] } },
{ "type": "Feature", "properties": { "value": 9.7014 }, "geometry": { "type": "Point", "coordinates": [ 129.351974, 35.497654, 30.0 ] } },
{ "type": "Feature", "properties": { "value": 10.822 }, "geometry": { "type": "Point", "coordinates": [ 129.353073, 35.497654, 30.0 ] } },
{ "type": "Feature", "properties": { "value": 11.596 }, "geometry": { "type": "Point", "coordinates": [ 129.354172, 35.49765, 30.0 ] } },
{ "type": "Feature", "properties": { "value": 11.998 }, "geometry": { "type": "Point", "coordinates": [ 129.35527, 35.497646, 30.0 ] } },
{ "type": "Feature", "properties": { "value": 12.045 }, "geometry": { "type": "Point", "coordinates": [ 129.356369, 35.497643, 30.0 ] } },
{ "type": "Feature", "properties": { "value": 11.816 }, "geometry": { "type": "Point", "coordinates": [ 129.357483, 35.497639, 30.0 ] } },
{ "type": "Feature", "properties": { "value": 11.433 }, "geometry": { "type": "Point", "coordinates": [ 129.358582, 35.497635, 30.0 ] } },
{ "type": "Feature", "properties": { "value": 10.956 }, "geometry": { "type": "Point", "coordinates": [ 129.35968, 35.497631, 30.0 ] } },
{ "type": "Feature", "properties": { "value": 10.427 }, "geometry": { "type": "Point", "coordinates": [ 129.360779, 35.497631, 30.0 ] } },
{ "type": "Feature", "properties": { "value": 9.8842 }, "geometry": { "type": "Point", "coordinates": [ 129.361893, 35.497627, 30.0 ] } },
{ "type": "Feature", "properties": { "value": 9.3593 }, "geometry": { "type": "Point", "coordinates": [ 129.362991, 35.497623, 30.0 ] } },
{ "type": "Feature", "properties": { "value": 8.8866 }, "geometry": { "type": "Point", "coordinates": [ 129.36409, 35.49762, 30.0 ] } },
{ "type": "Feature", "properties": { "value": 8.4673 }, "geometry": { "type": "Point", "coordinates": [ 129.365189, 35.497616, 30.0 ] } },
{ "type": "Feature", "properties": { "value": 8.1155 }, "geometry": { "type": "Point", "coordinates": [ 129.366302, 35.497612, 30.0 ] } },
{ "type": "Feature", "properties": { "value": 7.8364 }, "geometry": { "type": "Point", "coordinates": [ 129.367401, 35.497608, 30.0 ] } },
{ "type": "Feature", "properties": { "value": 7.6339 }, "geometry": { "type": "Point", "coordinates": [ 129.3685, 35.497604, 30.0 ] } },
{ "type": "Feature", "properties": { "value": 7.5015 }, "geometry": { "type": "Point", "coordinates": [ 129.369598, 35.497604, 30.0 ] } },
{ "type": "Feature", "properties": { "value": 7.4292 }, "geometry": { "type": "Point", "coordinates": [ 129.370697, 35.497601, 30.0 ] } },
{ "type": "Feature", "properties": { "value": 7.4054 }, "geometry": { "type": "Point", "coordinates": [ 129.371811, 35.497597, 30.0 ] } },
{ "type": "Feature", "properties": { "value": 7.4015 }, "geometry": { "type": "Point", "coordinates": [ 129.37291, 35.497593, 30.0 ] } },
{ "type": "Feature", "properties": { "value": 7.3818 }, "geometry": { "type": "Point", "coordinates": [ 129.374008, 35.497589, 30.0 ] } },
{ "type": "Feature", "properties": { "value": 7.3165 }, "geometry": { "type": "Point", "coordinates": [ 129.375107, 35.497585, 30.0 ] } },
{ "type": "Feature", "properties": { "value": 7.1509 }, "geometry": { "type": "Point", "coordinates": [ 129.376221, 35.497581, 30.0 ] } },
{ "type": "Feature", "properties": { "value": 6.8638 }, "geometry": { "type": "Point", "coordinates": [ 129.377319, 35.497578, 30.0 ] } },
{ "type": "Feature", "properties": { "value": 6.4227 }, "geometry": { "type": "Point", "coordinates": [ 129.378418, 35.497574, 30.0 ] } },
{ "type": "Feature", "properties": { "value": 5.8324 }, "geometry": { "type": "Point", "coordinates": [ 129.379517, 35.497574, 30.0 ] } },
{ "type": "Feature", "properties": { "value": 5.1143 }, "geometry": { "type": "Point", "coordinates": [ 129.380615, 35.49757, 30.0 ] } },
{ "type": "Feature", "properties": { "value": 4.3089 }, "geometry": { "type": "Point", "coordinates": [ 129.381729, 35.497566, 30.0 ] } },
{ "type": "Feature", "properties": { "value": 0.1053 }, "geometry": { "type": "Point", "coordinates": [ 129.344254, 35.498581, 30.0 ] } },
{ "type": "Feature", "properties": { "value": 0.3861 }, "geometry": { "type": "Point", "coordinates": [ 129.345352, 35.498577, 30.0 ] } },
{ "type": "Feature", "properties": { "value": 0.8317 }, "geometry": { "type": "Point", "coordinates": [ 129.346466, 35.498573, 30.0 ] } },
{ "type": "Feature", "properties": { "value": 1.5147 }, "geometry": { "type": "Point", "coordinates": [ 129.347565, 35.498569, 30.0 ] } },
{ "type": "Feature", "properties": { "value": 2.463 }, "geometry": { "type": "Point", "coordinates": [ 129.348663, 35.498566, 30.0 ] } },
{ "type": "Feature", "properties": { "value": 3.6457 }, "geometry": { "type": "Point", "coordinates": [ 129.349762, 35.498562, 30.0 ] } },
{ "type": "Feature", "properties": { "value": 4.9747 }, "geometry": { "type": "Point", "coordinates": [ 129.350876, 35.498562, 30.0 ] } },
{ "type": "Feature", "properties": { "value": 6.3358 }, "geometry": { "type": "Point", "coordinates": [ 129.351974, 35.498558, 30.0 ] } },
{ "type": "Feature", "properties": { "value": 7.6375 }, "geometry": { "type": "Point", "coordinates": [ 129.353073, 35.498554, 30.0 ] } },
{ "type": "Feature", "properties": { "value": 8.7513 }, "geometry": { "type": "Point", "coordinates": [ 129.354172, 35.49855, 30.0 ] } },
{ "type": "Feature", "properties": { "value": 9.6022 }, "geometry": { "type": "Point", "coordinates": [ 129.35527, 35.498547, 30.0 ] } },
{ "type": "Feature", "properties": { "value": 10.17 }, "geometry": { "type": "Point", "coordinates": [ 129.356384, 35.498543, 30.0 ] } },
{ "type": "Feature", "properties": { "value": 10.473 }, "geometry": { "type": "Point", "coordinates": [ 129.357483, 35.498539, 30.0 ] } },
{ "type": "Feature", "properties": { "value": 10.582 }, "geometry": { "type": "Point", "coordinates": [ 129.358582, 35.498539, 30.0 ] } },
{ "type": "Feature", "properties": { "value": 10.538 }, "geometry": { "type": "Point", "coordinates": [ 129.35968, 35.498535, 30.0 ] } },
{ "type": "Feature", "properties": { "value": 10.361 }, "geometry": { "type": "Point", "coordinates": [ 129.360794, 35.498531, 30.0 ] } },
{ "type": "Feature", "properties": { "value": 10.095 }, "geometry": { "type": "Point", "coordinates": [ 129.361893, 35.498528, 30.0 ] } },
{ "type": "Feature", "properties": { "value": 9.7844 }, "geometry": { "type": "Point", "coordinates": [ 129.362991, 35.498524, 30.0 ] } },
{ "type": "Feature", "properties": { "value": 9.4559 }, "geometry": { "type": "Point", "coordinates": [ 129.36409, 35.49852, 30.0 ] } },
{ "type": "Feature", "properties": { "value": 9.1355 }, "geometry": { "type": "Point", "coordinates": [ 129.365204, 35.498516, 30.0 ] } },
{ "type": "Feature", "properties": { "value": 8.8396 }, "geometry": { "type": "Point", "coordinates": [ 129.366302, 35.498512, 30.0 ] } },
{ "type": "Feature", "properties": { "value": 8.5809 }, "geometry": { "type": "Point", "coordinates": [ 129.367401, 35.498512, 30.0 ] } },
{ "type": "Feature", "properties": { "value": 8.3771 }, "geometry": { "type": "Point", "coordinates": [ 129.3685, 35.498508, 30.0 ] } },
{ "type": "Feature", "properties": { "value": 8.2191 }, "geometry": { "type": "Point", "coordinates": [ 129.369598, 35.498505, 30.0 ] } },
{ "type": "Feature", "properties": { "value": 8.1035 }, "geometry": { "type": "Point", "coordinates": [ 129.370712, 35.498501, 30.0 ] } },
{ "type": "Feature", "properties": { "value": 8.0252 }, "geometry": { "type": "Point", "coordinates": [ 129.371811, 35.498497, 30.0 ] } },
{ "type": "Feature", "properties": { "value": 7.95 }, "geometry": { "type": "Point", "coordinates": [ 129.37291, 35.498493, 30.0 ] } },
{ "type": "Feature", "properties": { "value": 7.8562 }, "geometry": { "type": "Point", "coordinates": [ 129.374008, 35.498489, 30.0 ] } },
{ "type": "Feature", "properties": { "value": 7.7016 }, "geometry": { "type": "Point", "coordinates": [ 129.375122, 35.498486, 30.0 ] } },
{ "type": "Feature", "properties": { "value": 7.4503 }, "geometry": { "type": "Point", "coordinates": [ 129.376221, 35.498482, 30.0 ] } },
{ "type": "Feature", "properties": { "value": 7.0758 }, "geometry": { "type": "Point", "coordinates": [ 129.377319, 35.498482, 30.0 ] } },
{ "type": "Feature", "properties": { "value": 6.5577 }, "geometry": { "type": "Point", "coordinates": [ 129.378418, 35.498478, 30.0 ] } },
{ "type": "Feature", "properties": { "value": 5.9026 }, "geometry": { "type": "Point", "coordinates": [ 129.379532, 35.498474, 30.0 ] } },
{ "type": "Feature", "properties": { "value": 5.1296 }, "geometry": { "type": "Point", "coordinates": [ 129.38063, 35.49847, 30.0 ] } },
{ "type": "Feature", "properties": { "value": 4.2898 }, "geometry": { "type": "Point", "coordinates": [ 129.381729, 35.498466, 30.0 ] } },
{ "type": "Feature", "properties": { "value": 0.2719 }, "geometry": { "type": "Point", "coordinates": [ 129.346466, 35.499474, 30.0 ] } },
{ "type": "Feature", "properties": { "value": 0.6011 }, "geometry": { "type": "Point", "coordinates": [ 129.347565, 35.49947, 30.0 ] } },
{ "type": "Feature", "properties": { "value": 1.0861 }, "geometry": { "type": "Point", "coordinates": [ 129.348663, 35.499466, 30.0 ] } },
{ "type": "Feature", "properties": { "value": 1.7608 }, "geometry": { "type": "Point", "coordinates": [ 129.349777, 35.499466, 30.0 ] } },
{ "type": "Feature", "properties": { "value": 2.6129 }, "geometry": { "type": "Point", "coordinates": [ 129.350876, 35.499462, 30.0 ] } },
{ "type": "Feature", "properties": { "value": 3.6046 }, "geometry": { "type": "Point", "coordinates": [ 129.351974, 35.499458, 30.0 ] } },
{ "type": "Feature", "properties": { "value": 4.6718 }, "geometry": { "type": "Point", "coordinates": [ 129.353073, 35.499454, 30.0 ] } },
{ "type": "Feature", "properties": { "value": 5.7221 }, "geometry": { "type": "Point", "coordinates": [ 129.354187, 35.499451, 30.0 ] } },
{ "type": "Feature", "properties": { "value": 6.6772 }, "geometry": { "type": "Point", "coordinates": [ 129.355286, 35.499447, 30.0 ] } },
{ "type": "Feature", "properties": { "value": 7.4779 }, "geometry": { "type": "Point", "coordinates": [ 129.356384, 35.499447, 30.0 ] } },
{ "type": "Feature", "properties": { "value": 8.1132 }, "geometry": { "type": "Point", "coordinates": [ 129.357483, 35.499443, 30.0 ] } },
{ "type": "Feature", "properties": { "value": 8.5838 }, "geometry": { "type": "Point", "coordinates": [ 129.358582, 35.499439, 30.0 ] } },
{ "type": "Feature", "properties": { "value": 8.8978 }, "geometry": { "type": "Point", "coordinates": [ 129.359695, 35.499435, 30.0 ] } },
{ "type": "Feature", "properties": { "value": 9.0591 }, "geometry": { "type": "Point", "coordinates": [ 129.360794, 35.499432, 30.0 ] } },
{ "type": "Feature", "properties": { "value": 9.102 }, "geometry": { "type": "Point", "coordinates": [ 129.361893, 35.499428, 30.0 ] } },
{ "type": "Feature", "properties": { "value": 9.0417 }, "geometry": { "type": "Point", "coordinates": [ 129.362991, 35.499424, 30.0 ] } },
{ "type": "Feature", "properties": { "value": 8.9267 }, "geometry": { "type": "Point", "coordinates": [ 129.364105, 35.499424, 30.0 ] } },
{ "type": "Feature", "properties": { "value": 8.768 }, "geometry": { "type": "Point", "coordinates": [ 129.365204, 35.49942, 30.0 ] } },
{ "type": "Feature", "properties": { "value": 8.5941 }, "geometry": { "type": "Point", "coordinates": [ 129.366302, 35.499416, 30.0 ] } },
{ "type": "Feature", "properties": { "value": 8.4184 }, "geometry": { "type": "Point", "coordinates": [ 129.367401, 35.499413, 30.0 ] } },
{ "type": "Feature", "properties": { "value": 8.2604 }, "geometry": { "type": "Point", "coordinates": [ 129.368515, 35.499409, 30.0 ] } },
{ "type": "Feature", "properties": { "value": 8.1217 }, "geometry": { "type": "Point", "coordinates": [ 129.369614, 35.499405, 30.0 ] } },
{ "type": "Feature", "properties": { "value": 8.0008 }, "geometry": { "type": "Point", "coordinates": [ 129.370712, 35.499401, 30.0 ] } },
{ "type": "Feature", "properties": { "value": 7.8944 }, "geometry": { "type": "Point", "coordinates": [ 129.371811, 35.499397, 30.0 ] } },
{ "type": "Feature", "properties": { "value": 7.78 }, "geometry": { "type": "Point", "coordinates": [ 129.37291, 35.499393, 30.0 ] } },
{ "type": "Feature", "properties": { "value": 7.6361 }, "geometry": { "type": "Point", "coordinates": [ 129.374023, 35.499393, 30.0 ] } },
{ "type": "Feature", "properties": { "value": 7.4279 }, "geometry": { "type": "Point", "coordinates": [ 129.375122, 35.49939, 30.0 ] } },
{ "type": "Feature", "properties": { "value": 7.1264 }, "geometry": { "type": "Point", "coordinates": [ 129.376221, 35.499386, 30.0 ] } },
{ "type": "Feature", "properties": { "value": 6.7118 }, "geometry": { "type": "Point", "coordinates": [ 129.377319, 35.499382, 30.0 ] } },
{ "type": "Feature", "properties": { "value": 6.1697 }, "geometry": { "type": "Point", "coordinates": [ 129.378433, 35.499378, 30.0 ] } },
{ "type": "Feature", "properties": { "value": 5.5102 }, "geometry": { "type": "Point", "coordinates": [ 129.379532, 35.499374, 30.0 ] } },
{ "type": "Feature", "properties": { "value": 4.7542 }, "geometry": { "type": "Point", "coordinates": [ 129.38063, 35.499371, 30.0 ] } },
{ "type": "Feature", "properties": { "value": 3.9506 }, "geometry": { "type": "Point", "coordinates": [ 129.381729, 35.499367, 30.0 ] } },
{ "type": "Feature", "properties": { "value": 0.1606 }, "geometry": { "type": "Point", "coordinates": [ 129.347565, 35.500374, 30.0 ] } },
{ "type": "Feature", "properties": { "value": 0.3947 }, "geometry": { "type": "Point", "coordinates": [ 129.348679, 35.50037, 30.0 ] } },
{ "type": "Feature", "properties": { "value": 0.7327 }, "geometry": { "type": "Point", "coordinates": [ 129.349777, 35.500366, 30.0 ] } },
{ "type": "Feature", "properties": { "value": 1.1996 }, "geometry": { "type": "Point", "coordinates": [ 129.350876, 35.500362, 30.0 ] } },
{ "type": "Feature", "properties": { "value": 1.7918 }, "geometry": { "type": "Point", "coordinates": [ 129.351974, 35.500359, 30.0 ] } },
{ "type": "Feature", "properties": { "value": 2.5005 }, "geometry": { "type": "Point", "coordinates": [ 129.353088, 35.500355, 30.0 ] } },
{ "type": "Feature", "properties": { "value": 3.2758 }, "geometry": { "type": "Point", "coordinates": [ 129.354187, 35.500355, 30.0 ] } },
{ "type": "Feature", "properties": { "value": 4.0722 }, "geometry": { "type": "Point", "coordinates": [ 129.355286, 35.500351, 30.0 ] } },
{ "type": "Feature", "properties": { "value": 4.8257 }, "geometry": { "type": "Point", "coordinates": [ 129.356384, 35.500347, 30.0 ] } },
{ "type": "Feature", "properties": { "value": 5.5159 }, "geometry": { "type": "Point", "coordinates": [ 129.357483, 35.500343, 30.0 ] } },
{ "type": "Feature", "properties": { "value": 6.1264 }, "geometry": { "type": "Point", "coordinates": [ 129.358597, 35.50034, 30.0 ] } },
{ "type": "Feature", "properties": { "value": 6.62 }, "geometry": { "type": "Point", "coordinates": [ 129.359695, 35.500336, 30.0 ] } },
{ "type": "Feature", "properties": { "value": 6.9983 }, "geometry": { "type": "Point", "coordinates": [ 129.360794, 35.500332, 30.0 ] } },
{ "type": "Feature", "properties": { "value": 7.2565 }, "geometry": { "type": "Point", "coordinates": [ 129.361893, 35.500332, 30.0 ] } },
{ "type": "Feature", "properties": { "value": 7.4121 }, "geometry": { "type": "Point", "coordinates": [ 129.363007, 35.500328, 30.0 ] } },
{ "type": "Feature", "properties": { "value": 7.4849 }, "geometry": { "type": "Point", "coordinates": [ 129.364105, 35.500324, 30.0 ] } },
{ "type": "Feature", "properties": { "value": 7.4983 }, "geometry": { "type": "Point", "coordinates": [ 129.365204, 35.50032, 30.0 ] } },
{ "type": "Feature", "properties": { "value": 7.4648 }, "geometry": { "type": "Point", "coordinates": [ 129.366302, 35.500317, 30.0 ] } },
{ "type": "Feature", "properties": { "value": 7.4016 }, "geometry": { "type": "Point", "coordinates": [ 129.367416, 35.500313, 30.0 ] } },
{ "type": "Feature", "properties": { "value": 7.3207 }, "geometry": { "type": "Point", "coordinates": [ 129.368515, 35.500309, 30.0 ] } },
{ "type": "Feature", "properties": { "value": 7.2359 }, "geometry": { "type": "Point", "coordinates": [ 129.369614, 35.500305, 30.0 ] } },
{ "type": "Feature", "properties": { "value": 7.1483 }, "geometry": { "type": "Point", "coordinates": [ 129.370712, 35.500301, 30.0 ] } },
{ "type": "Feature", "properties": { "value": 7.0474 }, "geometry": { "type": "Point", "coordinates": [ 129.371811, 35.500301, 30.0 ] } },
{ "type": "Feature", "properties": { "value": 6.9324 }, "geometry": { "type": "Point", "coordinates": [ 129.372925, 35.500298, 30.0 ] } },
{ "type": "Feature", "properties": { "value": 6.7734 }, "geometry": { "type": "Point", "coordinates": [ 129.374023, 35.500294, 30.0 ] } },
{ "type": "Feature", "properties": { "value": 6.5582 }, "geometry": { "type": "Point", "coordinates": [ 129.375122, 35.50029, 30.0 ] } },
{ "type": "Feature", "properties": { "value": 6.2529 }, "geometry": { "type": "Point", "coordinates": [ 129.376221, 35.500286, 30.0 ] } },
{ "type": "Feature", "properties": { "value": 5.8514 }, "geometry": { "type": "Point", "coordinates": [ 129.377335, 35.500282, 30.0 ] } },
{ "type": "Feature", "properties": { "value": 5.344 }, "geometry": { "type": "Point", "coordinates": [ 129.378433, 35.500278, 30.0 ] } },
{ "type": "Feature", "properties": { "value": 4.743 }, "geometry": { "type": "Point", "coordinates": [ 129.379532, 35.500275, 30.0 ] } },
{ "type": "Feature", "properties": { "value": 4.0693 }, "geometry": { "type": "Point", "coordinates": [ 129.38063, 35.500271, 30.0 ] } },
{ "type": "Feature", "properties": { "value": 3.3635 }, "geometry": { "type": "Point", "coordinates": [ 129.381744, 35.500267, 30.0 ] } },
{ "type": "Feature", "properties": { "value": 0.0379 }, "geometry": { "type": "Point", "coordinates": [ 129.348679, 35.50127, 30.0 ] } },
{ "type": "Feature", "properties": { "value": 0.2379 }, "geometry": { "type": "Point", "coordinates": [ 129.349777, 35.501266, 30.0 ] } },
{ "type": "Feature", "properties": { "value": 0.4667 }, "geometry": { "type": "Point", "coordinates": [ 129.350876, 35.501263, 30.0 ] } },
{ "type": "Feature", "properties": { "value": 0.7719 }, "geometry": { "type": "Point", "coordinates": [ 129.35199, 35.501259, 30.0 ] } },
{ "type": "Feature", "properties": { "value": 1.1636 }, "geometry": { "type": "Point", "coordinates": [ 129.353088, 35.501259, 30.0 ] } },
{ "type": "Feature", "properties": { "value": 1.6481 }, "geometry": { "type": "Point", "coordinates": [ 129.354187, 35.501255, 30.0 ] } },
{ "type": "Feature", "properties": { "value": 2.1813 }, "geometry": { "type": "Point", "coordinates": [ 129.355286, 35.501251, 30.0 ] } },
{ "type": "Feature", "properties": { "value": 2.7496 }, "geometry": { "type": "Point", "coordinates": [ 129.3564, 35.501247, 30.0 ] } },
{ "type": "Feature", "properties": { "value": 3.3222 }, "geometry": { "type": "Point", "coordinates": [ 129.357498, 35.501244, 30.0 ] } },
{ "type": "Feature", "properties": { "value": 3.8776 }, "geometry": { "type": "Point", "coordinates": [ 129.358597, 35.50124, 30.0 ] } },
{ "type": "Feature", "properties": { "value": 4.3843 }, "geometry": { "type": "Point", "coordinates": [ 129.359695, 35.50124, 30.0 ] } },
{ "type": "Feature", "properties": { "value": 4.8015 }, "geometry": { "type": "Point", "coordinates": [ 129.360794, 35.501236, 30.0 ] } },
{ "type": "Feature", "properties": { "value": 5.1363 }, "geometry": { "type": "Point", "coordinates": [ 129.361908, 35.501232, 30.0 ] } },
{ "type": "Feature", "properties": { "value": 5.3953 }, "geometry": { "type": "Point", "coordinates": [ 129.363007, 35.501228, 30.0 ] } },
{ "type": "Feature", "properties": { "value": 5.5861 }, "geometry": { "type": "Point", "coordinates": [ 129.364105, 35.501225, 30.0 ] } },
{ "type": "Feature", "properties": { "value": 5.7181 }, "geometry": { "type": "Point", "coordinates": [ 129.365204, 35.501221, 30.0 ] } },
{ "type": "Feature", "properties": { "value": 5.7988 }, "geometry": { "type": "Point", "coordinates": [ 129.366318, 35.501217, 30.0 ] } },
{ "type": "Feature", "properties": { "value": 5.8318 }, "geometry": { "type": "Point", "coordinates": [ 129.367416, 35.501213, 30.0 ] } },
{ "type": "Feature", "properties": { "value": 5.8363 }, "geometry": { "type": "Point", "coordinates": [ 129.368515, 35.501213, 30.0 ] } },
{ "type": "Feature", "properties": { "value": 5.8139 }, "geometry": { "type": "Point", "coordinates": [ 129.369614, 35.501209, 30.0 ] } },
{ "type": "Feature", "properties": { "value": 5.7731 }, "geometry": { "type": "Point", "coordinates": [ 129.370728, 35.501205, 30.0 ] } },
{ "type": "Feature", "properties": { "value": 5.7134 }, "geometry": { "type": "Point", "coordinates": [ 129.371826, 35.501202, 30.0 ] } },
{ "type": "Feature", "properties": { "value": 5.6167 }, "geometry": { "type": "Point", "coordinates": [ 129.372925, 35.501198, 30.0 ] } },
{ "type": "Feature", "properties": { "value": 5.4866 }, "geometry": { "type": "Point", "coordinates": [ 129.374023, 35.501194, 30.0 ] } },
{ "type": "Feature", "properties": { "value": 5.2946 }, "geometry": { "type": "Point", "coordinates": [ 129.375122, 35.50119, 30.0 ] } },
{ "type": "Feature", "properties": { "value": 5.0321 }, "geometry": { "type": "Point", "coordinates": [ 129.376236, 35.501186, 30.0 ] } },
{ "type": "Feature", "properties": { "value": 4.6869 }, "geometry": { "type": "Point", "coordinates": [ 129.377335, 35.501183, 30.0 ] } },
{ "type": "Feature", "properties": { "value": 4.2618 }, "geometry": { "type": "Point", "coordinates": [ 129.378433, 35.501179, 30.0 ] } },
{ "type": "Feature", "properties": { "value": 3.7631 }, "geometry": { "type": "Point", "coordinates": [ 129.379532, 35.501179, 30.0 ] } },
{ "type": "Feature", "properties": { "value": 3.2149 }, "geometry": { "type": "Point", "coordinates": [ 129.380646, 35.501175, 30.0 ] } },
{ "type": "Feature", "properties": { "value": 2.643 }, "geometry": { "type": "Point", "coordinates": [ 129.381744, 35.501171, 30.0 ] } }
]
}
