{
"type": "FeatureCollection",
"features": [
{ "type": "Feature", "properties": { "value": 0.0113 }, "geometry": { "type": "Point", "coordinates": [ 129.326462, 35.458069, 115.0 ] } },
{ "type": "Feature", "properties": { "value": 0.0064 }, "geometry": { "type": "Point", "coordinates": [ 129.32756, 35.458069, 115.0 ] } },
{ "type": "Feature", "properties": { "value": 0.0494 }, "geometry": { "type": "Point", "coordinates": [ 129.325363, 35.458973, 115.0 ] } },
{ "type": "Feature", "properties": { "value": 0.834 }, "geometry": { "type": "Point", "coordinates": [ 129.326462, 35.458973, 115.0 ] } },
{ "type": "Feature", "properties": { "value": 0.5145 }, "geometry": { "type": "Point", "coordinates": [ 129.32756, 35.458969, 115.0 ] } },
{ "type": "Feature", "properties": { "value": 0.9438 }, "geometry": { "type": "Point", "coordinates": [ 129.325363, 35.459877, 115.0 ] } },
{ "type": "Feature", "properties": { "value": 5.9535 }, "geometry": { "type": "Point", "coordinates": [ 129.326462, 35.459873, 115.0 ] } },
{ "type": "Feature", "properties": { "value": 3.8046 }, "geometry": { "type": "Point", "coordinates": [ 129.32756, 35.459869, 115.0 ] } },
{ "type": "Feature", "properties": { "value": 0.315 }, "geometry": { "type": "Point", "coordinates": [ 129.328674, 35.459866, 115.0 ] } },
{ "type": "Feature", "properties": { "value": 0.318 }, "geometry": { "type": "Point", "coordinates": [ 129.324265, 35.460781, 115.0 ] } },
{ "type": "Feature", "properties": { "value": 4.2054 }, "geometry": { "type": "Point", "coordinates": [ 129.325363, 35.460777, 115.0 ] } },
{ "type": "Feature", "properties": { "value": 15.609 }, "geometry": { "type": "Point", "coordinates": [ 129.326477, 35.460773, 115.0 ] } },
{ "type": "Feature", "properties": { "value": 10.337 }, "geometry": { "type": "Point", "coordinates": [ 129.327576, 35.46077, 115.0 ] } },
{ "type": "Feature", "properties": { "value": 1.7581 }, "geometry": { "type": "Point", "coordinates": [ 129.328674, 35.46077, 115.0 ] } },
{ "type": "Feature", "properties": { "value": 1.2207 }, "geometry": { "type": "Point", "coordinates": [ 129.324265, 35.461681, 115.0 ] } },
{ "type": "Feature", "properties": { "value": 7.8892 }, "geometry": { "type": "Point", "coordinates": [ 129.325378, 35.461678, 115.0 ] } },
{ "type": "Feature", "properties": { "value": 20.209 }, "geometry": { "type": "Point", "coordinates": [ 129.326477, 35.461674, 115.0 ] } },
{ "type": "Feature", "properties": { "value": 14.183 }, "geometry": { "type": "Point", "coordinates": [ 129.327576, 35.461674, 115.0 ] } },
{ "type": "Feature", "properties": { "value": 3.8062 }, "geometry": { "type": "Point", "coordinates": [ 129.328674, 35.46167, 115.0 ] } },
{ "type": "Feature", "properties": { "value": 0.2759 }, "geometry": { "type": "Point", "coordinates": [ 129.329773, 35.461666, 115.0 ] } },
{ "type": "Feature", "properties": { "value": 0.2718 }, "geometry": { "type": "Point", "coordinates": [ 129.323166, 35.462585, 115.0 ] } },
{ "type": "Feature", "properties": { "value": 2.5277 }, "geometry": { "type": "Point", "coordinates": [ 129.32428, 35.462582, 115.0 ] } },
{ "type": "Feature", "properties": { "value": 10.51 }, "geometry": { "type": "Point", "coordinates": [ 129.325378, 35.462578, 115.0 ] } },
{ "type": "Feature", "properties": { "value": 20.686 }, "geometry": { "type": "Point", "coordinates": [ 129.326477, 35.462578, 115.0 ] } },
{ "type": "Feature", "properties": { "value": 15.549 }, "geometry": { "type": "Point", "coordinates": [ 129.327576, 35.462574, 115.0 ] } },
{ "type": "Feature", "properties": { "value": 5.4952 }, "geometry": { "type": "Point", "coordinates": [ 129.328674, 35.46257, 115.0 ] } },
{ "type": "Feature", "properties": { "value": 0.8309 }, "geometry": { "type": "Point", "coordinates": [ 129.329788, 35.462566, 115.0 ] } },
{ "type": "Feature", "properties": { "value": 0.8159 }, "geometry": { "type": "Point", "coordinates": [ 129.323181, 35.463486, 115.0 ] } },
{ "type": "Feature", "properties": { "value": 4.0187 }, "geometry": { "type": "Point", "coordinates": [ 129.32428, 35.463486, 115.0 ] } },
{ "type": "Feature", "properties": { "value": 12.126 }, "geometry": { "type": "Point", "coordinates": [ 129.325378, 35.463482, 115.0 ] } },
{ "type": "Feature", "properties": { "value": 19.679 }, "geometry": { "type": "Point", "coordinates": [ 129.326477, 35.463478, 115.0 ] } },
{ "type": "Feature", "properties": { "value": 15.777 }, "geometry": { "type": "Point", "coordinates": [ 129.327576, 35.463474, 115.0 ] } },
{ "type": "Feature", "properties": { "value": 6.6394 }, "geometry": { "type": "Point", "coordinates": [ 129.32869, 35.46347, 115.0 ] } },
{ "type": "Feature", "properties": { "value": 1.5218 }, "geometry": { "type": "Point", "coordinates": [ 129.329788, 35.46347, 115.0 ] } },
{ "type": "Feature", "properties": { "value": 0.0889 }, "geometry": { "type": "Point", "coordinates": [ 129.330887, 35.463467, 115.0 ] } },
{ "type": "Feature", "properties": { "value": 0.1847 }, "geometry": { "type": "Point", "coordinates": [ 129.322083, 35.46439, 115.0 ] } },
{ "type": "Feature", "properties": { "value": 1.4329 }, "geometry": { "type": "Point", "coordinates": [ 129.323181, 35.46439, 115.0 ] } },
{ "type": "Feature", "properties": { "value": 5.3302 }, "geometry": { "type": "Point", "coordinates": [ 129.32428, 35.464386, 115.0 ] } },
{ "type": "Feature", "properties": { "value": 12.823 }, "geometry": { "type": "Point", "coordinates": [ 129.325378, 35.464382, 115.0 ] } },
{ "type": "Feature", "properties": { "value": 18.431 }, "geometry": { "type": "Point", "coordinates": [ 129.326477, 35.464378, 115.0 ] } },
{ "type": "Feature", "properties": { "value": 15.297 }, "geometry": { "type": "Point", "coordinates": [ 129.327591, 35.464375, 115.0 ] } },
{ "type": "Feature", "properties": { "value": 7.3844 }, "geometry": { "type": "Point", "coordinates": [ 129.32869, 35.464375, 115.0 ] } },
{ "type": "Feature", "properties": { "value": 2.1704 }, "geometry": { "type": "Point", "coordinates": [ 129.329788, 35.464371, 115.0 ] } },
{ "type": "Feature", "properties": { "value": 0.3656 }, "geometry": { "type": "Point", "coordinates": [ 129.330887, 35.464367, 115.0 ] } },
{ "type": "Feature", "properties": { "value": 0.4858 }, "geometry": { "type": "Point", "coordinates": [ 129.322083, 35.465294, 115.0 ] } },
{ "type": "Feature", "properties": { "value": 2.0908 }, "geometry": { "type": "Point", "coordinates": [ 129.323181, 35.46529, 115.0 ] } },
{ "type": "Feature", "properties": { "value": 6.2547 }, "geometry": { "type": "Point", "coordinates": [ 129.32428, 35.465286, 115.0 ] } },
{ "type": "Feature", "properties": { "value": 12.826 }, "geometry": { "type": "Point", "coordinates": [ 129.325394, 35.465282, 115.0 ] } },
{ "type": "Feature", "properties": { "value": 17.089 }, "geometry": { "type": "Point", "coordinates": [ 129.326492, 35.465279, 115.0 ] } },
{ "type": "Feature", "properties": { "value": 14.435 }, "geometry": { "type": "Point", "coordinates": [ 129.327591, 35.465279, 115.0 ] } },
{ "type": "Feature", "properties": { "value": 7.7674 }, "geometry": { "type": "Point", "coordinates": [ 129.32869, 35.465275, 115.0 ] } },
{ "type": "Feature", "properties": { "value": 2.7443 }, "geometry": { "type": "Point", "coordinates": [ 129.329788, 35.465271, 115.0 ] } },
{ "type": "Feature", "properties": { "value": 0.6516 }, "geometry": { "type": "Point", "coordinates": [ 129.330887, 35.465267, 115.0 ] } },
{ "type": "Feature", "properties": { "value": 0.1129 }, "geometry": { "type": "Point", "coordinates": [ 129.320984, 35.466198, 115.0 ] } },
{ "type": "Feature", "properties": { "value": 0.7723 }, "geometry": { "type": "Point", "coordinates": [ 129.322083, 35.466194, 115.0 ] } },
{ "type": "Feature", "properties": { "value": 2.6853 }, "geometry": { "type": "Point", "coordinates": [ 129.323181, 35.46619, 115.0 ] } },
{ "type": "Feature", "properties": { "value": 6.7884 }, "geometry": { "type": "Point", "coordinates": [ 129.324295, 35.466187, 115.0 ] } },
{ "type": "Feature", "properties": { "value": 12.335 }, "geometry": { "type": "Point", "coordinates": [ 129.325394, 35.466187, 115.0 ] } },
{ "type": "Feature", "properties": { "value": 15.53 }, "geometry": { "type": "Point", "coordinates": [ 129.326492, 35.466183, 115.0 ] } },
{ "type": "Feature", "properties": { "value": 13.312 }, "geometry": { "type": "Point", "coordinates": [ 129.327591, 35.466179, 115.0 ] } },
{ "type": "Feature", "properties": { "value": 7.7648 }, "geometry": { "type": "Point", "coordinates": [ 129.32869, 35.466175, 115.0 ] } },
{ "type": "Feature", "properties": { "value": 3.1841 }, "geometry": { "type": "Point", "coordinates": [ 129.329803, 35.466171, 115.0 ] } },
{ "type": "Feature", "properties": { "value": 0.9279 }, "geometry": { "type": "Point", "coordinates": [ 129.330902, 35.466171, 115.0 ] } },
{ "type": "Feature", "properties": { "value": 0.1441 }, "geometry": { "type": "Point", "coordinates": [ 129.332001, 35.466167, 115.0 ] } },
{ "type": "Feature", "properties": { "value": 0.2754 }, "geometry": { "type": "Point", "coordinates": [ 129.320984, 35.467098, 115.0 ] } },
{ "type": "Feature", "properties": { "value": 1.1069 }, "geometry": { "type": "Point", "coordinates": [ 129.322083, 35.467094, 115.0 ] } },
{ "type": "Feature", "properties": { "value": 3.1594 }, "geometry": { "type": "Point", "coordinates": [ 129.323196, 35.467091, 115.0 ] } },
{ "type": "Feature", "properties": { "value": 6.993 }, "geometry": { "type": "Point", "coordinates": [ 129.324295, 35.467091, 115.0 ] } },
{ "type": "Feature", "properties": { "value": 11.576 }, "geometry": { "type": "Point", "coordinates": [ 129.325394, 35.467087, 115.0 ] } },
{ "type": "Feature", "properties": { "value": 13.954 }, "geometry": { "type": "Point", "coordinates": [ 129.326492, 35.467083, 115.0 ] } },
{ "type": "Feature", "properties": { "value": 12.127 }, "geometry": { "type": "Point", "coordinates": [ 129.327591, 35.467079, 115.0 ] } },
{ "type": "Feature", "properties": { "value": 7.5686 }, "geometry": { "type": "Point", "coordinates": [ 129.328705, 35.467075, 115.0 ] } },
{ "type": "Feature", "properties": { "value": 3.4671 }, "geometry": { "type": "Point", "coordinates": [ 129.329803, 35.467075, 115.0 ] } },
{ "type": "Feature", "properties": { "value": 1.2044 }, "geometry": { "type": "Point", "coordinates": [ 129.330902, 35.467072, 115.0 ] } },
{ "type": "Feature", "properties": { "value": 0.307 }, "geometry": { "type": "Point", "coordinates": [ 129.332001, 35.467068, 115.0 ] } },
{ "type": "Feature", "properties": { "value": 0.0673 }, "geometry": { "type": "Point", "coordinates": [ 129.319885, 35.468002, 115.0 ] } },
{ "type": "Feature", "properties": { "value": 0.444 }, "geometry": { "type": "Point", "coordinates": [ 129.320984, 35.467999, 115.0 ] } },
{ "type": "Feature", "properties": { "value": 1.3876 }, "geometry": { "type": "Point", "coordinates": [ 129.322098, 35.467995, 115.0 ] } },
{ "type": "Feature", "properties": { "value": 3.4835 }, "geometry": { "type": "Point", "coordinates": [ 129.323196, 35.467995, 115.0 ] } },
{ "type": "Feature", "properties": { "value": 6.9444 }, "geometry": { "type": "Point", "coordinates": [ 129.324295, 35.467991, 115.0 ] } },
{ "type": "Feature", "properties": { "value": 10.711 }, "geometry": { "type": "Point", "coordinates": [ 129.325394, 35.467987, 115.0 ] } },
{ "type": "Feature", "properties": { "value": 12.523 }, "geometry": { "type": "Point", "coordinates": [ 129.326492, 35.467983, 115.0 ] } },
{ "type": "Feature", "properties": { "value": 10.988 }, "geometry": { "type": "Point", "coordinates": [ 129.327606, 35.467983, 115.0 ] } },
{ "type": "Feature", "properties": { "value": 7.2506 }, "geometry": { "type": "Point", "coordinates": [ 129.328705, 35.467979, 115.0 ] } },
{ "type": "Feature", "properties": { "value": 3.6501 }, "geometry": { "type": "Point", "coordinates": [ 129.329803, 35.467976, 115.0 ] } },
{ "type": "Feature", "properties": { "value": 1.4402 }, "geometry": { "type": "Point", "coordinates": [ 129.330902, 35.467972, 115.0 ] } },
{ "type": "Feature", "properties": { "value": 0.447 }, "geometry": { "type": "Point", "coordinates": [ 129.332001, 35.467968, 115.0 ] } },
{ "type": "Feature", "properties": { "value": 0.0571 }, "geometry": { "type": "Point", "coordinates": [ 129.333115, 35.467968, 115.0 ] } },
{ "type": "Feature", "properties": { "value": 0.1624 }, "geometry": { "type": "Point", "coordinates": [ 129.319885, 35.468903, 115.0 ] } },
{ "type": "Feature", "properties": { "value": 0.5952 }, "geometry": { "type": "Point", "coordinates": [ 129.320999, 35.468899, 115.0 ] } },
{ "type": "Feature", "properties": { "value": 1.636 }, "geometry": { "type": "Point", "coordinates": [ 129.322098, 35.468899, 115.0 ] } },
{ "type": "Feature", "properties": { "value": 3.6863 }, "geometry": { "type": "Point", "coordinates": [ 129.323196, 35.468895, 115.0 ] } },
{ "type": "Feature", "properties": { "value": 6.7457 }, "geometry": { "type": "Point", "coordinates": [ 129.324295, 35.468891, 115.0 ] } },
{ "type": "Feature", "properties": { "value": 9.8235 }, "geometry": { "type": "Point", "coordinates": [ 129.325394, 35.468887, 115.0 ] } },
{ "type": "Feature", "properties": { "value": 11.188 }, "geometry": { "type": "Point", "coordinates": [ 129.326508, 35.468887, 115.0 ] } },
{ "type": "Feature", "properties": { "value": 9.9216 }, "geometry": { "type": "Point", "coordinates": [ 129.327606, 35.468884, 115.0 ] } },
{ "type": "Feature", "properties": { "value": 6.868 }, "geometry": { "type": "Point", "coordinates": [ 129.328705, 35.46888, 115.0 ] } },
{ "type": "Feature", "properties": { "value": 3.745 }, "geometry": { "type": "Point", "coordinates": [ 129.329803, 35.468876, 115.0 ] } },
{ "type": "Feature", "properties": { "value": 1.6468 }, "geometry": { "type": "Point", "coordinates": [ 129.330902, 35.468872, 115.0 ] } },
{ "type": "Feature", "properties": { "value": 0.5871 }, "geometry": { "type": "Point", "coordinates": [ 129.332016, 35.468872, 115.0 ] } },
{ "type": "Feature", "properties": { "value": 0.1544 }, "geometry": { "type": "Point", "coordinates": [ 129.333115, 35.468868, 115.0 ] } },
{ "type": "Feature", "properties": { "value": 0.0384 }, "geometry": { "type": "Point", "coordinates": [ 129.318787, 35.469807, 115.0 ] } },
{ "type": "Feature", "properties": { "value": 0.2543 }, "geometry": { "type": "Point", "coordinates": [ 129.319901, 35.469803, 115.0 ] } },
{ "type": "Feature", "properties": { "value": 0.7424 }, "geometry": { "type": "Point", "coordinates": [ 129.320999, 35.469803, 115.0 ] } },
{ "type": "Feature", "properties": { "value": 1.8366 }, "geometry": { "type": "Point", "coordinates": [ 129.322098, 35.469799, 115.0 ] } },
{ "type": "Feature", "properties": { "value": 3.7813 }, "geometry": { "type": "Point", "coordinates": [ 129.323196, 35.469795, 115.0 ] } },
{ "type": "Feature", "properties": { "value": 6.4473 }, "geometry": { "type": "Point", "coordinates": [ 129.324295, 35.469791, 115.0 ] } },
{ "type": "Feature", "properties": { "value": 8.9679 }, "geometry": { "type": "Point", "coordinates": [ 129.325409, 35.469791, 115.0 ] } },
{ "type": "Feature", "properties": { "value": 10.022 }, "geometry": { "type": "Point", "coordinates": [ 129.326508, 35.469788, 115.0 ] } },
{ "type": "Feature", "properties": { "value": 8.9719 }, "geometry": { "type": "Point", "coordinates": [ 129.327606, 35.469784, 115.0 ] } },
{ "type": "Feature", "properties": { "value": 6.4549 }, "geometry": { "type": "Point", "coordinates": [ 129.328705, 35.46978, 115.0 ] } },
{ "type": "Feature", "properties": { "value": 3.7683 }, "geometry": { "type": "Point", "coordinates": [ 129.329819, 35.469776, 115.0 ] } },
{ "type": "Feature", "properties": { "value": 1.8184 }, "geometry": { "type": "Point", "coordinates": [ 129.330917, 35.469776, 115.0 ] } },
{ "type": "Feature", "properties": { "value": 0.7275 }, "geometry": { "type": "Point", "coordinates": [ 129.332016, 35.469772, 115.0 ] } },
{ "type": "Feature", "properties": { "value": 0.244 }, "geometry": { "type": "Point", "coordinates": [ 129.333115, 35.469769, 115.0 ] } },
{ "type": "Feature", "properties": { "value": 0.0158 }, "geometry": { "type": "Point", "coordinates": [ 129.334213, 35.469765, 115.0 ] } },
{ "type": "Feature", "properties": { "value": 0.0899 }, "geometry": { "type": "Point", "coordinates": [ 129.318802, 35.470707, 115.0 ] } },
{ "type": "Feature", "properties": { "value": 0.3362 }, "geometry": { "type": "Point", "coordinates": [ 129.319901, 35.470707, 115.0 ] } },
{ "type": "Feature", "properties": { "value": 0.8806 }, "geometry": { "type": "Point", "coordinates": [ 129.320999, 35.470703, 115.0 ] } },
{ "type": "Feature", "properties": { "value": 1.981 }, "geometry": { "type": "Point", "coordinates": [ 129.322098, 35.470699, 115.0 ] } },
{ "type": "Feature", "properties": { "value": 3.777 }, "geometry": { "type": "Point", "coordinates": [ 129.323212, 35.470695, 115.0 ] } },
{ "type": "Feature", "properties": { "value": 6.0603 }, "geometry": { "type": "Point", "coordinates": [ 129.32431, 35.470695, 115.0 ] } },
{ "type": "Feature", "properties": { "value": 8.1338 }, "geometry": { "type": "Point", "coordinates": [ 129.325409, 35.470692, 115.0 ] } },
{ "type": "Feature", "properties": { "value": 8.9571 }, "geometry": { "type": "Point", "coordinates": [ 129.326508, 35.470688, 115.0 ] } },
{ "type": "Feature", "properties": { "value": 8.0939 }, "geometry": { "type": "Point", "coordinates": [ 129.327606, 35.470684, 115.0 ] } },
{ "type": "Feature", "properties": { "value": 6.0127 }, "geometry": { "type": "Point", "coordinates": [ 129.32872, 35.470684, 115.0 ] } },
{ "type": "Feature", "properties": { "value": 3.7325 }, "geometry": { "type": "Point", "coordinates": [ 129.329819, 35.47068, 115.0 ] } },
{ "type": "Feature", "properties": { "value": 1.9463 }, "geometry": { "type": "Point", "coordinates": [ 129.330917, 35.470676, 115.0 ] } },
{ "type": "Feature", "properties": { "value": 0.8543 }, "geometry": { "type": "Point", "coordinates": [ 129.332016, 35.470673, 115.0 ] } },
{ "type": "Feature", "properties": { "value": 0.3216 }, "geometry": { "type": "Point", "coordinates": [ 129.333115, 35.470669, 115.0 ] } },
{ "type": "Feature", "properties": { "value": 0.0856 }, "geometry": { "type": "Point", "coordinates": [ 129.334229, 35.470669, 115.0 ] } },
{ "type": "Feature", "properties": { "value": 0.0292 }, "geometry": { "type": "Point", "coordinates": [ 129.317703, 35.471615, 115.0 ] } },
{ "type": "Feature", "properties": { "value": 0.151 }, "geometry": { "type": "Point", "coordinates": [ 129.318802, 35.471611, 115.0 ] } },
{ "type": "Feature", "properties": { "value": 0.429 }, "geometry": { "type": "Point", "coordinates": [ 129.319901, 35.471607, 115.0 ] } },
{ "type": "Feature", "properties": { "value": 0.9968 }, "geometry": { "type": "Point", "coordinates": [ 129.320999, 35.471603, 115.0 ] } },
{ "type": "Feature", "properties": { "value": 2.0686 }, "geometry": { "type": "Point", "coordinates": [ 129.322113, 35.4716, 115.0 ] } },
{ "type": "Feature", "properties": { "value": 3.6904 }, "geometry": { "type": "Point", "coordinates": [ 129.323212, 35.4716, 115.0 ] } },
{ "type": "Feature", "properties": { "value": 5.6359 }, "geometry": { "type": "Point", "coordinates": [ 129.32431, 35.471596, 115.0 ] } },
{ "type": "Feature", "properties": { "value": 7.3292 }, "geometry": { "type": "Point", "coordinates": [ 129.325409, 35.471592, 115.0 ] } },
{ "type": "Feature", "properties": { "value": 7.9724 }, "geometry": { "type": "Point", "coordinates": [ 129.326508, 35.471588, 115.0 ] } },
{ "type": "Feature", "properties": { "value": 7.2774 }, "geometry": { "type": "Point", "coordinates": [ 129.327621, 35.471588, 115.0 ] } },
{ "type": "Feature", "properties": { "value": 5.5835 }, "geometry": { "type": "Point", "coordinates": [ 129.32872, 35.471584, 115.0 ] } },
{ "type": "Feature", "properties": { "value": 3.6358 }, "geometry": { "type": "Point", "coordinates": [ 129.329819, 35.471581, 115.0 ] } },
{ "type": "Feature", "properties": { "value": 2.0192 }, "geometry": { "type": "Point", "coordinates": [ 129.330917, 35.471577, 115.0 ] } },
{ "type": "Feature", "properties": { "value": 0.9631 }, "geometry": { "type": "Point", "coordinates": [ 129.332016, 35.471573, 115.0 ] } },
{ "type": "Feature", "properties": { "value": 0.4117 }, "geometry": { "type": "Point", "coordinates": [ 129.33313, 35.471573, 115.0 ] } },
{ "type": "Feature", "properties": { "value": 0.1441 }, "geometry": { "type": "Point", "coordinates": [ 129.334229, 35.471569, 115.0 ] } },
{ "type": "Feature", "properties": { "value": 0.023 }, "geometry": { "type": "Point", "coordinates": [ 129.335327, 35.471565, 115.0 ] } },
{ "type": "Feature", "properties": { "value": 0.0561 }, "geometry": { "type": "Point", "coordinates": [ 129.317703, 35.472515, 115.0 ] } },
{ "type": "Feature", "properties": { "value": 0.1989 }, "geometry": { "type": "Point", "coordinates": [ 129.318802, 35.472511, 115.0 ] } },
{ "type": "Feature", "properties": { "value": 0.5056 }, "geometry": { "type": "Point", "coordinates": [ 129.319901, 35.472507, 115.0 ] } },
{ "type": "Feature", "properties": { "value": 1.0857 }, "geometry": { "type": "Point", "coordinates": [ 129.321014, 35.472507, 115.0 ] } },
{ "type": "Feature", "properties": { "value": 2.0985 }, "geometry": { "type": "Point", "coordinates": [ 129.322113, 35.472504, 115.0 ] } },
{ "type": "Feature", "properties": { "value": 3.5322 }, "geometry": { "type": "Point", "coordinates": [ 129.323212, 35.4725, 115.0 ] } },
{ "type": "Feature", "properties": { "value": 5.1811 }, "geometry": { "type": "Point", "coordinates": [ 129.32431, 35.472496, 115.0 ] } },
{ "type": "Feature", "properties": { "value": 6.5527 }, "geometry": { "type": "Point", "coordinates": [ 129.325409, 35.472492, 115.0 ] } },
{ "type": "Feature", "properties": { "value": 7.0544 }, "geometry": { "type": "Point", "coordinates": [ 129.326523, 35.472492, 115.0 ] } },
{ "type": "Feature", "properties": { "value": 6.5003 }, "geometry": { "type": "Point", "coordinates": [ 129.327621, 35.472488, 115.0 ] } },
{ "type": "Feature", "properties": { "value": 5.1267 }, "geometry": { "type": "Point", "coordinates": [ 129.32872, 35.472485, 115.0 ] } },
{ "type": "Feature", "properties": { "value": 3.4638 }, "geometry": { "type": "Point", "coordinates": [ 129.329819, 35.472481, 115.0 ] } },
{ "type": "Feature", "properties": { "value": 2.0454 }, "geometry": { "type": "Point", "coordinates": [ 129.330917, 35.472477, 115.0 ] } },
{ "type": "Feature", "properties": { "value": 1.0521 }, "geometry": { "type": "Point", "coordinates": [ 129.332031, 35.472477, 115.0 ] } },
{ "type": "Feature", "properties": { "value": 0.4881 }, "geometry": { "type": "Point", "coordinates": [ 129.33313, 35.472473, 115.0 ] } },
{ "type": "Feature", "properties": { "value": 0.1918 }, "geometry": { "type": "Point", "coordinates": [ 129.334229, 35.472469, 115.0 ] } },
{ "type": "Feature", "properties": { "value": 0.0549 }, "geometry": { "type": "Point", "coordinates": [ 129.335327, 35.472466, 115.0 ] } },
{ "type": "Feature", "properties": { "value": 0.0133 }, "geometry": { "type": "Point", "coordinates": [ 129.316605, 35.473419, 115.0 ] } },
{ "type": "Feature", "properties": { "value": 0.0957 }, "geometry": { "type": "Point", "coordinates": [ 129.317703, 35.473415, 115.0 ] } },
{ "type": "Feature", "properties": { "value": 0.257 }, "geometry": { "type": "Point", "coordinates": [ 129.318802, 35.473412, 115.0 ] } },
{ "type": "Feature", "properties": { "value": 0.5735 }, "geometry": { "type": "Point", "coordinates": [ 129.319916, 35.473412, 115.0 ] } },
{ "type": "Feature", "properties": { "value": 1.1445 }, "geometry": { "type": "Point", "coordinates": [ 129.321014, 35.473408, 115.0 ] } },
{ "type": "Feature", "properties": { "value": 2.0634 }, "geometry": { "type": "Point", "coordinates": [ 129.322113, 35.473404, 115.0 ] } },
{ "type": "Feature", "properties": { "value": 3.3136 }, "geometry": { "type": "Point", "coordinates": [ 129.323212, 35.4734, 115.0 ] } },
{ "type": "Feature", "properties": { "value": 4.6808 }, "geometry": { "type": "Point", "coordinates": [ 129.32431, 35.473396, 115.0 ] } },
{ "type": "Feature", "properties": { "value": 5.7719 }, "geometry": { "type": "Point", "coordinates": [ 129.325424, 35.473396, 115.0 ] } },
{ "type": "Feature", "properties": { "value": 6.1744 }, "geometry": { "type": "Point", "coordinates": [ 129.326523, 35.473392, 115.0 ] } },
{ "type": "Feature", "properties": { "value": 5.7368 }, "geometry": { "type": "Point", "coordinates": [ 129.327621, 35.473389, 115.0 ] } },
{ "type": "Feature", "properties": { "value": 4.6285 }, "geometry": { "type": "Point", "coordinates": [ 129.32872, 35.473385, 115.0 ] } },
{ "type": "Feature", "properties": { "value": 3.256 }, "geometry": { "type": "Point", "coordinates": [ 129.329819, 35.473385, 115.0 ] } },
{ "type": "Feature", "properties": { "value": 2.0179 }, "geometry": { "type": "Point", "coordinates": [ 129.330933, 35.473381, 115.0 ] } },
{ "type": "Feature", "properties": { "value": 1.1137 }, "geometry": { "type": "Point", "coordinates": [ 129.332031, 35.473377, 115.0 ] } },
{ "type": "Feature", "properties": { "value": 0.5561 }, "geometry": { "type": "Point", "coordinates": [ 129.33313, 35.473373, 115.0 ] } },
{ "type": "Feature", "properties": { "value": 0.2494 }, "geometry": { "type": "Point", "coordinates": [ 129.334229, 35.47337, 115.0 ] } },
{ "type": "Feature", "properties": { "value": 0.0938 }, "geometry": { "type": "Point", "coordinates": [ 129.335342, 35.47337, 115.0 ] } },
{ "type": "Feature", "properties": { "value": 0.0159 }, "geometry": { "type": "Point", "coordinates": [ 129.336441, 35.473366, 115.0 ] } },
{ "type": "Feature", "properties": { "value": 0.0375 }, "geometry": { "type": "Point", "coordinates": [ 129.316605, 35.474319, 115.0 ] } },
{ "type": "Feature", "properties": { "value": 0.131 }, "geometry": { "type": "Point", "coordinates": [ 129.317703, 35.474316, 115.0 ] } },
{ "type": "Feature", "properties": { "value": 0.3009 }, "geometry": { "type": "Point", "coordinates": [ 129.318817, 35.474316, 115.0 ] } },
{ "type": "Feature", "properties": { "value": 0.6275 }, "geometry": { "type": "Point", "coordinates": [ 129.319916, 35.474312, 115.0 ] } },
{ "type": "Feature", "properties": { "value": 1.1788 }, "geometry": { "type": "Point", "coordinates": [ 129.321014, 35.474308, 115.0 ] } },
{ "type": "Feature", "properties": { "value": 2.0121 }, "geometry": { "type": "Point", "coordinates": [ 129.322113, 35.474304, 115.0 ] } },
{ "type": "Feature", "properties": { "value": 3.0873 }, "geometry": { "type": "Point", "coordinates": [ 129.323212, 35.4743, 115.0 ] } },
{ "type": "Feature", "properties": { "value": 4.2182 }, "geometry": { "type": "Point", "coordinates": [ 129.324326, 35.4743, 115.0 ] } },
{ "type": "Feature", "properties": { "value": 5.0913 }, "geometry": { "type": "Point", "coordinates": [ 129.325424, 35.474297, 115.0 ] } },
{ "type": "Feature", "properties": { "value": 5.4138 }, "geometry": { "type": "Point", "coordinates": [ 129.326523, 35.474293, 115.0 ] } },
{ "type": "Feature", "properties": { "value": 5.0644 }, "geometry": { "type": "Point", "coordinates": [ 129.327621, 35.474289, 115.0 ] } },
{ "type": "Feature", "properties": { "value": 4.1753 }, "geometry": { "type": "Point", "coordinates": [ 129.328735, 35.474289, 115.0 ] } },
{ "type": "Feature", "properties": { "value": 3.0431 }, "geometry": { "type": "Point", "coordinates": [ 129.329834, 35.474285, 115.0 ] } },
{ "type": "Feature", "properties": { "value": 1.9745 }, "geometry": { "type": "Point", "coordinates": [ 129.330933, 35.474281, 115.0 ] } },
{ "type": "Feature", "properties": { "value": 1.1526 }, "geometry": { "type": "Point", "coordinates": [ 129.332031, 35.474277, 115.0 ] } },
{ "type": "Feature", "properties": { "value": 0.6133 }, "geometry": { "type": "Point", "coordinates": [ 129.33313, 35.474274, 115.0 ] } },
{ "type": "Feature", "properties": { "value": 0.2952 }, "geometry": { "type": "Point", "coordinates": [ 129.334244, 35.474274, 115.0 ] } },
{ "type": "Feature", "properties": { "value": 0.1295 }, "geometry": { "type": "Point", "coordinates": [ 129.335342, 35.47427, 115.0 ] } },
{ "type": "Feature", "properties": { "value": 0.0397 }, "geometry": { "type": "Point", "coordinates": [ 129.336441, 35.474266, 115.0 ] } },
{ "type": "Feature", "properties": { "value": 0.0644 }, "geometry": { "type": "Point", "coordinates": [ 129.316605, 35.47522, 115.0 ] } },
{ "type": "Feature", "properties": { "value": 0.1615 }, "geometry": { "type": "Point", "coordinates": [ 129.317719, 35.47522, 115.0 ] } },
{ "type": "Feature", "properties": { "value": 0.3388 }, "geometry": { "type": "Point", "coordinates": [ 129.318817, 35.475216, 115.0 ] } },
{ "type": "Feature", "properties": { "value": 0.6701 }, "geometry": { "type": "Point", "coordinates": [ 129.319916, 35.475212, 115.0 ] } },
{ "type": "Feature", "properties": { "value": 1.1985 }, "geometry": { "type": "Point", "coordinates": [ 129.321014, 35.475208, 115.0 ] } },
{ "type": "Feature", "properties": { "value": 1.9565 }, "geometry": { "type": "Point", "coordinates": [ 129.322113, 35.475208, 115.0 ] } },
{ "type": "Feature", "properties": { "value": 2.8914 }, "geometry": { "type": "Point", "coordinates": [ 129.323227, 35.475204, 115.0 ] } },
{ "type": "Feature", "properties": { "value": 3.8331 }, "geometry": { "type": "Point", "coordinates": [ 129.324326, 35.475201, 115.0 ] } },
{ "type": "Feature", "properties": { "value": 4.5571 }, "geometry": { "type": "Point", "coordinates": [ 129.325424, 35.475197, 115.0 ] } },
{ "type": "Feature", "properties": { "value": 4.82 }, "geometry": { "type": "Point", "coordinates": [ 129.326523, 35.475193, 115.0 ] } },
{ "type": "Feature", "properties": { "value": 4.5393 }, "geometry": { "type": "Point", "coordinates": [ 129.327637, 35.475193, 115.0 ] } },
{ "type": "Feature", "properties": { "value": 3.8047 }, "geometry": { "type": "Point", "coordinates": [ 129.328735, 35.475189, 115.0 ] } },
{ "type": "Feature", "properties": { "value": 2.8597 }, "geometry": { "type": "Point", "coordinates": [ 129.329834, 35.475185, 115.0 ] } },
{ "type": "Feature", "properties": { "value": 1.9271 }, "geometry": { "type": "Point", "coordinates": [ 129.330933, 35.475182, 115.0 ] } },
{ "type": "Feature", "properties": { "value": 1.1787 }, "geometry": { "type": "Point", "coordinates": [ 129.332031, 35.475178, 115.0 ] } },
{ "type": "Feature", "properties": { "value": 0.6598 }, "geometry": { "type": "Point", "coordinates": [ 129.333145, 35.475178, 115.0 ] } },
{ "type": "Feature", "properties": { "value": 0.3351 }, "geometry": { "type": "Point", "coordinates": [ 129.334244, 35.475174, 115.0 ] } },
{ "type": "Feature", "properties": { "value": 0.1551 }, "geometry": { "type": "Point", "coordinates": [ 129.335342, 35.47517, 115.0 ] } },
{ "type": "Feature", "properties": { "value": 0.0649 }, "geometry": { "type": "Point", "coordinates": [ 129.336441, 35.475166, 115.0 ] } },
{ "type": "Feature", "properties": { "value": 0.0201 }, "geometry": { "type": "Point", "coordinates": [ 129.315506, 35.476124, 115.0 ] } },
{ "type": "Feature", "properties": { "value": 0.0812 }, "geometry": { "type": "Point", "coordinates": [ 129.31662, 35.476124, 115.0 ] } },
{ "type": "Feature", "properties": { "value": 0.1835 }, "geometry": { "type": "Point", "coordinates": [ 129.317719, 35.47612, 115.0 ] } },
{ "type": "Feature", "properties": { "value": 0.3701 }, "geometry": { "type": "Point", "coordinates": [ 129.318817, 35.476116, 115.0 ] } },
{ "type": "Feature", "properties": { "value": 0.7001 }, "geometry": { "type": "Point", "coordinates": [ 129.319916, 35.476112, 115.0 ] } },
{ "type": "Feature", "properties": { "value": 1.2017 }, "geometry": { "type": "Point", "coordinates": [ 129.32103, 35.476112, 115.0 ] } },
{ "type": "Feature", "properties": { "value": 1.8902 }, "geometry": { "type": "Point", "coordinates": [ 129.322128, 35.476109, 115.0 ] } },
{ "type": "Feature", "properties": { "value": 2.7075 }, "geometry": { "type": "Point", "coordinates": [ 129.323227, 35.476105, 115.0 ] } },
{ "type": "Feature", "properties": { "value": 3.5072 }, "geometry": { "type": "Point", "coordinates": [ 129.324326, 35.476101, 115.0 ] } },
{ "type": "Feature", "properties": { "value": 4.1016 }, "geometry": { "type": "Point", "coordinates": [ 129.325424, 35.476097, 115.0 ] } },
{ "type": "Feature", "properties": { "value": 4.3275 }, "geometry": { "type": "Point", "coordinates": [ 129.326538, 35.476097, 115.0 ] } },
{ "type": "Feature", "properties": { "value": 4.092 }, "geometry": { "type": "Point", "coordinates": [ 129.327637, 35.476093, 115.0 ] } },
{ "type": "Feature", "properties": { "value": 3.4918 }, "geometry": { "type": "Point", "coordinates": [ 129.328735, 35.476089, 115.0 ] } },
{ "type": "Feature", "properties": { "value": 2.6863 }, "geometry": { "type": "Point", "coordinates": [ 129.329834, 35.476086, 115.0 ] } },
{ "type": "Feature", "properties": { "value": 1.87 }, "geometry": { "type": "Point", "coordinates": [ 129.330933, 35.476086, 115.0 ] } },
{ "type": "Feature", "properties": { "value": 1.1888 }, "geometry": { "type": "Point", "coordinates": [ 129.332047, 35.476082, 115.0 ] } },
{ "type": "Feature", "properties": { "value": 0.6937 }, "geometry": { "type": "Point", "coordinates": [ 129.333145, 35.476078, 115.0 ] } },
{ "type": "Feature", "properties": { "value": 0.3682 }, "geometry": { "type": "Point", "coordinates": [ 129.334244, 35.476074, 115.0 ] } },
{ "type": "Feature", "properties": { "value": 0.1834 }, "geometry": { "type": "Point", "coordinates": [ 129.335342, 35.47607, 115.0 ] } },
{ "type": "Feature", "properties": { "value": 0.0817 }, "geometry": { "type": "Point", "coordinates": [ 129.336441, 35.47607, 115.0 ] } },
{ "type": "Feature", "properties": { "value": 0.0205 }, "geometry": { "type": "Point", "coordinates": [ 129.337555, 35.476067, 115.0 ] } },
{ "type": "Feature", "properties": { "value": 0.033 }, "geometry": { "type": "Point", "coordinates": [ 129.315521, 35.477028, 115.0 ] } },
{ "type": "Feature", "properties": { "value": 0.0924 }, "geometry": { "type": "Point", "coordinates": [ 129.31662, 35.477024, 115.0 ] } },
{ "type": "Feature", "properties": { "value": 0.2056 }, "geometry": { "type": "Point", "coordinates": [ 129.317719, 35.47702, 115.0 ] } },
{ "type": "Feature", "properties": { "value": 0.3983 }, "geometry": { "type": "Point", "coordinates": [ 129.318817, 35.477016, 115.0 ] } },
{ "type": "Feature", "properties": { "value": 0.7153 }, "geometry": { "type": "Point", "coordinates": [ 129.319931, 35.477016, 115.0 ] } },
{ "type": "Feature", "properties": { "value": 1.187 }, "geometry": { "type": "Point", "coordinates": [ 129.32103, 35.477013, 115.0 ] } },
{ "type": "Feature", "properties": { "value": 1.8111 }, "geometry": { "type": "Point", "coordinates": [ 129.322128, 35.477009, 115.0 ] } },
{ "type": "Feature", "properties": { "value": 2.5288 }, "geometry": { "type": "Point", "coordinates": [ 129.323227, 35.477005, 115.0 ] } },
{ "type": "Feature", "properties": { "value": 3.2146 }, "geometry": { "type": "Point", "coordinates": [ 129.324326, 35.477005, 115.0 ] } },
{ "type": "Feature", "properties": { "value": 3.7165 }, "geometry": { "type": "Point", "coordinates": [ 129.325439, 35.477001, 115.0 ] } },
{ "type": "Feature", "properties": { "value": 3.9001 }, "geometry": { "type": "Point", "coordinates": [ 129.326538, 35.476997, 115.0 ] } },
{ "type": "Feature", "properties": { "value": 3.7084 }, "geometry": { "type": "Point", "coordinates": [ 129.327637, 35.476994, 115.0 ] } },
{ "type": "Feature", "properties": { "value": 3.2033 }, "geometry": { "type": "Point", "coordinates": [ 129.328735, 35.47699, 115.0 ] } },
{ "type": "Feature", "properties": { "value": 2.5155 }, "geometry": { "type": "Point", "coordinates": [ 129.329834, 35.47699, 115.0 ] } },
{ "type": "Feature", "properties": { "value": 1.7994 }, "geometry": { "type": "Point", "coordinates": [ 129.330948, 35.476986, 115.0 ] } },
{ "type": "Feature", "properties": { "value": 1.1803 }, "geometry": { "type": "Point", "coordinates": [ 129.332047, 35.476982, 115.0 ] } },
{ "type": "Feature", "properties": { "value": 0.7126 }, "geometry": { "type": "Point", "coordinates": [ 129.333145, 35.476978, 115.0 ] } },
{ "type": "Feature", "properties": { "value": 0.3978 }, "geometry": { "type": "Point", "coordinates": [ 129.334244, 35.476974, 115.0 ] } },
{ "type": "Feature", "properties": { "value": 0.2017 }, "geometry": { "type": "Point", "coordinates": [ 129.335342, 35.476974, 115.0 ] } },
{ "type": "Feature", "properties": { "value": 0.0933 }, "geometry": { "type": "Point", "coordinates": [ 129.336456, 35.476971, 115.0 ] } },
{ "type": "Feature", "properties": { "value": 0.0335 }, "geometry": { "type": "Point", "coordinates": [ 129.337555, 35.476967, 115.0 ] } },
{ "type": "Feature", "properties": { "value": 0.0064 }, "geometry": { "type": "Point", "coordinates": [ 129.314423, 35.477932, 115.0 ] } },
{ "type": "Feature", "properties": { "value": 0.0439 }, "geometry": { "type": "Point", "coordinates": [ 129.315521, 35.477928, 115.0 ] } },
{ "type": "Feature", "properties": { "value": 0.1051 }, "geometry": { "type": "Point", "coordinates": [ 129.31662, 35.477924, 115.0 ] } },
{ "type": "Feature", "properties": { "value": 0.2175 }, "geometry": { "type": "Point", "coordinates": [ 129.317719, 35.477921, 115.0 ] } },
{ "type": "Feature", "properties": { "value": 0.409 }, "geometry": { "type": "Point", "coordinates": [ 129.318832, 35.477921, 115.0 ] } },
{ "type": "Feature", "properties": { "value": 0.7138 }, "geometry": { "type": "Point", "coordinates": [ 129.319931, 35.477917, 115.0 ] } },
{ "type": "Feature", "properties": { "value": 1.1519 }, "geometry": { "type": "Point", "coordinates": [ 129.32103, 35.477913, 115.0 ] } },
{ "type": "Feature", "properties": { "value": 1.7142 }, "geometry": { "type": "Point", "coordinates": [ 129.322128, 35.477909, 115.0 ] } },
{ "type": "Feature", "properties": { "value": 2.3385 }, "geometry": { "type": "Point", "coordinates": [ 129.323227, 35.477909, 115.0 ] } },
{ "type": "Feature", "properties": { "value": 2.9353 }, "geometry": { "type": "Point", "coordinates": [ 129.324341, 35.477905, 115.0 ] } },
{ "type": "Feature", "properties": { "value": 3.3616 }, "geometry": { "type": "Point", "coordinates": [ 129.325439, 35.477901, 115.0 ] } },
{ "type": "Feature", "properties": { "value": 3.5134 }, "geometry": { "type": "Point", "coordinates": [ 129.326538, 35.477898, 115.0 ] } },
{ "type": "Feature", "properties": { "value": 3.3522 }, "geometry": { "type": "Point", "coordinates": [ 129.327637, 35.477894, 115.0 ] } },
{ "type": "Feature", "properties": { "value": 2.9257 }, "geometry": { "type": "Point", "coordinates": [ 129.328735, 35.477894, 115.0 ] } },
{ "type": "Feature", "properties": { "value": 2.3313 }, "geometry": { "type": "Point", "coordinates": [ 129.329849, 35.47789, 115.0 ] } },
{ "type": "Feature", "properties": { "value": 1.7091 }, "geometry": { "type": "Point", "coordinates": [ 129.330948, 35.477886, 115.0 ] } },
{ "type": "Feature", "properties": { "value": 1.1499 }, "geometry": { "type": "Point", "coordinates": [ 129.332047, 35.477882, 115.0 ] } },
{ "type": "Feature", "properties": { "value": 0.714 }, "geometry": { "type": "Point", "coordinates": [ 129.333145, 35.477879, 115.0 ] } },
{ "type": "Feature", "properties": { "value": 0.4101 }, "geometry": { "type": "Point", "coordinates": [ 129.334259, 35.477879, 115.0 ] } },
{ "type": "Feature", "properties": { "value": 0.2186 }, "geometry": { "type": "Point", "coordinates": [ 129.335358, 35.477875, 115.0 ] } },
{ "type": "Feature", "properties": { "value": 0.1061 }, "geometry": { "type": "Point", "coordinates": [ 129.336456, 35.477871, 115.0 ] } },
{ "type": "Feature", "properties": { "value": 0.0445 }, "geometry": { "type": "Point", "coordinates": [ 129.337555, 35.477867, 115.0 ] } },
{ "type": "Feature", "properties": { "value": 0.0065 }, "geometry": { "type": "Point", "coordinates": [ 129.338654, 35.477863, 115.0 ] } },
{ "type": "Feature", "properties": { "value": 0.013 }, "geometry": { "type": "Point", "coordinates": [ 129.314423, 35.478832, 115.0 ] } },
{ "type": "Feature", "properties": { "value": 0.0474 }, "geometry": { "type": "Point", "coordinates": [ 129.315521, 35.478828, 115.0 ] } },
{ "type": "Feature", "properties": { "value": 0.1105 }, "geometry": { "type": "Point", "coordinates": [ 129.31662, 35.478825, 115.0 ] } },
{ "type": "Feature", "properties": { "value": 0.2224 }, "geometry": { "type": "Point", "coordinates": [ 129.317734, 35.478825, 115.0 ] } },
{ "type": "Feature", "properties": { "value": 0.4072 }, "geometry": { "type": "Point", "coordinates": [ 129.318832, 35.478821, 115.0 ] } },
{ "type": "Feature", "properties": { "value": 0.6935 }, "geometry": { "type": "Point", "coordinates": [ 129.319931, 35.478817, 115.0 ] } },
{ "type": "Feature", "properties": { "value": 1.0938 }, "geometry": { "type": "Point", "coordinates": [ 129.32103, 35.478813, 115.0 ] } },
{ "type": "Feature", "properties": { "value": 1.5936 }, "geometry": { "type": "Point", "coordinates": [ 129.322128, 35.478813, 115.0 ] } },
{ "type": "Feature", "properties": { "value": 2.1371 }, "geometry": { "type": "Point", "coordinates": [ 129.323242, 35.478809, 115.0 ] } },
{ "type": "Feature", "properties": { "value": 2.6501 }, "geometry": { "type": "Point", "coordinates": [ 129.324341, 35.478806, 115.0 ] } },
{ "type": "Feature", "properties": { "value": 3.0106 }, "geometry": { "type": "Point", "coordinates": [ 129.325439, 35.478802, 115.0 ] } },
{ "type": "Feature", "properties": { "value": 3.1403 }, "geometry": { "type": "Point", "coordinates": [ 129.326538, 35.478798, 115.0 ] } },
{ "type": "Feature", "properties": { "value": 3.0073 }, "geometry": { "type": "Point", "coordinates": [ 129.327637, 35.478798, 115.0 ] } },
{ "type": "Feature", "properties": { "value": 2.6466 }, "geometry": { "type": "Point", "coordinates": [ 129.328751, 35.478794, 115.0 ] } },
{ "type": "Feature", "properties": { "value": 2.1379 }, "geometry": { "type": "Point", "coordinates": [ 129.329849, 35.47879, 115.0 ] } },
{ "type": "Feature", "properties": { "value": 1.5947 }, "geometry": { "type": "Point", "coordinates": [ 129.330948, 35.478786, 115.0 ] } },
{ "type": "Feature", "properties": { "value": 1.0954 }, "geometry": { "type": "Point", "coordinates": [ 129.332047, 35.478786, 115.0 ] } },
{ "type": "Feature", "properties": { "value": 0.6955 }, "geometry": { "type": "Point", "coordinates": [ 129.33316, 35.478783, 115.0 ] } },
{ "type": "Feature", "properties": { "value": 0.4091 }, "geometry": { "type": "Point", "coordinates": [ 129.334259, 35.478779, 115.0 ] } },
{ "type": "Feature", "properties": { "value": 0.2238 }, "geometry": { "type": "Point", "coordinates": [ 129.335358, 35.478775, 115.0 ] } },
{ "type": "Feature", "properties": { "value": 0.1115 }, "geometry": { "type": "Point", "coordinates": [ 129.336456, 35.478771, 115.0 ] } },
{ "type": "Feature", "properties": { "value": 0.048 }, "geometry": { "type": "Point", "coordinates": [ 129.337555, 35.478771, 115.0 ] } },
{ "type": "Feature", "properties": { "value": 0.0131 }, "geometry": { "type": "Point", "coordinates": [ 129.338669, 35.478767, 115.0 ] } },
{ "type": "Feature", "properties": { "value": 0.0177 }, "geometry": { "type": "Point", "coordinates": [ 129.314423, 35.479733, 115.0 ] } },
{ "type": "Feature", "properties": { "value": 0.0519 }, "geometry": { "type": "Point", "coordinates": [ 129.315521, 35.479729, 115.0 ] } },
{ "type": "Feature", "properties": { "value": 0.1116 }, "geometry": { "type": "Point", "coordinates": [ 129.316635, 35.479729, 115.0 ] } },
{ "type": "Feature", "properties": { "value": 0.2194 }, "geometry": { "type": "Point", "coordinates": [ 129.317734, 35.479725, 115.0 ] } },
{ "type": "Feature", "properties": { "value": 0.3927 }, "geometry": { "type": "Point", "coordinates": [ 129.318832, 35.479721, 115.0 ] } },
{ "type": "Feature", "properties": { "value": 0.6546 }, "geometry": { "type": "Point", "coordinates": [ 129.319931, 35.479717, 115.0 ] } },
{ "type": "Feature", "properties": { "value": 1.0128 }, "geometry": { "type": "Point", "coordinates": [ 129.32103, 35.479717, 115.0 ] } },
{ "type": "Feature", "properties": { "value": 1.451 }, "geometry": { "type": "Point", "coordinates": [ 129.322144, 35.479713, 115.0 ] } },
{ "type": "Feature", "properties": { "value": 1.919 }, "geometry": { "type": "Point", "coordinates": [ 129.323242, 35.47971, 115.0 ] } },
{ "type": "Feature", "properties": { "value": 2.3504 }, "geometry": { "type": "Point", "coordinates": [ 129.324341, 35.479706, 115.0 ] } },
{ "type": "Feature", "properties": { "value": 2.6591 }, "geometry": { "type": "Point", "coordinates": [ 129.325439, 35.479706, 115.0 ] } },
{ "type": "Feature", "properties": { "value": 2.7705 }, "geometry": { "type": "Point", "coordinates": [ 129.326553, 35.479702, 115.0 ] } },
{ "type": "Feature", "properties": { "value": 2.6617 }, "geometry": { "type": "Point", "coordinates": [ 129.327652, 35.479698, 115.0 ] } },
{ "type": "Feature", "properties": { "value": 2.3526 }, "geometry": { "type": "Point", "coordinates": [ 129.328751, 35.479694, 115.0 ] } },
{ "type": "Feature", "properties": { "value": 1.9238 }, "geometry": { "type": "Point", "coordinates": [ 129.329849, 35.479691, 115.0 ] } },
{ "type": "Feature", "properties": { "value": 1.455 }, "geometry": { "type": "Point", "coordinates": [ 129.330948, 35.479691, 115.0 ] } },
{ "type": "Feature", "properties": { "value": 1.0162 }, "geometry": { "type": "Point", "coordinates": [ 129.332062, 35.479687, 115.0 ] } },
{ "type": "Feature", "properties": { "value": 0.6575 }, "geometry": { "type": "Point", "coordinates": [ 129.33316, 35.479683, 115.0 ] } },
{ "type": "Feature", "properties": { "value": 0.395 }, "geometry": { "type": "Point", "coordinates": [ 129.334259, 35.479679, 115.0 ] } },
{ "type": "Feature", "properties": { "value": 0.221 }, "geometry": { "type": "Point", "coordinates": [ 129.335358, 35.479675, 115.0 ] } },
{ "type": "Feature", "properties": { "value": 0.1126 }, "geometry": { "type": "Point", "coordinates": [ 129.336456, 35.479675, 115.0 ] } },
{ "type": "Feature", "properties": { "value": 0.0523 }, "geometry": { "type": "Point", "coordinates": [ 129.33757, 35.479671, 115.0 ] } },
{ "type": "Feature", "properties": { "value": 0.0154 }, "geometry": { "type": "Point", "coordinates": [ 129.338669, 35.479668, 115.0 ] } },
{ "type": "Feature", "properties": { "value": 0.0197 }, "geometry": { "type": "Point", "coordinates": [ 129.314423, 35.480633, 115.0 ] } },
{ "type": "Feature", "properties": { "value": 0.0512 }, "geometry": { "type": "Point", "coordinates": [ 129.315536, 35.480633, 115.0 ] } },
{ "type": "Feature", "properties": { "value": 0.1081 }, "geometry": { "type": "Point", "coordinates": [ 129.316635, 35.480629, 115.0 ] } },
{ "type": "Feature", "properties": { "value": 0.2084 }, "geometry": { "type": "Point", "coordinates": [ 129.317734, 35.480625, 115.0 ] } },
{ "type": "Feature", "properties": { "value": 0.3659 }, "geometry": { "type": "Point", "coordinates": [ 129.318832, 35.480621, 115.0 ] } },
{ "type": "Feature", "properties": { "value": 0.5988 }, "geometry": { "type": "Point", "coordinates": [ 129.319931, 35.480621, 115.0 ] } },
{ "type": "Feature", "properties": { "value": 0.9114 }, "geometry": { "type": "Point", "coordinates": [ 129.321045, 35.480618, 115.0 ] } },
{ "type": "Feature", "properties": { "value": 1.288 }, "geometry": { "type": "Point", "coordinates": [ 129.322144, 35.480614, 115.0 ] } },
{ "type": "Feature", "properties": { "value": 1.685 }, "geometry": { "type": "Point", "coordinates": [ 129.323242, 35.48061, 115.0 ] } },
{ "type": "Feature", "properties": { "value": 2.0498 }, "geometry": { "type": "Point", "coordinates": [ 129.324341, 35.48061, 115.0 ] } },
{ "type": "Feature", "properties": { "value": 2.3037 }, "geometry": { "type": "Point", "coordinates": [ 129.325455, 35.480606, 115.0 ] } },
{ "type": "Feature", "properties": { "value": 2.3972 }, "geometry": { "type": "Point", "coordinates": [ 129.326553, 35.480602, 115.0 ] } },
{ "type": "Feature", "properties": { "value": 2.3076 }, "geometry": { "type": "Point", "coordinates": [ 129.327652, 35.480598, 115.0 ] } },
{ "type": "Feature", "properties": { "value": 2.0542 }, "geometry": { "type": "Point", "coordinates": [ 129.328751, 35.480595, 115.0 ] } },
{ "type": "Feature", "properties": { "value": 1.6897 }, "geometry": { "type": "Point", "coordinates": [ 129.329849, 35.480595, 115.0 ] } },
{ "type": "Feature", "properties": { "value": 1.2925 }, "geometry": { "type": "Point", "coordinates": [ 129.330963, 35.480591, 115.0 ] } },
{ "type": "Feature", "properties": { "value": 0.9154 }, "geometry": { "type": "Point", "coordinates": [ 129.332062, 35.480587, 115.0 ] } },
{ "type": "Feature", "properties": { "value": 0.6019 }, "geometry": { "type": "Point", "coordinates": [ 129.33316, 35.480583, 115.0 ] } },
{ "type": "Feature", "properties": { "value": 0.3682 }, "geometry": { "type": "Point", "coordinates": [ 129.334259, 35.480579, 115.0 ] } },
{ "type": "Feature", "properties": { "value": 0.2099 }, "geometry": { "type": "Point", "coordinates": [ 129.335358, 35.480579, 115.0 ] } },
{ "type": "Feature", "properties": { "value": 0.109 }, "geometry": { "type": "Point", "coordinates": [ 129.336472, 35.480576, 115.0 ] } },
{ "type": "Feature", "properties": { "value": 0.0515 }, "geometry": { "type": "Point", "coordinates": [ 129.33757, 35.480572, 115.0 ] } },
{ "type": "Feature", "properties": { "value": 0.0197 }, "geometry": { "type": "Point", "coordinates": [ 129.338669, 35.480568, 115.0 ] } },
{ "type": "Feature", "properties": { "value": 0.001 }, "geometry": { "type": "Point", "coordinates": [ 129.313324, 35.481537, 115.0 ] } },
{ "type": "Feature", "properties": { "value": 0.0206 }, "geometry": { "type": "Point", "coordinates": [ 129.314438, 35.481537, 115.0 ] } },
{ "type": "Feature", "properties": { "value": 0.0482 }, "geometry": { "type": "Point", "coordinates": [ 129.315536, 35.481533, 115.0 ] } },
{ "type": "Feature", "properties": { "value": 0.1004 }, "geometry": { "type": "Point", "coordinates": [ 129.316635, 35.481529, 115.0 ] } },
{ "type": "Feature", "properties": { "value": 0.1903 }, "geometry": { "type": "Point", "coordinates": [ 129.317734, 35.481525, 115.0 ] } },
{ "type": "Feature", "properties": { "value": 0.3285 }, "geometry": { "type": "Point", "coordinates": [ 129.318848, 35.481525, 115.0 ] } },
{ "type": "Feature", "properties": { "value": 0.5292 }, "geometry": { "type": "Point", "coordinates": [ 129.319946, 35.481522, 115.0 ] } },
{ "type": "Feature", "properties": { "value": 0.7943 }, "geometry": { "type": "Point", "coordinates": [ 129.321045, 35.481518, 115.0 ] } },
{ "type": "Feature", "properties": { "value": 1.1098 }, "geometry": { "type": "Point", "coordinates": [ 129.322144, 35.481514, 115.0 ] } },
{ "type": "Feature", "properties": { "value": 1.4383 }, "geometry": { "type": "Point", "coordinates": [ 129.323242, 35.481514, 115.0 ] } },
{ "type": "Feature", "properties": { "value": 1.737 }, "geometry": { "type": "Point", "coordinates": [ 129.324356, 35.48151, 115.0 ] } },
{ "type": "Feature", "properties": { "value": 1.9443 }, "geometry": { "type": "Point", "coordinates": [ 129.325455, 35.481506, 115.0 ] } },
{ "type": "Feature", "properties": { "value": 2.0197 }, "geometry": { "type": "Point", "coordinates": [ 129.326553, 35.481503, 115.0 ] } },
{ "type": "Feature", "properties": { "value": 1.9461 }, "geometry": { "type": "Point", "coordinates": [ 129.327652, 35.481503, 115.0 ] } },
{ "type": "Feature", "properties": { "value": 1.7397 }, "geometry": { "type": "Point", "coordinates": [ 129.328751, 35.481499, 115.0 ] } },
{ "type": "Feature", "properties": { "value": 1.4412 }, "geometry": { "type": "Point", "coordinates": [ 129.329865, 35.481495, 115.0 ] } },
{ "type": "Feature", "properties": { "value": 1.1134 }, "geometry": { "type": "Point", "coordinates": [ 129.330963, 35.481491, 115.0 ] } },
{ "type": "Feature", "properties": { "value": 0.7981 }, "geometry": { "type": "Point", "coordinates": [ 129.332062, 35.481487, 115.0 ] } },
{ "type": "Feature", "properties": { "value": 0.5322 }, "geometry": { "type": "Point", "coordinates": [ 129.33316, 35.481487, 115.0 ] } },
{ "type": "Feature", "properties": { "value": 0.3306 }, "geometry": { "type": "Point", "coordinates": [ 129.334259, 35.481483, 115.0 ] } },
{ "type": "Feature", "properties": { "value": 0.1915 }, "geometry": { "type": "Point", "coordinates": [ 129.335373, 35.48148, 115.0 ] } },
{ "type": "Feature", "properties": { "value": 0.101 }, "geometry": { "type": "Point", "coordinates": [ 129.336472, 35.481476, 115.0 ] } },
{ "type": "Feature", "properties": { "value": 0.0483 }, "geometry": { "type": "Point", "coordinates": [ 129.33757, 35.481472, 115.0 ] } },
{ "type": "Feature", "properties": { "value": 0.0205 }, "geometry": { "type": "Point", "coordinates": [ 129.338669, 35.481472, 115.0 ] } },
{ "type": "Feature", "properties": { "value": 0.0009 }, "geometry": { "type": "Point", "coordinates": [ 129.339783, 35.481468, 115.0 ] } },
{ "type": "Feature", "properties": { "value": 0.0031 }, "geometry": { "type": "Point", "coordinates": [ 129.313339, 35.482441, 115.0 ] } },
{ "type": "Feature", "properties": { "value": 0.0185 }, "geometry": { "type": "Point", "coordinates": [ 129.314438, 35.482437, 115.0 ] } },
{ "type": "Feature", "properties": { "value": 0.0432 }, "geometry": { "type": "Point", "coordinates": [ 129.315536, 35.482433, 115.0 ] } },
{ "type": "Feature", "properties": { "value": 0.0892 }, "geometry": { "type": "Point", "coordinates": [ 129.316635, 35.48243, 115.0 ] } },
{ "type": "Feature", "properties": { "value": 0.1668 }, "geometry": { "type": "Point", "coordinates": [ 129.317749, 35.48243, 115.0 ] } },
{ "type": "Feature", "properties": { "value": 0.2836 }, "geometry": { "type": "Point", "coordinates": [ 129.318848, 35.482426, 115.0 ] } },
{ "type": "Feature", "properties": { "value": 0.4506 }, "geometry": { "type": "Point", "coordinates": [ 129.319946, 35.482422, 115.0 ] } },
{ "type": "Feature", "properties": { "value": 0.6682 }, "geometry": { "type": "Point", "coordinates": [ 129.321045, 35.482418, 115.0 ] } },
{ "type": "Feature", "properties": { "value": 0.9238 }, "geometry": { "type": "Point", "coordinates": [ 129.322144, 35.482418, 115.0 ] } },
{ "type": "Feature", "properties": { "value": 1.1871 }, "geometry": { "type": "Point", "coordinates": [ 129.323257, 35.482414, 115.0 ] } },
{ "type": "Feature", "properties": { "value": 1.4216 }, "geometry": { "type": "Point", "coordinates": [ 129.324356, 35.48241, 115.0 ] } },
{ "type": "Feature", "properties": { "value": 1.589 }, "geometry": { "type": "Point", "coordinates": [ 129.325455, 35.482407, 115.0 ] } },
{ "type": "Feature", "properties": { "value": 1.6486 }, "geometry": { "type": "Point", "coordinates": [ 129.326553, 35.482407, 115.0 ] } },
{ "type": "Feature", "properties": { "value": 1.5901 }, "geometry": { "type": "Point", "coordinates": [ 129.327652, 35.482403, 115.0 ] } },
{ "type": "Feature", "properties": { "value": 1.4238 }, "geometry": { "type": "Point", "coordinates": [ 129.328766, 35.482399, 115.0 ] } },
{ "type": "Feature", "properties": { "value": 1.1902 }, "geometry": { "type": "Point", "coordinates": [ 129.329865, 35.482395, 115.0 ] } },
{ "type": "Feature", "properties": { "value": 0.9274 }, "geometry": { "type": "Point", "coordinates": [ 129.330963, 35.482391, 115.0 ] } },
{ "type": "Feature", "properties": { "value": 0.6716 }, "geometry": { "type": "Point", "coordinates": [ 129.332062, 35.482391, 115.0 ] } },
{ "type": "Feature", "properties": { "value": 0.4532 }, "geometry": { "type": "Point", "coordinates": [ 129.333176, 35.482388, 115.0 ] } },
{ "type": "Feature", "properties": { "value": 0.2851 }, "geometry": { "type": "Point", "coordinates": [ 129.334274, 35.482384, 115.0 ] } },
{ "type": "Feature", "properties": { "value": 0.1675 }, "geometry": { "type": "Point", "coordinates": [ 129.335373, 35.48238, 115.0 ] } },
{ "type": "Feature", "properties": { "value": 0.0894 }, "geometry": { "type": "Point", "coordinates": [ 129.336472, 35.482376, 115.0 ] } },
{ "type": "Feature", "properties": { "value": 0.0454 }, "geometry": { "type": "Point", "coordinates": [ 129.33757, 35.482376, 115.0 ] } },
{ "type": "Feature", "properties": { "value": 0.0182 }, "geometry": { "type": "Point", "coordinates": [ 129.338684, 35.482372, 115.0 ] } },
{ "type": "Feature", "properties": { "value": 0.001 }, "geometry": { "type": "Point", "coordinates": [ 129.339783, 35.482368, 115.0 ] } },
{ "type": "Feature", "properties": { "value": 0.0031 }, "geometry": { "type": "Point", "coordinates": [ 129.313339, 35.483341, 115.0 ] } },
{ "type": "Feature", "properties": { "value": 0.0151 }, "geometry": { "type": "Point", "coordinates": [ 129.314438, 35.483337, 115.0 ] } },
{ "type": "Feature", "properties": { "value": 0.0386 }, "geometry": { "type": "Point", "coordinates": [ 129.315536, 35.483337, 115.0 ] } },
{ "type": "Feature", "properties": { "value": 0.075 }, "geometry": { "type": "Point", "coordinates": [ 129.31665, 35.483334, 115.0 ] } },
{ "type": "Feature", "properties": { "value": 0.1393 }, "geometry": { "type": "Point", "coordinates": [ 129.317749, 35.48333, 115.0 ] } },
{ "type": "Feature", "properties": { "value": 0.2346 }, "geometry": { "type": "Point", "coordinates": [ 129.318848, 35.483326, 115.0 ] } },
{ "type": "Feature", "properties": { "value": 0.369 }, "geometry": { "type": "Point", "coordinates": [ 129.319946, 35.483322, 115.0 ] } },
{ "type": "Feature", "properties": { "value": 0.5422 }, "geometry": { "type": "Point", "coordinates": [ 129.321045, 35.483322, 115.0 ] } },
{ "type": "Feature", "properties": { "value": 0.7434 }, "geometry": { "type": "Point", "coordinates": [ 129.322159, 35.483318, 115.0 ] } },
{ "type": "Feature", "properties": { "value": 0.9488 }, "geometry": { "type": "Point", "coordinates": [ 129.323257, 35.483315, 115.0 ] } },
{ "type": "Feature", "properties": { "value": 1.1303 }, "geometry": { "type": "Point", "coordinates": [ 129.324356, 35.483311, 115.0 ] } },
{ "type": "Feature", "properties": { "value": 1.2561 }, "geometry": { "type": "Point", "coordinates": [ 129.325455, 35.483311, 115.0 ] } },
{ "type": "Feature", "properties": { "value": 1.3046 }, "geometry": { "type": "Point", "coordinates": [ 129.326553, 35.483307, 115.0 ] } },
{ "type": "Feature", "properties": { "value": 1.2564 }, "geometry": { "type": "Point", "coordinates": [ 129.327667, 35.483303, 115.0 ] } },
{ "type": "Feature", "properties": { "value": 1.1313 }, "geometry": { "type": "Point", "coordinates": [ 129.328766, 35.483299, 115.0 ] } },
{ "type": "Feature", "properties": { "value": 0.9503 }, "geometry": { "type": "Point", "coordinates": [ 129.329865, 35.483295, 115.0 ] } },
{ "type": "Feature", "properties": { "value": 0.7453 }, "geometry": { "type": "Point", "coordinates": [ 129.330963, 35.483295, 115.0 ] } },
{ "type": "Feature", "properties": { "value": 0.5442 }, "geometry": { "type": "Point", "coordinates": [ 129.332077, 35.483292, 115.0 ] } },
{ "type": "Feature", "properties": { "value": 0.3708 }, "geometry": { "type": "Point", "coordinates": [ 129.333176, 35.483288, 115.0 ] } },
{ "type": "Feature", "properties": { "value": 0.2359 }, "geometry": { "type": "Point", "coordinates": [ 129.334274, 35.483284, 115.0 ] } },
{ "type": "Feature", "properties": { "value": 0.1402 }, "geometry": { "type": "Point", "coordinates": [ 129.335373, 35.48328, 115.0 ] } },
{ "type": "Feature", "properties": { "value": 0.0779 }, "geometry": { "type": "Point", "coordinates": [ 129.336472, 35.48328, 115.0 ] } },
{ "type": "Feature", "properties": { "value": 0.0388 }, "geometry": { "type": "Point", "coordinates": [ 129.337585, 35.483276, 115.0 ] } },
{ "type": "Feature", "properties": { "value": 0.0151 }, "geometry": { "type": "Point", "coordinates": [ 129.338684, 35.483273, 115.0 ] } },
{ "type": "Feature", "properties": { "value": 0.0031 }, "geometry": { "type": "Point", "coordinates": [ 129.339783, 35.483269, 115.0 ] } },
{ "type": "Feature", "properties": { "value": 0.0029 }, "geometry": { "type": "Point", "coordinates": [ 129.313339, 35.484241, 115.0 ] } },
{ "type": "Feature", "properties": { "value": 0.0132 }, "geometry": { "type": "Point", "coordinates": [ 129.314438, 35.484241, 115.0 ] } },
{ "type": "Feature", "properties": { "value": 0.0308 }, "geometry": { "type": "Point", "coordinates": [ 129.315552, 35.484238, 115.0 ] } },
{ "type": "Feature", "properties": { "value": 0.0599 }, "geometry": { "type": "Point", "coordinates": [ 129.31665, 35.484234, 115.0 ] } },
{ "type": "Feature", "properties": { "value": 0.111 }, "geometry": { "type": "Point", "coordinates": [ 129.317749, 35.48423, 115.0 ] } },
{ "type": "Feature", "properties": { "value": 0.1857 }, "geometry": { "type": "Point", "coordinates": [ 129.318848, 35.48423, 115.0 ] } },
{ "type": "Feature", "properties": { "value": 0.29 }, "geometry": { "type": "Point", "coordinates": [ 129.319946, 35.484226, 115.0 ] } },
{ "type": "Feature", "properties": { "value": 0.4231 }, "geometry": { "type": "Point", "coordinates": [ 129.32106, 35.484222, 115.0 ] } },
{ "type": "Feature", "properties": { "value": 0.574 }, "geometry": { "type": "Point", "coordinates": [ 129.322159, 35.484219, 115.0 ] } },
{ "type": "Feature", "properties": { "value": 0.732 }, "geometry": { "type": "Point", "coordinates": [ 129.323257, 35.484215, 115.0 ] } },
{ "type": "Feature", "properties": { "value": 0.8687 }, "geometry": { "type": "Point", "coordinates": [ 129.324356, 35.484215, 115.0 ] } },
{ "type": "Feature", "properties": { "value": 0.9631 }, "geometry": { "type": "Point", "coordinates": [ 129.325455, 35.484211, 115.0 ] } },
{ "type": "Feature", "properties": { "value": 0.9969 }, "geometry": { "type": "Point", "coordinates": [ 129.326569, 35.484207, 115.0 ] } },
{ "type": "Feature", "properties": { "value": 0.9636 }, "geometry": { "type": "Point", "coordinates": [ 129.327667, 35.484203, 115.0 ] } },
{ "type": "Feature", "properties": { "value": 0.8698 }, "geometry": { "type": "Point", "coordinates": [ 129.328766, 35.484203, 115.0 ] } },
{ "type": "Feature", "properties": { "value": 0.7332 }, "geometry": { "type": "Point", "coordinates": [ 129.329865, 35.4842, 115.0 ] } },
{ "type": "Feature", "properties": { "value": 0.5753 }, "geometry": { "type": "Point", "coordinates": [ 129.330978, 35.484196, 115.0 ] } },
{ "type": "Feature", "properties": { "value": 0.4245 }, "geometry": { "type": "Point", "coordinates": [ 129.332077, 35.484192, 115.0 ] } },
{ "type": "Feature", "properties": { "value": 0.2912 }, "geometry": { "type": "Point", "coordinates": [ 129.333176, 35.484188, 115.0 ] } },
{ "type": "Feature", "properties": { "value": 0.1866 }, "geometry": { "type": "Point", "coordinates": [ 129.334274, 35.484188, 115.0 ] } },
{ "type": "Feature", "properties": { "value": 0.1116 }, "geometry": { "type": "Point", "coordinates": [ 129.335373, 35.484184, 115.0 ] } },
{ "type": "Feature", "properties": { "value": 0.0613 }, "geometry": { "type": "Point", "coordinates": [ 129.336487, 35.48418, 115.0 ] } },
{ "type": "Feature", "properties": { "value": 0.031 }, "geometry": { "type": "Point", "coordinates": [ 129.337585, 35.484177, 115.0 ] } },
{ "type": "Feature", "properties": { "value": 0.0133 }, "geometry": { "type": "Point", "coordinates": [ 129.338684, 35.484173, 115.0 ] } },
{ "type": "Feature", "properties": { "value": 0.0029 }, "geometry": { "type": "Point", "coordinates": [ 129.339783, 35.484173, 115.0 ] } },
{ "type": "Feature", "properties": { "value": 0.001 }, "geometry": { "type": "Point", "coordinates": [ 129.313339, 35.485146, 115.0 ] } },
{ "type": "Feature", "properties": { "value": 0.0095 }, "geometry": { "type": "Point", "coordinates": [ 129.314453, 35.485142, 115.0 ] } },
{ "type": "Feature", "properties": { "value": 0.0232 }, "geometry": { "type": "Point", "coordinates": [ 129.315552, 35.485138, 115.0 ] } },
{ "type": "Feature", "properties": { "value": 0.0453 }, "geometry": { "type": "Point", "coordinates": [ 129.31665, 35.485134, 115.0 ] } },
{ "type": "Feature", "properties": { "value": 0.0844 }, "geometry": { "type": "Point", "coordinates": [ 129.317749, 35.485134, 115.0 ] } },
{ "type": "Feature", "properties": { "value": 0.1404 }, "geometry": { "type": "Point", "coordinates": [ 129.318848, 35.48513, 115.0 ] } },
{ "type": "Feature", "properties": { "value": 0.218 }, "geometry": { "type": "Point", "coordinates": [ 129.319962, 35.485126, 115.0 ] } },
{ "type": "Feature", "properties": { "value": 0.3164 }, "geometry": { "type": "Point", "coordinates": [ 129.32106, 35.485123, 115.0 ] } },
{ "type": "Feature", "properties": { "value": 0.427 }, "geometry": { "type": "Point", "coordinates": [ 129.322159, 35.485119, 115.0 ] } },
{ "type": "Feature", "properties": { "value": 0.5424 }, "geometry": { "type": "Point", "coordinates": [ 129.323257, 35.485119, 115.0 ] } },
{ "type": "Feature", "properties": { "value": 0.6416 }, "geometry": { "type": "Point", "coordinates": [ 129.324371, 35.485115, 115.0 ] } },
{ "type": "Feature", "properties": { "value": 0.7099 }, "geometry": { "type": "Point", "coordinates": [ 129.32547, 35.485111, 115.0 ] } },
{ "type": "Feature", "properties": { "value": 0.7342 }, "geometry": { "type": "Point", "coordinates": [ 129.326569, 35.485107, 115.0 ] } },
{ "type": "Feature", "properties": { "value": 0.7102 }, "geometry": { "type": "Point", "coordinates": [ 129.327667, 35.485107, 115.0 ] } },
{ "type": "Feature", "properties": { "value": 0.6423 }, "geometry": { "type": "Point", "coordinates": [ 129.328766, 35.485104, 115.0 ] } },
{ "type": "Feature", "properties": { "value": 0.5431 }, "geometry": { "type": "Point", "coordinates": [ 129.32988, 35.4851, 115.0 ] } },
{ "type": "Feature", "properties": { "value": 0.4279 }, "geometry": { "type": "Point", "coordinates": [ 129.330978, 35.485096, 115.0 ] } },
{ "type": "Feature", "properties": { "value": 0.3174 }, "geometry": { "type": "Point", "coordinates": [ 129.332077, 35.485092, 115.0 ] } },
{ "type": "Feature", "properties": { "value": 0.2188 }, "geometry": { "type": "Point", "coordinates": [ 129.333176, 35.485092, 115.0 ] } },
{ "type": "Feature", "properties": { "value": 0.1409 }, "geometry": { "type": "Point", "coordinates": [ 129.334274, 35.485088, 115.0 ] } },
{ "type": "Feature", "properties": { "value": 0.0847 }, "geometry": { "type": "Point", "coordinates": [ 129.335388, 35.485085, 115.0 ] } },
{ "type": "Feature", "properties": { "value": 0.0454 }, "geometry": { "type": "Point", "coordinates": [ 129.336487, 35.485081, 115.0 ] } },
{ "type": "Feature", "properties": { "value": 0.0233 }, "geometry": { "type": "Point", "coordinates": [ 129.337585, 35.485077, 115.0 ] } },
{ "type": "Feature", "properties": { "value": 0.0095 }, "geometry": { "type": "Point", "coordinates": [ 129.338684, 35.485077, 115.0 ] } },
{ "type": "Feature", "properties": { "value": 0.0009 }, "geometry": { "type": "Point", "coordinates": [ 129.339798, 35.485073, 115.0 ] } },
{ "type": "Feature", "properties": { "value": 0.0008 }, "geometry": { "type": "Point", "coordinates": [ 129.313354, 35.486046, 115.0 ] } },
{ "type": "Feature", "properties": { "value": 0.006 }, "geometry": { "type": "Point", "coordinates": [ 129.314453, 35.486042, 115.0 ] } },
{ "type": "Feature", "properties": { "value": 0.0163 }, "geometry": { "type": "Point", "coordinates": [ 129.315552, 35.486038, 115.0 ] } },
{ "type": "Feature", "properties": { "value": 0.0323 }, "geometry": { "type": "Point", "coordinates": [ 129.31665, 35.486038, 115.0 ] } },
{ "type": "Feature", "properties": { "value": 0.0609 }, "geometry": { "type": "Point", "coordinates": [ 129.317749, 35.486034, 115.0 ] } },
{ "type": "Feature", "properties": { "value": 0.1011 }, "geometry": { "type": "Point", "coordinates": [ 129.318863, 35.486031, 115.0 ] } },
{ "type": "Feature", "properties": { "value": 0.1566 }, "geometry": { "type": "Point", "coordinates": [ 129.319962, 35.486027, 115.0 ] } },
{ "type": "Feature", "properties": { "value": 0.2241 }, "geometry": { "type": "Point", "coordinates": [ 129.32106, 35.486027, 115.0 ] } },
{ "type": "Feature", "properties": { "value": 0.304 }, "geometry": { "type": "Point", "coordinates": [ 129.322159, 35.486023, 115.0 ] } },
{ "type": "Feature", "properties": { "value": 0.3827 }, "geometry": { "type": "Point", "coordinates": [ 129.323273, 35.486019, 115.0 ] } },
{ "type": "Feature", "properties": { "value": 0.4542 }, "geometry": { "type": "Point", "coordinates": [ 129.324371, 35.486015, 115.0 ] } },
{ "type": "Feature", "properties": { "value": 0.5015 }, "geometry": { "type": "Point", "coordinates": [ 129.32547, 35.486012, 115.0 ] } },
{ "type": "Feature", "properties": { "value": 0.5184 }, "geometry": { "type": "Point", "coordinates": [ 129.326569, 35.486012, 115.0 ] } },
{ "type": "Feature", "properties": { "value": 0.5017 }, "geometry": { "type": "Point", "coordinates": [ 129.327667, 35.486008, 115.0 ] } },
{ "type": "Feature", "properties": { "value": 0.4544 }, "geometry": { "type": "Point", "coordinates": [ 129.328781, 35.486004, 115.0 ] } },
{ "type": "Feature", "properties": { "value": 0.383 }, "geometry": { "type": "Point", "coordinates": [ 129.32988, 35.486, 115.0 ] } },
{ "type": "Feature", "properties": { "value": 0.3045 }, "geometry": { "type": "Point", "coordinates": [ 129.330978, 35.485996, 115.0 ] } },
{ "type": "Feature", "properties": { "value": 0.2246 }, "geometry": { "type": "Point", "coordinates": [ 129.332077, 35.485996, 115.0 ] } },
{ "type": "Feature", "properties": { "value": 0.157 }, "geometry": { "type": "Point", "coordinates": [ 129.333176, 35.485992, 115.0 ] } },
{ "type": "Feature", "properties": { "value": 0.1015 }, "geometry": { "type": "Point", "coordinates": [ 129.33429, 35.485989, 115.0 ] } },
{ "type": "Feature", "properties": { "value": 0.0611 }, "geometry": { "type": "Point", "coordinates": [ 129.335388, 35.485985, 115.0 ] } },
{ "type": "Feature", "properties": { "value": 0.0324 }, "geometry": { "type": "Point", "coordinates": [ 129.336487, 35.485981, 115.0 ] } },
{ "type": "Feature", "properties": { "value": 0.0163 }, "geometry": { "type": "Point", "coordinates": [ 129.337585, 35.485981, 115.0 ] } },
{ "type": "Feature", "properties": { "value": 0.006 }, "geometry": { "type": "Point", "coordinates": [ 129.338699, 35.485977, 115.0 ] } },
{ "type": "Feature", "properties": { "value": 0.0032 }, "geometry": { "type": "Point", "coordinates": [ 129.314453, 35.486942, 115.0 ] } },
{ "type": "Feature", "properties": { "value": 0.0106 }, "geometry": { "type": "Point", "coordinates": [ 129.315552, 35.486942, 115.0 ] } },
{ "type": "Feature", "properties": { "value": 0.0216 }, "geometry": { "type": "Point", "coordinates": [ 129.31665, 35.486938, 115.0 ] } },
{ "type": "Feature", "properties": { "value": 0.0417 }, "geometry": { "type": "Point", "coordinates": [ 129.317764, 35.486935, 115.0 ] } },
{ "type": "Feature", "properties": { "value": 0.0693 }, "geometry": { "type": "Point", "coordinates": [ 129.318863, 35.486931, 115.0 ] } },
{ "type": "Feature", "properties": { "value": 0.1072 }, "geometry": { "type": "Point", "coordinates": [ 129.319962, 35.486931, 115.0 ] } },
{ "type": "Feature", "properties": { "value": 0.1526 }, "geometry": { "type": "Point", "coordinates": [ 129.32106, 35.486927, 115.0 ] } },
{ "type": "Feature", "properties": { "value": 0.2066 }, "geometry": { "type": "Point", "coordinates": [ 129.322174, 35.486923, 115.0 ] } },
{ "type": "Feature", "properties": { "value": 0.2594 }, "geometry": { "type": "Point", "coordinates": [ 129.323273, 35.486919, 115.0 ] } },
{ "type": "Feature", "properties": { "value": 0.3074 }, "geometry": { "type": "Point", "coordinates": [ 129.324371, 35.486916, 115.0 ] } },
{ "type": "Feature", "properties": { "value": 0.3389 }, "geometry": { "type": "Point", "coordinates": [ 129.32547, 35.486916, 115.0 ] } },
{ "type": "Feature", "properties": { "value": 0.3502 }, "geometry": { "type": "Point", "coordinates": [ 129.326569, 35.486912, 115.0 ] } },
{ "type": "Feature", "properties": { "value": 0.339 }, "geometry": { "type": "Point", "coordinates": [ 129.327682, 35.486908, 115.0 ] } },
{ "type": "Feature", "properties": { "value": 0.3075 }, "geometry": { "type": "Point", "coordinates": [ 129.328781, 35.486904, 115.0 ] } },
{ "type": "Feature", "properties": { "value": 0.2595 }, "geometry": { "type": "Point", "coordinates": [ 129.32988, 35.486904, 115.0 ] } },
{ "type": "Feature", "properties": { "value": 0.207 }, "geometry": { "type": "Point", "coordinates": [ 129.330978, 35.4869, 115.0 ] } },
{ "type": "Feature", "properties": { "value": 0.1529 }, "geometry": { "type": "Point", "coordinates": [ 129.332092, 35.486897, 115.0 ] } },
{ "type": "Feature", "properties": { "value": 0.1074 }, "geometry": { "type": "Point", "coordinates": [ 129.333191, 35.486893, 115.0 ] } },
{ "type": "Feature", "properties": { "value": 0.0695 }, "geometry": { "type": "Point", "coordinates": [ 129.33429, 35.486889, 115.0 ] } },
{ "type": "Feature", "properties": { "value": 0.0418 }, "geometry": { "type": "Point", "coordinates": [ 129.335388, 35.486889, 115.0 ] } },
{ "type": "Feature", "properties": { "value": 0.0216 }, "geometry": { "type": "Point", "coordinates": [ 129.336487, 35.486885, 115.0 ] } },
{ "type": "Feature", "properties": { "value": 0.0106 }, "geometry": { "type": "Point", "coordinates": [ 129.337601, 35.486881, 115.0 ] } },
{ "type": "Feature", "properties": { "value": 0.0031 }, "geometry": { "type": "Point", "coordinates": [ 129.338699, 35.486877, 115.0 ] } },
{ "type": "Feature", "properties": { "value": 0.0009 }, "geometry": { "type": "Point", "coordinates": [ 129.314453, 35.487846, 115.0 ] } },
{ "type": "Feature", "properties": { "value": 0.0062 }, "geometry": { "type": "Point", "coordinates": [ 129.315552, 35.487843, 115.0 ] } },
{ "type": "Feature", "properties": { "value": 0.0133 }, "geometry": { "type": "Point", "coordinates": [ 129.316666, 35.487839, 115.0 ] } },
{ "type": "Feature", "properties": { "value": 0.0252 }, "geometry": { "type": "Point", "coordinates": [ 129.317764, 35.487835, 115.0 ] } },
{ "type": "Feature", "properties": { "value": 0.0432 }, "geometry": { "type": "Point", "coordinates": [ 129.318863, 35.487835, 115.0 ] } },
{ "type": "Feature", "properties": { "value": 0.0679 }, "geometry": { "type": "Point", "coordinates": [ 129.319962, 35.487831, 115.0 ] } },
{ "type": "Feature", "properties": { "value": 0.0989 }, "geometry": { "type": "Point", "coordinates": [ 129.321075, 35.487827, 115.0 ] } },
{ "type": "Feature", "properties": { "value": 0.1339 }, "geometry": { "type": "Point", "coordinates": [ 129.322174, 35.487823, 115.0 ] } },
{ "type": "Feature", "properties": { "value": 0.1676 }, "geometry": { "type": "Point", "coordinates": [ 129.323273, 35.48782, 115.0 ] } },
{ "type": "Feature", "properties": { "value": 0.1966 }, "geometry": { "type": "Point", "coordinates": [ 129.324371, 35.48782, 115.0 ] } },
{ "type": "Feature", "properties": { "value": 0.2187 }, "geometry": { "type": "Point", "coordinates": [ 129.32547, 35.487816, 115.0 ] } },
{ "type": "Feature", "properties": { "value": 0.2259 }, "geometry": { "type": "Point", "coordinates": [ 129.326584, 35.487812, 115.0 ] } },
{ "type": "Feature", "properties": { "value": 0.2188 }, "geometry": { "type": "Point", "coordinates": [ 129.327682, 35.487808, 115.0 ] } },
{ "type": "Feature", "properties": { "value": 0.1967 }, "geometry": { "type": "Point", "coordinates": [ 129.328781, 35.487808, 115.0 ] } },
{ "type": "Feature", "properties": { "value": 0.1676 }, "geometry": { "type": "Point", "coordinates": [ 129.32988, 35.487804, 115.0 ] } },
{ "type": "Feature", "properties": { "value": 0.1341 }, "geometry": { "type": "Point", "coordinates": [ 129.330994, 35.487801, 115.0 ] } },
{ "type": "Feature", "properties": { "value": 0.099 }, "geometry": { "type": "Point", "coordinates": [ 129.332092, 35.487797, 115.0 ] } },
{ "type": "Feature", "properties": { "value": 0.068 }, "geometry": { "type": "Point", "coordinates": [ 129.333191, 35.487793, 115.0 ] } },
{ "type": "Feature", "properties": { "value": 0.0451 }, "geometry": { "type": "Point", "coordinates": [ 129.33429, 35.487793, 115.0 ] } },
{ "type": "Feature", "properties": { "value": 0.0252 }, "geometry": { "type": "Point", "coordinates": [ 129.335388, 35.487789, 115.0 ] } },
{ "type": "Feature", "properties": { "value": 0.0133 }, "geometry": { "type": "Point", "coordinates": [ 129.336502, 35.487785, 115.0 ] } },
{ "type": "Feature", "properties": { "value": 0.0061 }, "geometry": { "type": "Point", "coordinates": [ 129.337601, 35.487782, 115.0 ] } },
{ "type": "Feature", "properties": { "value": 0.0009 }, "geometry": { "type": "Point", "coordinates": [ 129.338699, 35.487778, 115.0 ] } },
{ "type": "Feature", "properties": { "value": 0.003 }, "geometry": { "type": "Point", "coordinates": [ 129.315567, 35.488743, 115.0 ] } },
{ "type": "Feature", "properties": { "value": 0.0074 }, "geometry": { "type": "Point", "coordinates": [ 129.316666, 35.488739, 115.0 ] } },
{ "type": "Feature", "properties": { "value": 0.0148 }, "geometry": { "type": "Point", "coordinates": [ 129.317764, 35.488739, 115.0 ] } },
{ "type": "Feature", "properties": { "value": 0.026 }, "geometry": { "type": "Point", "coordinates": [ 129.318863, 35.488735, 115.0 ] } },
{ "type": "Feature", "properties": { "value": 0.0415 }, "geometry": { "type": "Point", "coordinates": [ 129.319977, 35.488731, 115.0 ] } },
{ "type": "Feature", "properties": { "value": 0.0609 }, "geometry": { "type": "Point", "coordinates": [ 129.321075, 35.488728, 115.0 ] } },
{ "type": "Feature", "properties": { "value": 0.0808 }, "geometry": { "type": "Point", "coordinates": [ 129.322174, 35.488728, 115.0 ] } },
{ "type": "Feature", "properties": { "value": 0.1031 }, "geometry": { "type": "Point", "coordinates": [ 129.323273, 35.488724, 115.0 ] } },
{ "type": "Feature", "properties": { "value": 0.1208 }, "geometry": { "type": "Point", "coordinates": [ 129.324371, 35.48872, 115.0 ] } },
{ "type": "Feature", "properties": { "value": 0.1328 }, "geometry": { "type": "Point", "coordinates": [ 129.325485, 35.488716, 115.0 ] } },
{ "type": "Feature", "properties": { "value": 0.1371 }, "geometry": { "type": "Point", "coordinates": [ 129.326584, 35.488712, 115.0 ] } },
{ "type": "Feature", "properties": { "value": 0.1328 }, "geometry": { "type": "Point", "coordinates": [ 129.327682, 35.488712, 115.0 ] } },
{ "type": "Feature", "properties": { "value": 0.1207 }, "geometry": { "type": "Point", "coordinates": [ 129.328781, 35.488708, 115.0 ] } },
{ "type": "Feature", "properties": { "value": 0.1031 }, "geometry": { "type": "Point", "coordinates": [ 129.329895, 35.488705, 115.0 ] } },
{ "type": "Feature", "properties": { "value": 0.0808 }, "geometry": { "type": "Point", "coordinates": [ 129.330994, 35.488701, 115.0 ] } },
{ "type": "Feature", "properties": { "value": 0.0609 }, "geometry": { "type": "Point", "coordinates": [ 129.332092, 35.488697, 115.0 ] } },
{ "type": "Feature", "properties": { "value": 0.0415 }, "geometry": { "type": "Point", "coordinates": [ 129.333191, 35.488697, 115.0 ] } },
{ "type": "Feature", "properties": { "value": 0.026 }, "geometry": { "type": "Point", "coordinates": [ 129.33429, 35.488693, 115.0 ] } },
{ "type": "Feature", "properties": { "value": 0.0147 }, "geometry": { "type": "Point", "coordinates": [ 129.335403, 35.488689, 115.0 ] } },
{ "type": "Feature", "properties": { "value": 0.0073 }, "geometry": { "type": "Point", "coordinates": [ 129.336502, 35.488686, 115.0 ] } },
{ "type": "Feature", "properties": { "value": 0.0029 }, "geometry": { "type": "Point", "coordinates": [ 129.337601, 35.488682, 115.0 ] } },
{ "type": "Feature", "properties": { "value": 0.0008 }, "geometry": { "type": "Point", "coordinates": [ 129.315567, 35.489643, 115.0 ] } },
{ "type": "Feature", "properties": { "value": 0.0034 }, "geometry": { "type": "Point", "coordinates": [ 129.316666, 35.489643, 115.0 ] } },
{ "type": "Feature", "properties": { "value": 0.0078 }, "geometry": { "type": "Point", "coordinates": [ 129.317764, 35.489639, 115.0 ] } },
{ "type": "Feature", "properties": { "value": 0.0145 }, "geometry": { "type": "Point", "coordinates": [ 129.318878, 35.489635, 115.0 ] } },
{ "type": "Feature", "properties": { "value": 0.0238 }, "geometry": { "type": "Point", "coordinates": [ 129.319977, 35.489632, 115.0 ] } },
{ "type": "Feature", "properties": { "value": 0.0354 }, "geometry": { "type": "Point", "coordinates": [ 129.321075, 35.489632, 115.0 ] } },
{ "type": "Feature", "properties": { "value": 0.0468 }, "geometry": { "type": "Point", "coordinates": [ 129.322174, 35.489628, 115.0 ] } },
{ "type": "Feature", "properties": { "value": 0.0602 }, "geometry": { "type": "Point", "coordinates": [ 129.323273, 35.489624, 115.0 ] } },
{ "type": "Feature", "properties": { "value": 0.0704 }, "geometry": { "type": "Point", "coordinates": [ 129.324387, 35.48962, 115.0 ] } },
{ "type": "Feature", "properties": { "value": 0.0774 }, "geometry": { "type": "Point", "coordinates": [ 129.325485, 35.489616, 115.0 ] } },
{ "type": "Feature", "properties": { "value": 0.0798 }, "geometry": { "type": "Point", "coordinates": [ 129.326584, 35.489616, 115.0 ] } },
{ "type": "Feature", "properties": { "value": 0.0773 }, "geometry": { "type": "Point", "coordinates": [ 129.327682, 35.489613, 115.0 ] } },
{ "type": "Feature", "properties": { "value": 0.0704 }, "geometry": { "type": "Point", "coordinates": [ 129.328796, 35.489609, 115.0 ] } },
{ "type": "Feature", "properties": { "value": 0.0601 }, "geometry": { "type": "Point", "coordinates": [ 129.329895, 35.489605, 115.0 ] } },
{ "type": "Feature", "properties": { "value": 0.0468 }, "geometry": { "type": "Point", "coordinates": [ 129.330994, 35.489605, 115.0 ] } },
{ "type": "Feature", "properties": { "value": 0.0354 }, "geometry": { "type": "Point", "coordinates": [ 129.332092, 35.489601, 115.0 ] } },
{ "type": "Feature", "properties": { "value": 0.0238 }, "geometry": { "type": "Point", "coordinates": [ 129.333191, 35.489597, 115.0 ] } },
{ "type": "Feature", "properties": { "value": 0.0145 }, "geometry": { "type": "Point", "coordinates": [ 129.334305, 35.489594, 115.0 ] } },
{ "type": "Feature", "properties": { "value": 0.0077 }, "geometry": { "type": "Point", "coordinates": [ 129.335403, 35.48959, 115.0 ] } },
{ "type": "Feature", "properties": { "value": 0.0033 }, "geometry": { "type": "Point", "coordinates": [ 129.336502, 35.48959, 115.0 ] } },
{ "type": "Feature", "properties": { "value": 0.0008 }, "geometry": { "type": "Point", "coordinates": [ 129.337601, 35.489586, 115.0 ] } },
{ "type": "Feature", "properties": { "value": 0.0009 }, "geometry": { "type": "Point", "coordinates": [ 129.316666, 35.490543, 115.0 ] } },
{ "type": "Feature", "properties": { "value": 0.0034 }, "geometry": { "type": "Point", "coordinates": [ 129.31778, 35.49054, 115.0 ] } },
{ "type": "Feature", "properties": { "value": 0.0073 }, "geometry": { "type": "Point", "coordinates": [ 129.318878, 35.490536, 115.0 ] } },
{ "type": "Feature", "properties": { "value": 0.0127 }, "geometry": { "type": "Point", "coordinates": [ 129.319977, 35.490536, 115.0 ] } },
{ "type": "Feature", "properties": { "value": 0.0177 }, "geometry": { "type": "Point", "coordinates": [ 129.321075, 35.490532, 115.0 ] } },
{ "type": "Feature", "properties": { "value": 0.0255 }, "geometry": { "type": "Point", "coordinates": [ 129.322174, 35.490528, 115.0 ] } },
{ "type": "Feature", "properties": { "value": 0.0317 }, "geometry": { "type": "Point", "coordinates": [ 129.323288, 35.490524, 115.0 ] } },
{ "type": "Feature", "properties": { "value": 0.0388 }, "geometry": { "type": "Point", "coordinates": [ 129.324387, 35.490524, 115.0 ] } },
{ "type": "Feature", "properties": { "value": 0.0426 }, "geometry": { "type": "Point", "coordinates": [ 129.325485, 35.49052, 115.0 ] } },
{ "type": "Feature", "properties": { "value": 0.044 }, "geometry": { "type": "Point", "coordinates": [ 129.326584, 35.490517, 115.0 ] } },
{ "type": "Feature", "properties": { "value": 0.0426 }, "geometry": { "type": "Point", "coordinates": [ 129.327698, 35.490513, 115.0 ] } },
{ "type": "Feature", "properties": { "value": 0.0388 }, "geometry": { "type": "Point", "coordinates": [ 129.328796, 35.490509, 115.0 ] } },
{ "type": "Feature", "properties": { "value": 0.0316 }, "geometry": { "type": "Point", "coordinates": [ 129.329895, 35.490509, 115.0 ] } },
{ "type": "Feature", "properties": { "value": 0.0255 }, "geometry": { "type": "Point", "coordinates": [ 129.330994, 35.490505, 115.0 ] } },
{ "type": "Feature", "properties": { "value": 0.0177 }, "geometry": { "type": "Point", "coordinates": [ 129.332092, 35.490501, 115.0 ] } },
{ "type": "Feature", "properties": { "value": 0.0126 }, "geometry": { "type": "Point", "coordinates": [ 129.333206, 35.490498, 115.0 ] } },
{ "type": "Feature", "properties": { "value": 0.0073 }, "geometry": { "type": "Point", "coordinates": [ 129.334305, 35.490494, 115.0 ] } },
{ "type": "Feature", "properties": { "value": 0.0034 }, "geometry": { "type": "Point", "coordinates": [ 129.335403, 35.490494, 115.0 ] } },
{ "type": "Feature", "properties": { "value": 0.0009 }, "geometry": { "type": "Point", "coordinates": [ 129.336502, 35.49049, 115.0 ] } },
{ "type": "Feature", "properties": { "value": 0.0009 }, "geometry": { "type": "Point", "coordinates": [ 129.31778, 35.49144, 115.0 ] } },
{ "type": "Feature", "properties": { "value": 0.003 }, "geometry": { "type": "Point", "coordinates": [ 129.318878, 35.49144, 115.0 ] } },
{ "type": "Feature", "properties": { "value": 0.0061 }, "geometry": { "type": "Point", "coordinates": [ 129.319977, 35.491436, 115.0 ] } },
{ "type": "Feature", "properties": { "value": 0.0085 }, "geometry": { "type": "Point", "coordinates": [ 129.321091, 35.491432, 115.0 ] } },
{ "type": "Feature", "properties": { "value": 0.0129 }, "geometry": { "type": "Point", "coordinates": [ 129.322189, 35.491428, 115.0 ] } },
{ "type": "Feature", "properties": { "value": 0.016 }, "geometry": { "type": "Point", "coordinates": [ 129.323288, 35.491428, 115.0 ] } },
{ "type": "Feature", "properties": { "value": 0.0186 }, "geometry": { "type": "Point", "coordinates": [ 129.324387, 35.491425, 115.0 ] } },
{ "type": "Feature", "properties": { "value": 0.0221 }, "geometry": { "type": "Point", "coordinates": [ 129.325485, 35.491421, 115.0 ] } },
{ "type": "Feature", "properties": { "value": 0.0227 }, "geometry": { "type": "Point", "coordinates": [ 129.326599, 35.491417, 115.0 ] } },
{ "type": "Feature", "properties": { "value": 0.022 }, "geometry": { "type": "Point", "coordinates": [ 129.327698, 35.491413, 115.0 ] } },
{ "type": "Feature", "properties": { "value": 0.0186 }, "geometry": { "type": "Point", "coordinates": [ 129.328796, 35.491413, 115.0 ] } },
{ "type": "Feature", "properties": { "value": 0.0159 }, "geometry": { "type": "Point", "coordinates": [ 129.329895, 35.491409, 115.0 ] } },
{ "type": "Feature", "properties": { "value": 0.0129 }, "geometry": { "type": "Point", "coordinates": [ 129.331009, 35.491405, 115.0 ] } },
{ "type": "Feature", "properties": { "value": 0.0084 }, "geometry": { "type": "Point", "coordinates": [ 129.332108, 35.491402, 115.0 ] } },
{ "type": "Feature", "properties": { "value": 0.006 }, "geometry": { "type": "Point", "coordinates": [ 129.333206, 35.491398, 115.0 ] } },
{ "type": "Feature", "properties": { "value": 0.003 }, "geometry": { "type": "Point", "coordinates": [ 129.334305, 35.491398, 115.0 ] } },
{ "type": "Feature", "properties": { "value": 0.0008 }, "geometry": { "type": "Point", "coordinates": [ 129.335403, 35.491394, 115.0 ] } },
{ "type": "Feature", "properties": { "value": 0.0007 }, "geometry": { "type": "Point", "coordinates": [ 129.318878, 35.49234, 115.0 ] } },
{ "type": "Feature", "properties": { "value": 0.0011 }, "geometry": { "type": "Point", "coordinates": [ 129.319992, 35.492336, 115.0 ] } },
{ "type": "Feature", "properties": { "value": 0.0034 }, "geometry": { "type": "Point", "coordinates": [ 129.321091, 35.492332, 115.0 ] } },
{ "type": "Feature", "properties": { "value": 0.0044 }, "geometry": { "type": "Point", "coordinates": [ 129.322189, 35.492332, 115.0 ] } },
{ "type": "Feature", "properties": { "value": 0.0073 }, "geometry": { "type": "Point", "coordinates": [ 129.323288, 35.492329, 115.0 ] } },
{ "type": "Feature", "properties": { "value": 0.0084 }, "geometry": { "type": "Point", "coordinates": [ 129.324387, 35.492325, 115.0 ] } },
{ "type": "Feature", "properties": { "value": 0.0092 }, "geometry": { "type": "Point", "coordinates": [ 129.3255, 35.492321, 115.0 ] } },
{ "type": "Feature", "properties": { "value": 0.0095 }, "geometry": { "type": "Point", "coordinates": [ 129.326599, 35.492317, 115.0 ] } },
{ "type": "Feature", "properties": { "value": 0.0092 }, "geometry": { "type": "Point", "coordinates": [ 129.327698, 35.492317, 115.0 ] } },
{ "type": "Feature", "properties": { "value": 0.0084 }, "geometry": { "type": "Point", "coordinates": [ 129.328796, 35.492313, 115.0 ] } },
{ "type": "Feature", "properties": { "value": 0.0072 }, "geometry": { "type": "Point", "coordinates": [ 129.32991, 35.49231, 115.0 ] } },
{ "type": "Feature", "properties": { "value": 0.0044 }, "geometry": { "type": "Point", "coordinates": [ 129.331009, 35.492306, 115.0 ] } },
{ "type": "Feature", "properties": { "value": 0.0033 }, "geometry": { "type": "Point", "coordinates": [ 129.332108, 35.492306, 115.0 ] } },
{ "type": "Feature", "properties": { "value": 0.0011 }, "geometry": { "type": "Point", "coordinates": [ 129.333206, 35.492302, 115.0 ] } },
{ "type": "Feature", "properties": { "value": 0.0007 }, "geometry": { "type": "Point", "coordinates": [ 129.334305, 35.492298, 115.0 ] } },
{ "type": "Feature", "properties": { "value": 0.0008 }, "geometry": { "type": "Point", "coordinates": [ 129.321091, 35.493237, 115.0 ] } },
{ "type": "Feature", "properties": { "value": 0.001 }, "geometry": { "type": "Point", "coordinates": [ 129.322189, 35.493233, 115.0 ] } },
{ "type": "Feature", "properties": { "value": 0.0028 }, "geometry": { "type": "Point", "coordinates": [ 129.323288, 35.493229, 115.0 ] } },
{ "type": "Feature", "properties": { "value": 0.0032 }, "geometry": { "type": "Point", "coordinates": [ 129.324402, 35.493225, 115.0 ] } },
{ "type": "Feature", "properties": { "value": 0.0035 }, "geometry": { "type": "Point", "coordinates": [ 129.3255, 35.493225, 115.0 ] } },
{ "type": "Feature", "properties": { "value": 0.0036 }, "geometry": { "type": "Point", "coordinates": [ 129.326599, 35.493221, 115.0 ] } },
{ "type": "Feature", "properties": { "value": 0.0035 }, "geometry": { "type": "Point", "coordinates": [ 129.327698, 35.493217, 115.0 ] } },
{ "type": "Feature", "properties": { "value": 0.0032 }, "geometry": { "type": "Point", "coordinates": [ 129.328812, 35.493214, 115.0 ] } },
{ "type": "Feature", "properties": { "value": 0.0028 }, "geometry": { "type": "Point", "coordinates": [ 129.32991, 35.49321, 115.0 ] } },
{ "type": "Feature", "properties": { "value": 0.001 }, "geometry": { "type": "Point", "coordinates": [ 129.331009, 35.49321, 115.0 ] } },
{ "type": "Feature", "properties": { "value": 0.0008 }, "geometry": { "type": "Point", "coordinates": [ 129.332108, 35.493206, 115.0 ] } },
{ "type": "Feature", "properties": { "value": 0.0007 }, "geometry": { "type": "Point", "coordinates": [ 129.324402, 35.494129, 115.0 ] } },
{ "type": "Feature", "properties": { "value": 0.0008 }, "geometry": { "type": "Point", "coordinates": [ 129.3255, 35.494125, 115.0 ] } },
{ "type": "Feature", "properties": { "value": 0.0008 }, "geometry": { "type": "Point", "coordinates": [ 129.326599, 35.494122, 115.0 ] } },
{ "type": "Feature", "properties": { "value": 0.0008 }, "geometry": { "type": "Point", "coordinates": [ 129.327713, 35.494118, 115.0 ] } },
{ "type": "Feature", "properties": { "value": 0.0007 }, "geometry": { "type": "Point", "coordinates": [ 129.328812, 35.494114, 115.0 ] } }
]
}
