{
"type": "FeatureCollection",
"features": [
{ "type": "Feature", "properties": { "value": 0.0004 }, "geometry": { "type": "Point", "coordinates": [ 129.327576, 35.46077, 115.0 ] } },
{ "type": "Feature", "properties": { "value": 0.0076 }, "geometry": { "type": "Point", "coordinates": [ 129.327576, 35.461674, 115.0 ] } },
{ "type": "Feature", "properties": { "value": 0.0163 }, "geometry": { "type": "Point", "coordinates": [ 129.327576, 35.462574, 115.0 ] } },
{ "type": "Feature", "properties": { "value": 0.0282 }, "geometry": { "type": "Point", "coordinates": [ 129.327576, 35.463474, 115.0 ] } },
{ "type": "Feature", "properties": { "value": 0.0019 }, "geometry": { "type": "Point", "coordinates": [ 129.32869, 35.46347, 115.0 ] } },
{ "type": "Feature", "properties": { "value": 0.0586 }, "geometry": { "type": "Point", "coordinates": [ 129.327591, 35.464375, 115.0 ] } },
{ "type": "Feature", "properties": { "value": 0.0073 }, "geometry": { "type": "Point", "coordinates": [ 129.32869, 35.464375, 115.0 ] } },
{ "type": "Feature", "properties": { "value": 0.2009 }, "geometry": { "type": "Point", "coordinates": [ 129.327591, 35.465279, 115.0 ] } },
{ "type": "Feature", "properties": { "value": 0.0648 }, "geometry": { "type": "Point", "coordinates": [ 129.32869, 35.465275, 115.0 ] } },
{ "type": "Feature", "properties": { "value": 0.6152 }, "geometry": { "type": "Point", "coordinates": [ 129.327591, 35.466179, 115.0 ] } },
{ "type": "Feature", "properties": { "value": 0.4454 }, "geometry": { "type": "Point", "coordinates": [ 129.32869, 35.466175, 115.0 ] } },
{ "type": "Feature", "properties": { "value": 1.3088 }, "geometry": { "type": "Point", "coordinates": [ 129.327591, 35.467079, 115.0 ] } },
{ "type": "Feature", "properties": { "value": 1.3175 }, "geometry": { "type": "Point", "coordinates": [ 129.328705, 35.467075, 115.0 ] } },
{ "type": "Feature", "properties": { "value": 0.0001 }, "geometry": { "type": "Point", "coordinates": [ 129.317688, 35.468006, 115.0 ] } },
{ "type": "Feature", "properties": { "value": 2.2025 }, "geometry": { "type": "Point", "coordinates": [ 129.327606, 35.467983, 115.0 ] } },
{ "type": "Feature", "properties": { "value": 2.534 }, "geometry": { "type": "Point", "coordinates": [ 129.328705, 35.467979, 115.0 ] } },
{ "type": "Feature", "properties": { "value": 0.0791 }, "geometry": { "type": "Point", "coordinates": [ 129.317688, 35.46891, 115.0 ] } },
{ "type": "Feature", "properties": { "value": 0.0032 }, "geometry": { "type": "Point", "coordinates": [ 129.318787, 35.468906, 115.0 ] } },
{ "type": "Feature", "properties": { "value": 2.9171 }, "geometry": { "type": "Point", "coordinates": [ 129.327606, 35.468884, 115.0 ] } },
{ "type": "Feature", "properties": { "value": 3.6044 }, "geometry": { "type": "Point", "coordinates": [ 129.328705, 35.46888, 115.0 ] } },
{ "type": "Feature", "properties": { "value": 0.0983 }, "geometry": { "type": "Point", "coordinates": [ 129.316589, 35.469814, 115.0 ] } },
{ "type": "Feature", "properties": { "value": 1.5885 }, "geometry": { "type": "Point", "coordinates": [ 129.317688, 35.46981, 115.0 ] } },
{ "type": "Feature", "properties": { "value": 0.1942 }, "geometry": { "type": "Point", "coordinates": [ 129.318787, 35.469807, 115.0 ] } },
{ "type": "Feature", "properties": { "value": 2.8788 }, "geometry": { "type": "Point", "coordinates": [ 129.327606, 35.469784, 115.0 ] } },
{ "type": "Feature", "properties": { "value": 3.7733 }, "geometry": { "type": "Point", "coordinates": [ 129.328705, 35.46978, 115.0 ] } },
{ "type": "Feature", "properties": { "value": 0.052 }, "geometry": { "type": "Point", "coordinates": [ 129.329819, 35.469776, 115.0 ] } },
{ "type": "Feature", "properties": { "value": 1.3722 }, "geometry": { "type": "Point", "coordinates": [ 129.316589, 35.470715, 115.0 ] } },
{ "type": "Feature", "properties": { "value": 6.8806 }, "geometry": { "type": "Point", "coordinates": [ 129.317688, 35.470711, 115.0 ] } },
{ "type": "Feature", "properties": { "value": 0.8612 }, "geometry": { "type": "Point", "coordinates": [ 129.318802, 35.470707, 115.0 ] } },
{ "type": "Feature", "properties": { "value": 0.0362 }, "geometry": { "type": "Point", "coordinates": [ 129.326508, 35.470688, 115.0 ] } },
{ "type": "Feature", "properties": { "value": 2.3398 }, "geometry": { "type": "Point", "coordinates": [ 129.327606, 35.470684, 115.0 ] } },
{ "type": "Feature", "properties": { "value": 2.645 }, "geometry": { "type": "Point", "coordinates": [ 129.32872, 35.470684, 115.0 ] } },
{ "type": "Feature", "properties": { "value": 0.0458 }, "geometry": { "type": "Point", "coordinates": [ 129.329819, 35.47068, 115.0 ] } },
{ "type": "Feature", "properties": { "value": 0.2013 }, "geometry": { "type": "Point", "coordinates": [ 129.315491, 35.471619, 115.0 ] } },
{ "type": "Feature", "properties": { "value": 6.2493 }, "geometry": { "type": "Point", "coordinates": [ 129.316605, 35.471615, 115.0 ] } },
{ "type": "Feature", "properties": { "value": 14.216 }, "geometry": { "type": "Point", "coordinates": [ 129.317703, 35.471615, 115.0 ] } },
{ "type": "Feature", "properties": { "value": 2.1308 }, "geometry": { "type": "Point", "coordinates": [ 129.318802, 35.471611, 115.0 ] } },
{ "type": "Feature", "properties": { "value": 0.0422 }, "geometry": { "type": "Point", "coordinates": [ 129.326508, 35.471588, 115.0 ] } },
{ "type": "Feature", "properties": { "value": 1.4118 }, "geometry": { "type": "Point", "coordinates": [ 129.327621, 35.471588, 115.0 ] } },
{ "type": "Feature", "properties": { "value": 1.0159 }, "geometry": { "type": "Point", "coordinates": [ 129.32872, 35.471584, 115.0 ] } },
{ "type": "Feature", "properties": { "value": 0.019 }, "geometry": { "type": "Point", "coordinates": [ 129.329819, 35.471581, 115.0 ] } },
{ "type": "Feature", "properties": { "value": 2.0005 }, "geometry": { "type": "Point", "coordinates": [ 129.315506, 35.472519, 115.0 ] } },
{ "type": "Feature", "properties": { "value": 16.192 }, "geometry": { "type": "Point", "coordinates": [ 129.316605, 35.472519, 115.0 ] } },
{ "type": "Feature", "properties": { "value": 21.384 }, "geometry": { "type": "Point", "coordinates": [ 129.317703, 35.472515, 115.0 ] } },
{ "type": "Feature", "properties": { "value": 3.5034 }, "geometry": { "type": "Point", "coordinates": [ 129.318802, 35.472511, 115.0 ] } },
{ "type": "Feature", "properties": { "value": 0.0367 }, "geometry": { "type": "Point", "coordinates": [ 129.326523, 35.472492, 115.0 ] } },
{ "type": "Feature", "properties": { "value": 0.6794 }, "geometry": { "type": "Point", "coordinates": [ 129.327621, 35.472488, 115.0 ] } },
{ "type": "Feature", "properties": { "value": 0.3444 }, "geometry": { "type": "Point", "coordinates": [ 129.32872, 35.472485, 115.0 ] } },
{ "type": "Feature", "properties": { "value": 0.0119 }, "geometry": { "type": "Point", "coordinates": [ 129.329819, 35.472481, 115.0 ] } },
{ "type": "Feature", "properties": { "value": 0.1044 }, "geometry": { "type": "Point", "coordinates": [ 129.314407, 35.473423, 115.0 ] } },
{ "type": "Feature", "properties": { "value": 7.2244 }, "geometry": { "type": "Point", "coordinates": [ 129.315506, 35.473423, 115.0 ] } },
{ "type": "Feature", "properties": { "value": 30.611 }, "geometry": { "type": "Point", "coordinates": [ 129.316605, 35.473419, 115.0 ] } },
{ "type": "Feature", "properties": { "value": 28.89 }, "geometry": { "type": "Point", "coordinates": [ 129.317703, 35.473415, 115.0 ] } },
{ "type": "Feature", "properties": { "value": 5.1609 }, "geometry": { "type": "Point", "coordinates": [ 129.318802, 35.473412, 115.0 ] } },
{ "type": "Feature", "properties": { "value": 0.0354 }, "geometry": { "type": "Point", "coordinates": [ 129.326523, 35.473392, 115.0 ] } },
{ "type": "Feature", "properties": { "value": 0.4189 }, "geometry": { "type": "Point", "coordinates": [ 129.327621, 35.473389, 115.0 ] } },
{ "type": "Feature", "properties": { "value": 0.2421 }, "geometry": { "type": "Point", "coordinates": [ 129.32872, 35.473385, 115.0 ] } },
{ "type": "Feature", "properties": { "value": 0.0214 }, "geometry": { "type": "Point", "coordinates": [ 129.329819, 35.473385, 115.0 ] } },
{ "type": "Feature", "properties": { "value": 1.8311 }, "geometry": { "type": "Point", "coordinates": [ 129.314407, 35.474327, 115.0 ] } },
{ "type": "Feature", "properties": { "value": 16.221 }, "geometry": { "type": "Point", "coordinates": [ 129.315506, 35.474323, 115.0 ] } },
{ "type": "Feature", "properties": { "value": 44.597 }, "geometry": { "type": "Point", "coordinates": [ 129.316605, 35.474319, 115.0 ] } },
{ "type": "Feature", "properties": { "value": 34.319 }, "geometry": { "type": "Point", "coordinates": [ 129.317703, 35.474316, 115.0 ] } },
{ "type": "Feature", "properties": { "value": 6.6299 }, "geometry": { "type": "Point", "coordinates": [ 129.318817, 35.474316, 115.0 ] } },
{ "type": "Feature", "properties": { "value": 0.0426 }, "geometry": { "type": "Point", "coordinates": [ 129.326523, 35.474293, 115.0 ] } },
{ "type": "Feature", "properties": { "value": 0.3419 }, "geometry": { "type": "Point", "coordinates": [ 129.327621, 35.474289, 115.0 ] } },
{ "type": "Feature", "properties": { "value": 0.3192 }, "geometry": { "type": "Point", "coordinates": [ 129.328735, 35.474289, 115.0 ] } },
{ "type": "Feature", "properties": { "value": 0.0651 }, "geometry": { "type": "Point", "coordinates": [ 129.329834, 35.474285, 115.0 ] } },
{ "type": "Feature", "properties": { "value": 4.9539 }, "geometry": { "type": "Point", "coordinates": [ 129.314407, 35.475227, 115.0 ] } },
{ "type": "Feature", "properties": { "value": 26.783 }, "geometry": { "type": "Point", "coordinates": [ 129.315506, 35.475224, 115.0 ] } },
{ "type": "Feature", "properties": { "value": 53.854 }, "geometry": { "type": "Point", "coordinates": [ 129.316605, 35.47522, 115.0 ] } },
{ "type": "Feature", "properties": { "value": 36.249 }, "geometry": { "type": "Point", "coordinates": [ 129.317719, 35.47522, 115.0 ] } },
{ "type": "Feature", "properties": { "value": 7.5487 }, "geometry": { "type": "Point", "coordinates": [ 129.318817, 35.475216, 115.0 ] } },
{ "type": "Feature", "properties": { "value": 0.0533 }, "geometry": { "type": "Point", "coordinates": [ 129.326523, 35.475193, 115.0 ] } },
{ "type": "Feature", "properties": { "value": 0.4127 }, "geometry": { "type": "Point", "coordinates": [ 129.327637, 35.475193, 115.0 ] } },
{ "type": "Feature", "properties": { "value": 0.5652 }, "geometry": { "type": "Point", "coordinates": [ 129.328735, 35.475189, 115.0 ] } },
{ "type": "Feature", "properties": { "value": 0.1884 }, "geometry": { "type": "Point", "coordinates": [ 129.329834, 35.475185, 115.0 ] } },
{ "type": "Feature", "properties": { "value": 1.0982 }, "geometry": { "type": "Point", "coordinates": [ 129.313309, 35.476131, 115.0 ] } },
{ "type": "Feature", "properties": { "value": 10.53 }, "geometry": { "type": "Point", "coordinates": [ 129.314407, 35.476128, 115.0 ] } },
{ "type": "Feature", "properties": { "value": 37.722 }, "geometry": { "type": "Point", "coordinates": [ 129.315506, 35.476124, 115.0 ] } },
{ "type": "Feature", "properties": { "value": 59.702 }, "geometry": { "type": "Point", "coordinates": [ 129.31662, 35.476124, 115.0 ] } },
{ "type": "Feature", "properties": { "value": 36.819 }, "geometry": { "type": "Point", "coordinates": [ 129.317719, 35.47612, 115.0 ] } },
{ "type": "Feature", "properties": { "value": 8.4496 }, "geometry": { "type": "Point", "coordinates": [ 129.318817, 35.476116, 115.0 ] } },
{ "type": "Feature", "properties": { "value": 0.2372 }, "geometry": { "type": "Point", "coordinates": [ 129.319916, 35.476112, 115.0 ] } },
{ "type": "Feature", "properties": { "value": 0.0909 }, "geometry": { "type": "Point", "coordinates": [ 129.326538, 35.476097, 115.0 ] } },
{ "type": "Feature", "properties": { "value": 0.919 }, "geometry": { "type": "Point", "coordinates": [ 129.327637, 35.476093, 115.0 ] } },
{ "type": "Feature", "properties": { "value": 1.3069 }, "geometry": { "type": "Point", "coordinates": [ 129.328735, 35.476089, 115.0 ] } },
{ "type": "Feature", "properties": { "value": 0.4094 }, "geometry": { "type": "Point", "coordinates": [ 129.329834, 35.476086, 115.0 ] } },
{ "type": "Feature", "properties": { "value": 3.107 }, "geometry": { "type": "Point", "coordinates": [ 129.313309, 35.477032, 115.0 ] } },
{ "type": "Feature", "properties": { "value": 17.913 }, "geometry": { "type": "Point", "coordinates": [ 129.314407, 35.477028, 115.0 ] } },
{ "type": "Feature", "properties": { "value": 48.743 }, "geometry": { "type": "Point", "coordinates": [ 129.315521, 35.477028, 115.0 ] } },
{ "type": "Feature", "properties": { "value": 64.843 }, "geometry": { "type": "Point", "coordinates": [ 129.31662, 35.477024, 115.0 ] } },
{ "type": "Feature", "properties": { "value": 37.926 }, "geometry": { "type": "Point", "coordinates": [ 129.317719, 35.47702, 115.0 ] } },
{ "type": "Feature", "properties": { "value": 9.4874 }, "geometry": { "type": "Point", "coordinates": [ 129.318817, 35.477016, 115.0 ] } },
{ "type": "Feature", "properties": { "value": 0.7377 }, "geometry": { "type": "Point", "coordinates": [ 129.319931, 35.477016, 115.0 ] } },
{ "type": "Feature", "properties": { "value": 0.2468 }, "geometry": { "type": "Point", "coordinates": [ 129.326538, 35.476997, 115.0 ] } },
{ "type": "Feature", "properties": { "value": 2.6284 }, "geometry": { "type": "Point", "coordinates": [ 129.327637, 35.476994, 115.0 ] } },
{ "type": "Feature", "properties": { "value": 3.2279 }, "geometry": { "type": "Point", "coordinates": [ 129.328735, 35.47699, 115.0 ] } },
{ "type": "Feature", "properties": { "value": 0.7335 }, "geometry": { "type": "Point", "coordinates": [ 129.329834, 35.47699, 115.0 ] } },
{ "type": "Feature", "properties": { "value": 6.4456 }, "geometry": { "type": "Point", "coordinates": [ 129.313324, 35.477932, 115.0 ] } },
{ "type": "Feature", "properties": { "value": 26.963 }, "geometry": { "type": "Point", "coordinates": [ 129.314423, 35.477932, 115.0 ] } },
{ "type": "Feature", "properties": { "value": 59.554 }, "geometry": { "type": "Point", "coordinates": [ 129.315521, 35.477928, 115.0 ] } },
{ "type": "Feature", "properties": { "value": 69.343 }, "geometry": { "type": "Point", "coordinates": [ 129.31662, 35.477924, 115.0 ] } },
{ "type": "Feature", "properties": { "value": 39.234 }, "geometry": { "type": "Point", "coordinates": [ 129.317719, 35.477921, 115.0 ] } },
{ "type": "Feature", "properties": { "value": 10.477 }, "geometry": { "type": "Point", "coordinates": [ 129.318832, 35.477921, 115.0 ] } },
{ "type": "Feature", "properties": { "value": 1.1637 }, "geometry": { "type": "Point", "coordinates": [ 129.319931, 35.477917, 115.0 ] } },
{ "type": "Feature", "properties": { "value": 0.7733 }, "geometry": { "type": "Point", "coordinates": [ 129.326538, 35.477898, 115.0 ] } },
{ "type": "Feature", "properties": { "value": 5.841 }, "geometry": { "type": "Point", "coordinates": [ 129.327637, 35.477894, 115.0 ] } },
{ "type": "Feature", "properties": { "value": 5.9538 }, "geometry": { "type": "Point", "coordinates": [ 129.328735, 35.477894, 115.0 ] } },
{ "type": "Feature", "properties": { "value": 1.0677 }, "geometry": { "type": "Point", "coordinates": [ 129.329849, 35.47789, 115.0 ] } },
{ "type": "Feature", "properties": { "value": 1.7812 }, "geometry": { "type": "Point", "coordinates": [ 129.312225, 35.478836, 115.0 ] } },
{ "type": "Feature", "properties": { "value": 11.238 }, "geometry": { "type": "Point", "coordinates": [ 129.313324, 35.478836, 115.0 ] } },
{ "type": "Feature", "properties": { "value": 37.014 }, "geometry": { "type": "Point", "coordinates": [ 129.314423, 35.478832, 115.0 ] } },
{ "type": "Feature", "properties": { "value": 68.826 }, "geometry": { "type": "Point", "coordinates": [ 129.315521, 35.478828, 115.0 ] } },
{ "type": "Feature", "properties": { "value": 72.077 }, "geometry": { "type": "Point", "coordinates": [ 129.31662, 35.478825, 115.0 ] } },
{ "type": "Feature", "properties": { "value": 39.604 }, "geometry": { "type": "Point", "coordinates": [ 129.317734, 35.478825, 115.0 ] } },
{ "type": "Feature", "properties": { "value": 11.236 }, "geometry": { "type": "Point", "coordinates": [ 129.318832, 35.478821, 115.0 ] } },
{ "type": "Feature", "properties": { "value": 1.374 }, "geometry": { "type": "Point", "coordinates": [ 129.319931, 35.478817, 115.0 ] } },
{ "type": "Feature", "properties": { "value": 1.7848 }, "geometry": { "type": "Point", "coordinates": [ 129.326538, 35.478798, 115.0 ] } },
{ "type": "Feature", "properties": { "value": 8.699 }, "geometry": { "type": "Point", "coordinates": [ 129.327637, 35.478798, 115.0 ] } },
{ "type": "Feature", "properties": { "value": 7.609 }, "geometry": { "type": "Point", "coordinates": [ 129.328751, 35.478794, 115.0 ] } },
{ "type": "Feature", "properties": { "value": 1.2601 }, "geometry": { "type": "Point", "coordinates": [ 129.329849, 35.47879, 115.0 ] } },
{ "type": "Feature", "properties": { "value": 3.8979 }, "geometry": { "type": "Point", "coordinates": [ 129.312225, 35.47974, 115.0 ] } },
{ "type": "Feature", "properties": { "value": 17.472 }, "geometry": { "type": "Point", "coordinates": [ 129.313324, 35.479736, 115.0 ] } },
{ "type": "Feature", "properties": { "value": 46.553 }, "geometry": { "type": "Point", "coordinates": [ 129.314423, 35.479733, 115.0 ] } },
{ "type": "Feature", "properties": { "value": 75.704 }, "geometry": { "type": "Point", "coordinates": [ 129.315521, 35.479729, 115.0 ] } },
{ "type": "Feature", "properties": { "value": 72.017 }, "geometry": { "type": "Point", "coordinates": [ 129.316635, 35.479729, 115.0 ] } },
{ "type": "Feature", "properties": { "value": 38.502 }, "geometry": { "type": "Point", "coordinates": [ 129.317734, 35.479725, 115.0 ] } },
{ "type": "Feature", "properties": { "value": 11.297 }, "geometry": { "type": "Point", "coordinates": [ 129.318832, 35.479721, 115.0 ] } },
{ "type": "Feature", "properties": { "value": 1.5712 }, "geometry": { "type": "Point", "coordinates": [ 129.319931, 35.479717, 115.0 ] } },
{ "type": "Feature", "properties": { "value": 0.1447 }, "geometry": { "type": "Point", "coordinates": [ 129.325439, 35.479706, 115.0 ] } },
{ "type": "Feature", "properties": { "value": 2.5301 }, "geometry": { "type": "Point", "coordinates": [ 129.326553, 35.479702, 115.0 ] } },
{ "type": "Feature", "properties": { "value": 8.4597 }, "geometry": { "type": "Point", "coordinates": [ 129.327652, 35.479698, 115.0 ] } },
{ "type": "Feature", "properties": { "value": 6.8706 }, "geometry": { "type": "Point", "coordinates": [ 129.328751, 35.479694, 115.0 ] } },
{ "type": "Feature", "properties": { "value": 1.2252 }, "geometry": { "type": "Point", "coordinates": [ 129.329849, 35.479691, 115.0 ] } },
{ "type": "Feature", "properties": { "value": 1.0047 }, "geometry": { "type": "Point", "coordinates": [ 129.311127, 35.480644, 115.0 ] } },
{ "type": "Feature", "properties": { "value": 7.0612 }, "geometry": { "type": "Point", "coordinates": [ 129.312225, 35.48064, 115.0 ] } },
{ "type": "Feature", "properties": { "value": 24.923 }, "geometry": { "type": "Point", "coordinates": [ 129.313324, 35.480637, 115.0 ] } },
{ "type": "Feature", "properties": { "value": 55.637 }, "geometry": { "type": "Point", "coordinates": [ 129.314423, 35.480633, 115.0 ] } },
{ "type": "Feature", "properties": { "value": 79.609 }, "geometry": { "type": "Point", "coordinates": [ 129.315536, 35.480633, 115.0 ] } },
{ "type": "Feature", "properties": { "value": 69.527 }, "geometry": { "type": "Point", "coordinates": [ 129.316635, 35.480629, 115.0 ] } },
{ "type": "Feature", "properties": { "value": 35.911 }, "geometry": { "type": "Point", "coordinates": [ 129.317734, 35.480625, 115.0 ] } },
{ "type": "Feature", "properties": { "value": 10.738 }, "geometry": { "type": "Point", "coordinates": [ 129.318832, 35.480621, 115.0 ] } },
{ "type": "Feature", "properties": { "value": 1.6794 }, "geometry": { "type": "Point", "coordinates": [ 129.319931, 35.480621, 115.0 ] } },
{ "type": "Feature", "properties": { "value": 0.2156 }, "geometry": { "type": "Point", "coordinates": [ 129.325455, 35.480606, 115.0 ] } },
{ "type": "Feature", "properties": { "value": 2.2885 }, "geometry": { "type": "Point", "coordinates": [ 129.326553, 35.480602, 115.0 ] } },
{ "type": "Feature", "properties": { "value": 6.2008 }, "geometry": { "type": "Point", "coordinates": [ 129.327652, 35.480598, 115.0 ] } },
{ "type": "Feature", "properties": { "value": 5.1952 }, "geometry": { "type": "Point", "coordinates": [ 129.328751, 35.480595, 115.0 ] } },
{ "type": "Feature", "properties": { "value": 1.0634 }, "geometry": { "type": "Point", "coordinates": [ 129.329849, 35.480595, 115.0 ] } },
{ "type": "Feature", "properties": { "value": 2.4831 }, "geometry": { "type": "Point", "coordinates": [ 129.311127, 35.481544, 115.0 ] } },
{ "type": "Feature", "properties": { "value": 11.49 }, "geometry": { "type": "Point", "coordinates": [ 129.312225, 35.481541, 115.0 ] } },
{ "type": "Feature", "properties": { "value": 33.419 }, "geometry": { "type": "Point", "coordinates": [ 129.313324, 35.481537, 115.0 ] } },
{ "type": "Feature", "properties": { "value": 64.113 }, "geometry": { "type": "Point", "coordinates": [ 129.314438, 35.481537, 115.0 ] } },
{ "type": "Feature", "properties": { "value": 81.037 }, "geometry": { "type": "Point", "coordinates": [ 129.315536, 35.481533, 115.0 ] } },
{ "type": "Feature", "properties": { "value": 65.128 }, "geometry": { "type": "Point", "coordinates": [ 129.316635, 35.481529, 115.0 ] } },
{ "type": "Feature", "properties": { "value": 32.438 }, "geometry": { "type": "Point", "coordinates": [ 129.317734, 35.481525, 115.0 ] } },
{ "type": "Feature", "properties": { "value": 9.7736 }, "geometry": { "type": "Point", "coordinates": [ 129.318848, 35.481525, 115.0 ] } },
{ "type": "Feature", "properties": { "value": 1.5923 }, "geometry": { "type": "Point", "coordinates": [ 129.319946, 35.481522, 115.0 ] } },
{ "type": "Feature", "properties": { "value": 0.221 }, "geometry": { "type": "Point", "coordinates": [ 129.325455, 35.481506, 115.0 ] } },
{ "type": "Feature", "properties": { "value": 1.9577 }, "geometry": { "type": "Point", "coordinates": [ 129.326553, 35.481503, 115.0 ] } },
{ "type": "Feature", "properties": { "value": 5.5132 }, "geometry": { "type": "Point", "coordinates": [ 129.327652, 35.481503, 115.0 ] } },
{ "type": "Feature", "properties": { "value": 4.6776 }, "geometry": { "type": "Point", "coordinates": [ 129.328751, 35.481499, 115.0 ] } },
{ "type": "Feature", "properties": { "value": 0.9438 }, "geometry": { "type": "Point", "coordinates": [ 129.329865, 35.481495, 115.0 ] } },
{ "type": "Feature", "properties": { "value": 0.2417 }, "geometry": { "type": "Point", "coordinates": [ 129.310028, 35.482449, 115.0 ] } },
{ "type": "Feature", "properties": { "value": 4.6462 }, "geometry": { "type": "Point", "coordinates": [ 129.311127, 35.482445, 115.0 ] } },
{ "type": "Feature", "properties": { "value": 17.349 }, "geometry": { "type": "Point", "coordinates": [ 129.312225, 35.482445, 115.0 ] } },
{ "type": "Feature", "properties": { "value": 42.788 }, "geometry": { "type": "Point", "coordinates": [ 129.313339, 35.482441, 115.0 ] } },
{ "type": "Feature", "properties": { "value": 71.526 }, "geometry": { "type": "Point", "coordinates": [ 129.314438, 35.482437, 115.0 ] } },
{ "type": "Feature", "properties": { "value": 80.488 }, "geometry": { "type": "Point", "coordinates": [ 129.315536, 35.482433, 115.0 ] } },
{ "type": "Feature", "properties": { "value": 59.736 }, "geometry": { "type": "Point", "coordinates": [ 129.316635, 35.48243, 115.0 ] } },
{ "type": "Feature", "properties": { "value": 28.54 }, "geometry": { "type": "Point", "coordinates": [ 129.317749, 35.48243, 115.0 ] } },
{ "type": "Feature", "properties": { "value": 8.5454 }, "geometry": { "type": "Point", "coordinates": [ 129.318848, 35.482426, 115.0 ] } },
{ "type": "Feature", "properties": { "value": 1.4206 }, "geometry": { "type": "Point", "coordinates": [ 129.319946, 35.482422, 115.0 ] } },
{ "type": "Feature", "properties": { "value": 0.2604 }, "geometry": { "type": "Point", "coordinates": [ 129.325455, 35.482407, 115.0 ] } },
{ "type": "Feature", "properties": { "value": 2.2862 }, "geometry": { "type": "Point", "coordinates": [ 129.326553, 35.482407, 115.0 ] } },
{ "type": "Feature", "properties": { "value": 6.3845 }, "geometry": { "type": "Point", "coordinates": [ 129.327652, 35.482403, 115.0 ] } },
{ "type": "Feature", "properties": { "value": 4.7555 }, "geometry": { "type": "Point", "coordinates": [ 129.328766, 35.482399, 115.0 ] } },
{ "type": "Feature", "properties": { "value": 0.8527 }, "geometry": { "type": "Point", "coordinates": [ 129.329865, 35.482395, 115.0 ] } },
{ "type": "Feature", "properties": { "value": 1.5624 }, "geometry": { "type": "Point", "coordinates": [ 129.310028, 35.483349, 115.0 ] } },
{ "type": "Feature", "properties": { "value": 7.9793 }, "geometry": { "type": "Point", "coordinates": [ 129.311127, 35.483349, 115.0 ] } },
{ "type": "Feature", "properties": { "value": 24.676 }, "geometry": { "type": "Point", "coordinates": [ 129.312241, 35.483345, 115.0 ] } },
{ "type": "Feature", "properties": { "value": 53.0 }, "geometry": { "type": "Point", "coordinates": [ 129.313339, 35.483341, 115.0 ] } },
{ "type": "Feature", "properties": { "value": 78.333 }, "geometry": { "type": "Point", "coordinates": [ 129.314438, 35.483337, 115.0 ] } },
{ "type": "Feature", "properties": { "value": 79.105 }, "geometry": { "type": "Point", "coordinates": [ 129.315536, 35.483337, 115.0 ] } },
{ "type": "Feature", "properties": { "value": 54.049 }, "geometry": { "type": "Point", "coordinates": [ 129.31665, 35.483334, 115.0 ] } },
{ "type": "Feature", "properties": { "value": 24.511 }, "geometry": { "type": "Point", "coordinates": [ 129.317749, 35.48333, 115.0 ] } },
{ "type": "Feature", "properties": { "value": 7.1698 }, "geometry": { "type": "Point", "coordinates": [ 129.318848, 35.483326, 115.0 ] } },
{ "type": "Feature", "properties": { "value": 1.0194 }, "geometry": { "type": "Point", "coordinates": [ 129.319946, 35.483322, 115.0 ] } },
{ "type": "Feature", "properties": { "value": 0.4025 }, "geometry": { "type": "Point", "coordinates": [ 129.325455, 35.483311, 115.0 ] } },
{ "type": "Feature", "properties": { "value": 2.9827 }, "geometry": { "type": "Point", "coordinates": [ 129.326553, 35.483307, 115.0 ] } },
{ "type": "Feature", "properties": { "value": 6.5125 }, "geometry": { "type": "Point", "coordinates": [ 129.327667, 35.483303, 115.0 ] } },
{ "type": "Feature", "properties": { "value": 3.9739 }, "geometry": { "type": "Point", "coordinates": [ 129.328766, 35.483299, 115.0 ] } },
{ "type": "Feature", "properties": { "value": 0.701 }, "geometry": { "type": "Point", "coordinates": [ 129.329865, 35.483295, 115.0 ] } },
{ "type": "Feature", "properties": { "value": 3.3406 }, "geometry": { "type": "Point", "coordinates": [ 129.310028, 35.484253, 115.0 ] } },
{ "type": "Feature", "properties": { "value": 12.816 }, "geometry": { "type": "Point", "coordinates": [ 129.311142, 35.484249, 115.0 ] } },
{ "type": "Feature", "properties": { "value": 33.872 }, "geometry": { "type": "Point", "coordinates": [ 129.312241, 35.484245, 115.0 ] } },
{ "type": "Feature", "properties": { "value": 63.652 }, "geometry": { "type": "Point", "coordinates": [ 129.313339, 35.484241, 115.0 ] } },
{ "type": "Feature", "properties": { "value": 83.977 }, "geometry": { "type": "Point", "coordinates": [ 129.314438, 35.484241, 115.0 ] } },
{ "type": "Feature", "properties": { "value": 76.674 }, "geometry": { "type": "Point", "coordinates": [ 129.315552, 35.484238, 115.0 ] } },
{ "type": "Feature", "properties": { "value": 48.231 }, "geometry": { "type": "Point", "coordinates": [ 129.31665, 35.484234, 115.0 ] } },
{ "type": "Feature", "properties": { "value": 20.568 }, "geometry": { "type": "Point", "coordinates": [ 129.317749, 35.48423, 115.0 ] } },
{ "type": "Feature", "properties": { "value": 5.7345 }, "geometry": { "type": "Point", "coordinates": [ 129.318848, 35.48423, 115.0 ] } },
{ "type": "Feature", "properties": { "value": 0.7023 }, "geometry": { "type": "Point", "coordinates": [ 129.319946, 35.484226, 115.0 ] } },
{ "type": "Feature", "properties": { "value": 0.0336 }, "geometry": { "type": "Point", "coordinates": [ 129.324356, 35.484215, 115.0 ] } },
{ "type": "Feature", "properties": { "value": 0.6323 }, "geometry": { "type": "Point", "coordinates": [ 129.325455, 35.484211, 115.0 ] } },
{ "type": "Feature", "properties": { "value": 3.4229 }, "geometry": { "type": "Point", "coordinates": [ 129.326569, 35.484207, 115.0 ] } },
{ "type": "Feature", "properties": { "value": 5.4659 }, "geometry": { "type": "Point", "coordinates": [ 129.327667, 35.484203, 115.0 ] } },
{ "type": "Feature", "properties": { "value": 2.9136 }, "geometry": { "type": "Point", "coordinates": [ 129.328766, 35.484203, 115.0 ] } },
{ "type": "Feature", "properties": { "value": 0.5465 }, "geometry": { "type": "Point", "coordinates": [ 129.329865, 35.4842, 115.0 ] } },
{ "type": "Feature", "properties": { "value": 1.0993 }, "geometry": { "type": "Point", "coordinates": [ 129.308929, 35.485157, 115.0 ] } },
{ "type": "Feature", "properties": { "value": 6.0589 }, "geometry": { "type": "Point", "coordinates": [ 129.310043, 35.485153, 115.0 ] } },
{ "type": "Feature", "properties": { "value": 19.277 }, "geometry": { "type": "Point", "coordinates": [ 129.311142, 35.485149, 115.0 ] } },
{ "type": "Feature", "properties": { "value": 44.274 }, "geometry": { "type": "Point", "coordinates": [ 129.312241, 35.485146, 115.0 ] } },
{ "type": "Feature", "properties": { "value": 73.572 }, "geometry": { "type": "Point", "coordinates": [ 129.313339, 35.485146, 115.0 ] } },
{ "type": "Feature", "properties": { "value": 86.889 }, "geometry": { "type": "Point", "coordinates": [ 129.314453, 35.485142, 115.0 ] } },
{ "type": "Feature", "properties": { "value": 72.08 }, "geometry": { "type": "Point", "coordinates": [ 129.315552, 35.485138, 115.0 ] } },
{ "type": "Feature", "properties": { "value": 41.66 }, "geometry": { "type": "Point", "coordinates": [ 129.31665, 35.485134, 115.0 ] } },
{ "type": "Feature", "properties": { "value": 16.583 }, "geometry": { "type": "Point", "coordinates": [ 129.317749, 35.485134, 115.0 ] } },
{ "type": "Feature", "properties": { "value": 4.2962 }, "geometry": { "type": "Point", "coordinates": [ 129.318848, 35.48513, 115.0 ] } },
{ "type": "Feature", "properties": { "value": 0.0996 }, "geometry": { "type": "Point", "coordinates": [ 129.324371, 35.485115, 115.0 ] } },
{ "type": "Feature", "properties": { "value": 1.0417 }, "geometry": { "type": "Point", "coordinates": [ 129.32547, 35.485111, 115.0 ] } },
{ "type": "Feature", "properties": { "value": 4.0298 }, "geometry": { "type": "Point", "coordinates": [ 129.326569, 35.485107, 115.0 ] } },
{ "type": "Feature", "properties": { "value": 5.1464 }, "geometry": { "type": "Point", "coordinates": [ 129.327667, 35.485107, 115.0 ] } },
{ "type": "Feature", "properties": { "value": 2.5593 }, "geometry": { "type": "Point", "coordinates": [ 129.328766, 35.485104, 115.0 ] } },
{ "type": "Feature", "properties": { "value": 0.4444 }, "geometry": { "type": "Point", "coordinates": [ 129.32988, 35.4851, 115.0 ] } },
{ "type": "Feature", "properties": { "value": 2.3804 }, "geometry": { "type": "Point", "coordinates": [ 129.308945, 35.486057, 115.0 ] } },
{ "type": "Feature", "properties": { "value": 9.561 }, "geometry": { "type": "Point", "coordinates": [ 129.310043, 35.486053, 115.0 ] } },
{ "type": "Feature", "properties": { "value": 26.697 }, "geometry": { "type": "Point", "coordinates": [ 129.311142, 35.48605, 115.0 ] } },
{ "type": "Feature", "properties": { "value": 54.361 }, "geometry": { "type": "Point", "coordinates": [ 129.312241, 35.48605, 115.0 ] } },
{ "type": "Feature", "properties": { "value": 80.332 }, "geometry": { "type": "Point", "coordinates": [ 129.313354, 35.486046, 115.0 ] } },
{ "type": "Feature", "properties": { "value": 85.346 }, "geometry": { "type": "Point", "coordinates": [ 129.314453, 35.486042, 115.0 ] } },
{ "type": "Feature", "properties": { "value": 64.538 }, "geometry": { "type": "Point", "coordinates": [ 129.315552, 35.486038, 115.0 ] } },
{ "type": "Feature", "properties": { "value": 34.333 }, "geometry": { "type": "Point", "coordinates": [ 129.31665, 35.486038, 115.0 ] } },
{ "type": "Feature", "properties": { "value": 12.65 }, "geometry": { "type": "Point", "coordinates": [ 129.317749, 35.486034, 115.0 ] } },
{ "type": "Feature", "properties": { "value": 3.0796 }, "geometry": { "type": "Point", "coordinates": [ 129.318863, 35.486031, 115.0 ] } },
{ "type": "Feature", "properties": { "value": 0.2823 }, "geometry": { "type": "Point", "coordinates": [ 129.324371, 35.486015, 115.0 ] } },
{ "type": "Feature", "properties": { "value": 2.0117 }, "geometry": { "type": "Point", "coordinates": [ 129.32547, 35.486012, 115.0 ] } },
{ "type": "Feature", "properties": { "value": 5.5391 }, "geometry": { "type": "Point", "coordinates": [ 129.326569, 35.486012, 115.0 ] } },
{ "type": "Feature", "properties": { "value": 5.8368 }, "geometry": { "type": "Point", "coordinates": [ 129.327667, 35.486008, 115.0 ] } },
{ "type": "Feature", "properties": { "value": 2.5115 }, "geometry": { "type": "Point", "coordinates": [ 129.328781, 35.486004, 115.0 ] } },
{ "type": "Feature", "properties": { "value": 0.3515 }, "geometry": { "type": "Point", "coordinates": [ 129.32988, 35.486, 115.0 ] } },
{ "type": "Feature", "properties": { "value": 0.6129 }, "geometry": { "type": "Point", "coordinates": [ 129.307846, 35.486961, 115.0 ] } },
{ "type": "Feature", "properties": { "value": 3.7544 }, "geometry": { "type": "Point", "coordinates": [ 129.308945, 35.486958, 115.0 ] } },
{ "type": "Feature", "properties": { "value": 13.066 }, "geometry": { "type": "Point", "coordinates": [ 129.310043, 35.486954, 115.0 ] } },
{ "type": "Feature", "properties": { "value": 32.866 }, "geometry": { "type": "Point", "coordinates": [ 129.311142, 35.486954, 115.0 ] } },
{ "type": "Feature", "properties": { "value": 60.419 }, "geometry": { "type": "Point", "coordinates": [ 129.312256, 35.48695, 115.0 ] } },
{ "type": "Feature", "properties": { "value": 80.746 }, "geometry": { "type": "Point", "coordinates": [ 129.313354, 35.486946, 115.0 ] } },
{ "type": "Feature", "properties": { "value": 77.896 }, "geometry": { "type": "Point", "coordinates": [ 129.314453, 35.486942, 115.0 ] } },
{ "type": "Feature", "properties": { "value": 53.9 }, "geometry": { "type": "Point", "coordinates": [ 129.315552, 35.486942, 115.0 ] } },
{ "type": "Feature", "properties": { "value": 26.448 }, "geometry": { "type": "Point", "coordinates": [ 129.31665, 35.486938, 115.0 ] } },
{ "type": "Feature", "properties": { "value": 9.1123 }, "geometry": { "type": "Point", "coordinates": [ 129.317764, 35.486935, 115.0 ] } },
{ "type": "Feature", "properties": { "value": 1.9524 }, "geometry": { "type": "Point", "coordinates": [ 129.318863, 35.486931, 115.0 ] } },
{ "type": "Feature", "properties": { "value": 0.0029 }, "geometry": { "type": "Point", "coordinates": [ 129.323273, 35.486919, 115.0 ] } },
{ "type": "Feature", "properties": { "value": 0.7017 }, "geometry": { "type": "Point", "coordinates": [ 129.324371, 35.486916, 115.0 ] } },
{ "type": "Feature", "properties": { "value": 3.7691 }, "geometry": { "type": "Point", "coordinates": [ 129.32547, 35.486916, 115.0 ] } },
{ "type": "Feature", "properties": { "value": 7.643 }, "geometry": { "type": "Point", "coordinates": [ 129.326569, 35.486912, 115.0 ] } },
{ "type": "Feature", "properties": { "value": 6.3762 }, "geometry": { "type": "Point", "coordinates": [ 129.327682, 35.486908, 115.0 ] } },
{ "type": "Feature", "properties": { "value": 2.2386 }, "geometry": { "type": "Point", "coordinates": [ 129.328781, 35.486904, 115.0 ] } },
{ "type": "Feature", "properties": { "value": 0.2605 }, "geometry": { "type": "Point", "coordinates": [ 129.32988, 35.486904, 115.0 ] } },
{ "type": "Feature", "properties": { "value": 0.9033 }, "geometry": { "type": "Point", "coordinates": [ 129.307846, 35.487862, 115.0 ] } },
{ "type": "Feature", "properties": { "value": 4.5354 }, "geometry": { "type": "Point", "coordinates": [ 129.308945, 35.487858, 115.0 ] } },
{ "type": "Feature", "properties": { "value": 14.728 }, "geometry": { "type": "Point", "coordinates": [ 129.310043, 35.487858, 115.0 ] } },
{ "type": "Feature", "properties": { "value": 34.309 }, "geometry": { "type": "Point", "coordinates": [ 129.311157, 35.487854, 115.0 ] } },
{ "type": "Feature", "properties": { "value": 58.25 }, "geometry": { "type": "Point", "coordinates": [ 129.312256, 35.48785, 115.0 ] } },
{ "type": "Feature", "properties": { "value": 71.839 }, "geometry": { "type": "Point", "coordinates": [ 129.313354, 35.487846, 115.0 ] } },
{ "type": "Feature", "properties": { "value": 63.902 }, "geometry": { "type": "Point", "coordinates": [ 129.314453, 35.487846, 115.0 ] } },
{ "type": "Feature", "properties": { "value": 40.808 }, "geometry": { "type": "Point", "coordinates": [ 129.315552, 35.487843, 115.0 ] } },
{ "type": "Feature", "properties": { "value": 18.622 }, "geometry": { "type": "Point", "coordinates": [ 129.316666, 35.487839, 115.0 ] } },
{ "type": "Feature", "properties": { "value": 5.9277 }, "geometry": { "type": "Point", "coordinates": [ 129.317764, 35.487835, 115.0 ] } },
{ "type": "Feature", "properties": { "value": 1.04 }, "geometry": { "type": "Point", "coordinates": [ 129.318863, 35.487835, 115.0 ] } },
{ "type": "Feature", "properties": { "value": 0.1001 }, "geometry": { "type": "Point", "coordinates": [ 129.323273, 35.48782, 115.0 ] } },
{ "type": "Feature", "properties": { "value": 1.2331 }, "geometry": { "type": "Point", "coordinates": [ 129.324371, 35.48782, 115.0 ] } },
{ "type": "Feature", "properties": { "value": 5.2694 }, "geometry": { "type": "Point", "coordinates": [ 129.32547, 35.487816, 115.0 ] } },
{ "type": "Feature", "properties": { "value": 8.7237 }, "geometry": { "type": "Point", "coordinates": [ 129.326584, 35.487812, 115.0 ] } },
{ "type": "Feature", "properties": { "value": 6.1603 }, "geometry": { "type": "Point", "coordinates": [ 129.327682, 35.487808, 115.0 ] } },
{ "type": "Feature", "properties": { "value": 1.866 }, "geometry": { "type": "Point", "coordinates": [ 129.328781, 35.487808, 115.0 ] } },
{ "type": "Feature", "properties": { "value": 0.1907 }, "geometry": { "type": "Point", "coordinates": [ 129.32988, 35.487804, 115.0 ] } },
{ "type": "Feature", "properties": { "value": 0.934 }, "geometry": { "type": "Point", "coordinates": [ 129.307846, 35.488762, 115.0 ] } },
{ "type": "Feature", "properties": { "value": 4.3365 }, "geometry": { "type": "Point", "coordinates": [ 129.308945, 35.488762, 115.0 ] } },
{ "type": "Feature", "properties": { "value": 13.294 }, "geometry": { "type": "Point", "coordinates": [ 129.310059, 35.488758, 115.0 ] } },
{ "type": "Feature", "properties": { "value": 29.128 }, "geometry": { "type": "Point", "coordinates": [ 129.311157, 35.488754, 115.0 ] } },
{ "type": "Feature", "properties": { "value": 46.631 }, "geometry": { "type": "Point", "coordinates": [ 129.312256, 35.48875, 115.0 ] } },
{ "type": "Feature", "properties": { "value": 54.086 }, "geometry": { "type": "Point", "coordinates": [ 129.313354, 35.48875, 115.0 ] } },
{ "type": "Feature", "properties": { "value": 45.102 }, "geometry": { "type": "Point", "coordinates": [ 129.314453, 35.488747, 115.0 ] } },
{ "type": "Feature", "properties": { "value": 27.015 }, "geometry": { "type": "Point", "coordinates": [ 129.315567, 35.488743, 115.0 ] } },
{ "type": "Feature", "properties": { "value": 11.532 }, "geometry": { "type": "Point", "coordinates": [ 129.316666, 35.488739, 115.0 ] } },
{ "type": "Feature", "properties": { "value": 3.4078 }, "geometry": { "type": "Point", "coordinates": [ 129.317764, 35.488739, 115.0 ] } },
{ "type": "Feature", "properties": { "value": 0.1328 }, "geometry": { "type": "Point", "coordinates": [ 129.323273, 35.488724, 115.0 ] } },
{ "type": "Feature", "properties": { "value": 1.292 }, "geometry": { "type": "Point", "coordinates": [ 129.324371, 35.48872, 115.0 ] } },
{ "type": "Feature", "properties": { "value": 4.7768 }, "geometry": { "type": "Point", "coordinates": [ 129.325485, 35.488716, 115.0 ] } },
{ "type": "Feature", "properties": { "value": 7.2656 }, "geometry": { "type": "Point", "coordinates": [ 129.326584, 35.488712, 115.0 ] } },
{ "type": "Feature", "properties": { "value": 4.8348 }, "geometry": { "type": "Point", "coordinates": [ 129.327682, 35.488712, 115.0 ] } },
{ "type": "Feature", "properties": { "value": 1.3984 }, "geometry": { "type": "Point", "coordinates": [ 129.328781, 35.488708, 115.0 ] } },
{ "type": "Feature", "properties": { "value": 0.1366 }, "geometry": { "type": "Point", "coordinates": [ 129.329895, 35.488705, 115.0 ] } },
{ "type": "Feature", "properties": { "value": 0.6566 }, "geometry": { "type": "Point", "coordinates": [ 129.307846, 35.489666, 115.0 ] } },
{ "type": "Feature", "properties": { "value": 3.0934 }, "geometry": { "type": "Point", "coordinates": [ 129.30896, 35.489662, 115.0 ] } },
{ "type": "Feature", "properties": { "value": 9.2586 }, "geometry": { "type": "Point", "coordinates": [ 129.310059, 35.489658, 115.0 ] } },
{ "type": "Feature", "properties": { "value": 19.524 }, "geometry": { "type": "Point", "coordinates": [ 129.311157, 35.489655, 115.0 ] } },
{ "type": "Feature", "properties": { "value": 29.978 }, "geometry": { "type": "Point", "coordinates": [ 129.312256, 35.489655, 115.0 ] } },
{ "type": "Feature", "properties": { "value": 33.065 }, "geometry": { "type": "Point", "coordinates": [ 129.313354, 35.489651, 115.0 ] } },
{ "type": "Feature", "properties": { "value": 26.25 }, "geometry": { "type": "Point", "coordinates": [ 129.314468, 35.489647, 115.0 ] } },
{ "type": "Feature", "properties": { "value": 14.939 }, "geometry": { "type": "Point", "coordinates": [ 129.315567, 35.489643, 115.0 ] } },
{ "type": "Feature", "properties": { "value": 6.0322 }, "geometry": { "type": "Point", "coordinates": [ 129.316666, 35.489643, 115.0 ] } },
{ "type": "Feature", "properties": { "value": 1.6507 }, "geometry": { "type": "Point", "coordinates": [ 129.317764, 35.489639, 115.0 ] } },
{ "type": "Feature", "properties": { "value": 0.0902 }, "geometry": { "type": "Point", "coordinates": [ 129.323273, 35.489624, 115.0 ] } },
{ "type": "Feature", "properties": { "value": 0.718 }, "geometry": { "type": "Point", "coordinates": [ 129.324387, 35.48962, 115.0 ] } },
{ "type": "Feature", "properties": { "value": 2.4665 }, "geometry": { "type": "Point", "coordinates": [ 129.325485, 35.489616, 115.0 ] } },
{ "type": "Feature", "properties": { "value": 3.8551 }, "geometry": { "type": "Point", "coordinates": [ 129.326584, 35.489616, 115.0 ] } },
{ "type": "Feature", "properties": { "value": 2.6516 }, "geometry": { "type": "Point", "coordinates": [ 129.327682, 35.489613, 115.0 ] } },
{ "type": "Feature", "properties": { "value": 0.7874 }, "geometry": { "type": "Point", "coordinates": [ 129.328796, 35.489609, 115.0 ] } },
{ "type": "Feature", "properties": { "value": 0.0688 }, "geometry": { "type": "Point", "coordinates": [ 129.329895, 35.489605, 115.0 ] } },
{ "type": "Feature", "properties": { "value": 0.3425 }, "geometry": { "type": "Point", "coordinates": [ 129.307861, 35.490566, 115.0 ] } },
{ "type": "Feature", "properties": { "value": 1.6872 }, "geometry": { "type": "Point", "coordinates": [ 129.30896, 35.490562, 115.0 ] } },
{ "type": "Feature", "properties": { "value": 4.895 }, "geometry": { "type": "Point", "coordinates": [ 129.310059, 35.490559, 115.0 ] } },
{ "type": "Feature", "properties": { "value": 10.071 }, "geometry": { "type": "Point", "coordinates": [ 129.311157, 35.490559, 115.0 ] } },
{ "type": "Feature", "properties": { "value": 14.966 }, "geometry": { "type": "Point", "coordinates": [ 129.312271, 35.490555, 115.0 ] } },
{ "type": "Feature", "properties": { "value": 15.957 }, "geometry": { "type": "Point", "coordinates": [ 129.31337, 35.490551, 115.0 ] } },
{ "type": "Feature", "properties": { "value": 12.192 }, "geometry": { "type": "Point", "coordinates": [ 129.314468, 35.490547, 115.0 ] } },
{ "type": "Feature", "properties": { "value": 6.6297 }, "geometry": { "type": "Point", "coordinates": [ 129.315567, 35.490547, 115.0 ] } },
{ "type": "Feature", "properties": { "value": 2.5432 }, "geometry": { "type": "Point", "coordinates": [ 129.316666, 35.490543, 115.0 ] } },
{ "type": "Feature", "properties": { "value": 0.5322 }, "geometry": { "type": "Point", "coordinates": [ 129.31778, 35.49054, 115.0 ] } },
{ "type": "Feature", "properties": { "value": 0.0355 }, "geometry": { "type": "Point", "coordinates": [ 129.323288, 35.490524, 115.0 ] } },
{ "type": "Feature", "properties": { "value": 0.2688 }, "geometry": { "type": "Point", "coordinates": [ 129.324387, 35.490524, 115.0 ] } },
{ "type": "Feature", "properties": { "value": 0.8232 }, "geometry": { "type": "Point", "coordinates": [ 129.325485, 35.49052, 115.0 ] } },
{ "type": "Feature", "properties": { "value": 1.2665 }, "geometry": { "type": "Point", "coordinates": [ 129.326584, 35.490517, 115.0 ] } },
{ "type": "Feature", "properties": { "value": 0.916 }, "geometry": { "type": "Point", "coordinates": [ 129.327698, 35.490513, 115.0 ] } },
{ "type": "Feature", "properties": { "value": 0.2848 }, "geometry": { "type": "Point", "coordinates": [ 129.328796, 35.490509, 115.0 ] } },
{ "type": "Feature", "properties": { "value": 0.1184 }, "geometry": { "type": "Point", "coordinates": [ 129.307861, 35.491467, 115.0 ] } },
{ "type": "Feature", "properties": { "value": 0.6418 }, "geometry": { "type": "Point", "coordinates": [ 129.30896, 35.491463, 115.0 ] } },
{ "type": "Feature", "properties": { "value": 1.9271 }, "geometry": { "type": "Point", "coordinates": [ 129.310059, 35.491463, 115.0 ] } },
{ "type": "Feature", "properties": { "value": 3.9114 }, "geometry": { "type": "Point", "coordinates": [ 129.311172, 35.491459, 115.0 ] } },
{ "type": "Feature", "properties": { "value": 5.6854 }, "geometry": { "type": "Point", "coordinates": [ 129.312271, 35.491455, 115.0 ] } },
{ "type": "Feature", "properties": { "value": 5.8619 }, "geometry": { "type": "Point", "coordinates": [ 129.31337, 35.491451, 115.0 ] } },
{ "type": "Feature", "properties": { "value": 4.3425 }, "geometry": { "type": "Point", "coordinates": [ 129.314468, 35.491451, 115.0 ] } },
{ "type": "Feature", "properties": { "value": 2.2446 }, "geometry": { "type": "Point", "coordinates": [ 129.315567, 35.491447, 115.0 ] } },
{ "type": "Feature", "properties": { "value": 0.7328 }, "geometry": { "type": "Point", "coordinates": [ 129.316681, 35.491444, 115.0 ] } },
{ "type": "Feature", "properties": { "value": 0.0052 }, "geometry": { "type": "Point", "coordinates": [ 129.323288, 35.491428, 115.0 ] } },
{ "type": "Feature", "properties": { "value": 0.0605 }, "geometry": { "type": "Point", "coordinates": [ 129.324387, 35.491425, 115.0 ] } },
{ "type": "Feature", "properties": { "value": 0.1953 }, "geometry": { "type": "Point", "coordinates": [ 129.325485, 35.491421, 115.0 ] } },
{ "type": "Feature", "properties": { "value": 0.267 }, "geometry": { "type": "Point", "coordinates": [ 129.326599, 35.491417, 115.0 ] } },
{ "type": "Feature", "properties": { "value": 0.182 }, "geometry": { "type": "Point", "coordinates": [ 129.327698, 35.491413, 115.0 ] } },
{ "type": "Feature", "properties": { "value": 0.051 }, "geometry": { "type": "Point", "coordinates": [ 129.328796, 35.491413, 115.0 ] } },
{ "type": "Feature", "properties": { "value": 0.1437 }, "geometry": { "type": "Point", "coordinates": [ 129.30896, 35.492367, 115.0 ] } },
{ "type": "Feature", "properties": { "value": 0.4851 }, "geometry": { "type": "Point", "coordinates": [ 129.310074, 35.492363, 115.0 ] } },
{ "type": "Feature", "properties": { "value": 1.1113 }, "geometry": { "type": "Point", "coordinates": [ 129.311172, 35.492359, 115.0 ] } },
{ "type": "Feature", "properties": { "value": 1.5532 }, "geometry": { "type": "Point", "coordinates": [ 129.312271, 35.492355, 115.0 ] } },
{ "type": "Feature", "properties": { "value": 1.5872 }, "geometry": { "type": "Point", "coordinates": [ 129.31337, 35.492355, 115.0 ] } },
{ "type": "Feature", "properties": { "value": 1.1171 }, "geometry": { "type": "Point", "coordinates": [ 129.314468, 35.492352, 115.0 ] } },
{ "type": "Feature", "properties": { "value": 0.5221 }, "geometry": { "type": "Point", "coordinates": [ 129.315582, 35.492348, 115.0 ] } },
{ "type": "Feature", "properties": { "value": 0.043 }, "geometry": { "type": "Point", "coordinates": [ 129.316681, 35.492344, 115.0 ] } },
{ "type": "Feature", "properties": { "value": 0.0037 }, "geometry": { "type": "Point", "coordinates": [ 129.324387, 35.492325, 115.0 ] } },
{ "type": "Feature", "properties": { "value": 0.0238 }, "geometry": { "type": "Point", "coordinates": [ 129.3255, 35.492321, 115.0 ] } },
{ "type": "Feature", "properties": { "value": 0.0311 }, "geometry": { "type": "Point", "coordinates": [ 129.326599, 35.492317, 115.0 ] } },
{ "type": "Feature", "properties": { "value": 0.015 }, "geometry": { "type": "Point", "coordinates": [ 129.327698, 35.492317, 115.0 ] } },
{ "type": "Feature", "properties": { "value": 0.0443 }, "geometry": { "type": "Point", "coordinates": [ 129.310074, 35.493263, 115.0 ] } },
{ "type": "Feature", "properties": { "value": 0.1689 }, "geometry": { "type": "Point", "coordinates": [ 129.311172, 35.493259, 115.0 ] } },
{ "type": "Feature", "properties": { "value": 0.2913 }, "geometry": { "type": "Point", "coordinates": [ 129.312271, 35.493259, 115.0 ] } },
{ "type": "Feature", "properties": { "value": 0.2841 }, "geometry": { "type": "Point", "coordinates": [ 129.31337, 35.493256, 115.0 ] } },
{ "type": "Feature", "properties": { "value": 0.1494 }, "geometry": { "type": "Point", "coordinates": [ 129.314484, 35.493252, 115.0 ] } }
]
}
