{
"type": "FeatureCollection",
"features": [
{ "type": "Feature", "properties": { "value": 0.0 }, "geometry": { "type": "Point", "coordinates": [ 129.326462, 35.458069, 115.0 ] } },
{ "type": "Feature", "properties": { "value": 0.0 }, "geometry": { "type": "Point", "coordinates": [ 129.32756, 35.458069, 115.0 ] } },
{ "type": "Feature", "properties": { "value": 0.0018 }, "geometry": { "type": "Point", "coordinates": [ 129.326462, 35.458973, 115.0 ] } },
{ "type": "Feature", "properties": { "value": 0.0004 }, "geometry": { "type": "Point", "coordinates": [ 129.32756, 35.458969, 115.0 ] } },
{ "type": "Feature", "properties": { "value": 0.1261 }, "geometry": { "type": "Point", "coordinates": [ 129.326462, 35.459873, 115.0 ] } },
{ "type": "Feature", "properties": { "value": 0.0425 }, "geometry": { "type": "Point", "coordinates": [ 129.32756, 35.459869, 115.0 ] } },
{ "type": "Feature", "properties": { "value": 0.0797 }, "geometry": { "type": "Point", "coordinates": [ 129.325363, 35.460777, 115.0 ] } },
{ "type": "Feature", "properties": { "value": 1.5057 }, "geometry": { "type": "Point", "coordinates": [ 129.326477, 35.460773, 115.0 ] } },
{ "type": "Feature", "properties": { "value": 0.5209 }, "geometry": { "type": "Point", "coordinates": [ 129.327576, 35.46077, 115.0 ] } },
{ "type": "Feature", "properties": { "value": 0.4711 }, "geometry": { "type": "Point", "coordinates": [ 129.325378, 35.461678, 115.0 ] } },
{ "type": "Feature", "properties": { "value": 3.8048 }, "geometry": { "type": "Point", "coordinates": [ 129.326477, 35.461674, 115.0 ] } },
{ "type": "Feature", "properties": { "value": 1.4101 }, "geometry": { "type": "Point", "coordinates": [ 129.327576, 35.461674, 115.0 ] } },
{ "type": "Feature", "properties": { "value": 0.0651 }, "geometry": { "type": "Point", "coordinates": [ 129.328674, 35.46167, 115.0 ] } },
{ "type": "Feature", "properties": { "value": 0.0235 }, "geometry": { "type": "Point", "coordinates": [ 129.32428, 35.462582, 115.0 ] } },
{ "type": "Feature", "properties": { "value": 1.1845 }, "geometry": { "type": "Point", "coordinates": [ 129.325378, 35.462578, 115.0 ] } },
{ "type": "Feature", "properties": { "value": 5.2698 }, "geometry": { "type": "Point", "coordinates": [ 129.326477, 35.462578, 115.0 ] } },
{ "type": "Feature", "properties": { "value": 2.1615 }, "geometry": { "type": "Point", "coordinates": [ 129.327576, 35.462574, 115.0 ] } },
{ "type": "Feature", "properties": { "value": 0.2061 }, "geometry": { "type": "Point", "coordinates": [ 129.328674, 35.46257, 115.0 ] } },
{ "type": "Feature", "properties": { "value": 0.2016 }, "geometry": { "type": "Point", "coordinates": [ 129.32428, 35.463486, 115.0 ] } },
{ "type": "Feature", "properties": { "value": 2.1417 }, "geometry": { "type": "Point", "coordinates": [ 129.325378, 35.463482, 115.0 ] } },
{ "type": "Feature", "properties": { "value": 5.6461 }, "geometry": { "type": "Point", "coordinates": [ 129.326477, 35.463478, 115.0 ] } },
{ "type": "Feature", "properties": { "value": 2.776 }, "geometry": { "type": "Point", "coordinates": [ 129.327576, 35.463474, 115.0 ] } },
{ "type": "Feature", "properties": { "value": 0.362 }, "geometry": { "type": "Point", "coordinates": [ 129.32869, 35.46347, 115.0 ] } },
{ "type": "Feature", "properties": { "value": 0.5533 }, "geometry": { "type": "Point", "coordinates": [ 129.32428, 35.464386, 115.0 ] } },
{ "type": "Feature", "properties": { "value": 3.2035 }, "geometry": { "type": "Point", "coordinates": [ 129.325378, 35.464382, 115.0 ] } },
{ "type": "Feature", "properties": { "value": 5.9546 }, "geometry": { "type": "Point", "coordinates": [ 129.326477, 35.464378, 115.0 ] } },
{ "type": "Feature", "properties": { "value": 3.2877 }, "geometry": { "type": "Point", "coordinates": [ 129.327591, 35.464375, 115.0 ] } },
{ "type": "Feature", "properties": { "value": 0.5459 }, "geometry": { "type": "Point", "coordinates": [ 129.32869, 35.464375, 115.0 ] } },
{ "type": "Feature", "properties": { "value": 0.0999 }, "geometry": { "type": "Point", "coordinates": [ 129.323181, 35.46529, 115.0 ] } },
{ "type": "Feature", "properties": { "value": 1.0936 }, "geometry": { "type": "Point", "coordinates": [ 129.32428, 35.465286, 115.0 ] } },
{ "type": "Feature", "properties": { "value": 4.33 }, "geometry": { "type": "Point", "coordinates": [ 129.325394, 35.465282, 115.0 ] } },
{ "type": "Feature", "properties": { "value": 6.7056 }, "geometry": { "type": "Point", "coordinates": [ 129.326492, 35.465279, 115.0 ] } },
{ "type": "Feature", "properties": { "value": 3.7948 }, "geometry": { "type": "Point", "coordinates": [ 129.327591, 35.465279, 115.0 ] } },
{ "type": "Feature", "properties": { "value": 0.8066 }, "geometry": { "type": "Point", "coordinates": [ 129.32869, 35.465275, 115.0 ] } },
{ "type": "Feature", "properties": { "value": 0.3105 }, "geometry": { "type": "Point", "coordinates": [ 129.323181, 35.46619, 115.0 ] } },
{ "type": "Feature", "properties": { "value": 1.7798 }, "geometry": { "type": "Point", "coordinates": [ 129.324295, 35.466187, 115.0 ] } },
{ "type": "Feature", "properties": { "value": 5.2678 }, "geometry": { "type": "Point", "coordinates": [ 129.325394, 35.466187, 115.0 ] } },
{ "type": "Feature", "properties": { "value": 7.1712 }, "geometry": { "type": "Point", "coordinates": [ 129.326492, 35.466183, 115.0 ] } },
{ "type": "Feature", "properties": { "value": 4.1199 }, "geometry": { "type": "Point", "coordinates": [ 129.327591, 35.466179, 115.0 ] } },
{ "type": "Feature", "properties": { "value": 1.0728 }, "geometry": { "type": "Point", "coordinates": [ 129.32869, 35.466175, 115.0 ] } },
{ "type": "Feature", "properties": { "value": 0.095 }, "geometry": { "type": "Point", "coordinates": [ 129.329803, 35.466171, 115.0 ] } },
{ "type": "Feature", "properties": { "value": 0.2879 }, "geometry": { "type": "Point", "coordinates": [ 129.316574, 35.46711, 115.0 ] } },
{ "type": "Feature", "properties": { "value": 1.1789 }, "geometry": { "type": "Point", "coordinates": [ 129.317688, 35.467106, 115.0 ] } },
{ "type": "Feature", "properties": { "value": 0.0724 }, "geometry": { "type": "Point", "coordinates": [ 129.322083, 35.467094, 115.0 ] } },
{ "type": "Feature", "properties": { "value": 0.623 }, "geometry": { "type": "Point", "coordinates": [ 129.323196, 35.467091, 115.0 ] } },
{ "type": "Feature", "properties": { "value": 2.4971 }, "geometry": { "type": "Point", "coordinates": [ 129.324295, 35.467091, 115.0 ] } },
{ "type": "Feature", "properties": { "value": 5.8048 }, "geometry": { "type": "Point", "coordinates": [ 129.325394, 35.467087, 115.0 ] } },
{ "type": "Feature", "properties": { "value": 7.0654 }, "geometry": { "type": "Point", "coordinates": [ 129.326492, 35.467083, 115.0 ] } },
{ "type": "Feature", "properties": { "value": 4.1917 }, "geometry": { "type": "Point", "coordinates": [ 129.327591, 35.467079, 115.0 ] } },
{ "type": "Feature", "properties": { "value": 1.2762 }, "geometry": { "type": "Point", "coordinates": [ 129.328705, 35.467075, 115.0 ] } },
{ "type": "Feature", "properties": { "value": 0.1899 }, "geometry": { "type": "Point", "coordinates": [ 129.329803, 35.467075, 115.0 ] } },
{ "type": "Feature", "properties": { "value": 1.1366 }, "geometry": { "type": "Point", "coordinates": [ 129.315475, 35.468014, 115.0 ] } },
{ "type": "Feature", "properties": { "value": 19.955 }, "geometry": { "type": "Point", "coordinates": [ 129.316589, 35.46801, 115.0 ] } },
{ "type": "Feature", "properties": { "value": 41.082 }, "geometry": { "type": "Point", "coordinates": [ 129.317688, 35.468006, 115.0 ] } },
{ "type": "Feature", "properties": { "value": 2.5091 }, "geometry": { "type": "Point", "coordinates": [ 129.318787, 35.468006, 115.0 ] } },
{ "type": "Feature", "properties": { "value": 0.213 }, "geometry": { "type": "Point", "coordinates": [ 129.322098, 35.467995, 115.0 ] } },
{ "type": "Feature", "properties": { "value": 1.0033 }, "geometry": { "type": "Point", "coordinates": [ 129.323196, 35.467995, 115.0 ] } },
{ "type": "Feature", "properties": { "value": 3.0637 }, "geometry": { "type": "Point", "coordinates": [ 129.324295, 35.467991, 115.0 ] } },
{ "type": "Feature", "properties": { "value": 5.816 }, "geometry": { "type": "Point", "coordinates": [ 129.325394, 35.467987, 115.0 ] } },
{ "type": "Feature", "properties": { "value": 6.5006 }, "geometry": { "type": "Point", "coordinates": [ 129.326492, 35.467983, 115.0 ] } },
{ "type": "Feature", "properties": { "value": 4.0657 }, "geometry": { "type": "Point", "coordinates": [ 129.327606, 35.467983, 115.0 ] } },
{ "type": "Feature", "properties": { "value": 1.4362 }, "geometry": { "type": "Point", "coordinates": [ 129.328705, 35.467979, 115.0 ] } },
{ "type": "Feature", "properties": { "value": 0.2923 }, "geometry": { "type": "Point", "coordinates": [ 129.329803, 35.467976, 115.0 ] } },
{ "type": "Feature", "properties": { "value": 0.8315 }, "geometry": { "type": "Point", "coordinates": [ 129.314377, 35.468918, 115.0 ] } },
{ "type": "Feature", "properties": { "value": 13.892 }, "geometry": { "type": "Point", "coordinates": [ 129.315491, 35.468914, 115.0 ] } },
{ "type": "Feature", "properties": { "value": 75.95 }, "geometry": { "type": "Point", "coordinates": [ 129.316589, 35.46891, 115.0 ] } },
{ "type": "Feature", "properties": { "value": 89.357 }, "geometry": { "type": "Point", "coordinates": [ 129.317688, 35.46891, 115.0 ] } },
{ "type": "Feature", "properties": { "value": 12.345 }, "geometry": { "type": "Point", "coordinates": [ 129.318787, 35.468906, 115.0 ] } },
{ "type": "Feature", "properties": { "value": 0.0715 }, "geometry": { "type": "Point", "coordinates": [ 129.320999, 35.468899, 115.0 ] } },
{ "type": "Feature", "properties": { "value": 0.391 }, "geometry": { "type": "Point", "coordinates": [ 129.322098, 35.468899, 115.0 ] } },
{ "type": "Feature", "properties": { "value": 1.3522 }, "geometry": { "type": "Point", "coordinates": [ 129.323196, 35.468895, 115.0 ] } },
{ "type": "Feature", "properties": { "value": 3.3549 }, "geometry": { "type": "Point", "coordinates": [ 129.324295, 35.468891, 115.0 ] } },
{ "type": "Feature", "properties": { "value": 5.5473 }, "geometry": { "type": "Point", "coordinates": [ 129.325394, 35.468887, 115.0 ] } },
{ "type": "Feature", "properties": { "value": 5.8334 }, "geometry": { "type": "Point", "coordinates": [ 129.326508, 35.468887, 115.0 ] } },
{ "type": "Feature", "properties": { "value": 3.7718 }, "geometry": { "type": "Point", "coordinates": [ 129.327606, 35.468884, 115.0 ] } },
{ "type": "Feature", "properties": { "value": 1.5266 }, "geometry": { "type": "Point", "coordinates": [ 129.328705, 35.46888, 115.0 ] } },
{ "type": "Feature", "properties": { "value": 0.3983 }, "geometry": { "type": "Point", "coordinates": [ 129.329803, 35.468876, 115.0 ] } },
{ "type": "Feature", "properties": { "value": 0.047 }, "geometry": { "type": "Point", "coordinates": [ 129.330902, 35.468872, 115.0 ] } },
{ "type": "Feature", "properties": { "value": 0.486 }, "geometry": { "type": "Point", "coordinates": [ 129.313278, 35.469822, 115.0 ] } },
{ "type": "Feature", "properties": { "value": 6.6659 }, "geometry": { "type": "Point", "coordinates": [ 129.314392, 35.469818, 115.0 ] } },
{ "type": "Feature", "properties": { "value": 36.629 }, "geometry": { "type": "Point", "coordinates": [ 129.315491, 35.469818, 115.0 ] } },
{ "type": "Feature", "properties": { "value": 100.96 }, "geometry": { "type": "Point", "coordinates": [ 129.316589, 35.469814, 115.0 ] } },
{ "type": "Feature", "properties": { "value": 90.837 }, "geometry": { "type": "Point", "coordinates": [ 129.317688, 35.46981, 115.0 ] } },
{ "type": "Feature", "properties": { "value": 20.81 }, "geometry": { "type": "Point", "coordinates": [ 129.318787, 35.469807, 115.0 ] } },
{ "type": "Feature", "properties": { "value": 0.8782 }, "geometry": { "type": "Point", "coordinates": [ 129.319901, 35.469803, 115.0 ] } },
{ "type": "Feature", "properties": { "value": 0.1469 }, "geometry": { "type": "Point", "coordinates": [ 129.320999, 35.469803, 115.0 ] } },
{ "type": "Feature", "properties": { "value": 0.5576 }, "geometry": { "type": "Point", "coordinates": [ 129.322098, 35.469799, 115.0 ] } },
{ "type": "Feature", "properties": { "value": 1.6077 }, "geometry": { "type": "Point", "coordinates": [ 129.323196, 35.469795, 115.0 ] } },
{ "type": "Feature", "properties": { "value": 3.4058 }, "geometry": { "type": "Point", "coordinates": [ 129.324295, 35.469791, 115.0 ] } },
{ "type": "Feature", "properties": { "value": 5.0599 }, "geometry": { "type": "Point", "coordinates": [ 129.325409, 35.469791, 115.0 ] } },
{ "type": "Feature", "properties": { "value": 5.1009 }, "geometry": { "type": "Point", "coordinates": [ 129.326508, 35.469788, 115.0 ] } },
{ "type": "Feature", "properties": { "value": 3.425 }, "geometry": { "type": "Point", "coordinates": [ 129.327606, 35.469784, 115.0 ] } },
{ "type": "Feature", "properties": { "value": 1.5408 }, "geometry": { "type": "Point", "coordinates": [ 129.328705, 35.46978, 115.0 ] } },
{ "type": "Feature", "properties": { "value": 0.4774 }, "geometry": { "type": "Point", "coordinates": [ 129.329819, 35.469776, 115.0 ] } },
{ "type": "Feature", "properties": { "value": 0.0997 }, "geometry": { "type": "Point", "coordinates": [ 129.330917, 35.469776, 115.0 ] } },
{ "type": "Feature", "properties": { "value": 0.2768 }, "geometry": { "type": "Point", "coordinates": [ 129.31218, 35.470726, 115.0 ] } },
{ "type": "Feature", "properties": { "value": 3.2599 }, "geometry": { "type": "Point", "coordinates": [ 129.313293, 35.470722, 115.0 ] } },
{ "type": "Feature", "properties": { "value": 15.842 }, "geometry": { "type": "Point", "coordinates": [ 129.314392, 35.470722, 115.0 ] } },
{ "type": "Feature", "properties": { "value": 52.847 }, "geometry": { "type": "Point", "coordinates": [ 129.315491, 35.470718, 115.0 ] } },
{ "type": "Feature", "properties": { "value": 96.297 }, "geometry": { "type": "Point", "coordinates": [ 129.316589, 35.470715, 115.0 ] } },
{ "type": "Feature", "properties": { "value": 76.136 }, "geometry": { "type": "Point", "coordinates": [ 129.317688, 35.470711, 115.0 ] } },
{ "type": "Feature", "properties": { "value": 23.305 }, "geometry": { "type": "Point", "coordinates": [ 129.318802, 35.470707, 115.0 ] } },
{ "type": "Feature", "properties": { "value": 2.9073 }, "geometry": { "type": "Point", "coordinates": [ 129.319901, 35.470707, 115.0 ] } },
{ "type": "Feature", "properties": { "value": 0.2089 }, "geometry": { "type": "Point", "coordinates": [ 129.320999, 35.470703, 115.0 ] } },
{ "type": "Feature", "properties": { "value": 0.6898 }, "geometry": { "type": "Point", "coordinates": [ 129.322098, 35.470699, 115.0 ] } },
{ "type": "Feature", "properties": { "value": 1.7305 }, "geometry": { "type": "Point", "coordinates": [ 129.323212, 35.470695, 115.0 ] } },
{ "type": "Feature", "properties": { "value": 3.2643 }, "geometry": { "type": "Point", "coordinates": [ 129.32431, 35.470695, 115.0 ] } },
{ "type": "Feature", "properties": { "value": 4.4986 }, "geometry": { "type": "Point", "coordinates": [ 129.325409, 35.470692, 115.0 ] } },
{ "type": "Feature", "properties": { "value": 4.4121 }, "geometry": { "type": "Point", "coordinates": [ 129.326508, 35.470688, 115.0 ] } },
{ "type": "Feature", "properties": { "value": 3.0512 }, "geometry": { "type": "Point", "coordinates": [ 129.327606, 35.470684, 115.0 ] } },
{ "type": "Feature", "properties": { "value": 1.4967 }, "geometry": { "type": "Point", "coordinates": [ 129.32872, 35.470684, 115.0 ] } },
{ "type": "Feature", "properties": { "value": 0.5302 }, "geometry": { "type": "Point", "coordinates": [ 129.329819, 35.47068, 115.0 ] } },
{ "type": "Feature", "properties": { "value": 0.1372 }, "geometry": { "type": "Point", "coordinates": [ 129.330917, 35.470676, 115.0 ] } },
{ "type": "Feature", "properties": { "value": 0.0045 }, "geometry": { "type": "Point", "coordinates": [ 129.332016, 35.470673, 115.0 ] } },
{ "type": "Feature", "properties": { "value": 0.0699 }, "geometry": { "type": "Point", "coordinates": [ 129.311096, 35.47163, 115.0 ] } },
{ "type": "Feature", "properties": { "value": 1.837 }, "geometry": { "type": "Point", "coordinates": [ 129.312195, 35.471626, 115.0 ] } },
{ "type": "Feature", "properties": { "value": 7.5203 }, "geometry": { "type": "Point", "coordinates": [ 129.313293, 35.471626, 115.0 ] } },
{ "type": "Feature", "properties": { "value": 24.966 }, "geometry": { "type": "Point", "coordinates": [ 129.314392, 35.471622, 115.0 ] } },
{ "type": "Feature", "properties": { "value": 58.356 }, "geometry": { "type": "Point", "coordinates": [ 129.315491, 35.471619, 115.0 ] } },
{ "type": "Feature", "properties": { "value": 82.292 }, "geometry": { "type": "Point", "coordinates": [ 129.316605, 35.471615, 115.0 ] } },
{ "type": "Feature", "properties": { "value": 61.015 }, "geometry": { "type": "Point", "coordinates": [ 129.317703, 35.471615, 115.0 ] } },
{ "type": "Feature", "properties": { "value": 22.305 }, "geometry": { "type": "Point", "coordinates": [ 129.318802, 35.471611, 115.0 ] } },
{ "type": "Feature", "properties": { "value": 4.2541 }, "geometry": { "type": "Point", "coordinates": [ 129.319901, 35.471607, 115.0 ] } },
{ "type": "Feature", "properties": { "value": 0.2623 }, "geometry": { "type": "Point", "coordinates": [ 129.320999, 35.471603, 115.0 ] } },
{ "type": "Feature", "properties": { "value": 0.7535 }, "geometry": { "type": "Point", "coordinates": [ 129.322113, 35.4716, 115.0 ] } },
{ "type": "Feature", "properties": { "value": 1.703 }, "geometry": { "type": "Point", "coordinates": [ 129.323212, 35.4716, 115.0 ] } },
{ "type": "Feature", "properties": { "value": 2.9565 }, "geometry": { "type": "Point", "coordinates": [ 129.32431, 35.471596, 115.0 ] } },
{ "type": "Feature", "properties": { "value": 3.8492 }, "geometry": { "type": "Point", "coordinates": [ 129.325409, 35.471592, 115.0 ] } },
{ "type": "Feature", "properties": { "value": 3.7122 }, "geometry": { "type": "Point", "coordinates": [ 129.326508, 35.471588, 115.0 ] } },
{ "type": "Feature", "properties": { "value": 2.6303 }, "geometry": { "type": "Point", "coordinates": [ 129.327621, 35.471588, 115.0 ] } },
{ "type": "Feature", "properties": { "value": 1.3779 }, "geometry": { "type": "Point", "coordinates": [ 129.32872, 35.471584, 115.0 ] } },
{ "type": "Feature", "properties": { "value": 0.5376 }, "geometry": { "type": "Point", "coordinates": [ 129.329819, 35.471581, 115.0 ] } },
{ "type": "Feature", "properties": { "value": 0.1579 }, "geometry": { "type": "Point", "coordinates": [ 129.330917, 35.471577, 115.0 ] } },
{ "type": "Feature", "properties": { "value": 0.0248 }, "geometry": { "type": "Point", "coordinates": [ 129.332016, 35.471573, 115.0 ] } },
{ "type": "Feature", "properties": { "value": 0.1212 }, "geometry": { "type": "Point", "coordinates": [ 129.309998, 35.472534, 115.0 ] } },
{ "type": "Feature", "properties": { "value": 1.0722 }, "geometry": { "type": "Point", "coordinates": [ 129.311096, 35.47253, 115.0 ] } },
{ "type": "Feature", "properties": { "value": 3.951 }, "geometry": { "type": "Point", "coordinates": [ 129.312195, 35.47253, 115.0 ] } },
{ "type": "Feature", "properties": { "value": 12.207 }, "geometry": { "type": "Point", "coordinates": [ 129.313293, 35.472527, 115.0 ] } },
{ "type": "Feature", "properties": { "value": 30.965 }, "geometry": { "type": "Point", "coordinates": [ 129.314392, 35.472523, 115.0 ] } },
{ "type": "Feature", "properties": { "value": 56.606 }, "geometry": { "type": "Point", "coordinates": [ 129.315506, 35.472519, 115.0 ] } },
{ "type": "Feature", "properties": { "value": 67.765 }, "geometry": { "type": "Point", "coordinates": [ 129.316605, 35.472519, 115.0 ] } },
{ "type": "Feature", "properties": { "value": 48.675 }, "geometry": { "type": "Point", "coordinates": [ 129.317703, 35.472515, 115.0 ] } },
{ "type": "Feature", "properties": { "value": 20.334 }, "geometry": { "type": "Point", "coordinates": [ 129.318802, 35.472511, 115.0 ] } },
{ "type": "Feature", "properties": { "value": 5.1718 }, "geometry": { "type": "Point", "coordinates": [ 129.319901, 35.472507, 115.0 ] } },
{ "type": "Feature", "properties": { "value": 0.8774 }, "geometry": { "type": "Point", "coordinates": [ 129.321014, 35.472507, 115.0 ] } },
{ "type": "Feature", "properties": { "value": 0.7287 }, "geometry": { "type": "Point", "coordinates": [ 129.322113, 35.472504, 115.0 ] } },
{ "type": "Feature", "properties": { "value": 1.5276 }, "geometry": { "type": "Point", "coordinates": [ 129.323212, 35.4725, 115.0 ] } },
{ "type": "Feature", "properties": { "value": 2.4918 }, "geometry": { "type": "Point", "coordinates": [ 129.32431, 35.472496, 115.0 ] } },
{ "type": "Feature", "properties": { "value": 3.1268 }, "geometry": { "type": "Point", "coordinates": [ 129.325409, 35.472492, 115.0 ] } },
{ "type": "Feature", "properties": { "value": 2.98 }, "geometry": { "type": "Point", "coordinates": [ 129.326523, 35.472492, 115.0 ] } },
{ "type": "Feature", "properties": { "value": 2.1578 }, "geometry": { "type": "Point", "coordinates": [ 129.327621, 35.472488, 115.0 ] } },
{ "type": "Feature", "properties": { "value": 1.1857 }, "geometry": { "type": "Point", "coordinates": [ 129.32872, 35.472485, 115.0 ] } },
{ "type": "Feature", "properties": { "value": 0.4989 }, "geometry": { "type": "Point", "coordinates": [ 129.329819, 35.472481, 115.0 ] } },
{ "type": "Feature", "properties": { "value": 0.1599 }, "geometry": { "type": "Point", "coordinates": [ 129.330917, 35.472477, 115.0 ] } },
{ "type": "Feature", "properties": { "value": 0.0321 }, "geometry": { "type": "Point", "coordinates": [ 129.332031, 35.472477, 115.0 ] } },
{ "type": "Feature", "properties": { "value": 0.1203 }, "geometry": { "type": "Point", "coordinates": [ 129.308899, 35.473438, 115.0 ] } },
{ "type": "Feature", "properties": { "value": 0.6039 }, "geometry": { "type": "Point", "coordinates": [ 129.309998, 35.473434, 115.0 ] } },
{ "type": "Feature", "properties": { "value": 2.1812 }, "geometry": { "type": "Point", "coordinates": [ 129.311096, 35.473434, 115.0 ] } },
{ "type": "Feature", "properties": { "value": 6.386 }, "geometry": { "type": "Point", "coordinates": [ 129.312195, 35.473431, 115.0 ] } },
{ "type": "Feature", "properties": { "value": 16.275 }, "geometry": { "type": "Point", "coordinates": [ 129.313293, 35.473427, 115.0 ] } },
{ "type": "Feature", "properties": { "value": 33.474 }, "geometry": { "type": "Point", "coordinates": [ 129.314407, 35.473423, 115.0 ] } },
{ "type": "Feature", "properties": { "value": 51.478 }, "geometry": { "type": "Point", "coordinates": [ 129.315506, 35.473423, 115.0 ] } },
{ "type": "Feature", "properties": { "value": 55.216 }, "geometry": { "type": "Point", "coordinates": [ 129.316605, 35.473419, 115.0 ] } },
{ "type": "Feature", "properties": { "value": 39.038 }, "geometry": { "type": "Point", "coordinates": [ 129.317703, 35.473415, 115.0 ] } },
{ "type": "Feature", "properties": { "value": 18.067 }, "geometry": { "type": "Point", "coordinates": [ 129.318802, 35.473412, 115.0 ] } },
{ "type": "Feature", "properties": { "value": 5.6575 }, "geometry": { "type": "Point", "coordinates": [ 129.319916, 35.473412, 115.0 ] } },
{ "type": "Feature", "properties": { "value": 1.2604 }, "geometry": { "type": "Point", "coordinates": [ 129.321014, 35.473408, 115.0 ] } },
{ "type": "Feature", "properties": { "value": 0.6201 }, "geometry": { "type": "Point", "coordinates": [ 129.322113, 35.473404, 115.0 ] } },
{ "type": "Feature", "properties": { "value": 1.2288 }, "geometry": { "type": "Point", "coordinates": [ 129.323212, 35.4734, 115.0 ] } },
{ "type": "Feature", "properties": { "value": 1.9195 }, "geometry": { "type": "Point", "coordinates": [ 129.32431, 35.473396, 115.0 ] } },
{ "type": "Feature", "properties": { "value": 2.3441 }, "geometry": { "type": "Point", "coordinates": [ 129.325424, 35.473396, 115.0 ] } },
{ "type": "Feature", "properties": { "value": 2.222 }, "geometry": { "type": "Point", "coordinates": [ 129.326523, 35.473392, 115.0 ] } },
{ "type": "Feature", "properties": { "value": 1.6353 }, "geometry": { "type": "Point", "coordinates": [ 129.327621, 35.473389, 115.0 ] } },
{ "type": "Feature", "properties": { "value": 0.9327 }, "geometry": { "type": "Point", "coordinates": [ 129.32872, 35.473385, 115.0 ] } },
{ "type": "Feature", "properties": { "value": 0.4146 }, "geometry": { "type": "Point", "coordinates": [ 129.329819, 35.473385, 115.0 ] } },
{ "type": "Feature", "properties": { "value": 0.1418 }, "geometry": { "type": "Point", "coordinates": [ 129.330933, 35.473381, 115.0 ] } },
{ "type": "Feature", "properties": { "value": 0.0348 }, "geometry": { "type": "Point", "coordinates": [ 129.332031, 35.473377, 115.0 ] } },
{ "type": "Feature", "properties": { "value": 0.0893 }, "geometry": { "type": "Point", "coordinates": [ 129.3078, 35.474342, 115.0 ] } },
{ "type": "Feature", "properties": { "value": 0.3685 }, "geometry": { "type": "Point", "coordinates": [ 129.308899, 35.474339, 115.0 ] } },
{ "type": "Feature", "properties": { "value": 1.2521 }, "geometry": { "type": "Point", "coordinates": [ 129.309998, 35.474339, 115.0 ] } },
{ "type": "Feature", "properties": { "value": 3.5294 }, "geometry": { "type": "Point", "coordinates": [ 129.311096, 35.474335, 115.0 ] } },
{ "type": "Feature", "properties": { "value": 8.6727 }, "geometry": { "type": "Point", "coordinates": [ 129.312195, 35.474331, 115.0 ] } },
{ "type": "Feature", "properties": { "value": 18.769 }, "geometry": { "type": "Point", "coordinates": [ 129.313309, 35.474327, 115.0 ] } },
{ "type": "Feature", "properties": { "value": 33.068 }, "geometry": { "type": "Point", "coordinates": [ 129.314407, 35.474327, 115.0 ] } },
{ "type": "Feature", "properties": { "value": 44.912 }, "geometry": { "type": "Point", "coordinates": [ 129.315506, 35.474323, 115.0 ] } },
{ "type": "Feature", "properties": { "value": 44.749 }, "geometry": { "type": "Point", "coordinates": [ 129.316605, 35.474319, 115.0 ] } },
{ "type": "Feature", "properties": { "value": 31.67 }, "geometry": { "type": "Point", "coordinates": [ 129.317703, 35.474316, 115.0 ] } },
{ "type": "Feature", "properties": { "value": 15.834 }, "geometry": { "type": "Point", "coordinates": [ 129.318817, 35.474316, 115.0 ] } },
{ "type": "Feature", "properties": { "value": 5.6924 }, "geometry": { "type": "Point", "coordinates": [ 129.319916, 35.474312, 115.0 ] } },
{ "type": "Feature", "properties": { "value": 1.68 }, "geometry": { "type": "Point", "coordinates": [ 129.321014, 35.474308, 115.0 ] } },
{ "type": "Feature", "properties": { "value": 0.6218 }, "geometry": { "type": "Point", "coordinates": [ 129.322113, 35.474304, 115.0 ] } },
{ "type": "Feature", "properties": { "value": 0.8768 }, "geometry": { "type": "Point", "coordinates": [ 129.323212, 35.4743, 115.0 ] } },
{ "type": "Feature", "properties": { "value": 1.3219 }, "geometry": { "type": "Point", "coordinates": [ 129.324326, 35.4743, 115.0 ] } },
{ "type": "Feature", "properties": { "value": 1.5884 }, "geometry": { "type": "Point", "coordinates": [ 129.325424, 35.474297, 115.0 ] } },
{ "type": "Feature", "properties": { "value": 1.5014 }, "geometry": { "type": "Point", "coordinates": [ 129.326523, 35.474293, 115.0 ] } },
{ "type": "Feature", "properties": { "value": 1.1143 }, "geometry": { "type": "Point", "coordinates": [ 129.327621, 35.474289, 115.0 ] } },
{ "type": "Feature", "properties": { "value": 0.6566 }, "geometry": { "type": "Point", "coordinates": [ 129.328735, 35.474289, 115.0 ] } },
{ "type": "Feature", "properties": { "value": 0.3045 }, "geometry": { "type": "Point", "coordinates": [ 129.329834, 35.474285, 115.0 ] } },
{ "type": "Feature", "properties": { "value": 0.1093 }, "geometry": { "type": "Point", "coordinates": [ 129.330933, 35.474281, 115.0 ] } },
{ "type": "Feature", "properties": { "value": 0.0273 }, "geometry": { "type": "Point", "coordinates": [ 129.332031, 35.474277, 115.0 ] } },
{ "type": "Feature", "properties": { "value": 0.0381 }, "geometry": { "type": "Point", "coordinates": [ 129.306702, 35.475246, 115.0 ] } },
{ "type": "Feature", "properties": { "value": 0.2312 }, "geometry": { "type": "Point", "coordinates": [ 129.3078, 35.475243, 115.0 ] } },
{ "type": "Feature", "properties": { "value": 0.7664 }, "geometry": { "type": "Point", "coordinates": [ 129.308899, 35.475243, 115.0 ] } },
{ "type": "Feature", "properties": { "value": 1.9877 }, "geometry": { "type": "Point", "coordinates": [ 129.309998, 35.475239, 115.0 ] } },
{ "type": "Feature", "properties": { "value": 4.802 }, "geometry": { "type": "Point", "coordinates": [ 129.311096, 35.475235, 115.0 ] } },
{ "type": "Feature", "properties": { "value": 10.445 }, "geometry": { "type": "Point", "coordinates": [ 129.31221, 35.475231, 115.0 ] } },
{ "type": "Feature", "properties": { "value": 19.652 }, "geometry": { "type": "Point", "coordinates": [ 129.313309, 35.475231, 115.0 ] } },
{ "type": "Feature", "properties": { "value": 30.651 }, "geometry": { "type": "Point", "coordinates": [ 129.314407, 35.475227, 115.0 ] } },
{ "type": "Feature", "properties": { "value": 38.042 }, "geometry": { "type": "Point", "coordinates": [ 129.315506, 35.475224, 115.0 ] } },
{ "type": "Feature", "properties": { "value": 36.144 }, "geometry": { "type": "Point", "coordinates": [ 129.316605, 35.47522, 115.0 ] } },
{ "type": "Feature", "properties": { "value": 25.758 }, "geometry": { "type": "Point", "coordinates": [ 129.317719, 35.47522, 115.0 ] } },
{ "type": "Feature", "properties": { "value": 13.711 }, "geometry": { "type": "Point", "coordinates": [ 129.318817, 35.475216, 115.0 ] } },
{ "type": "Feature", "properties": { "value": 5.6179 }, "geometry": { "type": "Point", "coordinates": [ 129.319916, 35.475212, 115.0 ] } },
{ "type": "Feature", "properties": { "value": 1.8928 }, "geometry": { "type": "Point", "coordinates": [ 129.321014, 35.475208, 115.0 ] } },
{ "type": "Feature", "properties": { "value": 0.7185 }, "geometry": { "type": "Point", "coordinates": [ 129.322113, 35.475208, 115.0 ] } },
{ "type": "Feature", "properties": { "value": 0.5524 }, "geometry": { "type": "Point", "coordinates": [ 129.323227, 35.475204, 115.0 ] } },
{ "type": "Feature", "properties": { "value": 0.8154 }, "geometry": { "type": "Point", "coordinates": [ 129.324326, 35.475201, 115.0 ] } },
{ "type": "Feature", "properties": { "value": 0.965 }, "geometry": { "type": "Point", "coordinates": [ 129.325424, 35.475197, 115.0 ] } },
{ "type": "Feature", "properties": { "value": 0.9067 }, "geometry": { "type": "Point", "coordinates": [ 129.326523, 35.475193, 115.0 ] } },
{ "type": "Feature", "properties": { "value": 0.681 }, "geometry": { "type": "Point", "coordinates": [ 129.327637, 35.475193, 115.0 ] } },
{ "type": "Feature", "properties": { "value": 0.4086 }, "geometry": { "type": "Point", "coordinates": [ 129.328735, 35.475189, 115.0 ] } },
{ "type": "Feature", "properties": { "value": 0.1943 }, "geometry": { "type": "Point", "coordinates": [ 129.329834, 35.475185, 115.0 ] } },
{ "type": "Feature", "properties": { "value": 0.0712 }, "geometry": { "type": "Point", "coordinates": [ 129.330933, 35.475182, 115.0 ] } },
{ "type": "Feature", "properties": { "value": 0.0192 }, "geometry": { "type": "Point", "coordinates": [ 129.332031, 35.475178, 115.0 ] } },
{ "type": "Feature", "properties": { "value": 0.1311 }, "geometry": { "type": "Point", "coordinates": [ 129.306702, 35.476147, 115.0 ] } },
{ "type": "Feature", "properties": { "value": 0.4518 }, "geometry": { "type": "Point", "coordinates": [ 129.3078, 35.476147, 115.0 ] } },
{ "type": "Feature", "properties": { "value": 1.1544 }, "geometry": { "type": "Point", "coordinates": [ 129.308899, 35.476143, 115.0 ] } },
{ "type": "Feature", "properties": { "value": 2.7195 }, "geometry": { "type": "Point", "coordinates": [ 129.309998, 35.476139, 115.0 ] } },
{ "type": "Feature", "properties": { "value": 5.8247 }, "geometry": { "type": "Point", "coordinates": [ 129.311111, 35.476135, 115.0 ] } },
{ "type": "Feature", "properties": { "value": 11.36 }, "geometry": { "type": "Point", "coordinates": [ 129.31221, 35.476135, 115.0 ] } },
{ "type": "Feature", "properties": { "value": 19.2 }, "geometry": { "type": "Point", "coordinates": [ 129.313309, 35.476131, 115.0 ] } },
{ "type": "Feature", "properties": { "value": 27.238 }, "geometry": { "type": "Point", "coordinates": [ 129.314407, 35.476128, 115.0 ] } },
{ "type": "Feature", "properties": { "value": 31.634 }, "geometry": { "type": "Point", "coordinates": [ 129.315506, 35.476124, 115.0 ] } },
{ "type": "Feature", "properties": { "value": 29.122 }, "geometry": { "type": "Point", "coordinates": [ 129.31662, 35.476124, 115.0 ] } },
{ "type": "Feature", "properties": { "value": 21.006 }, "geometry": { "type": "Point", "coordinates": [ 129.317719, 35.47612, 115.0 ] } },
{ "type": "Feature", "properties": { "value": 11.88 }, "geometry": { "type": "Point", "coordinates": [ 129.318817, 35.476116, 115.0 ] } },
{ "type": "Feature", "properties": { "value": 5.3951 }, "geometry": { "type": "Point", "coordinates": [ 129.319916, 35.476112, 115.0 ] } },
{ "type": "Feature", "properties": { "value": 2.0422 }, "geometry": { "type": "Point", "coordinates": [ 129.32103, 35.476112, 115.0 ] } },
{ "type": "Feature", "properties": { "value": 0.7563 }, "geometry": { "type": "Point", "coordinates": [ 129.322128, 35.476109, 115.0 ] } },
{ "type": "Feature", "properties": { "value": 0.4446 }, "geometry": { "type": "Point", "coordinates": [ 129.323227, 35.476105, 115.0 ] } },
{ "type": "Feature", "properties": { "value": 0.4387 }, "geometry": { "type": "Point", "coordinates": [ 129.324326, 35.476101, 115.0 ] } },
{ "type": "Feature", "properties": { "value": 0.5134 }, "geometry": { "type": "Point", "coordinates": [ 129.325424, 35.476097, 115.0 ] } },
{ "type": "Feature", "properties": { "value": 0.4827 }, "geometry": { "type": "Point", "coordinates": [ 129.326538, 35.476097, 115.0 ] } },
{ "type": "Feature", "properties": { "value": 0.3647 }, "geometry": { "type": "Point", "coordinates": [ 129.327637, 35.476093, 115.0 ] } },
{ "type": "Feature", "properties": { "value": 0.2176 }, "geometry": { "type": "Point", "coordinates": [ 129.328735, 35.476089, 115.0 ] } },
{ "type": "Feature", "properties": { "value": 0.1066 }, "geometry": { "type": "Point", "coordinates": [ 129.329834, 35.476086, 115.0 ] } },
{ "type": "Feature", "properties": { "value": 0.0386 }, "geometry": { "type": "Point", "coordinates": [ 129.330933, 35.476086, 115.0 ] } },
{ "type": "Feature", "properties": { "value": 0.0092 }, "geometry": { "type": "Point", "coordinates": [ 129.332047, 35.476082, 115.0 ] } },
{ "type": "Feature", "properties": { "value": 0.0489 }, "geometry": { "type": "Point", "coordinates": [ 129.305603, 35.477051, 115.0 ] } },
{ "type": "Feature", "properties": { "value": 0.2253 }, "geometry": { "type": "Point", "coordinates": [ 129.306702, 35.477051, 115.0 ] } },
{ "type": "Feature", "properties": { "value": 0.6435 }, "geometry": { "type": "Point", "coordinates": [ 129.3078, 35.477047, 115.0 ] } },
{ "type": "Feature", "properties": { "value": 1.5264 }, "geometry": { "type": "Point", "coordinates": [ 129.308899, 35.477043, 115.0 ] } },
{ "type": "Feature", "properties": { "value": 3.2761 }, "geometry": { "type": "Point", "coordinates": [ 129.310013, 35.477039, 115.0 ] } },
{ "type": "Feature", "properties": { "value": 6.5032 }, "geometry": { "type": "Point", "coordinates": [ 129.311111, 35.477039, 115.0 ] } },
{ "type": "Feature", "properties": { "value": 11.499 }, "geometry": { "type": "Point", "coordinates": [ 129.31221, 35.477036, 115.0 ] } },
{ "type": "Feature", "properties": { "value": 17.811 }, "geometry": { "type": "Point", "coordinates": [ 129.313309, 35.477032, 115.0 ] } },
{ "type": "Feature", "properties": { "value": 23.558 }, "geometry": { "type": "Point", "coordinates": [ 129.314407, 35.477028, 115.0 ] } },
{ "type": "Feature", "properties": { "value": 25.955 }, "geometry": { "type": "Point", "coordinates": [ 129.315521, 35.477028, 115.0 ] } },
{ "type": "Feature", "properties": { "value": 23.402 }, "geometry": { "type": "Point", "coordinates": [ 129.31662, 35.477024, 115.0 ] } },
{ "type": "Feature", "properties": { "value": 17.143 }, "geometry": { "type": "Point", "coordinates": [ 129.317719, 35.47702, 115.0 ] } },
{ "type": "Feature", "properties": { "value": 10.247 }, "geometry": { "type": "Point", "coordinates": [ 129.318817, 35.477016, 115.0 ] } },
{ "type": "Feature", "properties": { "value": 5.0629 }, "geometry": { "type": "Point", "coordinates": [ 129.319931, 35.477016, 115.0 ] } },
{ "type": "Feature", "properties": { "value": 2.1142 }, "geometry": { "type": "Point", "coordinates": [ 129.32103, 35.477013, 115.0 ] } },
{ "type": "Feature", "properties": { "value": 0.821 }, "geometry": { "type": "Point", "coordinates": [ 129.322128, 35.477009, 115.0 ] } },
{ "type": "Feature", "properties": { "value": 0.3443 }, "geometry": { "type": "Point", "coordinates": [ 129.323227, 35.477005, 115.0 ] } },
{ "type": "Feature", "properties": { "value": 0.2033 }, "geometry": { "type": "Point", "coordinates": [ 129.324326, 35.477005, 115.0 ] } },
{ "type": "Feature", "properties": { "value": 0.2363 }, "geometry": { "type": "Point", "coordinates": [ 129.325439, 35.477001, 115.0 ] } },
{ "type": "Feature", "properties": { "value": 0.2219 }, "geometry": { "type": "Point", "coordinates": [ 129.326538, 35.476997, 115.0 ] } },
{ "type": "Feature", "properties": { "value": 0.168 }, "geometry": { "type": "Point", "coordinates": [ 129.327637, 35.476994, 115.0 ] } },
{ "type": "Feature", "properties": { "value": 0.1 }, "geometry": { "type": "Point", "coordinates": [ 129.328735, 35.47699, 115.0 ] } },
{ "type": "Feature", "properties": { "value": 0.0479 }, "geometry": { "type": "Point", "coordinates": [ 129.329834, 35.47699, 115.0 ] } },
{ "type": "Feature", "properties": { "value": 0.0169 }, "geometry": { "type": "Point", "coordinates": [ 129.330948, 35.476986, 115.0 ] } },
{ "type": "Feature", "properties": { "value": 0.0024 }, "geometry": { "type": "Point", "coordinates": [ 129.332047, 35.476982, 115.0 ] } },
{ "type": "Feature", "properties": { "value": 0.1077 }, "geometry": { "type": "Point", "coordinates": [ 129.305603, 35.477955, 115.0 ] } },
{ "type": "Feature", "properties": { "value": 0.3113 }, "geometry": { "type": "Point", "coordinates": [ 129.306702, 35.477951, 115.0 ] } },
{ "type": "Feature", "properties": { "value": 0.8159 }, "geometry": { "type": "Point", "coordinates": [ 129.3078, 35.477947, 115.0 ] } },
{ "type": "Feature", "properties": { "value": 1.7851 }, "geometry": { "type": "Point", "coordinates": [ 129.308914, 35.477943, 115.0 ] } },
{ "type": "Feature", "properties": { "value": 3.6043 }, "geometry": { "type": "Point", "coordinates": [ 129.310013, 35.477943, 115.0 ] } },
{ "type": "Feature", "properties": { "value": 6.6754 }, "geometry": { "type": "Point", "coordinates": [ 129.311111, 35.47794, 115.0 ] } },
{ "type": "Feature", "properties": { "value": 10.987 }, "geometry": { "type": "Point", "coordinates": [ 129.31221, 35.477936, 115.0 ] } },
{ "type": "Feature", "properties": { "value": 15.887 }, "geometry": { "type": "Point", "coordinates": [ 129.313324, 35.477932, 115.0 ] } },
{ "type": "Feature", "properties": { "value": 19.938 }, "geometry": { "type": "Point", "coordinates": [ 129.314423, 35.477932, 115.0 ] } },
{ "type": "Feature", "properties": { "value": 21.18 }, "geometry": { "type": "Point", "coordinates": [ 129.315521, 35.477928, 115.0 ] } },
{ "type": "Feature", "properties": { "value": 18.879 }, "geometry": { "type": "Point", "coordinates": [ 129.31662, 35.477924, 115.0 ] } },
{ "type": "Feature", "properties": { "value": 14.056 }, "geometry": { "type": "Point", "coordinates": [ 129.317719, 35.477921, 115.0 ] } },
{ "type": "Feature", "properties": { "value": 8.7235 }, "geometry": { "type": "Point", "coordinates": [ 129.318832, 35.477921, 115.0 ] } },
{ "type": "Feature", "properties": { "value": 4.5913 }, "geometry": { "type": "Point", "coordinates": [ 129.319931, 35.477917, 115.0 ] } },
{ "type": "Feature", "properties": { "value": 2.0985 }, "geometry": { "type": "Point", "coordinates": [ 129.32103, 35.477913, 115.0 ] } },
{ "type": "Feature", "properties": { "value": 0.8425 }, "geometry": { "type": "Point", "coordinates": [ 129.322128, 35.477909, 115.0 ] } },
{ "type": "Feature", "properties": { "value": 0.3139 }, "geometry": { "type": "Point", "coordinates": [ 129.323227, 35.477909, 115.0 ] } },
{ "type": "Feature", "properties": { "value": 0.1347 }, "geometry": { "type": "Point", "coordinates": [ 129.324341, 35.477905, 115.0 ] } },
{ "type": "Feature", "properties": { "value": 0.0926 }, "geometry": { "type": "Point", "coordinates": [ 129.325439, 35.477901, 115.0 ] } },
{ "type": "Feature", "properties": { "value": 0.0866 }, "geometry": { "type": "Point", "coordinates": [ 129.326538, 35.477898, 115.0 ] } },
{ "type": "Feature", "properties": { "value": 0.0657 }, "geometry": { "type": "Point", "coordinates": [ 129.327637, 35.477894, 115.0 ] } },
{ "type": "Feature", "properties": { "value": 0.0382 }, "geometry": { "type": "Point", "coordinates": [ 129.328735, 35.477894, 115.0 ] } },
{ "type": "Feature", "properties": { "value": 0.0178 }, "geometry": { "type": "Point", "coordinates": [ 129.329849, 35.47789, 115.0 ] } },
{ "type": "Feature", "properties": { "value": 0.0051 }, "geometry": { "type": "Point", "coordinates": [ 129.330948, 35.477886, 115.0 ] } },
{ "type": "Feature", "properties": { "value": 0.0304 }, "geometry": { "type": "Point", "coordinates": [ 129.304504, 35.478859, 115.0 ] } },
{ "type": "Feature", "properties": { "value": 0.1406 }, "geometry": { "type": "Point", "coordinates": [ 129.305603, 35.478855, 115.0 ] } },
{ "type": "Feature", "properties": { "value": 0.3817 }, "geometry": { "type": "Point", "coordinates": [ 129.306702, 35.478851, 115.0 ] } },
{ "type": "Feature", "properties": { "value": 0.9083 }, "geometry": { "type": "Point", "coordinates": [ 129.307816, 35.478848, 115.0 ] } },
{ "type": "Feature", "properties": { "value": 1.9062 }, "geometry": { "type": "Point", "coordinates": [ 129.308914, 35.478848, 115.0 ] } },
{ "type": "Feature", "properties": { "value": 3.6956 }, "geometry": { "type": "Point", "coordinates": [ 129.310013, 35.478844, 115.0 ] } },
{ "type": "Feature", "properties": { "value": 6.4101 }, "geometry": { "type": "Point", "coordinates": [ 129.311111, 35.47884, 115.0 ] } },
{ "type": "Feature", "properties": { "value": 9.9723 }, "geometry": { "type": "Point", "coordinates": [ 129.312225, 35.478836, 115.0 ] } },
{ "type": "Feature", "properties": { "value": 13.706 }, "geometry": { "type": "Point", "coordinates": [ 129.313324, 35.478836, 115.0 ] } },
{ "type": "Feature", "properties": { "value": 16.503 }, "geometry": { "type": "Point", "coordinates": [ 129.314423, 35.478832, 115.0 ] } },
{ "type": "Feature", "properties": { "value": 17.082 }, "geometry": { "type": "Point", "coordinates": [ 129.315521, 35.478828, 115.0 ] } },
{ "type": "Feature", "properties": { "value": 15.127 }, "geometry": { "type": "Point", "coordinates": [ 129.31662, 35.478825, 115.0 ] } },
{ "type": "Feature", "properties": { "value": 11.424 }, "geometry": { "type": "Point", "coordinates": [ 129.317734, 35.478825, 115.0 ] } },
{ "type": "Feature", "properties": { "value": 7.3663 }, "geometry": { "type": "Point", "coordinates": [ 129.318832, 35.478821, 115.0 ] } },
{ "type": "Feature", "properties": { "value": 4.0918 }, "geometry": { "type": "Point", "coordinates": [ 129.319931, 35.478817, 115.0 ] } },
{ "type": "Feature", "properties": { "value": 1.9868 }, "geometry": { "type": "Point", "coordinates": [ 129.32103, 35.478813, 115.0 ] } },
{ "type": "Feature", "properties": { "value": 0.8349 }, "geometry": { "type": "Point", "coordinates": [ 129.322128, 35.478813, 115.0 ] } },
{ "type": "Feature", "properties": { "value": 0.3136 }, "geometry": { "type": "Point", "coordinates": [ 129.323242, 35.478809, 115.0 ] } },
{ "type": "Feature", "properties": { "value": 0.0956 }, "geometry": { "type": "Point", "coordinates": [ 129.324341, 35.478806, 115.0 ] } },
{ "type": "Feature", "properties": { "value": 0.0302 }, "geometry": { "type": "Point", "coordinates": [ 129.325439, 35.478802, 115.0 ] } },
{ "type": "Feature", "properties": { "value": 0.0282 }, "geometry": { "type": "Point", "coordinates": [ 129.326538, 35.478798, 115.0 ] } },
{ "type": "Feature", "properties": { "value": 0.0201 }, "geometry": { "type": "Point", "coordinates": [ 129.327637, 35.478798, 115.0 ] } },
{ "type": "Feature", "properties": { "value": 0.0115 }, "geometry": { "type": "Point", "coordinates": [ 129.328751, 35.478794, 115.0 ] } },
{ "type": "Feature", "properties": { "value": 0.0031 }, "geometry": { "type": "Point", "coordinates": [ 129.329849, 35.47879, 115.0 ] } },
{ "type": "Feature", "properties": { "value": 0.0512 }, "geometry": { "type": "Point", "coordinates": [ 129.304504, 35.479759, 115.0 ] } },
{ "type": "Feature", "properties": { "value": 0.1632 }, "geometry": { "type": "Point", "coordinates": [ 129.305603, 35.479755, 115.0 ] } },
{ "type": "Feature", "properties": { "value": 0.421 }, "geometry": { "type": "Point", "coordinates": [ 129.306717, 35.479752, 115.0 ] } },
{ "type": "Feature", "properties": { "value": 0.9249 }, "geometry": { "type": "Point", "coordinates": [ 129.307816, 35.479752, 115.0 ] } },
{ "type": "Feature", "properties": { "value": 1.9008 }, "geometry": { "type": "Point", "coordinates": [ 129.308914, 35.479748, 115.0 ] } },
{ "type": "Feature", "properties": { "value": 3.4793 }, "geometry": { "type": "Point", "coordinates": [ 129.310013, 35.479744, 115.0 ] } },
{ "type": "Feature", "properties": { "value": 5.7789 }, "geometry": { "type": "Point", "coordinates": [ 129.311127, 35.47974, 115.0 ] } },
{ "type": "Feature", "properties": { "value": 8.6119 }, "geometry": { "type": "Point", "coordinates": [ 129.312225, 35.47974, 115.0 ] } },
{ "type": "Feature", "properties": { "value": 11.39 }, "geometry": { "type": "Point", "coordinates": [ 129.313324, 35.479736, 115.0 ] } },
{ "type": "Feature", "properties": { "value": 13.296 }, "geometry": { "type": "Point", "coordinates": [ 129.314423, 35.479733, 115.0 ] } },
{ "type": "Feature", "properties": { "value": 13.521 }, "geometry": { "type": "Point", "coordinates": [ 129.315521, 35.479729, 115.0 ] } },
{ "type": "Feature", "properties": { "value": 11.924 }, "geometry": { "type": "Point", "coordinates": [ 129.316635, 35.479729, 115.0 ] } },
{ "type": "Feature", "properties": { "value": 9.098 }, "geometry": { "type": "Point", "coordinates": [ 129.317734, 35.479725, 115.0 ] } },
{ "type": "Feature", "properties": { "value": 6.0574 }, "geometry": { "type": "Point", "coordinates": [ 129.318832, 35.479721, 115.0 ] } },
{ "type": "Feature", "properties": { "value": 3.5055 }, "geometry": { "type": "Point", "coordinates": [ 129.319931, 35.479717, 115.0 ] } },
{ "type": "Feature", "properties": { "value": 1.7812 }, "geometry": { "type": "Point", "coordinates": [ 129.32103, 35.479717, 115.0 ] } },
{ "type": "Feature", "properties": { "value": 0.7803 }, "geometry": { "type": "Point", "coordinates": [ 129.322144, 35.479713, 115.0 ] } },
{ "type": "Feature", "properties": { "value": 0.3162 }, "geometry": { "type": "Point", "coordinates": [ 129.323242, 35.47971, 115.0 ] } },
{ "type": "Feature", "properties": { "value": 0.0849 }, "geometry": { "type": "Point", "coordinates": [ 129.324341, 35.479706, 115.0 ] } },
{ "type": "Feature", "properties": { "value": 0.0078 }, "geometry": { "type": "Point", "coordinates": [ 129.325439, 35.479706, 115.0 ] } },
{ "type": "Feature", "properties": { "value": 0.0059 }, "geometry": { "type": "Point", "coordinates": [ 129.326553, 35.479702, 115.0 ] } },
{ "type": "Feature", "properties": { "value": 0.0032 }, "geometry": { "type": "Point", "coordinates": [ 129.327652, 35.479698, 115.0 ] } },
{ "type": "Feature", "properties": { "value": 0.002 }, "geometry": { "type": "Point", "coordinates": [ 129.328751, 35.479694, 115.0 ] } },
{ "type": "Feature", "properties": { "value": 0.0546 }, "geometry": { "type": "Point", "coordinates": [ 129.304504, 35.480659, 115.0 ] } },
{ "type": "Feature", "properties": { "value": 0.1671 }, "geometry": { "type": "Point", "coordinates": [ 129.305618, 35.480656, 115.0 ] } },
{ "type": "Feature", "properties": { "value": 0.3972 }, "geometry": { "type": "Point", "coordinates": [ 129.306717, 35.480656, 115.0 ] } },
{ "type": "Feature", "properties": { "value": 0.8842 }, "geometry": { "type": "Point", "coordinates": [ 129.307816, 35.480652, 115.0 ] } },
{ "type": "Feature", "properties": { "value": 1.7205 }, "geometry": { "type": "Point", "coordinates": [ 129.308914, 35.480648, 115.0 ] } },
{ "type": "Feature", "properties": { "value": 3.0499 }, "geometry": { "type": "Point", "coordinates": [ 129.310028, 35.480644, 115.0 ] } },
{ "type": "Feature", "properties": { "value": 4.8843 }, "geometry": { "type": "Point", "coordinates": [ 129.311127, 35.480644, 115.0 ] } },
{ "type": "Feature", "properties": { "value": 7.0466 }, "geometry": { "type": "Point", "coordinates": [ 129.312225, 35.48064, 115.0 ] } },
{ "type": "Feature", "properties": { "value": 9.0526 }, "geometry": { "type": "Point", "coordinates": [ 129.313324, 35.480637, 115.0 ] } },
{ "type": "Feature", "properties": { "value": 10.308 }, "geometry": { "type": "Point", "coordinates": [ 129.314423, 35.480633, 115.0 ] } },
{ "type": "Feature", "properties": { "value": 10.338 }, "geometry": { "type": "Point", "coordinates": [ 129.315536, 35.480633, 115.0 ] } },
{ "type": "Feature", "properties": { "value": 9.1154 }, "geometry": { "type": "Point", "coordinates": [ 129.316635, 35.480629, 115.0 ] } },
{ "type": "Feature", "properties": { "value": 7.0557 }, "geometry": { "type": "Point", "coordinates": [ 129.317734, 35.480625, 115.0 ] } },
{ "type": "Feature", "properties": { "value": 4.8006 }, "geometry": { "type": "Point", "coordinates": [ 129.318832, 35.480621, 115.0 ] } },
{ "type": "Feature", "properties": { "value": 2.8628 }, "geometry": { "type": "Point", "coordinates": [ 129.319931, 35.480621, 115.0 ] } },
{ "type": "Feature", "properties": { "value": 1.512 }, "geometry": { "type": "Point", "coordinates": [ 129.321045, 35.480618, 115.0 ] } },
{ "type": "Feature", "properties": { "value": 0.6851 }, "geometry": { "type": "Point", "coordinates": [ 129.322144, 35.480614, 115.0 ] } },
{ "type": "Feature", "properties": { "value": 0.2814 }, "geometry": { "type": "Point", "coordinates": [ 129.323242, 35.48061, 115.0 ] } },
{ "type": "Feature", "properties": { "value": 0.0822 }, "geometry": { "type": "Point", "coordinates": [ 129.324341, 35.48061, 115.0 ] } },
{ "type": "Feature", "properties": { "value": 0.0413 }, "geometry": { "type": "Point", "coordinates": [ 129.30452, 35.48156, 115.0 ] } },
{ "type": "Feature", "properties": { "value": 0.1433 }, "geometry": { "type": "Point", "coordinates": [ 129.305618, 35.48156, 115.0 ] } },
{ "type": "Feature", "properties": { "value": 0.3609 }, "geometry": { "type": "Point", "coordinates": [ 129.306717, 35.481556, 115.0 ] } },
{ "type": "Feature", "properties": { "value": 0.7563 }, "geometry": { "type": "Point", "coordinates": [ 129.307816, 35.481552, 115.0 ] } },
{ "type": "Feature", "properties": { "value": 1.4442 }, "geometry": { "type": "Point", "coordinates": [ 129.308929, 35.481548, 115.0 ] } },
{ "type": "Feature", "properties": { "value": 2.4946 }, "geometry": { "type": "Point", "coordinates": [ 129.310028, 35.481548, 115.0 ] } },
{ "type": "Feature", "properties": { "value": 3.8976 }, "geometry": { "type": "Point", "coordinates": [ 129.311127, 35.481544, 115.0 ] } },
{ "type": "Feature", "properties": { "value": 5.4682 }, "geometry": { "type": "Point", "coordinates": [ 129.312225, 35.481541, 115.0 ] } },
{ "type": "Feature", "properties": { "value": 6.8534 }, "geometry": { "type": "Point", "coordinates": [ 129.313324, 35.481537, 115.0 ] } },
{ "type": "Feature", "properties": { "value": 7.657 }, "geometry": { "type": "Point", "coordinates": [ 129.314438, 35.481537, 115.0 ] } },
{ "type": "Feature", "properties": { "value": 7.612 }, "geometry": { "type": "Point", "coordinates": [ 129.315536, 35.481533, 115.0 ] } },
{ "type": "Feature", "properties": { "value": 6.7137 }, "geometry": { "type": "Point", "coordinates": [ 129.316635, 35.481529, 115.0 ] } },
{ "type": "Feature", "properties": { "value": 5.2433 }, "geometry": { "type": "Point", "coordinates": [ 129.317734, 35.481525, 115.0 ] } },
{ "type": "Feature", "properties": { "value": 3.6038 }, "geometry": { "type": "Point", "coordinates": [ 129.318848, 35.481525, 115.0 ] } },
{ "type": "Feature", "properties": { "value": 2.2189 }, "geometry": { "type": "Point", "coordinates": [ 129.319946, 35.481522, 115.0 ] } },
{ "type": "Feature", "properties": { "value": 1.2026 }, "geometry": { "type": "Point", "coordinates": [ 129.321045, 35.481518, 115.0 ] } },
{ "type": "Feature", "properties": { "value": 0.5817 }, "geometry": { "type": "Point", "coordinates": [ 129.322144, 35.481514, 115.0 ] } },
{ "type": "Feature", "properties": { "value": 0.2362 }, "geometry": { "type": "Point", "coordinates": [ 129.323242, 35.481514, 115.0 ] } },
{ "type": "Feature", "properties": { "value": 0.0622 }, "geometry": { "type": "Point", "coordinates": [ 129.324356, 35.48151, 115.0 ] } },
{ "type": "Feature", "properties": { "value": 0.0373 }, "geometry": { "type": "Point", "coordinates": [ 129.30452, 35.482464, 115.0 ] } },
{ "type": "Feature", "properties": { "value": 0.1237 }, "geometry": { "type": "Point", "coordinates": [ 129.305618, 35.48246, 115.0 ] } },
{ "type": "Feature", "properties": { "value": 0.2859 }, "geometry": { "type": "Point", "coordinates": [ 129.306717, 35.482456, 115.0 ] } },
{ "type": "Feature", "properties": { "value": 0.5966 }, "geometry": { "type": "Point", "coordinates": [ 129.307831, 35.482452, 115.0 ] } },
{ "type": "Feature", "properties": { "value": 1.14 }, "geometry": { "type": "Point", "coordinates": [ 129.308929, 35.482452, 115.0 ] } },
{ "type": "Feature", "properties": { "value": 1.9033 }, "geometry": { "type": "Point", "coordinates": [ 129.310028, 35.482449, 115.0 ] } },
{ "type": "Feature", "properties": { "value": 2.9124 }, "geometry": { "type": "Point", "coordinates": [ 129.311127, 35.482445, 115.0 ] } },
{ "type": "Feature", "properties": { "value": 4.0132 }, "geometry": { "type": "Point", "coordinates": [ 129.312225, 35.482445, 115.0 ] } },
{ "type": "Feature", "properties": { "value": 4.9456 }, "geometry": { "type": "Point", "coordinates": [ 129.313339, 35.482441, 115.0 ] } },
{ "type": "Feature", "properties": { "value": 5.4587 }, "geometry": { "type": "Point", "coordinates": [ 129.314438, 35.482437, 115.0 ] } },
{ "type": "Feature", "properties": { "value": 5.3812 }, "geometry": { "type": "Point", "coordinates": [ 129.315536, 35.482433, 115.0 ] } },
{ "type": "Feature", "properties": { "value": 4.7321 }, "geometry": { "type": "Point", "coordinates": [ 129.316635, 35.48243, 115.0 ] } },
{ "type": "Feature", "properties": { "value": 3.712 }, "geometry": { "type": "Point", "coordinates": [ 129.317749, 35.48243, 115.0 ] } },
{ "type": "Feature", "properties": { "value": 2.6007 }, "geometry": { "type": "Point", "coordinates": [ 129.318848, 35.482426, 115.0 ] } },
{ "type": "Feature", "properties": { "value": 1.6195 }, "geometry": { "type": "Point", "coordinates": [ 129.319946, 35.482422, 115.0 ] } },
{ "type": "Feature", "properties": { "value": 0.9001 }, "geometry": { "type": "Point", "coordinates": [ 129.321045, 35.482418, 115.0 ] } },
{ "type": "Feature", "properties": { "value": 0.4433 }, "geometry": { "type": "Point", "coordinates": [ 129.322144, 35.482418, 115.0 ] } },
{ "type": "Feature", "properties": { "value": 0.1807 }, "geometry": { "type": "Point", "coordinates": [ 129.323257, 35.482414, 115.0 ] } },
{ "type": "Feature", "properties": { "value": 0.0562 }, "geometry": { "type": "Point", "coordinates": [ 129.324356, 35.48241, 115.0 ] } },
{ "type": "Feature", "properties": { "value": 0.0307 }, "geometry": { "type": "Point", "coordinates": [ 129.30452, 35.483364, 115.0 ] } },
{ "type": "Feature", "properties": { "value": 0.0863 }, "geometry": { "type": "Point", "coordinates": [ 129.305618, 35.48336, 115.0 ] } },
{ "type": "Feature", "properties": { "value": 0.2063 }, "geometry": { "type": "Point", "coordinates": [ 129.306732, 35.483356, 115.0 ] } },
{ "type": "Feature", "properties": { "value": 0.4481 }, "geometry": { "type": "Point", "coordinates": [ 129.307831, 35.483356, 115.0 ] } },
{ "type": "Feature", "properties": { "value": 0.822 }, "geometry": { "type": "Point", "coordinates": [ 129.308929, 35.483353, 115.0 ] } },
{ "type": "Feature", "properties": { "value": 1.3659 }, "geometry": { "type": "Point", "coordinates": [ 129.310028, 35.483349, 115.0 ] } },
{ "type": "Feature", "properties": { "value": 2.036 }, "geometry": { "type": "Point", "coordinates": [ 129.311127, 35.483349, 115.0 ] } },
{ "type": "Feature", "properties": { "value": 2.7632 }, "geometry": { "type": "Point", "coordinates": [ 129.312241, 35.483345, 115.0 ] } },
{ "type": "Feature", "properties": { "value": 3.3605 }, "geometry": { "type": "Point", "coordinates": [ 129.313339, 35.483341, 115.0 ] } },
{ "type": "Feature", "properties": { "value": 3.6741 }, "geometry": { "type": "Point", "coordinates": [ 129.314438, 35.483337, 115.0 ] } },
{ "type": "Feature", "properties": { "value": 3.6033 }, "geometry": { "type": "Point", "coordinates": [ 129.315536, 35.483337, 115.0 ] } },
{ "type": "Feature", "properties": { "value": 3.1677 }, "geometry": { "type": "Point", "coordinates": [ 129.31665, 35.483334, 115.0 ] } },
{ "type": "Feature", "properties": { "value": 2.4961 }, "geometry": { "type": "Point", "coordinates": [ 129.317749, 35.48333, 115.0 ] } },
{ "type": "Feature", "properties": { "value": 1.7487 }, "geometry": { "type": "Point", "coordinates": [ 129.318848, 35.483326, 115.0 ] } },
{ "type": "Feature", "properties": { "value": 1.113 }, "geometry": { "type": "Point", "coordinates": [ 129.319946, 35.483322, 115.0 ] } },
{ "type": "Feature", "properties": { "value": 0.6264 }, "geometry": { "type": "Point", "coordinates": [ 129.321045, 35.483322, 115.0 ] } },
{ "type": "Feature", "properties": { "value": 0.3169 }, "geometry": { "type": "Point", "coordinates": [ 129.322159, 35.483318, 115.0 ] } },
{ "type": "Feature", "properties": { "value": 0.1303 }, "geometry": { "type": "Point", "coordinates": [ 129.323257, 35.483315, 115.0 ] } },
{ "type": "Feature", "properties": { "value": 0.0363 }, "geometry": { "type": "Point", "coordinates": [ 129.324356, 35.483311, 115.0 ] } },
{ "type": "Feature", "properties": { "value": 0.0139 }, "geometry": { "type": "Point", "coordinates": [ 129.30452, 35.484264, 115.0 ] } },
{ "type": "Feature", "properties": { "value": 0.0631 }, "geometry": { "type": "Point", "coordinates": [ 129.305634, 35.484261, 115.0 ] } },
{ "type": "Feature", "properties": { "value": 0.1474 }, "geometry": { "type": "Point", "coordinates": [ 129.306732, 35.484261, 115.0 ] } },
{ "type": "Feature", "properties": { "value": 0.2999 }, "geometry": { "type": "Point", "coordinates": [ 129.307831, 35.484257, 115.0 ] } },
{ "type": "Feature", "properties": { "value": 0.5486 }, "geometry": { "type": "Point", "coordinates": [ 129.308929, 35.484253, 115.0 ] } },
{ "type": "Feature", "properties": { "value": 0.8854 }, "geometry": { "type": "Point", "coordinates": [ 129.310028, 35.484253, 115.0 ] } },
{ "type": "Feature", "properties": { "value": 1.3235 }, "geometry": { "type": "Point", "coordinates": [ 129.311142, 35.484249, 115.0 ] } },
{ "type": "Feature", "properties": { "value": 1.781 }, "geometry": { "type": "Point", "coordinates": [ 129.312241, 35.484245, 115.0 ] } },
{ "type": "Feature", "properties": { "value": 2.1439 }, "geometry": { "type": "Point", "coordinates": [ 129.313339, 35.484241, 115.0 ] } },
{ "type": "Feature", "properties": { "value": 2.3269 }, "geometry": { "type": "Point", "coordinates": [ 129.314438, 35.484241, 115.0 ] } },
{ "type": "Feature", "properties": { "value": 2.2732 }, "geometry": { "type": "Point", "coordinates": [ 129.315552, 35.484238, 115.0 ] } },
{ "type": "Feature", "properties": { "value": 1.998 }, "geometry": { "type": "Point", "coordinates": [ 129.31665, 35.484234, 115.0 ] } },
{ "type": "Feature", "properties": { "value": 1.58 }, "geometry": { "type": "Point", "coordinates": [ 129.317749, 35.48423, 115.0 ] } },
{ "type": "Feature", "properties": { "value": 1.1088 }, "geometry": { "type": "Point", "coordinates": [ 129.318848, 35.48423, 115.0 ] } },
{ "type": "Feature", "properties": { "value": 0.7129 }, "geometry": { "type": "Point", "coordinates": [ 129.319946, 35.484226, 115.0 ] } },
{ "type": "Feature", "properties": { "value": 0.4055 }, "geometry": { "type": "Point", "coordinates": [ 129.32106, 35.484222, 115.0 ] } },
{ "type": "Feature", "properties": { "value": 0.2044 }, "geometry": { "type": "Point", "coordinates": [ 129.322159, 35.484219, 115.0 ] } },
{ "type": "Feature", "properties": { "value": 0.079 }, "geometry": { "type": "Point", "coordinates": [ 129.323257, 35.484215, 115.0 ] } },
{ "type": "Feature", "properties": { "value": 0.0281 }, "geometry": { "type": "Point", "coordinates": [ 129.324356, 35.484215, 115.0 ] } },
{ "type": "Feature", "properties": { "value": 0.0098 }, "geometry": { "type": "Point", "coordinates": [ 129.304535, 35.485165, 115.0 ] } },
{ "type": "Feature", "properties": { "value": 0.0353 }, "geometry": { "type": "Point", "coordinates": [ 129.305634, 35.485165, 115.0 ] } },
{ "type": "Feature", "properties": { "value": 0.0874 }, "geometry": { "type": "Point", "coordinates": [ 129.306732, 35.485161, 115.0 ] } },
{ "type": "Feature", "properties": { "value": 0.1837 }, "geometry": { "type": "Point", "coordinates": [ 129.307831, 35.485157, 115.0 ] } },
{ "type": "Feature", "properties": { "value": 0.3359 }, "geometry": { "type": "Point", "coordinates": [ 129.308929, 35.485157, 115.0 ] } },
{ "type": "Feature", "properties": { "value": 0.5509 }, "geometry": { "type": "Point", "coordinates": [ 129.310043, 35.485153, 115.0 ] } },
{ "type": "Feature", "properties": { "value": 0.8001 }, "geometry": { "type": "Point", "coordinates": [ 129.311142, 35.485149, 115.0 ] } },
{ "type": "Feature", "properties": { "value": 1.0531 }, "geometry": { "type": "Point", "coordinates": [ 129.312241, 35.485146, 115.0 ] } },
{ "type": "Feature", "properties": { "value": 1.2754 }, "geometry": { "type": "Point", "coordinates": [ 129.313339, 35.485146, 115.0 ] } },
{ "type": "Feature", "properties": { "value": 1.3759 }, "geometry": { "type": "Point", "coordinates": [ 129.314453, 35.485142, 115.0 ] } },
{ "type": "Feature", "properties": { "value": 1.3401 }, "geometry": { "type": "Point", "coordinates": [ 129.315552, 35.485138, 115.0 ] } },
{ "type": "Feature", "properties": { "value": 1.1775 }, "geometry": { "type": "Point", "coordinates": [ 129.31665, 35.485134, 115.0 ] } },
{ "type": "Feature", "properties": { "value": 0.9337 }, "geometry": { "type": "Point", "coordinates": [ 129.317749, 35.485134, 115.0 ] } },
{ "type": "Feature", "properties": { "value": 0.6576 }, "geometry": { "type": "Point", "coordinates": [ 129.318848, 35.48513, 115.0 ] } },
{ "type": "Feature", "properties": { "value": 0.4262 }, "geometry": { "type": "Point", "coordinates": [ 129.319962, 35.485126, 115.0 ] } },
{ "type": "Feature", "properties": { "value": 0.2412 }, "geometry": { "type": "Point", "coordinates": [ 129.32106, 35.485123, 115.0 ] } },
{ "type": "Feature", "properties": { "value": 0.1217 }, "geometry": { "type": "Point", "coordinates": [ 129.322159, 35.485119, 115.0 ] } },
{ "type": "Feature", "properties": { "value": 0.0419 }, "geometry": { "type": "Point", "coordinates": [ 129.323257, 35.485119, 115.0 ] } },
{ "type": "Feature", "properties": { "value": 0.0137 }, "geometry": { "type": "Point", "coordinates": [ 129.305634, 35.486065, 115.0 ] } },
{ "type": "Feature", "properties": { "value": 0.0448 }, "geometry": { "type": "Point", "coordinates": [ 129.306732, 35.486061, 115.0 ] } },
{ "type": "Feature", "properties": { "value": 0.0999 }, "geometry": { "type": "Point", "coordinates": [ 129.307831, 35.486061, 115.0 ] } },
{ "type": "Feature", "properties": { "value": 0.1888 }, "geometry": { "type": "Point", "coordinates": [ 129.308945, 35.486057, 115.0 ] } },
{ "type": "Feature", "properties": { "value": 0.2971 }, "geometry": { "type": "Point", "coordinates": [ 129.310043, 35.486053, 115.0 ] } },
{ "type": "Feature", "properties": { "value": 0.4455 }, "geometry": { "type": "Point", "coordinates": [ 129.311142, 35.48605, 115.0 ] } },
{ "type": "Feature", "properties": { "value": 0.5961 }, "geometry": { "type": "Point", "coordinates": [ 129.312241, 35.48605, 115.0 ] } },
{ "type": "Feature", "properties": { "value": 0.7068 }, "geometry": { "type": "Point", "coordinates": [ 129.313354, 35.486046, 115.0 ] } },
{ "type": "Feature", "properties": { "value": 0.7589 }, "geometry": { "type": "Point", "coordinates": [ 129.314453, 35.486042, 115.0 ] } },
{ "type": "Feature", "properties": { "value": 0.7373 }, "geometry": { "type": "Point", "coordinates": [ 129.315552, 35.486038, 115.0 ] } },
{ "type": "Feature", "properties": { "value": 0.6478 }, "geometry": { "type": "Point", "coordinates": [ 129.31665, 35.486038, 115.0 ] } },
{ "type": "Feature", "properties": { "value": 0.5148 }, "geometry": { "type": "Point", "coordinates": [ 129.317749, 35.486034, 115.0 ] } },
{ "type": "Feature", "properties": { "value": 0.3597 }, "geometry": { "type": "Point", "coordinates": [ 129.318863, 35.486031, 115.0 ] } },
{ "type": "Feature", "properties": { "value": 0.223 }, "geometry": { "type": "Point", "coordinates": [ 129.319962, 35.486027, 115.0 ] } },
{ "type": "Feature", "properties": { "value": 0.1326 }, "geometry": { "type": "Point", "coordinates": [ 129.32106, 35.486027, 115.0 ] } },
{ "type": "Feature", "properties": { "value": 0.052 }, "geometry": { "type": "Point", "coordinates": [ 129.322159, 35.486023, 115.0 ] } },
{ "type": "Feature", "properties": { "value": 0.0261 }, "geometry": { "type": "Point", "coordinates": [ 129.323273, 35.486019, 115.0 ] } },
{ "type": "Feature", "properties": { "value": 0.016 }, "geometry": { "type": "Point", "coordinates": [ 129.306732, 35.486965, 115.0 ] } },
{ "type": "Feature", "properties": { "value": 0.0472 }, "geometry": { "type": "Point", "coordinates": [ 129.307846, 35.486961, 115.0 ] } },
{ "type": "Feature", "properties": { "value": 0.0945 }, "geometry": { "type": "Point", "coordinates": [ 129.308945, 35.486958, 115.0 ] } },
{ "type": "Feature", "properties": { "value": 0.1602 }, "geometry": { "type": "Point", "coordinates": [ 129.310043, 35.486954, 115.0 ] } },
{ "type": "Feature", "properties": { "value": 0.2283 }, "geometry": { "type": "Point", "coordinates": [ 129.311142, 35.486954, 115.0 ] } },
{ "type": "Feature", "properties": { "value": 0.2956 }, "geometry": { "type": "Point", "coordinates": [ 129.312256, 35.48695, 115.0 ] } },
{ "type": "Feature", "properties": { "value": 0.3614 }, "geometry": { "type": "Point", "coordinates": [ 129.313354, 35.486946, 115.0 ] } },
{ "type": "Feature", "properties": { "value": 0.3865 }, "geometry": { "type": "Point", "coordinates": [ 129.314453, 35.486942, 115.0 ] } },
{ "type": "Feature", "properties": { "value": 0.3745 }, "geometry": { "type": "Point", "coordinates": [ 129.315552, 35.486942, 115.0 ] } },
{ "type": "Feature", "properties": { "value": 0.329 }, "geometry": { "type": "Point", "coordinates": [ 129.31665, 35.486938, 115.0 ] } },
{ "type": "Feature", "properties": { "value": 0.2514 }, "geometry": { "type": "Point", "coordinates": [ 129.317764, 35.486935, 115.0 ] } },
{ "type": "Feature", "properties": { "value": 0.1818 }, "geometry": { "type": "Point", "coordinates": [ 129.318863, 35.486931, 115.0 ] } },
{ "type": "Feature", "properties": { "value": 0.1076 }, "geometry": { "type": "Point", "coordinates": [ 129.319962, 35.486931, 115.0 ] } },
{ "type": "Feature", "properties": { "value": 0.0535 }, "geometry": { "type": "Point", "coordinates": [ 129.32106, 35.486927, 115.0 ] } },
{ "type": "Feature", "properties": { "value": 0.0294 }, "geometry": { "type": "Point", "coordinates": [ 129.322174, 35.486923, 115.0 ] } },
{ "type": "Feature", "properties": { "value": 0.0156 }, "geometry": { "type": "Point", "coordinates": [ 129.307846, 35.487862, 115.0 ] } },
{ "type": "Feature", "properties": { "value": 0.0413 }, "geometry": { "type": "Point", "coordinates": [ 129.308945, 35.487858, 115.0 ] } },
{ "type": "Feature", "properties": { "value": 0.0635 }, "geometry": { "type": "Point", "coordinates": [ 129.310043, 35.487858, 115.0 ] } },
{ "type": "Feature", "properties": { "value": 0.1045 }, "geometry": { "type": "Point", "coordinates": [ 129.311157, 35.487854, 115.0 ] } },
{ "type": "Feature", "properties": { "value": 0.1343 }, "geometry": { "type": "Point", "coordinates": [ 129.312256, 35.48785, 115.0 ] } },
{ "type": "Feature", "properties": { "value": 0.1704 }, "geometry": { "type": "Point", "coordinates": [ 129.313354, 35.487846, 115.0 ] } },
{ "type": "Feature", "properties": { "value": 0.1816 }, "geometry": { "type": "Point", "coordinates": [ 129.314453, 35.487846, 115.0 ] } },
{ "type": "Feature", "properties": { "value": 0.1757 }, "geometry": { "type": "Point", "coordinates": [ 129.315552, 35.487843, 115.0 ] } },
{ "type": "Feature", "properties": { "value": 0.1543 }, "geometry": { "type": "Point", "coordinates": [ 129.316666, 35.487839, 115.0 ] } },
{ "type": "Feature", "properties": { "value": 0.1128 }, "geometry": { "type": "Point", "coordinates": [ 129.317764, 35.487835, 115.0 ] } },
{ "type": "Feature", "properties": { "value": 0.0818 }, "geometry": { "type": "Point", "coordinates": [ 129.318863, 35.487835, 115.0 ] } },
{ "type": "Feature", "properties": { "value": 0.0457 }, "geometry": { "type": "Point", "coordinates": [ 129.319962, 35.487831, 115.0 ] } },
{ "type": "Feature", "properties": { "value": 0.0276 }, "geometry": { "type": "Point", "coordinates": [ 129.321075, 35.487827, 115.0 ] } },
{ "type": "Feature", "properties": { "value": 0.0126 }, "geometry": { "type": "Point", "coordinates": [ 129.308945, 35.488762, 115.0 ] } },
{ "type": "Feature", "properties": { "value": 0.03 }, "geometry": { "type": "Point", "coordinates": [ 129.310059, 35.488758, 115.0 ] } },
{ "type": "Feature", "properties": { "value": 0.042 }, "geometry": { "type": "Point", "coordinates": [ 129.311157, 35.488754, 115.0 ] } },
{ "type": "Feature", "properties": { "value": 0.0535 }, "geometry": { "type": "Point", "coordinates": [ 129.312256, 35.48875, 115.0 ] } },
{ "type": "Feature", "properties": { "value": 0.0622 }, "geometry": { "type": "Point", "coordinates": [ 129.313354, 35.48875, 115.0 ] } },
{ "type": "Feature", "properties": { "value": 0.0658 }, "geometry": { "type": "Point", "coordinates": [ 129.314453, 35.488747, 115.0 ] } },
{ "type": "Feature", "properties": { "value": 0.0634 }, "geometry": { "type": "Point", "coordinates": [ 129.315567, 35.488743, 115.0 ] } },
{ "type": "Feature", "properties": { "value": 0.0557 }, "geometry": { "type": "Point", "coordinates": [ 129.316666, 35.488739, 115.0 ] } },
{ "type": "Feature", "properties": { "value": 0.0446 }, "geometry": { "type": "Point", "coordinates": [ 129.317764, 35.488739, 115.0 ] } },
{ "type": "Feature", "properties": { "value": 0.0325 }, "geometry": { "type": "Point", "coordinates": [ 129.318863, 35.488735, 115.0 ] } },
{ "type": "Feature", "properties": { "value": 0.0133 }, "geometry": { "type": "Point", "coordinates": [ 129.319977, 35.488731, 115.0 ] } },
{ "type": "Feature", "properties": { "value": 0.0118 }, "geometry": { "type": "Point", "coordinates": [ 129.311157, 35.489655, 115.0 ] } },
{ "type": "Feature", "properties": { "value": 0.0149 }, "geometry": { "type": "Point", "coordinates": [ 129.312256, 35.489655, 115.0 ] } },
{ "type": "Feature", "properties": { "value": 0.0268 }, "geometry": { "type": "Point", "coordinates": [ 129.313354, 35.489651, 115.0 ] } },
{ "type": "Feature", "properties": { "value": 0.0283 }, "geometry": { "type": "Point", "coordinates": [ 129.314468, 35.489647, 115.0 ] } },
{ "type": "Feature", "properties": { "value": 0.0273 }, "geometry": { "type": "Point", "coordinates": [ 129.315567, 35.489643, 115.0 ] } },
{ "type": "Feature", "properties": { "value": 0.0152 }, "geometry": { "type": "Point", "coordinates": [ 129.316666, 35.489643, 115.0 ] } },
{ "type": "Feature", "properties": { "value": 0.0122 }, "geometry": { "type": "Point", "coordinates": [ 129.317764, 35.489639, 115.0 ] } }
]
}
