{
"type": "FeatureCollection",
"features": [
{ "type": "Feature", "properties": { "value": 0.0017 }, "geometry": { "type": "Point", "coordinates": [ 129.326462, 35.458973, 115.0 ] } },
{ "type": "Feature", "properties": { "value": 0.0032 }, "geometry": { "type": "Point", "coordinates": [ 129.32756, 35.458969, 115.0 ] } },
{ "type": "Feature", "properties": { "value": 0.2173 }, "geometry": { "type": "Point", "coordinates": [ 129.326462, 35.459873, 115.0 ] } },
{ "type": "Feature", "properties": { "value": 0.3605 }, "geometry": { "type": "Point", "coordinates": [ 129.32756, 35.459869, 115.0 ] } },
{ "type": "Feature", "properties": { "value": 3.5402 }, "geometry": { "type": "Point", "coordinates": [ 129.326477, 35.460773, 115.0 ] } },
{ "type": "Feature", "properties": { "value": 4.2928 }, "geometry": { "type": "Point", "coordinates": [ 129.327576, 35.46077, 115.0 ] } },
{ "type": "Feature", "properties": { "value": 0.2707 }, "geometry": { "type": "Point", "coordinates": [ 129.328674, 35.46077, 115.0 ] } },
{ "type": "Feature", "properties": { "value": 0.4714 }, "geometry": { "type": "Point", "coordinates": [ 129.325378, 35.461678, 115.0 ] } },
{ "type": "Feature", "properties": { "value": 12.515 }, "geometry": { "type": "Point", "coordinates": [ 129.326477, 35.461674, 115.0 ] } },
{ "type": "Feature", "properties": { "value": 14.451 }, "geometry": { "type": "Point", "coordinates": [ 129.327576, 35.461674, 115.0 ] } },
{ "type": "Feature", "properties": { "value": 2.3163 }, "geometry": { "type": "Point", "coordinates": [ 129.328674, 35.46167, 115.0 ] } },
{ "type": "Feature", "properties": { "value": 1.7619 }, "geometry": { "type": "Point", "coordinates": [ 129.325378, 35.462578, 115.0 ] } },
{ "type": "Feature", "properties": { "value": 21.315 }, "geometry": { "type": "Point", "coordinates": [ 129.326477, 35.462578, 115.0 ] } },
{ "type": "Feature", "properties": { "value": 25.543 }, "geometry": { "type": "Point", "coordinates": [ 129.327576, 35.462574, 115.0 ] } },
{ "type": "Feature", "properties": { "value": 6.758 }, "geometry": { "type": "Point", "coordinates": [ 129.328674, 35.46257, 115.0 ] } },
{ "type": "Feature", "properties": { "value": 4.0032 }, "geometry": { "type": "Point", "coordinates": [ 129.325378, 35.463482, 115.0 ] } },
{ "type": "Feature", "properties": { "value": 26.925 }, "geometry": { "type": "Point", "coordinates": [ 129.326477, 35.463478, 115.0 ] } },
{ "type": "Feature", "properties": { "value": 35.678 }, "geometry": { "type": "Point", "coordinates": [ 129.327576, 35.463474, 115.0 ] } },
{ "type": "Feature", "properties": { "value": 12.318 }, "geometry": { "type": "Point", "coordinates": [ 129.32869, 35.46347, 115.0 ] } },
{ "type": "Feature", "properties": { "value": 1.0062 }, "geometry": { "type": "Point", "coordinates": [ 129.329788, 35.46347, 115.0 ] } },
{ "type": "Feature", "properties": { "value": 0.0466 }, "geometry": { "type": "Point", "coordinates": [ 129.32428, 35.464386, 115.0 ] } },
{ "type": "Feature", "properties": { "value": 6.7248 }, "geometry": { "type": "Point", "coordinates": [ 129.325378, 35.464382, 115.0 ] } },
{ "type": "Feature", "properties": { "value": 31.636 }, "geometry": { "type": "Point", "coordinates": [ 129.326477, 35.464378, 115.0 ] } },
{ "type": "Feature", "properties": { "value": 43.979 }, "geometry": { "type": "Point", "coordinates": [ 129.327591, 35.464375, 115.0 ] } },
{ "type": "Feature", "properties": { "value": 18.807 }, "geometry": { "type": "Point", "coordinates": [ 129.32869, 35.464375, 115.0 ] } },
{ "type": "Feature", "properties": { "value": 2.6999 }, "geometry": { "type": "Point", "coordinates": [ 129.329788, 35.464371, 115.0 ] } },
{ "type": "Feature", "properties": { "value": 0.8182 }, "geometry": { "type": "Point", "coordinates": [ 129.32428, 35.465286, 115.0 ] } },
{ "type": "Feature", "properties": { "value": 9.6659 }, "geometry": { "type": "Point", "coordinates": [ 129.325394, 35.465282, 115.0 ] } },
{ "type": "Feature", "properties": { "value": 36.624 }, "geometry": { "type": "Point", "coordinates": [ 129.326492, 35.465279, 115.0 ] } },
{ "type": "Feature", "properties": { "value": 50.561 }, "geometry": { "type": "Point", "coordinates": [ 129.327591, 35.465279, 115.0 ] } },
{ "type": "Feature", "properties": { "value": 26.462 }, "geometry": { "type": "Point", "coordinates": [ 129.32869, 35.465275, 115.0 ] } },
{ "type": "Feature", "properties": { "value": 5.5281 }, "geometry": { "type": "Point", "coordinates": [ 129.329788, 35.465271, 115.0 ] } },
{ "type": "Feature", "properties": { "value": 1.5666 }, "geometry": { "type": "Point", "coordinates": [ 129.324295, 35.466187, 115.0 ] } },
{ "type": "Feature", "properties": { "value": 12.271 }, "geometry": { "type": "Point", "coordinates": [ 129.325394, 35.466187, 115.0 ] } },
{ "type": "Feature", "properties": { "value": 39.609 }, "geometry": { "type": "Point", "coordinates": [ 129.326492, 35.466183, 115.0 ] } },
{ "type": "Feature", "properties": { "value": 54.207 }, "geometry": { "type": "Point", "coordinates": [ 129.327591, 35.466179, 115.0 ] } },
{ "type": "Feature", "properties": { "value": 33.047 }, "geometry": { "type": "Point", "coordinates": [ 129.32869, 35.466175, 115.0 ] } },
{ "type": "Feature", "properties": { "value": 9.1647 }, "geometry": { "type": "Point", "coordinates": [ 129.329803, 35.466171, 115.0 ] } },
{ "type": "Feature", "properties": { "value": 1.1362 }, "geometry": { "type": "Point", "coordinates": [ 129.330902, 35.466171, 115.0 ] } },
{ "type": "Feature", "properties": { "value": 2.4483 }, "geometry": { "type": "Point", "coordinates": [ 129.324295, 35.467091, 115.0 ] } },
{ "type": "Feature", "properties": { "value": 14.276 }, "geometry": { "type": "Point", "coordinates": [ 129.325394, 35.467087, 115.0 ] } },
{ "type": "Feature", "properties": { "value": 40.328 }, "geometry": { "type": "Point", "coordinates": [ 129.326492, 35.467083, 115.0 ] } },
{ "type": "Feature", "properties": { "value": 55.061 }, "geometry": { "type": "Point", "coordinates": [ 129.327591, 35.467079, 115.0 ] } },
{ "type": "Feature", "properties": { "value": 37.48 }, "geometry": { "type": "Point", "coordinates": [ 129.328705, 35.467075, 115.0 ] } },
{ "type": "Feature", "properties": { "value": 12.939 }, "geometry": { "type": "Point", "coordinates": [ 129.329803, 35.467075, 115.0 ] } },
{ "type": "Feature", "properties": { "value": 2.3601 }, "geometry": { "type": "Point", "coordinates": [ 129.330902, 35.467072, 115.0 ] } },
{ "type": "Feature", "properties": { "value": 3.2994 }, "geometry": { "type": "Point", "coordinates": [ 129.324295, 35.467991, 115.0 ] } },
{ "type": "Feature", "properties": { "value": 15.642 }, "geometry": { "type": "Point", "coordinates": [ 129.325394, 35.467987, 115.0 ] } },
{ "type": "Feature", "properties": { "value": 39.588 }, "geometry": { "type": "Point", "coordinates": [ 129.326492, 35.467983, 115.0 ] } },
{ "type": "Feature", "properties": { "value": 54.097 }, "geometry": { "type": "Point", "coordinates": [ 129.327606, 35.467983, 115.0 ] } },
{ "type": "Feature", "properties": { "value": 40.043 }, "geometry": { "type": "Point", "coordinates": [ 129.328705, 35.467979, 115.0 ] } },
{ "type": "Feature", "properties": { "value": 16.412 }, "geometry": { "type": "Point", "coordinates": [ 129.329803, 35.467976, 115.0 ] } },
{ "type": "Feature", "properties": { "value": 3.8512 }, "geometry": { "type": "Point", "coordinates": [ 129.330902, 35.467972, 115.0 ] } },
{ "type": "Feature", "properties": { "value": 0.1619 }, "geometry": { "type": "Point", "coordinates": [ 129.332001, 35.467968, 115.0 ] } },
{ "type": "Feature", "properties": { "value": 0.3188 }, "geometry": { "type": "Point", "coordinates": [ 129.323196, 35.468895, 115.0 ] } },
{ "type": "Feature", "properties": { "value": 4.1861 }, "geometry": { "type": "Point", "coordinates": [ 129.324295, 35.468891, 115.0 ] } },
{ "type": "Feature", "properties": { "value": 16.595 }, "geometry": { "type": "Point", "coordinates": [ 129.325394, 35.468887, 115.0 ] } },
{ "type": "Feature", "properties": { "value": 38.442 }, "geometry": { "type": "Point", "coordinates": [ 129.326508, 35.468887, 115.0 ] } },
{ "type": "Feature", "properties": { "value": 51.964 }, "geometry": { "type": "Point", "coordinates": [ 129.327606, 35.468884, 115.0 ] } },
{ "type": "Feature", "properties": { "value": 41.048 }, "geometry": { "type": "Point", "coordinates": [ 129.328705, 35.46888, 115.0 ] } },
{ "type": "Feature", "properties": { "value": 19.263 }, "geometry": { "type": "Point", "coordinates": [ 129.329803, 35.468876, 115.0 ] } },
{ "type": "Feature", "properties": { "value": 5.497 }, "geometry": { "type": "Point", "coordinates": [ 129.330902, 35.468872, 115.0 ] } },
{ "type": "Feature", "properties": { "value": 0.8737 }, "geometry": { "type": "Point", "coordinates": [ 129.332016, 35.468872, 115.0 ] } },
{ "type": "Feature", "properties": { "value": 0.802 }, "geometry": { "type": "Point", "coordinates": [ 129.323196, 35.469795, 115.0 ] } },
{ "type": "Feature", "properties": { "value": 5.0069 }, "geometry": { "type": "Point", "coordinates": [ 129.324295, 35.469791, 115.0 ] } },
{ "type": "Feature", "properties": { "value": 17.18 }, "geometry": { "type": "Point", "coordinates": [ 129.325409, 35.469791, 115.0 ] } },
{ "type": "Feature", "properties": { "value": 36.833 }, "geometry": { "type": "Point", "coordinates": [ 129.326508, 35.469788, 115.0 ] } },
{ "type": "Feature", "properties": { "value": 49.213 }, "geometry": { "type": "Point", "coordinates": [ 129.327606, 35.469784, 115.0 ] } },
{ "type": "Feature", "properties": { "value": 40.91 }, "geometry": { "type": "Point", "coordinates": [ 129.328705, 35.46978, 115.0 ] } },
{ "type": "Feature", "properties": { "value": 21.484 }, "geometry": { "type": "Point", "coordinates": [ 129.329819, 35.469776, 115.0 ] } },
{ "type": "Feature", "properties": { "value": 7.2798 }, "geometry": { "type": "Point", "coordinates": [ 129.330917, 35.469776, 115.0 ] } },
{ "type": "Feature", "properties": { "value": 1.5677 }, "geometry": { "type": "Point", "coordinates": [ 129.332016, 35.469772, 115.0 ] } },
{ "type": "Feature", "properties": { "value": 1.2063 }, "geometry": { "type": "Point", "coordinates": [ 129.323212, 35.470695, 115.0 ] } },
{ "type": "Feature", "properties": { "value": 5.7205 }, "geometry": { "type": "Point", "coordinates": [ 129.32431, 35.470695, 115.0 ] } },
{ "type": "Feature", "properties": { "value": 17.45 }, "geometry": { "type": "Point", "coordinates": [ 129.325409, 35.470692, 115.0 ] } },
{ "type": "Feature", "properties": { "value": 35.084 }, "geometry": { "type": "Point", "coordinates": [ 129.326508, 35.470688, 115.0 ] } },
{ "type": "Feature", "properties": { "value": 46.258 }, "geometry": { "type": "Point", "coordinates": [ 129.327606, 35.470684, 115.0 ] } },
{ "type": "Feature", "properties": { "value": 40.077 }, "geometry": { "type": "Point", "coordinates": [ 129.32872, 35.470684, 115.0 ] } },
{ "type": "Feature", "properties": { "value": 23.07 }, "geometry": { "type": "Point", "coordinates": [ 129.329819, 35.47068, 115.0 ] } },
{ "type": "Feature", "properties": { "value": 8.9749 }, "geometry": { "type": "Point", "coordinates": [ 129.330917, 35.470676, 115.0 ] } },
{ "type": "Feature", "properties": { "value": 2.3554 }, "geometry": { "type": "Point", "coordinates": [ 129.332016, 35.470673, 115.0 ] } },
{ "type": "Feature", "properties": { "value": 0.1377 }, "geometry": { "type": "Point", "coordinates": [ 129.333115, 35.470669, 115.0 ] } },
{ "type": "Feature", "properties": { "value": 1.5766 }, "geometry": { "type": "Point", "coordinates": [ 129.323212, 35.4716, 115.0 ] } },
{ "type": "Feature", "properties": { "value": 6.3717 }, "geometry": { "type": "Point", "coordinates": [ 129.32431, 35.471596, 115.0 ] } },
{ "type": "Feature", "properties": { "value": 17.444 }, "geometry": { "type": "Point", "coordinates": [ 129.325409, 35.471592, 115.0 ] } },
{ "type": "Feature", "properties": { "value": 33.05 }, "geometry": { "type": "Point", "coordinates": [ 129.326508, 35.471588, 115.0 ] } },
{ "type": "Feature", "properties": { "value": 43.047 }, "geometry": { "type": "Point", "coordinates": [ 129.327621, 35.471588, 115.0 ] } },
{ "type": "Feature", "properties": { "value": 38.602 }, "geometry": { "type": "Point", "coordinates": [ 129.32872, 35.471584, 115.0 ] } },
{ "type": "Feature", "properties": { "value": 23.999 }, "geometry": { "type": "Point", "coordinates": [ 129.329819, 35.471581, 115.0 ] } },
{ "type": "Feature", "properties": { "value": 10.53 }, "geometry": { "type": "Point", "coordinates": [ 129.330917, 35.471577, 115.0 ] } },
{ "type": "Feature", "properties": { "value": 3.3168 }, "geometry": { "type": "Point", "coordinates": [ 129.332016, 35.471573, 115.0 ] } },
{ "type": "Feature", "properties": { "value": 0.6438 }, "geometry": { "type": "Point", "coordinates": [ 129.33313, 35.471573, 115.0 ] } },
{ "type": "Feature", "properties": { "value": 0.173 }, "geometry": { "type": "Point", "coordinates": [ 129.322113, 35.472504, 115.0 ] } },
{ "type": "Feature", "properties": { "value": 1.9325 }, "geometry": { "type": "Point", "coordinates": [ 129.323212, 35.4725, 115.0 ] } },
{ "type": "Feature", "properties": { "value": 6.8285 }, "geometry": { "type": "Point", "coordinates": [ 129.32431, 35.472496, 115.0 ] } },
{ "type": "Feature", "properties": { "value": 17.142 }, "geometry": { "type": "Point", "coordinates": [ 129.325409, 35.472492, 115.0 ] } },
{ "type": "Feature", "properties": { "value": 30.868 }, "geometry": { "type": "Point", "coordinates": [ 129.326523, 35.472492, 115.0 ] } },
{ "type": "Feature", "properties": { "value": 39.769 }, "geometry": { "type": "Point", "coordinates": [ 129.327621, 35.472488, 115.0 ] } },
{ "type": "Feature", "properties": { "value": 36.637 }, "geometry": { "type": "Point", "coordinates": [ 129.32872, 35.472485, 115.0 ] } },
{ "type": "Feature", "properties": { "value": 24.326 }, "geometry": { "type": "Point", "coordinates": [ 129.329819, 35.472481, 115.0 ] } },
{ "type": "Feature", "properties": { "value": 11.807 }, "geometry": { "type": "Point", "coordinates": [ 129.330917, 35.472477, 115.0 ] } },
{ "type": "Feature", "properties": { "value": 4.2776 }, "geometry": { "type": "Point", "coordinates": [ 129.332031, 35.472477, 115.0 ] } },
{ "type": "Feature", "properties": { "value": 1.123 }, "geometry": { "type": "Point", "coordinates": [ 129.33313, 35.472473, 115.0 ] } },
{ "type": "Feature", "properties": { "value": 0.436 }, "geometry": { "type": "Point", "coordinates": [ 129.322113, 35.473404, 115.0 ] } },
{ "type": "Feature", "properties": { "value": 2.2686 }, "geometry": { "type": "Point", "coordinates": [ 129.323212, 35.4734, 115.0 ] } },
{ "type": "Feature", "properties": { "value": 7.1558 }, "geometry": { "type": "Point", "coordinates": [ 129.32431, 35.473396, 115.0 ] } },
{ "type": "Feature", "properties": { "value": 16.536 }, "geometry": { "type": "Point", "coordinates": [ 129.325424, 35.473396, 115.0 ] } },
{ "type": "Feature", "properties": { "value": 28.461 }, "geometry": { "type": "Point", "coordinates": [ 129.326523, 35.473392, 115.0 ] } },
{ "type": "Feature", "properties": { "value": 36.231 }, "geometry": { "type": "Point", "coordinates": [ 129.327621, 35.473389, 115.0 ] } },
{ "type": "Feature", "properties": { "value": 34.158 }, "geometry": { "type": "Point", "coordinates": [ 129.32872, 35.473385, 115.0 ] } },
{ "type": "Feature", "properties": { "value": 24.008 }, "geometry": { "type": "Point", "coordinates": [ 129.329819, 35.473385, 115.0 ] } },
{ "type": "Feature", "properties": { "value": 12.76 }, "geometry": { "type": "Point", "coordinates": [ 129.330933, 35.473381, 115.0 ] } },
{ "type": "Feature", "properties": { "value": 5.2249 }, "geometry": { "type": "Point", "coordinates": [ 129.332031, 35.473377, 115.0 ] } },
{ "type": "Feature", "properties": { "value": 1.5943 }, "geometry": { "type": "Point", "coordinates": [ 129.33313, 35.473373, 115.0 ] } },
{ "type": "Feature", "properties": { "value": 0.2878 }, "geometry": { "type": "Point", "coordinates": [ 129.334229, 35.47337, 115.0 ] } },
{ "type": "Feature", "properties": { "value": 0.6591 }, "geometry": { "type": "Point", "coordinates": [ 129.322113, 35.474304, 115.0 ] } },
{ "type": "Feature", "properties": { "value": 2.6556 }, "geometry": { "type": "Point", "coordinates": [ 129.323212, 35.4743, 115.0 ] } },
{ "type": "Feature", "properties": { "value": 7.3871 }, "geometry": { "type": "Point", "coordinates": [ 129.324326, 35.4743, 115.0 ] } },
{ "type": "Feature", "properties": { "value": 15.78 }, "geometry": { "type": "Point", "coordinates": [ 129.325424, 35.474297, 115.0 ] } },
{ "type": "Feature", "properties": { "value": 26.07 }, "geometry": { "type": "Point", "coordinates": [ 129.326523, 35.474293, 115.0 ] } },
{ "type": "Feature", "properties": { "value": 32.865 }, "geometry": { "type": "Point", "coordinates": [ 129.327621, 35.474289, 115.0 ] } },
{ "type": "Feature", "properties": { "value": 31.672 }, "geometry": { "type": "Point", "coordinates": [ 129.328735, 35.474289, 115.0 ] } },
{ "type": "Feature", "properties": { "value": 23.461 }, "geometry": { "type": "Point", "coordinates": [ 129.329834, 35.474285, 115.0 ] } },
{ "type": "Feature", "properties": { "value": 13.489 }, "geometry": { "type": "Point", "coordinates": [ 129.330933, 35.474281, 115.0 ] } },
{ "type": "Feature", "properties": { "value": 6.0871 }, "geometry": { "type": "Point", "coordinates": [ 129.332031, 35.474277, 115.0 ] } },
{ "type": "Feature", "properties": { "value": 2.163 }, "geometry": { "type": "Point", "coordinates": [ 129.33313, 35.474274, 115.0 ] } },
{ "type": "Feature", "properties": { "value": 0.5708 }, "geometry": { "type": "Point", "coordinates": [ 129.334244, 35.474274, 115.0 ] } },
{ "type": "Feature", "properties": { "value": 0.8579 }, "geometry": { "type": "Point", "coordinates": [ 129.322113, 35.475208, 115.0 ] } },
{ "type": "Feature", "properties": { "value": 2.9216 }, "geometry": { "type": "Point", "coordinates": [ 129.323227, 35.475204, 115.0 ] } },
{ "type": "Feature", "properties": { "value": 7.5186 }, "geometry": { "type": "Point", "coordinates": [ 129.324326, 35.475201, 115.0 ] } },
{ "type": "Feature", "properties": { "value": 15.183 }, "geometry": { "type": "Point", "coordinates": [ 129.325424, 35.475197, 115.0 ] } },
{ "type": "Feature", "properties": { "value": 24.277 }, "geometry": { "type": "Point", "coordinates": [ 129.326523, 35.475193, 115.0 ] } },
{ "type": "Feature", "properties": { "value": 30.362 }, "geometry": { "type": "Point", "coordinates": [ 129.327637, 35.475193, 115.0 ] } },
{ "type": "Feature", "properties": { "value": 29.765 }, "geometry": { "type": "Point", "coordinates": [ 129.328735, 35.475189, 115.0 ] } },
{ "type": "Feature", "properties": { "value": 22.963 }, "geometry": { "type": "Point", "coordinates": [ 129.329834, 35.475185, 115.0 ] } },
{ "type": "Feature", "properties": { "value": 14.004 }, "geometry": { "type": "Point", "coordinates": [ 129.330933, 35.475182, 115.0 ] } },
{ "type": "Feature", "properties": { "value": 6.8383 }, "geometry": { "type": "Point", "coordinates": [ 129.332031, 35.475178, 115.0 ] } },
{ "type": "Feature", "properties": { "value": 2.7006 }, "geometry": { "type": "Point", "coordinates": [ 129.333145, 35.475178, 115.0 ] } },
{ "type": "Feature", "properties": { "value": 0.8255 }, "geometry": { "type": "Point", "coordinates": [ 129.334244, 35.475174, 115.0 ] } },
{ "type": "Feature", "properties": { "value": 0.086 }, "geometry": { "type": "Point", "coordinates": [ 129.32103, 35.476112, 115.0 ] } },
{ "type": "Feature", "properties": { "value": 1.0397 }, "geometry": { "type": "Point", "coordinates": [ 129.322128, 35.476109, 115.0 ] } },
{ "type": "Feature", "properties": { "value": 3.1537 }, "geometry": { "type": "Point", "coordinates": [ 129.323227, 35.476105, 115.0 ] } },
{ "type": "Feature", "properties": { "value": 7.5569 }, "geometry": { "type": "Point", "coordinates": [ 129.324326, 35.476101, 115.0 ] } },
{ "type": "Feature", "properties": { "value": 14.609 }, "geometry": { "type": "Point", "coordinates": [ 129.325424, 35.476097, 115.0 ] } },
{ "type": "Feature", "properties": { "value": 22.724 }, "geometry": { "type": "Point", "coordinates": [ 129.326538, 35.476097, 115.0 ] } },
{ "type": "Feature", "properties": { "value": 28.222 }, "geometry": { "type": "Point", "coordinates": [ 129.327637, 35.476093, 115.0 ] } },
{ "type": "Feature", "properties": { "value": 28.032 }, "geometry": { "type": "Point", "coordinates": [ 129.328735, 35.476089, 115.0 ] } },
{ "type": "Feature", "properties": { "value": 22.309 }, "geometry": { "type": "Point", "coordinates": [ 129.329834, 35.476086, 115.0 ] } },
{ "type": "Feature", "properties": { "value": 14.265 }, "geometry": { "type": "Point", "coordinates": [ 129.330933, 35.476086, 115.0 ] } },
{ "type": "Feature", "properties": { "value": 7.4252 }, "geometry": { "type": "Point", "coordinates": [ 129.332047, 35.476082, 115.0 ] } },
{ "type": "Feature", "properties": { "value": 3.1571 }, "geometry": { "type": "Point", "coordinates": [ 129.333145, 35.476078, 115.0 ] } },
{ "type": "Feature", "properties": { "value": 1.0989 }, "geometry": { "type": "Point", "coordinates": [ 129.334244, 35.476074, 115.0 ] } },
{ "type": "Feature", "properties": { "value": 0.2064 }, "geometry": { "type": "Point", "coordinates": [ 129.335342, 35.47607, 115.0 ] } },
{ "type": "Feature", "properties": { "value": 0.2799 }, "geometry": { "type": "Point", "coordinates": [ 129.32103, 35.477013, 115.0 ] } },
{ "type": "Feature", "properties": { "value": 1.1669 }, "geometry": { "type": "Point", "coordinates": [ 129.322128, 35.477009, 115.0 ] } },
{ "type": "Feature", "properties": { "value": 3.2989 }, "geometry": { "type": "Point", "coordinates": [ 129.323227, 35.477005, 115.0 ] } },
{ "type": "Feature", "properties": { "value": 7.4893 }, "geometry": { "type": "Point", "coordinates": [ 129.324326, 35.477005, 115.0 ] } },
{ "type": "Feature", "properties": { "value": 13.913 }, "geometry": { "type": "Point", "coordinates": [ 129.325439, 35.477001, 115.0 ] } },
{ "type": "Feature", "properties": { "value": 21.108 }, "geometry": { "type": "Point", "coordinates": [ 129.326538, 35.476997, 115.0 ] } },
{ "type": "Feature", "properties": { "value": 26.048 }, "geometry": { "type": "Point", "coordinates": [ 129.327637, 35.476994, 115.0 ] } },
{ "type": "Feature", "properties": { "value": 26.083 }, "geometry": { "type": "Point", "coordinates": [ 129.328735, 35.47699, 115.0 ] } },
{ "type": "Feature", "properties": { "value": 21.261 }, "geometry": { "type": "Point", "coordinates": [ 129.329834, 35.47699, 115.0 ] } },
{ "type": "Feature", "properties": { "value": 14.141 }, "geometry": { "type": "Point", "coordinates": [ 129.330948, 35.476986, 115.0 ] } },
{ "type": "Feature", "properties": { "value": 7.736 }, "geometry": { "type": "Point", "coordinates": [ 129.332047, 35.476982, 115.0 ] } },
{ "type": "Feature", "properties": { "value": 3.496 }, "geometry": { "type": "Point", "coordinates": [ 129.333145, 35.476978, 115.0 ] } },
{ "type": "Feature", "properties": { "value": 1.3034 }, "geometry": { "type": "Point", "coordinates": [ 129.334244, 35.476974, 115.0 ] } },
{ "type": "Feature", "properties": { "value": 0.3793 }, "geometry": { "type": "Point", "coordinates": [ 129.335342, 35.476974, 115.0 ] } },
{ "type": "Feature", "properties": { "value": 0.3499 }, "geometry": { "type": "Point", "coordinates": [ 129.32103, 35.477913, 115.0 ] } },
{ "type": "Feature", "properties": { "value": 1.2286 }, "geometry": { "type": "Point", "coordinates": [ 129.322128, 35.477909, 115.0 ] } },
{ "type": "Feature", "properties": { "value": 3.2988 }, "geometry": { "type": "Point", "coordinates": [ 129.323227, 35.477909, 115.0 ] } },
{ "type": "Feature", "properties": { "value": 7.2003 }, "geometry": { "type": "Point", "coordinates": [ 129.324341, 35.477905, 115.0 ] } },
{ "type": "Feature", "properties": { "value": 12.935 }, "geometry": { "type": "Point", "coordinates": [ 129.325439, 35.477901, 115.0 ] } },
{ "type": "Feature", "properties": { "value": 19.243 }, "geometry": { "type": "Point", "coordinates": [ 129.326538, 35.477898, 115.0 ] } },
{ "type": "Feature", "properties": { "value": 23.511 }, "geometry": { "type": "Point", "coordinates": [ 129.327637, 35.477894, 115.0 ] } },
{ "type": "Feature", "properties": { "value": 23.706 }, "geometry": { "type": "Point", "coordinates": [ 129.328735, 35.477894, 115.0 ] } },
{ "type": "Feature", "properties": { "value": 19.691 }, "geometry": { "type": "Point", "coordinates": [ 129.329849, 35.47789, 115.0 ] } },
{ "type": "Feature", "properties": { "value": 13.533 }, "geometry": { "type": "Point", "coordinates": [ 129.330948, 35.477886, 115.0 ] } },
{ "type": "Feature", "properties": { "value": 7.7273 }, "geometry": { "type": "Point", "coordinates": [ 129.332047, 35.477882, 115.0 ] } },
{ "type": "Feature", "properties": { "value": 3.6761 }, "geometry": { "type": "Point", "coordinates": [ 129.333145, 35.477879, 115.0 ] } },
{ "type": "Feature", "properties": { "value": 1.4405 }, "geometry": { "type": "Point", "coordinates": [ 129.334259, 35.477879, 115.0 ] } },
{ "type": "Feature", "properties": { "value": 0.4401 }, "geometry": { "type": "Point", "coordinates": [ 129.335358, 35.477875, 115.0 ] } },
{ "type": "Feature", "properties": { "value": 0.3683 }, "geometry": { "type": "Point", "coordinates": [ 129.32103, 35.478813, 115.0 ] } },
{ "type": "Feature", "properties": { "value": 1.2513 }, "geometry": { "type": "Point", "coordinates": [ 129.322128, 35.478813, 115.0 ] } },
{ "type": "Feature", "properties": { "value": 3.1482 }, "geometry": { "type": "Point", "coordinates": [ 129.323242, 35.478809, 115.0 ] } },
{ "type": "Feature", "properties": { "value": 6.6111 }, "geometry": { "type": "Point", "coordinates": [ 129.324341, 35.478806, 115.0 ] } },
{ "type": "Feature", "properties": { "value": 11.561 }, "geometry": { "type": "Point", "coordinates": [ 129.325439, 35.478802, 115.0 ] } },
{ "type": "Feature", "properties": { "value": 16.876 }, "geometry": { "type": "Point", "coordinates": [ 129.326538, 35.478798, 115.0 ] } },
{ "type": "Feature", "properties": { "value": 20.519 }, "geometry": { "type": "Point", "coordinates": [ 129.327637, 35.478798, 115.0 ] } },
{ "type": "Feature", "properties": { "value": 20.776 }, "geometry": { "type": "Point", "coordinates": [ 129.328751, 35.478794, 115.0 ] } },
{ "type": "Feature", "properties": { "value": 17.52 }, "geometry": { "type": "Point", "coordinates": [ 129.329849, 35.47879, 115.0 ] } },
{ "type": "Feature", "properties": { "value": 12.331 }, "geometry": { "type": "Point", "coordinates": [ 129.330948, 35.478786, 115.0 ] } },
{ "type": "Feature", "properties": { "value": 7.2706 }, "geometry": { "type": "Point", "coordinates": [ 129.332047, 35.478786, 115.0 ] } },
{ "type": "Feature", "properties": { "value": 3.5944 }, "geometry": { "type": "Point", "coordinates": [ 129.33316, 35.478783, 115.0 ] } },
{ "type": "Feature", "properties": { "value": 1.472 }, "geometry": { "type": "Point", "coordinates": [ 129.334259, 35.478779, 115.0 ] } },
{ "type": "Feature", "properties": { "value": 0.5027 }, "geometry": { "type": "Point", "coordinates": [ 129.335358, 35.478775, 115.0 ] } },
{ "type": "Feature", "properties": { "value": 0.0266 }, "geometry": { "type": "Point", "coordinates": [ 129.336456, 35.478771, 115.0 ] } },
{ "type": "Feature", "properties": { "value": 0.012 }, "geometry": { "type": "Point", "coordinates": [ 129.319931, 35.479717, 115.0 ] } },
{ "type": "Feature", "properties": { "value": 0.384 }, "geometry": { "type": "Point", "coordinates": [ 129.32103, 35.479717, 115.0 ] } },
{ "type": "Feature", "properties": { "value": 1.1595 }, "geometry": { "type": "Point", "coordinates": [ 129.322144, 35.479713, 115.0 ] } },
{ "type": "Feature", "properties": { "value": 2.7993 }, "geometry": { "type": "Point", "coordinates": [ 129.323242, 35.47971, 115.0 ] } },
{ "type": "Feature", "properties": { "value": 5.7151 }, "geometry": { "type": "Point", "coordinates": [ 129.324341, 35.479706, 115.0 ] } },
{ "type": "Feature", "properties": { "value": 9.7745 }, "geometry": { "type": "Point", "coordinates": [ 129.325439, 35.479706, 115.0 ] } },
{ "type": "Feature", "properties": { "value": 14.096 }, "geometry": { "type": "Point", "coordinates": [ 129.326553, 35.479702, 115.0 ] } },
{ "type": "Feature", "properties": { "value": 17.044 }, "geometry": { "type": "Point", "coordinates": [ 129.327652, 35.479698, 115.0 ] } },
{ "type": "Feature", "properties": { "value": 17.292 }, "geometry": { "type": "Point", "coordinates": [ 129.328751, 35.479694, 115.0 ] } },
{ "type": "Feature", "properties": { "value": 14.734 }, "geometry": { "type": "Point", "coordinates": [ 129.329849, 35.479691, 115.0 ] } },
{ "type": "Feature", "properties": { "value": 10.549 }, "geometry": { "type": "Point", "coordinates": [ 129.330948, 35.479691, 115.0 ] } },
{ "type": "Feature", "properties": { "value": 6.3742 }, "geometry": { "type": "Point", "coordinates": [ 129.332062, 35.479687, 115.0 ] } },
{ "type": "Feature", "properties": { "value": 3.2464 }, "geometry": { "type": "Point", "coordinates": [ 129.33316, 35.479683, 115.0 ] } },
{ "type": "Feature", "properties": { "value": 1.3985 }, "geometry": { "type": "Point", "coordinates": [ 129.334259, 35.479679, 115.0 ] } },
{ "type": "Feature", "properties": { "value": 0.4864 }, "geometry": { "type": "Point", "coordinates": [ 129.335358, 35.479675, 115.0 ] } },
{ "type": "Feature", "properties": { "value": 0.0917 }, "geometry": { "type": "Point", "coordinates": [ 129.336456, 35.479675, 115.0 ] } },
{ "type": "Feature", "properties": { "value": 0.0416 }, "geometry": { "type": "Point", "coordinates": [ 129.319931, 35.480621, 115.0 ] } },
{ "type": "Feature", "properties": { "value": 0.3369 }, "geometry": { "type": "Point", "coordinates": [ 129.321045, 35.480618, 115.0 ] } },
{ "type": "Feature", "properties": { "value": 0.9868 }, "geometry": { "type": "Point", "coordinates": [ 129.322144, 35.480614, 115.0 ] } },
{ "type": "Feature", "properties": { "value": 2.3165 }, "geometry": { "type": "Point", "coordinates": [ 129.323242, 35.48061, 115.0 ] } },
{ "type": "Feature", "properties": { "value": 4.6008 }, "geometry": { "type": "Point", "coordinates": [ 129.324341, 35.48061, 115.0 ] } },
{ "type": "Feature", "properties": { "value": 7.7216 }, "geometry": { "type": "Point", "coordinates": [ 129.325455, 35.480606, 115.0 ] } },
{ "type": "Feature", "properties": { "value": 10.993 }, "geometry": { "type": "Point", "coordinates": [ 129.326553, 35.480602, 115.0 ] } },
{ "type": "Feature", "properties": { "value": 13.231 }, "geometry": { "type": "Point", "coordinates": [ 129.327652, 35.480598, 115.0 ] } },
{ "type": "Feature", "properties": { "value": 13.435 }, "geometry": { "type": "Point", "coordinates": [ 129.328751, 35.480595, 115.0 ] } },
{ "type": "Feature", "properties": { "value": 11.518 }, "geometry": { "type": "Point", "coordinates": [ 129.329849, 35.480595, 115.0 ] } },
{ "type": "Feature", "properties": { "value": 8.371 }, "geometry": { "type": "Point", "coordinates": [ 129.330963, 35.480591, 115.0 ] } },
{ "type": "Feature", "properties": { "value": 5.164 }, "geometry": { "type": "Point", "coordinates": [ 129.332062, 35.480587, 115.0 ] } },
{ "type": "Feature", "properties": { "value": 2.6976 }, "geometry": { "type": "Point", "coordinates": [ 129.33316, 35.480583, 115.0 ] } },
{ "type": "Feature", "properties": { "value": 1.1929 }, "geometry": { "type": "Point", "coordinates": [ 129.334259, 35.480579, 115.0 ] } },
{ "type": "Feature", "properties": { "value": 0.4244 }, "geometry": { "type": "Point", "coordinates": [ 129.335358, 35.480579, 115.0 ] } },
{ "type": "Feature", "properties": { "value": 0.0998 }, "geometry": { "type": "Point", "coordinates": [ 129.336472, 35.480576, 115.0 ] } },
{ "type": "Feature", "properties": { "value": 0.043 }, "geometry": { "type": "Point", "coordinates": [ 129.319946, 35.481522, 115.0 ] } },
{ "type": "Feature", "properties": { "value": 0.2614 }, "geometry": { "type": "Point", "coordinates": [ 129.321045, 35.481518, 115.0 ] } },
{ "type": "Feature", "properties": { "value": 0.7577 }, "geometry": { "type": "Point", "coordinates": [ 129.322144, 35.481514, 115.0 ] } },
{ "type": "Feature", "properties": { "value": 1.7407 }, "geometry": { "type": "Point", "coordinates": [ 129.323242, 35.481514, 115.0 ] } },
{ "type": "Feature", "properties": { "value": 3.3942 }, "geometry": { "type": "Point", "coordinates": [ 129.324356, 35.48151, 115.0 ] } },
{ "type": "Feature", "properties": { "value": 5.6029 }, "geometry": { "type": "Point", "coordinates": [ 129.325455, 35.481506, 115.0 ] } },
{ "type": "Feature", "properties": { "value": 7.9064 }, "geometry": { "type": "Point", "coordinates": [ 129.326553, 35.481503, 115.0 ] } },
{ "type": "Feature", "properties": { "value": 9.4596 }, "geometry": { "type": "Point", "coordinates": [ 129.327652, 35.481503, 115.0 ] } },
{ "type": "Feature", "properties": { "value": 9.6055 }, "geometry": { "type": "Point", "coordinates": [ 129.328751, 35.481499, 115.0 ] } },
{ "type": "Feature", "properties": { "value": 8.2912 }, "geometry": { "type": "Point", "coordinates": [ 129.329865, 35.481495, 115.0 ] } },
{ "type": "Feature", "properties": { "value": 6.0834 }, "geometry": { "type": "Point", "coordinates": [ 129.330963, 35.481491, 115.0 ] } },
{ "type": "Feature", "properties": { "value": 3.8185 }, "geometry": { "type": "Point", "coordinates": [ 129.332062, 35.481487, 115.0 ] } },
{ "type": "Feature", "properties": { "value": 2.031 }, "geometry": { "type": "Point", "coordinates": [ 129.33316, 35.481487, 115.0 ] } },
{ "type": "Feature", "properties": { "value": 0.9177 }, "geometry": { "type": "Point", "coordinates": [ 129.334259, 35.481483, 115.0 ] } },
{ "type": "Feature", "properties": { "value": 0.3292 }, "geometry": { "type": "Point", "coordinates": [ 129.335373, 35.48148, 115.0 ] } },
{ "type": "Feature", "properties": { "value": 0.0825 }, "geometry": { "type": "Point", "coordinates": [ 129.336472, 35.481476, 115.0 ] } },
{ "type": "Feature", "properties": { "value": 0.0143 }, "geometry": { "type": "Point", "coordinates": [ 129.319946, 35.482422, 115.0 ] } },
{ "type": "Feature", "properties": { "value": 0.1748 }, "geometry": { "type": "Point", "coordinates": [ 129.321045, 35.482418, 115.0 ] } },
{ "type": "Feature", "properties": { "value": 0.5047 }, "geometry": { "type": "Point", "coordinates": [ 129.322144, 35.482418, 115.0 ] } },
{ "type": "Feature", "properties": { "value": 1.1768 }, "geometry": { "type": "Point", "coordinates": [ 129.323257, 35.482414, 115.0 ] } },
{ "type": "Feature", "properties": { "value": 2.2586 }, "geometry": { "type": "Point", "coordinates": [ 129.324356, 35.48241, 115.0 ] } },
{ "type": "Feature", "properties": { "value": 3.7132 }, "geometry": { "type": "Point", "coordinates": [ 129.325455, 35.482407, 115.0 ] } },
{ "type": "Feature", "properties": { "value": 5.2006 }, "geometry": { "type": "Point", "coordinates": [ 129.326553, 35.482407, 115.0 ] } },
{ "type": "Feature", "properties": { "value": 6.2117 }, "geometry": { "type": "Point", "coordinates": [ 129.327652, 35.482403, 115.0 ] } },
{ "type": "Feature", "properties": { "value": 6.3087 }, "geometry": { "type": "Point", "coordinates": [ 129.328766, 35.482399, 115.0 ] } },
{ "type": "Feature", "properties": { "value": 5.4587 }, "geometry": { "type": "Point", "coordinates": [ 129.329865, 35.482395, 115.0 ] } },
{ "type": "Feature", "properties": { "value": 4.0382 }, "geometry": { "type": "Point", "coordinates": [ 129.330963, 35.482391, 115.0 ] } },
{ "type": "Feature", "properties": { "value": 2.5599 }, "geometry": { "type": "Point", "coordinates": [ 129.332062, 35.482391, 115.0 ] } },
{ "type": "Feature", "properties": { "value": 1.3753 }, "geometry": { "type": "Point", "coordinates": [ 129.333176, 35.482388, 115.0 ] } },
{ "type": "Feature", "properties": { "value": 0.6269 }, "geometry": { "type": "Point", "coordinates": [ 129.334274, 35.482384, 115.0 ] } },
{ "type": "Feature", "properties": { "value": 0.2197 }, "geometry": { "type": "Point", "coordinates": [ 129.335373, 35.48238, 115.0 ] } },
{ "type": "Feature", "properties": { "value": 0.0456 }, "geometry": { "type": "Point", "coordinates": [ 129.336472, 35.482376, 115.0 ] } },
{ "type": "Feature", "properties": { "value": 0.0108 }, "geometry": { "type": "Point", "coordinates": [ 129.319946, 35.483322, 115.0 ] } },
{ "type": "Feature", "properties": { "value": 0.0997 }, "geometry": { "type": "Point", "coordinates": [ 129.321045, 35.483322, 115.0 ] } },
{ "type": "Feature", "properties": { "value": 0.2913 }, "geometry": { "type": "Point", "coordinates": [ 129.322159, 35.483318, 115.0 ] } },
{ "type": "Feature", "properties": { "value": 0.712 }, "geometry": { "type": "Point", "coordinates": [ 129.323257, 35.483315, 115.0 ] } },
{ "type": "Feature", "properties": { "value": 1.3445 }, "geometry": { "type": "Point", "coordinates": [ 129.324356, 35.483311, 115.0 ] } },
{ "type": "Feature", "properties": { "value": 2.2163 }, "geometry": { "type": "Point", "coordinates": [ 129.325455, 35.483311, 115.0 ] } },
{ "type": "Feature", "properties": { "value": 3.0798 }, "geometry": { "type": "Point", "coordinates": [ 129.326553, 35.483307, 115.0 ] } },
{ "type": "Feature", "properties": { "value": 3.6719 }, "geometry": { "type": "Point", "coordinates": [ 129.327667, 35.483303, 115.0 ] } },
{ "type": "Feature", "properties": { "value": 3.7327 }, "geometry": { "type": "Point", "coordinates": [ 129.328766, 35.483299, 115.0 ] } },
{ "type": "Feature", "properties": { "value": 3.2357 }, "geometry": { "type": "Point", "coordinates": [ 129.329865, 35.483295, 115.0 ] } },
{ "type": "Feature", "properties": { "value": 2.4116 }, "geometry": { "type": "Point", "coordinates": [ 129.330963, 35.483295, 115.0 ] } },
{ "type": "Feature", "properties": { "value": 1.5294 }, "geometry": { "type": "Point", "coordinates": [ 129.332077, 35.483292, 115.0 ] } },
{ "type": "Feature", "properties": { "value": 0.8321 }, "geometry": { "type": "Point", "coordinates": [ 129.333176, 35.483288, 115.0 ] } },
{ "type": "Feature", "properties": { "value": 0.3797 }, "geometry": { "type": "Point", "coordinates": [ 129.334274, 35.483284, 115.0 ] } },
{ "type": "Feature", "properties": { "value": 0.1246 }, "geometry": { "type": "Point", "coordinates": [ 129.335373, 35.48328, 115.0 ] } },
{ "type": "Feature", "properties": { "value": 0.0133 }, "geometry": { "type": "Point", "coordinates": [ 129.336472, 35.48328, 115.0 ] } },
{ "type": "Feature", "properties": { "value": 0.0449 }, "geometry": { "type": "Point", "coordinates": [ 129.32106, 35.484222, 115.0 ] } },
{ "type": "Feature", "properties": { "value": 0.1474 }, "geometry": { "type": "Point", "coordinates": [ 129.322159, 35.484219, 115.0 ] } },
{ "type": "Feature", "properties": { "value": 0.3611 }, "geometry": { "type": "Point", "coordinates": [ 129.323257, 35.484215, 115.0 ] } },
{ "type": "Feature", "properties": { "value": 0.7152 }, "geometry": { "type": "Point", "coordinates": [ 129.324356, 35.484215, 115.0 ] } },
{ "type": "Feature", "properties": { "value": 1.1813 }, "geometry": { "type": "Point", "coordinates": [ 129.325455, 35.484211, 115.0 ] } },
{ "type": "Feature", "properties": { "value": 1.6343 }, "geometry": { "type": "Point", "coordinates": [ 129.326569, 35.484207, 115.0 ] } },
{ "type": "Feature", "properties": { "value": 1.939 }, "geometry": { "type": "Point", "coordinates": [ 129.327667, 35.484203, 115.0 ] } },
{ "type": "Feature", "properties": { "value": 1.9719 }, "geometry": { "type": "Point", "coordinates": [ 129.328766, 35.484203, 115.0 ] } },
{ "type": "Feature", "properties": { "value": 1.7181 }, "geometry": { "type": "Point", "coordinates": [ 129.329865, 35.4842, 115.0 ] } },
{ "type": "Feature", "properties": { "value": 1.2852 }, "geometry": { "type": "Point", "coordinates": [ 129.330978, 35.484196, 115.0 ] } },
{ "type": "Feature", "properties": { "value": 0.8063 }, "geometry": { "type": "Point", "coordinates": [ 129.332077, 35.484192, 115.0 ] } },
{ "type": "Feature", "properties": { "value": 0.446 }, "geometry": { "type": "Point", "coordinates": [ 129.333176, 35.484188, 115.0 ] } },
{ "type": "Feature", "properties": { "value": 0.2014 }, "geometry": { "type": "Point", "coordinates": [ 129.334274, 35.484188, 115.0 ] } },
{ "type": "Feature", "properties": { "value": 0.0555 }, "geometry": { "type": "Point", "coordinates": [ 129.335373, 35.484184, 115.0 ] } },
{ "type": "Feature", "properties": { "value": 0.0113 }, "geometry": { "type": "Point", "coordinates": [ 129.32106, 35.485123, 115.0 ] } },
{ "type": "Feature", "properties": { "value": 0.0592 }, "geometry": { "type": "Point", "coordinates": [ 129.322159, 35.485119, 115.0 ] } },
{ "type": "Feature", "properties": { "value": 0.1624 }, "geometry": { "type": "Point", "coordinates": [ 129.323257, 35.485119, 115.0 ] } },
{ "type": "Feature", "properties": { "value": 0.3338 }, "geometry": { "type": "Point", "coordinates": [ 129.324371, 35.485115, 115.0 ] } },
{ "type": "Feature", "properties": { "value": 0.5577 }, "geometry": { "type": "Point", "coordinates": [ 129.32547, 35.485111, 115.0 ] } },
{ "type": "Feature", "properties": { "value": 0.7687 }, "geometry": { "type": "Point", "coordinates": [ 129.326569, 35.485107, 115.0 ] } },
{ "type": "Feature", "properties": { "value": 0.9104 }, "geometry": { "type": "Point", "coordinates": [ 129.327667, 35.485107, 115.0 ] } },
{ "type": "Feature", "properties": { "value": 0.9255 }, "geometry": { "type": "Point", "coordinates": [ 129.328766, 35.485104, 115.0 ] } },
{ "type": "Feature", "properties": { "value": 0.8077 }, "geometry": { "type": "Point", "coordinates": [ 129.32988, 35.4851, 115.0 ] } },
{ "type": "Feature", "properties": { "value": 0.6065 }, "geometry": { "type": "Point", "coordinates": [ 129.330978, 35.485096, 115.0 ] } },
{ "type": "Feature", "properties": { "value": 0.3759 }, "geometry": { "type": "Point", "coordinates": [ 129.332077, 35.485092, 115.0 ] } },
{ "type": "Feature", "properties": { "value": 0.1999 }, "geometry": { "type": "Point", "coordinates": [ 129.333176, 35.485092, 115.0 ] } },
{ "type": "Feature", "properties": { "value": 0.0817 }, "geometry": { "type": "Point", "coordinates": [ 129.334274, 35.485088, 115.0 ] } },
{ "type": "Feature", "properties": { "value": 0.0135 }, "geometry": { "type": "Point", "coordinates": [ 129.335388, 35.485085, 115.0 ] } },
{ "type": "Feature", "properties": { "value": 0.0135 }, "geometry": { "type": "Point", "coordinates": [ 129.322159, 35.486023, 115.0 ] } },
{ "type": "Feature", "properties": { "value": 0.0583 }, "geometry": { "type": "Point", "coordinates": [ 129.323273, 35.486019, 115.0 ] } },
{ "type": "Feature", "properties": { "value": 0.1336 }, "geometry": { "type": "Point", "coordinates": [ 129.324371, 35.486015, 115.0 ] } },
{ "type": "Feature", "properties": { "value": 0.2221 }, "geometry": { "type": "Point", "coordinates": [ 129.32547, 35.486012, 115.0 ] } },
{ "type": "Feature", "properties": { "value": 0.3171 }, "geometry": { "type": "Point", "coordinates": [ 129.326569, 35.486012, 115.0 ] } },
{ "type": "Feature", "properties": { "value": 0.3746 }, "geometry": { "type": "Point", "coordinates": [ 129.327667, 35.486008, 115.0 ] } },
{ "type": "Feature", "properties": { "value": 0.3806 }, "geometry": { "type": "Point", "coordinates": [ 129.328781, 35.486004, 115.0 ] } },
{ "type": "Feature", "properties": { "value": 0.3329 }, "geometry": { "type": "Point", "coordinates": [ 129.32988, 35.486, 115.0 ] } },
{ "type": "Feature", "properties": { "value": 0.2414 }, "geometry": { "type": "Point", "coordinates": [ 129.330978, 35.485996, 115.0 ] } },
{ "type": "Feature", "properties": { "value": 0.15 }, "geometry": { "type": "Point", "coordinates": [ 129.332077, 35.485996, 115.0 ] } },
{ "type": "Feature", "properties": { "value": 0.0674 }, "geometry": { "type": "Point", "coordinates": [ 129.333176, 35.485992, 115.0 ] } },
{ "type": "Feature", "properties": { "value": 0.0156 }, "geometry": { "type": "Point", "coordinates": [ 129.33429, 35.485989, 115.0 ] } },
{ "type": "Feature", "properties": { "value": 0.012 }, "geometry": { "type": "Point", "coordinates": [ 129.323273, 35.486919, 115.0 ] } },
{ "type": "Feature", "properties": { "value": 0.0429 }, "geometry": { "type": "Point", "coordinates": [ 129.324371, 35.486916, 115.0 ] } },
{ "type": "Feature", "properties": { "value": 0.0677 }, "geometry": { "type": "Point", "coordinates": [ 129.32547, 35.486916, 115.0 ] } },
{ "type": "Feature", "properties": { "value": 0.1122 }, "geometry": { "type": "Point", "coordinates": [ 129.326569, 35.486912, 115.0 ] } },
{ "type": "Feature", "properties": { "value": 0.1324 }, "geometry": { "type": "Point", "coordinates": [ 129.327682, 35.486908, 115.0 ] } },
{ "type": "Feature", "properties": { "value": 0.1345 }, "geometry": { "type": "Point", "coordinates": [ 129.328781, 35.486904, 115.0 ] } },
{ "type": "Feature", "properties": { "value": 0.1178 }, "geometry": { "type": "Point", "coordinates": [ 129.32988, 35.486904, 115.0 ] } },
{ "type": "Feature", "properties": { "value": 0.0733 }, "geometry": { "type": "Point", "coordinates": [ 129.330978, 35.4869, 115.0 ] } },
{ "type": "Feature", "properties": { "value": 0.0479 }, "geometry": { "type": "Point", "coordinates": [ 129.332092, 35.486897, 115.0 ] } },
{ "type": "Feature", "properties": { "value": 0.0135 }, "geometry": { "type": "Point", "coordinates": [ 129.333191, 35.486893, 115.0 ] } },
{ "type": "Feature", "properties": { "value": 0.0125 }, "geometry": { "type": "Point", "coordinates": [ 129.32547, 35.487816, 115.0 ] } },
{ "type": "Feature", "properties": { "value": 0.017 }, "geometry": { "type": "Point", "coordinates": [ 129.326584, 35.487812, 115.0 ] } },
{ "type": "Feature", "properties": { "value": 0.0293 }, "geometry": { "type": "Point", "coordinates": [ 129.327682, 35.487808, 115.0 ] } },
{ "type": "Feature", "properties": { "value": 0.0298 }, "geometry": { "type": "Point", "coordinates": [ 129.328781, 35.487808, 115.0 ] } },
{ "type": "Feature", "properties": { "value": 0.0177 }, "geometry": { "type": "Point", "coordinates": [ 129.32988, 35.487804, 115.0 ] } },
{ "type": "Feature", "properties": { "value": 0.0134 }, "geometry": { "type": "Point", "coordinates": [ 129.330994, 35.487801, 115.0 ] } },
{ "type": "Feature", "properties": { "value": 0.0088 }, "geometry": { "type": "Point", "coordinates": [ 129.332092, 35.487797, 115.0 ] } }
]
}
