{
"type": "FeatureCollection",
"features": [
{ "type": "Feature", "properties": { "value": 0.0014 }, "geometry": { "type": "Point", "coordinates": [ 129.327576, 35.46077, 115.0 ] } },
{ "type": "Feature", "properties": { "value": 0.0227 }, "geometry": { "type": "Point", "coordinates": [ 129.327576, 35.461674, 115.0 ] } },
{ "type": "Feature", "properties": { "value": 0.0398 }, "geometry": { "type": "Point", "coordinates": [ 129.327576, 35.462574, 115.0 ] } },
{ "type": "Feature", "properties": { "value": 0.0045 }, "geometry": { "type": "Point", "coordinates": [ 129.328674, 35.46257, 115.0 ] } },
{ "type": "Feature", "properties": { "value": 0.0531 }, "geometry": { "type": "Point", "coordinates": [ 129.327576, 35.463474, 115.0 ] } },
{ "type": "Feature", "properties": { "value": 0.028 }, "geometry": { "type": "Point", "coordinates": [ 129.32869, 35.46347, 115.0 ] } },
{ "type": "Feature", "properties": { "value": 0.0781 }, "geometry": { "type": "Point", "coordinates": [ 129.327591, 35.464375, 115.0 ] } },
{ "type": "Feature", "properties": { "value": 0.0987 }, "geometry": { "type": "Point", "coordinates": [ 129.32869, 35.464375, 115.0 ] } },
{ "type": "Feature", "properties": { "value": 0.1767 }, "geometry": { "type": "Point", "coordinates": [ 129.327591, 35.465279, 115.0 ] } },
{ "type": "Feature", "properties": { "value": 0.7839 }, "geometry": { "type": "Point", "coordinates": [ 129.32869, 35.465275, 115.0 ] } },
{ "type": "Feature", "properties": { "value": 0.3406 }, "geometry": { "type": "Point", "coordinates": [ 129.327591, 35.466179, 115.0 ] } },
{ "type": "Feature", "properties": { "value": 4.4071 }, "geometry": { "type": "Point", "coordinates": [ 129.32869, 35.466175, 115.0 ] } },
{ "type": "Feature", "properties": { "value": 0.0394 }, "geometry": { "type": "Point", "coordinates": [ 129.329803, 35.466171, 115.0 ] } },
{ "type": "Feature", "properties": { "value": 0.4092 }, "geometry": { "type": "Point", "coordinates": [ 129.327591, 35.467079, 115.0 ] } },
{ "type": "Feature", "properties": { "value": 10.258 }, "geometry": { "type": "Point", "coordinates": [ 129.328705, 35.467075, 115.0 ] } },
{ "type": "Feature", "properties": { "value": 0.8045 }, "geometry": { "type": "Point", "coordinates": [ 129.329803, 35.467075, 115.0 ] } },
{ "type": "Feature", "properties": { "value": 0.3364 }, "geometry": { "type": "Point", "coordinates": [ 129.327606, 35.467983, 115.0 ] } },
{ "type": "Feature", "properties": { "value": 14.615 }, "geometry": { "type": "Point", "coordinates": [ 129.328705, 35.467979, 115.0 ] } },
{ "type": "Feature", "properties": { "value": 4.2414 }, "geometry": { "type": "Point", "coordinates": [ 129.329803, 35.467976, 115.0 ] } },
{ "type": "Feature", "properties": { "value": 0.201 }, "geometry": { "type": "Point", "coordinates": [ 129.327606, 35.468884, 115.0 ] } },
{ "type": "Feature", "properties": { "value": 14.173 }, "geometry": { "type": "Point", "coordinates": [ 129.328705, 35.46888, 115.0 ] } },
{ "type": "Feature", "properties": { "value": 10.547 }, "geometry": { "type": "Point", "coordinates": [ 129.329803, 35.468876, 115.0 ] } },
{ "type": "Feature", "properties": { "value": 9.1283 }, "geometry": { "type": "Point", "coordinates": [ 129.328705, 35.46978, 115.0 ] } },
{ "type": "Feature", "properties": { "value": 12.936 }, "geometry": { "type": "Point", "coordinates": [ 129.329819, 35.469776, 115.0 ] } },
{ "type": "Feature", "properties": { "value": 0.3108 }, "geometry": { "type": "Point", "coordinates": [ 129.330917, 35.469776, 115.0 ] } },
{ "type": "Feature", "properties": { "value": 3.6129 }, "geometry": { "type": "Point", "coordinates": [ 129.32872, 35.470684, 115.0 ] } },
{ "type": "Feature", "properties": { "value": 7.0212 }, "geometry": { "type": "Point", "coordinates": [ 129.329819, 35.47068, 115.0 ] } },
{ "type": "Feature", "properties": { "value": 0.3165 }, "geometry": { "type": "Point", "coordinates": [ 129.330917, 35.470676, 115.0 ] } },
{ "type": "Feature", "properties": { "value": 0.7075 }, "geometry": { "type": "Point", "coordinates": [ 129.32872, 35.471584, 115.0 ] } },
{ "type": "Feature", "properties": { "value": 1.8956 }, "geometry": { "type": "Point", "coordinates": [ 129.329819, 35.471581, 115.0 ] } },
{ "type": "Feature", "properties": { "value": 0.2661 }, "geometry": { "type": "Point", "coordinates": [ 129.330917, 35.471577, 115.0 ] } },
{ "type": "Feature", "properties": { "value": 0.112 }, "geometry": { "type": "Point", "coordinates": [ 129.32872, 35.472485, 115.0 ] } },
{ "type": "Feature", "properties": { "value": 0.7724 }, "geometry": { "type": "Point", "coordinates": [ 129.329819, 35.472481, 115.0 ] } },
{ "type": "Feature", "properties": { "value": 0.6202 }, "geometry": { "type": "Point", "coordinates": [ 129.330917, 35.472477, 115.0 ] } },
{ "type": "Feature", "properties": { "value": 0.061 }, "geometry": { "type": "Point", "coordinates": [ 129.332031, 35.472477, 115.0 ] } },
{ "type": "Feature", "properties": { "value": 0.0379 }, "geometry": { "type": "Point", "coordinates": [ 129.32872, 35.473385, 115.0 ] } },
{ "type": "Feature", "properties": { "value": 0.9812 }, "geometry": { "type": "Point", "coordinates": [ 129.329819, 35.473385, 115.0 ] } },
{ "type": "Feature", "properties": { "value": 2.9737 }, "geometry": { "type": "Point", "coordinates": [ 129.330933, 35.473381, 115.0 ] } },
{ "type": "Feature", "properties": { "value": 1.1164 }, "geometry": { "type": "Point", "coordinates": [ 129.332031, 35.473377, 115.0 ] } },
{ "type": "Feature", "properties": { "value": 0.0165 }, "geometry": { "type": "Point", "coordinates": [ 129.328735, 35.474289, 115.0 ] } },
{ "type": "Feature", "properties": { "value": 1.7347 }, "geometry": { "type": "Point", "coordinates": [ 129.329834, 35.474285, 115.0 ] } },
{ "type": "Feature", "properties": { "value": 9.3133 }, "geometry": { "type": "Point", "coordinates": [ 129.330933, 35.474281, 115.0 ] } },
{ "type": "Feature", "properties": { "value": 6.0641 }, "geometry": { "type": "Point", "coordinates": [ 129.332031, 35.474277, 115.0 ] } },
{ "type": "Feature", "properties": { "value": 0.528 }, "geometry": { "type": "Point", "coordinates": [ 129.33313, 35.474274, 115.0 ] } },
{ "type": "Feature", "properties": { "value": 1.8199 }, "geometry": { "type": "Point", "coordinates": [ 129.329834, 35.475185, 115.0 ] } },
{ "type": "Feature", "properties": { "value": 14.41 }, "geometry": { "type": "Point", "coordinates": [ 129.330933, 35.475182, 115.0 ] } },
{ "type": "Feature", "properties": { "value": 14.518 }, "geometry": { "type": "Point", "coordinates": [ 129.332031, 35.475178, 115.0 ] } },
{ "type": "Feature", "properties": { "value": 2.4294 }, "geometry": { "type": "Point", "coordinates": [ 129.333145, 35.475178, 115.0 ] } },
{ "type": "Feature", "properties": { "value": 1.295 }, "geometry": { "type": "Point", "coordinates": [ 129.329834, 35.476086, 115.0 ] } },
{ "type": "Feature", "properties": { "value": 15.099 }, "geometry": { "type": "Point", "coordinates": [ 129.330933, 35.476086, 115.0 ] } },
{ "type": "Feature", "properties": { "value": 23.89 }, "geometry": { "type": "Point", "coordinates": [ 129.332047, 35.476082, 115.0 ] } },
{ "type": "Feature", "properties": { "value": 7.3301 }, "geometry": { "type": "Point", "coordinates": [ 129.333145, 35.476078, 115.0 ] } },
{ "type": "Feature", "properties": { "value": 0.4615 }, "geometry": { "type": "Point", "coordinates": [ 129.334244, 35.476074, 115.0 ] } },
{ "type": "Feature", "properties": { "value": 0.7688 }, "geometry": { "type": "Point", "coordinates": [ 129.329834, 35.47699, 115.0 ] } },
{ "type": "Feature", "properties": { "value": 11.383 }, "geometry": { "type": "Point", "coordinates": [ 129.330948, 35.476986, 115.0 ] } },
{ "type": "Feature", "properties": { "value": 28.243 }, "geometry": { "type": "Point", "coordinates": [ 129.332047, 35.476982, 115.0 ] } },
{ "type": "Feature", "properties": { "value": 15.638 }, "geometry": { "type": "Point", "coordinates": [ 129.333145, 35.476978, 115.0 ] } },
{ "type": "Feature", "properties": { "value": 2.2697 }, "geometry": { "type": "Point", "coordinates": [ 129.334244, 35.476974, 115.0 ] } },
{ "type": "Feature", "properties": { "value": 0.2827 }, "geometry": { "type": "Point", "coordinates": [ 129.329849, 35.47789, 115.0 ] } },
{ "type": "Feature", "properties": { "value": 6.7222 }, "geometry": { "type": "Point", "coordinates": [ 129.330948, 35.477886, 115.0 ] } },
{ "type": "Feature", "properties": { "value": 25.686 }, "geometry": { "type": "Point", "coordinates": [ 129.332047, 35.477882, 115.0 ] } },
{ "type": "Feature", "properties": { "value": 24.856 }, "geometry": { "type": "Point", "coordinates": [ 129.333145, 35.477879, 115.0 ] } },
{ "type": "Feature", "properties": { "value": 6.9104 }, "geometry": { "type": "Point", "coordinates": [ 129.334259, 35.477879, 115.0 ] } },
{ "type": "Feature", "properties": { "value": 0.489 }, "geometry": { "type": "Point", "coordinates": [ 129.335358, 35.477875, 115.0 ] } },
{ "type": "Feature", "properties": { "value": 3.3121 }, "geometry": { "type": "Point", "coordinates": [ 129.330948, 35.478786, 115.0 ] } },
{ "type": "Feature", "properties": { "value": 19.317 }, "geometry": { "type": "Point", "coordinates": [ 129.332047, 35.478786, 115.0 ] } },
{ "type": "Feature", "properties": { "value": 31.16 }, "geometry": { "type": "Point", "coordinates": [ 129.33316, 35.478783, 115.0 ] } },
{ "type": "Feature", "properties": { "value": 15.376 }, "geometry": { "type": "Point", "coordinates": [ 129.334259, 35.478779, 115.0 ] } },
{ "type": "Feature", "properties": { "value": 2.4807 }, "geometry": { "type": "Point", "coordinates": [ 129.335358, 35.478775, 115.0 ] } },
{ "type": "Feature", "properties": { "value": 1.3137 }, "geometry": { "type": "Point", "coordinates": [ 129.330948, 35.479691, 115.0 ] } },
{ "type": "Feature", "properties": { "value": 11.731 }, "geometry": { "type": "Point", "coordinates": [ 129.332062, 35.479687, 115.0 ] } },
{ "type": "Feature", "properties": { "value": 30.352 }, "geometry": { "type": "Point", "coordinates": [ 129.33316, 35.479683, 115.0 ] } },
{ "type": "Feature", "properties": { "value": 25.401 }, "geometry": { "type": "Point", "coordinates": [ 129.334259, 35.479679, 115.0 ] } },
{ "type": "Feature", "properties": { "value": 7.5384 }, "geometry": { "type": "Point", "coordinates": [ 129.335358, 35.479675, 115.0 ] } },
{ "type": "Feature", "properties": { "value": 0.9068 }, "geometry": { "type": "Point", "coordinates": [ 129.336456, 35.479675, 115.0 ] } },
{ "type": "Feature", "properties": { "value": 0.3461 }, "geometry": { "type": "Point", "coordinates": [ 129.330963, 35.480591, 115.0 ] } },
{ "type": "Feature", "properties": { "value": 5.7375 }, "geometry": { "type": "Point", "coordinates": [ 129.332062, 35.480587, 115.0 ] } },
{ "type": "Feature", "properties": { "value": 23.018 }, "geometry": { "type": "Point", "coordinates": [ 129.33316, 35.480583, 115.0 ] } },
{ "type": "Feature", "properties": { "value": 31.709 }, "geometry": { "type": "Point", "coordinates": [ 129.334259, 35.480579, 115.0 ] } },
{ "type": "Feature", "properties": { "value": 16.695 }, "geometry": { "type": "Point", "coordinates": [ 129.335358, 35.480579, 115.0 ] } },
{ "type": "Feature", "properties": { "value": 4.079 }, "geometry": { "type": "Point", "coordinates": [ 129.336472, 35.480576, 115.0 ] } },
{ "type": "Feature", "properties": { "value": 0.5132 }, "geometry": { "type": "Point", "coordinates": [ 129.33757, 35.480572, 115.0 ] } },
{ "type": "Feature", "properties": { "value": 2.4108 }, "geometry": { "type": "Point", "coordinates": [ 129.332062, 35.481487, 115.0 ] } },
{ "type": "Feature", "properties": { "value": 14.357 }, "geometry": { "type": "Point", "coordinates": [ 129.33316, 35.481487, 115.0 ] } },
{ "type": "Feature", "properties": { "value": 30.344 }, "geometry": { "type": "Point", "coordinates": [ 129.334259, 35.481483, 115.0 ] } },
{ "type": "Feature", "properties": { "value": 25.949 }, "geometry": { "type": "Point", "coordinates": [ 129.335373, 35.48148, 115.0 ] } },
{ "type": "Feature", "properties": { "value": 10.991 }, "geometry": { "type": "Point", "coordinates": [ 129.336472, 35.481476, 115.0 ] } },
{ "type": "Feature", "properties": { "value": 2.785 }, "geometry": { "type": "Point", "coordinates": [ 129.33757, 35.481472, 115.0 ] } },
{ "type": "Feature", "properties": { "value": 0.3936 }, "geometry": { "type": "Point", "coordinates": [ 129.338669, 35.481472, 115.0 ] } },
{ "type": "Feature", "properties": { "value": 0.9273 }, "geometry": { "type": "Point", "coordinates": [ 129.332062, 35.482391, 115.0 ] } },
{ "type": "Feature", "properties": { "value": 7.6817 }, "geometry": { "type": "Point", "coordinates": [ 129.333176, 35.482388, 115.0 ] } },
{ "type": "Feature", "properties": { "value": 22.732 }, "geometry": { "type": "Point", "coordinates": [ 129.334274, 35.482384, 115.0 ] } },
{ "type": "Feature", "properties": { "value": 29.209 }, "geometry": { "type": "Point", "coordinates": [ 129.335373, 35.48238, 115.0 ] } },
{ "type": "Feature", "properties": { "value": 19.172 }, "geometry": { "type": "Point", "coordinates": [ 129.336472, 35.482376, 115.0 ] } },
{ "type": "Feature", "properties": { "value": 7.6244 }, "geometry": { "type": "Point", "coordinates": [ 129.33757, 35.482376, 115.0 ] } },
{ "type": "Feature", "properties": { "value": 2.1022 }, "geometry": { "type": "Point", "coordinates": [ 129.338684, 35.482372, 115.0 ] } },
{ "type": "Feature", "properties": { "value": 0.3785 }, "geometry": { "type": "Point", "coordinates": [ 129.339783, 35.482368, 115.0 ] } },
{ "type": "Feature", "properties": { "value": 0.29 }, "geometry": { "type": "Point", "coordinates": [ 129.332077, 35.483292, 115.0 ] } },
{ "type": "Feature", "properties": { "value": 3.7948 }, "geometry": { "type": "Point", "coordinates": [ 129.333176, 35.483288, 115.0 ] } },
{ "type": "Feature", "properties": { "value": 14.543 }, "geometry": { "type": "Point", "coordinates": [ 129.334274, 35.483284, 115.0 ] } },
{ "type": "Feature", "properties": { "value": 25.98 }, "geometry": { "type": "Point", "coordinates": [ 129.335373, 35.48328, 115.0 ] } },
{ "type": "Feature", "properties": { "value": 24.67 }, "geometry": { "type": "Point", "coordinates": [ 129.336472, 35.48328, 115.0 ] } },
{ "type": "Feature", "properties": { "value": 14.428 }, "geometry": { "type": "Point", "coordinates": [ 129.337585, 35.483276, 115.0 ] } },
{ "type": "Feature", "properties": { "value": 5.9058 }, "geometry": { "type": "Point", "coordinates": [ 129.338684, 35.483273, 115.0 ] } },
{ "type": "Feature", "properties": { "value": 1.8319 }, "geometry": { "type": "Point", "coordinates": [ 129.339783, 35.483269, 115.0 ] } },
{ "type": "Feature", "properties": { "value": 0.4165 }, "geometry": { "type": "Point", "coordinates": [ 129.340881, 35.483265, 115.0 ] } },
{ "type": "Feature", "properties": { "value": 1.6973 }, "geometry": { "type": "Point", "coordinates": [ 129.333176, 35.484188, 115.0 ] } },
{ "type": "Feature", "properties": { "value": 8.1303 }, "geometry": { "type": "Point", "coordinates": [ 129.334274, 35.484188, 115.0 ] } },
{ "type": "Feature", "properties": { "value": 19.101 }, "geometry": { "type": "Point", "coordinates": [ 129.335373, 35.484184, 115.0 ] } },
{ "type": "Feature", "properties": { "value": 24.958 }, "geometry": { "type": "Point", "coordinates": [ 129.336487, 35.48418, 115.0 ] } },
{ "type": "Feature", "properties": { "value": 20.48 }, "geometry": { "type": "Point", "coordinates": [ 129.337585, 35.484177, 115.0 ] } },
{ "type": "Feature", "properties": { "value": 11.709 }, "geometry": { "type": "Point", "coordinates": [ 129.338684, 35.484173, 115.0 ] } },
{ "type": "Feature", "properties": { "value": 5.0622 }, "geometry": { "type": "Point", "coordinates": [ 129.339783, 35.484173, 115.0 ] } },
{ "type": "Feature", "properties": { "value": 1.7755 }, "geometry": { "type": "Point", "coordinates": [ 129.340897, 35.484169, 115.0 ] } },
{ "type": "Feature", "properties": { "value": 0.4948 }, "geometry": { "type": "Point", "coordinates": [ 129.341995, 35.484165, 115.0 ] } },
{ "type": "Feature", "properties": { "value": 0.6655 }, "geometry": { "type": "Point", "coordinates": [ 129.333176, 35.485092, 115.0 ] } },
{ "type": "Feature", "properties": { "value": 3.9842 }, "geometry": { "type": "Point", "coordinates": [ 129.334274, 35.485088, 115.0 ] } },
{ "type": "Feature", "properties": { "value": 11.876 }, "geometry": { "type": "Point", "coordinates": [ 129.335388, 35.485085, 115.0 ] } },
{ "type": "Feature", "properties": { "value": 20.538 }, "geometry": { "type": "Point", "coordinates": [ 129.336487, 35.485081, 115.0 ] } },
{ "type": "Feature", "properties": { "value": 22.709 }, "geometry": { "type": "Point", "coordinates": [ 129.337585, 35.485077, 115.0 ] } },
{ "type": "Feature", "properties": { "value": 17.474 }, "geometry": { "type": "Point", "coordinates": [ 129.338684, 35.485077, 115.0 ] } },
{ "type": "Feature", "properties": { "value": 10.06 }, "geometry": { "type": "Point", "coordinates": [ 129.339798, 35.485073, 115.0 ] } },
{ "type": "Feature", "properties": { "value": 4.6473 }, "geometry": { "type": "Point", "coordinates": [ 129.340897, 35.485069, 115.0 ] } },
{ "type": "Feature", "properties": { "value": 1.8337 }, "geometry": { "type": "Point", "coordinates": [ 129.341995, 35.485065, 115.0 ] } },
{ "type": "Feature", "properties": { "value": 0.6215 }, "geometry": { "type": "Point", "coordinates": [ 129.343094, 35.485062, 115.0 ] } },
{ "type": "Feature", "properties": { "value": 0.0835 }, "geometry": { "type": "Point", "coordinates": [ 129.344193, 35.485062, 115.0 ] } },
{ "type": "Feature", "properties": { "value": 0.1073 }, "geometry": { "type": "Point", "coordinates": [ 129.333176, 35.485992, 115.0 ] } },
{ "type": "Feature", "properties": { "value": 1.7512 }, "geometry": { "type": "Point", "coordinates": [ 129.33429, 35.485989, 115.0 ] } },
{ "type": "Feature", "properties": { "value": 6.4725 }, "geometry": { "type": "Point", "coordinates": [ 129.335388, 35.485985, 115.0 ] } },
{ "type": "Feature", "properties": { "value": 14.291 }, "geometry": { "type": "Point", "coordinates": [ 129.336487, 35.485981, 115.0 ] } },
{ "type": "Feature", "properties": { "value": 20.478 }, "geometry": { "type": "Point", "coordinates": [ 129.337585, 35.485981, 115.0 ] } },
{ "type": "Feature", "properties": { "value": 20.512 }, "geometry": { "type": "Point", "coordinates": [ 129.338699, 35.485977, 115.0 ] } },
{ "type": "Feature", "properties": { "value": 15.304 }, "geometry": { "type": "Point", "coordinates": [ 129.339798, 35.485973, 115.0 ] } },
{ "type": "Feature", "properties": { "value": 9.0889 }, "geometry": { "type": "Point", "coordinates": [ 129.340897, 35.48597, 115.0 ] } },
{ "type": "Feature", "properties": { "value": 4.5549 }, "geometry": { "type": "Point", "coordinates": [ 129.341995, 35.485966, 115.0 ] } },
{ "type": "Feature", "properties": { "value": 2.0207 }, "geometry": { "type": "Point", "coordinates": [ 129.343094, 35.485966, 115.0 ] } },
{ "type": "Feature", "properties": { "value": 0.8264 }, "geometry": { "type": "Point", "coordinates": [ 129.344208, 35.485962, 115.0 ] } },
{ "type": "Feature", "properties": { "value": 0.2828 }, "geometry": { "type": "Point", "coordinates": [ 129.345306, 35.485958, 115.0 ] } },
{ "type": "Feature", "properties": { "value": 0.6719 }, "geometry": { "type": "Point", "coordinates": [ 129.33429, 35.486889, 115.0 ] } },
{ "type": "Feature", "properties": { "value": 3.169 }, "geometry": { "type": "Point", "coordinates": [ 129.335388, 35.486889, 115.0 ] } },
{ "type": "Feature", "properties": { "value": 8.6586 }, "geometry": { "type": "Point", "coordinates": [ 129.336487, 35.486885, 115.0 ] } },
{ "type": "Feature", "properties": { "value": 15.56 }, "geometry": { "type": "Point", "coordinates": [ 129.337601, 35.486881, 115.0 ] } },
{ "type": "Feature", "properties": { "value": 19.694 }, "geometry": { "type": "Point", "coordinates": [ 129.338699, 35.486877, 115.0 ] } },
{ "type": "Feature", "properties": { "value": 18.597 }, "geometry": { "type": "Point", "coordinates": [ 129.339798, 35.486874, 115.0 ] } },
{ "type": "Feature", "properties": { "value": 13.868 }, "geometry": { "type": "Point", "coordinates": [ 129.340897, 35.486874, 115.0 ] } },
{ "type": "Feature", "properties": { "value": 8.628 }, "geometry": { "type": "Point", "coordinates": [ 129.341995, 35.48687, 115.0 ] } },
{ "type": "Feature", "properties": { "value": 4.7312 }, "geometry": { "type": "Point", "coordinates": [ 129.343109, 35.486866, 115.0 ] } },
{ "type": "Feature", "properties": { "value": 2.3718 }, "geometry": { "type": "Point", "coordinates": [ 129.344208, 35.486862, 115.0 ] } },
{ "type": "Feature", "properties": { "value": 1.1222 }, "geometry": { "type": "Point", "coordinates": [ 129.345306, 35.486858, 115.0 ] } },
{ "type": "Feature", "properties": { "value": 0.4987 }, "geometry": { "type": "Point", "coordinates": [ 129.346405, 35.486855, 115.0 ] } },
{ "type": "Feature", "properties": { "value": 0.172 }, "geometry": { "type": "Point", "coordinates": [ 129.347519, 35.486855, 115.0 ] } },
{ "type": "Feature", "properties": { "value": 0.0072 }, "geometry": { "type": "Point", "coordinates": [ 129.380569, 35.486752, 115.0 ] } },
{ "type": "Feature", "properties": { "value": 0.0089 }, "geometry": { "type": "Point", "coordinates": [ 129.381668, 35.486752, 115.0 ] } },
{ "type": "Feature", "properties": { "value": 0.1755 }, "geometry": { "type": "Point", "coordinates": [ 129.33429, 35.487793, 115.0 ] } },
{ "type": "Feature", "properties": { "value": 1.391 }, "geometry": { "type": "Point", "coordinates": [ 129.335388, 35.487789, 115.0 ] } },
{ "type": "Feature", "properties": { "value": 4.6455 }, "geometry": { "type": "Point", "coordinates": [ 129.336502, 35.487785, 115.0 ] } },
{ "type": "Feature", "properties": { "value": 10.217 }, "geometry": { "type": "Point", "coordinates": [ 129.337601, 35.487782, 115.0 ] } },
{ "type": "Feature", "properties": { "value": 15.936 }, "geometry": { "type": "Point", "coordinates": [ 129.338699, 35.487778, 115.0 ] } },
{ "type": "Feature", "properties": { "value": 18.589 }, "geometry": { "type": "Point", "coordinates": [ 129.339798, 35.487778, 115.0 ] } },
{ "type": "Feature", "properties": { "value": 17.066 }, "geometry": { "type": "Point", "coordinates": [ 129.340912, 35.487774, 115.0 ] } },
{ "type": "Feature", "properties": { "value": 13.006 }, "geometry": { "type": "Point", "coordinates": [ 129.34201, 35.48777, 115.0 ] } },
{ "type": "Feature", "properties": { "value": 8.6266 }, "geometry": { "type": "Point", "coordinates": [ 129.343109, 35.487766, 115.0 ] } },
{ "type": "Feature", "properties": { "value": 5.18 }, "geometry": { "type": "Point", "coordinates": [ 129.344208, 35.487762, 115.0 ] } },
{ "type": "Feature", "properties": { "value": 2.9009 }, "geometry": { "type": "Point", "coordinates": [ 129.345306, 35.487759, 115.0 ] } },
{ "type": "Feature", "properties": { "value": 1.5471 }, "geometry": { "type": "Point", "coordinates": [ 129.34642, 35.487759, 115.0 ] } },
{ "type": "Feature", "properties": { "value": 0.7761 }, "geometry": { "type": "Point", "coordinates": [ 129.347519, 35.487755, 115.0 ] } },
{ "type": "Feature", "properties": { "value": 0.3626 }, "geometry": { "type": "Point", "coordinates": [ 129.348618, 35.487751, 115.0 ] } },
{ "type": "Feature", "properties": { "value": 0.1133 }, "geometry": { "type": "Point", "coordinates": [ 129.349716, 35.487747, 115.0 ] } },
{ "type": "Feature", "properties": { "value": 0.0217 }, "geometry": { "type": "Point", "coordinates": [ 129.377274, 35.487663, 115.0 ] } },
{ "type": "Feature", "properties": { "value": 0.0322 }, "geometry": { "type": "Point", "coordinates": [ 129.378372, 35.487663, 115.0 ] } },
{ "type": "Feature", "properties": { "value": 0.0389 }, "geometry": { "type": "Point", "coordinates": [ 129.379471, 35.487659, 115.0 ] } },
{ "type": "Feature", "properties": { "value": 0.0402 }, "geometry": { "type": "Point", "coordinates": [ 129.380569, 35.487656, 115.0 ] } },
{ "type": "Feature", "properties": { "value": 0.0388 }, "geometry": { "type": "Point", "coordinates": [ 129.381683, 35.487652, 115.0 ] } },
{ "type": "Feature", "properties": { "value": 0.532 }, "geometry": { "type": "Point", "coordinates": [ 129.335403, 35.488689, 115.0 ] } },
{ "type": "Feature", "properties": { "value": 2.2269 }, "geometry": { "type": "Point", "coordinates": [ 129.336502, 35.488686, 115.0 ] } },
{ "type": "Feature", "properties": { "value": 5.8812 }, "geometry": { "type": "Point", "coordinates": [ 129.337601, 35.488682, 115.0 ] } },
{ "type": "Feature", "properties": { "value": 11.046 }, "geometry": { "type": "Point", "coordinates": [ 129.338699, 35.488682, 115.0 ] } },
{ "type": "Feature", "properties": { "value": 15.6 }, "geometry": { "type": "Point", "coordinates": [ 129.339813, 35.488678, 115.0 ] } },
{ "type": "Feature", "properties": { "value": 17.356 }, "geometry": { "type": "Point", "coordinates": [ 129.340912, 35.488674, 115.0 ] } },
{ "type": "Feature", "properties": { "value": 15.967 }, "geometry": { "type": "Point", "coordinates": [ 129.34201, 35.48867, 115.0 ] } },
{ "type": "Feature", "properties": { "value": 12.654 }, "geometry": { "type": "Point", "coordinates": [ 129.343109, 35.488667, 115.0 ] } },
{ "type": "Feature", "properties": { "value": 8.9793 }, "geometry": { "type": "Point", "coordinates": [ 129.344208, 35.488667, 115.0 ] } },
{ "type": "Feature", "properties": { "value": 5.8486 }, "geometry": { "type": "Point", "coordinates": [ 129.345322, 35.488663, 115.0 ] } },
{ "type": "Feature", "properties": { "value": 3.5667 }, "geometry": { "type": "Point", "coordinates": [ 129.34642, 35.488659, 115.0 ] } },
{ "type": "Feature", "properties": { "value": 2.0609 }, "geometry": { "type": "Point", "coordinates": [ 129.347519, 35.488655, 115.0 ] } },
{ "type": "Feature", "properties": { "value": 1.13 }, "geometry": { "type": "Point", "coordinates": [ 129.348618, 35.488651, 115.0 ] } },
{ "type": "Feature", "properties": { "value": 0.6021 }, "geometry": { "type": "Point", "coordinates": [ 129.349731, 35.488647, 115.0 ] } },
{ "type": "Feature", "properties": { "value": 0.2975 }, "geometry": { "type": "Point", "coordinates": [ 129.35083, 35.488647, 115.0 ] } },
{ "type": "Feature", "properties": { "value": 0.1174 }, "geometry": { "type": "Point", "coordinates": [ 129.351929, 35.488644, 115.0 ] } },
{ "type": "Feature", "properties": { "value": 0.0492 }, "geometry": { "type": "Point", "coordinates": [ 129.375076, 35.488571, 115.0 ] } },
{ "type": "Feature", "properties": { "value": 0.0722 }, "geometry": { "type": "Point", "coordinates": [ 129.376175, 35.488571, 115.0 ] } },
{ "type": "Feature", "properties": { "value": 0.0868 }, "geometry": { "type": "Point", "coordinates": [ 129.377274, 35.488567, 115.0 ] } },
{ "type": "Feature", "properties": { "value": 0.097 }, "geometry": { "type": "Point", "coordinates": [ 129.378372, 35.488564, 115.0 ] } },
{ "type": "Feature", "properties": { "value": 0.1042 }, "geometry": { "type": "Point", "coordinates": [ 129.379471, 35.48856, 115.0 ] } },
{ "type": "Feature", "properties": { "value": 0.1038 }, "geometry": { "type": "Point", "coordinates": [ 129.380585, 35.488556, 115.0 ] } },
{ "type": "Feature", "properties": { "value": 0.096 }, "geometry": { "type": "Point", "coordinates": [ 129.381683, 35.488552, 115.0 ] } },
{ "type": "Feature", "properties": { "value": 0.1057 }, "geometry": { "type": "Point", "coordinates": [ 129.335403, 35.48959, 115.0 ] } },
{ "type": "Feature", "properties": { "value": 0.9516 }, "geometry": { "type": "Point", "coordinates": [ 129.336502, 35.48959, 115.0 ] } },
{ "type": "Feature", "properties": { "value": 2.9885 }, "geometry": { "type": "Point", "coordinates": [ 129.337601, 35.489586, 115.0 ] } },
{ "type": "Feature", "properties": { "value": 6.6622 }, "geometry": { "type": "Point", "coordinates": [ 129.338715, 35.489582, 115.0 ] } },
{ "type": "Feature", "properties": { "value": 11.198 }, "geometry": { "type": "Point", "coordinates": [ 129.339813, 35.489578, 115.0 ] } },
{ "type": "Feature", "properties": { "value": 14.886 }, "geometry": { "type": "Point", "coordinates": [ 129.340912, 35.489574, 115.0 ] } },
{ "type": "Feature", "properties": { "value": 16.306 }, "geometry": { "type": "Point", "coordinates": [ 129.34201, 35.489571, 115.0 ] } },
{ "type": "Feature", "properties": { "value": 15.292 }, "geometry": { "type": "Point", "coordinates": [ 129.343109, 35.489571, 115.0 ] } },
{ "type": "Feature", "properties": { "value": 12.677 }, "geometry": { "type": "Point", "coordinates": [ 129.344223, 35.489567, 115.0 ] } },
{ "type": "Feature", "properties": { "value": 9.5284 }, "geometry": { "type": "Point", "coordinates": [ 129.345322, 35.489563, 115.0 ] } },
{ "type": "Feature", "properties": { "value": 6.6182 }, "geometry": { "type": "Point", "coordinates": [ 129.34642, 35.489559, 115.0 ] } },
{ "type": "Feature", "properties": { "value": 4.3032 }, "geometry": { "type": "Point", "coordinates": [ 129.347519, 35.489555, 115.0 ] } },
{ "type": "Feature", "properties": { "value": 2.6658 }, "geometry": { "type": "Point", "coordinates": [ 129.348633, 35.489555, 115.0 ] } },
{ "type": "Feature", "properties": { "value": 1.5919 }, "geometry": { "type": "Point", "coordinates": [ 129.349731, 35.489552, 115.0 ] } },
{ "type": "Feature", "properties": { "value": 0.9469 }, "geometry": { "type": "Point", "coordinates": [ 129.35083, 35.489548, 115.0 ] } },
{ "type": "Feature", "properties": { "value": 0.554 }, "geometry": { "type": "Point", "coordinates": [ 129.351929, 35.489544, 115.0 ] } },
{ "type": "Feature", "properties": { "value": 0.3203 }, "geometry": { "type": "Point", "coordinates": [ 129.353027, 35.48954, 115.0 ] } },
{ "type": "Feature", "properties": { "value": 0.1726 }, "geometry": { "type": "Point", "coordinates": [ 129.354141, 35.489536, 115.0 ] } },
{ "type": "Feature", "properties": { "value": 0.0636 }, "geometry": { "type": "Point", "coordinates": [ 129.35524, 35.489532, 115.0 ] } },
{ "type": "Feature", "properties": { "value": 0.0443 }, "geometry": { "type": "Point", "coordinates": [ 129.371765, 35.489483, 115.0 ] } },
{ "type": "Feature", "properties": { "value": 0.0894 }, "geometry": { "type": "Point", "coordinates": [ 129.372864, 35.489483, 115.0 ] } },
{ "type": "Feature", "properties": { "value": 0.1245 }, "geometry": { "type": "Point", "coordinates": [ 129.373978, 35.489479, 115.0 ] } },
{ "type": "Feature", "properties": { "value": 0.1529 }, "geometry": { "type": "Point", "coordinates": [ 129.375076, 35.489475, 115.0 ] } },
{ "type": "Feature", "properties": { "value": 0.1805 }, "geometry": { "type": "Point", "coordinates": [ 129.376175, 35.489471, 115.0 ] } },
{ "type": "Feature", "properties": { "value": 0.2028 }, "geometry": { "type": "Point", "coordinates": [ 129.377274, 35.489468, 115.0 ] } },
{ "type": "Feature", "properties": { "value": 0.2182 }, "geometry": { "type": "Point", "coordinates": [ 129.378387, 35.489464, 115.0 ] } },
{ "type": "Feature", "properties": { "value": 0.2254 }, "geometry": { "type": "Point", "coordinates": [ 129.379486, 35.48946, 115.0 ] } },
{ "type": "Feature", "properties": { "value": 0.2194 }, "geometry": { "type": "Point", "coordinates": [ 129.380585, 35.489456, 115.0 ] } },
{ "type": "Feature", "properties": { "value": 0.2004 }, "geometry": { "type": "Point", "coordinates": [ 129.381683, 35.489452, 115.0 ] } },
{ "type": "Feature", "properties": { "value": 0.3274 }, "geometry": { "type": "Point", "coordinates": [ 129.336502, 35.49049, 115.0 ] } },
{ "type": "Feature", "properties": { "value": 1.345 }, "geometry": { "type": "Point", "coordinates": [ 129.337616, 35.490486, 115.0 ] } },
{ "type": "Feature", "properties": { "value": 3.5315 }, "geometry": { "type": "Point", "coordinates": [ 129.338715, 35.490482, 115.0 ] } },
{ "type": "Feature", "properties": { "value": 6.9814 }, "geometry": { "type": "Point", "coordinates": [ 129.339813, 35.490479, 115.0 ] } },
{ "type": "Feature", "properties": { "value": 10.929 }, "geometry": { "type": "Point", "coordinates": [ 129.340912, 35.490479, 115.0 ] } },
{ "type": "Feature", "properties": { "value": 14.085 }, "geometry": { "type": "Point", "coordinates": [ 129.34201, 35.490475, 115.0 ] } },
{ "type": "Feature", "properties": { "value": 15.459 }, "geometry": { "type": "Point", "coordinates": [ 129.343124, 35.490471, 115.0 ] } },
{ "type": "Feature", "properties": { "value": 14.863 }, "geometry": { "type": "Point", "coordinates": [ 129.344223, 35.490467, 115.0 ] } },
{ "type": "Feature", "properties": { "value": 12.819 }, "geometry": { "type": "Point", "coordinates": [ 129.345322, 35.490463, 115.0 ] } },
{ "type": "Feature", "properties": { "value": 10.088 }, "geometry": { "type": "Point", "coordinates": [ 129.34642, 35.490459, 115.0 ] } },
{ "type": "Feature", "properties": { "value": 7.3833 }, "geometry": { "type": "Point", "coordinates": [ 129.347534, 35.490459, 115.0 ] } },
{ "type": "Feature", "properties": { "value": 5.1073 }, "geometry": { "type": "Point", "coordinates": [ 129.348633, 35.490456, 115.0 ] } },
{ "type": "Feature", "properties": { "value": 3.403 }, "geometry": { "type": "Point", "coordinates": [ 129.349731, 35.490452, 115.0 ] } },
{ "type": "Feature", "properties": { "value": 2.2239 }, "geometry": { "type": "Point", "coordinates": [ 129.35083, 35.490448, 115.0 ] } },
{ "type": "Feature", "properties": { "value": 1.4521 }, "geometry": { "type": "Point", "coordinates": [ 129.351929, 35.490444, 115.0 ] } },
{ "type": "Feature", "properties": { "value": 0.9455 }, "geometry": { "type": "Point", "coordinates": [ 129.353043, 35.49044, 115.0 ] } },
{ "type": "Feature", "properties": { "value": 0.6277 }, "geometry": { "type": "Point", "coordinates": [ 129.354141, 35.49044, 115.0 ] } },
{ "type": "Feature", "properties": { "value": 0.4229 }, "geometry": { "type": "Point", "coordinates": [ 129.35524, 35.490437, 115.0 ] } },
{ "type": "Feature", "properties": { "value": 0.2879 }, "geometry": { "type": "Point", "coordinates": [ 129.356339, 35.490433, 115.0 ] } },
{ "type": "Feature", "properties": { "value": 0.2018 }, "geometry": { "type": "Point", "coordinates": [ 129.357452, 35.490429, 115.0 ] } },
{ "type": "Feature", "properties": { "value": 0.145 }, "geometry": { "type": "Point", "coordinates": [ 129.358551, 35.490425, 115.0 ] } },
{ "type": "Feature", "properties": { "value": 0.1048 }, "geometry": { "type": "Point", "coordinates": [ 129.35965, 35.490421, 115.0 ] } },
{ "type": "Feature", "properties": { "value": 0.0748 }, "geometry": { "type": "Point", "coordinates": [ 129.360748, 35.490417, 115.0 ] } },
{ "type": "Feature", "properties": { "value": 0.0524 }, "geometry": { "type": "Point", "coordinates": [ 129.361847, 35.490417, 115.0 ] } },
{ "type": "Feature", "properties": { "value": 0.0336 }, "geometry": { "type": "Point", "coordinates": [ 129.362961, 35.490414, 115.0 ] } },
{ "type": "Feature", "properties": { "value": 0.0297 }, "geometry": { "type": "Point", "coordinates": [ 129.364059, 35.49041, 115.0 ] } },
{ "type": "Feature", "properties": { "value": 0.0371 }, "geometry": { "type": "Point", "coordinates": [ 129.365158, 35.490406, 115.0 ] } },
{ "type": "Feature", "properties": { "value": 0.0475 }, "geometry": { "type": "Point", "coordinates": [ 129.366257, 35.490402, 115.0 ] } },
{ "type": "Feature", "properties": { "value": 0.0644 }, "geometry": { "type": "Point", "coordinates": [ 129.367371, 35.490398, 115.0 ] } },
{ "type": "Feature", "properties": { "value": 0.0862 }, "geometry": { "type": "Point", "coordinates": [ 129.368469, 35.490395, 115.0 ] } },
{ "type": "Feature", "properties": { "value": 0.1153 }, "geometry": { "type": "Point", "coordinates": [ 129.369568, 35.490391, 115.0 ] } },
{ "type": "Feature", "properties": { "value": 0.1465 }, "geometry": { "type": "Point", "coordinates": [ 129.370667, 35.490391, 115.0 ] } },
{ "type": "Feature", "properties": { "value": 0.1903 }, "geometry": { "type": "Point", "coordinates": [ 129.371765, 35.490387, 115.0 ] } },
{ "type": "Feature", "properties": { "value": 0.2391 }, "geometry": { "type": "Point", "coordinates": [ 129.372879, 35.490383, 115.0 ] } },
{ "type": "Feature", "properties": { "value": 0.2855 }, "geometry": { "type": "Point", "coordinates": [ 129.373978, 35.490379, 115.0 ] } },
{ "type": "Feature", "properties": { "value": 0.3325 }, "geometry": { "type": "Point", "coordinates": [ 129.375076, 35.490376, 115.0 ] } },
{ "type": "Feature", "properties": { "value": 0.3763 }, "geometry": { "type": "Point", "coordinates": [ 129.376175, 35.490372, 115.0 ] } },
{ "type": "Feature", "properties": { "value": 0.41 }, "geometry": { "type": "Point", "coordinates": [ 129.377289, 35.490368, 115.0 ] } },
{ "type": "Feature", "properties": { "value": 0.4316 }, "geometry": { "type": "Point", "coordinates": [ 129.378387, 35.490364, 115.0 ] } },
{ "type": "Feature", "properties": { "value": 0.4346 }, "geometry": { "type": "Point", "coordinates": [ 129.379486, 35.49036, 115.0 ] } },
{ "type": "Feature", "properties": { "value": 0.4174 }, "geometry": { "type": "Point", "coordinates": [ 129.380585, 35.490356, 115.0 ] } },
{ "type": "Feature", "properties": { "value": 0.3774 }, "geometry": { "type": "Point", "coordinates": [ 129.381683, 35.490356, 115.0 ] } },
{ "type": "Feature", "properties": { "value": 0.5158 }, "geometry": { "type": "Point", "coordinates": [ 129.337616, 35.491386, 115.0 ] } },
{ "type": "Feature", "properties": { "value": 1.6487 }, "geometry": { "type": "Point", "coordinates": [ 129.338715, 35.491383, 115.0 ] } },
{ "type": "Feature", "properties": { "value": 3.8069 }, "geometry": { "type": "Point", "coordinates": [ 129.339813, 35.491383, 115.0 ] } },
{ "type": "Feature", "properties": { "value": 6.9509 }, "geometry": { "type": "Point", "coordinates": [ 129.340927, 35.491379, 115.0 ] } },
{ "type": "Feature", "properties": { "value": 10.43 }, "geometry": { "type": "Point", "coordinates": [ 129.342026, 35.491375, 115.0 ] } },
{ "type": "Feature", "properties": { "value": 13.266 }, "geometry": { "type": "Point", "coordinates": [ 129.343124, 35.491371, 115.0 ] } },
{ "type": "Feature", "properties": { "value": 14.67 }, "geometry": { "type": "Point", "coordinates": [ 129.344223, 35.491367, 115.0 ] } },
{ "type": "Feature", "properties": { "value": 14.424 }, "geometry": { "type": "Point", "coordinates": [ 129.345322, 35.491367, 115.0 ] } },
{ "type": "Feature", "properties": { "value": 12.855 }, "geometry": { "type": "Point", "coordinates": [ 129.346436, 35.491364, 115.0 ] } },
{ "type": "Feature", "properties": { "value": 10.56 }, "geometry": { "type": "Point", "coordinates": [ 129.347534, 35.49136, 115.0 ] } },
{ "type": "Feature", "properties": { "value": 8.1292 }, "geometry": { "type": "Point", "coordinates": [ 129.348633, 35.491356, 115.0 ] } },
{ "type": "Feature", "properties": { "value": 5.9962 }, "geometry": { "type": "Point", "coordinates": [ 129.349731, 35.491352, 115.0 ] } },
{ "type": "Feature", "properties": { "value": 4.3154 }, "geometry": { "type": "Point", "coordinates": [ 129.350845, 35.491348, 115.0 ] } },
{ "type": "Feature", "properties": { "value": 3.0628 }, "geometry": { "type": "Point", "coordinates": [ 129.351944, 35.491348, 115.0 ] } },
{ "type": "Feature", "properties": { "value": 2.1692 }, "geometry": { "type": "Point", "coordinates": [ 129.353043, 35.491344, 115.0 ] } },
{ "type": "Feature", "properties": { "value": 1.5494 }, "geometry": { "type": "Point", "coordinates": [ 129.354141, 35.491341, 115.0 ] } },
{ "type": "Feature", "properties": { "value": 1.1239 }, "geometry": { "type": "Point", "coordinates": [ 129.35524, 35.491337, 115.0 ] } },
{ "type": "Feature", "properties": { "value": 0.8314 }, "geometry": { "type": "Point", "coordinates": [ 129.356354, 35.491333, 115.0 ] } },
{ "type": "Feature", "properties": { "value": 0.6317 }, "geometry": { "type": "Point", "coordinates": [ 129.357452, 35.491329, 115.0 ] } },
{ "type": "Feature", "properties": { "value": 0.494 }, "geometry": { "type": "Point", "coordinates": [ 129.358551, 35.491325, 115.0 ] } },
{ "type": "Feature", "properties": { "value": 0.3944 }, "geometry": { "type": "Point", "coordinates": [ 129.35965, 35.491325, 115.0 ] } },
{ "type": "Feature", "properties": { "value": 0.3308 }, "geometry": { "type": "Point", "coordinates": [ 129.360764, 35.491322, 115.0 ] } },
{ "type": "Feature", "properties": { "value": 0.288 }, "geometry": { "type": "Point", "coordinates": [ 129.361862, 35.491318, 115.0 ] } },
{ "type": "Feature", "properties": { "value": 0.252 }, "geometry": { "type": "Point", "coordinates": [ 129.362961, 35.491314, 115.0 ] } },
{ "type": "Feature", "properties": { "value": 0.2384 }, "geometry": { "type": "Point", "coordinates": [ 129.364059, 35.49131, 115.0 ] } },
{ "type": "Feature", "properties": { "value": 0.2327 }, "geometry": { "type": "Point", "coordinates": [ 129.365158, 35.491306, 115.0 ] } },
{ "type": "Feature", "properties": { "value": 0.2369 }, "geometry": { "type": "Point", "coordinates": [ 129.366272, 35.491302, 115.0 ] } },
{ "type": "Feature", "properties": { "value": 0.2511 }, "geometry": { "type": "Point", "coordinates": [ 129.367371, 35.491299, 115.0 ] } },
{ "type": "Feature", "properties": { "value": 0.2753 }, "geometry": { "type": "Point", "coordinates": [ 129.368469, 35.491299, 115.0 ] } },
{ "type": "Feature", "properties": { "value": 0.3146 }, "geometry": { "type": "Point", "coordinates": [ 129.369568, 35.491295, 115.0 ] } },
{ "type": "Feature", "properties": { "value": 0.3664 }, "geometry": { "type": "Point", "coordinates": [ 129.370682, 35.491291, 115.0 ] } },
{ "type": "Feature", "properties": { "value": 0.4332 }, "geometry": { "type": "Point", "coordinates": [ 129.37178, 35.491287, 115.0 ] } },
{ "type": "Feature", "properties": { "value": 0.499 }, "geometry": { "type": "Point", "coordinates": [ 129.372879, 35.491283, 115.0 ] } },
{ "type": "Feature", "properties": { "value": 0.5719 }, "geometry": { "type": "Point", "coordinates": [ 129.373978, 35.49128, 115.0 ] } },
{ "type": "Feature", "properties": { "value": 0.6454 }, "geometry": { "type": "Point", "coordinates": [ 129.375076, 35.491276, 115.0 ] } },
{ "type": "Feature", "properties": { "value": 0.7075 }, "geometry": { "type": "Point", "coordinates": [ 129.37619, 35.491272, 115.0 ] } },
{ "type": "Feature", "properties": { "value": 0.7544 }, "geometry": { "type": "Point", "coordinates": [ 129.377289, 35.491268, 115.0 ] } },
{ "type": "Feature", "properties": { "value": 0.7781 }, "geometry": { "type": "Point", "coordinates": [ 129.378387, 35.491268, 115.0 ] } },
{ "type": "Feature", "properties": { "value": 0.77 }, "geometry": { "type": "Point", "coordinates": [ 129.379486, 35.491264, 115.0 ] } },
{ "type": "Feature", "properties": { "value": 0.7259 }, "geometry": { "type": "Point", "coordinates": [ 129.3806, 35.491261, 115.0 ] } },
{ "type": "Feature", "properties": { "value": 0.6528 }, "geometry": { "type": "Point", "coordinates": [ 129.381699, 35.491257, 115.0 ] } },
{ "type": "Feature", "properties": { "value": 0.1212 }, "geometry": { "type": "Point", "coordinates": [ 129.337616, 35.49229, 115.0 ] } },
{ "type": "Feature", "properties": { "value": 0.6631 }, "geometry": { "type": "Point", "coordinates": [ 129.338715, 35.492287, 115.0 ] } },
{ "type": "Feature", "properties": { "value": 1.827 }, "geometry": { "type": "Point", "coordinates": [ 129.339828, 35.492283, 115.0 ] } },
{ "type": "Feature", "properties": { "value": 3.8642 }, "geometry": { "type": "Point", "coordinates": [ 129.340927, 35.492279, 115.0 ] } },
{ "type": "Feature", "properties": { "value": 6.6828 }, "geometry": { "type": "Point", "coordinates": [ 129.342026, 35.492275, 115.0 ] } },
{ "type": "Feature", "properties": { "value": 9.772 }, "geometry": { "type": "Point", "coordinates": [ 129.343124, 35.492271, 115.0 ] } },
{ "type": "Feature", "properties": { "value": 12.339 }, "geometry": { "type": "Point", "coordinates": [ 129.344223, 35.492271, 115.0 ] } },
{ "type": "Feature", "properties": { "value": 13.759 }, "geometry": { "type": "Point", "coordinates": [ 129.345337, 35.492268, 115.0 ] } },
{ "type": "Feature", "properties": { "value": 13.813 }, "geometry": { "type": "Point", "coordinates": [ 129.346436, 35.492264, 115.0 ] } },
{ "type": "Feature", "properties": { "value": 12.706 }, "geometry": { "type": "Point", "coordinates": [ 129.347534, 35.49226, 115.0 ] } },
{ "type": "Feature", "properties": { "value": 10.902 }, "geometry": { "type": "Point", "coordinates": [ 129.348633, 35.492256, 115.0 ] } },
{ "type": "Feature", "properties": { "value": 8.8851 }, "geometry": { "type": "Point", "coordinates": [ 129.349747, 35.492252, 115.0 ] } },
{ "type": "Feature", "properties": { "value": 7.0024 }, "geometry": { "type": "Point", "coordinates": [ 129.350845, 35.492252, 115.0 ] } },
{ "type": "Feature", "properties": { "value": 5.3961 }, "geometry": { "type": "Point", "coordinates": [ 129.351944, 35.492249, 115.0 ] } },
{ "type": "Feature", "properties": { "value": 4.1151 }, "geometry": { "type": "Point", "coordinates": [ 129.353043, 35.492245, 115.0 ] } },
{ "type": "Feature", "properties": { "value": 3.1312 }, "geometry": { "type": "Point", "coordinates": [ 129.354141, 35.492241, 115.0 ] } },
{ "type": "Feature", "properties": { "value": 2.3973 }, "geometry": { "type": "Point", "coordinates": [ 129.355255, 35.492237, 115.0 ] } },
{ "type": "Feature", "properties": { "value": 1.8613 }, "geometry": { "type": "Point", "coordinates": [ 129.356354, 35.492233, 115.0 ] } },
{ "type": "Feature", "properties": { "value": 1.47 }, "geometry": { "type": "Point", "coordinates": [ 129.357452, 35.492233, 115.0 ] } },
{ "type": "Feature", "properties": { "value": 1.1821 }, "geometry": { "type": "Point", "coordinates": [ 129.358551, 35.492229, 115.0 ] } },
{ "type": "Feature", "properties": { "value": 0.9777 }, "geometry": { "type": "Point", "coordinates": [ 129.359665, 35.492226, 115.0 ] } },
{ "type": "Feature", "properties": { "value": 0.8315 }, "geometry": { "type": "Point", "coordinates": [ 129.360764, 35.492222, 115.0 ] } },
{ "type": "Feature", "properties": { "value": 0.7256 }, "geometry": { "type": "Point", "coordinates": [ 129.361862, 35.492218, 115.0 ] } },
{ "type": "Feature", "properties": { "value": 0.653 }, "geometry": { "type": "Point", "coordinates": [ 129.362961, 35.492214, 115.0 ] } },
{ "type": "Feature", "properties": { "value": 0.6004 }, "geometry": { "type": "Point", "coordinates": [ 129.364059, 35.49221, 115.0 ] } },
{ "type": "Feature", "properties": { "value": 0.5773 }, "geometry": { "type": "Point", "coordinates": [ 129.365173, 35.49221, 115.0 ] } },
{ "type": "Feature", "properties": { "value": 0.5729 }, "geometry": { "type": "Point", "coordinates": [ 129.366272, 35.492207, 115.0 ] } },
{ "type": "Feature", "properties": { "value": 0.588 }, "geometry": { "type": "Point", "coordinates": [ 129.367371, 35.492203, 115.0 ] } },
{ "type": "Feature", "properties": { "value": 0.6206 }, "geometry": { "type": "Point", "coordinates": [ 129.368469, 35.492199, 115.0 ] } },
{ "type": "Feature", "properties": { "value": 0.6781 }, "geometry": { "type": "Point", "coordinates": [ 129.369583, 35.492195, 115.0 ] } },
{ "type": "Feature", "properties": { "value": 0.7529 }, "geometry": { "type": "Point", "coordinates": [ 129.370682, 35.492191, 115.0 ] } },
{ "type": "Feature", "properties": { "value": 0.8415 }, "geometry": { "type": "Point", "coordinates": [ 129.37178, 35.492188, 115.0 ] } },
{ "type": "Feature", "properties": { "value": 0.941 }, "geometry": { "type": "Point", "coordinates": [ 129.372879, 35.492184, 115.0 ] } },
{ "type": "Feature", "properties": { "value": 1.0441 }, "geometry": { "type": "Point", "coordinates": [ 129.373978, 35.49218, 115.0 ] } },
{ "type": "Feature", "properties": { "value": 1.1456 }, "geometry": { "type": "Point", "coordinates": [ 129.375092, 35.49218, 115.0 ] } },
{ "type": "Feature", "properties": { "value": 1.2266 }, "geometry": { "type": "Point", "coordinates": [ 129.37619, 35.492176, 115.0 ] } },
{ "type": "Feature", "properties": { "value": 1.2829 }, "geometry": { "type": "Point", "coordinates": [ 129.377289, 35.492172, 115.0 ] } },
{ "type": "Feature", "properties": { "value": 1.2964 }, "geometry": { "type": "Point", "coordinates": [ 129.378387, 35.492168, 115.0 ] } },
{ "type": "Feature", "properties": { "value": 1.2598 }, "geometry": { "type": "Point", "coordinates": [ 129.379501, 35.492165, 115.0 ] } },
{ "type": "Feature", "properties": { "value": 1.1757 }, "geometry": { "type": "Point", "coordinates": [ 129.3806, 35.492161, 115.0 ] } },
{ "type": "Feature", "properties": { "value": 1.0459 }, "geometry": { "type": "Point", "coordinates": [ 129.381699, 35.492157, 115.0 ] } },
{ "type": "Feature", "properties": { "value": 0.2065 }, "geometry": { "type": "Point", "coordinates": [ 129.33873, 35.493187, 115.0 ] } },
{ "type": "Feature", "properties": { "value": 0.7613 }, "geometry": { "type": "Point", "coordinates": [ 129.339828, 35.493183, 115.0 ] } },
{ "type": "Feature", "properties": { "value": 1.8902 }, "geometry": { "type": "Point", "coordinates": [ 129.340927, 35.493179, 115.0 ] } },
{ "type": "Feature", "properties": { "value": 3.7581 }, "geometry": { "type": "Point", "coordinates": [ 129.342026, 35.493179, 115.0 ] } },
{ "type": "Feature", "properties": { "value": 6.2539 }, "geometry": { "type": "Point", "coordinates": [ 129.343124, 35.493176, 115.0 ] } },
{ "type": "Feature", "properties": { "value": 8.9582 }, "geometry": { "type": "Point", "coordinates": [ 129.344238, 35.493172, 115.0 ] } },
{ "type": "Feature", "properties": { "value": 11.277 }, "geometry": { "type": "Point", "coordinates": [ 129.345337, 35.493168, 115.0 ] } },
{ "type": "Feature", "properties": { "value": 12.701 }, "geometry": { "type": "Point", "coordinates": [ 129.346436, 35.493164, 115.0 ] } },
{ "type": "Feature", "properties": { "value": 13.04 }, "geometry": { "type": "Point", "coordinates": [ 129.347534, 35.49316, 115.0 ] } },
{ "type": "Feature", "properties": { "value": 12.434 }, "geometry": { "type": "Point", "coordinates": [ 129.348648, 35.49316, 115.0 ] } },
{ "type": "Feature", "properties": { "value": 11.206 }, "geometry": { "type": "Point", "coordinates": [ 129.349747, 35.493156, 115.0 ] } },
{ "type": "Feature", "properties": { "value": 9.6575 }, "geometry": { "type": "Point", "coordinates": [ 129.350845, 35.493153, 115.0 ] } },
{ "type": "Feature", "properties": { "value": 8.0695 }, "geometry": { "type": "Point", "coordinates": [ 129.351944, 35.493149, 115.0 ] } },
{ "type": "Feature", "properties": { "value": 6.611 }, "geometry": { "type": "Point", "coordinates": [ 129.353043, 35.493145, 115.0 ] } },
{ "type": "Feature", "properties": { "value": 5.3519 }, "geometry": { "type": "Point", "coordinates": [ 129.354156, 35.493141, 115.0 ] } },
{ "type": "Feature", "properties": { "value": 4.3178 }, "geometry": { "type": "Point", "coordinates": [ 129.355255, 35.493141, 115.0 ] } },
{ "type": "Feature", "properties": { "value": 3.4984 }, "geometry": { "type": "Point", "coordinates": [ 129.356354, 35.493137, 115.0 ] } },
{ "type": "Feature", "properties": { "value": 2.8636 }, "geometry": { "type": "Point", "coordinates": [ 129.357452, 35.493134, 115.0 ] } },
{ "type": "Feature", "properties": { "value": 2.379 }, "geometry": { "type": "Point", "coordinates": [ 129.358566, 35.49313, 115.0 ] } },
{ "type": "Feature", "properties": { "value": 2.0084 }, "geometry": { "type": "Point", "coordinates": [ 129.359665, 35.493126, 115.0 ] } },
{ "type": "Feature", "properties": { "value": 1.7307 }, "geometry": { "type": "Point", "coordinates": [ 129.360764, 35.493122, 115.0 ] } },
{ "type": "Feature", "properties": { "value": 1.521 }, "geometry": { "type": "Point", "coordinates": [ 129.361862, 35.493118, 115.0 ] } },
{ "type": "Feature", "properties": { "value": 1.3693 }, "geometry": { "type": "Point", "coordinates": [ 129.362961, 35.493118, 115.0 ] } },
{ "type": "Feature", "properties": { "value": 1.2635 }, "geometry": { "type": "Point", "coordinates": [ 129.364075, 35.493114, 115.0 ] } },
{ "type": "Feature", "properties": { "value": 1.2006 }, "geometry": { "type": "Point", "coordinates": [ 129.365173, 35.493111, 115.0 ] } },
{ "type": "Feature", "properties": { "value": 1.1724 }, "geometry": { "type": "Point", "coordinates": [ 129.366272, 35.493107, 115.0 ] } },
{ "type": "Feature", "properties": { "value": 1.1787 }, "geometry": { "type": "Point", "coordinates": [ 129.367371, 35.493103, 115.0 ] } },
{ "type": "Feature", "properties": { "value": 1.2138 }, "geometry": { "type": "Point", "coordinates": [ 129.368484, 35.493099, 115.0 ] } },
{ "type": "Feature", "properties": { "value": 1.28 }, "geometry": { "type": "Point", "coordinates": [ 129.369583, 35.493095, 115.0 ] } },
{ "type": "Feature", "properties": { "value": 1.3802 }, "geometry": { "type": "Point", "coordinates": [ 129.370682, 35.493092, 115.0 ] } },
{ "type": "Feature", "properties": { "value": 1.4943 }, "geometry": { "type": "Point", "coordinates": [ 129.37178, 35.493088, 115.0 ] } },
{ "type": "Feature", "properties": { "value": 1.6209 }, "geometry": { "type": "Point", "coordinates": [ 129.372894, 35.493088, 115.0 ] } },
{ "type": "Feature", "properties": { "value": 1.7538 }, "geometry": { "type": "Point", "coordinates": [ 129.373993, 35.493084, 115.0 ] } },
{ "type": "Feature", "properties": { "value": 1.8741 }, "geometry": { "type": "Point", "coordinates": [ 129.375092, 35.49308, 115.0 ] } },
{ "type": "Feature", "properties": { "value": 1.9691 }, "geometry": { "type": "Point", "coordinates": [ 129.37619, 35.493076, 115.0 ] } },
{ "type": "Feature", "properties": { "value": 2.0141 }, "geometry": { "type": "Point", "coordinates": [ 129.377289, 35.493073, 115.0 ] } },
{ "type": "Feature", "properties": { "value": 2.0026 }, "geometry": { "type": "Point", "coordinates": [ 129.378403, 35.493069, 115.0 ] } },
{ "type": "Feature", "properties": { "value": 1.9178 }, "geometry": { "type": "Point", "coordinates": [ 129.379501, 35.493065, 115.0 ] } },
{ "type": "Feature", "properties": { "value": 1.7647 }, "geometry": { "type": "Point", "coordinates": [ 129.3806, 35.493061, 115.0 ] } },
{ "type": "Feature", "properties": { "value": 1.5539 }, "geometry": { "type": "Point", "coordinates": [ 129.381699, 35.493057, 115.0 ] } },
{ "type": "Feature", "properties": { "value": 0.2512 }, "geometry": { "type": "Point", "coordinates": [ 129.339828, 35.494083, 115.0 ] } },
{ "type": "Feature", "properties": { "value": 0.8031 }, "geometry": { "type": "Point", "coordinates": [ 129.340927, 35.494083, 115.0 ] } },
{ "type": "Feature", "properties": { "value": 1.8643 }, "geometry": { "type": "Point", "coordinates": [ 129.342026, 35.49408, 115.0 ] } },
{ "type": "Feature", "properties": { "value": 3.5174 }, "geometry": { "type": "Point", "coordinates": [ 129.34314, 35.494076, 115.0 ] } },
{ "type": "Feature", "properties": { "value": 5.6947 }, "geometry": { "type": "Point", "coordinates": [ 129.344238, 35.494072, 115.0 ] } },
{ "type": "Feature", "properties": { "value": 8.035 }, "geometry": { "type": "Point", "coordinates": [ 129.345337, 35.494068, 115.0 ] } },
{ "type": "Feature", "properties": { "value": 10.11 }, "geometry": { "type": "Point", "coordinates": [ 129.346436, 35.494068, 115.0 ] } },
{ "type": "Feature", "properties": { "value": 11.555 }, "geometry": { "type": "Point", "coordinates": [ 129.347549, 35.494064, 115.0 ] } },
{ "type": "Feature", "properties": { "value": 12.218 }, "geometry": { "type": "Point", "coordinates": [ 129.348648, 35.494061, 115.0 ] } },
{ "type": "Feature", "properties": { "value": 12.095 }, "geometry": { "type": "Point", "coordinates": [ 129.349747, 35.494057, 115.0 ] } },
{ "type": "Feature", "properties": { "value": 11.378 }, "geometry": { "type": "Point", "coordinates": [ 129.350845, 35.494053, 115.0 ] } },
{ "type": "Feature", "properties": { "value": 10.318 }, "geometry": { "type": "Point", "coordinates": [ 129.351959, 35.494049, 115.0 ] } },
{ "type": "Feature", "properties": { "value": 9.0631 }, "geometry": { "type": "Point", "coordinates": [ 129.353058, 35.494049, 115.0 ] } },
{ "type": "Feature", "properties": { "value": 7.7976 }, "geometry": { "type": "Point", "coordinates": [ 129.354156, 35.494045, 115.0 ] } },
{ "type": "Feature", "properties": { "value": 6.6347 }, "geometry": { "type": "Point", "coordinates": [ 129.355255, 35.494041, 115.0 ] } },
{ "type": "Feature", "properties": { "value": 5.6253 }, "geometry": { "type": "Point", "coordinates": [ 129.356354, 35.494038, 115.0 ] } },
{ "type": "Feature", "properties": { "value": 4.783 }, "geometry": { "type": "Point", "coordinates": [ 129.357468, 35.494034, 115.0 ] } },
{ "type": "Feature", "properties": { "value": 4.0946 }, "geometry": { "type": "Point", "coordinates": [ 129.358566, 35.49403, 115.0 ] } },
{ "type": "Feature", "properties": { "value": 3.5459 }, "geometry": { "type": "Point", "coordinates": [ 129.359665, 35.494026, 115.0 ] } },
{ "type": "Feature", "properties": { "value": 3.1094 }, "geometry": { "type": "Point", "coordinates": [ 129.360764, 35.494026, 115.0 ] } },
{ "type": "Feature", "properties": { "value": 2.765 }, "geometry": { "type": "Point", "coordinates": [ 129.361877, 35.494022, 115.0 ] } },
{ "type": "Feature", "properties": { "value": 2.5017 }, "geometry": { "type": "Point", "coordinates": [ 129.362976, 35.494019, 115.0 ] } },
{ "type": "Feature", "properties": { "value": 2.3141 }, "geometry": { "type": "Point", "coordinates": [ 129.364075, 35.494015, 115.0 ] } },
{ "type": "Feature", "properties": { "value": 2.186 }, "geometry": { "type": "Point", "coordinates": [ 129.365173, 35.494011, 115.0 ] } },
{ "type": "Feature", "properties": { "value": 2.1137 }, "geometry": { "type": "Point", "coordinates": [ 129.366272, 35.494007, 115.0 ] } },
{ "type": "Feature", "properties": { "value": 2.0895 }, "geometry": { "type": "Point", "coordinates": [ 129.367386, 35.494003, 115.0 ] } },
{ "type": "Feature", "properties": { "value": 2.1132 }, "geometry": { "type": "Point", "coordinates": [ 129.368484, 35.493999, 115.0 ] } },
{ "type": "Feature", "properties": { "value": 2.1847 }, "geometry": { "type": "Point", "coordinates": [ 129.369583, 35.493999, 115.0 ] } },
{ "type": "Feature", "properties": { "value": 2.2917 }, "geometry": { "type": "Point", "coordinates": [ 129.370682, 35.493996, 115.0 ] } },
{ "type": "Feature", "properties": { "value": 2.4203 }, "geometry": { "type": "Point", "coordinates": [ 129.371796, 35.493992, 115.0 ] } },
{ "type": "Feature", "properties": { "value": 2.566 }, "geometry": { "type": "Point", "coordinates": [ 129.372894, 35.493988, 115.0 ] } },
{ "type": "Feature", "properties": { "value": 2.7128 }, "geometry": { "type": "Point", "coordinates": [ 129.373993, 35.493984, 115.0 ] } },
{ "type": "Feature", "properties": { "value": 2.835 }, "geometry": { "type": "Point", "coordinates": [ 129.375092, 35.49398, 115.0 ] } },
{ "type": "Feature", "properties": { "value": 2.9185 }, "geometry": { "type": "Point", "coordinates": [ 129.37619, 35.493977, 115.0 ] } },
{ "type": "Feature", "properties": { "value": 2.9325 }, "geometry": { "type": "Point", "coordinates": [ 129.377304, 35.493973, 115.0 ] } },
{ "type": "Feature", "properties": { "value": 2.8682 }, "geometry": { "type": "Point", "coordinates": [ 129.378403, 35.493969, 115.0 ] } },
{ "type": "Feature", "properties": { "value": 2.7072 }, "geometry": { "type": "Point", "coordinates": [ 129.379501, 35.493965, 115.0 ] } },
{ "type": "Feature", "properties": { "value": 2.4618 }, "geometry": { "type": "Point", "coordinates": [ 129.3806, 35.493965, 115.0 ] } },
{ "type": "Feature", "properties": { "value": 2.1434 }, "geometry": { "type": "Point", "coordinates": [ 129.381714, 35.493961, 115.0 ] } },
{ "type": "Feature", "properties": { "value": 0.28 }, "geometry": { "type": "Point", "coordinates": [ 129.340942, 35.494984, 115.0 ] } },
{ "type": "Feature", "properties": { "value": 0.8113 }, "geometry": { "type": "Point", "coordinates": [ 129.342041, 35.49498, 115.0 ] } },
{ "type": "Feature", "properties": { "value": 1.7485 }, "geometry": { "type": "Point", "coordinates": [ 129.34314, 35.494976, 115.0 ] } },
{ "type": "Feature", "properties": { "value": 3.1755 }, "geometry": { "type": "Point", "coordinates": [ 129.344238, 35.494972, 115.0 ] } },
{ "type": "Feature", "properties": { "value": 5.0181 }, "geometry": { "type": "Point", "coordinates": [ 129.345337, 35.494972, 115.0 ] } },
{ "type": "Feature", "properties": { "value": 7.0275 }, "geometry": { "type": "Point", "coordinates": [ 129.346451, 35.494968, 115.0 ] } },
{ "type": "Feature", "properties": { "value": 8.9005 }, "geometry": { "type": "Point", "coordinates": [ 129.347549, 35.494965, 115.0 ] } },
{ "type": "Feature", "properties": { "value": 10.38 }, "geometry": { "type": "Point", "coordinates": [ 129.348648, 35.494961, 115.0 ] } },
{ "type": "Feature", "properties": { "value": 11.258 }, "geometry": { "type": "Point", "coordinates": [ 129.349747, 35.494957, 115.0 ] } },
{ "type": "Feature", "properties": { "value": 11.539 }, "geometry": { "type": "Point", "coordinates": [ 129.350861, 35.494953, 115.0 ] } },
{ "type": "Feature", "properties": { "value": 11.304 }, "geometry": { "type": "Point", "coordinates": [ 129.351959, 35.494953, 115.0 ] } },
{ "type": "Feature", "properties": { "value": 10.632 }, "geometry": { "type": "Point", "coordinates": [ 129.353058, 35.494949, 115.0 ] } },
{ "type": "Feature", "properties": { "value": 9.7377 }, "geometry": { "type": "Point", "coordinates": [ 129.354156, 35.494946, 115.0 ] } },
{ "type": "Feature", "properties": { "value": 8.7501 }, "geometry": { "type": "Point", "coordinates": [ 129.355255, 35.494942, 115.0 ] } },
{ "type": "Feature", "properties": { "value": 7.777 }, "geometry": { "type": "Point", "coordinates": [ 129.356369, 35.494938, 115.0 ] } },
{ "type": "Feature", "properties": { "value": 6.8854 }, "geometry": { "type": "Point", "coordinates": [ 129.357468, 35.494934, 115.0 ] } },
{ "type": "Feature", "properties": { "value": 6.0935 }, "geometry": { "type": "Point", "coordinates": [ 129.358566, 35.494934, 115.0 ] } },
{ "type": "Feature", "properties": { "value": 5.417 }, "geometry": { "type": "Point", "coordinates": [ 129.359665, 35.49493, 115.0 ] } },
{ "type": "Feature", "properties": { "value": 4.8508 }, "geometry": { "type": "Point", "coordinates": [ 129.360779, 35.494926, 115.0 ] } },
{ "type": "Feature", "properties": { "value": 4.3814 }, "geometry": { "type": "Point", "coordinates": [ 129.361877, 35.494923, 115.0 ] } },
{ "type": "Feature", "properties": { "value": 4.0072 }, "geometry": { "type": "Point", "coordinates": [ 129.362976, 35.494919, 115.0 ] } },
{ "type": "Feature", "properties": { "value": 3.7244 }, "geometry": { "type": "Point", "coordinates": [ 129.364075, 35.494915, 115.0 ] } },
{ "type": "Feature", "properties": { "value": 3.5204 }, "geometry": { "type": "Point", "coordinates": [ 129.365173, 35.494911, 115.0 ] } },
{ "type": "Feature", "properties": { "value": 3.3871 }, "geometry": { "type": "Point", "coordinates": [ 129.366287, 35.494907, 115.0 ] } },
{ "type": "Feature", "properties": { "value": 3.3206 }, "geometry": { "type": "Point", "coordinates": [ 129.367386, 35.494907, 115.0 ] } },
{ "type": "Feature", "properties": { "value": 3.3144 }, "geometry": { "type": "Point", "coordinates": [ 129.368484, 35.494904, 115.0 ] } },
{ "type": "Feature", "properties": { "value": 3.3634 }, "geometry": { "type": "Point", "coordinates": [ 129.369583, 35.4949, 115.0 ] } },
{ "type": "Feature", "properties": { "value": 3.463 }, "geometry": { "type": "Point", "coordinates": [ 129.370697, 35.494896, 115.0 ] } },
{ "type": "Feature", "properties": { "value": 3.5865 }, "geometry": { "type": "Point", "coordinates": [ 129.371796, 35.494892, 115.0 ] } },
{ "type": "Feature", "properties": { "value": 3.7242 }, "geometry": { "type": "Point", "coordinates": [ 129.372894, 35.494888, 115.0 ] } },
{ "type": "Feature", "properties": { "value": 3.8597 }, "geometry": { "type": "Point", "coordinates": [ 129.373993, 35.494884, 115.0 ] } },
{ "type": "Feature", "properties": { "value": 3.9575 }, "geometry": { "type": "Point", "coordinates": [ 129.375107, 35.494881, 115.0 ] } },
{ "type": "Feature", "properties": { "value": 3.9983 }, "geometry": { "type": "Point", "coordinates": [ 129.376205, 35.494877, 115.0 ] } },
{ "type": "Feature", "properties": { "value": 3.9535 }, "geometry": { "type": "Point", "coordinates": [ 129.377304, 35.494877, 115.0 ] } },
{ "type": "Feature", "properties": { "value": 3.8055 }, "geometry": { "type": "Point", "coordinates": [ 129.378403, 35.494873, 115.0 ] } },
{ "type": "Feature", "properties": { "value": 3.5483 }, "geometry": { "type": "Point", "coordinates": [ 129.379501, 35.494869, 115.0 ] } },
{ "type": "Feature", "properties": { "value": 3.1889 }, "geometry": { "type": "Point", "coordinates": [ 129.380615, 35.494865, 115.0 ] } },
{ "type": "Feature", "properties": { "value": 2.7437 }, "geometry": { "type": "Point", "coordinates": [ 129.381714, 35.494862, 115.0 ] } },
{ "type": "Feature", "properties": { "value": 0.2946 }, "geometry": { "type": "Point", "coordinates": [ 129.342041, 35.49588, 115.0 ] } },
{ "type": "Feature", "properties": { "value": 0.7597 }, "geometry": { "type": "Point", "coordinates": [ 129.34314, 35.49588, 115.0 ] } },
{ "type": "Feature", "properties": { "value": 1.5611 }, "geometry": { "type": "Point", "coordinates": [ 129.344238, 35.495876, 115.0 ] } },
{ "type": "Feature", "properties": { "value": 2.7498 }, "geometry": { "type": "Point", "coordinates": [ 129.345352, 35.495872, 115.0 ] } },
{ "type": "Feature", "properties": { "value": 4.2649 }, "geometry": { "type": "Point", "coordinates": [ 129.346451, 35.495869, 115.0 ] } },
{ "type": "Feature", "properties": { "value": 5.964 }, "geometry": { "type": "Point", "coordinates": [ 129.347549, 35.495865, 115.0 ] } },
{ "type": "Feature", "properties": { "value": 7.643 }, "geometry": { "type": "Point", "coordinates": [ 129.348648, 35.495861, 115.0 ] } },
{ "type": "Feature", "properties": { "value": 9.0785 }, "geometry": { "type": "Point", "coordinates": [ 129.349762, 35.495861, 115.0 ] } },
{ "type": "Feature", "properties": { "value": 10.115 }, "geometry": { "type": "Point", "coordinates": [ 129.350861, 35.495857, 115.0 ] } },
{ "type": "Feature", "properties": { "value": 10.657 }, "geometry": { "type": "Point", "coordinates": [ 129.351959, 35.495853, 115.0 ] } },
{ "type": "Feature", "properties": { "value": 10.735 }, "geometry": { "type": "Point", "coordinates": [ 129.353058, 35.49585, 115.0 ] } },
{ "type": "Feature", "properties": { "value": 10.468 }, "geometry": { "type": "Point", "coordinates": [ 129.354156, 35.495846, 115.0 ] } },
{ "type": "Feature", "properties": { "value": 9.9512 }, "geometry": { "type": "Point", "coordinates": [ 129.35527, 35.495842, 115.0 ] } },
{ "type": "Feature", "properties": { "value": 9.3002 }, "geometry": { "type": "Point", "coordinates": [ 129.356369, 35.495838, 115.0 ] } },
{ "type": "Feature", "properties": { "value": 8.5863 }, "geometry": { "type": "Point", "coordinates": [ 129.357468, 35.495838, 115.0 ] } },
{ "type": "Feature", "properties": { "value": 7.8834 }, "geometry": { "type": "Point", "coordinates": [ 129.358566, 35.495834, 115.0 ] } },
{ "type": "Feature", "properties": { "value": 7.2183 }, "geometry": { "type": "Point", "coordinates": [ 129.35968, 35.495831, 115.0 ] } },
{ "type": "Feature", "properties": { "value": 6.6201 }, "geometry": { "type": "Point", "coordinates": [ 129.360779, 35.495827, 115.0 ] } },
{ "type": "Feature", "properties": { "value": 6.097 }, "geometry": { "type": "Point", "coordinates": [ 129.361877, 35.495823, 115.0 ] } },
{ "type": "Feature", "properties": { "value": 5.6601 }, "geometry": { "type": "Point", "coordinates": [ 129.362976, 35.495819, 115.0 ] } },
{ "type": "Feature", "properties": { "value": 5.3086 }, "geometry": { "type": "Point", "coordinates": [ 129.36409, 35.495815, 115.0 ] } },
{ "type": "Feature", "properties": { "value": 5.0391 }, "geometry": { "type": "Point", "coordinates": [ 129.365189, 35.495815, 115.0 ] } },
{ "type": "Feature", "properties": { "value": 4.8431 }, "geometry": { "type": "Point", "coordinates": [ 129.366287, 35.495811, 115.0 ] } },
{ "type": "Feature", "properties": { "value": 4.7261 }, "geometry": { "type": "Point", "coordinates": [ 129.367386, 35.495808, 115.0 ] } },
{ "type": "Feature", "properties": { "value": 4.6781 }, "geometry": { "type": "Point", "coordinates": [ 129.368484, 35.495804, 115.0 ] } },
{ "type": "Feature", "properties": { "value": 4.6937 }, "geometry": { "type": "Point", "coordinates": [ 129.369598, 35.4958, 115.0 ] } },
{ "type": "Feature", "properties": { "value": 4.7552 }, "geometry": { "type": "Point", "coordinates": [ 129.370697, 35.495796, 115.0 ] } },
{ "type": "Feature", "properties": { "value": 4.8506 }, "geometry": { "type": "Point", "coordinates": [ 129.371796, 35.495792, 115.0 ] } },
{ "type": "Feature", "properties": { "value": 4.9553 }, "geometry": { "type": "Point", "coordinates": [ 129.372894, 35.495789, 115.0 ] } },
{ "type": "Feature", "properties": { "value": 5.0422 }, "geometry": { "type": "Point", "coordinates": [ 129.374008, 35.495785, 115.0 ] } },
{ "type": "Feature", "properties": { "value": 5.0892 }, "geometry": { "type": "Point", "coordinates": [ 129.375107, 35.495785, 115.0 ] } },
{ "type": "Feature", "properties": { "value": 5.0569 }, "geometry": { "type": "Point", "coordinates": [ 129.376205, 35.495781, 115.0 ] } },
{ "type": "Feature", "properties": { "value": 4.9286 }, "geometry": { "type": "Point", "coordinates": [ 129.377304, 35.495777, 115.0 ] } },
{ "type": "Feature", "properties": { "value": 4.6791 }, "geometry": { "type": "Point", "coordinates": [ 129.378403, 35.495773, 115.0 ] } },
{ "type": "Feature", "properties": { "value": 4.311 }, "geometry": { "type": "Point", "coordinates": [ 129.379517, 35.49577, 115.0 ] } },
{ "type": "Feature", "properties": { "value": 3.8284 }, "geometry": { "type": "Point", "coordinates": [ 129.380615, 35.495766, 115.0 ] } },
{ "type": "Feature", "properties": { "value": 3.2678 }, "geometry": { "type": "Point", "coordinates": [ 129.381714, 35.495762, 115.0 ] } },
{ "type": "Feature", "properties": { "value": 0.2709 }, "geometry": { "type": "Point", "coordinates": [ 129.34314, 35.49678, 115.0 ] } },
{ "type": "Feature", "properties": { "value": 0.6558 }, "geometry": { "type": "Point", "coordinates": [ 129.344254, 35.496777, 115.0 ] } },
{ "type": "Feature", "properties": { "value": 1.3138 }, "geometry": { "type": "Point", "coordinates": [ 129.345352, 35.496773, 115.0 ] } },
{ "type": "Feature", "properties": { "value": 2.2669 }, "geometry": { "type": "Point", "coordinates": [ 129.346451, 35.496769, 115.0 ] } },
{ "type": "Feature", "properties": { "value": 3.4935 }, "geometry": { "type": "Point", "coordinates": [ 129.347549, 35.496765, 115.0 ] } },
{ "type": "Feature", "properties": { "value": 4.9087 }, "geometry": { "type": "Point", "coordinates": [ 129.348663, 35.496765, 115.0 ] } },
{ "type": "Feature", "properties": { "value": 6.3631 }, "geometry": { "type": "Point", "coordinates": [ 129.349762, 35.496761, 115.0 ] } },
{ "type": "Feature", "properties": { "value": 7.6809 }, "geometry": { "type": "Point", "coordinates": [ 129.350861, 35.496758, 115.0 ] } },
{ "type": "Feature", "properties": { "value": 8.7072 }, "geometry": { "type": "Point", "coordinates": [ 129.351959, 35.496754, 115.0 ] } },
{ "type": "Feature", "properties": { "value": 9.3947 }, "geometry": { "type": "Point", "coordinates": [ 129.353073, 35.49675, 115.0 ] } },
{ "type": "Feature", "properties": { "value": 9.7544 }, "geometry": { "type": "Point", "coordinates": [ 129.354172, 35.496746, 115.0 ] } },
{ "type": "Feature", "properties": { "value": 9.8267 }, "geometry": { "type": "Point", "coordinates": [ 129.35527, 35.496746, 115.0 ] } },
{ "type": "Feature", "properties": { "value": 9.6562 }, "geometry": { "type": "Point", "coordinates": [ 129.356369, 35.496742, 115.0 ] } },
{ "type": "Feature", "properties": { "value": 9.3248 }, "geometry": { "type": "Point", "coordinates": [ 129.357468, 35.496738, 115.0 ] } },
{ "type": "Feature", "properties": { "value": 8.8912 }, "geometry": { "type": "Point", "coordinates": [ 129.358582, 35.496735, 115.0 ] } },
{ "type": "Feature", "properties": { "value": 8.4147 }, "geometry": { "type": "Point", "coordinates": [ 129.35968, 35.496731, 115.0 ] } },
{ "type": "Feature", "properties": { "value": 7.9362 }, "geometry": { "type": "Point", "coordinates": [ 129.360779, 35.496727, 115.0 ] } },
{ "type": "Feature", "properties": { "value": 7.4768 }, "geometry": { "type": "Point", "coordinates": [ 129.361877, 35.496723, 115.0 ] } },
{ "type": "Feature", "properties": { "value": 7.0638 }, "geometry": { "type": "Point", "coordinates": [ 129.362991, 35.496723, 115.0 ] } },
{ "type": "Feature", "properties": { "value": 6.7089 }, "geometry": { "type": "Point", "coordinates": [ 129.36409, 35.496719, 115.0 ] } },
{ "type": "Feature", "properties": { "value": 6.4163 }, "geometry": { "type": "Point", "coordinates": [ 129.365189, 35.496716, 115.0 ] } },
{ "type": "Feature", "properties": { "value": 6.1896 }, "geometry": { "type": "Point", "coordinates": [ 129.366287, 35.496712, 115.0 ] } },
{ "type": "Feature", "properties": { "value": 6.0348 }, "geometry": { "type": "Point", "coordinates": [ 129.367386, 35.496708, 115.0 ] } },
{ "type": "Feature", "properties": { "value": 5.947 }, "geometry": { "type": "Point", "coordinates": [ 129.3685, 35.496704, 115.0 ] } },
{ "type": "Feature", "properties": { "value": 5.9182 }, "geometry": { "type": "Point", "coordinates": [ 129.369598, 35.4967, 115.0 ] } },
{ "type": "Feature", "properties": { "value": 5.9379 }, "geometry": { "type": "Point", "coordinates": [ 129.370697, 35.496696, 115.0 ] } },
{ "type": "Feature", "properties": { "value": 5.9815 }, "geometry": { "type": "Point", "coordinates": [ 129.371796, 35.496696, 115.0 ] } },
{ "type": "Feature", "properties": { "value": 6.0262 }, "geometry": { "type": "Point", "coordinates": [ 129.37291, 35.496693, 115.0 ] } },
{ "type": "Feature", "properties": { "value": 6.0515 }, "geometry": { "type": "Point", "coordinates": [ 129.374008, 35.496689, 115.0 ] } },
{ "type": "Feature", "properties": { "value": 6.0162 }, "geometry": { "type": "Point", "coordinates": [ 129.375107, 35.496685, 115.0 ] } },
{ "type": "Feature", "properties": { "value": 5.8992 }, "geometry": { "type": "Point", "coordinates": [ 129.376205, 35.496681, 115.0 ] } },
{ "type": "Feature", "properties": { "value": 5.6716 }, "geometry": { "type": "Point", "coordinates": [ 129.377319, 35.496677, 115.0 ] } },
{ "type": "Feature", "properties": { "value": 5.3221 }, "geometry": { "type": "Point", "coordinates": [ 129.378418, 35.496674, 115.0 ] } },
{ "type": "Feature", "properties": { "value": 4.8471 }, "geometry": { "type": "Point", "coordinates": [ 129.379517, 35.49667, 115.0 ] } },
{ "type": "Feature", "properties": { "value": 4.2664 }, "geometry": { "type": "Point", "coordinates": [ 129.380615, 35.496666, 115.0 ] } },
{ "type": "Feature", "properties": { "value": 3.6068 }, "geometry": { "type": "Point", "coordinates": [ 129.381714, 35.496662, 115.0 ] } },
{ "type": "Feature", "properties": { "value": 0.2252 }, "geometry": { "type": "Point", "coordinates": [ 129.344254, 35.497677, 115.0 ] } },
{ "type": "Feature", "properties": { "value": 0.5492 }, "geometry": { "type": "Point", "coordinates": [ 129.345352, 35.497673, 115.0 ] } },
{ "type": "Feature", "properties": { "value": 1.0556 }, "geometry": { "type": "Point", "coordinates": [ 129.346451, 35.497673, 115.0 ] } },
{ "type": "Feature", "properties": { "value": 1.7875 }, "geometry": { "type": "Point", "coordinates": [ 129.347565, 35.497669, 115.0 ] } },
{ "type": "Feature", "properties": { "value": 2.7488 }, "geometry": { "type": "Point", "coordinates": [ 129.348663, 35.497665, 115.0 ] } },
{ "type": "Feature", "properties": { "value": 3.8692 }, "geometry": { "type": "Point", "coordinates": [ 129.349762, 35.497662, 115.0 ] } },
{ "type": "Feature", "properties": { "value": 5.0579 }, "geometry": { "type": "Point", "coordinates": [ 129.350861, 35.497658, 115.0 ] } },
{ "type": "Feature", "properties": { "value": 6.185 }, "geometry": { "type": "Point", "coordinates": [ 129.351974, 35.497654, 115.0 ] } },
{ "type": "Feature", "properties": { "value": 7.1539 }, "geometry": { "type": "Point", "coordinates": [ 129.353073, 35.497654, 115.0 ] } },
{ "type": "Feature", "properties": { "value": 7.9253 }, "geometry": { "type": "Point", "coordinates": [ 129.354172, 35.49765, 115.0 ] } },
{ "type": "Feature", "properties": { "value": 8.4585 }, "geometry": { "type": "Point", "coordinates": [ 129.35527, 35.497646, 115.0 ] } },
{ "type": "Feature", "properties": { "value": 8.7513 }, "geometry": { "type": "Point", "coordinates": [ 129.356369, 35.497643, 115.0 ] } },
{ "type": "Feature", "properties": { "value": 8.8412 }, "geometry": { "type": "Point", "coordinates": [ 129.357483, 35.497639, 115.0 ] } },
{ "type": "Feature", "properties": { "value": 8.7781 }, "geometry": { "type": "Point", "coordinates": [ 129.358582, 35.497635, 115.0 ] } },
{ "type": "Feature", "properties": { "value": 8.6112 }, "geometry": { "type": "Point", "coordinates": [ 129.35968, 35.497631, 115.0 ] } },
{ "type": "Feature", "properties": { "value": 8.3686 }, "geometry": { "type": "Point", "coordinates": [ 129.360779, 35.497631, 115.0 ] } },
{ "type": "Feature", "properties": { "value": 8.092 }, "geometry": { "type": "Point", "coordinates": [ 129.361893, 35.497627, 115.0 ] } },
{ "type": "Feature", "properties": { "value": 7.8005 }, "geometry": { "type": "Point", "coordinates": [ 129.362991, 35.497623, 115.0 ] } },
{ "type": "Feature", "properties": { "value": 7.5267 }, "geometry": { "type": "Point", "coordinates": [ 129.36409, 35.49762, 115.0 ] } },
{ "type": "Feature", "properties": { "value": 7.2798 }, "geometry": { "type": "Point", "coordinates": [ 129.365189, 35.497616, 115.0 ] } },
{ "type": "Feature", "properties": { "value": 7.0717 }, "geometry": { "type": "Point", "coordinates": [ 129.366302, 35.497612, 115.0 ] } },
{ "type": "Feature", "properties": { "value": 6.9158 }, "geometry": { "type": "Point", "coordinates": [ 129.367401, 35.497608, 115.0 ] } },
{ "type": "Feature", "properties": { "value": 6.8086 }, "geometry": { "type": "Point", "coordinates": [ 129.3685, 35.497604, 115.0 ] } },
{ "type": "Feature", "properties": { "value": 6.7507 }, "geometry": { "type": "Point", "coordinates": [ 129.369598, 35.497604, 115.0 ] } },
{ "type": "Feature", "properties": { "value": 6.7282 }, "geometry": { "type": "Point", "coordinates": [ 129.370697, 35.497601, 115.0 ] } },
{ "type": "Feature", "properties": { "value": 6.7163 }, "geometry": { "type": "Point", "coordinates": [ 129.371811, 35.497597, 115.0 ] } },
{ "type": "Feature", "properties": { "value": 6.7011 }, "geometry": { "type": "Point", "coordinates": [ 129.37291, 35.497593, 115.0 ] } },
{ "type": "Feature", "properties": { "value": 6.6509 }, "geometry": { "type": "Point", "coordinates": [ 129.374008, 35.497589, 115.0 ] } },
{ "type": "Feature", "properties": { "value": 6.5359 }, "geometry": { "type": "Point", "coordinates": [ 129.375107, 35.497585, 115.0 ] } },
{ "type": "Feature", "properties": { "value": 6.3367 }, "geometry": { "type": "Point", "coordinates": [ 129.376221, 35.497581, 115.0 ] } },
{ "type": "Feature", "properties": { "value": 6.0224 }, "geometry": { "type": "Point", "coordinates": [ 129.377319, 35.497578, 115.0 ] } },
{ "type": "Feature", "properties": { "value": 5.5937 }, "geometry": { "type": "Point", "coordinates": [ 129.378418, 35.497574, 115.0 ] } },
{ "type": "Feature", "properties": { "value": 5.0434 }, "geometry": { "type": "Point", "coordinates": [ 129.379517, 35.497574, 115.0 ] } },
{ "type": "Feature", "properties": { "value": 4.4007 }, "geometry": { "type": "Point", "coordinates": [ 129.380615, 35.49757, 115.0 ] } },
{ "type": "Feature", "properties": { "value": 3.6916 }, "geometry": { "type": "Point", "coordinates": [ 129.381729, 35.497566, 115.0 ] } },
{ "type": "Feature", "properties": { "value": 0.1673 }, "geometry": { "type": "Point", "coordinates": [ 129.345352, 35.498577, 115.0 ] } },
{ "type": "Feature", "properties": { "value": 0.4106 }, "geometry": { "type": "Point", "coordinates": [ 129.346466, 35.498573, 115.0 ] } },
{ "type": "Feature", "properties": { "value": 0.7969 }, "geometry": { "type": "Point", "coordinates": [ 129.347565, 35.498569, 115.0 ] } },
{ "type": "Feature", "properties": { "value": 1.3374 }, "geometry": { "type": "Point", "coordinates": [ 129.348663, 35.498566, 115.0 ] } },
{ "type": "Feature", "properties": { "value": 2.057 }, "geometry": { "type": "Point", "coordinates": [ 129.349762, 35.498562, 115.0 ] } },
{ "type": "Feature", "properties": { "value": 2.9058 }, "geometry": { "type": "Point", "coordinates": [ 129.350876, 35.498562, 115.0 ] } },
{ "type": "Feature", "properties": { "value": 3.8308 }, "geometry": { "type": "Point", "coordinates": [ 129.351974, 35.498558, 115.0 ] } },
{ "type": "Feature", "properties": { "value": 4.7616 }, "geometry": { "type": "Point", "coordinates": [ 129.353073, 35.498554, 115.0 ] } },
{ "type": "Feature", "properties": { "value": 5.6244 }, "geometry": { "type": "Point", "coordinates": [ 129.354172, 35.49855, 115.0 ] } },
{ "type": "Feature", "properties": { "value": 6.3612 }, "geometry": { "type": "Point", "coordinates": [ 129.35527, 35.498547, 115.0 ] } },
{ "type": "Feature", "properties": { "value": 6.9361 }, "geometry": { "type": "Point", "coordinates": [ 129.356384, 35.498543, 115.0 ] } },
{ "type": "Feature", "properties": { "value": 7.3434 }, "geometry": { "type": "Point", "coordinates": [ 129.357483, 35.498539, 115.0 ] } },
{ "type": "Feature", "properties": { "value": 7.6132 }, "geometry": { "type": "Point", "coordinates": [ 129.358582, 35.498539, 115.0 ] } },
{ "type": "Feature", "properties": { "value": 7.7487 }, "geometry": { "type": "Point", "coordinates": [ 129.35968, 35.498535, 115.0 ] } },
{ "type": "Feature", "properties": { "value": 7.7859 }, "geometry": { "type": "Point", "coordinates": [ 129.360794, 35.498531, 115.0 ] } },
{ "type": "Feature", "properties": { "value": 7.7362 }, "geometry": { "type": "Point", "coordinates": [ 129.361893, 35.498528, 115.0 ] } },
{ "type": "Feature", "properties": { "value": 7.6393 }, "geometry": { "type": "Point", "coordinates": [ 129.362991, 35.498524, 115.0 ] } },
{ "type": "Feature", "properties": { "value": 7.5054 }, "geometry": { "type": "Point", "coordinates": [ 129.36409, 35.49852, 115.0 ] } },
{ "type": "Feature", "properties": { "value": 7.367 }, "geometry": { "type": "Point", "coordinates": [ 129.365204, 35.498516, 115.0 ] } },
{ "type": "Feature", "properties": { "value": 7.2293 }, "geometry": { "type": "Point", "coordinates": [ 129.366302, 35.498512, 115.0 ] } },
{ "type": "Feature", "properties": { "value": 7.1105 }, "geometry": { "type": "Point", "coordinates": [ 129.367401, 35.498512, 115.0 ] } },
{ "type": "Feature", "properties": { "value": 7.0218 }, "geometry": { "type": "Point", "coordinates": [ 129.3685, 35.498508, 115.0 ] } },
{ "type": "Feature", "properties": { "value": 6.9555 }, "geometry": { "type": "Point", "coordinates": [ 129.369598, 35.498505, 115.0 ] } },
{ "type": "Feature", "properties": { "value": 6.9125 }, "geometry": { "type": "Point", "coordinates": [ 129.370712, 35.498501, 115.0 ] } },
{ "type": "Feature", "properties": { "value": 6.8628 }, "geometry": { "type": "Point", "coordinates": [ 129.371811, 35.498497, 115.0 ] } },
{ "type": "Feature", "properties": { "value": 6.8005 }, "geometry": { "type": "Point", "coordinates": [ 129.37291, 35.498493, 115.0 ] } },
{ "type": "Feature", "properties": { "value": 6.692 }, "geometry": { "type": "Point", "coordinates": [ 129.374008, 35.498489, 115.0 ] } },
{ "type": "Feature", "properties": { "value": 6.5173 }, "geometry": { "type": "Point", "coordinates": [ 129.375122, 35.498486, 115.0 ] } },
{ "type": "Feature", "properties": { "value": 6.2602 }, "geometry": { "type": "Point", "coordinates": [ 129.376221, 35.498482, 115.0 ] } },
{ "type": "Feature", "properties": { "value": 5.8947 }, "geometry": { "type": "Point", "coordinates": [ 129.377319, 35.498482, 115.0 ] } },
{ "type": "Feature", "properties": { "value": 5.4266 }, "geometry": { "type": "Point", "coordinates": [ 129.378418, 35.498478, 115.0 ] } },
{ "type": "Feature", "properties": { "value": 4.8522 }, "geometry": { "type": "Point", "coordinates": [ 129.379532, 35.498474, 115.0 ] } },
{ "type": "Feature", "properties": { "value": 4.2025 }, "geometry": { "type": "Point", "coordinates": [ 129.38063, 35.49847, 115.0 ] } },
{ "type": "Feature", "properties": { "value": 3.5013 }, "geometry": { "type": "Point", "coordinates": [ 129.381729, 35.498466, 115.0 ] } },
{ "type": "Feature", "properties": { "value": 0.1023 }, "geometry": { "type": "Point", "coordinates": [ 129.346466, 35.499474, 115.0 ] } },
{ "type": "Feature", "properties": { "value": 0.291 }, "geometry": { "type": "Point", "coordinates": [ 129.347565, 35.49947, 115.0 ] } },
{ "type": "Feature", "properties": { "value": 0.5628 }, "geometry": { "type": "Point", "coordinates": [ 129.348663, 35.499466, 115.0 ] } },
{ "type": "Feature", "properties": { "value": 0.9514 }, "geometry": { "type": "Point", "coordinates": [ 129.349777, 35.499466, 115.0 ] } },
{ "type": "Feature", "properties": { "value": 1.4626 }, "geometry": { "type": "Point", "coordinates": [ 129.350876, 35.499462, 115.0 ] } },
{ "type": "Feature", "properties": { "value": 2.075 }, "geometry": { "type": "Point", "coordinates": [ 129.351974, 35.499458, 115.0 ] } },
{ "type": "Feature", "properties": { "value": 2.7653 }, "geometry": { "type": "Point", "coordinates": [ 129.353073, 35.499454, 115.0 ] } },
{ "type": "Feature", "properties": { "value": 3.4913 }, "geometry": { "type": "Point", "coordinates": [ 129.354187, 35.499451, 115.0 ] } },
{ "type": "Feature", "properties": { "value": 4.1841 }, "geometry": { "type": "Point", "coordinates": [ 129.355286, 35.499447, 115.0 ] } },
{ "type": "Feature", "properties": { "value": 4.8157 }, "geometry": { "type": "Point", "coordinates": [ 129.356384, 35.499447, 115.0 ] } },
{ "type": "Feature", "properties": { "value": 5.3627 }, "geometry": { "type": "Point", "coordinates": [ 129.357483, 35.499443, 115.0 ] } },
{ "type": "Feature", "properties": { "value": 5.8132 }, "geometry": { "type": "Point", "coordinates": [ 129.358582, 35.499439, 115.0 ] } },
{ "type": "Feature", "properties": { "value": 6.1551 }, "geometry": { "type": "Point", "coordinates": [ 129.359695, 35.499435, 115.0 ] } },
{ "type": "Feature", "properties": { "value": 6.4014 }, "geometry": { "type": "Point", "coordinates": [ 129.360794, 35.499432, 115.0 ] } },
{ "type": "Feature", "properties": { "value": 6.5582 }, "geometry": { "type": "Point", "coordinates": [ 129.361893, 35.499428, 115.0 ] } },
{ "type": "Feature", "properties": { "value": 6.6395 }, "geometry": { "type": "Point", "coordinates": [ 129.362991, 35.499424, 115.0 ] } },
{ "type": "Feature", "properties": { "value": 6.6685 }, "geometry": { "type": "Point", "coordinates": [ 129.364105, 35.499424, 115.0 ] } },
{ "type": "Feature", "properties": { "value": 6.6501 }, "geometry": { "type": "Point", "coordinates": [ 129.365204, 35.49942, 115.0 ] } },
{ "type": "Feature", "properties": { "value": 6.6138 }, "geometry": { "type": "Point", "coordinates": [ 129.366302, 35.499416, 115.0 ] } },
{ "type": "Feature", "properties": { "value": 6.5669 }, "geometry": { "type": "Point", "coordinates": [ 129.367401, 35.499413, 115.0 ] } },
{ "type": "Feature", "properties": { "value": 6.5206 }, "geometry": { "type": "Point", "coordinates": [ 129.368515, 35.499409, 115.0 ] } },
{ "type": "Feature", "properties": { "value": 6.4782 }, "geometry": { "type": "Point", "coordinates": [ 129.369614, 35.499405, 115.0 ] } },
{ "type": "Feature", "properties": { "value": 6.4349 }, "geometry": { "type": "Point", "coordinates": [ 129.370712, 35.499401, 115.0 ] } },
{ "type": "Feature", "properties": { "value": 6.3769 }, "geometry": { "type": "Point", "coordinates": [ 129.371811, 35.499397, 115.0 ] } },
{ "type": "Feature", "properties": { "value": 6.2884 }, "geometry": { "type": "Point", "coordinates": [ 129.37291, 35.499393, 115.0 ] } },
{ "type": "Feature", "properties": { "value": 6.1589 }, "geometry": { "type": "Point", "coordinates": [ 129.374023, 35.499393, 115.0 ] } },
{ "type": "Feature", "properties": { "value": 5.9595 }, "geometry": { "type": "Point", "coordinates": [ 129.375122, 35.49939, 115.0 ] } },
{ "type": "Feature", "properties": { "value": 5.6839 }, "geometry": { "type": "Point", "coordinates": [ 129.376221, 35.499386, 115.0 ] } },
{ "type": "Feature", "properties": { "value": 5.3137 }, "geometry": { "type": "Point", "coordinates": [ 129.377319, 35.499382, 115.0 ] } },
{ "type": "Feature", "properties": { "value": 4.8569 }, "geometry": { "type": "Point", "coordinates": [ 129.378433, 35.499378, 115.0 ] } },
{ "type": "Feature", "properties": { "value": 4.3134 }, "geometry": { "type": "Point", "coordinates": [ 129.379532, 35.499374, 115.0 ] } },
{ "type": "Feature", "properties": { "value": 3.7124 }, "geometry": { "type": "Point", "coordinates": [ 129.38063, 35.499371, 115.0 ] } },
{ "type": "Feature", "properties": { "value": 3.0757 }, "geometry": { "type": "Point", "coordinates": [ 129.381729, 35.499367, 115.0 ] } },
{ "type": "Feature", "properties": { "value": 0.0035 }, "geometry": { "type": "Point", "coordinates": [ 129.347565, 35.500374, 115.0 ] } },
{ "type": "Feature", "properties": { "value": 0.1829 }, "geometry": { "type": "Point", "coordinates": [ 129.348679, 35.50037, 115.0 ] } },
{ "type": "Feature", "properties": { "value": 0.3768 }, "geometry": { "type": "Point", "coordinates": [ 129.349777, 35.500366, 115.0 ] } },
{ "type": "Feature", "properties": { "value": 0.6427 }, "geometry": { "type": "Point", "coordinates": [ 129.350876, 35.500362, 115.0 ] } },
{ "type": "Feature", "properties": { "value": 0.9816 }, "geometry": { "type": "Point", "coordinates": [ 129.351974, 35.500359, 115.0 ] } },
{ "type": "Feature", "properties": { "value": 1.4177 }, "geometry": { "type": "Point", "coordinates": [ 129.353088, 35.500355, 115.0 ] } },
{ "type": "Feature", "properties": { "value": 1.9023 }, "geometry": { "type": "Point", "coordinates": [ 129.354187, 35.500355, 115.0 ] } },
{ "type": "Feature", "properties": { "value": 2.4223 }, "geometry": { "type": "Point", "coordinates": [ 129.355286, 35.500351, 115.0 ] } },
{ "type": "Feature", "properties": { "value": 2.9492 }, "geometry": { "type": "Point", "coordinates": [ 129.356384, 35.500347, 115.0 ] } },
{ "type": "Feature", "properties": { "value": 3.4552 }, "geometry": { "type": "Point", "coordinates": [ 129.357483, 35.500343, 115.0 ] } },
{ "type": "Feature", "properties": { "value": 3.9188 }, "geometry": { "type": "Point", "coordinates": [ 129.358597, 35.50034, 115.0 ] } },
{ "type": "Feature", "properties": { "value": 4.3224 }, "geometry": { "type": "Point", "coordinates": [ 129.359695, 35.500336, 115.0 ] } },
{ "type": "Feature", "properties": { "value": 4.6638 }, "geometry": { "type": "Point", "coordinates": [ 129.360794, 35.500332, 115.0 ] } },
{ "type": "Feature", "properties": { "value": 4.9348 }, "geometry": { "type": "Point", "coordinates": [ 129.361893, 35.500332, 115.0 ] } },
{ "type": "Feature", "properties": { "value": 5.1314 }, "geometry": { "type": "Point", "coordinates": [ 129.363007, 35.500328, 115.0 ] } },
{ "type": "Feature", "properties": { "value": 5.2773 }, "geometry": { "type": "Point", "coordinates": [ 129.364105, 35.500324, 115.0 ] } },
{ "type": "Feature", "properties": { "value": 5.3676 }, "geometry": { "type": "Point", "coordinates": [ 129.365204, 35.50032, 115.0 ] } },
{ "type": "Feature", "properties": { "value": 5.4211 }, "geometry": { "type": "Point", "coordinates": [ 129.366302, 35.500317, 115.0 ] } },
{ "type": "Feature", "properties": { "value": 5.445 }, "geometry": { "type": "Point", "coordinates": [ 129.367416, 35.500313, 115.0 ] } },
{ "type": "Feature", "properties": { "value": 5.454 }, "geometry": { "type": "Point", "coordinates": [ 129.368515, 35.500309, 115.0 ] } },
{ "type": "Feature", "properties": { "value": 5.4515 }, "geometry": { "type": "Point", "coordinates": [ 129.369614, 35.500305, 115.0 ] } },
{ "type": "Feature", "properties": { "value": 5.4312 }, "geometry": { "type": "Point", "coordinates": [ 129.370712, 35.500301, 115.0 ] } },
{ "type": "Feature", "properties": { "value": 5.3867 }, "geometry": { "type": "Point", "coordinates": [ 129.371811, 35.500301, 115.0 ] } },
{ "type": "Feature", "properties": { "value": 5.3053 }, "geometry": { "type": "Point", "coordinates": [ 129.372925, 35.500298, 115.0 ] } },
{ "type": "Feature", "properties": { "value": 5.1796 }, "geometry": { "type": "Point", "coordinates": [ 129.374023, 35.500294, 115.0 ] } },
{ "type": "Feature", "properties": { "value": 4.993 }, "geometry": { "type": "Point", "coordinates": [ 129.375122, 35.50029, 115.0 ] } },
{ "type": "Feature", "properties": { "value": 4.737 }, "geometry": { "type": "Point", "coordinates": [ 129.376221, 35.500286, 115.0 ] } },
{ "type": "Feature", "properties": { "value": 4.4084 }, "geometry": { "type": "Point", "coordinates": [ 129.377335, 35.500282, 115.0 ] } },
{ "type": "Feature", "properties": { "value": 4.0062 }, "geometry": { "type": "Point", "coordinates": [ 129.378433, 35.500278, 115.0 ] } },
{ "type": "Feature", "properties": { "value": 3.5406 }, "geometry": { "type": "Point", "coordinates": [ 129.379532, 35.500275, 115.0 ] } },
{ "type": "Feature", "properties": { "value": 3.031 }, "geometry": { "type": "Point", "coordinates": [ 129.38063, 35.500271, 115.0 ] } },
{ "type": "Feature", "properties": { "value": 2.5008 }, "geometry": { "type": "Point", "coordinates": [ 129.381744, 35.500267, 115.0 ] } },
{ "type": "Feature", "properties": { "value": 0.0958 }, "geometry": { "type": "Point", "coordinates": [ 129.349777, 35.501266, 115.0 ] } },
{ "type": "Feature", "properties": { "value": 0.2278 }, "geometry": { "type": "Point", "coordinates": [ 129.350876, 35.501263, 115.0 ] } },
{ "type": "Feature", "properties": { "value": 0.4007 }, "geometry": { "type": "Point", "coordinates": [ 129.35199, 35.501259, 115.0 ] } },
{ "type": "Feature", "properties": { "value": 0.6265 }, "geometry": { "type": "Point", "coordinates": [ 129.353088, 35.501259, 115.0 ] } },
{ "type": "Feature", "properties": { "value": 0.9103 }, "geometry": { "type": "Point", "coordinates": [ 129.354187, 35.501255, 115.0 ] } },
{ "type": "Feature", "properties": { "value": 1.2386 }, "geometry": { "type": "Point", "coordinates": [ 129.355286, 35.501251, 115.0 ] } },
{ "type": "Feature", "properties": { "value": 1.5943 }, "geometry": { "type": "Point", "coordinates": [ 129.3564, 35.501247, 115.0 ] } },
{ "type": "Feature", "properties": { "value": 1.9677 }, "geometry": { "type": "Point", "coordinates": [ 129.357498, 35.501244, 115.0 ] } },
{ "type": "Feature", "properties": { "value": 2.3438 }, "geometry": { "type": "Point", "coordinates": [ 129.358597, 35.50124, 115.0 ] } },
{ "type": "Feature", "properties": { "value": 2.7027 }, "geometry": { "type": "Point", "coordinates": [ 129.359695, 35.50124, 115.0 ] } },
{ "type": "Feature", "properties": { "value": 3.0274 }, "geometry": { "type": "Point", "coordinates": [ 129.360794, 35.501236, 115.0 ] } },
{ "type": "Feature", "properties": { "value": 3.3053 }, "geometry": { "type": "Point", "coordinates": [ 129.361908, 35.501232, 115.0 ] } },
{ "type": "Feature", "properties": { "value": 3.5367 }, "geometry": { "type": "Point", "coordinates": [ 129.363007, 35.501228, 115.0 ] } },
{ "type": "Feature", "properties": { "value": 3.7282 }, "geometry": { "type": "Point", "coordinates": [ 129.364105, 35.501225, 115.0 ] } },
{ "type": "Feature", "properties": { "value": 3.8722 }, "geometry": { "type": "Point", "coordinates": [ 129.365204, 35.501221, 115.0 ] } },
{ "type": "Feature", "properties": { "value": 3.9808 }, "geometry": { "type": "Point", "coordinates": [ 129.366318, 35.501217, 115.0 ] } },
{ "type": "Feature", "properties": { "value": 4.0599 }, "geometry": { "type": "Point", "coordinates": [ 129.367416, 35.501213, 115.0 ] } },
{ "type": "Feature", "properties": { "value": 4.1095 }, "geometry": { "type": "Point", "coordinates": [ 129.368515, 35.501213, 115.0 ] } },
{ "type": "Feature", "properties": { "value": 4.1425 }, "geometry": { "type": "Point", "coordinates": [ 129.369614, 35.501209, 115.0 ] } },
{ "type": "Feature", "properties": { "value": 4.1498 }, "geometry": { "type": "Point", "coordinates": [ 129.370728, 35.501205, 115.0 ] } },
{ "type": "Feature", "properties": { "value": 4.132 }, "geometry": { "type": "Point", "coordinates": [ 129.371826, 35.501202, 115.0 ] } },
{ "type": "Feature", "properties": { "value": 4.0774 }, "geometry": { "type": "Point", "coordinates": [ 129.372925, 35.501198, 115.0 ] } },
{ "type": "Feature", "properties": { "value": 3.9786 }, "geometry": { "type": "Point", "coordinates": [ 129.374023, 35.501194, 115.0 ] } },
{ "type": "Feature", "properties": { "value": 3.8288 }, "geometry": { "type": "Point", "coordinates": [ 129.375122, 35.50119, 115.0 ] } },
{ "type": "Feature", "properties": { "value": 3.6251 }, "geometry": { "type": "Point", "coordinates": [ 129.376236, 35.501186, 115.0 ] } },
{ "type": "Feature", "properties": { "value": 3.3639 }, "geometry": { "type": "Point", "coordinates": [ 129.377335, 35.501183, 115.0 ] } },
{ "type": "Feature", "properties": { "value": 3.0438 }, "geometry": { "type": "Point", "coordinates": [ 129.378433, 35.501179, 115.0 ] } },
{ "type": "Feature", "properties": { "value": 2.6821 }, "geometry": { "type": "Point", "coordinates": [ 129.379532, 35.501179, 115.0 ] } },
{ "type": "Feature", "properties": { "value": 2.2854 }, "geometry": { "type": "Point", "coordinates": [ 129.380646, 35.501175, 115.0 ] } },
{ "type": "Feature", "properties": { "value": 1.8813 }, "geometry": { "type": "Point", "coordinates": [ 129.381744, 35.501171, 115.0 ] } }
]
}
