{
"type": "FeatureCollection",
"features": [
{ "type": "Feature", "properties": { "value": 10.693 }, "geometry": { "type": "Point", "coordinates": [ 129.32756, 35.458969, 10.0 ] } },
{ "type": "Feature", "properties": { "value": 82.908 }, "geometry": { "type": "Point", "coordinates": [ 129.32756, 35.459869, 10.0 ] } },
{ "type": "Feature", "properties": { "value": 53.696 }, "geometry": { "type": "Point", "coordinates": [ 129.327576, 35.46077, 10.0 ] } },
{ "type": "Feature", "properties": { "value": 47.384 }, "geometry": { "type": "Point", "coordinates": [ 129.327576, 35.461674, 10.0 ] } },
{ "type": "Feature", "properties": { "value": 58.048 }, "geometry": { "type": "Point", "coordinates": [ 129.327576, 35.462574, 10.0 ] } },
{ "type": "Feature", "properties": { "value": 59.938 }, "geometry": { "type": "Point", "coordinates": [ 129.327576, 35.463474, 10.0 ] } },
{ "type": "Feature", "properties": { "value": 0.846 }, "geometry": { "type": "Point", "coordinates": [ 129.32869, 35.46347, 10.0 ] } },
{ "type": "Feature", "properties": { "value": 54.726 }, "geometry": { "type": "Point", "coordinates": [ 129.327591, 35.464375, 10.0 ] } },
{ "type": "Feature", "properties": { "value": 5.0774 }, "geometry": { "type": "Point", "coordinates": [ 129.32869, 35.464375, 10.0 ] } },
{ "type": "Feature", "properties": { "value": 36.423 }, "geometry": { "type": "Point", "coordinates": [ 129.327591, 35.465279, 10.0 ] } },
{ "type": "Feature", "properties": { "value": 8.3566 }, "geometry": { "type": "Point", "coordinates": [ 129.32869, 35.465275, 10.0 ] } },
{ "type": "Feature", "properties": { "value": 23.614 }, "geometry": { "type": "Point", "coordinates": [ 129.327591, 35.466179, 10.0 ] } },
{ "type": "Feature", "properties": { "value": 8.8656 }, "geometry": { "type": "Point", "coordinates": [ 129.32869, 35.466175, 10.0 ] } },
{ "type": "Feature", "properties": { "value": 19.576 }, "geometry": { "type": "Point", "coordinates": [ 129.327591, 35.467079, 10.0 ] } },
{ "type": "Feature", "properties": { "value": 10.847 }, "geometry": { "type": "Point", "coordinates": [ 129.328705, 35.467075, 10.0 ] } },
{ "type": "Feature", "properties": { "value": 18.229 }, "geometry": { "type": "Point", "coordinates": [ 129.327606, 35.467983, 10.0 ] } },
{ "type": "Feature", "properties": { "value": 13.296 }, "geometry": { "type": "Point", "coordinates": [ 129.328705, 35.467979, 10.0 ] } },
{ "type": "Feature", "properties": { "value": 19.901 }, "geometry": { "type": "Point", "coordinates": [ 129.327606, 35.468884, 10.0 ] } },
{ "type": "Feature", "properties": { "value": 16.966 }, "geometry": { "type": "Point", "coordinates": [ 129.328705, 35.46888, 10.0 ] } },
{ "type": "Feature", "properties": { "value": 25.895 }, "geometry": { "type": "Point", "coordinates": [ 129.327606, 35.469784, 10.0 ] } },
{ "type": "Feature", "properties": { "value": 23.4 }, "geometry": { "type": "Point", "coordinates": [ 129.328705, 35.46978, 10.0 ] } },
{ "type": "Feature", "properties": { "value": 0.3678 }, "geometry": { "type": "Point", "coordinates": [ 129.329819, 35.469776, 10.0 ] } },
{ "type": "Feature", "properties": { "value": 0.8345 }, "geometry": { "type": "Point", "coordinates": [ 129.326508, 35.470688, 10.0 ] } },
{ "type": "Feature", "properties": { "value": 34.42 }, "geometry": { "type": "Point", "coordinates": [ 129.327606, 35.470684, 10.0 ] } },
{ "type": "Feature", "properties": { "value": 36.92 }, "geometry": { "type": "Point", "coordinates": [ 129.32872, 35.470684, 10.0 ] } },
{ "type": "Feature", "properties": { "value": 1.441 }, "geometry": { "type": "Point", "coordinates": [ 129.329819, 35.47068, 10.0 ] } },
{ "type": "Feature", "properties": { "value": 1.703 }, "geometry": { "type": "Point", "coordinates": [ 129.326508, 35.471588, 10.0 ] } },
{ "type": "Feature", "properties": { "value": 49.675 }, "geometry": { "type": "Point", "coordinates": [ 129.327621, 35.471588, 10.0 ] } },
{ "type": "Feature", "properties": { "value": 70.328 }, "geometry": { "type": "Point", "coordinates": [ 129.32872, 35.471584, 10.0 ] } },
{ "type": "Feature", "properties": { "value": 4.256 }, "geometry": { "type": "Point", "coordinates": [ 129.329819, 35.471581, 10.0 ] } },
{ "type": "Feature", "properties": { "value": 2.9802 }, "geometry": { "type": "Point", "coordinates": [ 129.326523, 35.472492, 10.0 ] } },
{ "type": "Feature", "properties": { "value": 73.035 }, "geometry": { "type": "Point", "coordinates": [ 129.327621, 35.472488, 10.0 ] } },
{ "type": "Feature", "properties": { "value": 111.41 }, "geometry": { "type": "Point", "coordinates": [ 129.32872, 35.472485, 10.0 ] } },
{ "type": "Feature", "properties": { "value": 7.8348 }, "geometry": { "type": "Point", "coordinates": [ 129.329819, 35.472481, 10.0 ] } },
{ "type": "Feature", "properties": { "value": 4.4876 }, "geometry": { "type": "Point", "coordinates": [ 129.326523, 35.473392, 10.0 ] } },
{ "type": "Feature", "properties": { "value": 90.28 }, "geometry": { "type": "Point", "coordinates": [ 129.327621, 35.473389, 10.0 ] } },
{ "type": "Feature", "properties": { "value": 128.78 }, "geometry": { "type": "Point", "coordinates": [ 129.32872, 35.473385, 10.0 ] } },
{ "type": "Feature", "properties": { "value": 10.625 }, "geometry": { "type": "Point", "coordinates": [ 129.329819, 35.473385, 10.0 ] } },
{ "type": "Feature", "properties": { "value": 6.212 }, "geometry": { "type": "Point", "coordinates": [ 129.326523, 35.474293, 10.0 ] } },
{ "type": "Feature", "properties": { "value": 100.97 }, "geometry": { "type": "Point", "coordinates": [ 129.327621, 35.474289, 10.0 ] } },
{ "type": "Feature", "properties": { "value": 129.26 }, "geometry": { "type": "Point", "coordinates": [ 129.328735, 35.474289, 10.0 ] } },
{ "type": "Feature", "properties": { "value": 11.798 }, "geometry": { "type": "Point", "coordinates": [ 129.329834, 35.474285, 10.0 ] } },
{ "type": "Feature", "properties": { "value": 8.7205 }, "geometry": { "type": "Point", "coordinates": [ 129.326523, 35.475193, 10.0 ] } },
{ "type": "Feature", "properties": { "value": 105.39 }, "geometry": { "type": "Point", "coordinates": [ 129.327637, 35.475193, 10.0 ] } },
{ "type": "Feature", "properties": { "value": 122.12 }, "geometry": { "type": "Point", "coordinates": [ 129.328735, 35.475189, 10.0 ] } },
{ "type": "Feature", "properties": { "value": 11.761 }, "geometry": { "type": "Point", "coordinates": [ 129.329834, 35.475185, 10.0 ] } },
{ "type": "Feature", "properties": { "value": 11.741 }, "geometry": { "type": "Point", "coordinates": [ 129.326538, 35.476097, 10.0 ] } },
{ "type": "Feature", "properties": { "value": 98.371 }, "geometry": { "type": "Point", "coordinates": [ 129.327637, 35.476093, 10.0 ] } },
{ "type": "Feature", "properties": { "value": 104.05 }, "geometry": { "type": "Point", "coordinates": [ 129.328735, 35.476089, 10.0 ] } },
{ "type": "Feature", "properties": { "value": 11.008 }, "geometry": { "type": "Point", "coordinates": [ 129.329834, 35.476086, 10.0 ] } },
{ "type": "Feature", "properties": { "value": 14.395 }, "geometry": { "type": "Point", "coordinates": [ 129.326538, 35.476997, 10.0 ] } },
{ "type": "Feature", "properties": { "value": 81.087 }, "geometry": { "type": "Point", "coordinates": [ 129.327637, 35.476994, 10.0 ] } },
{ "type": "Feature", "properties": { "value": 77.673 }, "geometry": { "type": "Point", "coordinates": [ 129.328735, 35.47699, 10.0 ] } },
{ "type": "Feature", "properties": { "value": 9.7772 }, "geometry": { "type": "Point", "coordinates": [ 129.329834, 35.47699, 10.0 ] } },
{ "type": "Feature", "properties": { "value": 15.883 }, "geometry": { "type": "Point", "coordinates": [ 129.326538, 35.477898, 10.0 ] } },
{ "type": "Feature", "properties": { "value": 66.322 }, "geometry": { "type": "Point", "coordinates": [ 129.327637, 35.477894, 10.0 ] } },
{ "type": "Feature", "properties": { "value": 57.629 }, "geometry": { "type": "Point", "coordinates": [ 129.328735, 35.477894, 10.0 ] } },
{ "type": "Feature", "properties": { "value": 8.448 }, "geometry": { "type": "Point", "coordinates": [ 129.329849, 35.47789, 10.0 ] } },
{ "type": "Feature", "properties": { "value": 0.1715 }, "geometry": { "type": "Point", "coordinates": [ 129.325439, 35.478802, 10.0 ] } },
{ "type": "Feature", "properties": { "value": 17.597 }, "geometry": { "type": "Point", "coordinates": [ 129.326538, 35.478798, 10.0 ] } },
{ "type": "Feature", "properties": { "value": 62.78 }, "geometry": { "type": "Point", "coordinates": [ 129.327637, 35.478798, 10.0 ] } },
{ "type": "Feature", "properties": { "value": 48.989 }, "geometry": { "type": "Point", "coordinates": [ 129.328751, 35.478794, 10.0 ] } },
{ "type": "Feature", "properties": { "value": 7.633 }, "geometry": { "type": "Point", "coordinates": [ 129.329849, 35.47879, 10.0 ] } },
{ "type": "Feature", "properties": { "value": 1.4407 }, "geometry": { "type": "Point", "coordinates": [ 129.325439, 35.479706, 10.0 ] } },
{ "type": "Feature", "properties": { "value": 23.262 }, "geometry": { "type": "Point", "coordinates": [ 129.326553, 35.479702, 10.0 ] } },
{ "type": "Feature", "properties": { "value": 75.101 }, "geometry": { "type": "Point", "coordinates": [ 129.327652, 35.479698, 10.0 ] } },
{ "type": "Feature", "properties": { "value": 50.524 }, "geometry": { "type": "Point", "coordinates": [ 129.328751, 35.479694, 10.0 ] } },
{ "type": "Feature", "properties": { "value": 7.1295 }, "geometry": { "type": "Point", "coordinates": [ 129.329849, 35.479691, 10.0 ] } },
{ "type": "Feature", "properties": { "value": 3.0666 }, "geometry": { "type": "Point", "coordinates": [ 129.325455, 35.480606, 10.0 ] } },
{ "type": "Feature", "properties": { "value": 35.845 }, "geometry": { "type": "Point", "coordinates": [ 129.326553, 35.480602, 10.0 ] } },
{ "type": "Feature", "properties": { "value": 95.568 }, "geometry": { "type": "Point", "coordinates": [ 129.327652, 35.480598, 10.0 ] } },
{ "type": "Feature", "properties": { "value": 54.043 }, "geometry": { "type": "Point", "coordinates": [ 129.328751, 35.480595, 10.0 ] } },
{ "type": "Feature", "properties": { "value": 6.7752 }, "geometry": { "type": "Point", "coordinates": [ 129.329849, 35.480595, 10.0 ] } },
{ "type": "Feature", "properties": { "value": 6.2142 }, "geometry": { "type": "Point", "coordinates": [ 129.325455, 35.481506, 10.0 ] } },
{ "type": "Feature", "properties": { "value": 50.014 }, "geometry": { "type": "Point", "coordinates": [ 129.326553, 35.481503, 10.0 ] } },
{ "type": "Feature", "properties": { "value": 99.885 }, "geometry": { "type": "Point", "coordinates": [ 129.327652, 35.481503, 10.0 ] } },
{ "type": "Feature", "properties": { "value": 48.207 }, "geometry": { "type": "Point", "coordinates": [ 129.328751, 35.481499, 10.0 ] } },
{ "type": "Feature", "properties": { "value": 5.9314 }, "geometry": { "type": "Point", "coordinates": [ 129.329865, 35.481495, 10.0 ] } },
{ "type": "Feature", "properties": { "value": 10.346 }, "geometry": { "type": "Point", "coordinates": [ 129.325455, 35.482407, 10.0 ] } },
{ "type": "Feature", "properties": { "value": 58.627 }, "geometry": { "type": "Point", "coordinates": [ 129.326553, 35.482407, 10.0 ] } },
{ "type": "Feature", "properties": { "value": 89.468 }, "geometry": { "type": "Point", "coordinates": [ 129.327652, 35.482403, 10.0 ] } },
{ "type": "Feature", "properties": { "value": 38.831 }, "geometry": { "type": "Point", "coordinates": [ 129.328766, 35.482399, 10.0 ] } },
{ "type": "Feature", "properties": { "value": 5.0406 }, "geometry": { "type": "Point", "coordinates": [ 129.329865, 35.482395, 10.0 ] } },
{ "type": "Feature", "properties": { "value": 15.217 }, "geometry": { "type": "Point", "coordinates": [ 129.325455, 35.483311, 10.0 ] } },
{ "type": "Feature", "properties": { "value": 64.248 }, "geometry": { "type": "Point", "coordinates": [ 129.326553, 35.483307, 10.0 ] } },
{ "type": "Feature", "properties": { "value": 84.996 }, "geometry": { "type": "Point", "coordinates": [ 129.327667, 35.483303, 10.0 ] } },
{ "type": "Feature", "properties": { "value": 36.045 }, "geometry": { "type": "Point", "coordinates": [ 129.328766, 35.483299, 10.0 ] } },
{ "type": "Feature", "properties": { "value": 4.5596 }, "geometry": { "type": "Point", "coordinates": [ 129.329865, 35.483295, 10.0 ] } },
{ "type": "Feature", "properties": { "value": 1.6654 }, "geometry": { "type": "Point", "coordinates": [ 129.324356, 35.484215, 10.0 ] } },
{ "type": "Feature", "properties": { "value": 21.651 }, "geometry": { "type": "Point", "coordinates": [ 129.325455, 35.484211, 10.0 ] } },
{ "type": "Feature", "properties": { "value": 73.329 }, "geometry": { "type": "Point", "coordinates": [ 129.326569, 35.484207, 10.0 ] } },
{ "type": "Feature", "properties": { "value": 88.8 }, "geometry": { "type": "Point", "coordinates": [ 129.327667, 35.484203, 10.0 ] } },
{ "type": "Feature", "properties": { "value": 35.47 }, "geometry": { "type": "Point", "coordinates": [ 129.328766, 35.484203, 10.0 ] } },
{ "type": "Feature", "properties": { "value": 4.0838 }, "geometry": { "type": "Point", "coordinates": [ 129.329865, 35.4842, 10.0 ] } },
{ "type": "Feature", "properties": { "value": 3.7689 }, "geometry": { "type": "Point", "coordinates": [ 129.324371, 35.485115, 10.0 ] } },
{ "type": "Feature", "properties": { "value": 30.065 }, "geometry": { "type": "Point", "coordinates": [ 129.32547, 35.485111, 10.0 ] } },
{ "type": "Feature", "properties": { "value": 82.184 }, "geometry": { "type": "Point", "coordinates": [ 129.326569, 35.485107, 10.0 ] } },
{ "type": "Feature", "properties": { "value": 85.377 }, "geometry": { "type": "Point", "coordinates": [ 129.327667, 35.485107, 10.0 ] } },
{ "type": "Feature", "properties": { "value": 29.823 }, "geometry": { "type": "Point", "coordinates": [ 129.328766, 35.485104, 10.0 ] } },
{ "type": "Feature", "properties": { "value": 3.2755 }, "geometry": { "type": "Point", "coordinates": [ 129.32988, 35.4851, 10.0 ] } },
{ "type": "Feature", "properties": { "value": 6.6338 }, "geometry": { "type": "Point", "coordinates": [ 129.324371, 35.486015, 10.0 ] } },
{ "type": "Feature", "properties": { "value": 37.437 }, "geometry": { "type": "Point", "coordinates": [ 129.32547, 35.486012, 10.0 ] } },
{ "type": "Feature", "properties": { "value": 83.198 }, "geometry": { "type": "Point", "coordinates": [ 129.326569, 35.486012, 10.0 ] } },
{ "type": "Feature", "properties": { "value": 71.969 }, "geometry": { "type": "Point", "coordinates": [ 129.327667, 35.486008, 10.0 ] } },
{ "type": "Feature", "properties": { "value": 22.086 }, "geometry": { "type": "Point", "coordinates": [ 129.328781, 35.486004, 10.0 ] } },
{ "type": "Feature", "properties": { "value": 2.3991 }, "geometry": { "type": "Point", "coordinates": [ 129.32988, 35.486, 10.0 ] } },
{ "type": "Feature", "properties": { "value": 0.3623 }, "geometry": { "type": "Point", "coordinates": [ 129.323273, 35.486919, 10.0 ] } },
{ "type": "Feature", "properties": { "value": 8.7645 }, "geometry": { "type": "Point", "coordinates": [ 129.324371, 35.486916, 10.0 ] } },
{ "type": "Feature", "properties": { "value": 38.806 }, "geometry": { "type": "Point", "coordinates": [ 129.32547, 35.486916, 10.0 ] } },
{ "type": "Feature", "properties": { "value": 73.922 }, "geometry": { "type": "Point", "coordinates": [ 129.326569, 35.486912, 10.0 ] } },
{ "type": "Feature", "properties": { "value": 56.156 }, "geometry": { "type": "Point", "coordinates": [ 129.327682, 35.486908, 10.0 ] } },
{ "type": "Feature", "properties": { "value": 16.01 }, "geometry": { "type": "Point", "coordinates": [ 129.328781, 35.486904, 10.0 ] } },
{ "type": "Feature", "properties": { "value": 1.6892 }, "geometry": { "type": "Point", "coordinates": [ 129.32988, 35.486904, 10.0 ] } },
{ "type": "Feature", "properties": { "value": 0.7884 }, "geometry": { "type": "Point", "coordinates": [ 129.323273, 35.48782, 10.0 ] } },
{ "type": "Feature", "properties": { "value": 8.1632 }, "geometry": { "type": "Point", "coordinates": [ 129.324371, 35.48782, 10.0 ] } },
{ "type": "Feature", "properties": { "value": 31.616 }, "geometry": { "type": "Point", "coordinates": [ 129.32547, 35.487816, 10.0 ] } },
{ "type": "Feature", "properties": { "value": 53.945 }, "geometry": { "type": "Point", "coordinates": [ 129.326584, 35.487812, 10.0 ] } },
{ "type": "Feature", "properties": { "value": 37.297 }, "geometry": { "type": "Point", "coordinates": [ 129.327682, 35.487808, 10.0 ] } },
{ "type": "Feature", "properties": { "value": 10.04 }, "geometry": { "type": "Point", "coordinates": [ 129.328781, 35.487808, 10.0 ] } },
{ "type": "Feature", "properties": { "value": 0.9823 }, "geometry": { "type": "Point", "coordinates": [ 129.32988, 35.487804, 10.0 ] } },
{ "type": "Feature", "properties": { "value": 0.492 }, "geometry": { "type": "Point", "coordinates": [ 129.323273, 35.488724, 10.0 ] } },
{ "type": "Feature", "properties": { "value": 4.9983 }, "geometry": { "type": "Point", "coordinates": [ 129.324371, 35.48872, 10.0 ] } },
{ "type": "Feature", "properties": { "value": 18.077 }, "geometry": { "type": "Point", "coordinates": [ 129.325485, 35.488716, 10.0 ] } },
{ "type": "Feature", "properties": { "value": 27.922 }, "geometry": { "type": "Point", "coordinates": [ 129.326584, 35.488712, 10.0 ] } },
{ "type": "Feature", "properties": { "value": 17.643 }, "geometry": { "type": "Point", "coordinates": [ 129.327682, 35.488712, 10.0 ] } },
{ "type": "Feature", "properties": { "value": 4.4154 }, "geometry": { "type": "Point", "coordinates": [ 129.328781, 35.488708, 10.0 ] } },
{ "type": "Feature", "properties": { "value": 0.3227 }, "geometry": { "type": "Point", "coordinates": [ 129.329895, 35.488705, 10.0 ] } },
{ "type": "Feature", "properties": { "value": 0.0677 }, "geometry": { "type": "Point", "coordinates": [ 129.323273, 35.489624, 10.0 ] } },
{ "type": "Feature", "properties": { "value": 1.6666 }, "geometry": { "type": "Point", "coordinates": [ 129.324387, 35.48962, 10.0 ] } },
{ "type": "Feature", "properties": { "value": 6.0351 }, "geometry": { "type": "Point", "coordinates": [ 129.325485, 35.489616, 10.0 ] } },
{ "type": "Feature", "properties": { "value": 8.5646 }, "geometry": { "type": "Point", "coordinates": [ 129.326584, 35.489616, 10.0 ] } },
{ "type": "Feature", "properties": { "value": 4.9701 }, "geometry": { "type": "Point", "coordinates": [ 129.327682, 35.489613, 10.0 ] } },
{ "type": "Feature", "properties": { "value": 1.1025 }, "geometry": { "type": "Point", "coordinates": [ 129.328796, 35.489609, 10.0 ] } },
{ "type": "Feature", "properties": { "value": 0.1652 }, "geometry": { "type": "Point", "coordinates": [ 129.324387, 35.490524, 10.0 ] } },
{ "type": "Feature", "properties": { "value": 0.8798 }, "geometry": { "type": "Point", "coordinates": [ 129.325485, 35.49052, 10.0 ] } },
{ "type": "Feature", "properties": { "value": 1.2437 }, "geometry": { "type": "Point", "coordinates": [ 129.326584, 35.490517, 10.0 ] } },
{ "type": "Feature", "properties": { "value": 0.6578 }, "geometry": { "type": "Point", "coordinates": [ 129.327698, 35.490513, 10.0 ] } },
{ "type": "Feature", "properties": { "value": 0.0844 }, "geometry": { "type": "Point", "coordinates": [ 129.328796, 35.490509, 10.0 ] } },
{ "type": "Feature", "properties": { "value": 0.0421 }, "geometry": { "type": "Point", "coordinates": [ 129.326599, 35.491417, 10.0 ] } }
]
}
