{
"type": "FeatureCollection",
"features": [
{ "type": "Feature", "properties": { "value": 0.0012 }, "geometry": { "type": "Point", "coordinates": [ 129.327576, 35.46077, 115.0 ] } },
{ "type": "Feature", "properties": { "value": 0.0228 }, "geometry": { "type": "Point", "coordinates": [ 129.327576, 35.461674, 115.0 ] } },
{ "type": "Feature", "properties": { "value": 0.0487 }, "geometry": { "type": "Point", "coordinates": [ 129.327576, 35.462574, 115.0 ] } },
{ "type": "Feature", "properties": { "value": 0.085 }, "geometry": { "type": "Point", "coordinates": [ 129.327576, 35.463474, 115.0 ] } },
{ "type": "Feature", "properties": { "value": 0.0052 }, "geometry": { "type": "Point", "coordinates": [ 129.32869, 35.46347, 115.0 ] } },
{ "type": "Feature", "properties": { "value": 0.1776 }, "geometry": { "type": "Point", "coordinates": [ 129.327591, 35.464375, 115.0 ] } },
{ "type": "Feature", "properties": { "value": 0.0202 }, "geometry": { "type": "Point", "coordinates": [ 129.32869, 35.464375, 115.0 ] } },
{ "type": "Feature", "properties": { "value": 0.6152 }, "geometry": { "type": "Point", "coordinates": [ 129.327591, 35.465279, 115.0 ] } },
{ "type": "Feature", "properties": { "value": 0.1799 }, "geometry": { "type": "Point", "coordinates": [ 129.32869, 35.465275, 115.0 ] } },
{ "type": "Feature", "properties": { "value": 1.9034 }, "geometry": { "type": "Point", "coordinates": [ 129.327591, 35.466179, 115.0 ] } },
{ "type": "Feature", "properties": { "value": 1.2372 }, "geometry": { "type": "Point", "coordinates": [ 129.32869, 35.466175, 115.0 ] } },
{ "type": "Feature", "properties": { "value": 4.0895 }, "geometry": { "type": "Point", "coordinates": [ 129.327591, 35.467079, 115.0 ] } },
{ "type": "Feature", "properties": { "value": 3.6352 }, "geometry": { "type": "Point", "coordinates": [ 129.328705, 35.467075, 115.0 ] } },
{ "type": "Feature", "properties": { "value": 6.9463 }, "geometry": { "type": "Point", "coordinates": [ 129.327606, 35.467983, 115.0 ] } },
{ "type": "Feature", "properties": { "value": 7.0082 }, "geometry": { "type": "Point", "coordinates": [ 129.328705, 35.467979, 115.0 ] } },
{ "type": "Feature", "properties": { "value": 9.183 }, "geometry": { "type": "Point", "coordinates": [ 129.327606, 35.468884, 115.0 ] } },
{ "type": "Feature", "properties": { "value": 10.002 }, "geometry": { "type": "Point", "coordinates": [ 129.328705, 35.46888, 115.0 ] } },
{ "type": "Feature", "properties": { "value": 0.0977 }, "geometry": { "type": "Point", "coordinates": [ 129.326508, 35.469788, 115.0 ] } },
{ "type": "Feature", "properties": { "value": 9.0396 }, "geometry": { "type": "Point", "coordinates": [ 129.327606, 35.469784, 115.0 ] } },
{ "type": "Feature", "properties": { "value": 10.734 }, "geometry": { "type": "Point", "coordinates": [ 129.328705, 35.46978, 115.0 ] } },
{ "type": "Feature", "properties": { "value": 0.1443 }, "geometry": { "type": "Point", "coordinates": [ 129.326508, 35.470688, 115.0 ] } },
{ "type": "Feature", "properties": { "value": 7.4392 }, "geometry": { "type": "Point", "coordinates": [ 129.327606, 35.470684, 115.0 ] } },
{ "type": "Feature", "properties": { "value": 7.7134 }, "geometry": { "type": "Point", "coordinates": [ 129.32872, 35.470684, 115.0 ] } },
{ "type": "Feature", "properties": { "value": 0.1231 }, "geometry": { "type": "Point", "coordinates": [ 129.329819, 35.47068, 115.0 ] } },
{ "type": "Feature", "properties": { "value": 0.1649 }, "geometry": { "type": "Point", "coordinates": [ 129.326508, 35.471588, 115.0 ] } },
{ "type": "Feature", "properties": { "value": 4.593 }, "geometry": { "type": "Point", "coordinates": [ 129.327621, 35.471588, 115.0 ] } },
{ "type": "Feature", "properties": { "value": 2.9735 }, "geometry": { "type": "Point", "coordinates": [ 129.32872, 35.471584, 115.0 ] } },
{ "type": "Feature", "properties": { "value": 0.05 }, "geometry": { "type": "Point", "coordinates": [ 129.329819, 35.471581, 115.0 ] } },
{ "type": "Feature", "properties": { "value": 0.1554 }, "geometry": { "type": "Point", "coordinates": [ 129.326523, 35.472492, 115.0 ] } },
{ "type": "Feature", "properties": { "value": 2.3208 }, "geometry": { "type": "Point", "coordinates": [ 129.327621, 35.472488, 115.0 ] } },
{ "type": "Feature", "properties": { "value": 1.0306 }, "geometry": { "type": "Point", "coordinates": [ 129.32872, 35.472485, 115.0 ] } },
{ "type": "Feature", "properties": { "value": 0.0324 }, "geometry": { "type": "Point", "coordinates": [ 129.329819, 35.472481, 115.0 ] } },
{ "type": "Feature", "properties": { "value": 0.2556 }, "geometry": { "type": "Point", "coordinates": [ 129.326523, 35.473392, 115.0 ] } },
{ "type": "Feature", "properties": { "value": 1.9606 }, "geometry": { "type": "Point", "coordinates": [ 129.327621, 35.473389, 115.0 ] } },
{ "type": "Feature", "properties": { "value": 1.0384 }, "geometry": { "type": "Point", "coordinates": [ 129.32872, 35.473385, 115.0 ] } },
{ "type": "Feature", "properties": { "value": 0.1011 }, "geometry": { "type": "Point", "coordinates": [ 129.329819, 35.473385, 115.0 ] } },
{ "type": "Feature", "properties": { "value": 0.3946 }, "geometry": { "type": "Point", "coordinates": [ 129.326523, 35.474293, 115.0 ] } },
{ "type": "Feature", "properties": { "value": 1.9644 }, "geometry": { "type": "Point", "coordinates": [ 129.327621, 35.474289, 115.0 ] } },
{ "type": "Feature", "properties": { "value": 1.5716 }, "geometry": { "type": "Point", "coordinates": [ 129.328735, 35.474289, 115.0 ] } },
{ "type": "Feature", "properties": { "value": 0.3273 }, "geometry": { "type": "Point", "coordinates": [ 129.329834, 35.474285, 115.0 ] } },
{ "type": "Feature", "properties": { "value": 0.4846 }, "geometry": { "type": "Point", "coordinates": [ 129.326523, 35.475193, 115.0 ] } },
{ "type": "Feature", "properties": { "value": 2.3302 }, "geometry": { "type": "Point", "coordinates": [ 129.327637, 35.475193, 115.0 ] } },
{ "type": "Feature", "properties": { "value": 2.5103 }, "geometry": { "type": "Point", "coordinates": [ 129.328735, 35.475189, 115.0 ] } },
{ "type": "Feature", "properties": { "value": 0.7809 }, "geometry": { "type": "Point", "coordinates": [ 129.329834, 35.475185, 115.0 ] } },
{ "type": "Feature", "properties": { "value": 0.7555 }, "geometry": { "type": "Point", "coordinates": [ 129.326538, 35.476097, 115.0 ] } },
{ "type": "Feature", "properties": { "value": 4.4864 }, "geometry": { "type": "Point", "coordinates": [ 129.327637, 35.476093, 115.0 ] } },
{ "type": "Feature", "properties": { "value": 4.9725 }, "geometry": { "type": "Point", "coordinates": [ 129.328735, 35.476089, 115.0 ] } },
{ "type": "Feature", "properties": { "value": 1.4779 }, "geometry": { "type": "Point", "coordinates": [ 129.329834, 35.476086, 115.0 ] } },
{ "type": "Feature", "properties": { "value": 0.0075 }, "geometry": { "type": "Point", "coordinates": [ 129.325439, 35.477001, 115.0 ] } },
{ "type": "Feature", "properties": { "value": 1.7017 }, "geometry": { "type": "Point", "coordinates": [ 129.326538, 35.476997, 115.0 ] } },
{ "type": "Feature", "properties": { "value": 10.629 }, "geometry": { "type": "Point", "coordinates": [ 129.327637, 35.476994, 115.0 ] } },
{ "type": "Feature", "properties": { "value": 10.45 }, "geometry": { "type": "Point", "coordinates": [ 129.328735, 35.47699, 115.0 ] } },
{ "type": "Feature", "properties": { "value": 2.3685 }, "geometry": { "type": "Point", "coordinates": [ 129.329834, 35.47699, 115.0 ] } },
{ "type": "Feature", "properties": { "value": 0.1735 }, "geometry": { "type": "Point", "coordinates": [ 129.325439, 35.477901, 115.0 ] } },
{ "type": "Feature", "properties": { "value": 4.3552 }, "geometry": { "type": "Point", "coordinates": [ 129.326538, 35.477898, 115.0 ] } },
{ "type": "Feature", "properties": { "value": 20.576 }, "geometry": { "type": "Point", "coordinates": [ 129.327637, 35.477894, 115.0 ] } },
{ "type": "Feature", "properties": { "value": 17.212 }, "geometry": { "type": "Point", "coordinates": [ 129.328735, 35.477894, 115.0 ] } },
{ "type": "Feature", "properties": { "value": 3.1737 }, "geometry": { "type": "Point", "coordinates": [ 129.329849, 35.47789, 115.0 ] } },
{ "type": "Feature", "properties": { "value": 0.6462 }, "geometry": { "type": "Point", "coordinates": [ 129.325439, 35.478802, 115.0 ] } },
{ "type": "Feature", "properties": { "value": 8.8155 }, "geometry": { "type": "Point", "coordinates": [ 129.326538, 35.478798, 115.0 ] } },
{ "type": "Feature", "properties": { "value": 28.569 }, "geometry": { "type": "Point", "coordinates": [ 129.327637, 35.478798, 115.0 ] } },
{ "type": "Feature", "properties": { "value": 20.692 }, "geometry": { "type": "Point", "coordinates": [ 129.328751, 35.478794, 115.0 ] } },
{ "type": "Feature", "properties": { "value": 3.4906 }, "geometry": { "type": "Point", "coordinates": [ 129.329849, 35.47879, 115.0 ] } },
{ "type": "Feature", "properties": { "value": 1.3363 }, "geometry": { "type": "Point", "coordinates": [ 129.325439, 35.479706, 115.0 ] } },
{ "type": "Feature", "properties": { "value": 11.932 }, "geometry": { "type": "Point", "coordinates": [ 129.326553, 35.479702, 115.0 ] } },
{ "type": "Feature", "properties": { "value": 27.749 }, "geometry": { "type": "Point", "coordinates": [ 129.327652, 35.479698, 115.0 ] } },
{ "type": "Feature", "properties": { "value": 18.499 }, "geometry": { "type": "Point", "coordinates": [ 129.328751, 35.479694, 115.0 ] } },
{ "type": "Feature", "properties": { "value": 3.2648 }, "geometry": { "type": "Point", "coordinates": [ 129.329849, 35.479691, 115.0 ] } },
{ "type": "Feature", "properties": { "value": 1.7815 }, "geometry": { "type": "Point", "coordinates": [ 129.325455, 35.480606, 115.0 ] } },
{ "type": "Feature", "properties": { "value": 11.025 }, "geometry": { "type": "Point", "coordinates": [ 129.326553, 35.480602, 115.0 ] } },
{ "type": "Feature", "properties": { "value": 21.16 }, "geometry": { "type": "Point", "coordinates": [ 129.327652, 35.480598, 115.0 ] } },
{ "type": "Feature", "properties": { "value": 14.163 }, "geometry": { "type": "Point", "coordinates": [ 129.328751, 35.480595, 115.0 ] } },
{ "type": "Feature", "properties": { "value": 2.7312 }, "geometry": { "type": "Point", "coordinates": [ 129.329849, 35.480595, 115.0 ] } },
{ "type": "Feature", "properties": { "value": 1.7824 }, "geometry": { "type": "Point", "coordinates": [ 129.325455, 35.481506, 115.0 ] } },
{ "type": "Feature", "properties": { "value": 9.6026 }, "geometry": { "type": "Point", "coordinates": [ 129.326553, 35.481503, 115.0 ] } },
{ "type": "Feature", "properties": { "value": 18.628 }, "geometry": { "type": "Point", "coordinates": [ 129.327652, 35.481503, 115.0 ] } },
{ "type": "Feature", "properties": { "value": 12.39 }, "geometry": { "type": "Point", "coordinates": [ 129.328751, 35.481499, 115.0 ] } },
{ "type": "Feature", "properties": { "value": 2.3243 }, "geometry": { "type": "Point", "coordinates": [ 129.329865, 35.481495, 115.0 ] } },
{ "type": "Feature", "properties": { "value": 0.1162 }, "geometry": { "type": "Point", "coordinates": [ 129.324356, 35.48241, 115.0 ] } },
{ "type": "Feature", "properties": { "value": 2.0623 }, "geometry": { "type": "Point", "coordinates": [ 129.325455, 35.482407, 115.0 ] } },
{ "type": "Feature", "properties": { "value": 10.68 }, "geometry": { "type": "Point", "coordinates": [ 129.326553, 35.482407, 115.0 ] } },
{ "type": "Feature", "properties": { "value": 20.254 }, "geometry": { "type": "Point", "coordinates": [ 129.327652, 35.482403, 115.0 ] } },
{ "type": "Feature", "properties": { "value": 11.953 }, "geometry": { "type": "Point", "coordinates": [ 129.328766, 35.482399, 115.0 ] } },
{ "type": "Feature", "properties": { "value": 2.003 }, "geometry": { "type": "Point", "coordinates": [ 129.329865, 35.482395, 115.0 ] } },
{ "type": "Feature", "properties": { "value": 0.2672 }, "geometry": { "type": "Point", "coordinates": [ 129.324356, 35.483311, 115.0 ] } },
{ "type": "Feature", "properties": { "value": 2.9199 }, "geometry": { "type": "Point", "coordinates": [ 129.325455, 35.483311, 115.0 ] } },
{ "type": "Feature", "properties": { "value": 12.992 }, "geometry": { "type": "Point", "coordinates": [ 129.326553, 35.483307, 115.0 ] } },
{ "type": "Feature", "properties": { "value": 19.864 }, "geometry": { "type": "Point", "coordinates": [ 129.327667, 35.483303, 115.0 ] } },
{ "type": "Feature", "properties": { "value": 9.8309 }, "geometry": { "type": "Point", "coordinates": [ 129.328766, 35.483299, 115.0 ] } },
{ "type": "Feature", "properties": { "value": 1.6077 }, "geometry": { "type": "Point", "coordinates": [ 129.329865, 35.483295, 115.0 ] } },
{ "type": "Feature", "properties": { "value": 0.5193 }, "geometry": { "type": "Point", "coordinates": [ 129.324356, 35.484215, 115.0 ] } },
{ "type": "Feature", "properties": { "value": 4.2137 }, "geometry": { "type": "Point", "coordinates": [ 129.325455, 35.484211, 115.0 ] } },
{ "type": "Feature", "properties": { "value": 14.253 }, "geometry": { "type": "Point", "coordinates": [ 129.326569, 35.484207, 115.0 ] } },
{ "type": "Feature", "properties": { "value": 16.578 }, "geometry": { "type": "Point", "coordinates": [ 129.327667, 35.484203, 115.0 ] } },
{ "type": "Feature", "properties": { "value": 7.2316 }, "geometry": { "type": "Point", "coordinates": [ 129.328766, 35.484203, 115.0 ] } },
{ "type": "Feature", "properties": { "value": 1.2245 }, "geometry": { "type": "Point", "coordinates": [ 129.329865, 35.4842, 115.0 ] } },
{ "type": "Feature", "properties": { "value": 1.0875 }, "geometry": { "type": "Point", "coordinates": [ 129.324371, 35.485115, 115.0 ] } },
{ "type": "Feature", "properties": { "value": 6.3014 }, "geometry": { "type": "Point", "coordinates": [ 129.32547, 35.485111, 115.0 ] } },
{ "type": "Feature", "properties": { "value": 15.841 }, "geometry": { "type": "Point", "coordinates": [ 129.326569, 35.485107, 115.0 ] } },
{ "type": "Feature", "properties": { "value": 15.02 }, "geometry": { "type": "Point", "coordinates": [ 129.327667, 35.485107, 115.0 ] } },
{ "type": "Feature", "properties": { "value": 6.0542 }, "geometry": { "type": "Point", "coordinates": [ 129.328766, 35.485104, 115.0 ] } },
{ "type": "Feature", "properties": { "value": 0.9371 }, "geometry": { "type": "Point", "coordinates": [ 129.32988, 35.4851, 115.0 ] } },
{ "type": "Feature", "properties": { "value": 0.1984 }, "geometry": { "type": "Point", "coordinates": [ 129.323273, 35.486019, 115.0 ] } },
{ "type": "Feature", "properties": { "value": 2.4519 }, "geometry": { "type": "Point", "coordinates": [ 129.324371, 35.486015, 115.0 ] } },
{ "type": "Feature", "properties": { "value": 10.521 }, "geometry": { "type": "Point", "coordinates": [ 129.32547, 35.486012, 115.0 ] } },
{ "type": "Feature", "properties": { "value": 19.64 }, "geometry": { "type": "Point", "coordinates": [ 129.326569, 35.486012, 115.0 ] } },
{ "type": "Feature", "properties": { "value": 15.5 }, "geometry": { "type": "Point", "coordinates": [ 129.327667, 35.486008, 115.0 ] } },
{ "type": "Feature", "properties": { "value": 5.4165 }, "geometry": { "type": "Point", "coordinates": [ 129.328781, 35.486004, 115.0 ] } },
{ "type": "Feature", "properties": { "value": 0.6575 }, "geometry": { "type": "Point", "coordinates": [ 129.32988, 35.486, 115.0 ] } },
{ "type": "Feature", "properties": { "value": 0.6004 }, "geometry": { "type": "Point", "coordinates": [ 129.323273, 35.486919, 115.0 ] } },
{ "type": "Feature", "properties": { "value": 5.0902 }, "geometry": { "type": "Point", "coordinates": [ 129.324371, 35.486916, 115.0 ] } },
{ "type": "Feature", "properties": { "value": 17.093 }, "geometry": { "type": "Point", "coordinates": [ 129.32547, 35.486916, 115.0 ] } },
{ "type": "Feature", "properties": { "value": 24.192 }, "geometry": { "type": "Point", "coordinates": [ 129.326569, 35.486912, 115.0 ] } },
{ "type": "Feature", "properties": { "value": 15.362 }, "geometry": { "type": "Point", "coordinates": [ 129.327682, 35.486908, 115.0 ] } },
{ "type": "Feature", "properties": { "value": 4.4307 }, "geometry": { "type": "Point", "coordinates": [ 129.328781, 35.486904, 115.0 ] } },
{ "type": "Feature", "properties": { "value": 0.416 }, "geometry": { "type": "Point", "coordinates": [ 129.32988, 35.486904, 115.0 ] } },
{ "type": "Feature", "properties": { "value": 1.3607 }, "geometry": { "type": "Point", "coordinates": [ 129.323273, 35.48782, 115.0 ] } },
{ "type": "Feature", "properties": { "value": 8.5543 }, "geometry": { "type": "Point", "coordinates": [ 129.324371, 35.48782, 115.0 ] } },
{ "type": "Feature", "properties": { "value": 22.724 }, "geometry": { "type": "Point", "coordinates": [ 129.32547, 35.487816, 115.0 ] } },
{ "type": "Feature", "properties": { "value": 26.169 }, "geometry": { "type": "Point", "coordinates": [ 129.326584, 35.487812, 115.0 ] } },
{ "type": "Feature", "properties": { "value": 14.018 }, "geometry": { "type": "Point", "coordinates": [ 129.327682, 35.487808, 115.0 ] } },
{ "type": "Feature", "properties": { "value": 3.4642 }, "geometry": { "type": "Point", "coordinates": [ 129.328781, 35.487808, 115.0 ] } },
{ "type": "Feature", "properties": { "value": 0.127 }, "geometry": { "type": "Point", "coordinates": [ 129.32988, 35.487804, 115.0 ] } },
{ "type": "Feature", "properties": { "value": 0.1447 }, "geometry": { "type": "Point", "coordinates": [ 129.322174, 35.488728, 115.0 ] } },
{ "type": "Feature", "properties": { "value": 2.2837 }, "geometry": { "type": "Point", "coordinates": [ 129.323273, 35.488724, 115.0 ] } },
{ "type": "Feature", "properties": { "value": 10.886 }, "geometry": { "type": "Point", "coordinates": [ 129.324371, 35.48872, 115.0 ] } },
{ "type": "Feature", "properties": { "value": 23.738 }, "geometry": { "type": "Point", "coordinates": [ 129.325485, 35.488716, 115.0 ] } },
{ "type": "Feature", "properties": { "value": 24.021 }, "geometry": { "type": "Point", "coordinates": [ 129.326584, 35.488712, 115.0 ] } },
{ "type": "Feature", "properties": { "value": 11.692 }, "geometry": { "type": "Point", "coordinates": [ 129.327682, 35.488712, 115.0 ] } },
{ "type": "Feature", "properties": { "value": 2.6872 }, "geometry": { "type": "Point", "coordinates": [ 129.328781, 35.488708, 115.0 ] } },
{ "type": "Feature", "properties": { "value": 0.0679 }, "geometry": { "type": "Point", "coordinates": [ 129.329895, 35.488705, 115.0 ] } },
{ "type": "Feature", "properties": { "value": 0.4445 }, "geometry": { "type": "Point", "coordinates": [ 129.322174, 35.489628, 115.0 ] } },
{ "type": "Feature", "properties": { "value": 3.1036 }, "geometry": { "type": "Point", "coordinates": [ 129.323273, 35.489624, 115.0 ] } },
{ "type": "Feature", "properties": { "value": 10.889 }, "geometry": { "type": "Point", "coordinates": [ 129.324387, 35.48962, 115.0 ] } },
{ "type": "Feature", "properties": { "value": 19.927 }, "geometry": { "type": "Point", "coordinates": [ 129.325485, 35.489616, 115.0 ] } },
{ "type": "Feature", "properties": { "value": 18.805 }, "geometry": { "type": "Point", "coordinates": [ 129.326584, 35.489616, 115.0 ] } },
{ "type": "Feature", "properties": { "value": 8.7685 }, "geometry": { "type": "Point", "coordinates": [ 129.327682, 35.489613, 115.0 ] } },
{ "type": "Feature", "properties": { "value": 1.9327 }, "geometry": { "type": "Point", "coordinates": [ 129.328796, 35.489609, 115.0 ] } },
{ "type": "Feature", "properties": { "value": 1.0068 }, "geometry": { "type": "Point", "coordinates": [ 129.322174, 35.490528, 115.0 ] } },
{ "type": "Feature", "properties": { "value": 4.6419 }, "geometry": { "type": "Point", "coordinates": [ 129.323288, 35.490524, 115.0 ] } },
{ "type": "Feature", "properties": { "value": 11.771 }, "geometry": { "type": "Point", "coordinates": [ 129.324387, 35.490524, 115.0 ] } },
{ "type": "Feature", "properties": { "value": 16.711 }, "geometry": { "type": "Point", "coordinates": [ 129.325485, 35.49052, 115.0 ] } },
{ "type": "Feature", "properties": { "value": 13.772 }, "geometry": { "type": "Point", "coordinates": [ 129.326584, 35.490517, 115.0 ] } },
{ "type": "Feature", "properties": { "value": 6.0861 }, "geometry": { "type": "Point", "coordinates": [ 129.327698, 35.490513, 115.0 ] } },
{ "type": "Feature", "properties": { "value": 1.3087 }, "geometry": { "type": "Point", "coordinates": [ 129.328796, 35.490509, 115.0 ] } },
{ "type": "Feature", "properties": { "value": 0.324 }, "geometry": { "type": "Point", "coordinates": [ 129.321091, 35.491432, 115.0 ] } },
{ "type": "Feature", "properties": { "value": 2.0728 }, "geometry": { "type": "Point", "coordinates": [ 129.322189, 35.491428, 115.0 ] } },
{ "type": "Feature", "properties": { "value": 6.9492 }, "geometry": { "type": "Point", "coordinates": [ 129.323288, 35.491428, 115.0 ] } },
{ "type": "Feature", "properties": { "value": 13.763 }, "geometry": { "type": "Point", "coordinates": [ 129.324387, 35.491425, 115.0 ] } },
{ "type": "Feature", "properties": { "value": 16.434 }, "geometry": { "type": "Point", "coordinates": [ 129.325485, 35.491421, 115.0 ] } },
{ "type": "Feature", "properties": { "value": 10.596 }, "geometry": { "type": "Point", "coordinates": [ 129.326599, 35.491417, 115.0 ] } },
{ "type": "Feature", "properties": { "value": 4.0468 }, "geometry": { "type": "Point", "coordinates": [ 129.327698, 35.491413, 115.0 ] } },
{ "type": "Feature", "properties": { "value": 0.7617 }, "geometry": { "type": "Point", "coordinates": [ 129.328796, 35.491413, 115.0 ] } },
{ "type": "Feature", "properties": { "value": 0.0186 }, "geometry": { "type": "Point", "coordinates": [ 129.319992, 35.492336, 115.0 ] } },
{ "type": "Feature", "properties": { "value": 0.9316 }, "geometry": { "type": "Point", "coordinates": [ 129.321091, 35.492332, 115.0 ] } },
{ "type": "Feature", "properties": { "value": 3.8583 }, "geometry": { "type": "Point", "coordinates": [ 129.322189, 35.492332, 115.0 ] } },
{ "type": "Feature", "properties": { "value": 9.7311 }, "geometry": { "type": "Point", "coordinates": [ 129.323288, 35.492329, 115.0 ] } },
{ "type": "Feature", "properties": { "value": 16.961 }, "geometry": { "type": "Point", "coordinates": [ 129.324387, 35.492325, 115.0 ] } },
{ "type": "Feature", "properties": { "value": 17.264 }, "geometry": { "type": "Point", "coordinates": [ 129.3255, 35.492321, 115.0 ] } },
{ "type": "Feature", "properties": { "value": 8.6354 }, "geometry": { "type": "Point", "coordinates": [ 129.326599, 35.492317, 115.0 ] } },
{ "type": "Feature", "properties": { "value": 2.5332 }, "geometry": { "type": "Point", "coordinates": [ 129.327698, 35.492317, 115.0 ] } },
{ "type": "Feature", "properties": { "value": 0.3409 }, "geometry": { "type": "Point", "coordinates": [ 129.328796, 35.492313, 115.0 ] } },
{ "type": "Feature", "properties": { "value": 0.3947 }, "geometry": { "type": "Point", "coordinates": [ 129.319992, 35.493237, 115.0 ] } },
{ "type": "Feature", "properties": { "value": 2.0528 }, "geometry": { "type": "Point", "coordinates": [ 129.321091, 35.493237, 115.0 ] } },
{ "type": "Feature", "properties": { "value": 6.3397 }, "geometry": { "type": "Point", "coordinates": [ 129.322189, 35.493233, 115.0 ] } },
{ "type": "Feature", "properties": { "value": 12.351 }, "geometry": { "type": "Point", "coordinates": [ 129.323288, 35.493229, 115.0 ] } },
{ "type": "Feature", "properties": { "value": 16.938 }, "geometry": { "type": "Point", "coordinates": [ 129.324402, 35.493225, 115.0 ] } },
{ "type": "Feature", "properties": { "value": 14.799 }, "geometry": { "type": "Point", "coordinates": [ 129.3255, 35.493225, 115.0 ] } },
{ "type": "Feature", "properties": { "value": 6.1807 }, "geometry": { "type": "Point", "coordinates": [ 129.326599, 35.493221, 115.0 ] } },
{ "type": "Feature", "properties": { "value": 1.3876 }, "geometry": { "type": "Point", "coordinates": [ 129.327698, 35.493217, 115.0 ] } },
{ "type": "Feature", "properties": { "value": 0.0605 }, "geometry": { "type": "Point", "coordinates": [ 129.328812, 35.493214, 115.0 ] } },
{ "type": "Feature", "properties": { "value": 0.1534 }, "geometry": { "type": "Point", "coordinates": [ 129.318893, 35.494141, 115.0 ] } },
{ "type": "Feature", "properties": { "value": 1.1123 }, "geometry": { "type": "Point", "coordinates": [ 129.319992, 35.494141, 115.0 ] } },
{ "type": "Feature", "properties": { "value": 3.9427 }, "geometry": { "type": "Point", "coordinates": [ 129.321091, 35.494137, 115.0 ] } },
{ "type": "Feature", "properties": { "value": 9.2637 }, "geometry": { "type": "Point", "coordinates": [ 129.322189, 35.494133, 115.0 ] } },
{ "type": "Feature", "properties": { "value": 14.099 }, "geometry": { "type": "Point", "coordinates": [ 129.323303, 35.494129, 115.0 ] } },
{ "type": "Feature", "properties": { "value": 14.382 }, "geometry": { "type": "Point", "coordinates": [ 129.324402, 35.494129, 115.0 ] } },
{ "type": "Feature", "properties": { "value": 9.9908 }, "geometry": { "type": "Point", "coordinates": [ 129.3255, 35.494125, 115.0 ] } },
{ "type": "Feature", "properties": { "value": 3.573 }, "geometry": { "type": "Point", "coordinates": [ 129.326599, 35.494122, 115.0 ] } },
{ "type": "Feature", "properties": { "value": 0.6414 }, "geometry": { "type": "Point", "coordinates": [ 129.327713, 35.494118, 115.0 ] } },
{ "type": "Feature", "properties": { "value": 0.6496 }, "geometry": { "type": "Point", "coordinates": [ 129.318893, 35.495045, 115.0 ] } },
{ "type": "Feature", "properties": { "value": 2.538 }, "geometry": { "type": "Point", "coordinates": [ 129.319992, 35.495041, 115.0 ] } },
{ "type": "Feature", "properties": { "value": 6.7114 }, "geometry": { "type": "Point", "coordinates": [ 129.321091, 35.495037, 115.0 ] } },
{ "type": "Feature", "properties": { "value": 12.131 }, "geometry": { "type": "Point", "coordinates": [ 129.322205, 35.495033, 115.0 ] } },
{ "type": "Feature", "properties": { "value": 14.518 }, "geometry": { "type": "Point", "coordinates": [ 129.323303, 35.495033, 115.0 ] } },
{ "type": "Feature", "properties": { "value": 12.151 }, "geometry": { "type": "Point", "coordinates": [ 129.324402, 35.495029, 115.0 ] } },
{ "type": "Feature", "properties": { "value": 6.5049 }, "geometry": { "type": "Point", "coordinates": [ 129.3255, 35.495026, 115.0 ] } },
{ "type": "Feature", "properties": { "value": 1.9595 }, "geometry": { "type": "Point", "coordinates": [ 129.326614, 35.495022, 115.0 ] } },
{ "type": "Feature", "properties": { "value": 0.2549 }, "geometry": { "type": "Point", "coordinates": [ 129.327713, 35.495022, 115.0 ] } },
{ "type": "Feature", "properties": { "value": 0.4201 }, "geometry": { "type": "Point", "coordinates": [ 129.317795, 35.495949, 115.0 ] } },
{ "type": "Feature", "properties": { "value": 1.7528 }, "geometry": { "type": "Point", "coordinates": [ 129.318893, 35.495945, 115.0 ] } },
{ "type": "Feature", "properties": { "value": 4.9849 }, "geometry": { "type": "Point", "coordinates": [ 129.319992, 35.495941, 115.0 ] } },
{ "type": "Feature", "properties": { "value": 10.091 }, "geometry": { "type": "Point", "coordinates": [ 129.321106, 35.495937, 115.0 ] } },
{ "type": "Feature", "properties": { "value": 14.212 }, "geometry": { "type": "Point", "coordinates": [ 129.322205, 35.495937, 115.0 ] } },
{ "type": "Feature", "properties": { "value": 15.047 }, "geometry": { "type": "Point", "coordinates": [ 129.323303, 35.495934, 115.0 ] } },
{ "type": "Feature", "properties": { "value": 9.9343 }, "geometry": { "type": "Point", "coordinates": [ 129.324402, 35.49593, 115.0 ] } },
{ "type": "Feature", "properties": { "value": 4.182 }, "geometry": { "type": "Point", "coordinates": [ 129.325516, 35.495926, 115.0 ] } },
{ "type": "Feature", "properties": { "value": 1.0464 }, "geometry": { "type": "Point", "coordinates": [ 129.326614, 35.495926, 115.0 ] } },
{ "type": "Feature", "properties": { "value": 0.0295 }, "geometry": { "type": "Point", "coordinates": [ 129.327713, 35.495922, 115.0 ] } },
{ "type": "Feature", "properties": { "value": 0.3278 }, "geometry": { "type": "Point", "coordinates": [ 129.316696, 35.496853, 115.0 ] } },
{ "type": "Feature", "properties": { "value": 1.3714 }, "geometry": { "type": "Point", "coordinates": [ 129.317795, 35.496849, 115.0 ] } },
{ "type": "Feature", "properties": { "value": 3.9398 }, "geometry": { "type": "Point", "coordinates": [ 129.318893, 35.496845, 115.0 ] } },
{ "type": "Feature", "properties": { "value": 8.4961 }, "geometry": { "type": "Point", "coordinates": [ 129.320007, 35.496841, 115.0 ] } },
{ "type": "Feature", "properties": { "value": 13.342 }, "geometry": { "type": "Point", "coordinates": [ 129.321106, 35.496841, 115.0 ] } },
{ "type": "Feature", "properties": { "value": 16.241 }, "geometry": { "type": "Point", "coordinates": [ 129.322205, 35.496838, 115.0 ] } },
{ "type": "Feature", "properties": { "value": 14.008 }, "geometry": { "type": "Point", "coordinates": [ 129.323303, 35.496834, 115.0 ] } },
{ "type": "Feature", "properties": { "value": 6.5776 }, "geometry": { "type": "Point", "coordinates": [ 129.324417, 35.49683, 115.0 ] } },
{ "type": "Feature", "properties": { "value": 2.1785 }, "geometry": { "type": "Point", "coordinates": [ 129.325516, 35.49683, 115.0 ] } },
{ "type": "Feature", "properties": { "value": 0.4466 }, "geometry": { "type": "Point", "coordinates": [ 129.326614, 35.496826, 115.0 ] } },
{ "type": "Feature", "properties": { "value": 0.3352 }, "geometry": { "type": "Point", "coordinates": [ 129.315598, 35.497757, 115.0 ] } },
{ "type": "Feature", "properties": { "value": 1.2012 }, "geometry": { "type": "Point", "coordinates": [ 129.316696, 35.497753, 115.0 ] } },
{ "type": "Feature", "properties": { "value": 3.3935 }, "geometry": { "type": "Point", "coordinates": [ 129.317795, 35.497749, 115.0 ] } },
{ "type": "Feature", "properties": { "value": 7.5784 }, "geometry": { "type": "Point", "coordinates": [ 129.318909, 35.497749, 115.0 ] } },
{ "type": "Feature", "properties": { "value": 12.529 }, "geometry": { "type": "Point", "coordinates": [ 129.320007, 35.497746, 115.0 ] } },
{ "type": "Feature", "properties": { "value": 15.821 }, "geometry": { "type": "Point", "coordinates": [ 129.321106, 35.497742, 115.0 ] } },
{ "type": "Feature", "properties": { "value": 17.29 }, "geometry": { "type": "Point", "coordinates": [ 129.322205, 35.497738, 115.0 ] } },
{ "type": "Feature", "properties": { "value": 10.214 }, "geometry": { "type": "Point", "coordinates": [ 129.323318, 35.497734, 115.0 ] } },
{ "type": "Feature", "properties": { "value": 3.5463 }, "geometry": { "type": "Point", "coordinates": [ 129.324417, 35.497734, 115.0 ] } },
{ "type": "Feature", "properties": { "value": 0.9536 }, "geometry": { "type": "Point", "coordinates": [ 129.325516, 35.49773, 115.0 ] } },
{ "type": "Feature", "properties": { "value": 0.072 }, "geometry": { "type": "Point", "coordinates": [ 129.326614, 35.497726, 115.0 ] } },
{ "type": "Feature", "properties": { "value": 0.2886 }, "geometry": { "type": "Point", "coordinates": [ 129.314499, 35.498661, 115.0 ] } },
{ "type": "Feature", "properties": { "value": 1.0489 }, "geometry": { "type": "Point", "coordinates": [ 129.315598, 35.498657, 115.0 ] } },
{ "type": "Feature", "properties": { "value": 2.9229 }, "geometry": { "type": "Point", "coordinates": [ 129.316696, 35.498653, 115.0 ] } },
{ "type": "Feature", "properties": { "value": 6.6993 }, "geometry": { "type": "Point", "coordinates": [ 129.31781, 35.498653, 115.0 ] } },
{ "type": "Feature", "properties": { "value": 14.446 }, "geometry": { "type": "Point", "coordinates": [ 129.318909, 35.49865, 115.0 ] } },
{ "type": "Feature", "properties": { "value": 15.846 }, "geometry": { "type": "Point", "coordinates": [ 129.320007, 35.498646, 115.0 ] } },
{ "type": "Feature", "properties": { "value": 19.6 }, "geometry": { "type": "Point", "coordinates": [ 129.321106, 35.498642, 115.0 ] } },
{ "type": "Feature", "properties": { "value": 15.366 }, "geometry": { "type": "Point", "coordinates": [ 129.32222, 35.498638, 115.0 ] } },
{ "type": "Feature", "properties": { "value": 6.42 }, "geometry": { "type": "Point", "coordinates": [ 129.323318, 35.498638, 115.0 ] } },
{ "type": "Feature", "properties": { "value": 1.8753 }, "geometry": { "type": "Point", "coordinates": [ 129.324417, 35.498634, 115.0 ] } },
{ "type": "Feature", "properties": { "value": 0.3954 }, "geometry": { "type": "Point", "coordinates": [ 129.325516, 35.498631, 115.0 ] } },
{ "type": "Feature", "properties": { "value": 0.1333 }, "geometry": { "type": "Point", "coordinates": [ 129.3134, 35.499565, 115.0 ] } },
{ "type": "Feature", "properties": { "value": 0.74 }, "geometry": { "type": "Point", "coordinates": [ 129.314499, 35.499561, 115.0 ] } },
{ "type": "Feature", "properties": { "value": 2.2713 }, "geometry": { "type": "Point", "coordinates": [ 129.315598, 35.499557, 115.0 ] } },
{ "type": "Feature", "properties": { "value": 5.6104 }, "geometry": { "type": "Point", "coordinates": [ 129.316711, 35.499557, 115.0 ] } },
{ "type": "Feature", "properties": { "value": 12.172 }, "geometry": { "type": "Point", "coordinates": [ 129.31781, 35.499554, 115.0 ] } },
{ "type": "Feature", "properties": { "value": 21.543 }, "geometry": { "type": "Point", "coordinates": [ 129.318909, 35.49955, 115.0 ] } },
{ "type": "Feature", "properties": { "value": 20.259 }, "geometry": { "type": "Point", "coordinates": [ 129.320007, 35.499546, 115.0 ] } },
{ "type": "Feature", "properties": { "value": 19.852 }, "geometry": { "type": "Point", "coordinates": [ 129.321121, 35.499546, 115.0 ] } },
{ "type": "Feature", "properties": { "value": 11.07 }, "geometry": { "type": "Point", "coordinates": [ 129.32222, 35.499542, 115.0 ] } },
{ "type": "Feature", "properties": { "value": 3.6612 }, "geometry": { "type": "Point", "coordinates": [ 129.323318, 35.499538, 115.0 ] } },
{ "type": "Feature", "properties": { "value": 0.9323 }, "geometry": { "type": "Point", "coordinates": [ 129.324417, 35.499535, 115.0 ] } },
{ "type": "Feature", "properties": { "value": 0.0729 }, "geometry": { "type": "Point", "coordinates": [ 129.325531, 35.499531, 115.0 ] } },
{ "type": "Feature", "properties": { "value": 0.0089 }, "geometry": { "type": "Point", "coordinates": [ 129.312302, 35.500469, 115.0 ] } },
{ "type": "Feature", "properties": { "value": 0.2859 }, "geometry": { "type": "Point", "coordinates": [ 129.3134, 35.500465, 115.0 ] } },
{ "type": "Feature", "properties": { "value": 1.2462 }, "geometry": { "type": "Point", "coordinates": [ 129.314499, 35.500462, 115.0 ] } },
{ "type": "Feature", "properties": { "value": 3.7983 }, "geometry": { "type": "Point", "coordinates": [ 129.315613, 35.500462, 115.0 ] } },
{ "type": "Feature", "properties": { "value": 9.032 }, "geometry": { "type": "Point", "coordinates": [ 129.316711, 35.500458, 115.0 ] } },
{ "type": "Feature", "properties": { "value": 17.482 }, "geometry": { "type": "Point", "coordinates": [ 129.31781, 35.500454, 115.0 ] } },
{ "type": "Feature", "properties": { "value": 23.981 }, "geometry": { "type": "Point", "coordinates": [ 129.318909, 35.50045, 115.0 ] } },
{ "type": "Feature", "properties": { "value": 21.754 }, "geometry": { "type": "Point", "coordinates": [ 129.320023, 35.50045, 115.0 ] } },
{ "type": "Feature", "properties": { "value": 15.826 }, "geometry": { "type": "Point", "coordinates": [ 129.321121, 35.500446, 115.0 ] } },
{ "type": "Feature", "properties": { "value": 6.5757 }, "geometry": { "type": "Point", "coordinates": [ 129.32222, 35.500443, 115.0 ] } },
{ "type": "Feature", "properties": { "value": 1.8288 }, "geometry": { "type": "Point", "coordinates": [ 129.323318, 35.500439, 115.0 ] } },
{ "type": "Feature", "properties": { "value": 0.3735 }, "geometry": { "type": "Point", "coordinates": [ 129.324432, 35.500435, 115.0 ] } },
{ "type": "Feature", "properties": { "value": 0.0379 }, "geometry": { "type": "Point", "coordinates": [ 129.312302, 35.501369, 115.0 ] } },
{ "type": "Feature", "properties": { "value": 0.3608 }, "geometry": { "type": "Point", "coordinates": [ 129.3134, 35.501366, 115.0 ] } },
{ "type": "Feature", "properties": { "value": 1.5035 }, "geometry": { "type": "Point", "coordinates": [ 129.314514, 35.501366, 115.0 ] } },
{ "type": "Feature", "properties": { "value": 4.4782 }, "geometry": { "type": "Point", "coordinates": [ 129.315613, 35.501362, 115.0 ] } },
{ "type": "Feature", "properties": { "value": 10.306 }, "geometry": { "type": "Point", "coordinates": [ 129.316711, 35.501358, 115.0 ] } },
{ "type": "Feature", "properties": { "value": 17.584 }, "geometry": { "type": "Point", "coordinates": [ 129.31781, 35.501354, 115.0 ] } },
{ "type": "Feature", "properties": { "value": 19.408 }, "geometry": { "type": "Point", "coordinates": [ 129.318924, 35.501354, 115.0 ] } },
{ "type": "Feature", "properties": { "value": 17.143 }, "geometry": { "type": "Point", "coordinates": [ 129.320023, 35.50135, 115.0 ] } },
{ "type": "Feature", "properties": { "value": 9.6793 }, "geometry": { "type": "Point", "coordinates": [ 129.321121, 35.501347, 115.0 ] } },
{ "type": "Feature", "properties": { "value": 3.2949 }, "geometry": { "type": "Point", "coordinates": [ 129.32222, 35.501343, 115.0 ] } },
{ "type": "Feature", "properties": { "value": 0.8229 }, "geometry": { "type": "Point", "coordinates": [ 129.323334, 35.501339, 115.0 ] } },
{ "type": "Feature", "properties": { "value": 0.0491 }, "geometry": { "type": "Point", "coordinates": [ 129.324432, 35.501339, 115.0 ] } }
]
}
