{
"type": "FeatureCollection",
"features": [
{ "type": "Feature", "properties": { "value": 5.008 }, "geometry": { "type": "Point", "coordinates": [ 129.32756, 35.458969, 30.0 ] } },
{ "type": "Feature", "properties": { "value": 126.3 }, "geometry": { "type": "Point", "coordinates": [ 129.32756, 35.459869, 30.0 ] } },
{ "type": "Feature", "properties": { "value": 200.34 }, "geometry": { "type": "Point", "coordinates": [ 129.327576, 35.46077, 30.0 ] } },
{ "type": "Feature", "properties": { "value": 163.53 }, "geometry": { "type": "Point", "coordinates": [ 129.327576, 35.461674, 30.0 ] } },
{ "type": "Feature", "properties": { "value": 124.42 }, "geometry": { "type": "Point", "coordinates": [ 129.327576, 35.462574, 30.0 ] } },
{ "type": "Feature", "properties": { "value": 1.2713 }, "geometry": { "type": "Point", "coordinates": [ 129.328674, 35.46257, 30.0 ] } },
{ "type": "Feature", "properties": { "value": 77.391 }, "geometry": { "type": "Point", "coordinates": [ 129.327576, 35.463474, 30.0 ] } },
{ "type": "Feature", "properties": { "value": 10.846 }, "geometry": { "type": "Point", "coordinates": [ 129.32869, 35.46347, 30.0 ] } },
{ "type": "Feature", "properties": { "value": 43.366 }, "geometry": { "type": "Point", "coordinates": [ 129.327591, 35.464375, 30.0 ] } },
{ "type": "Feature", "properties": { "value": 40.042 }, "geometry": { "type": "Point", "coordinates": [ 129.32869, 35.464375, 30.0 ] } },
{ "type": "Feature", "properties": { "value": 20.217 }, "geometry": { "type": "Point", "coordinates": [ 129.327591, 35.465279, 30.0 ] } },
{ "type": "Feature", "properties": { "value": 64.385 }, "geometry": { "type": "Point", "coordinates": [ 129.32869, 35.465275, 30.0 ] } },
{ "type": "Feature", "properties": { "value": 8.7967 }, "geometry": { "type": "Point", "coordinates": [ 129.327591, 35.466179, 30.0 ] } },
{ "type": "Feature", "properties": { "value": 65.249 }, "geometry": { "type": "Point", "coordinates": [ 129.32869, 35.466175, 30.0 ] } },
{ "type": "Feature", "properties": { "value": 0.4224 }, "geometry": { "type": "Point", "coordinates": [ 129.329803, 35.466171, 30.0 ] } },
{ "type": "Feature", "properties": { "value": 4.0186 }, "geometry": { "type": "Point", "coordinates": [ 129.327591, 35.467079, 30.0 ] } },
{ "type": "Feature", "properties": { "value": 61.363 }, "geometry": { "type": "Point", "coordinates": [ 129.328705, 35.467075, 30.0 ] } },
{ "type": "Feature", "properties": { "value": 3.4929 }, "geometry": { "type": "Point", "coordinates": [ 129.329803, 35.467075, 30.0 ] } },
{ "type": "Feature", "properties": { "value": 1.7238 }, "geometry": { "type": "Point", "coordinates": [ 129.327606, 35.467983, 30.0 ] } },
{ "type": "Feature", "properties": { "value": 51.255 }, "geometry": { "type": "Point", "coordinates": [ 129.328705, 35.467979, 30.0 ] } },
{ "type": "Feature", "properties": { "value": 9.8301 }, "geometry": { "type": "Point", "coordinates": [ 129.329803, 35.467976, 30.0 ] } },
{ "type": "Feature", "properties": { "value": 0.7591 }, "geometry": { "type": "Point", "coordinates": [ 129.327606, 35.468884, 30.0 ] } },
{ "type": "Feature", "properties": { "value": 39.23 }, "geometry": { "type": "Point", "coordinates": [ 129.328705, 35.46888, 30.0 ] } },
{ "type": "Feature", "properties": { "value": 22.23 }, "geometry": { "type": "Point", "coordinates": [ 129.329803, 35.468876, 30.0 ] } },
{ "type": "Feature", "properties": { "value": 28.238 }, "geometry": { "type": "Point", "coordinates": [ 129.328705, 35.46978, 30.0 ] } },
{ "type": "Feature", "properties": { "value": 43.231 }, "geometry": { "type": "Point", "coordinates": [ 129.329819, 35.469776, 30.0 ] } },
{ "type": "Feature", "properties": { "value": 1.9296 }, "geometry": { "type": "Point", "coordinates": [ 129.330917, 35.469776, 30.0 ] } },
{ "type": "Feature", "properties": { "value": 20.111 }, "geometry": { "type": "Point", "coordinates": [ 129.32872, 35.470684, 30.0 ] } },
{ "type": "Feature", "properties": { "value": 72.484 }, "geometry": { "type": "Point", "coordinates": [ 129.329819, 35.47068, 30.0 ] } },
{ "type": "Feature", "properties": { "value": 9.9669 }, "geometry": { "type": "Point", "coordinates": [ 129.330917, 35.470676, 30.0 ] } },
{ "type": "Feature", "properties": { "value": 13.293 }, "geometry": { "type": "Point", "coordinates": [ 129.32872, 35.471584, 30.0 ] } },
{ "type": "Feature", "properties": { "value": 87.784 }, "geometry": { "type": "Point", "coordinates": [ 129.329819, 35.471581, 30.0 ] } },
{ "type": "Feature", "properties": { "value": 28.033 }, "geometry": { "type": "Point", "coordinates": [ 129.330917, 35.471577, 30.0 ] } },
{ "type": "Feature", "properties": { "value": 6.4818 }, "geometry": { "type": "Point", "coordinates": [ 129.32872, 35.472485, 30.0 ] } },
{ "type": "Feature", "properties": { "value": 72.807 }, "geometry": { "type": "Point", "coordinates": [ 129.329819, 35.472481, 30.0 ] } },
{ "type": "Feature", "properties": { "value": 52.523 }, "geometry": { "type": "Point", "coordinates": [ 129.330917, 35.472477, 30.0 ] } },
{ "type": "Feature", "properties": { "value": 3.0147 }, "geometry": { "type": "Point", "coordinates": [ 129.332031, 35.472477, 30.0 ] } },
{ "type": "Feature", "properties": { "value": 2.4124 }, "geometry": { "type": "Point", "coordinates": [ 129.32872, 35.473385, 30.0 ] } },
{ "type": "Feature", "properties": { "value": 47.551 }, "geometry": { "type": "Point", "coordinates": [ 129.329819, 35.473385, 30.0 ] } },
{ "type": "Feature", "properties": { "value": 70.201 }, "geometry": { "type": "Point", "coordinates": [ 129.330933, 35.473381, 30.0 ] } },
{ "type": "Feature", "properties": { "value": 10.041 }, "geometry": { "type": "Point", "coordinates": [ 129.332031, 35.473377, 30.0 ] } },
{ "type": "Feature", "properties": { "value": 0.2905 }, "geometry": { "type": "Point", "coordinates": [ 129.328735, 35.474289, 30.0 ] } },
{ "type": "Feature", "properties": { "value": 25.125 }, "geometry": { "type": "Point", "coordinates": [ 129.329834, 35.474285, 30.0 ] } },
{ "type": "Feature", "properties": { "value": 64.334 }, "geometry": { "type": "Point", "coordinates": [ 129.330933, 35.474281, 30.0 ] } },
{ "type": "Feature", "properties": { "value": 21.626 }, "geometry": { "type": "Point", "coordinates": [ 129.332031, 35.474277, 30.0 ] } },
{ "type": "Feature", "properties": { "value": 1.2986 }, "geometry": { "type": "Point", "coordinates": [ 129.33313, 35.474274, 30.0 ] } },
{ "type": "Feature", "properties": { "value": 12.271 }, "geometry": { "type": "Point", "coordinates": [ 129.329834, 35.475185, 30.0 ] } },
{ "type": "Feature", "properties": { "value": 49.326 }, "geometry": { "type": "Point", "coordinates": [ 129.330933, 35.475182, 30.0 ] } },
{ "type": "Feature", "properties": { "value": 34.772 }, "geometry": { "type": "Point", "coordinates": [ 129.332031, 35.475178, 30.0 ] } },
{ "type": "Feature", "properties": { "value": 5.0199 }, "geometry": { "type": "Point", "coordinates": [ 129.333145, 35.475178, 30.0 ] } },
{ "type": "Feature", "properties": { "value": 5.43 }, "geometry": { "type": "Point", "coordinates": [ 129.329834, 35.476086, 30.0 ] } },
{ "type": "Feature", "properties": { "value": 33.726 }, "geometry": { "type": "Point", "coordinates": [ 129.330933, 35.476086, 30.0 ] } },
{ "type": "Feature", "properties": { "value": 43.793 }, "geometry": { "type": "Point", "coordinates": [ 129.332047, 35.476082, 30.0 ] } },
{ "type": "Feature", "properties": { "value": 12.758 }, "geometry": { "type": "Point", "coordinates": [ 129.333145, 35.476078, 30.0 ] } },
{ "type": "Feature", "properties": { "value": 0.7598 }, "geometry": { "type": "Point", "coordinates": [ 129.334244, 35.476074, 30.0 ] } },
{ "type": "Feature", "properties": { "value": 2.0208 }, "geometry": { "type": "Point", "coordinates": [ 129.329834, 35.47699, 30.0 ] } },
{ "type": "Feature", "properties": { "value": 20.346 }, "geometry": { "type": "Point", "coordinates": [ 129.330948, 35.476986, 30.0 ] } },
{ "type": "Feature", "properties": { "value": 45.408 }, "geometry": { "type": "Point", "coordinates": [ 129.332047, 35.476982, 30.0 ] } },
{ "type": "Feature", "properties": { "value": 24.413 }, "geometry": { "type": "Point", "coordinates": [ 129.333145, 35.476978, 30.0 ] } },
{ "type": "Feature", "properties": { "value": 3.4438 }, "geometry": { "type": "Point", "coordinates": [ 129.334244, 35.476974, 30.0 ] } },
{ "type": "Feature", "properties": { "value": 0.5124 }, "geometry": { "type": "Point", "coordinates": [ 129.329849, 35.47789, 30.0 ] } },
{ "type": "Feature", "properties": { "value": 10.627 }, "geometry": { "type": "Point", "coordinates": [ 129.330948, 35.477886, 30.0 ] } },
{ "type": "Feature", "properties": { "value": 38.968 }, "geometry": { "type": "Point", "coordinates": [ 129.332047, 35.477882, 30.0 ] } },
{ "type": "Feature", "properties": { "value": 36.49 }, "geometry": { "type": "Point", "coordinates": [ 129.333145, 35.477879, 30.0 ] } },
{ "type": "Feature", "properties": { "value": 9.7967 }, "geometry": { "type": "Point", "coordinates": [ 129.334259, 35.477879, 30.0 ] } },
{ "type": "Feature", "properties": { "value": 0.6962 }, "geometry": { "type": "Point", "coordinates": [ 129.335358, 35.477875, 30.0 ] } },
{ "type": "Feature", "properties": { "value": 4.6926 }, "geometry": { "type": "Point", "coordinates": [ 129.330948, 35.478786, 30.0 ] } },
{ "type": "Feature", "properties": { "value": 26.996 }, "geometry": { "type": "Point", "coordinates": [ 129.332047, 35.478786, 30.0 ] } },
{ "type": "Feature", "properties": { "value": 42.382 }, "geometry": { "type": "Point", "coordinates": [ 129.33316, 35.478783, 30.0 ] } },
{ "type": "Feature", "properties": { "value": 20.473 }, "geometry": { "type": "Point", "coordinates": [ 129.334259, 35.478779, 30.0 ] } },
{ "type": "Feature", "properties": { "value": 3.5018 }, "geometry": { "type": "Point", "coordinates": [ 129.335358, 35.478775, 30.0 ] } },
{ "type": "Feature", "properties": { "value": 1.7348 }, "geometry": { "type": "Point", "coordinates": [ 129.330948, 35.479691, 30.0 ] } },
{ "type": "Feature", "properties": { "value": 15.444 }, "geometry": { "type": "Point", "coordinates": [ 129.332062, 35.479687, 30.0 ] } },
{ "type": "Feature", "properties": { "value": 39.075 }, "geometry": { "type": "Point", "coordinates": [ 129.33316, 35.479683, 30.0 ] } },
{ "type": "Feature", "properties": { "value": 32.614 }, "geometry": { "type": "Point", "coordinates": [ 129.334259, 35.479679, 30.0 ] } },
{ "type": "Feature", "properties": { "value": 10.38 }, "geometry": { "type": "Point", "coordinates": [ 129.335358, 35.479675, 30.0 ] } },
{ "type": "Feature", "properties": { "value": 1.42 }, "geometry": { "type": "Point", "coordinates": [ 129.336456, 35.479675, 30.0 ] } },
{ "type": "Feature", "properties": { "value": 0.4511 }, "geometry": { "type": "Point", "coordinates": [ 129.330963, 35.480591, 30.0 ] } },
{ "type": "Feature", "properties": { "value": 7.4586 }, "geometry": { "type": "Point", "coordinates": [ 129.332062, 35.480587, 30.0 ] } },
{ "type": "Feature", "properties": { "value": 29.008 }, "geometry": { "type": "Point", "coordinates": [ 129.33316, 35.480583, 30.0 ] } },
{ "type": "Feature", "properties": { "value": 39.432 }, "geometry": { "type": "Point", "coordinates": [ 129.334259, 35.480579, 30.0 ] } },
{ "type": "Feature", "properties": { "value": 21.469 }, "geometry": { "type": "Point", "coordinates": [ 129.335358, 35.480579, 30.0 ] } },
{ "type": "Feature", "properties": { "value": 5.4306 }, "geometry": { "type": "Point", "coordinates": [ 129.336472, 35.480576, 30.0 ] } },
{ "type": "Feature", "properties": { "value": 0.6633 }, "geometry": { "type": "Point", "coordinates": [ 129.33757, 35.480572, 30.0 ] } },
{ "type": "Feature", "properties": { "value": 3.0887 }, "geometry": { "type": "Point", "coordinates": [ 129.332062, 35.481487, 30.0 ] } },
{ "type": "Feature", "properties": { "value": 17.712 }, "geometry": { "type": "Point", "coordinates": [ 129.33316, 35.481487, 30.0 ] } },
{ "type": "Feature", "properties": { "value": 36.186 }, "geometry": { "type": "Point", "coordinates": [ 129.334259, 35.481483, 30.0 ] } },
{ "type": "Feature", "properties": { "value": 31.121 }, "geometry": { "type": "Point", "coordinates": [ 129.335373, 35.48148, 30.0 ] } },
{ "type": "Feature", "properties": { "value": 13.228 }, "geometry": { "type": "Point", "coordinates": [ 129.336472, 35.481476, 30.0 ] } },
{ "type": "Feature", "properties": { "value": 3.2727 }, "geometry": { "type": "Point", "coordinates": [ 129.33757, 35.481472, 30.0 ] } },
{ "type": "Feature", "properties": { "value": 0.4453 }, "geometry": { "type": "Point", "coordinates": [ 129.338669, 35.481472, 30.0 ] } },
{ "type": "Feature", "properties": { "value": 1.1623 }, "geometry": { "type": "Point", "coordinates": [ 129.332062, 35.482391, 30.0 ] } },
{ "type": "Feature", "properties": { "value": 9.291 }, "geometry": { "type": "Point", "coordinates": [ 129.333176, 35.482388, 30.0 ] } },
{ "type": "Feature", "properties": { "value": 26.627 }, "geometry": { "type": "Point", "coordinates": [ 129.334274, 35.482384, 30.0 ] } },
{ "type": "Feature", "properties": { "value": 34.125 }, "geometry": { "type": "Point", "coordinates": [ 129.335373, 35.48238, 30.0 ] } },
{ "type": "Feature", "properties": { "value": 22.597 }, "geometry": { "type": "Point", "coordinates": [ 129.336472, 35.482376, 30.0 ] } },
{ "type": "Feature", "properties": { "value": 8.8296 }, "geometry": { "type": "Point", "coordinates": [ 129.33757, 35.482376, 30.0 ] } },
{ "type": "Feature", "properties": { "value": 2.3371 }, "geometry": { "type": "Point", "coordinates": [ 129.338684, 35.482372, 30.0 ] } },
{ "type": "Feature", "properties": { "value": 0.4077 }, "geometry": { "type": "Point", "coordinates": [ 129.339783, 35.482368, 30.0 ] } },
{ "type": "Feature", "properties": { "value": 0.3553 }, "geometry": { "type": "Point", "coordinates": [ 129.332077, 35.483292, 30.0 ] } },
{ "type": "Feature", "properties": { "value": 4.5285 }, "geometry": { "type": "Point", "coordinates": [ 129.333176, 35.483288, 30.0 ] } },
{ "type": "Feature", "properties": { "value": 16.908 }, "geometry": { "type": "Point", "coordinates": [ 129.334274, 35.483284, 30.0 ] } },
{ "type": "Feature", "properties": { "value": 29.857 }, "geometry": { "type": "Point", "coordinates": [ 129.335373, 35.48328, 30.0 ] } },
{ "type": "Feature", "properties": { "value": 28.488 }, "geometry": { "type": "Point", "coordinates": [ 129.336472, 35.48328, 30.0 ] } },
{ "type": "Feature", "properties": { "value": 16.426 }, "geometry": { "type": "Point", "coordinates": [ 129.337585, 35.483276, 30.0 ] } },
{ "type": "Feature", "properties": { "value": 6.4833 }, "geometry": { "type": "Point", "coordinates": [ 129.338684, 35.483273, 30.0 ] } },
{ "type": "Feature", "properties": { "value": 1.9616 }, "geometry": { "type": "Point", "coordinates": [ 129.339783, 35.483269, 30.0 ] } },
{ "type": "Feature", "properties": { "value": 0.4487 }, "geometry": { "type": "Point", "coordinates": [ 129.340881, 35.483265, 30.0 ] } },
{ "type": "Feature", "properties": { "value": 2.0142 }, "geometry": { "type": "Point", "coordinates": [ 129.333176, 35.484188, 30.0 ] } },
{ "type": "Feature", "properties": { "value": 9.3964 }, "geometry": { "type": "Point", "coordinates": [ 129.334274, 35.484188, 30.0 ] } },
{ "type": "Feature", "properties": { "value": 21.653 }, "geometry": { "type": "Point", "coordinates": [ 129.335373, 35.484184, 30.0 ] } },
{ "type": "Feature", "properties": { "value": 28.084 }, "geometry": { "type": "Point", "coordinates": [ 129.336487, 35.48418, 30.0 ] } },
{ "type": "Feature", "properties": { "value": 22.658 }, "geometry": { "type": "Point", "coordinates": [ 129.337585, 35.484177, 30.0 ] } },
{ "type": "Feature", "properties": { "value": 12.606 }, "geometry": { "type": "Point", "coordinates": [ 129.338684, 35.484173, 30.0 ] } },
{ "type": "Feature", "properties": { "value": 5.3552 }, "geometry": { "type": "Point", "coordinates": [ 129.339783, 35.484173, 30.0 ] } },
{ "type": "Feature", "properties": { "value": 1.8622 }, "geometry": { "type": "Point", "coordinates": [ 129.340897, 35.484169, 30.0 ] } },
{ "type": "Feature", "properties": { "value": 0.5132 }, "geometry": { "type": "Point", "coordinates": [ 129.341995, 35.484165, 30.0 ] } },
{ "type": "Feature", "properties": { "value": 0.7911 }, "geometry": { "type": "Point", "coordinates": [ 129.333176, 35.485092, 30.0 ] } },
{ "type": "Feature", "properties": { "value": 4.6233 }, "geometry": { "type": "Point", "coordinates": [ 129.334274, 35.485088, 30.0 ] } },
{ "type": "Feature", "properties": { "value": 13.492 }, "geometry": { "type": "Point", "coordinates": [ 129.335388, 35.485085, 30.0 ] } },
{ "type": "Feature", "properties": { "value": 22.835 }, "geometry": { "type": "Point", "coordinates": [ 129.336487, 35.485081, 30.0 ] } },
{ "type": "Feature", "properties": { "value": 24.592 }, "geometry": { "type": "Point", "coordinates": [ 129.337585, 35.485077, 30.0 ] } },
{ "type": "Feature", "properties": { "value": 18.437 }, "geometry": { "type": "Point", "coordinates": [ 129.338684, 35.485077, 30.0 ] } },
{ "type": "Feature", "properties": { "value": 10.461 }, "geometry": { "type": "Point", "coordinates": [ 129.339798, 35.485073, 30.0 ] } },
{ "type": "Feature", "properties": { "value": 4.7896 }, "geometry": { "type": "Point", "coordinates": [ 129.340897, 35.485069, 30.0 ] } },
{ "type": "Feature", "properties": { "value": 1.8622 }, "geometry": { "type": "Point", "coordinates": [ 129.341995, 35.485065, 30.0 ] } },
{ "type": "Feature", "properties": { "value": 0.6201 }, "geometry": { "type": "Point", "coordinates": [ 129.343094, 35.485062, 30.0 ] } },
{ "type": "Feature", "properties": { "value": 0.1073 }, "geometry": { "type": "Point", "coordinates": [ 129.344193, 35.485062, 30.0 ] } },
{ "type": "Feature", "properties": { "value": 0.1248 }, "geometry": { "type": "Point", "coordinates": [ 129.333176, 35.485992, 30.0 ] } },
{ "type": "Feature", "properties": { "value": 2.0232 }, "geometry": { "type": "Point", "coordinates": [ 129.33429, 35.485989, 30.0 ] } },
{ "type": "Feature", "properties": { "value": 7.3192 }, "geometry": { "type": "Point", "coordinates": [ 129.335388, 35.485985, 30.0 ] } },
{ "type": "Feature", "properties": { "value": 15.73 }, "geometry": { "type": "Point", "coordinates": [ 129.336487, 35.485981, 30.0 ] } },
{ "type": "Feature", "properties": { "value": 21.918 }, "geometry": { "type": "Point", "coordinates": [ 129.337585, 35.485981, 30.0 ] } },
{ "type": "Feature", "properties": { "value": 21.389 }, "geometry": { "type": "Point", "coordinates": [ 129.338699, 35.485977, 30.0 ] } },
{ "type": "Feature", "properties": { "value": 15.682 }, "geometry": { "type": "Point", "coordinates": [ 129.339798, 35.485973, 30.0 ] } },
{ "type": "Feature", "properties": { "value": 9.1987 }, "geometry": { "type": "Point", "coordinates": [ 129.340897, 35.48597, 30.0 ] } },
{ "type": "Feature", "properties": { "value": 4.5446 }, "geometry": { "type": "Point", "coordinates": [ 129.341995, 35.485966, 30.0 ] } },
{ "type": "Feature", "properties": { "value": 1.9883 }, "geometry": { "type": "Point", "coordinates": [ 129.343094, 35.485966, 30.0 ] } },
{ "type": "Feature", "properties": { "value": 0.7967 }, "geometry": { "type": "Point", "coordinates": [ 129.344208, 35.485962, 30.0 ] } },
{ "type": "Feature", "properties": { "value": 0.2677 }, "geometry": { "type": "Point", "coordinates": [ 129.345306, 35.485958, 30.0 ] } },
{ "type": "Feature", "properties": { "value": 0.759 }, "geometry": { "type": "Point", "coordinates": [ 129.33429, 35.486889, 30.0 ] } },
{ "type": "Feature", "properties": { "value": 3.5099 }, "geometry": { "type": "Point", "coordinates": [ 129.335388, 35.486889, 30.0 ] } },
{ "type": "Feature", "properties": { "value": 9.3657 }, "geometry": { "type": "Point", "coordinates": [ 129.336487, 35.486885, 30.0 ] } },
{ "type": "Feature", "properties": { "value": 16.439 }, "geometry": { "type": "Point", "coordinates": [ 129.337601, 35.486881, 30.0 ] } },
{ "type": "Feature", "properties": { "value": 20.23 }, "geometry": { "type": "Point", "coordinates": [ 129.338699, 35.486877, 30.0 ] } },
{ "type": "Feature", "properties": { "value": 18.654 }, "geometry": { "type": "Point", "coordinates": [ 129.339798, 35.486874, 30.0 ] } },
{ "type": "Feature", "properties": { "value": 13.713 }, "geometry": { "type": "Point", "coordinates": [ 129.340897, 35.486874, 30.0 ] } },
{ "type": "Feature", "properties": { "value": 8.4469 }, "geometry": { "type": "Point", "coordinates": [ 129.341995, 35.48687, 30.0 ] } },
{ "type": "Feature", "properties": { "value": 4.5858 }, "geometry": { "type": "Point", "coordinates": [ 129.343109, 35.486866, 30.0 ] } },
{ "type": "Feature", "properties": { "value": 2.2482 }, "geometry": { "type": "Point", "coordinates": [ 129.344208, 35.486862, 30.0 ] } },
{ "type": "Feature", "properties": { "value": 1.0463 }, "geometry": { "type": "Point", "coordinates": [ 129.345306, 35.486858, 30.0 ] } },
{ "type": "Feature", "properties": { "value": 0.4564 }, "geometry": { "type": "Point", "coordinates": [ 129.346405, 35.486855, 30.0 ] } },
{ "type": "Feature", "properties": { "value": 0.161 }, "geometry": { "type": "Point", "coordinates": [ 129.347519, 35.486855, 30.0 ] } },
{ "type": "Feature", "properties": { "value": 0.0019 }, "geometry": { "type": "Point", "coordinates": [ 129.379471, 35.486755, 30.0 ] } },
{ "type": "Feature", "properties": { "value": 0.0053 }, "geometry": { "type": "Point", "coordinates": [ 129.380569, 35.486752, 30.0 ] } },
{ "type": "Feature", "properties": { "value": 0.0067 }, "geometry": { "type": "Point", "coordinates": [ 129.381668, 35.486752, 30.0 ] } },
{ "type": "Feature", "properties": { "value": 0.1929 }, "geometry": { "type": "Point", "coordinates": [ 129.33429, 35.487793, 30.0 ] } },
{ "type": "Feature", "properties": { "value": 1.501 }, "geometry": { "type": "Point", "coordinates": [ 129.335388, 35.487789, 30.0 ] } },
{ "type": "Feature", "properties": { "value": 4.9132 }, "geometry": { "type": "Point", "coordinates": [ 129.336502, 35.487785, 30.0 ] } },
{ "type": "Feature", "properties": { "value": 10.554 }, "geometry": { "type": "Point", "coordinates": [ 129.337601, 35.487782, 30.0 ] } },
{ "type": "Feature", "properties": { "value": 15.938 }, "geometry": { "type": "Point", "coordinates": [ 129.338699, 35.487778, 30.0 ] } },
{ "type": "Feature", "properties": { "value": 18.107 }, "geometry": { "type": "Point", "coordinates": [ 129.339798, 35.487778, 30.0 ] } },
{ "type": "Feature", "properties": { "value": 16.411 }, "geometry": { "type": "Point", "coordinates": [ 129.340912, 35.487774, 30.0 ] } },
{ "type": "Feature", "properties": { "value": 12.39 }, "geometry": { "type": "Point", "coordinates": [ 129.34201, 35.48777, 30.0 ] } },
{ "type": "Feature", "properties": { "value": 8.1401 }, "geometry": { "type": "Point", "coordinates": [ 129.343109, 35.487766, 30.0 ] } },
{ "type": "Feature", "properties": { "value": 4.8135 }, "geometry": { "type": "Point", "coordinates": [ 129.344208, 35.487762, 30.0 ] } },
{ "type": "Feature", "properties": { "value": 2.6543 }, "geometry": { "type": "Point", "coordinates": [ 129.345306, 35.487759, 30.0 ] } },
{ "type": "Feature", "properties": { "value": 1.4069 }, "geometry": { "type": "Point", "coordinates": [ 129.34642, 35.487759, 30.0 ] } },
{ "type": "Feature", "properties": { "value": 0.7047 }, "geometry": { "type": "Point", "coordinates": [ 129.347519, 35.487755, 30.0 ] } },
{ "type": "Feature", "properties": { "value": 0.3279 }, "geometry": { "type": "Point", "coordinates": [ 129.348618, 35.487751, 30.0 ] } },
{ "type": "Feature", "properties": { "value": 0.1063 }, "geometry": { "type": "Point", "coordinates": [ 129.349716, 35.487747, 30.0 ] } },
{ "type": "Feature", "properties": { "value": 0.0183 }, "geometry": { "type": "Point", "coordinates": [ 129.377274, 35.487663, 30.0 ] } },
{ "type": "Feature", "properties": { "value": 0.0251 }, "geometry": { "type": "Point", "coordinates": [ 129.378372, 35.487663, 30.0 ] } },
{ "type": "Feature", "properties": { "value": 0.0302 }, "geometry": { "type": "Point", "coordinates": [ 129.379471, 35.487659, 30.0 ] } },
{ "type": "Feature", "properties": { "value": 0.0311 }, "geometry": { "type": "Point", "coordinates": [ 129.380569, 35.487656, 30.0 ] } },
{ "type": "Feature", "properties": { "value": 0.0292 }, "geometry": { "type": "Point", "coordinates": [ 129.381683, 35.487652, 30.0 ] } },
{ "type": "Feature", "properties": { "value": 0.5579 }, "geometry": { "type": "Point", "coordinates": [ 129.335403, 35.488689, 30.0 ] } },
{ "type": "Feature", "properties": { "value": 2.2954 }, "geometry": { "type": "Point", "coordinates": [ 129.336502, 35.488686, 30.0 ] } },
{ "type": "Feature", "properties": { "value": 5.9264 }, "geometry": { "type": "Point", "coordinates": [ 129.337601, 35.488682, 30.0 ] } },
{ "type": "Feature", "properties": { "value": 10.785 }, "geometry": { "type": "Point", "coordinates": [ 129.338699, 35.488682, 30.0 ] } },
{ "type": "Feature", "properties": { "value": 14.837 }, "geometry": { "type": "Point", "coordinates": [ 129.339813, 35.488678, 30.0 ] } },
{ "type": "Feature", "properties": { "value": 16.282 }, "geometry": { "type": "Point", "coordinates": [ 129.340912, 35.488674, 30.0 ] } },
{ "type": "Feature", "properties": { "value": 14.827 }, "geometry": { "type": "Point", "coordinates": [ 129.34201, 35.48867, 30.0 ] } },
{ "type": "Feature", "properties": { "value": 11.632 }, "geometry": { "type": "Point", "coordinates": [ 129.343109, 35.488667, 30.0 ] } },
{ "type": "Feature", "properties": { "value": 8.1689 }, "geometry": { "type": "Point", "coordinates": [ 129.344208, 35.488667, 30.0 ] } },
{ "type": "Feature", "properties": { "value": 5.2845 }, "geometry": { "type": "Point", "coordinates": [ 129.345322, 35.488663, 30.0 ] } },
{ "type": "Feature", "properties": { "value": 3.2146 }, "geometry": { "type": "Point", "coordinates": [ 129.34642, 35.488659, 30.0 ] } },
{ "type": "Feature", "properties": { "value": 1.8536 }, "geometry": { "type": "Point", "coordinates": [ 129.347519, 35.488655, 30.0 ] } },
{ "type": "Feature", "properties": { "value": 1.0113 }, "geometry": { "type": "Point", "coordinates": [ 129.348618, 35.488651, 30.0 ] } },
{ "type": "Feature", "properties": { "value": 0.5334 }, "geometry": { "type": "Point", "coordinates": [ 129.349731, 35.488647, 30.0 ] } },
{ "type": "Feature", "properties": { "value": 0.2604 }, "geometry": { "type": "Point", "coordinates": [ 129.35083, 35.488647, 30.0 ] } },
{ "type": "Feature", "properties": { "value": 0.1036 }, "geometry": { "type": "Point", "coordinates": [ 129.351929, 35.488644, 30.0 ] } },
{ "type": "Feature", "properties": { "value": 0.0391 }, "geometry": { "type": "Point", "coordinates": [ 129.375076, 35.488571, 30.0 ] } },
{ "type": "Feature", "properties": { "value": 0.0553 }, "geometry": { "type": "Point", "coordinates": [ 129.376175, 35.488571, 30.0 ] } },
{ "type": "Feature", "properties": { "value": 0.0663 }, "geometry": { "type": "Point", "coordinates": [ 129.377274, 35.488567, 30.0 ] } },
{ "type": "Feature", "properties": { "value": 0.074 }, "geometry": { "type": "Point", "coordinates": [ 129.378372, 35.488564, 30.0 ] } },
{ "type": "Feature", "properties": { "value": 0.0784 }, "geometry": { "type": "Point", "coordinates": [ 129.379471, 35.48856, 30.0 ] } },
{ "type": "Feature", "properties": { "value": 0.0791 }, "geometry": { "type": "Point", "coordinates": [ 129.380585, 35.488556, 30.0 ] } },
{ "type": "Feature", "properties": { "value": 0.0732 }, "geometry": { "type": "Point", "coordinates": [ 129.381683, 35.488552, 30.0 ] } },
{ "type": "Feature", "properties": { "value": 0.1184 }, "geometry": { "type": "Point", "coordinates": [ 129.335403, 35.48959, 30.0 ] } },
{ "type": "Feature", "properties": { "value": 0.9573 }, "geometry": { "type": "Point", "coordinates": [ 129.336502, 35.48959, 30.0 ] } },
{ "type": "Feature", "properties": { "value": 2.9545 }, "geometry": { "type": "Point", "coordinates": [ 129.337601, 35.489586, 30.0 ] } },
{ "type": "Feature", "properties": { "value": 6.421 }, "geometry": { "type": "Point", "coordinates": [ 129.338715, 35.489582, 30.0 ] } },
{ "type": "Feature", "properties": { "value": 10.523 }, "geometry": { "type": "Point", "coordinates": [ 129.339813, 35.489578, 30.0 ] } },
{ "type": "Feature", "properties": { "value": 13.793 }, "geometry": { "type": "Point", "coordinates": [ 129.340912, 35.489574, 30.0 ] } },
{ "type": "Feature", "properties": { "value": 14.985 }, "geometry": { "type": "Point", "coordinates": [ 129.34201, 35.489571, 30.0 ] } },
{ "type": "Feature", "properties": { "value": 13.913 }, "geometry": { "type": "Point", "coordinates": [ 129.343109, 35.489571, 30.0 ] } },
{ "type": "Feature", "properties": { "value": 11.428 }, "geometry": { "type": "Point", "coordinates": [ 129.344223, 35.489567, 30.0 ] } },
{ "type": "Feature", "properties": { "value": 8.5632 }, "geometry": { "type": "Point", "coordinates": [ 129.345322, 35.489563, 30.0 ] } },
{ "type": "Feature", "properties": { "value": 5.9454 }, "geometry": { "type": "Point", "coordinates": [ 129.34642, 35.489559, 30.0 ] } },
{ "type": "Feature", "properties": { "value": 3.8556 }, "geometry": { "type": "Point", "coordinates": [ 129.347519, 35.489555, 30.0 ] } },
{ "type": "Feature", "properties": { "value": 2.3787 }, "geometry": { "type": "Point", "coordinates": [ 129.348633, 35.489555, 30.0 ] } },
{ "type": "Feature", "properties": { "value": 1.415 }, "geometry": { "type": "Point", "coordinates": [ 129.349731, 35.489552, 30.0 ] } },
{ "type": "Feature", "properties": { "value": 0.8345 }, "geometry": { "type": "Point", "coordinates": [ 129.35083, 35.489548, 30.0 ] } },
{ "type": "Feature", "properties": { "value": 0.4852 }, "geometry": { "type": "Point", "coordinates": [ 129.351929, 35.489544, 30.0 ] } },
{ "type": "Feature", "properties": { "value": 0.2778 }, "geometry": { "type": "Point", "coordinates": [ 129.353027, 35.48954, 30.0 ] } },
{ "type": "Feature", "properties": { "value": 0.1509 }, "geometry": { "type": "Point", "coordinates": [ 129.354141, 35.489536, 30.0 ] } },
{ "type": "Feature", "properties": { "value": 0.0594 }, "geometry": { "type": "Point", "coordinates": [ 129.35524, 35.489532, 30.0 ] } },
{ "type": "Feature", "properties": { "value": 0.0024 }, "geometry": { "type": "Point", "coordinates": [ 129.356339, 35.489532, 30.0 ] } },
{ "type": "Feature", "properties": { "value": 0.0358 }, "geometry": { "type": "Point", "coordinates": [ 129.371765, 35.489483, 30.0 ] } },
{ "type": "Feature", "properties": { "value": 0.0672 }, "geometry": { "type": "Point", "coordinates": [ 129.372864, 35.489483, 30.0 ] } },
{ "type": "Feature", "properties": { "value": 0.0947 }, "geometry": { "type": "Point", "coordinates": [ 129.373978, 35.489479, 30.0 ] } },
{ "type": "Feature", "properties": { "value": 0.1159 }, "geometry": { "type": "Point", "coordinates": [ 129.375076, 35.489475, 30.0 ] } },
{ "type": "Feature", "properties": { "value": 0.1354 }, "geometry": { "type": "Point", "coordinates": [ 129.376175, 35.489471, 30.0 ] } },
{ "type": "Feature", "properties": { "value": 0.1534 }, "geometry": { "type": "Point", "coordinates": [ 129.377274, 35.489468, 30.0 ] } },
{ "type": "Feature", "properties": { "value": 0.166 }, "geometry": { "type": "Point", "coordinates": [ 129.378387, 35.489464, 30.0 ] } },
{ "type": "Feature", "properties": { "value": 0.1703 }, "geometry": { "type": "Point", "coordinates": [ 129.379486, 35.48946, 30.0 ] } },
{ "type": "Feature", "properties": { "value": 0.1648 }, "geometry": { "type": "Point", "coordinates": [ 129.380585, 35.489456, 30.0 ] } },
{ "type": "Feature", "properties": { "value": 0.1517 }, "geometry": { "type": "Point", "coordinates": [ 129.381683, 35.489452, 30.0 ] } },
{ "type": "Feature", "properties": { "value": 0.3224 }, "geometry": { "type": "Point", "coordinates": [ 129.336502, 35.49049, 30.0 ] } },
{ "type": "Feature", "properties": { "value": 1.3073 }, "geometry": { "type": "Point", "coordinates": [ 129.337616, 35.490486, 30.0 ] } },
{ "type": "Feature", "properties": { "value": 3.3549 }, "geometry": { "type": "Point", "coordinates": [ 129.338715, 35.490482, 30.0 ] } },
{ "type": "Feature", "properties": { "value": 6.4978 }, "geometry": { "type": "Point", "coordinates": [ 129.339813, 35.490479, 30.0 ] } },
{ "type": "Feature", "properties": { "value": 10.077 }, "geometry": { "type": "Point", "coordinates": [ 129.340912, 35.490479, 30.0 ] } },
{ "type": "Feature", "properties": { "value": 12.896 }, "geometry": { "type": "Point", "coordinates": [ 129.34201, 35.490475, 30.0 ] } },
{ "type": "Feature", "properties": { "value": 14.019 }, "geometry": { "type": "Point", "coordinates": [ 129.343124, 35.490471, 30.0 ] } },
{ "type": "Feature", "properties": { "value": 13.397 }, "geometry": { "type": "Point", "coordinates": [ 129.344223, 35.490467, 30.0 ] } },
{ "type": "Feature", "properties": { "value": 11.558 }, "geometry": { "type": "Point", "coordinates": [ 129.345322, 35.490463, 30.0 ] } },
{ "type": "Feature", "properties": { "value": 9.118 }, "geometry": { "type": "Point", "coordinates": [ 129.34642, 35.490459, 30.0 ] } },
{ "type": "Feature", "properties": { "value": 6.6776 }, "geometry": { "type": "Point", "coordinates": [ 129.347534, 35.490459, 30.0 ] } },
{ "type": "Feature", "properties": { "value": 4.5906 }, "geometry": { "type": "Point", "coordinates": [ 129.348633, 35.490456, 30.0 ] } },
{ "type": "Feature", "properties": { "value": 3.0223 }, "geometry": { "type": "Point", "coordinates": [ 129.349731, 35.490452, 30.0 ] } },
{ "type": "Feature", "properties": { "value": 1.9592 }, "geometry": { "type": "Point", "coordinates": [ 129.35083, 35.490448, 30.0 ] } },
{ "type": "Feature", "properties": { "value": 1.2646 }, "geometry": { "type": "Point", "coordinates": [ 129.351929, 35.490444, 30.0 ] } },
{ "type": "Feature", "properties": { "value": 0.8184 }, "geometry": { "type": "Point", "coordinates": [ 129.353043, 35.49044, 30.0 ] } },
{ "type": "Feature", "properties": { "value": 0.5368 }, "geometry": { "type": "Point", "coordinates": [ 129.354141, 35.49044, 30.0 ] } },
{ "type": "Feature", "properties": { "value": 0.357 }, "geometry": { "type": "Point", "coordinates": [ 129.35524, 35.490437, 30.0 ] } },
{ "type": "Feature", "properties": { "value": 0.2384 }, "geometry": { "type": "Point", "coordinates": [ 129.356339, 35.490433, 30.0 ] } },
{ "type": "Feature", "properties": { "value": 0.1676 }, "geometry": { "type": "Point", "coordinates": [ 129.357452, 35.490429, 30.0 ] } },
{ "type": "Feature", "properties": { "value": 0.1193 }, "geometry": { "type": "Point", "coordinates": [ 129.358551, 35.490425, 30.0 ] } },
{ "type": "Feature", "properties": { "value": 0.0853 }, "geometry": { "type": "Point", "coordinates": [ 129.35965, 35.490421, 30.0 ] } },
{ "type": "Feature", "properties": { "value": 0.0609 }, "geometry": { "type": "Point", "coordinates": [ 129.360748, 35.490417, 30.0 ] } },
{ "type": "Feature", "properties": { "value": 0.0437 }, "geometry": { "type": "Point", "coordinates": [ 129.361847, 35.490417, 30.0 ] } },
{ "type": "Feature", "properties": { "value": 0.0287 }, "geometry": { "type": "Point", "coordinates": [ 129.362961, 35.490414, 30.0 ] } },
{ "type": "Feature", "properties": { "value": 0.0251 }, "geometry": { "type": "Point", "coordinates": [ 129.364059, 35.49041, 30.0 ] } },
{ "type": "Feature", "properties": { "value": 0.0293 }, "geometry": { "type": "Point", "coordinates": [ 129.365158, 35.490406, 30.0 ] } },
{ "type": "Feature", "properties": { "value": 0.0389 }, "geometry": { "type": "Point", "coordinates": [ 129.366257, 35.490402, 30.0 ] } },
{ "type": "Feature", "properties": { "value": 0.0518 }, "geometry": { "type": "Point", "coordinates": [ 129.367371, 35.490398, 30.0 ] } },
{ "type": "Feature", "properties": { "value": 0.0664 }, "geometry": { "type": "Point", "coordinates": [ 129.368469, 35.490395, 30.0 ] } },
{ "type": "Feature", "properties": { "value": 0.0871 }, "geometry": { "type": "Point", "coordinates": [ 129.369568, 35.490391, 30.0 ] } },
{ "type": "Feature", "properties": { "value": 0.1147 }, "geometry": { "type": "Point", "coordinates": [ 129.370667, 35.490391, 30.0 ] } },
{ "type": "Feature", "properties": { "value": 0.1442 }, "geometry": { "type": "Point", "coordinates": [ 129.371765, 35.490387, 30.0 ] } },
{ "type": "Feature", "properties": { "value": 0.1819 }, "geometry": { "type": "Point", "coordinates": [ 129.372879, 35.490383, 30.0 ] } },
{ "type": "Feature", "properties": { "value": 0.2137 }, "geometry": { "type": "Point", "coordinates": [ 129.373978, 35.490379, 30.0 ] } },
{ "type": "Feature", "properties": { "value": 0.2489 }, "geometry": { "type": "Point", "coordinates": [ 129.375076, 35.490376, 30.0 ] } },
{ "type": "Feature", "properties": { "value": 0.2816 }, "geometry": { "type": "Point", "coordinates": [ 129.376175, 35.490372, 30.0 ] } },
{ "type": "Feature", "properties": { "value": 0.3081 }, "geometry": { "type": "Point", "coordinates": [ 129.377289, 35.490368, 30.0 ] } },
{ "type": "Feature", "properties": { "value": 0.3231 }, "geometry": { "type": "Point", "coordinates": [ 129.378387, 35.490364, 30.0 ] } },
{ "type": "Feature", "properties": { "value": 0.3255 }, "geometry": { "type": "Point", "coordinates": [ 129.379486, 35.49036, 30.0 ] } },
{ "type": "Feature", "properties": { "value": 0.3128 }, "geometry": { "type": "Point", "coordinates": [ 129.380585, 35.490356, 30.0 ] } },
{ "type": "Feature", "properties": { "value": 0.2851 }, "geometry": { "type": "Point", "coordinates": [ 129.381683, 35.490356, 30.0 ] } },
{ "type": "Feature", "properties": { "value": 0.4932 }, "geometry": { "type": "Point", "coordinates": [ 129.337616, 35.491386, 30.0 ] } },
{ "type": "Feature", "properties": { "value": 1.5423 }, "geometry": { "type": "Point", "coordinates": [ 129.338715, 35.491383, 30.0 ] } },
{ "type": "Feature", "properties": { "value": 3.4992 }, "geometry": { "type": "Point", "coordinates": [ 129.339813, 35.491383, 30.0 ] } },
{ "type": "Feature", "properties": { "value": 6.3466 }, "geometry": { "type": "Point", "coordinates": [ 129.340927, 35.491379, 30.0 ] } },
{ "type": "Feature", "properties": { "value": 9.4688 }, "geometry": { "type": "Point", "coordinates": [ 129.342026, 35.491375, 30.0 ] } },
{ "type": "Feature", "properties": { "value": 11.958 }, "geometry": { "type": "Point", "coordinates": [ 129.343124, 35.491371, 30.0 ] } },
{ "type": "Feature", "properties": { "value": 13.186 }, "geometry": { "type": "Point", "coordinates": [ 129.344223, 35.491367, 30.0 ] } },
{ "type": "Feature", "properties": { "value": 12.996 }, "geometry": { "type": "Point", "coordinates": [ 129.345322, 35.491367, 30.0 ] } },
{ "type": "Feature", "properties": { "value": 11.659 }, "geometry": { "type": "Point", "coordinates": [ 129.346436, 35.491364, 30.0 ] } },
{ "type": "Feature", "properties": { "value": 9.6093 }, "geometry": { "type": "Point", "coordinates": [ 129.347534, 35.49136, 30.0 ] } },
{ "type": "Feature", "properties": { "value": 7.3369 }, "geometry": { "type": "Point", "coordinates": [ 129.348633, 35.491356, 30.0 ] } },
{ "type": "Feature", "properties": { "value": 5.3265 }, "geometry": { "type": "Point", "coordinates": [ 129.349731, 35.491352, 30.0 ] } },
{ "type": "Feature", "properties": { "value": 3.7804 }, "geometry": { "type": "Point", "coordinates": [ 129.350845, 35.491348, 30.0 ] } },
{ "type": "Feature", "properties": { "value": 2.6541 }, "geometry": { "type": "Point", "coordinates": [ 129.351944, 35.491348, 30.0 ] } },
{ "type": "Feature", "properties": { "value": 1.8558 }, "geometry": { "type": "Point", "coordinates": [ 129.353043, 35.491344, 30.0 ] } },
{ "type": "Feature", "properties": { "value": 1.3119 }, "geometry": { "type": "Point", "coordinates": [ 129.354141, 35.491341, 30.0 ] } },
{ "type": "Feature", "properties": { "value": 0.9464 }, "geometry": { "type": "Point", "coordinates": [ 129.35524, 35.491337, 30.0 ] } },
{ "type": "Feature", "properties": { "value": 0.6936 }, "geometry": { "type": "Point", "coordinates": [ 129.356354, 35.491333, 30.0 ] } },
{ "type": "Feature", "properties": { "value": 0.5202 }, "geometry": { "type": "Point", "coordinates": [ 129.357452, 35.491329, 30.0 ] } },
{ "type": "Feature", "properties": { "value": 0.4058 }, "geometry": { "type": "Point", "coordinates": [ 129.358551, 35.491325, 30.0 ] } },
{ "type": "Feature", "properties": { "value": 0.3241 }, "geometry": { "type": "Point", "coordinates": [ 129.35965, 35.491325, 30.0 ] } },
{ "type": "Feature", "properties": { "value": 0.2681 }, "geometry": { "type": "Point", "coordinates": [ 129.360764, 35.491322, 30.0 ] } },
{ "type": "Feature", "properties": { "value": 0.2299 }, "geometry": { "type": "Point", "coordinates": [ 129.361862, 35.491318, 30.0 ] } },
{ "type": "Feature", "properties": { "value": 0.2033 }, "geometry": { "type": "Point", "coordinates": [ 129.362961, 35.491314, 30.0 ] } },
{ "type": "Feature", "properties": { "value": 0.1902 }, "geometry": { "type": "Point", "coordinates": [ 129.364059, 35.49131, 30.0 ] } },
{ "type": "Feature", "properties": { "value": 0.1843 }, "geometry": { "type": "Point", "coordinates": [ 129.365158, 35.491306, 30.0 ] } },
{ "type": "Feature", "properties": { "value": 0.1861 }, "geometry": { "type": "Point", "coordinates": [ 129.366272, 35.491302, 30.0 ] } },
{ "type": "Feature", "properties": { "value": 0.1955 }, "geometry": { "type": "Point", "coordinates": [ 129.367371, 35.491299, 30.0 ] } },
{ "type": "Feature", "properties": { "value": 0.214 }, "geometry": { "type": "Point", "coordinates": [ 129.368469, 35.491299, 30.0 ] } },
{ "type": "Feature", "properties": { "value": 0.242 }, "geometry": { "type": "Point", "coordinates": [ 129.369568, 35.491295, 30.0 ] } },
{ "type": "Feature", "properties": { "value": 0.2778 }, "geometry": { "type": "Point", "coordinates": [ 129.370682, 35.491291, 30.0 ] } },
{ "type": "Feature", "properties": { "value": 0.3263 }, "geometry": { "type": "Point", "coordinates": [ 129.37178, 35.491287, 30.0 ] } },
{ "type": "Feature", "properties": { "value": 0.3756 }, "geometry": { "type": "Point", "coordinates": [ 129.372879, 35.491283, 30.0 ] } },
{ "type": "Feature", "properties": { "value": 0.4278 }, "geometry": { "type": "Point", "coordinates": [ 129.373978, 35.49128, 30.0 ] } },
{ "type": "Feature", "properties": { "value": 0.4821 }, "geometry": { "type": "Point", "coordinates": [ 129.375076, 35.491276, 30.0 ] } },
{ "type": "Feature", "properties": { "value": 0.5279 }, "geometry": { "type": "Point", "coordinates": [ 129.37619, 35.491272, 30.0 ] } },
{ "type": "Feature", "properties": { "value": 0.5631 }, "geometry": { "type": "Point", "coordinates": [ 129.377289, 35.491268, 30.0 ] } },
{ "type": "Feature", "properties": { "value": 0.5809 }, "geometry": { "type": "Point", "coordinates": [ 129.378387, 35.491268, 30.0 ] } },
{ "type": "Feature", "properties": { "value": 0.5752 }, "geometry": { "type": "Point", "coordinates": [ 129.379486, 35.491264, 30.0 ] } },
{ "type": "Feature", "properties": { "value": 0.5437 }, "geometry": { "type": "Point", "coordinates": [ 129.3806, 35.491261, 30.0 ] } },
{ "type": "Feature", "properties": { "value": 0.4883 }, "geometry": { "type": "Point", "coordinates": [ 129.381699, 35.491257, 30.0 ] } },
{ "type": "Feature", "properties": { "value": 0.1133 }, "geometry": { "type": "Point", "coordinates": [ 129.337616, 35.49229, 30.0 ] } },
{ "type": "Feature", "properties": { "value": 0.6127 }, "geometry": { "type": "Point", "coordinates": [ 129.338715, 35.492287, 30.0 ] } },
{ "type": "Feature", "properties": { "value": 1.6629 }, "geometry": { "type": "Point", "coordinates": [ 129.339828, 35.492283, 30.0 ] } },
{ "type": "Feature", "properties": { "value": 3.4852 }, "geometry": { "type": "Point", "coordinates": [ 129.340927, 35.492279, 30.0 ] } },
{ "type": "Feature", "properties": { "value": 5.9895 }, "geometry": { "type": "Point", "coordinates": [ 129.342026, 35.492275, 30.0 ] } },
{ "type": "Feature", "properties": { "value": 8.725 }, "geometry": { "type": "Point", "coordinates": [ 129.343124, 35.492271, 30.0 ] } },
{ "type": "Feature", "properties": { "value": 10.991 }, "geometry": { "type": "Point", "coordinates": [ 129.344223, 35.492271, 30.0 ] } },
{ "type": "Feature", "properties": { "value": 12.285 }, "geometry": { "type": "Point", "coordinates": [ 129.345337, 35.492268, 30.0 ] } },
{ "type": "Feature", "properties": { "value": 12.42 }, "geometry": { "type": "Point", "coordinates": [ 129.346436, 35.492264, 30.0 ] } },
{ "type": "Feature", "properties": { "value": 11.456 }, "geometry": { "type": "Point", "coordinates": [ 129.347534, 35.49226, 30.0 ] } },
{ "type": "Feature", "properties": { "value": 9.7545 }, "geometry": { "type": "Point", "coordinates": [ 129.348633, 35.492256, 30.0 ] } },
{ "type": "Feature", "properties": { "value": 7.8384 }, "geometry": { "type": "Point", "coordinates": [ 129.349747, 35.492252, 30.0 ] } },
{ "type": "Feature", "properties": { "value": 6.0911 }, "geometry": { "type": "Point", "coordinates": [ 129.350845, 35.492252, 30.0 ] } },
{ "type": "Feature", "properties": { "value": 4.6346 }, "geometry": { "type": "Point", "coordinates": [ 129.351944, 35.492249, 30.0 ] } },
{ "type": "Feature", "properties": { "value": 3.4908 }, "geometry": { "type": "Point", "coordinates": [ 129.353043, 35.492245, 30.0 ] } },
{ "type": "Feature", "properties": { "value": 2.6347 }, "geometry": { "type": "Point", "coordinates": [ 129.354141, 35.492241, 30.0 ] } },
{ "type": "Feature", "properties": { "value": 2.0041 }, "geometry": { "type": "Point", "coordinates": [ 129.355255, 35.492237, 30.0 ] } },
{ "type": "Feature", "properties": { "value": 1.5456 }, "geometry": { "type": "Point", "coordinates": [ 129.356354, 35.492233, 30.0 ] } },
{ "type": "Feature", "properties": { "value": 1.212 }, "geometry": { "type": "Point", "coordinates": [ 129.357452, 35.492233, 30.0 ] } },
{ "type": "Feature", "properties": { "value": 0.971 }, "geometry": { "type": "Point", "coordinates": [ 129.358551, 35.492229, 30.0 ] } },
{ "type": "Feature", "properties": { "value": 0.7958 }, "geometry": { "type": "Point", "coordinates": [ 129.359665, 35.492226, 30.0 ] } },
{ "type": "Feature", "properties": { "value": 0.6729 }, "geometry": { "type": "Point", "coordinates": [ 129.360764, 35.492222, 30.0 ] } },
{ "type": "Feature", "properties": { "value": 0.5838 }, "geometry": { "type": "Point", "coordinates": [ 129.361862, 35.492218, 30.0 ] } },
{ "type": "Feature", "properties": { "value": 0.5206 }, "geometry": { "type": "Point", "coordinates": [ 129.362961, 35.492214, 30.0 ] } },
{ "type": "Feature", "properties": { "value": 0.4778 }, "geometry": { "type": "Point", "coordinates": [ 129.364059, 35.49221, 30.0 ] } },
{ "type": "Feature", "properties": { "value": 0.4565 }, "geometry": { "type": "Point", "coordinates": [ 129.365173, 35.49221, 30.0 ] } },
{ "type": "Feature", "properties": { "value": 0.4495 }, "geometry": { "type": "Point", "coordinates": [ 129.366272, 35.492207, 30.0 ] } },
{ "type": "Feature", "properties": { "value": 0.4565 }, "geometry": { "type": "Point", "coordinates": [ 129.367371, 35.492203, 30.0 ] } },
{ "type": "Feature", "properties": { "value": 0.4801 }, "geometry": { "type": "Point", "coordinates": [ 129.368469, 35.492199, 30.0 ] } },
{ "type": "Feature", "properties": { "value": 0.5182 }, "geometry": { "type": "Point", "coordinates": [ 129.369583, 35.492195, 30.0 ] } },
{ "type": "Feature", "properties": { "value": 0.571 }, "geometry": { "type": "Point", "coordinates": [ 129.370682, 35.492191, 30.0 ] } },
{ "type": "Feature", "properties": { "value": 0.6351 }, "geometry": { "type": "Point", "coordinates": [ 129.37178, 35.492188, 30.0 ] } },
{ "type": "Feature", "properties": { "value": 0.7066 }, "geometry": { "type": "Point", "coordinates": [ 129.372879, 35.492184, 30.0 ] } },
{ "type": "Feature", "properties": { "value": 0.7797 }, "geometry": { "type": "Point", "coordinates": [ 129.373978, 35.49218, 30.0 ] } },
{ "type": "Feature", "properties": { "value": 0.8539 }, "geometry": { "type": "Point", "coordinates": [ 129.375092, 35.49218, 30.0 ] } },
{ "type": "Feature", "properties": { "value": 0.9131 }, "geometry": { "type": "Point", "coordinates": [ 129.37619, 35.492176, 30.0 ] } },
{ "type": "Feature", "properties": { "value": 0.9547 }, "geometry": { "type": "Point", "coordinates": [ 129.377289, 35.492172, 30.0 ] } },
{ "type": "Feature", "properties": { "value": 0.9662 }, "geometry": { "type": "Point", "coordinates": [ 129.378387, 35.492168, 30.0 ] } },
{ "type": "Feature", "properties": { "value": 0.9383 }, "geometry": { "type": "Point", "coordinates": [ 129.379501, 35.492165, 30.0 ] } },
{ "type": "Feature", "properties": { "value": 0.8764 }, "geometry": { "type": "Point", "coordinates": [ 129.3806, 35.492161, 30.0 ] } },
{ "type": "Feature", "properties": { "value": 0.7814 }, "geometry": { "type": "Point", "coordinates": [ 129.381699, 35.492157, 30.0 ] } },
{ "type": "Feature", "properties": { "value": 0.1888 }, "geometry": { "type": "Point", "coordinates": [ 129.33873, 35.493187, 30.0 ] } },
{ "type": "Feature", "properties": { "value": 0.6891 }, "geometry": { "type": "Point", "coordinates": [ 129.339828, 35.493183, 30.0 ] } },
{ "type": "Feature", "properties": { "value": 1.6883 }, "geometry": { "type": "Point", "coordinates": [ 129.340927, 35.493179, 30.0 ] } },
{ "type": "Feature", "properties": { "value": 3.3384 }, "geometry": { "type": "Point", "coordinates": [ 129.342026, 35.493179, 30.0 ] } },
{ "type": "Feature", "properties": { "value": 5.5362 }, "geometry": { "type": "Point", "coordinates": [ 129.343124, 35.493176, 30.0 ] } },
{ "type": "Feature", "properties": { "value": 7.9162 }, "geometry": { "type": "Point", "coordinates": [ 129.344238, 35.493172, 30.0 ] } },
{ "type": "Feature", "properties": { "value": 9.9742 }, "geometry": { "type": "Point", "coordinates": [ 129.345337, 35.493168, 30.0 ] } },
{ "type": "Feature", "properties": { "value": 11.271 }, "geometry": { "type": "Point", "coordinates": [ 129.346436, 35.493164, 30.0 ] } },
{ "type": "Feature", "properties": { "value": 11.581 }, "geometry": { "type": "Point", "coordinates": [ 129.347534, 35.49316, 30.0 ] } },
{ "type": "Feature", "properties": { "value": 10.983 }, "geometry": { "type": "Point", "coordinates": [ 129.348648, 35.49316, 30.0 ] } },
{ "type": "Feature", "properties": { "value": 9.797 }, "geometry": { "type": "Point", "coordinates": [ 129.349747, 35.493156, 30.0 ] } },
{ "type": "Feature", "properties": { "value": 8.3357 }, "geometry": { "type": "Point", "coordinates": [ 129.350845, 35.493153, 30.0 ] } },
{ "type": "Feature", "properties": { "value": 6.8712 }, "geometry": { "type": "Point", "coordinates": [ 129.351944, 35.493149, 30.0 ] } },
{ "type": "Feature", "properties": { "value": 5.5697 }, "geometry": { "type": "Point", "coordinates": [ 129.353043, 35.493145, 30.0 ] } },
{ "type": "Feature", "properties": { "value": 4.478 }, "geometry": { "type": "Point", "coordinates": [ 129.354156, 35.493141, 30.0 ] } },
{ "type": "Feature", "properties": { "value": 3.5909 }, "geometry": { "type": "Point", "coordinates": [ 129.355255, 35.493141, 30.0 ] } },
{ "type": "Feature", "properties": { "value": 2.8909 }, "geometry": { "type": "Point", "coordinates": [ 129.356354, 35.493137, 30.0 ] } },
{ "type": "Feature", "properties": { "value": 2.3509 }, "geometry": { "type": "Point", "coordinates": [ 129.357452, 35.493134, 30.0 ] } },
{ "type": "Feature", "properties": { "value": 1.9403 }, "geometry": { "type": "Point", "coordinates": [ 129.358566, 35.49313, 30.0 ] } },
{ "type": "Feature", "properties": { "value": 1.6334 }, "geometry": { "type": "Point", "coordinates": [ 129.359665, 35.493126, 30.0 ] } },
{ "type": "Feature", "properties": { "value": 1.4009 }, "geometry": { "type": "Point", "coordinates": [ 129.360764, 35.493122, 30.0 ] } },
{ "type": "Feature", "properties": { "value": 1.2222 }, "geometry": { "type": "Point", "coordinates": [ 129.361862, 35.493118, 30.0 ] } },
{ "type": "Feature", "properties": { "value": 1.0955 }, "geometry": { "type": "Point", "coordinates": [ 129.362961, 35.493118, 30.0 ] } },
{ "type": "Feature", "properties": { "value": 1.0036 }, "geometry": { "type": "Point", "coordinates": [ 129.364075, 35.493114, 30.0 ] } },
{ "type": "Feature", "properties": { "value": 0.9478 }, "geometry": { "type": "Point", "coordinates": [ 129.365173, 35.493111, 30.0 ] } },
{ "type": "Feature", "properties": { "value": 0.9189 }, "geometry": { "type": "Point", "coordinates": [ 129.366272, 35.493107, 30.0 ] } },
{ "type": "Feature", "properties": { "value": 0.9165 }, "geometry": { "type": "Point", "coordinates": [ 129.367371, 35.493103, 30.0 ] } },
{ "type": "Feature", "properties": { "value": 0.9356 }, "geometry": { "type": "Point", "coordinates": [ 129.368484, 35.493099, 30.0 ] } },
{ "type": "Feature", "properties": { "value": 0.9794 }, "geometry": { "type": "Point", "coordinates": [ 129.369583, 35.493095, 30.0 ] } },
{ "type": "Feature", "properties": { "value": 1.0458 }, "geometry": { "type": "Point", "coordinates": [ 129.370682, 35.493092, 30.0 ] } },
{ "type": "Feature", "properties": { "value": 1.1247 }, "geometry": { "type": "Point", "coordinates": [ 129.37178, 35.493088, 30.0 ] } },
{ "type": "Feature", "properties": { "value": 1.2132 }, "geometry": { "type": "Point", "coordinates": [ 129.372894, 35.493088, 30.0 ] } },
{ "type": "Feature", "properties": { "value": 1.3089 }, "geometry": { "type": "Point", "coordinates": [ 129.373993, 35.493084, 30.0 ] } },
{ "type": "Feature", "properties": { "value": 1.3936 }, "geometry": { "type": "Point", "coordinates": [ 129.375092, 35.49308, 30.0 ] } },
{ "type": "Feature", "properties": { "value": 1.4624 }, "geometry": { "type": "Point", "coordinates": [ 129.37619, 35.493076, 30.0 ] } },
{ "type": "Feature", "properties": { "value": 1.4949 }, "geometry": { "type": "Point", "coordinates": [ 129.377289, 35.493073, 30.0 ] } },
{ "type": "Feature", "properties": { "value": 1.4866 }, "geometry": { "type": "Point", "coordinates": [ 129.378403, 35.493069, 30.0 ] } },
{ "type": "Feature", "properties": { "value": 1.4244 }, "geometry": { "type": "Point", "coordinates": [ 129.379501, 35.493065, 30.0 ] } },
{ "type": "Feature", "properties": { "value": 1.3118 }, "geometry": { "type": "Point", "coordinates": [ 129.3806, 35.493061, 30.0 ] } },
{ "type": "Feature", "properties": { "value": 1.1563 }, "geometry": { "type": "Point", "coordinates": [ 129.381699, 35.493057, 30.0 ] } },
{ "type": "Feature", "properties": { "value": 0.2224 }, "geometry": { "type": "Point", "coordinates": [ 129.339828, 35.494083, 30.0 ] } },
{ "type": "Feature", "properties": { "value": 0.7157 }, "geometry": { "type": "Point", "coordinates": [ 129.340927, 35.494083, 30.0 ] } },
{ "type": "Feature", "properties": { "value": 1.6493 }, "geometry": { "type": "Point", "coordinates": [ 129.342026, 35.49408, 30.0 ] } },
{ "type": "Feature", "properties": { "value": 3.1001 }, "geometry": { "type": "Point", "coordinates": [ 129.34314, 35.494076, 30.0 ] } },
{ "type": "Feature", "properties": { "value": 5.0145 }, "geometry": { "type": "Point", "coordinates": [ 129.344238, 35.494072, 30.0 ] } },
{ "type": "Feature", "properties": { "value": 7.0781 }, "geometry": { "type": "Point", "coordinates": [ 129.345337, 35.494068, 30.0 ] } },
{ "type": "Feature", "properties": { "value": 8.9075 }, "geometry": { "type": "Point", "coordinates": [ 129.346436, 35.494068, 30.0 ] } },
{ "type": "Feature", "properties": { "value": 10.173 }, "geometry": { "type": "Point", "coordinates": [ 129.347549, 35.494064, 30.0 ] } },
{ "type": "Feature", "properties": { "value": 10.716 }, "geometry": { "type": "Point", "coordinates": [ 129.348648, 35.494061, 30.0 ] } },
{ "type": "Feature", "properties": { "value": 10.5 }, "geometry": { "type": "Point", "coordinates": [ 129.349747, 35.494057, 30.0 ] } },
{ "type": "Feature", "properties": { "value": 9.7599 }, "geometry": { "type": "Point", "coordinates": [ 129.350845, 35.494053, 30.0 ] } },
{ "type": "Feature", "properties": { "value": 8.7524 }, "geometry": { "type": "Point", "coordinates": [ 129.351959, 35.494049, 30.0 ] } },
{ "type": "Feature", "properties": { "value": 7.605 }, "geometry": { "type": "Point", "coordinates": [ 129.353058, 35.494049, 30.0 ] } },
{ "type": "Feature", "properties": { "value": 6.4917 }, "geometry": { "type": "Point", "coordinates": [ 129.354156, 35.494045, 30.0 ] } },
{ "type": "Feature", "properties": { "value": 5.4888 }, "geometry": { "type": "Point", "coordinates": [ 129.355255, 35.494041, 30.0 ] } },
{ "type": "Feature", "properties": { "value": 4.6298 }, "geometry": { "type": "Point", "coordinates": [ 129.356354, 35.494038, 30.0 ] } },
{ "type": "Feature", "properties": { "value": 3.91 }, "geometry": { "type": "Point", "coordinates": [ 129.357468, 35.494034, 30.0 ] } },
{ "type": "Feature", "properties": { "value": 3.3287 }, "geometry": { "type": "Point", "coordinates": [ 129.358566, 35.49403, 30.0 ] } },
{ "type": "Feature", "properties": { "value": 2.8703 }, "geometry": { "type": "Point", "coordinates": [ 129.359665, 35.494026, 30.0 ] } },
{ "type": "Feature", "properties": { "value": 2.5065 }, "geometry": { "type": "Point", "coordinates": [ 129.360764, 35.494026, 30.0 ] } },
{ "type": "Feature", "properties": { "value": 2.2175 }, "geometry": { "type": "Point", "coordinates": [ 129.361877, 35.494022, 30.0 ] } },
{ "type": "Feature", "properties": { "value": 1.9962 }, "geometry": { "type": "Point", "coordinates": [ 129.362976, 35.494019, 30.0 ] } },
{ "type": "Feature", "properties": { "value": 1.8343 }, "geometry": { "type": "Point", "coordinates": [ 129.364075, 35.494015, 30.0 ] } },
{ "type": "Feature", "properties": { "value": 1.723 }, "geometry": { "type": "Point", "coordinates": [ 129.365173, 35.494011, 30.0 ] } },
{ "type": "Feature", "properties": { "value": 1.6547 }, "geometry": { "type": "Point", "coordinates": [ 129.366272, 35.494007, 30.0 ] } },
{ "type": "Feature", "properties": { "value": 1.6232 }, "geometry": { "type": "Point", "coordinates": [ 129.367386, 35.494003, 30.0 ] } },
{ "type": "Feature", "properties": { "value": 1.6276 }, "geometry": { "type": "Point", "coordinates": [ 129.368484, 35.493999, 30.0 ] } },
{ "type": "Feature", "properties": { "value": 1.6683 }, "geometry": { "type": "Point", "coordinates": [ 129.369583, 35.493999, 30.0 ] } },
{ "type": "Feature", "properties": { "value": 1.7355 }, "geometry": { "type": "Point", "coordinates": [ 129.370682, 35.493996, 30.0 ] } },
{ "type": "Feature", "properties": { "value": 1.8196 }, "geometry": { "type": "Point", "coordinates": [ 129.371796, 35.493992, 30.0 ] } },
{ "type": "Feature", "properties": { "value": 1.9181 }, "geometry": { "type": "Point", "coordinates": [ 129.372894, 35.493988, 30.0 ] } },
{ "type": "Feature", "properties": { "value": 2.019 }, "geometry": { "type": "Point", "coordinates": [ 129.373993, 35.493984, 30.0 ] } },
{ "type": "Feature", "properties": { "value": 2.1036 }, "geometry": { "type": "Point", "coordinates": [ 129.375092, 35.49398, 30.0 ] } },
{ "type": "Feature", "properties": { "value": 2.1622 }, "geometry": { "type": "Point", "coordinates": [ 129.37619, 35.493977, 30.0 ] } },
{ "type": "Feature", "properties": { "value": 2.1709 }, "geometry": { "type": "Point", "coordinates": [ 129.377304, 35.493973, 30.0 ] } },
{ "type": "Feature", "properties": { "value": 2.1233 }, "geometry": { "type": "Point", "coordinates": [ 129.378403, 35.493969, 30.0 ] } },
{ "type": "Feature", "properties": { "value": 2.0051 }, "geometry": { "type": "Point", "coordinates": [ 129.379501, 35.493965, 30.0 ] } },
{ "type": "Feature", "properties": { "value": 1.825 }, "geometry": { "type": "Point", "coordinates": [ 129.3806, 35.493965, 30.0 ] } },
{ "type": "Feature", "properties": { "value": 1.5907 }, "geometry": { "type": "Point", "coordinates": [ 129.381714, 35.493961, 30.0 ] } },
{ "type": "Feature", "properties": { "value": 0.249 }, "geometry": { "type": "Point", "coordinates": [ 129.340942, 35.494984, 30.0 ] } },
{ "type": "Feature", "properties": { "value": 0.7169 }, "geometry": { "type": "Point", "coordinates": [ 129.342041, 35.49498, 30.0 ] } },
{ "type": "Feature", "properties": { "value": 1.5326 }, "geometry": { "type": "Point", "coordinates": [ 129.34314, 35.494976, 30.0 ] } },
{ "type": "Feature", "properties": { "value": 2.7863 }, "geometry": { "type": "Point", "coordinates": [ 129.344238, 35.494972, 30.0 ] } },
{ "type": "Feature", "properties": { "value": 4.4088 }, "geometry": { "type": "Point", "coordinates": [ 129.345337, 35.494972, 30.0 ] } },
{ "type": "Feature", "properties": { "value": 6.1678 }, "geometry": { "type": "Point", "coordinates": [ 129.346451, 35.494968, 30.0 ] } },
{ "type": "Feature", "properties": { "value": 7.7977 }, "geometry": { "type": "Point", "coordinates": [ 129.347549, 35.494965, 30.0 ] } },
{ "type": "Feature", "properties": { "value": 9.0649 }, "geometry": { "type": "Point", "coordinates": [ 129.348648, 35.494961, 30.0 ] } },
{ "type": "Feature", "properties": { "value": 9.7356 }, "geometry": { "type": "Point", "coordinates": [ 129.349747, 35.494957, 30.0 ] } },
{ "type": "Feature", "properties": { "value": 9.8524 }, "geometry": { "type": "Point", "coordinates": [ 129.350861, 35.494953, 30.0 ] } },
{ "type": "Feature", "properties": { "value": 9.5468 }, "geometry": { "type": "Point", "coordinates": [ 129.351959, 35.494953, 30.0 ] } },
{ "type": "Feature", "properties": { "value": 8.8831 }, "geometry": { "type": "Point", "coordinates": [ 129.353058, 35.494949, 30.0 ] } },
{ "type": "Feature", "properties": { "value": 8.0659 }, "geometry": { "type": "Point", "coordinates": [ 129.354156, 35.494946, 30.0 ] } },
{ "type": "Feature", "properties": { "value": 7.2064 }, "geometry": { "type": "Point", "coordinates": [ 129.355255, 35.494942, 30.0 ] } },
{ "type": "Feature", "properties": { "value": 6.3671 }, "geometry": { "type": "Point", "coordinates": [ 129.356369, 35.494938, 30.0 ] } },
{ "type": "Feature", "properties": { "value": 5.6045 }, "geometry": { "type": "Point", "coordinates": [ 129.357468, 35.494934, 30.0 ] } },
{ "type": "Feature", "properties": { "value": 4.9339 }, "geometry": { "type": "Point", "coordinates": [ 129.358566, 35.494934, 30.0 ] } },
{ "type": "Feature", "properties": { "value": 4.3696 }, "geometry": { "type": "Point", "coordinates": [ 129.359665, 35.49493, 30.0 ] } },
{ "type": "Feature", "properties": { "value": 3.8941 }, "geometry": { "type": "Point", "coordinates": [ 129.360779, 35.494926, 30.0 ] } },
{ "type": "Feature", "properties": { "value": 3.5011 }, "geometry": { "type": "Point", "coordinates": [ 129.361877, 35.494923, 30.0 ] } },
{ "type": "Feature", "properties": { "value": 3.1878 }, "geometry": { "type": "Point", "coordinates": [ 129.362976, 35.494919, 30.0 ] } },
{ "type": "Feature", "properties": { "value": 2.9489 }, "geometry": { "type": "Point", "coordinates": [ 129.364075, 35.494915, 30.0 ] } },
{ "type": "Feature", "properties": { "value": 2.7696 }, "geometry": { "type": "Point", "coordinates": [ 129.365173, 35.494911, 30.0 ] } },
{ "type": "Feature", "properties": { "value": 2.6476 }, "geometry": { "type": "Point", "coordinates": [ 129.366287, 35.494907, 30.0 ] } },
{ "type": "Feature", "properties": { "value": 2.5764 }, "geometry": { "type": "Point", "coordinates": [ 129.367386, 35.494907, 30.0 ] } },
{ "type": "Feature", "properties": { "value": 2.5505 }, "geometry": { "type": "Point", "coordinates": [ 129.368484, 35.494904, 30.0 ] } },
{ "type": "Feature", "properties": { "value": 2.5675 }, "geometry": { "type": "Point", "coordinates": [ 129.369583, 35.4949, 30.0 ] } },
{ "type": "Feature", "properties": { "value": 2.6203 }, "geometry": { "type": "Point", "coordinates": [ 129.370697, 35.494896, 30.0 ] } },
{ "type": "Feature", "properties": { "value": 2.6934 }, "geometry": { "type": "Point", "coordinates": [ 129.371796, 35.494892, 30.0 ] } },
{ "type": "Feature", "properties": { "value": 2.7797 }, "geometry": { "type": "Point", "coordinates": [ 129.372894, 35.494888, 30.0 ] } },
{ "type": "Feature", "properties": { "value": 2.8676 }, "geometry": { "type": "Point", "coordinates": [ 129.373993, 35.494884, 30.0 ] } },
{ "type": "Feature", "properties": { "value": 2.9305 }, "geometry": { "type": "Point", "coordinates": [ 129.375107, 35.494881, 30.0 ] } },
{ "type": "Feature", "properties": { "value": 2.9563 }, "geometry": { "type": "Point", "coordinates": [ 129.376205, 35.494877, 30.0 ] } },
{ "type": "Feature", "properties": { "value": 2.9196 }, "geometry": { "type": "Point", "coordinates": [ 129.377304, 35.494877, 30.0 ] } },
{ "type": "Feature", "properties": { "value": 2.812 }, "geometry": { "type": "Point", "coordinates": [ 129.378403, 35.494873, 30.0 ] } },
{ "type": "Feature", "properties": { "value": 2.6213 }, "geometry": { "type": "Point", "coordinates": [ 129.379501, 35.494869, 30.0 ] } },
{ "type": "Feature", "properties": { "value": 2.3579 }, "geometry": { "type": "Point", "coordinates": [ 129.380615, 35.494865, 30.0 ] } },
{ "type": "Feature", "properties": { "value": 2.031 }, "geometry": { "type": "Point", "coordinates": [ 129.381714, 35.494862, 30.0 ] } },
{ "type": "Feature", "properties": { "value": 0.2604 }, "geometry": { "type": "Point", "coordinates": [ 129.342041, 35.49588, 30.0 ] } },
{ "type": "Feature", "properties": { "value": 0.6651 }, "geometry": { "type": "Point", "coordinates": [ 129.34314, 35.49588, 30.0 ] } },
{ "type": "Feature", "properties": { "value": 1.364 }, "geometry": { "type": "Point", "coordinates": [ 129.344238, 35.495876, 30.0 ] } },
{ "type": "Feature", "properties": { "value": 2.4057 }, "geometry": { "type": "Point", "coordinates": [ 129.345352, 35.495872, 30.0 ] } },
{ "type": "Feature", "properties": { "value": 3.7285 }, "geometry": { "type": "Point", "coordinates": [ 129.346451, 35.495869, 30.0 ] } },
{ "type": "Feature", "properties": { "value": 5.1959 }, "geometry": { "type": "Point", "coordinates": [ 129.347549, 35.495865, 30.0 ] } },
{ "type": "Feature", "properties": { "value": 6.6417 }, "geometry": { "type": "Point", "coordinates": [ 129.348648, 35.495861, 30.0 ] } },
{ "type": "Feature", "properties": { "value": 7.8348 }, "geometry": { "type": "Point", "coordinates": [ 129.349762, 35.495861, 30.0 ] } },
{ "type": "Feature", "properties": { "value": 8.6184 }, "geometry": { "type": "Point", "coordinates": [ 129.350861, 35.495857, 30.0 ] } },
{ "type": "Feature", "properties": { "value": 8.9572 }, "geometry": { "type": "Point", "coordinates": [ 129.351959, 35.495853, 30.0 ] } },
{ "type": "Feature", "properties": { "value": 8.9218 }, "geometry": { "type": "Point", "coordinates": [ 129.353058, 35.49585, 30.0 ] } },
{ "type": "Feature", "properties": { "value": 8.6289 }, "geometry": { "type": "Point", "coordinates": [ 129.354156, 35.495846, 30.0 ] } },
{ "type": "Feature", "properties": { "value": 8.1575 }, "geometry": { "type": "Point", "coordinates": [ 129.35527, 35.495842, 30.0 ] } },
{ "type": "Feature", "properties": { "value": 7.5796 }, "geometry": { "type": "Point", "coordinates": [ 129.356369, 35.495838, 30.0 ] } },
{ "type": "Feature", "properties": { "value": 6.9598 }, "geometry": { "type": "Point", "coordinates": [ 129.357468, 35.495838, 30.0 ] } },
{ "type": "Feature", "properties": { "value": 6.358 }, "geometry": { "type": "Point", "coordinates": [ 129.358566, 35.495834, 30.0 ] } },
{ "type": "Feature", "properties": { "value": 5.7974 }, "geometry": { "type": "Point", "coordinates": [ 129.35968, 35.495831, 30.0 ] } },
{ "type": "Feature", "properties": { "value": 5.2921 }, "geometry": { "type": "Point", "coordinates": [ 129.360779, 35.495827, 30.0 ] } },
{ "type": "Feature", "properties": { "value": 4.8543 }, "geometry": { "type": "Point", "coordinates": [ 129.361877, 35.495823, 30.0 ] } },
{ "type": "Feature", "properties": { "value": 4.4882 }, "geometry": { "type": "Point", "coordinates": [ 129.362976, 35.495819, 30.0 ] } },
{ "type": "Feature", "properties": { "value": 4.1922 }, "geometry": { "type": "Point", "coordinates": [ 129.36409, 35.495815, 30.0 ] } },
{ "type": "Feature", "properties": { "value": 3.9569 }, "geometry": { "type": "Point", "coordinates": [ 129.365189, 35.495815, 30.0 ] } },
{ "type": "Feature", "properties": { "value": 3.7796 }, "geometry": { "type": "Point", "coordinates": [ 129.366287, 35.495811, 30.0 ] } },
{ "type": "Feature", "properties": { "value": 3.6619 }, "geometry": { "type": "Point", "coordinates": [ 129.367386, 35.495808, 30.0 ] } },
{ "type": "Feature", "properties": { "value": 3.5974 }, "geometry": { "type": "Point", "coordinates": [ 129.368484, 35.495804, 30.0 ] } },
{ "type": "Feature", "properties": { "value": 3.5765 }, "geometry": { "type": "Point", "coordinates": [ 129.369598, 35.4958, 30.0 ] } },
{ "type": "Feature", "properties": { "value": 3.594 }, "geometry": { "type": "Point", "coordinates": [ 129.370697, 35.495796, 30.0 ] } },
{ "type": "Feature", "properties": { "value": 3.64 }, "geometry": { "type": "Point", "coordinates": [ 129.371796, 35.495792, 30.0 ] } },
{ "type": "Feature", "properties": { "value": 3.6934 }, "geometry": { "type": "Point", "coordinates": [ 129.372894, 35.495789, 30.0 ] } },
{ "type": "Feature", "properties": { "value": 3.7407 }, "geometry": { "type": "Point", "coordinates": [ 129.374008, 35.495785, 30.0 ] } },
{ "type": "Feature", "properties": { "value": 3.7611 }, "geometry": { "type": "Point", "coordinates": [ 129.375107, 35.495785, 30.0 ] } },
{ "type": "Feature", "properties": { "value": 3.729 }, "geometry": { "type": "Point", "coordinates": [ 129.376205, 35.495781, 30.0 ] } },
{ "type": "Feature", "properties": { "value": 3.6312 }, "geometry": { "type": "Point", "coordinates": [ 129.377304, 35.495777, 30.0 ] } },
{ "type": "Feature", "properties": { "value": 3.4464 }, "geometry": { "type": "Point", "coordinates": [ 129.378403, 35.495773, 30.0 ] } },
{ "type": "Feature", "properties": { "value": 3.1768 }, "geometry": { "type": "Point", "coordinates": [ 129.379517, 35.49577, 30.0 ] } },
{ "type": "Feature", "properties": { "value": 2.8236 }, "geometry": { "type": "Point", "coordinates": [ 129.380615, 35.495766, 30.0 ] } },
{ "type": "Feature", "properties": { "value": 2.413 }, "geometry": { "type": "Point", "coordinates": [ 129.381714, 35.495762, 30.0 ] } },
{ "type": "Feature", "properties": { "value": 0.2328 }, "geometry": { "type": "Point", "coordinates": [ 129.34314, 35.49678, 30.0 ] } },
{ "type": "Feature", "properties": { "value": 0.5714 }, "geometry": { "type": "Point", "coordinates": [ 129.344254, 35.496777, 30.0 ] } },
{ "type": "Feature", "properties": { "value": 1.1418 }, "geometry": { "type": "Point", "coordinates": [ 129.345352, 35.496773, 30.0 ] } },
{ "type": "Feature", "properties": { "value": 1.9725 }, "geometry": { "type": "Point", "coordinates": [ 129.346451, 35.496769, 30.0 ] } },
{ "type": "Feature", "properties": { "value": 3.0298 }, "geometry": { "type": "Point", "coordinates": [ 129.347549, 35.496765, 30.0 ] } },
{ "type": "Feature", "properties": { "value": 4.2437 }, "geometry": { "type": "Point", "coordinates": [ 129.348663, 35.496765, 30.0 ] } },
{ "type": "Feature", "properties": { "value": 5.4773 }, "geometry": { "type": "Point", "coordinates": [ 129.349762, 35.496761, 30.0 ] } },
{ "type": "Feature", "properties": { "value": 6.5352 }, "geometry": { "type": "Point", "coordinates": [ 129.350861, 35.496758, 30.0 ] } },
{ "type": "Feature", "properties": { "value": 7.2925 }, "geometry": { "type": "Point", "coordinates": [ 129.351959, 35.496754, 30.0 ] } },
{ "type": "Feature", "properties": { "value": 7.7753 }, "geometry": { "type": "Point", "coordinates": [ 129.353073, 35.49675, 30.0 ] } },
{ "type": "Feature", "properties": { "value": 8.0082 }, "geometry": { "type": "Point", "coordinates": [ 129.354172, 35.496746, 30.0 ] } },
{ "type": "Feature", "properties": { "value": 8.0229 }, "geometry": { "type": "Point", "coordinates": [ 129.35527, 35.496746, 30.0 ] } },
{ "type": "Feature", "properties": { "value": 7.8404 }, "geometry": { "type": "Point", "coordinates": [ 129.356369, 35.496742, 30.0 ] } },
{ "type": "Feature", "properties": { "value": 7.5299 }, "geometry": { "type": "Point", "coordinates": [ 129.357468, 35.496738, 30.0 ] } },
{ "type": "Feature", "properties": { "value": 7.1435 }, "geometry": { "type": "Point", "coordinates": [ 129.358582, 35.496735, 30.0 ] } },
{ "type": "Feature", "properties": { "value": 6.7313 }, "geometry": { "type": "Point", "coordinates": [ 129.35968, 35.496731, 30.0 ] } },
{ "type": "Feature", "properties": { "value": 6.3241 }, "geometry": { "type": "Point", "coordinates": [ 129.360779, 35.496727, 30.0 ] } },
{ "type": "Feature", "properties": { "value": 5.9366 }, "geometry": { "type": "Point", "coordinates": [ 129.361877, 35.496723, 30.0 ] } },
{ "type": "Feature", "properties": { "value": 5.5879 }, "geometry": { "type": "Point", "coordinates": [ 129.362991, 35.496723, 30.0 ] } },
{ "type": "Feature", "properties": { "value": 5.286 }, "geometry": { "type": "Point", "coordinates": [ 129.36409, 35.496719, 30.0 ] } },
{ "type": "Feature", "properties": { "value": 5.0275 }, "geometry": { "type": "Point", "coordinates": [ 129.365189, 35.496716, 30.0 ] } },
{ "type": "Feature", "properties": { "value": 4.8234 }, "geometry": { "type": "Point", "coordinates": [ 129.366287, 35.496712, 30.0 ] } },
{ "type": "Feature", "properties": { "value": 4.6695 }, "geometry": { "type": "Point", "coordinates": [ 129.367386, 35.496708, 30.0 ] } },
{ "type": "Feature", "properties": { "value": 4.5648 }, "geometry": { "type": "Point", "coordinates": [ 129.3685, 35.496704, 30.0 ] } },
{ "type": "Feature", "properties": { "value": 4.5048 }, "geometry": { "type": "Point", "coordinates": [ 129.369598, 35.4967, 30.0 ] } },
{ "type": "Feature", "properties": { "value": 4.4842 }, "geometry": { "type": "Point", "coordinates": [ 129.370697, 35.496696, 30.0 ] } },
{ "type": "Feature", "properties": { "value": 4.481 }, "geometry": { "type": "Point", "coordinates": [ 129.371796, 35.496696, 30.0 ] } },
{ "type": "Feature", "properties": { "value": 4.4848 }, "geometry": { "type": "Point", "coordinates": [ 129.37291, 35.496693, 30.0 ] } },
{ "type": "Feature", "properties": { "value": 4.4806 }, "geometry": { "type": "Point", "coordinates": [ 129.374008, 35.496689, 30.0 ] } },
{ "type": "Feature", "properties": { "value": 4.4378 }, "geometry": { "type": "Point", "coordinates": [ 129.375107, 35.496685, 30.0 ] } },
{ "type": "Feature", "properties": { "value": 4.3423 }, "geometry": { "type": "Point", "coordinates": [ 129.376205, 35.496681, 30.0 ] } },
{ "type": "Feature", "properties": { "value": 4.169 }, "geometry": { "type": "Point", "coordinates": [ 129.377319, 35.496677, 30.0 ] } },
{ "type": "Feature", "properties": { "value": 3.9108 }, "geometry": { "type": "Point", "coordinates": [ 129.378418, 35.496674, 30.0 ] } },
{ "type": "Feature", "properties": { "value": 3.5631 }, "geometry": { "type": "Point", "coordinates": [ 129.379517, 35.49667, 30.0 ] } },
{ "type": "Feature", "properties": { "value": 3.1391 }, "geometry": { "type": "Point", "coordinates": [ 129.380615, 35.496666, 30.0 ] } },
{ "type": "Feature", "properties": { "value": 2.657 }, "geometry": { "type": "Point", "coordinates": [ 129.381714, 35.496662, 30.0 ] } },
{ "type": "Feature", "properties": { "value": 0.1955 }, "geometry": { "type": "Point", "coordinates": [ 129.344254, 35.497677, 30.0 ] } },
{ "type": "Feature", "properties": { "value": 0.4716 }, "geometry": { "type": "Point", "coordinates": [ 129.345352, 35.497673, 30.0 ] } },
{ "type": "Feature", "properties": { "value": 0.91 }, "geometry": { "type": "Point", "coordinates": [ 129.346451, 35.497673, 30.0 ] } },
{ "type": "Feature", "properties": { "value": 1.5448 }, "geometry": { "type": "Point", "coordinates": [ 129.347565, 35.497669, 30.0 ] } },
{ "type": "Feature", "properties": { "value": 2.364 }, "geometry": { "type": "Point", "coordinates": [ 129.348663, 35.497665, 30.0 ] } },
{ "type": "Feature", "properties": { "value": 3.3064 }, "geometry": { "type": "Point", "coordinates": [ 129.349762, 35.497662, 30.0 ] } },
{ "type": "Feature", "properties": { "value": 4.2791 }, "geometry": { "type": "Point", "coordinates": [ 129.350861, 35.497658, 30.0 ] } },
{ "type": "Feature", "properties": { "value": 5.1583 }, "geometry": { "type": "Point", "coordinates": [ 129.351974, 35.497654, 30.0 ] } },
{ "type": "Feature", "properties": { "value": 5.9086 }, "geometry": { "type": "Point", "coordinates": [ 129.353073, 35.497654, 30.0 ] } },
{ "type": "Feature", "properties": { "value": 6.5026 }, "geometry": { "type": "Point", "coordinates": [ 129.354172, 35.49765, 30.0 ] } },
{ "type": "Feature", "properties": { "value": 6.8999 }, "geometry": { "type": "Point", "coordinates": [ 129.35527, 35.497646, 30.0 ] } },
{ "type": "Feature", "properties": { "value": 7.0923 }, "geometry": { "type": "Point", "coordinates": [ 129.356369, 35.497643, 30.0 ] } },
{ "type": "Feature", "properties": { "value": 7.1167 }, "geometry": { "type": "Point", "coordinates": [ 129.357483, 35.497639, 30.0 ] } },
{ "type": "Feature", "properties": { "value": 7.0283 }, "geometry": { "type": "Point", "coordinates": [ 129.358582, 35.497635, 30.0 ] } },
{ "type": "Feature", "properties": { "value": 6.867 }, "geometry": { "type": "Point", "coordinates": [ 129.35968, 35.497631, 30.0 ] } },
{ "type": "Feature", "properties": { "value": 6.6501 }, "geometry": { "type": "Point", "coordinates": [ 129.360779, 35.497631, 30.0 ] } },
{ "type": "Feature", "properties": { "value": 6.409 }, "geometry": { "type": "Point", "coordinates": [ 129.361893, 35.497627, 30.0 ] } },
{ "type": "Feature", "properties": { "value": 6.1562 }, "geometry": { "type": "Point", "coordinates": [ 129.362991, 35.497623, 30.0 ] } },
{ "type": "Feature", "properties": { "value": 5.915 }, "geometry": { "type": "Point", "coordinates": [ 129.36409, 35.49762, 30.0 ] } },
{ "type": "Feature", "properties": { "value": 5.6936 }, "geometry": { "type": "Point", "coordinates": [ 129.365189, 35.497616, 30.0 ] } },
{ "type": "Feature", "properties": { "value": 5.4985 }, "geometry": { "type": "Point", "coordinates": [ 129.366302, 35.497612, 30.0 ] } },
{ "type": "Feature", "properties": { "value": 5.3424 }, "geometry": { "type": "Point", "coordinates": [ 129.367401, 35.497608, 30.0 ] } },
{ "type": "Feature", "properties": { "value": 5.2179 }, "geometry": { "type": "Point", "coordinates": [ 129.3685, 35.497604, 30.0 ] } },
{ "type": "Feature", "properties": { "value": 5.1313 }, "geometry": { "type": "Point", "coordinates": [ 129.369598, 35.497604, 30.0 ] } },
{ "type": "Feature", "properties": { "value": 5.0723 }, "geometry": { "type": "Point", "coordinates": [ 129.370697, 35.497601, 30.0 ] } },
{ "type": "Feature", "properties": { "value": 5.0244 }, "geometry": { "type": "Point", "coordinates": [ 129.371811, 35.497597, 30.0 ] } },
{ "type": "Feature", "properties": { "value": 4.9811 }, "geometry": { "type": "Point", "coordinates": [ 129.37291, 35.497593, 30.0 ] } },
{ "type": "Feature", "properties": { "value": 4.9162 }, "geometry": { "type": "Point", "coordinates": [ 129.374008, 35.497589, 30.0 ] } },
{ "type": "Feature", "properties": { "value": 4.8135 }, "geometry": { "type": "Point", "coordinates": [ 129.375107, 35.497585, 30.0 ] } },
{ "type": "Feature", "properties": { "value": 4.6536 }, "geometry": { "type": "Point", "coordinates": [ 129.376221, 35.497581, 30.0 ] } },
{ "type": "Feature", "properties": { "value": 4.4174 }, "geometry": { "type": "Point", "coordinates": [ 129.377319, 35.497578, 30.0 ] } },
{ "type": "Feature", "properties": { "value": 4.1013 }, "geometry": { "type": "Point", "coordinates": [ 129.378418, 35.497574, 30.0 ] } },
{ "type": "Feature", "properties": { "value": 3.6989 }, "geometry": { "type": "Point", "coordinates": [ 129.379517, 35.497574, 30.0 ] } },
{ "type": "Feature", "properties": { "value": 3.2307 }, "geometry": { "type": "Point", "coordinates": [ 129.380615, 35.49757, 30.0 ] } },
{ "type": "Feature", "properties": { "value": 2.7133 }, "geometry": { "type": "Point", "coordinates": [ 129.381729, 35.497566, 30.0 ] } },
{ "type": "Feature", "properties": { "value": 0.1439 }, "geometry": { "type": "Point", "coordinates": [ 129.345352, 35.498577, 30.0 ] } },
{ "type": "Feature", "properties": { "value": 0.3518 }, "geometry": { "type": "Point", "coordinates": [ 129.346466, 35.498573, 30.0 ] } },
{ "type": "Feature", "properties": { "value": 0.6849 }, "geometry": { "type": "Point", "coordinates": [ 129.347565, 35.498569, 30.0 ] } },
{ "type": "Feature", "properties": { "value": 1.1418 }, "geometry": { "type": "Point", "coordinates": [ 129.348663, 35.498566, 30.0 ] } },
{ "type": "Feature", "properties": { "value": 1.7399 }, "geometry": { "type": "Point", "coordinates": [ 129.349762, 35.498562, 30.0 ] } },
{ "type": "Feature", "properties": { "value": 2.4327 }, "geometry": { "type": "Point", "coordinates": [ 129.350876, 35.498562, 30.0 ] } },
{ "type": "Feature", "properties": { "value": 3.1758 }, "geometry": { "type": "Point", "coordinates": [ 129.351974, 35.498558, 30.0 ] } },
{ "type": "Feature", "properties": { "value": 3.9242 }, "geometry": { "type": "Point", "coordinates": [ 129.353073, 35.498554, 30.0 ] } },
{ "type": "Feature", "properties": { "value": 4.6075 }, "geometry": { "type": "Point", "coordinates": [ 129.354172, 35.49855, 30.0 ] } },
{ "type": "Feature", "properties": { "value": 5.1765 }, "geometry": { "type": "Point", "coordinates": [ 129.35527, 35.498547, 30.0 ] } },
{ "type": "Feature", "properties": { "value": 5.6035 }, "geometry": { "type": "Point", "coordinates": [ 129.356384, 35.498543, 30.0 ] } },
{ "type": "Feature", "properties": { "value": 5.8904 }, "geometry": { "type": "Point", "coordinates": [ 129.357483, 35.498539, 30.0 ] } },
{ "type": "Feature", "properties": { "value": 6.0755 }, "geometry": { "type": "Point", "coordinates": [ 129.358582, 35.498539, 30.0 ] } },
{ "type": "Feature", "properties": { "value": 6.1608 }, "geometry": { "type": "Point", "coordinates": [ 129.35968, 35.498535, 30.0 ] } },
{ "type": "Feature", "properties": { "value": 6.1709 }, "geometry": { "type": "Point", "coordinates": [ 129.360794, 35.498531, 30.0 ] } },
{ "type": "Feature", "properties": { "value": 6.1122 }, "geometry": { "type": "Point", "coordinates": [ 129.361893, 35.498528, 30.0 ] } },
{ "type": "Feature", "properties": { "value": 6.0152 }, "geometry": { "type": "Point", "coordinates": [ 129.362991, 35.498524, 30.0 ] } },
{ "type": "Feature", "properties": { "value": 5.8851 }, "geometry": { "type": "Point", "coordinates": [ 129.36409, 35.49852, 30.0 ] } },
{ "type": "Feature", "properties": { "value": 5.7495 }, "geometry": { "type": "Point", "coordinates": [ 129.365204, 35.498516, 30.0 ] } },
{ "type": "Feature", "properties": { "value": 5.6097 }, "geometry": { "type": "Point", "coordinates": [ 129.366302, 35.498512, 30.0 ] } },
{ "type": "Feature", "properties": { "value": 5.4808 }, "geometry": { "type": "Point", "coordinates": [ 129.367401, 35.498512, 30.0 ] } },
{ "type": "Feature", "properties": { "value": 5.372 }, "geometry": { "type": "Point", "coordinates": [ 129.3685, 35.498508, 30.0 ] } },
{ "type": "Feature", "properties": { "value": 5.2784 }, "geometry": { "type": "Point", "coordinates": [ 129.369598, 35.498505, 30.0 ] } },
{ "type": "Feature", "properties": { "value": 5.2032 }, "geometry": { "type": "Point", "coordinates": [ 129.370712, 35.498501, 30.0 ] } },
{ "type": "Feature", "properties": { "value": 5.1261 }, "geometry": { "type": "Point", "coordinates": [ 129.371811, 35.498497, 30.0 ] } },
{ "type": "Feature", "properties": { "value": 5.0457 }, "geometry": { "type": "Point", "coordinates": [ 129.37291, 35.498493, 30.0 ] } },
{ "type": "Feature", "properties": { "value": 4.9383 }, "geometry": { "type": "Point", "coordinates": [ 129.374008, 35.498489, 30.0 ] } },
{ "type": "Feature", "properties": { "value": 4.7913 }, "geometry": { "type": "Point", "coordinates": [ 129.375122, 35.498486, 30.0 ] } },
{ "type": "Feature", "properties": { "value": 4.5886 }, "geometry": { "type": "Point", "coordinates": [ 129.376221, 35.498482, 30.0 ] } },
{ "type": "Feature", "properties": { "value": 4.316 }, "geometry": { "type": "Point", "coordinates": [ 129.377319, 35.498482, 30.0 ] } },
{ "type": "Feature", "properties": { "value": 3.9705 }, "geometry": { "type": "Point", "coordinates": [ 129.378418, 35.498478, 30.0 ] } },
{ "type": "Feature", "properties": { "value": 3.5511 }, "geometry": { "type": "Point", "coordinates": [ 129.379532, 35.498474, 30.0 ] } },
{ "type": "Feature", "properties": { "value": 3.0786 }, "geometry": { "type": "Point", "coordinates": [ 129.38063, 35.49847, 30.0 ] } },
{ "type": "Feature", "properties": { "value": 2.5702 }, "geometry": { "type": "Point", "coordinates": [ 129.381729, 35.498466, 30.0 ] } },
{ "type": "Feature", "properties": { "value": 0.0916 }, "geometry": { "type": "Point", "coordinates": [ 129.346466, 35.499474, 30.0 ] } },
{ "type": "Feature", "properties": { "value": 0.2488 }, "geometry": { "type": "Point", "coordinates": [ 129.347565, 35.49947, 30.0 ] } },
{ "type": "Feature", "properties": { "value": 0.4777 }, "geometry": { "type": "Point", "coordinates": [ 129.348663, 35.499466, 30.0 ] } },
{ "type": "Feature", "properties": { "value": 0.7986 }, "geometry": { "type": "Point", "coordinates": [ 129.349777, 35.499466, 30.0 ] } },
{ "type": "Feature", "properties": { "value": 1.2153 }, "geometry": { "type": "Point", "coordinates": [ 129.350876, 35.499462, 30.0 ] } },
{ "type": "Feature", "properties": { "value": 1.7117 }, "geometry": { "type": "Point", "coordinates": [ 129.351974, 35.499458, 30.0 ] } },
{ "type": "Feature", "properties": { "value": 2.2705 }, "geometry": { "type": "Point", "coordinates": [ 129.353073, 35.499454, 30.0 ] } },
{ "type": "Feature", "properties": { "value": 2.8453 }, "geometry": { "type": "Point", "coordinates": [ 129.354187, 35.499451, 30.0 ] } },
{ "type": "Feature", "properties": { "value": 3.387 }, "geometry": { "type": "Point", "coordinates": [ 129.355286, 35.499447, 30.0 ] } },
{ "type": "Feature", "properties": { "value": 3.8712 }, "geometry": { "type": "Point", "coordinates": [ 129.356384, 35.499447, 30.0 ] } },
{ "type": "Feature", "properties": { "value": 4.2842 }, "geometry": { "type": "Point", "coordinates": [ 129.357483, 35.499443, 30.0 ] } },
{ "type": "Feature", "properties": { "value": 4.6239 }, "geometry": { "type": "Point", "coordinates": [ 129.358582, 35.499439, 30.0 ] } },
{ "type": "Feature", "properties": { "value": 4.8801 }, "geometry": { "type": "Point", "coordinates": [ 129.359695, 35.499435, 30.0 ] } },
{ "type": "Feature", "properties": { "value": 5.0605 }, "geometry": { "type": "Point", "coordinates": [ 129.360794, 35.499432, 30.0 ] } },
{ "type": "Feature", "properties": { "value": 5.168 }, "geometry": { "type": "Point", "coordinates": [ 129.361893, 35.499428, 30.0 ] } },
{ "type": "Feature", "properties": { "value": 5.2156 }, "geometry": { "type": "Point", "coordinates": [ 129.362991, 35.499424, 30.0 ] } },
{ "type": "Feature", "properties": { "value": 5.2171 }, "geometry": { "type": "Point", "coordinates": [ 129.364105, 35.499424, 30.0 ] } },
{ "type": "Feature", "properties": { "value": 5.1784 }, "geometry": { "type": "Point", "coordinates": [ 129.365204, 35.49942, 30.0 ] } },
{ "type": "Feature", "properties": { "value": 5.1228 }, "geometry": { "type": "Point", "coordinates": [ 129.366302, 35.499416, 30.0 ] } },
{ "type": "Feature", "properties": { "value": 5.0514 }, "geometry": { "type": "Point", "coordinates": [ 129.367401, 35.499413, 30.0 ] } },
{ "type": "Feature", "properties": { "value": 4.9804 }, "geometry": { "type": "Point", "coordinates": [ 129.368515, 35.499409, 30.0 ] } },
{ "type": "Feature", "properties": { "value": 4.9074 }, "geometry": { "type": "Point", "coordinates": [ 129.369614, 35.499405, 30.0 ] } },
{ "type": "Feature", "properties": { "value": 4.8353 }, "geometry": { "type": "Point", "coordinates": [ 129.370712, 35.499401, 30.0 ] } },
{ "type": "Feature", "properties": { "value": 4.7554 }, "geometry": { "type": "Point", "coordinates": [ 129.371811, 35.499397, 30.0 ] } },
{ "type": "Feature", "properties": { "value": 4.6592 }, "geometry": { "type": "Point", "coordinates": [ 129.37291, 35.499393, 30.0 ] } },
{ "type": "Feature", "properties": { "value": 4.5373 }, "geometry": { "type": "Point", "coordinates": [ 129.374023, 35.499393, 30.0 ] } },
{ "type": "Feature", "properties": { "value": 4.3723 }, "geometry": { "type": "Point", "coordinates": [ 129.375122, 35.49939, 30.0 ] } },
{ "type": "Feature", "properties": { "value": 4.1587 }, "geometry": { "type": "Point", "coordinates": [ 129.376221, 35.499386, 30.0 ] } },
{ "type": "Feature", "properties": { "value": 3.8823 }, "geometry": { "type": "Point", "coordinates": [ 129.377319, 35.499382, 30.0 ] } },
{ "type": "Feature", "properties": { "value": 3.5467 }, "geometry": { "type": "Point", "coordinates": [ 129.378433, 35.499378, 30.0 ] } },
{ "type": "Feature", "properties": { "value": 3.1506 }, "geometry": { "type": "Point", "coordinates": [ 129.379532, 35.499374, 30.0 ] } },
{ "type": "Feature", "properties": { "value": 2.714 }, "geometry": { "type": "Point", "coordinates": [ 129.38063, 35.499371, 30.0 ] } },
{ "type": "Feature", "properties": { "value": 2.2514 }, "geometry": { "type": "Point", "coordinates": [ 129.381729, 35.499367, 30.0 ] } },
{ "type": "Feature", "properties": { "value": 0.0032 }, "geometry": { "type": "Point", "coordinates": [ 129.347565, 35.500374, 30.0 ] } },
{ "type": "Feature", "properties": { "value": 0.1569 }, "geometry": { "type": "Point", "coordinates": [ 129.348679, 35.50037, 30.0 ] } },
{ "type": "Feature", "properties": { "value": 0.3148 }, "geometry": { "type": "Point", "coordinates": [ 129.349777, 35.500366, 30.0 ] } },
{ "type": "Feature", "properties": { "value": 0.5314 }, "geometry": { "type": "Point", "coordinates": [ 129.350876, 35.500362, 30.0 ] } },
{ "type": "Feature", "properties": { "value": 0.8052 }, "geometry": { "type": "Point", "coordinates": [ 129.351974, 35.500359, 30.0 ] } },
{ "type": "Feature", "properties": { "value": 1.1558 }, "geometry": { "type": "Point", "coordinates": [ 129.353088, 35.500355, 30.0 ] } },
{ "type": "Feature", "properties": { "value": 1.5415 }, "geometry": { "type": "Point", "coordinates": [ 129.354187, 35.500355, 30.0 ] } },
{ "type": "Feature", "properties": { "value": 1.9509 }, "geometry": { "type": "Point", "coordinates": [ 129.355286, 35.500351, 30.0 ] } },
{ "type": "Feature", "properties": { "value": 2.3588 }, "geometry": { "type": "Point", "coordinates": [ 129.356384, 35.500347, 30.0 ] } },
{ "type": "Feature", "properties": { "value": 2.7496 }, "geometry": { "type": "Point", "coordinates": [ 129.357483, 35.500343, 30.0 ] } },
{ "type": "Feature", "properties": { "value": 3.1078 }, "geometry": { "type": "Point", "coordinates": [ 129.358597, 35.50034, 30.0 ] } },
{ "type": "Feature", "properties": { "value": 3.417 }, "geometry": { "type": "Point", "coordinates": [ 129.359695, 35.500336, 30.0 ] } },
{ "type": "Feature", "properties": { "value": 3.6791 }, "geometry": { "type": "Point", "coordinates": [ 129.360794, 35.500332, 30.0 ] } },
{ "type": "Feature", "properties": { "value": 3.8804 }, "geometry": { "type": "Point", "coordinates": [ 129.361893, 35.500332, 30.0 ] } },
{ "type": "Feature", "properties": { "value": 4.0216 }, "geometry": { "type": "Point", "coordinates": [ 129.363007, 35.500328, 30.0 ] } },
{ "type": "Feature", "properties": { "value": 4.1193 }, "geometry": { "type": "Point", "coordinates": [ 129.364105, 35.500324, 30.0 ] } },
{ "type": "Feature", "properties": { "value": 4.1693 }, "geometry": { "type": "Point", "coordinates": [ 129.365204, 35.50032, 30.0 ] } },
{ "type": "Feature", "properties": { "value": 4.1872 }, "geometry": { "type": "Point", "coordinates": [ 129.366302, 35.500317, 30.0 ] } },
{ "type": "Feature", "properties": { "value": 4.18 }, "geometry": { "type": "Point", "coordinates": [ 129.367416, 35.500313, 30.0 ] } },
{ "type": "Feature", "properties": { "value": 4.1559 }, "geometry": { "type": "Point", "coordinates": [ 129.368515, 35.500309, 30.0 ] } },
{ "type": "Feature", "properties": { "value": 4.1217 }, "geometry": { "type": "Point", "coordinates": [ 129.369614, 35.500305, 30.0 ] } },
{ "type": "Feature", "properties": { "value": 4.0735 }, "geometry": { "type": "Point", "coordinates": [ 129.370712, 35.500301, 30.0 ] } },
{ "type": "Feature", "properties": { "value": 4.0099 }, "geometry": { "type": "Point", "coordinates": [ 129.371811, 35.500301, 30.0 ] } },
{ "type": "Feature", "properties": { "value": 3.923 }, "geometry": { "type": "Point", "coordinates": [ 129.372925, 35.500298, 30.0 ] } },
{ "type": "Feature", "properties": { "value": 3.8105 }, "geometry": { "type": "Point", "coordinates": [ 129.374023, 35.500294, 30.0 ] } },
{ "type": "Feature", "properties": { "value": 3.6571 }, "geometry": { "type": "Point", "coordinates": [ 129.375122, 35.50029, 30.0 ] } },
{ "type": "Feature", "properties": { "value": 3.4609 }, "geometry": { "type": "Point", "coordinates": [ 129.376221, 35.500286, 30.0 ] } },
{ "type": "Feature", "properties": { "value": 3.2149 }, "geometry": { "type": "Point", "coordinates": [ 129.377335, 35.500282, 30.0 ] } },
{ "type": "Feature", "properties": { "value": 2.9203 }, "geometry": { "type": "Point", "coordinates": [ 129.378433, 35.500278, 30.0 ] } },
{ "type": "Feature", "properties": { "value": 2.5814 }, "geometry": { "type": "Point", "coordinates": [ 129.379532, 35.500275, 30.0 ] } },
{ "type": "Feature", "properties": { "value": 2.2128 }, "geometry": { "type": "Point", "coordinates": [ 129.38063, 35.500271, 30.0 ] } },
{ "type": "Feature", "properties": { "value": 1.8273 }, "geometry": { "type": "Point", "coordinates": [ 129.381744, 35.500267, 30.0 ] } },
{ "type": "Feature", "properties": { "value": 0.0797 }, "geometry": { "type": "Point", "coordinates": [ 129.349777, 35.501266, 30.0 ] } },
{ "type": "Feature", "properties": { "value": 0.1846 }, "geometry": { "type": "Point", "coordinates": [ 129.350876, 35.501263, 30.0 ] } },
{ "type": "Feature", "properties": { "value": 0.3271 }, "geometry": { "type": "Point", "coordinates": [ 129.35199, 35.501259, 30.0 ] } },
{ "type": "Feature", "properties": { "value": 0.5079 }, "geometry": { "type": "Point", "coordinates": [ 129.353088, 35.501259, 30.0 ] } },
{ "type": "Feature", "properties": { "value": 0.7343 }, "geometry": { "type": "Point", "coordinates": [ 129.354187, 35.501255, 30.0 ] } },
{ "type": "Feature", "properties": { "value": 0.992 }, "geometry": { "type": "Point", "coordinates": [ 129.355286, 35.501251, 30.0 ] } },
{ "type": "Feature", "properties": { "value": 1.2713 }, "geometry": { "type": "Point", "coordinates": [ 129.3564, 35.501247, 30.0 ] } },
{ "type": "Feature", "properties": { "value": 1.5633 }, "geometry": { "type": "Point", "coordinates": [ 129.357498, 35.501244, 30.0 ] } },
{ "type": "Feature", "properties": { "value": 1.8583 }, "geometry": { "type": "Point", "coordinates": [ 129.358597, 35.50124, 30.0 ] } },
{ "type": "Feature", "properties": { "value": 2.1386 }, "geometry": { "type": "Point", "coordinates": [ 129.359695, 35.50124, 30.0 ] } },
{ "type": "Feature", "properties": { "value": 2.3882 }, "geometry": { "type": "Point", "coordinates": [ 129.360794, 35.501236, 30.0 ] } },
{ "type": "Feature", "properties": { "value": 2.5985 }, "geometry": { "type": "Point", "coordinates": [ 129.361908, 35.501232, 30.0 ] } },
{ "type": "Feature", "properties": { "value": 2.7662 }, "geometry": { "type": "Point", "coordinates": [ 129.363007, 35.501228, 30.0 ] } },
{ "type": "Feature", "properties": { "value": 2.9035 }, "geometry": { "type": "Point", "coordinates": [ 129.364105, 35.501225, 30.0 ] } },
{ "type": "Feature", "properties": { "value": 3.0046 }, "geometry": { "type": "Point", "coordinates": [ 129.365204, 35.501221, 30.0 ] } },
{ "type": "Feature", "properties": { "value": 3.0682 }, "geometry": { "type": "Point", "coordinates": [ 129.366318, 35.501217, 30.0 ] } },
{ "type": "Feature", "properties": { "value": 3.1092 }, "geometry": { "type": "Point", "coordinates": [ 129.367416, 35.501213, 30.0 ] } },
{ "type": "Feature", "properties": { "value": 3.1258 }, "geometry": { "type": "Point", "coordinates": [ 129.368515, 35.501213, 30.0 ] } },
{ "type": "Feature", "properties": { "value": 3.1245 }, "geometry": { "type": "Point", "coordinates": [ 129.369614, 35.501209, 30.0 ] } },
{ "type": "Feature", "properties": { "value": 3.1075 }, "geometry": { "type": "Point", "coordinates": [ 129.370728, 35.501205, 30.0 ] } },
{ "type": "Feature", "properties": { "value": 3.0699 }, "geometry": { "type": "Point", "coordinates": [ 129.371826, 35.501202, 30.0 ] } },
{ "type": "Feature", "properties": { "value": 3.0109 }, "geometry": { "type": "Point", "coordinates": [ 129.372925, 35.501198, 30.0 ] } },
{ "type": "Feature", "properties": { "value": 2.9209 }, "geometry": { "type": "Point", "coordinates": [ 129.374023, 35.501194, 30.0 ] } },
{ "type": "Feature", "properties": { "value": 2.802 }, "geometry": { "type": "Point", "coordinates": [ 129.375122, 35.50119, 30.0 ] } },
{ "type": "Feature", "properties": { "value": 2.6431 }, "geometry": { "type": "Point", "coordinates": [ 129.376236, 35.501186, 30.0 ] } },
{ "type": "Feature", "properties": { "value": 2.4491 }, "geometry": { "type": "Point", "coordinates": [ 129.377335, 35.501183, 30.0 ] } },
{ "type": "Feature", "properties": { "value": 2.2149 }, "geometry": { "type": "Point", "coordinates": [ 129.378433, 35.501179, 30.0 ] } },
{ "type": "Feature", "properties": { "value": 1.9522 }, "geometry": { "type": "Point", "coordinates": [ 129.379532, 35.501179, 30.0 ] } },
{ "type": "Feature", "properties": { "value": 1.6647 }, "geometry": { "type": "Point", "coordinates": [ 129.380646, 35.501175, 30.0 ] } },
{ "type": "Feature", "properties": { "value": 1.3722 }, "geometry": { "type": "Point", "coordinates": [ 129.381744, 35.501171, 30.0 ] } }
]
}
