{
"type": "FeatureCollection",
"features": [
{ "type": "Feature", "properties": { "value": 7.1609 }, "geometry": { "type": "Point", "coordinates": [ 129.32756, 35.458969, 10.0 ] } },
{ "type": "Feature", "properties": { "value": 55.47 }, "geometry": { "type": "Point", "coordinates": [ 129.32756, 35.459869, 10.0 ] } },
{ "type": "Feature", "properties": { "value": 35.877 }, "geometry": { "type": "Point", "coordinates": [ 129.327576, 35.46077, 10.0 ] } },
{ "type": "Feature", "properties": { "value": 31.624 }, "geometry": { "type": "Point", "coordinates": [ 129.327576, 35.461674, 10.0 ] } },
{ "type": "Feature", "properties": { "value": 38.665 }, "geometry": { "type": "Point", "coordinates": [ 129.327576, 35.462574, 10.0 ] } },
{ "type": "Feature", "properties": { "value": 39.822 }, "geometry": { "type": "Point", "coordinates": [ 129.327576, 35.463474, 10.0 ] } },
{ "type": "Feature", "properties": { "value": 0.5767 }, "geometry": { "type": "Point", "coordinates": [ 129.32869, 35.46347, 10.0 ] } },
{ "type": "Feature", "properties": { "value": 36.246 }, "geometry": { "type": "Point", "coordinates": [ 129.327591, 35.464375, 10.0 ] } },
{ "type": "Feature", "properties": { "value": 3.4655 }, "geometry": { "type": "Point", "coordinates": [ 129.32869, 35.464375, 10.0 ] } },
{ "type": "Feature", "properties": { "value": 24.046 }, "geometry": { "type": "Point", "coordinates": [ 129.327591, 35.465279, 10.0 ] } },
{ "type": "Feature", "properties": { "value": 5.711 }, "geometry": { "type": "Point", "coordinates": [ 129.32869, 35.465275, 10.0 ] } },
{ "type": "Feature", "properties": { "value": 15.539 }, "geometry": { "type": "Point", "coordinates": [ 129.327591, 35.466179, 10.0 ] } },
{ "type": "Feature", "properties": { "value": 6.0635 }, "geometry": { "type": "Point", "coordinates": [ 129.32869, 35.466175, 10.0 ] } },
{ "type": "Feature", "properties": { "value": 12.84 }, "geometry": { "type": "Point", "coordinates": [ 129.327591, 35.467079, 10.0 ] } },
{ "type": "Feature", "properties": { "value": 7.4277 }, "geometry": { "type": "Point", "coordinates": [ 129.328705, 35.467075, 10.0 ] } },
{ "type": "Feature", "properties": { "value": 11.924 }, "geometry": { "type": "Point", "coordinates": [ 129.327606, 35.467983, 10.0 ] } },
{ "type": "Feature", "properties": { "value": 9.1204 }, "geometry": { "type": "Point", "coordinates": [ 129.328705, 35.467979, 10.0 ] } },
{ "type": "Feature", "properties": { "value": 13.064 }, "geometry": { "type": "Point", "coordinates": [ 129.327606, 35.468884, 10.0 ] } },
{ "type": "Feature", "properties": { "value": 11.655 }, "geometry": { "type": "Point", "coordinates": [ 129.328705, 35.46888, 10.0 ] } },
{ "type": "Feature", "properties": { "value": 17.084 }, "geometry": { "type": "Point", "coordinates": [ 129.327606, 35.469784, 10.0 ] } },
{ "type": "Feature", "properties": { "value": 16.089 }, "geometry": { "type": "Point", "coordinates": [ 129.328705, 35.46978, 10.0 ] } },
{ "type": "Feature", "properties": { "value": 0.2912 }, "geometry": { "type": "Point", "coordinates": [ 129.329819, 35.469776, 10.0 ] } },
{ "type": "Feature", "properties": { "value": 0.515 }, "geometry": { "type": "Point", "coordinates": [ 129.326508, 35.470688, 10.0 ] } },
{ "type": "Feature", "properties": { "value": 22.543 }, "geometry": { "type": "Point", "coordinates": [ 129.327606, 35.470684, 10.0 ] } },
{ "type": "Feature", "properties": { "value": 25.533 }, "geometry": { "type": "Point", "coordinates": [ 129.32872, 35.470684, 10.0 ] } },
{ "type": "Feature", "properties": { "value": 1.0524 }, "geometry": { "type": "Point", "coordinates": [ 129.329819, 35.47068, 10.0 ] } },
{ "type": "Feature", "properties": { "value": 0.9843 }, "geometry": { "type": "Point", "coordinates": [ 129.326508, 35.471588, 10.0 ] } },
{ "type": "Feature", "properties": { "value": 32.086 }, "geometry": { "type": "Point", "coordinates": [ 129.327621, 35.471588, 10.0 ] } },
{ "type": "Feature", "properties": { "value": 48.713 }, "geometry": { "type": "Point", "coordinates": [ 129.32872, 35.471584, 10.0 ] } },
{ "type": "Feature", "properties": { "value": 3.2258 }, "geometry": { "type": "Point", "coordinates": [ 129.329819, 35.471581, 10.0 ] } },
{ "type": "Feature", "properties": { "value": 1.6888 }, "geometry": { "type": "Point", "coordinates": [ 129.326523, 35.472492, 10.0 ] } },
{ "type": "Feature", "properties": { "value": 46.585 }, "geometry": { "type": "Point", "coordinates": [ 129.327621, 35.472488, 10.0 ] } },
{ "type": "Feature", "properties": { "value": 77.087 }, "geometry": { "type": "Point", "coordinates": [ 129.32872, 35.472485, 10.0 ] } },
{ "type": "Feature", "properties": { "value": 5.9671 }, "geometry": { "type": "Point", "coordinates": [ 129.329819, 35.472481, 10.0 ] } },
{ "type": "Feature", "properties": { "value": 2.5947 }, "geometry": { "type": "Point", "coordinates": [ 129.326523, 35.473392, 10.0 ] } },
{ "type": "Feature", "properties": { "value": 57.153 }, "geometry": { "type": "Point", "coordinates": [ 129.327621, 35.473389, 10.0 ] } },
{ "type": "Feature", "properties": { "value": 89.045 }, "geometry": { "type": "Point", "coordinates": [ 129.32872, 35.473385, 10.0 ] } },
{ "type": "Feature", "properties": { "value": 8.1022 }, "geometry": { "type": "Point", "coordinates": [ 129.329819, 35.473385, 10.0 ] } },
{ "type": "Feature", "properties": { "value": 3.531 }, "geometry": { "type": "Point", "coordinates": [ 129.326523, 35.474293, 10.0 ] } },
{ "type": "Feature", "properties": { "value": 63.793 }, "geometry": { "type": "Point", "coordinates": [ 129.327621, 35.474289, 10.0 ] } },
{ "type": "Feature", "properties": { "value": 89.518 }, "geometry": { "type": "Point", "coordinates": [ 129.328735, 35.474289, 10.0 ] } },
{ "type": "Feature", "properties": { "value": 9.0237 }, "geometry": { "type": "Point", "coordinates": [ 129.329834, 35.474285, 10.0 ] } },
{ "type": "Feature", "properties": { "value": 4.9296 }, "geometry": { "type": "Point", "coordinates": [ 129.326523, 35.475193, 10.0 ] } },
{ "type": "Feature", "properties": { "value": 66.328 }, "geometry": { "type": "Point", "coordinates": [ 129.327637, 35.475193, 10.0 ] } },
{ "type": "Feature", "properties": { "value": 84.552 }, "geometry": { "type": "Point", "coordinates": [ 129.328735, 35.475189, 10.0 ] } },
{ "type": "Feature", "properties": { "value": 8.9625 }, "geometry": { "type": "Point", "coordinates": [ 129.329834, 35.475185, 10.0 ] } },
{ "type": "Feature", "properties": { "value": 6.5862 }, "geometry": { "type": "Point", "coordinates": [ 129.326538, 35.476097, 10.0 ] } },
{ "type": "Feature", "properties": { "value": 61.637 }, "geometry": { "type": "Point", "coordinates": [ 129.327637, 35.476093, 10.0 ] } },
{ "type": "Feature", "properties": { "value": 72.149 }, "geometry": { "type": "Point", "coordinates": [ 129.328735, 35.476089, 10.0 ] } },
{ "type": "Feature", "properties": { "value": 8.4953 }, "geometry": { "type": "Point", "coordinates": [ 129.329834, 35.476086, 10.0 ] } },
{ "type": "Feature", "properties": { "value": 8.1036 }, "geometry": { "type": "Point", "coordinates": [ 129.326538, 35.476997, 10.0 ] } },
{ "type": "Feature", "properties": { "value": 51.189 }, "geometry": { "type": "Point", "coordinates": [ 129.327637, 35.476994, 10.0 ] } },
{ "type": "Feature", "properties": { "value": 54.414 }, "geometry": { "type": "Point", "coordinates": [ 129.328735, 35.47699, 10.0 ] } },
{ "type": "Feature", "properties": { "value": 7.6102 }, "geometry": { "type": "Point", "coordinates": [ 129.329834, 35.47699, 10.0 ] } },
{ "type": "Feature", "properties": { "value": 9.0637 }, "geometry": { "type": "Point", "coordinates": [ 129.326538, 35.477898, 10.0 ] } },
{ "type": "Feature", "properties": { "value": 42.16 }, "geometry": { "type": "Point", "coordinates": [ 129.327637, 35.477894, 10.0 ] } },
{ "type": "Feature", "properties": { "value": 40.61 }, "geometry": { "type": "Point", "coordinates": [ 129.328735, 35.477894, 10.0 ] } },
{ "type": "Feature", "properties": { "value": 6.6298 }, "geometry": { "type": "Point", "coordinates": [ 129.329849, 35.47789, 10.0 ] } },
{ "type": "Feature", "properties": { "value": 10.249 }, "geometry": { "type": "Point", "coordinates": [ 129.326538, 35.478798, 10.0 ] } },
{ "type": "Feature", "properties": { "value": 40.25 }, "geometry": { "type": "Point", "coordinates": [ 129.327637, 35.478798, 10.0 ] } },
{ "type": "Feature", "properties": { "value": 34.641 }, "geometry": { "type": "Point", "coordinates": [ 129.328751, 35.478794, 10.0 ] } },
{ "type": "Feature", "properties": { "value": 5.962 }, "geometry": { "type": "Point", "coordinates": [ 129.329849, 35.47879, 10.0 ] } },
{ "type": "Feature", "properties": { "value": 0.7438 }, "geometry": { "type": "Point", "coordinates": [ 129.325439, 35.479706, 10.0 ] } },
{ "type": "Feature", "properties": { "value": 13.762 }, "geometry": { "type": "Point", "coordinates": [ 129.326553, 35.479702, 10.0 ] } },
{ "type": "Feature", "properties": { "value": 48.762 }, "geometry": { "type": "Point", "coordinates": [ 129.327652, 35.479698, 10.0 ] } },
{ "type": "Feature", "properties": { "value": 36.017 }, "geometry": { "type": "Point", "coordinates": [ 129.328751, 35.479694, 10.0 ] } },
{ "type": "Feature", "properties": { "value": 5.6034 }, "geometry": { "type": "Point", "coordinates": [ 129.329849, 35.479691, 10.0 ] } },
{ "type": "Feature", "properties": { "value": 1.6142 }, "geometry": { "type": "Point", "coordinates": [ 129.325455, 35.480606, 10.0 ] } },
{ "type": "Feature", "properties": { "value": 21.522 }, "geometry": { "type": "Point", "coordinates": [ 129.326553, 35.480602, 10.0 ] } },
{ "type": "Feature", "properties": { "value": 62.866 }, "geometry": { "type": "Point", "coordinates": [ 129.327652, 35.480598, 10.0 ] } },
{ "type": "Feature", "properties": { "value": 38.951 }, "geometry": { "type": "Point", "coordinates": [ 129.328751, 35.480595, 10.0 ] } },
{ "type": "Feature", "properties": { "value": 5.3662 }, "geometry": { "type": "Point", "coordinates": [ 129.329849, 35.480595, 10.0 ] } },
{ "type": "Feature", "properties": { "value": 3.3457 }, "geometry": { "type": "Point", "coordinates": [ 129.325455, 35.481506, 10.0 ] } },
{ "type": "Feature", "properties": { "value": 30.243 }, "geometry": { "type": "Point", "coordinates": [ 129.326553, 35.481503, 10.0 ] } },
{ "type": "Feature", "properties": { "value": 66.309 }, "geometry": { "type": "Point", "coordinates": [ 129.327652, 35.481503, 10.0 ] } },
{ "type": "Feature", "properties": { "value": 35.089 }, "geometry": { "type": "Point", "coordinates": [ 129.328751, 35.481499, 10.0 ] } },
{ "type": "Feature", "properties": { "value": 4.7569 }, "geometry": { "type": "Point", "coordinates": [ 129.329865, 35.481495, 10.0 ] } },
{ "type": "Feature", "properties": { "value": 5.6263 }, "geometry": { "type": "Point", "coordinates": [ 129.325455, 35.482407, 10.0 ] } },
{ "type": "Feature", "properties": { "value": 35.496 }, "geometry": { "type": "Point", "coordinates": [ 129.326553, 35.482407, 10.0 ] } },
{ "type": "Feature", "properties": { "value": 59.758 }, "geometry": { "type": "Point", "coordinates": [ 129.327652, 35.482403, 10.0 ] } },
{ "type": "Feature", "properties": { "value": 28.578 }, "geometry": { "type": "Point", "coordinates": [ 129.328766, 35.482399, 10.0 ] } },
{ "type": "Feature", "properties": { "value": 4.1047 }, "geometry": { "type": "Point", "coordinates": [ 129.329865, 35.482395, 10.0 ] } },
{ "type": "Feature", "properties": { "value": 8.3462 }, "geometry": { "type": "Point", "coordinates": [ 129.325455, 35.483311, 10.0 ] } },
{ "type": "Feature", "properties": { "value": 39.204 }, "geometry": { "type": "Point", "coordinates": [ 129.326553, 35.483307, 10.0 ] } },
{ "type": "Feature", "properties": { "value": 57.369 }, "geometry": { "type": "Point", "coordinates": [ 129.327667, 35.483303, 10.0 ] } },
{ "type": "Feature", "properties": { "value": 26.896 }, "geometry": { "type": "Point", "coordinates": [ 129.328766, 35.483299, 10.0 ] } },
{ "type": "Feature", "properties": { "value": 3.7888 }, "geometry": { "type": "Point", "coordinates": [ 129.329865, 35.483295, 10.0 ] } },
{ "type": "Feature", "properties": { "value": 0.6705 }, "geometry": { "type": "Point", "coordinates": [ 129.324356, 35.484215, 10.0 ] } },
{ "type": "Feature", "properties": { "value": 12.007 }, "geometry": { "type": "Point", "coordinates": [ 129.325455, 35.484211, 10.0 ] } },
{ "type": "Feature", "properties": { "value": 45.211 }, "geometry": { "type": "Point", "coordinates": [ 129.326569, 35.484207, 10.0 ] } },
{ "type": "Feature", "properties": { "value": 60.707 }, "geometry": { "type": "Point", "coordinates": [ 129.327667, 35.484203, 10.0 ] } },
{ "type": "Feature", "properties": { "value": 26.892 }, "geometry": { "type": "Point", "coordinates": [ 129.328766, 35.484203, 10.0 ] } },
{ "type": "Feature", "properties": { "value": 3.4776 }, "geometry": { "type": "Point", "coordinates": [ 129.329865, 35.4842, 10.0 ] } },
{ "type": "Feature", "properties": { "value": 1.841 }, "geometry": { "type": "Point", "coordinates": [ 129.324371, 35.485115, 10.0 ] } },
{ "type": "Feature", "properties": { "value": 16.894 }, "geometry": { "type": "Point", "coordinates": [ 129.32547, 35.485111, 10.0 ] } },
{ "type": "Feature", "properties": { "value": 51.368 }, "geometry": { "type": "Point", "coordinates": [ 129.326569, 35.485107, 10.0 ] } },
{ "type": "Feature", "properties": { "value": 59.273 }, "geometry": { "type": "Point", "coordinates": [ 129.327667, 35.485107, 10.0 ] } },
{ "type": "Feature", "properties": { "value": 22.98 }, "geometry": { "type": "Point", "coordinates": [ 129.328766, 35.485104, 10.0 ] } },
{ "type": "Feature", "properties": { "value": 2.8202 }, "geometry": { "type": "Point", "coordinates": [ 129.32988, 35.4851, 10.0 ] } },
{ "type": "Feature", "properties": { "value": 3.3883 }, "geometry": { "type": "Point", "coordinates": [ 129.324371, 35.486015, 10.0 ] } },
{ "type": "Feature", "properties": { "value": 21.758 }, "geometry": { "type": "Point", "coordinates": [ 129.32547, 35.486012, 10.0 ] } },
{ "type": "Feature", "properties": { "value": 53.603 }, "geometry": { "type": "Point", "coordinates": [ 129.326569, 35.486012, 10.0 ] } },
{ "type": "Feature", "properties": { "value": 51.4 }, "geometry": { "type": "Point", "coordinates": [ 129.327667, 35.486008, 10.0 ] } },
{ "type": "Feature", "properties": { "value": 17.48 }, "geometry": { "type": "Point", "coordinates": [ 129.328781, 35.486004, 10.0 ] } },
{ "type": "Feature", "properties": { "value": 2.1499 }, "geometry": { "type": "Point", "coordinates": [ 129.32988, 35.486, 10.0 ] } },
{ "type": "Feature", "properties": { "value": 5.3799 }, "geometry": { "type": "Point", "coordinates": [ 129.324371, 35.486916, 10.0 ] } },
{ "type": "Feature", "properties": { "value": 25.593 }, "geometry": { "type": "Point", "coordinates": [ 129.32547, 35.486916, 10.0 ] } },
{ "type": "Feature", "properties": { "value": 52.673 }, "geometry": { "type": "Point", "coordinates": [ 129.326569, 35.486912, 10.0 ] } },
{ "type": "Feature", "properties": { "value": 43.8 }, "geometry": { "type": "Point", "coordinates": [ 129.327682, 35.486908, 10.0 ] } },
{ "type": "Feature", "properties": { "value": 13.754 }, "geometry": { "type": "Point", "coordinates": [ 129.328781, 35.486904, 10.0 ] } },
{ "type": "Feature", "properties": { "value": 1.6116 }, "geometry": { "type": "Point", "coordinates": [ 129.32988, 35.486904, 10.0 ] } },
{ "type": "Feature", "properties": { "value": 0.6485 }, "geometry": { "type": "Point", "coordinates": [ 129.323273, 35.48782, 10.0 ] } },
{ "type": "Feature", "properties": { "value": 7.8786 }, "geometry": { "type": "Point", "coordinates": [ 129.324371, 35.48782, 10.0 ] } },
{ "type": "Feature", "properties": { "value": 30.293 }, "geometry": { "type": "Point", "coordinates": [ 129.32547, 35.487816, 10.0 ] } },
{ "type": "Feature", "properties": { "value": 52.936 }, "geometry": { "type": "Point", "coordinates": [ 129.326584, 35.487812, 10.0 ] } },
{ "type": "Feature", "properties": { "value": 38.55 }, "geometry": { "type": "Point", "coordinates": [ 129.327682, 35.487808, 10.0 ] } },
{ "type": "Feature", "properties": { "value": 11.202 }, "geometry": { "type": "Point", "coordinates": [ 129.328781, 35.487808, 10.0 ] } },
{ "type": "Feature", "properties": { "value": 1.19 }, "geometry": { "type": "Point", "coordinates": [ 129.32988, 35.487804, 10.0 ] } },
{ "type": "Feature", "properties": { "value": 1.4963 }, "geometry": { "type": "Point", "coordinates": [ 129.323273, 35.488724, 10.0 ] } },
{ "type": "Feature", "properties": { "value": 11.804 }, "geometry": { "type": "Point", "coordinates": [ 129.324371, 35.48872, 10.0 ] } },
{ "type": "Feature", "properties": { "value": 38.322 }, "geometry": { "type": "Point", "coordinates": [ 129.325485, 35.488716, 10.0 ] } },
{ "type": "Feature", "properties": { "value": 56.448 }, "geometry": { "type": "Point", "coordinates": [ 129.326584, 35.488712, 10.0 ] } },
{ "type": "Feature", "properties": { "value": 35.75 }, "geometry": { "type": "Point", "coordinates": [ 129.327682, 35.488712, 10.0 ] } },
{ "type": "Feature", "properties": { "value": 9.4302 }, "geometry": { "type": "Point", "coordinates": [ 129.328781, 35.488708, 10.0 ] } },
{ "type": "Feature", "properties": { "value": 0.9432 }, "geometry": { "type": "Point", "coordinates": [ 129.329895, 35.488705, 10.0 ] } },
{ "type": "Feature", "properties": { "value": 2.9857 }, "geometry": { "type": "Point", "coordinates": [ 129.323273, 35.489624, 10.0 ] } },
{ "type": "Feature", "properties": { "value": 18.218 }, "geometry": { "type": "Point", "coordinates": [ 129.324387, 35.48962, 10.0 ] } },
{ "type": "Feature", "properties": { "value": 49.822 }, "geometry": { "type": "Point", "coordinates": [ 129.325485, 35.489616, 10.0 ] } },
{ "type": "Feature", "properties": { "value": 61.521 }, "geometry": { "type": "Point", "coordinates": [ 129.326584, 35.489616, 10.0 ] } },
{ "type": "Feature", "properties": { "value": 33.835 }, "geometry": { "type": "Point", "coordinates": [ 129.327682, 35.489613, 10.0 ] } },
{ "type": "Feature", "properties": { "value": 8.0639 }, "geometry": { "type": "Point", "coordinates": [ 129.328796, 35.489609, 10.0 ] } },
{ "type": "Feature", "properties": { "value": 0.7179 }, "geometry": { "type": "Point", "coordinates": [ 129.329895, 35.489605, 10.0 ] } },
{ "type": "Feature", "properties": { "value": 5.3337 }, "geometry": { "type": "Point", "coordinates": [ 129.323288, 35.490524, 10.0 ] } },
{ "type": "Feature", "properties": { "value": 25.407 }, "geometry": { "type": "Point", "coordinates": [ 129.324387, 35.490524, 10.0 ] } },
{ "type": "Feature", "properties": { "value": 58.827 }, "geometry": { "type": "Point", "coordinates": [ 129.325485, 35.49052, 10.0 ] } },
{ "type": "Feature", "properties": { "value": 62.845 }, "geometry": { "type": "Point", "coordinates": [ 129.326584, 35.490517, 10.0 ] } },
{ "type": "Feature", "properties": { "value": 30.289 }, "geometry": { "type": "Point", "coordinates": [ 129.327698, 35.490513, 10.0 ] } },
{ "type": "Feature", "properties": { "value": 6.4415 }, "geometry": { "type": "Point", "coordinates": [ 129.328796, 35.490509, 10.0 ] } },
{ "type": "Feature", "properties": { "value": 0.4776 }, "geometry": { "type": "Point", "coordinates": [ 129.329895, 35.490509, 10.0 ] } },
{ "type": "Feature", "properties": { "value": 1.1872 }, "geometry": { "type": "Point", "coordinates": [ 129.322189, 35.491428, 10.0 ] } },
{ "type": "Feature", "properties": { "value": 9.3224 }, "geometry": { "type": "Point", "coordinates": [ 129.323288, 35.491428, 10.0 ] } },
{ "type": "Feature", "properties": { "value": 33.448 }, "geometry": { "type": "Point", "coordinates": [ 129.324387, 35.491425, 10.0 ] } },
{ "type": "Feature", "properties": { "value": 61.048 }, "geometry": { "type": "Point", "coordinates": [ 129.325485, 35.491421, 10.0 ] } },
{ "type": "Feature", "properties": { "value": 57.1 }, "geometry": { "type": "Point", "coordinates": [ 129.326599, 35.491417, 10.0 ] } },
{ "type": "Feature", "properties": { "value": 24.545 }, "geometry": { "type": "Point", "coordinates": [ 129.327698, 35.491413, 10.0 ] } },
{ "type": "Feature", "properties": { "value": 4.6585 }, "geometry": { "type": "Point", "coordinates": [ 129.328796, 35.491413, 10.0 ] } },
{ "type": "Feature", "properties": { "value": 0.1958 }, "geometry": { "type": "Point", "coordinates": [ 129.329895, 35.491409, 10.0 ] } },
{ "type": "Feature", "properties": { "value": 3.0473 }, "geometry": { "type": "Point", "coordinates": [ 129.322189, 35.492332, 10.0 ] } },
{ "type": "Feature", "properties": { "value": 15.511 }, "geometry": { "type": "Point", "coordinates": [ 129.323288, 35.492329, 10.0 ] } },
{ "type": "Feature", "properties": { "value": 40.492 }, "geometry": { "type": "Point", "coordinates": [ 129.324387, 35.492325, 10.0 ] } },
{ "type": "Feature", "properties": { "value": 56.855 }, "geometry": { "type": "Point", "coordinates": [ 129.3255, 35.492321, 10.0 ] } },
{ "type": "Feature", "properties": { "value": 45.732 }, "geometry": { "type": "Point", "coordinates": [ 129.326599, 35.492317, 10.0 ] } },
{ "type": "Feature", "properties": { "value": 18.053 }, "geometry": { "type": "Point", "coordinates": [ 129.327698, 35.492317, 10.0 ] } },
{ "type": "Feature", "properties": { "value": 3.1594 }, "geometry": { "type": "Point", "coordinates": [ 129.328796, 35.492313, 10.0 ] } },
{ "type": "Feature", "properties": { "value": 0.735 }, "geometry": { "type": "Point", "coordinates": [ 129.321091, 35.493237, 10.0 ] } },
{ "type": "Feature", "properties": { "value": 5.8949 }, "geometry": { "type": "Point", "coordinates": [ 129.322189, 35.493233, 10.0 ] } },
{ "type": "Feature", "properties": { "value": 23.133 }, "geometry": { "type": "Point", "coordinates": [ 129.323288, 35.493229, 10.0 ] } },
{ "type": "Feature", "properties": { "value": 48.223 }, "geometry": { "type": "Point", "coordinates": [ 129.324402, 35.493225, 10.0 ] } },
{ "type": "Feature", "properties": { "value": 53.062 }, "geometry": { "type": "Point", "coordinates": [ 129.3255, 35.493225, 10.0 ] } },
{ "type": "Feature", "properties": { "value": 35.337 }, "geometry": { "type": "Point", "coordinates": [ 129.326599, 35.493221, 10.0 ] } },
{ "type": "Feature", "properties": { "value": 12.667 }, "geometry": { "type": "Point", "coordinates": [ 129.327698, 35.493217, 10.0 ] } },
{ "type": "Feature", "properties": { "value": 2.0698 }, "geometry": { "type": "Point", "coordinates": [ 129.328812, 35.493214, 10.0 ] } },
{ "type": "Feature", "properties": { "value": 1.5225 }, "geometry": { "type": "Point", "coordinates": [ 129.321091, 35.494137, 10.0 ] } },
{ "type": "Feature", "properties": { "value": 8.9671 }, "geometry": { "type": "Point", "coordinates": [ 129.322189, 35.494133, 10.0 ] } },
{ "type": "Feature", "properties": { "value": 29.055 }, "geometry": { "type": "Point", "coordinates": [ 129.323303, 35.494129, 10.0 ] } },
{ "type": "Feature", "properties": { "value": 51.906 }, "geometry": { "type": "Point", "coordinates": [ 129.324402, 35.494129, 10.0 ] } },
{ "type": "Feature", "properties": { "value": 48.926 }, "geometry": { "type": "Point", "coordinates": [ 129.3255, 35.494125, 10.0 ] } },
{ "type": "Feature", "properties": { "value": 27.139 }, "geometry": { "type": "Point", "coordinates": [ 129.326599, 35.494122, 10.0 ] } },
{ "type": "Feature", "properties": { "value": 8.4291 }, "geometry": { "type": "Point", "coordinates": [ 129.327713, 35.494118, 10.0 ] } },
{ "type": "Feature", "properties": { "value": 1.1728 }, "geometry": { "type": "Point", "coordinates": [ 129.328812, 35.494114, 10.0 ] } },
{ "type": "Feature", "properties": { "value": 0.0877 }, "geometry": { "type": "Point", "coordinates": [ 129.319992, 35.495041, 10.0 ] } },
{ "type": "Feature", "properties": { "value": 1.9387 }, "geometry": { "type": "Point", "coordinates": [ 129.321091, 35.495037, 10.0 ] } },
{ "type": "Feature", "properties": { "value": 9.8902 }, "geometry": { "type": "Point", "coordinates": [ 129.322205, 35.495033, 10.0 ] } },
{ "type": "Feature", "properties": { "value": 27.954 }, "geometry": { "type": "Point", "coordinates": [ 129.323303, 35.495033, 10.0 ] } },
{ "type": "Feature", "properties": { "value": 43.071 }, "geometry": { "type": "Point", "coordinates": [ 129.324402, 35.495029, 10.0 ] } },
{ "type": "Feature", "properties": { "value": 36.496 }, "geometry": { "type": "Point", "coordinates": [ 129.3255, 35.495026, 10.0 ] } },
{ "type": "Feature", "properties": { "value": 17.563 }, "geometry": { "type": "Point", "coordinates": [ 129.326614, 35.495022, 10.0 ] } },
{ "type": "Feature", "properties": { "value": 4.7067 }, "geometry": { "type": "Point", "coordinates": [ 129.327713, 35.495022, 10.0 ] } },
{ "type": "Feature", "properties": { "value": 0.4733 }, "geometry": { "type": "Point", "coordinates": [ 129.328812, 35.495018, 10.0 ] } },
{ "type": "Feature", "properties": { "value": 0.0986 }, "geometry": { "type": "Point", "coordinates": [ 129.319992, 35.495941, 10.0 ] } },
{ "type": "Feature", "properties": { "value": 1.5389 }, "geometry": { "type": "Point", "coordinates": [ 129.321106, 35.495937, 10.0 ] } },
{ "type": "Feature", "properties": { "value": 7.2606 }, "geometry": { "type": "Point", "coordinates": [ 129.322205, 35.495937, 10.0 ] } },
{ "type": "Feature", "properties": { "value": 17.898 }, "geometry": { "type": "Point", "coordinates": [ 129.323303, 35.495934, 10.0 ] } },
{ "type": "Feature", "properties": { "value": 25.207 }, "geometry": { "type": "Point", "coordinates": [ 129.324402, 35.49593, 10.0 ] } },
{ "type": "Feature", "properties": { "value": 19.733 }, "geometry": { "type": "Point", "coordinates": [ 129.325516, 35.495926, 10.0 ] } },
{ "type": "Feature", "properties": { "value": 8.5011 }, "geometry": { "type": "Point", "coordinates": [ 129.326614, 35.495926, 10.0 ] } },
{ "type": "Feature", "properties": { "value": 2.0257 }, "geometry": { "type": "Point", "coordinates": [ 129.327713, 35.495922, 10.0 ] } },
{ "type": "Feature", "properties": { "value": 0.0296 }, "geometry": { "type": "Point", "coordinates": [ 129.320007, 35.496841, 10.0 ] } },
{ "type": "Feature", "properties": { "value": 0.7266 }, "geometry": { "type": "Point", "coordinates": [ 129.321106, 35.496841, 10.0 ] } },
{ "type": "Feature", "properties": { "value": 3.2164 }, "geometry": { "type": "Point", "coordinates": [ 129.322205, 35.496838, 10.0 ] } },
{ "type": "Feature", "properties": { "value": 7.3716 }, "geometry": { "type": "Point", "coordinates": [ 129.323303, 35.496834, 10.0 ] } },
{ "type": "Feature", "properties": { "value": 10.453 }, "geometry": { "type": "Point", "coordinates": [ 129.324417, 35.49683, 10.0 ] } },
{ "type": "Feature", "properties": { "value": 7.8207 }, "geometry": { "type": "Point", "coordinates": [ 129.325516, 35.49683, 10.0 ] } },
{ "type": "Feature", "properties": { "value": 3.0059 }, "geometry": { "type": "Point", "coordinates": [ 129.326614, 35.496826, 10.0 ] } },
{ "type": "Feature", "properties": { "value": 0.5961 }, "geometry": { "type": "Point", "coordinates": [ 129.327713, 35.496822, 10.0 ] } },
{ "type": "Feature", "properties": { "value": 0.1702 }, "geometry": { "type": "Point", "coordinates": [ 129.321106, 35.497742, 10.0 ] } },
{ "type": "Feature", "properties": { "value": 0.8073 }, "geometry": { "type": "Point", "coordinates": [ 129.322205, 35.497738, 10.0 ] } },
{ "type": "Feature", "properties": { "value": 1.998 }, "geometry": { "type": "Point", "coordinates": [ 129.323318, 35.497734, 10.0 ] } },
{ "type": "Feature", "properties": { "value": 2.8552 }, "geometry": { "type": "Point", "coordinates": [ 129.324417, 35.497734, 10.0 ] } },
{ "type": "Feature", "properties": { "value": 2.0247 }, "geometry": { "type": "Point", "coordinates": [ 129.325516, 35.49773, 10.0 ] } },
{ "type": "Feature", "properties": { "value": 0.7 }, "geometry": { "type": "Point", "coordinates": [ 129.326614, 35.497726, 10.0 ] } },
{ "type": "Feature", "properties": { "value": 0.0391 }, "geometry": { "type": "Point", "coordinates": [ 129.327728, 35.497723, 10.0 ] } },
{ "type": "Feature", "properties": { "value": 0.0934 }, "geometry": { "type": "Point", "coordinates": [ 129.32222, 35.498638, 10.0 ] } },
{ "type": "Feature", "properties": { "value": 0.301 }, "geometry": { "type": "Point", "coordinates": [ 129.323318, 35.498638, 10.0 ] } },
{ "type": "Feature", "properties": { "value": 0.415 }, "geometry": { "type": "Point", "coordinates": [ 129.324417, 35.498634, 10.0 ] } },
{ "type": "Feature", "properties": { "value": 0.2627 }, "geometry": { "type": "Point", "coordinates": [ 129.325516, 35.498631, 10.0 ] } },
{ "type": "Feature", "properties": { "value": 0.0437 }, "geometry": { "type": "Point", "coordinates": [ 129.32663, 35.498627, 10.0 ] } }
]
}
