{
"type": "FeatureCollection",
"features": [
{ "type": "Feature", "properties": { "value": 0.0 }, "geometry": { "type": "Point", "coordinates": [ 129.295547, 35.43832, 10.0 ] } },
{ "type": "Feature", "properties": { "value": 60.967 }, "geometry": { "type": "Point", "coordinates": [ 129.296646, 35.43832, 10.0 ] } },
{ "type": "Feature", "properties": { "value": 0.0 }, "geometry": { "type": "Point", "coordinates": [ 129.294449, 35.439224, 10.0 ] } },
{ "type": "Feature", "properties": { "value": 382.55 }, "geometry": { "type": "Point", "coordinates": [ 129.295547, 35.439224, 10.0 ] } },
{ "type": "Feature", "properties": { "value": 263.76 }, "geometry": { "type": "Point", "coordinates": [ 129.296646, 35.43922, 10.0 ] } },
{ "type": "Feature", "properties": { "value": 9.5351 }, "geometry": { "type": "Point", "coordinates": [ 129.29335, 35.440128, 10.0 ] } },
{ "type": "Feature", "properties": { "value": 524.3 }, "geometry": { "type": "Point", "coordinates": [ 129.294449, 35.440128, 10.0 ] } },
{ "type": "Feature", "properties": { "value": 456.67 }, "geometry": { "type": "Point", "coordinates": [ 129.295547, 35.440125, 10.0 ] } },
{ "type": "Feature", "properties": { "value": 0.091 }, "geometry": { "type": "Point", "coordinates": [ 129.296646, 35.440121, 10.0 ] } },
{ "type": "Feature", "properties": { "value": 0.4306 }, "geometry": { "type": "Point", "coordinates": [ 129.292252, 35.441032, 10.0 ] } },
{ "type": "Feature", "properties": { "value": 303.12 }, "geometry": { "type": "Point", "coordinates": [ 129.29335, 35.441029, 10.0 ] } },
{ "type": "Feature", "properties": { "value": 506.95 }, "geometry": { "type": "Point", "coordinates": [ 129.294449, 35.441029, 10.0 ] } },
{ "type": "Feature", "properties": { "value": 1.7912 }, "geometry": { "type": "Point", "coordinates": [ 129.295547, 35.441025, 10.0 ] } },
{ "type": "Feature", "properties": { "value": 0.0199 }, "geometry": { "type": "Point", "coordinates": [ 129.291153, 35.441936, 10.0 ] } },
{ "type": "Feature", "properties": { "value": 29.775 }, "geometry": { "type": "Point", "coordinates": [ 129.292252, 35.441933, 10.0 ] } },
{ "type": "Feature", "properties": { "value": 283.62 }, "geometry": { "type": "Point", "coordinates": [ 129.29335, 35.441933, 10.0 ] } },
{ "type": "Feature", "properties": { "value": 65.886 }, "geometry": { "type": "Point", "coordinates": [ 129.294449, 35.441929, 10.0 ] } },
{ "type": "Feature", "properties": { "value": 2.5302 }, "geometry": { "type": "Point", "coordinates": [ 129.291153, 35.442837, 10.0 ] } },
{ "type": "Feature", "properties": { "value": 92.886 }, "geometry": { "type": "Point", "coordinates": [ 129.292252, 35.442837, 10.0 ] } },
{ "type": "Feature", "properties": { "value": 184.05 }, "geometry": { "type": "Point", "coordinates": [ 129.29335, 35.442833, 10.0 ] } },
{ "type": "Feature", "properties": { "value": 14.067 }, "geometry": { "type": "Point", "coordinates": [ 129.294464, 35.442829, 10.0 ] } },
{ "type": "Feature", "properties": { "value": 0.1724 }, "geometry": { "type": "Point", "coordinates": [ 129.290054, 35.443741, 10.0 ] } },
{ "type": "Feature", "properties": { "value": 17.722 }, "geometry": { "type": "Point", "coordinates": [ 129.291153, 35.443741, 10.0 ] } },
{ "type": "Feature", "properties": { "value": 129.4 }, "geometry": { "type": "Point", "coordinates": [ 129.292252, 35.443737, 10.0 ] } },
{ "type": "Feature", "properties": { "value": 104.12 }, "geometry": { "type": "Point", "coordinates": [ 129.293365, 35.443733, 10.0 ] } },
{ "type": "Feature", "properties": { "value": 4.2148 }, "geometry": { "type": "Point", "coordinates": [ 129.294464, 35.443733, 10.0 ] } },
{ "type": "Feature", "properties": { "value": 2.0435 }, "geometry": { "type": "Point", "coordinates": [ 129.290054, 35.444645, 10.0 ] } },
{ "type": "Feature", "properties": { "value": 44.706 }, "geometry": { "type": "Point", "coordinates": [ 129.291153, 35.444641, 10.0 ] } },
{ "type": "Feature", "properties": { "value": 125.64 }, "geometry": { "type": "Point", "coordinates": [ 129.292267, 35.444637, 10.0 ] } },
{ "type": "Feature", "properties": { "value": 50.469 }, "geometry": { "type": "Point", "coordinates": [ 129.293365, 35.444637, 10.0 ] } },
{ "type": "Feature", "properties": { "value": 1.4009 }, "geometry": { "type": "Point", "coordinates": [ 129.294464, 35.444633, 10.0 ] } },
{ "type": "Feature", "properties": { "value": 8.9686 }, "geometry": { "type": "Point", "coordinates": [ 129.290054, 35.445545, 10.0 ] } },
{ "type": "Feature", "properties": { "value": 70.299 }, "geometry": { "type": "Point", "coordinates": [ 129.291168, 35.445541, 10.0 ] } },
{ "type": "Feature", "properties": { "value": 100.58 }, "geometry": { "type": "Point", "coordinates": [ 129.292267, 35.445541, 10.0 ] } },
{ "type": "Feature", "properties": { "value": 23.174 }, "geometry": { "type": "Point", "coordinates": [ 129.293365, 35.445538, 10.0 ] } },
{ "type": "Feature", "properties": { "value": 0.4117 }, "geometry": { "type": "Point", "coordinates": [ 129.294464, 35.445534, 10.0 ] } },
{ "type": "Feature", "properties": { "value": 1.182 }, "geometry": { "type": "Point", "coordinates": [ 129.288956, 35.446449, 10.0 ] } },
{ "type": "Feature", "properties": { "value": 24.71 }, "geometry": { "type": "Point", "coordinates": [ 129.29007, 35.446445, 10.0 ] } },
{ "type": "Feature", "properties": { "value": 94.306 }, "geometry": { "type": "Point", "coordinates": [ 129.291168, 35.446442, 10.0 ] } },
{ "type": "Feature", "properties": { "value": 77.406 }, "geometry": { "type": "Point", "coordinates": [ 129.292267, 35.446442, 10.0 ] } },
{ "type": "Feature", "properties": { "value": 11.553 }, "geometry": { "type": "Point", "coordinates": [ 129.293365, 35.446438, 10.0 ] } },
{ "type": "Feature", "properties": { "value": 0.0432 }, "geometry": { "type": "Point", "coordinates": [ 129.294464, 35.446434, 10.0 ] } },
{ "type": "Feature", "properties": { "value": 5.0391 }, "geometry": { "type": "Point", "coordinates": [ 129.288971, 35.44735, 10.0 ] } },
{ "type": "Feature", "properties": { "value": 48.099 }, "geometry": { "type": "Point", "coordinates": [ 129.29007, 35.447346, 10.0 ] } },
{ "type": "Feature", "properties": { "value": 105.56 }, "geometry": { "type": "Point", "coordinates": [ 129.291168, 35.447346, 10.0 ] } },
{ "type": "Feature", "properties": { "value": 54.998 }, "geometry": { "type": "Point", "coordinates": [ 129.292267, 35.447342, 10.0 ] } },
{ "type": "Feature", "properties": { "value": 5.4453 }, "geometry": { "type": "Point", "coordinates": [ 129.293365, 35.447338, 10.0 ] } },
{ "type": "Feature", "properties": { "value": 0.6109 }, "geometry": { "type": "Point", "coordinates": [ 129.287872, 35.448254, 10.0 ] } },
{ "type": "Feature", "properties": { "value": 14.568 }, "geometry": { "type": "Point", "coordinates": [ 129.288971, 35.44825, 10.0 ] } },
{ "type": "Feature", "properties": { "value": 74.599 }, "geometry": { "type": "Point", "coordinates": [ 129.29007, 35.44825, 10.0 ] } },
{ "type": "Feature", "properties": { "value": 100.02 }, "geometry": { "type": "Point", "coordinates": [ 129.291168, 35.448246, 10.0 ] } },
{ "type": "Feature", "properties": { "value": 33.653 }, "geometry": { "type": "Point", "coordinates": [ 129.292267, 35.448242, 10.0 ] } },
{ "type": "Feature", "properties": { "value": 2.1941 }, "geometry": { "type": "Point", "coordinates": [ 129.293381, 35.448242, 10.0 ] } },
{ "type": "Feature", "properties": { "value": 2.4576 }, "geometry": { "type": "Point", "coordinates": [ 129.287872, 35.449154, 10.0 ] } },
{ "type": "Feature", "properties": { "value": 29.243 }, "geometry": { "type": "Point", "coordinates": [ 129.288971, 35.449154, 10.0 ] } },
{ "type": "Feature", "properties": { "value": 92.191 }, "geometry": { "type": "Point", "coordinates": [ 129.29007, 35.44915, 10.0 ] } },
{ "type": "Feature", "properties": { "value": 81.939 }, "geometry": { "type": "Point", "coordinates": [ 129.291168, 35.449146, 10.0 ] } },
{ "type": "Feature", "properties": { "value": 18.711 }, "geometry": { "type": "Point", "coordinates": [ 129.292282, 35.449146, 10.0 ] } },
{ "type": "Feature", "properties": { "value": 0.7486 }, "geometry": { "type": "Point", "coordinates": [ 129.293381, 35.449142, 10.0 ] } },
{ "type": "Feature", "properties": { "value": 5.4107 }, "geometry": { "type": "Point", "coordinates": [ 129.287872, 35.450058, 10.0 ] } },
{ "type": "Feature", "properties": { "value": 41.179 }, "geometry": { "type": "Point", "coordinates": [ 129.288971, 35.450054, 10.0 ] } },
{ "type": "Feature", "properties": { "value": 88.99 }, "geometry": { "type": "Point", "coordinates": [ 129.290085, 35.45005, 10.0 ] } },
{ "type": "Feature", "properties": { "value": 55.977 }, "geometry": { "type": "Point", "coordinates": [ 129.291183, 35.45005, 10.0 ] } },
{ "type": "Feature", "properties": { "value": 9.2472 }, "geometry": { "type": "Point", "coordinates": [ 129.292282, 35.450047, 10.0 ] } },
{ "type": "Feature", "properties": { "value": 0.3005 }, "geometry": { "type": "Point", "coordinates": [ 129.286774, 35.450962, 10.0 ] } },
{ "type": "Feature", "properties": { "value": 7.8977 }, "geometry": { "type": "Point", "coordinates": [ 129.287872, 35.450958, 10.0 ] } },
{ "type": "Feature", "properties": { "value": 45.007 }, "geometry": { "type": "Point", "coordinates": [ 129.288986, 35.450954, 10.0 ] } },
{ "type": "Feature", "properties": { "value": 74.21 }, "geometry": { "type": "Point", "coordinates": [ 129.290085, 35.450954, 10.0 ] } },
{ "type": "Feature", "properties": { "value": 36.188 }, "geometry": { "type": "Point", "coordinates": [ 129.291183, 35.450951, 10.0 ] } },
{ "type": "Feature", "properties": { "value": 4.7261 }, "geometry": { "type": "Point", "coordinates": [ 129.292282, 35.450947, 10.0 ] } },
{ "type": "Feature", "properties": { "value": 0.4291 }, "geometry": { "type": "Point", "coordinates": [ 129.286774, 35.451862, 10.0 ] } },
{ "type": "Feature", "properties": { "value": 8.4582 }, "geometry": { "type": "Point", "coordinates": [ 129.287888, 35.451859, 10.0 ] } },
{ "type": "Feature", "properties": { "value": 40.386 }, "geometry": { "type": "Point", "coordinates": [ 129.288986, 35.451855, 10.0 ] } },
{ "type": "Feature", "properties": { "value": 57.817 }, "geometry": { "type": "Point", "coordinates": [ 129.290085, 35.451855, 10.0 ] } },
{ "type": "Feature", "properties": { "value": 25.113 }, "geometry": { "type": "Point", "coordinates": [ 129.291183, 35.451851, 10.0 ] } },
{ "type": "Feature", "properties": { "value": 3.0522 }, "geometry": { "type": "Point", "coordinates": [ 129.292282, 35.451847, 10.0 ] } },
{ "type": "Feature", "properties": { "value": 0.4316 }, "geometry": { "type": "Point", "coordinates": [ 129.286789, 35.452763, 10.0 ] } },
{ "type": "Feature", "properties": { "value": 7.415 }, "geometry": { "type": "Point", "coordinates": [ 129.287888, 35.452759, 10.0 ] } },
{ "type": "Feature", "properties": { "value": 31.91 }, "geometry": { "type": "Point", "coordinates": [ 129.288986, 35.452759, 10.0 ] } },
{ "type": "Feature", "properties": { "value": 42.838 }, "geometry": { "type": "Point", "coordinates": [ 129.290085, 35.452755, 10.0 ] } },
{ "type": "Feature", "properties": { "value": 18.278 }, "geometry": { "type": "Point", "coordinates": [ 129.291183, 35.452751, 10.0 ] } },
{ "type": "Feature", "properties": { "value": 2.2971 }, "geometry": { "type": "Point", "coordinates": [ 129.292297, 35.452751, 10.0 ] } },
{ "type": "Feature", "properties": { "value": 0.4962 }, "geometry": { "type": "Point", "coordinates": [ 129.286789, 35.453663, 10.0 ] } },
{ "type": "Feature", "properties": { "value": 6.43 }, "geometry": { "type": "Point", "coordinates": [ 129.287888, 35.453663, 10.0 ] } },
{ "type": "Feature", "properties": { "value": 24.745 }, "geometry": { "type": "Point", "coordinates": [ 129.288986, 35.453659, 10.0 ] } },
{ "type": "Feature", "properties": { "value": 31.707 }, "geometry": { "type": "Point", "coordinates": [ 129.290085, 35.453655, 10.0 ] } },
{ "type": "Feature", "properties": { "value": 13.653 }, "geometry": { "type": "Point", "coordinates": [ 129.291199, 35.453655, 10.0 ] } },
{ "type": "Feature", "properties": { "value": 1.8636 }, "geometry": { "type": "Point", "coordinates": [ 129.292297, 35.453651, 10.0 ] } },
{ "type": "Feature", "properties": { "value": 0.7003 }, "geometry": { "type": "Point", "coordinates": [ 129.286789, 35.454567, 10.0 ] } },
{ "type": "Feature", "properties": { "value": 6.516 }, "geometry": { "type": "Point", "coordinates": [ 129.287888, 35.454563, 10.0 ] } },
{ "type": "Feature", "properties": { "value": 20.903 }, "geometry": { "type": "Point", "coordinates": [ 129.288986, 35.454559, 10.0 ] } },
{ "type": "Feature", "properties": { "value": 24.371 }, "geometry": { "type": "Point", "coordinates": [ 129.2901, 35.454559, 10.0 ] } },
{ "type": "Feature", "properties": { "value": 10.143 }, "geometry": { "type": "Point", "coordinates": [ 129.291199, 35.454556, 10.0 ] } },
{ "type": "Feature", "properties": { "value": 1.4051 }, "geometry": { "type": "Point", "coordinates": [ 129.292297, 35.454552, 10.0 ] } },
{ "type": "Feature", "properties": { "value": 1.124 }, "geometry": { "type": "Point", "coordinates": [ 129.286789, 35.455467, 10.0 ] } },
{ "type": "Feature", "properties": { "value": 7.4696 }, "geometry": { "type": "Point", "coordinates": [ 129.287888, 35.455463, 10.0 ] } },
{ "type": "Feature", "properties": { "value": 19.23 }, "geometry": { "type": "Point", "coordinates": [ 129.289001, 35.455463, 10.0 ] } },
{ "type": "Feature", "properties": { "value": 19.261 }, "geometry": { "type": "Point", "coordinates": [ 129.2901, 35.45546, 10.0 ] } },
{ "type": "Feature", "properties": { "value": 7.3101 }, "geometry": { "type": "Point", "coordinates": [ 129.291199, 35.455456, 10.0 ] } },
{ "type": "Feature", "properties": { "value": 0.9784 }, "geometry": { "type": "Point", "coordinates": [ 129.292297, 35.455452, 10.0 ] } },
{ "type": "Feature", "properties": { "value": 0.1071 }, "geometry": { "type": "Point", "coordinates": [ 129.28569, 35.456371, 10.0 ] } },
{ "type": "Feature", "properties": { "value": 1.7688 }, "geometry": { "type": "Point", "coordinates": [ 129.286789, 35.456367, 10.0 ] } },
{ "type": "Feature", "properties": { "value": 8.881 }, "geometry": { "type": "Point", "coordinates": [ 129.287903, 35.456367, 10.0 ] } },
{ "type": "Feature", "properties": { "value": 18.317 }, "geometry": { "type": "Point", "coordinates": [ 129.289001, 35.456364, 10.0 ] } },
{ "type": "Feature", "properties": { "value": 15.497 }, "geometry": { "type": "Point", "coordinates": [ 129.2901, 35.45636, 10.0 ] } },
{ "type": "Feature", "properties": { "value": 5.2108 }, "geometry": { "type": "Point", "coordinates": [ 129.291199, 35.456356, 10.0 ] } },
{ "type": "Feature", "properties": { "value": 0.6473 }, "geometry": { "type": "Point", "coordinates": [ 129.292297, 35.456356, 10.0 ] } },
{ "type": "Feature", "properties": { "value": 0.2571 }, "geometry": { "type": "Point", "coordinates": [ 129.28569, 35.457272, 10.0 ] } },
{ "type": "Feature", "properties": { "value": 2.5989 }, "geometry": { "type": "Point", "coordinates": [ 129.286804, 35.457268, 10.0 ] } },
{ "type": "Feature", "properties": { "value": 10.21 }, "geometry": { "type": "Point", "coordinates": [ 129.287903, 35.457268, 10.0 ] } },
{ "type": "Feature", "properties": { "value": 17.26 }, "geometry": { "type": "Point", "coordinates": [ 129.289001, 35.457264, 10.0 ] } },
{ "type": "Feature", "properties": { "value": 12.458 }, "geometry": { "type": "Point", "coordinates": [ 129.2901, 35.45726, 10.0 ] } },
{ "type": "Feature", "properties": { "value": 3.7131 }, "geometry": { "type": "Point", "coordinates": [ 129.291199, 35.45726, 10.0 ] } },
{ "type": "Feature", "properties": { "value": 0.4156 }, "geometry": { "type": "Point", "coordinates": [ 129.292313, 35.457256, 10.0 ] } },
{ "type": "Feature", "properties": { "value": 0.5004 }, "geometry": { "type": "Point", "coordinates": [ 129.285706, 35.458172, 10.0 ] } },
{ "type": "Feature", "properties": { "value": 3.5648 }, "geometry": { "type": "Point", "coordinates": [ 129.286804, 35.458172, 10.0 ] } },
{ "type": "Feature", "properties": { "value": 11.272 }, "geometry": { "type": "Point", "coordinates": [ 129.287903, 35.458168, 10.0 ] } },
{ "type": "Feature", "properties": { "value": 15.952 }, "geometry": { "type": "Point", "coordinates": [ 129.289001, 35.458164, 10.0 ] } },
{ "type": "Feature", "properties": { "value": 9.9741 }, "geometry": { "type": "Point", "coordinates": [ 129.2901, 35.458164, 10.0 ] } },
{ "type": "Feature", "properties": { "value": 2.6567 }, "geometry": { "type": "Point", "coordinates": [ 129.291214, 35.45816, 10.0 ] } },
{ "type": "Feature", "properties": { "value": 0.2616 }, "geometry": { "type": "Point", "coordinates": [ 129.292313, 35.458157, 10.0 ] } },
{ "type": "Feature", "properties": { "value": 0.805 }, "geometry": { "type": "Point", "coordinates": [ 129.285706, 35.459076, 10.0 ] } },
{ "type": "Feature", "properties": { "value": 4.5451 }, "geometry": { "type": "Point", "coordinates": [ 129.286804, 35.459072, 10.0 ] } },
{ "type": "Feature", "properties": { "value": 11.87 }, "geometry": { "type": "Point", "coordinates": [ 129.287903, 35.459068, 10.0 ] } },
{ "type": "Feature", "properties": { "value": 14.356 }, "geometry": { "type": "Point", "coordinates": [ 129.289001, 35.459068, 10.0 ] } },
{ "type": "Feature", "properties": { "value": 7.9257 }, "geometry": { "type": "Point", "coordinates": [ 129.290115, 35.459064, 10.0 ] } },
{ "type": "Feature", "properties": { "value": 1.9346 }, "geometry": { "type": "Point", "coordinates": [ 129.291214, 35.459061, 10.0 ] } },
{ "type": "Feature", "properties": { "value": 0.1658 }, "geometry": { "type": "Point", "coordinates": [ 129.292313, 35.459061, 10.0 ] } },
{ "type": "Feature", "properties": { "value": 13.943 }, "geometry": { "type": "Point", "coordinates": [ 129.32756, 35.458969, 10.0 ] } },
{ "type": "Feature", "properties": { "value": 0.0833 }, "geometry": { "type": "Point", "coordinates": [ 129.284607, 35.45998, 10.0 ] } },
{ "type": "Feature", "properties": { "value": 1.014 }, "geometry": { "type": "Point", "coordinates": [ 129.285706, 35.459976, 10.0 ] } },
{ "type": "Feature", "properties": { "value": 4.8034 }, "geometry": { "type": "Point", "coordinates": [ 129.286804, 35.459972, 10.0 ] } },
{ "type": "Feature", "properties": { "value": 10.82 }, "geometry": { "type": "Point", "coordinates": [ 129.287903, 35.459972, 10.0 ] } },
{ "type": "Feature", "properties": { "value": 11.536 }, "geometry": { "type": "Point", "coordinates": [ 129.289017, 35.459969, 10.0 ] } },
{ "type": "Feature", "properties": { "value": 5.7481 }, "geometry": { "type": "Point", "coordinates": [ 129.290115, 35.459965, 10.0 ] } },
{ "type": "Feature", "properties": { "value": 1.3007 }, "geometry": { "type": "Point", "coordinates": [ 129.291214, 35.459965, 10.0 ] } },
{ "type": "Feature", "properties": { "value": 0.0971 }, "geometry": { "type": "Point", "coordinates": [ 129.292313, 35.459961, 10.0 ] } },
{ "type": "Feature", "properties": { "value": 108.66 }, "geometry": { "type": "Point", "coordinates": [ 129.32756, 35.459869, 10.0 ] } },
{ "type": "Feature", "properties": { "value": 0.0806 }, "geometry": { "type": "Point", "coordinates": [ 129.284607, 35.46088, 10.0 ] } },
{ "type": "Feature", "properties": { "value": 0.8296 }, "geometry": { "type": "Point", "coordinates": [ 129.285706, 35.460876, 10.0 ] } },
{ "type": "Feature", "properties": { "value": 3.5574 }, "geometry": { "type": "Point", "coordinates": [ 129.286804, 35.460876, 10.0 ] } },
{ "type": "Feature", "properties": { "value": 7.2221 }, "geometry": { "type": "Point", "coordinates": [ 129.287918, 35.460873, 10.0 ] } },
{ "type": "Feature", "properties": { "value": 7.0363 }, "geometry": { "type": "Point", "coordinates": [ 129.289017, 35.460869, 10.0 ] } },
{ "type": "Feature", "properties": { "value": 3.2429 }, "geometry": { "type": "Point", "coordinates": [ 129.290115, 35.460865, 10.0 ] } },
{ "type": "Feature", "properties": { "value": 0.6817 }, "geometry": { "type": "Point", "coordinates": [ 129.291214, 35.460865, 10.0 ] } },
{ "type": "Feature", "properties": { "value": 70.835 }, "geometry": { "type": "Point", "coordinates": [ 129.327576, 35.46077, 10.0 ] } },
{ "type": "Feature", "properties": { "value": 0.0334 }, "geometry": { "type": "Point", "coordinates": [ 129.284607, 35.461781, 10.0 ] } },
{ "type": "Feature", "properties": { "value": 0.3928 }, "geometry": { "type": "Point", "coordinates": [ 129.285706, 35.461781, 10.0 ] } },
{ "type": "Feature", "properties": { "value": 1.5912 }, "geometry": { "type": "Point", "coordinates": [ 129.286819, 35.461777, 10.0 ] } },
{ "type": "Feature", "properties": { "value": 3.0451 }, "geometry": { "type": "Point", "coordinates": [ 129.287918, 35.461773, 10.0 ] } },
{ "type": "Feature", "properties": { "value": 2.7865 }, "geometry": { "type": "Point", "coordinates": [ 129.289017, 35.461769, 10.0 ] } },
{ "type": "Feature", "properties": { "value": 1.2132 }, "geometry": { "type": "Point", "coordinates": [ 129.290115, 35.461769, 10.0 ] } },
{ "type": "Feature", "properties": { "value": 0.2399 }, "geometry": { "type": "Point", "coordinates": [ 129.291214, 35.461765, 10.0 ] } },
{ "type": "Feature", "properties": { "value": 62.825 }, "geometry": { "type": "Point", "coordinates": [ 129.327576, 35.461674, 10.0 ] } },
{ "type": "Feature", "properties": { "value": 0.0915 }, "geometry": { "type": "Point", "coordinates": [ 129.285721, 35.462681, 10.0 ] } },
{ "type": "Feature", "properties": { "value": 0.3855 }, "geometry": { "type": "Point", "coordinates": [ 129.286819, 35.462677, 10.0 ] } },
{ "type": "Feature", "properties": { "value": 0.7178 }, "geometry": { "type": "Point", "coordinates": [ 129.287918, 35.462673, 10.0 ] } },
{ "type": "Feature", "properties": { "value": 0.6299 }, "geometry": { "type": "Point", "coordinates": [ 129.289017, 35.462673, 10.0 ] } },
{ "type": "Feature", "properties": { "value": 0.2557 }, "geometry": { "type": "Point", "coordinates": [ 129.290115, 35.462669, 10.0 ] } },
{ "type": "Feature", "properties": { "value": 0.0409 }, "geometry": { "type": "Point", "coordinates": [ 129.291229, 35.462666, 10.0 ] } },
{ "type": "Feature", "properties": { "value": 77.659 }, "geometry": { "type": "Point", "coordinates": [ 129.327576, 35.462574, 10.0 ] } },
{ "type": "Feature", "properties": { "value": 0.0078 }, "geometry": { "type": "Point", "coordinates": [ 129.285721, 35.463581, 10.0 ] } },
{ "type": "Feature", "properties": { "value": 0.0411 }, "geometry": { "type": "Point", "coordinates": [ 129.286819, 35.463577, 10.0 ] } },
{ "type": "Feature", "properties": { "value": 0.0832 }, "geometry": { "type": "Point", "coordinates": [ 129.287918, 35.463577, 10.0 ] } },
{ "type": "Feature", "properties": { "value": 0.0702 }, "geometry": { "type": "Point", "coordinates": [ 129.289017, 35.463573, 10.0 ] } },
{ "type": "Feature", "properties": { "value": 0.0236 }, "geometry": { "type": "Point", "coordinates": [ 129.290131, 35.46357, 10.0 ] } },
{ "type": "Feature", "properties": { "value": 81.107 }, "geometry": { "type": "Point", "coordinates": [ 129.327576, 35.463474, 10.0 ] } },
{ "type": "Feature", "properties": { "value": 1.0159 }, "geometry": { "type": "Point", "coordinates": [ 129.32869, 35.46347, 10.0 ] } },
{ "type": "Feature", "properties": { "value": 75.098 }, "geometry": { "type": "Point", "coordinates": [ 129.327591, 35.464375, 10.0 ] } },
{ "type": "Feature", "properties": { "value": 6.0584 }, "geometry": { "type": "Point", "coordinates": [ 129.32869, 35.464375, 10.0 ] } },
{ "type": "Feature", "properties": { "value": 50.689 }, "geometry": { "type": "Point", "coordinates": [ 129.327591, 35.465279, 10.0 ] } },
{ "type": "Feature", "properties": { "value": 9.9076 }, "geometry": { "type": "Point", "coordinates": [ 129.32869, 35.465275, 10.0 ] } },
{ "type": "Feature", "properties": { "value": 33.32 }, "geometry": { "type": "Point", "coordinates": [ 129.327591, 35.466179, 10.0 ] } },
{ "type": "Feature", "properties": { "value": 10.47 }, "geometry": { "type": "Point", "coordinates": [ 129.32869, 35.466175, 10.0 ] } },
{ "type": "Feature", "properties": { "value": 27.989 }, "geometry": { "type": "Point", "coordinates": [ 129.327591, 35.467079, 10.0 ] } },
{ "type": "Feature", "properties": { "value": 12.675 }, "geometry": { "type": "Point", "coordinates": [ 129.328705, 35.467075, 10.0 ] } },
{ "type": "Feature", "properties": { "value": 26.388 }, "geometry": { "type": "Point", "coordinates": [ 129.327606, 35.467983, 10.0 ] } },
{ "type": "Feature", "properties": { "value": 15.495 }, "geometry": { "type": "Point", "coordinates": [ 129.328705, 35.467979, 10.0 ] } },
{ "type": "Feature", "properties": { "value": 29.012 }, "geometry": { "type": "Point", "coordinates": [ 129.327606, 35.468884, 10.0 ] } },
{ "type": "Feature", "properties": { "value": 19.688 }, "geometry": { "type": "Point", "coordinates": [ 129.328705, 35.46888, 10.0 ] } },
{ "type": "Feature", "properties": { "value": 0.7937 }, "geometry": { "type": "Point", "coordinates": [ 129.326508, 35.469788, 10.0 ] } },
{ "type": "Feature", "properties": { "value": 38.099 }, "geometry": { "type": "Point", "coordinates": [ 129.327606, 35.469784, 10.0 ] } },
{ "type": "Feature", "properties": { "value": 27.449 }, "geometry": { "type": "Point", "coordinates": [ 129.328705, 35.46978, 10.0 ] } },
{ "type": "Feature", "properties": { "value": 1.78 }, "geometry": { "type": "Point", "coordinates": [ 129.326508, 35.470688, 10.0 ] } },
{ "type": "Feature", "properties": { "value": 51.118 }, "geometry": { "type": "Point", "coordinates": [ 129.327606, 35.470684, 10.0 ] } },
{ "type": "Feature", "properties": { "value": 43.963 }, "geometry": { "type": "Point", "coordinates": [ 129.32872, 35.470684, 10.0 ] } },
{ "type": "Feature", "properties": { "value": 1.2995 }, "geometry": { "type": "Point", "coordinates": [ 129.329819, 35.47068, 10.0 ] } },
{ "type": "Feature", "properties": { "value": 3.403 }, "geometry": { "type": "Point", "coordinates": [ 129.326508, 35.471588, 10.0 ] } },
{ "type": "Feature", "properties": { "value": 74.99 }, "geometry": { "type": "Point", "coordinates": [ 129.327621, 35.471588, 10.0 ] } },
{ "type": "Feature", "properties": { "value": 83.36 }, "geometry": { "type": "Point", "coordinates": [ 129.32872, 35.471584, 10.0 ] } },
{ "type": "Feature", "properties": { "value": 3.6586 }, "geometry": { "type": "Point", "coordinates": [ 129.329819, 35.471581, 10.0 ] } },
{ "type": "Feature", "properties": { "value": 6.4359 }, "geometry": { "type": "Point", "coordinates": [ 129.326523, 35.472492, 10.0 ] } },
{ "type": "Feature", "properties": { "value": 113.23 }, "geometry": { "type": "Point", "coordinates": [ 129.327621, 35.472488, 10.0 ] } },
{ "type": "Feature", "properties": { "value": 130.53 }, "geometry": { "type": "Point", "coordinates": [ 129.32872, 35.472485, 10.0 ] } },
{ "type": "Feature", "properties": { "value": 6.8904 }, "geometry": { "type": "Point", "coordinates": [ 129.329819, 35.472481, 10.0 ] } },
{ "type": "Feature", "properties": { "value": 12.219 }, "geometry": { "type": "Point", "coordinates": [ 129.326523, 35.473392, 10.0 ] } },
{ "type": "Feature", "properties": { "value": 136.3 }, "geometry": { "type": "Point", "coordinates": [ 129.327621, 35.473389, 10.0 ] } },
{ "type": "Feature", "properties": { "value": 140.78 }, "geometry": { "type": "Point", "coordinates": [ 129.32872, 35.473385, 10.0 ] } },
{ "type": "Feature", "properties": { "value": 10.549 }, "geometry": { "type": "Point", "coordinates": [ 129.329819, 35.473385, 10.0 ] } },
{ "type": "Feature", "properties": { "value": 18.24 }, "geometry": { "type": "Point", "coordinates": [ 129.326523, 35.474293, 10.0 ] } },
{ "type": "Feature", "properties": { "value": 143.64 }, "geometry": { "type": "Point", "coordinates": [ 129.327621, 35.474289, 10.0 ] } },
{ "type": "Feature", "properties": { "value": 131.66 }, "geometry": { "type": "Point", "coordinates": [ 129.328735, 35.474289, 10.0 ] } },
{ "type": "Feature", "properties": { "value": 12.61 }, "geometry": { "type": "Point", "coordinates": [ 129.329834, 35.474285, 10.0 ] } },
{ "type": "Feature", "properties": { "value": 24.103 }, "geometry": { "type": "Point", "coordinates": [ 129.326523, 35.475193, 10.0 ] } },
{ "type": "Feature", "properties": { "value": 148.86 }, "geometry": { "type": "Point", "coordinates": [ 129.327637, 35.475193, 10.0 ] } },
{ "type": "Feature", "properties": { "value": 123.91 }, "geometry": { "type": "Point", "coordinates": [ 129.328735, 35.475189, 10.0 ] } },
{ "type": "Feature", "properties": { "value": 12.204 }, "geometry": { "type": "Point", "coordinates": [ 129.329834, 35.475185, 10.0 ] } },
{ "type": "Feature", "properties": { "value": 30.225 }, "geometry": { "type": "Point", "coordinates": [ 129.326538, 35.476097, 10.0 ] } },
{ "type": "Feature", "properties": { "value": 138.05 }, "geometry": { "type": "Point", "coordinates": [ 129.327637, 35.476093, 10.0 ] } },
{ "type": "Feature", "properties": { "value": 106.06 }, "geometry": { "type": "Point", "coordinates": [ 129.328735, 35.476089, 10.0 ] } },
{ "type": "Feature", "properties": { "value": 11.211 }, "geometry": { "type": "Point", "coordinates": [ 129.329834, 35.476086, 10.0 ] } },
{ "type": "Feature", "properties": { "value": 0.7406 }, "geometry": { "type": "Point", "coordinates": [ 129.325439, 35.477001, 10.0 ] } },
{ "type": "Feature", "properties": { "value": 34.89 }, "geometry": { "type": "Point", "coordinates": [ 129.326538, 35.476997, 10.0 ] } },
{ "type": "Feature", "properties": { "value": 114.71 }, "geometry": { "type": "Point", "coordinates": [ 129.327637, 35.476994, 10.0 ] } },
{ "type": "Feature", "properties": { "value": 80.919 }, "geometry": { "type": "Point", "coordinates": [ 129.328735, 35.47699, 10.0 ] } },
{ "type": "Feature", "properties": { "value": 9.8343 }, "geometry": { "type": "Point", "coordinates": [ 129.329834, 35.47699, 10.0 ] } },
{ "type": "Feature", "properties": { "value": 2.7684 }, "geometry": { "type": "Point", "coordinates": [ 129.325439, 35.477901, 10.0 ] } },
{ "type": "Feature", "properties": { "value": 37.159 }, "geometry": { "type": "Point", "coordinates": [ 129.326538, 35.477898, 10.0 ] } },
{ "type": "Feature", "properties": { "value": 94.717 }, "geometry": { "type": "Point", "coordinates": [ 129.327637, 35.477894, 10.0 ] } },
{ "type": "Feature", "properties": { "value": 61.227 }, "geometry": { "type": "Point", "coordinates": [ 129.328735, 35.477894, 10.0 ] } },
{ "type": "Feature", "properties": { "value": 8.3702 }, "geometry": { "type": "Point", "coordinates": [ 129.329849, 35.47789, 10.0 ] } },
{ "type": "Feature", "properties": { "value": 4.4812 }, "geometry": { "type": "Point", "coordinates": [ 129.325439, 35.478802, 10.0 ] } },
{ "type": "Feature", "properties": { "value": 40.299 }, "geometry": { "type": "Point", "coordinates": [ 129.326538, 35.478798, 10.0 ] } },
{ "type": "Feature", "properties": { "value": 88.764 }, "geometry": { "type": "Point", "coordinates": [ 129.327637, 35.478798, 10.0 ] } },
{ "type": "Feature", "properties": { "value": 51.639 }, "geometry": { "type": "Point", "coordinates": [ 129.328751, 35.478794, 10.0 ] } },
{ "type": "Feature", "properties": { "value": 7.2946 }, "geometry": { "type": "Point", "coordinates": [ 129.329849, 35.47879, 10.0 ] } },
{ "type": "Feature", "properties": { "value": 6.9806 }, "geometry": { "type": "Point", "coordinates": [ 129.325439, 35.479706, 10.0 ] } },
{ "type": "Feature", "properties": { "value": 50.672 }, "geometry": { "type": "Point", "coordinates": [ 129.326553, 35.479702, 10.0 ] } },
{ "type": "Feature", "properties": { "value": 101.27 }, "geometry": { "type": "Point", "coordinates": [ 129.327652, 35.479698, 10.0 ] } },
{ "type": "Feature", "properties": { "value": 50.958 }, "geometry": { "type": "Point", "coordinates": [ 129.328751, 35.479694, 10.0 ] } },
{ "type": "Feature", "properties": { "value": 6.5172 }, "geometry": { "type": "Point", "coordinates": [ 129.329849, 35.479691, 10.0 ] } },
{ "type": "Feature", "properties": { "value": 12.1 }, "geometry": { "type": "Point", "coordinates": [ 129.325455, 35.480606, 10.0 ] } },
{ "type": "Feature", "properties": { "value": 71.787 }, "geometry": { "type": "Point", "coordinates": [ 129.326553, 35.480602, 10.0 ] } },
{ "type": "Feature", "properties": { "value": 120.31 }, "geometry": { "type": "Point", "coordinates": [ 129.327652, 35.480598, 10.0 ] } },
{ "type": "Feature", "properties": { "value": 51.256 }, "geometry": { "type": "Point", "coordinates": [ 129.328751, 35.480595, 10.0 ] } },
{ "type": "Feature", "properties": { "value": 5.7774 }, "geometry": { "type": "Point", "coordinates": [ 129.329849, 35.480595, 10.0 ] } },
{ "type": "Feature", "properties": { "value": 149.48 }, "geometry": { "type": "Point", "coordinates": [ 129.321045, 35.481518, 10.0 ] } },
{ "type": "Feature", "properties": { "value": 0.3141 }, "geometry": { "type": "Point", "coordinates": [ 129.324356, 35.48151, 10.0 ] } },
{ "type": "Feature", "properties": { "value": 20.886 }, "geometry": { "type": "Point", "coordinates": [ 129.325455, 35.481506, 10.0 ] } },
{ "type": "Feature", "properties": { "value": 91.996 }, "geometry": { "type": "Point", "coordinates": [ 129.326553, 35.481503, 10.0 ] } },
{ "type": "Feature", "properties": { "value": 119.58 }, "geometry": { "type": "Point", "coordinates": [ 129.327652, 35.481503, 10.0 ] } },
{ "type": "Feature", "properties": { "value": 44.035 }, "geometry": { "type": "Point", "coordinates": [ 129.328751, 35.481499, 10.0 ] } },
{ "type": "Feature", "properties": { "value": 4.8224 }, "geometry": { "type": "Point", "coordinates": [ 129.329865, 35.481495, 10.0 ] } },
{ "type": "Feature", "properties": { "value": 61.669 }, "geometry": { "type": "Point", "coordinates": [ 129.319946, 35.482422, 10.0 ] } },
{ "type": "Feature", "properties": { "value": 934.86 }, "geometry": { "type": "Point", "coordinates": [ 129.321045, 35.482418, 10.0 ] } },
{ "type": "Feature", "properties": { "value": 2.6761 }, "geometry": { "type": "Point", "coordinates": [ 129.324356, 35.48241, 10.0 ] } },
{ "type": "Feature", "properties": { "value": 31.136 }, "geometry": { "type": "Point", "coordinates": [ 129.325455, 35.482407, 10.0 ] } },
{ "type": "Feature", "properties": { "value": 101.18 }, "geometry": { "type": "Point", "coordinates": [ 129.326553, 35.482407, 10.0 ] } },
{ "type": "Feature", "properties": { "value": 103.7 }, "geometry": { "type": "Point", "coordinates": [ 129.327652, 35.482403, 10.0 ] } },
{ "type": "Feature", "properties": { "value": 34.627 }, "geometry": { "type": "Point", "coordinates": [ 129.328766, 35.482399, 10.0 ] } },
{ "type": "Feature", "properties": { "value": 3.875 }, "geometry": { "type": "Point", "coordinates": [ 129.329865, 35.482395, 10.0 ] } },
{ "type": "Feature", "properties": { "value": 0.0 }, "geometry": { "type": "Point", "coordinates": [ 129.318848, 35.483326, 10.0 ] } },
{ "type": "Feature", "properties": { "value": 1084.3 }, "geometry": { "type": "Point", "coordinates": [ 129.319946, 35.483322, 10.0 ] } },
{ "type": "Feature", "properties": { "value": 20.242 }, "geometry": { "type": "Point", "coordinates": [ 129.321045, 35.483322, 10.0 ] } },
{ "type": "Feature", "properties": { "value": 5.4477 }, "geometry": { "type": "Point", "coordinates": [ 129.324356, 35.483311, 10.0 ] } },
{ "type": "Feature", "properties": { "value": 41.809 }, "geometry": { "type": "Point", "coordinates": [ 129.325455, 35.483311, 10.0 ] } },
{ "type": "Feature", "properties": { "value": 105.24 }, "geometry": { "type": "Point", "coordinates": [ 129.326553, 35.483307, 10.0 ] } },
{ "type": "Feature", "properties": { "value": 94.297 }, "geometry": { "type": "Point", "coordinates": [ 129.327667, 35.483303, 10.0 ] } },
{ "type": "Feature", "properties": { "value": 30.517 }, "geometry": { "type": "Point", "coordinates": [ 129.328766, 35.483299, 10.0 ] } },
{ "type": "Feature", "properties": { "value": 3.3152 }, "geometry": { "type": "Point", "coordinates": [ 129.329865, 35.483295, 10.0 ] } },
{ "type": "Feature", "properties": { "value": 10.954 }, "geometry": { "type": "Point", "coordinates": [ 129.318848, 35.48423, 10.0 ] } },
{ "type": "Feature", "properties": { "value": 1049.9 }, "geometry": { "type": "Point", "coordinates": [ 129.319946, 35.484226, 10.0 ] } },
{ "type": "Feature", "properties": { "value": 0.0082 }, "geometry": { "type": "Point", "coordinates": [ 129.32106, 35.484222, 10.0 ] } },
{ "type": "Feature", "properties": { "value": 9.9826 }, "geometry": { "type": "Point", "coordinates": [ 129.324356, 35.484215, 10.0 ] } },
{ "type": "Feature", "properties": { "value": 54.996 }, "geometry": { "type": "Point", "coordinates": [ 129.325455, 35.484211, 10.0 ] } },
{ "type": "Feature", "properties": { "value": 112.5 }, "geometry": { "type": "Point", "coordinates": [ 129.326569, 35.484207, 10.0 ] } },
{ "type": "Feature", "properties": { "value": 91.857 }, "geometry": { "type": "Point", "coordinates": [ 129.327667, 35.484203, 10.0 ] } },
{ "type": "Feature", "properties": { "value": 27.743 }, "geometry": { "type": "Point", "coordinates": [ 129.328766, 35.484203, 10.0 ] } },
{ "type": "Feature", "properties": { "value": 2.6993 }, "geometry": { "type": "Point", "coordinates": [ 129.329865, 35.4842, 10.0 ] } },
{ "type": "Feature", "properties": { "value": 0.0009 }, "geometry": { "type": "Point", "coordinates": [ 129.317749, 35.485134, 10.0 ] } },
{ "type": "Feature", "properties": { "value": 567.82 }, "geometry": { "type": "Point", "coordinates": [ 129.318848, 35.48513, 10.0 ] } },
{ "type": "Feature", "properties": { "value": 683.57 }, "geometry": { "type": "Point", "coordinates": [ 129.319962, 35.485126, 10.0 ] } },
{ "type": "Feature", "properties": { "value": 0.0 }, "geometry": { "type": "Point", "coordinates": [ 129.32106, 35.485123, 10.0 ] } },
{ "type": "Feature", "properties": { "value": 1.0315 }, "geometry": { "type": "Point", "coordinates": [ 129.323257, 35.485119, 10.0 ] } },
{ "type": "Feature", "properties": { "value": 17.201 }, "geometry": { "type": "Point", "coordinates": [ 129.324371, 35.485115, 10.0 ] } },
{ "type": "Feature", "properties": { "value": 70.2 }, "geometry": { "type": "Point", "coordinates": [ 129.32547, 35.485111, 10.0 ] } },
{ "type": "Feature", "properties": { "value": 116.66 }, "geometry": { "type": "Point", "coordinates": [ 129.326569, 35.485107, 10.0 ] } },
{ "type": "Feature", "properties": { "value": 81.517 }, "geometry": { "type": "Point", "coordinates": [ 129.327667, 35.485107, 10.0 ] } },
{ "type": "Feature", "properties": { "value": 21.4 }, "geometry": { "type": "Point", "coordinates": [ 129.328766, 35.485104, 10.0 ] } },
{ "type": "Feature", "properties": { "value": 1.8771 }, "geometry": { "type": "Point", "coordinates": [ 129.32988, 35.4851, 10.0 ] } },
{ "type": "Feature", "properties": { "value": 13.0 }, "geometry": { "type": "Point", "coordinates": [ 129.317749, 35.486034, 10.0 ] } },
{ "type": "Feature", "properties": { "value": 947.85 }, "geometry": { "type": "Point", "coordinates": [ 129.318863, 35.486031, 10.0 ] } },
{ "type": "Feature", "properties": { "value": 57.846 }, "geometry": { "type": "Point", "coordinates": [ 129.319962, 35.486027, 10.0 ] } },
{ "type": "Feature", "properties": { "value": 3.5901 }, "geometry": { "type": "Point", "coordinates": [ 129.323273, 35.486019, 10.0 ] } },
{ "type": "Feature", "properties": { "value": 26.681 }, "geometry": { "type": "Point", "coordinates": [ 129.324371, 35.486015, 10.0 ] } },
{ "type": "Feature", "properties": { "value": 81.504 }, "geometry": { "type": "Point", "coordinates": [ 129.32547, 35.486012, 10.0 ] } },
{ "type": "Feature", "properties": { "value": 109.9 }, "geometry": { "type": "Point", "coordinates": [ 129.326569, 35.486012, 10.0 ] } },
{ "type": "Feature", "properties": { "value": 63.757 }, "geometry": { "type": "Point", "coordinates": [ 129.327667, 35.486008, 10.0 ] } },
{ "type": "Feature", "properties": { "value": 14.552 }, "geometry": { "type": "Point", "coordinates": [ 129.328781, 35.486004, 10.0 ] } },
{ "type": "Feature", "properties": { "value": 1.0556 }, "geometry": { "type": "Point", "coordinates": [ 129.32988, 35.486, 10.0 ] } },
{ "type": "Feature", "properties": { "value": 0.1547 }, "geometry": { "type": "Point", "coordinates": [ 129.31665, 35.486938, 10.0 ] } },
{ "type": "Feature", "properties": { "value": 378.07 }, "geometry": { "type": "Point", "coordinates": [ 129.317764, 35.486935, 10.0 ] } },
{ "type": "Feature", "properties": { "value": 738.91 }, "geometry": { "type": "Point", "coordinates": [ 129.318863, 35.486931, 10.0 ] } },
{ "type": "Feature", "properties": { "value": 0.5978 }, "geometry": { "type": "Point", "coordinates": [ 129.319962, 35.486931, 10.0 ] } },
{ "type": "Feature", "properties": { "value": 7.7887 }, "geometry": { "type": "Point", "coordinates": [ 129.323273, 35.486919, 10.0 ] } },
{ "type": "Feature", "properties": { "value": 37.763 }, "geometry": { "type": "Point", "coordinates": [ 129.324371, 35.486916, 10.0 ] } },
{ "type": "Feature", "properties": { "value": 87.07 }, "geometry": { "type": "Point", "coordinates": [ 129.32547, 35.486916, 10.0 ] } },
{ "type": "Feature", "properties": { "value": 96.839 }, "geometry": { "type": "Point", "coordinates": [ 129.326569, 35.486912, 10.0 ] } },
{ "type": "Feature", "properties": { "value": 48.049 }, "geometry": { "type": "Point", "coordinates": [ 129.327682, 35.486908, 10.0 ] } },
{ "type": "Feature", "properties": { "value": 9.8651 }, "geometry": { "type": "Point", "coordinates": [ 129.328781, 35.486904, 10.0 ] } },
{ "type": "Feature", "properties": { "value": 0.3076 }, "geometry": { "type": "Point", "coordinates": [ 129.32988, 35.486904, 10.0 ] } },
{ "type": "Feature", "properties": { "value": 67.647 }, "geometry": { "type": "Point", "coordinates": [ 129.316666, 35.487839, 10.0 ] } },
{ "type": "Feature", "properties": { "value": 826.87 }, "geometry": { "type": "Point", "coordinates": [ 129.317764, 35.487835, 10.0 ] } },
{ "type": "Feature", "properties": { "value": 161.92 }, "geometry": { "type": "Point", "coordinates": [ 129.318863, 35.487835, 10.0 ] } },
{ "type": "Feature", "properties": { "value": 1.0701 }, "geometry": { "type": "Point", "coordinates": [ 129.322174, 35.487823, 10.0 ] } },
{ "type": "Feature", "properties": { "value": 14.476 }, "geometry": { "type": "Point", "coordinates": [ 129.323273, 35.48782, 10.0 ] } },
{ "type": "Feature", "properties": { "value": 51.59 }, "geometry": { "type": "Point", "coordinates": [ 129.324371, 35.48782, 10.0 ] } },
{ "type": "Feature", "properties": { "value": 94.151 }, "geometry": { "type": "Point", "coordinates": [ 129.32547, 35.487816, 10.0 ] } },
{ "type": "Feature", "properties": { "value": 86.492 }, "geometry": { "type": "Point", "coordinates": [ 129.326584, 35.487812, 10.0 ] } },
{ "type": "Feature", "properties": { "value": 36.574 }, "geometry": { "type": "Point", "coordinates": [ 129.327682, 35.487808, 10.0 ] } },
{ "type": "Feature", "properties": { "value": 6.6601 }, "geometry": { "type": "Point", "coordinates": [ 129.328781, 35.487808, 10.0 ] } },
{ "type": "Feature", "properties": { "value": 48.174 }, "geometry": { "type": "Point", "coordinates": [ 129.315567, 35.488743, 10.0 ] } },
{ "type": "Feature", "properties": { "value": 674.31 }, "geometry": { "type": "Point", "coordinates": [ 129.316666, 35.488739, 10.0 ] } },
{ "type": "Feature", "properties": { "value": 531.21 }, "geometry": { "type": "Point", "coordinates": [ 129.317764, 35.488739, 10.0 ] } },
{ "type": "Feature", "properties": { "value": 3.6961 }, "geometry": { "type": "Point", "coordinates": [ 129.318863, 35.488735, 10.0 ] } },
{ "type": "Feature", "properties": { "value": 4.1051 }, "geometry": { "type": "Point", "coordinates": [ 129.322174, 35.488728, 10.0 ] } },
{ "type": "Feature", "properties": { "value": 24.98 }, "geometry": { "type": "Point", "coordinates": [ 129.323273, 35.488724, 10.0 ] } },
{ "type": "Feature", "properties": { "value": 71.825 }, "geometry": { "type": "Point", "coordinates": [ 129.324371, 35.48872, 10.0 ] } },
{ "type": "Feature", "properties": { "value": 107.1 }, "geometry": { "type": "Point", "coordinates": [ 129.325485, 35.488716, 10.0 ] } },
{ "type": "Feature", "properties": { "value": 80.254 }, "geometry": { "type": "Point", "coordinates": [ 129.326584, 35.488712, 10.0 ] } },
{ "type": "Feature", "properties": { "value": 28.398 }, "geometry": { "type": "Point", "coordinates": [ 129.327682, 35.488712, 10.0 ] } },
{ "type": "Feature", "properties": { "value": 4.4726 }, "geometry": { "type": "Point", "coordinates": [ 129.328781, 35.488708, 10.0 ] } },
{ "type": "Feature", "properties": { "value": 12.012 }, "geometry": { "type": "Point", "coordinates": [ 129.314468, 35.489647, 10.0 ] } },
{ "type": "Feature", "properties": { "value": 396.82 }, "geometry": { "type": "Point", "coordinates": [ 129.315567, 35.489643, 10.0 ] } },
{ "type": "Feature", "properties": { "value": 740.76 }, "geometry": { "type": "Point", "coordinates": [ 129.316666, 35.489643, 10.0 ] } },
{ "type": "Feature", "properties": { "value": 50.652 }, "geometry": { "type": "Point", "coordinates": [ 129.317764, 35.489639, 10.0 ] } },
{ "type": "Feature", "properties": { "value": 8.8548 }, "geometry": { "type": "Point", "coordinates": [ 129.322174, 35.489628, 10.0 ] } },
{ "type": "Feature", "properties": { "value": 41.009 }, "geometry": { "type": "Point", "coordinates": [ 129.323273, 35.489624, 10.0 ] } },
{ "type": "Feature", "properties": { "value": 97.957 }, "geometry": { "type": "Point", "coordinates": [ 129.324387, 35.48962, 10.0 ] } },
{ "type": "Feature", "properties": { "value": 120.44 }, "geometry": { "type": "Point", "coordinates": [ 129.325485, 35.489616, 10.0 ] } },
{ "type": "Feature", "properties": { "value": 73.31 }, "geometry": { "type": "Point", "coordinates": [ 129.326584, 35.489616, 10.0 ] } },
{ "type": "Feature", "properties": { "value": 21.689 }, "geometry": { "type": "Point", "coordinates": [ 129.327682, 35.489613, 10.0 ] } },
{ "type": "Feature", "properties": { "value": 2.8569 }, "geometry": { "type": "Point", "coordinates": [ 129.328796, 35.489609, 10.0 ] } },
{ "type": "Feature", "properties": { "value": 1.95 }, "geometry": { "type": "Point", "coordinates": [ 129.31337, 35.490551, 10.0 ] } },
{ "type": "Feature", "properties": { "value": 126.54 }, "geometry": { "type": "Point", "coordinates": [ 129.314468, 35.490547, 10.0 ] } },
{ "type": "Feature", "properties": { "value": 517.32 }, "geometry": { "type": "Point", "coordinates": [ 129.315567, 35.490547, 10.0 ] } },
{ "type": "Feature", "properties": { "value": 176.77 }, "geometry": { "type": "Point", "coordinates": [ 129.316666, 35.490543, 10.0 ] } },
{ "type": "Feature", "properties": { "value": 1.1322 }, "geometry": { "type": "Point", "coordinates": [ 129.31778, 35.49054, 10.0 ] } },
{ "type": "Feature", "properties": { "value": 2.489 }, "geometry": { "type": "Point", "coordinates": [ 129.321075, 35.490532, 10.0 ] } },
{ "type": "Feature", "properties": { "value": 16.987 }, "geometry": { "type": "Point", "coordinates": [ 129.322174, 35.490528, 10.0 ] } },
{ "type": "Feature", "properties": { "value": 58.847 }, "geometry": { "type": "Point", "coordinates": [ 129.323288, 35.490524, 10.0 ] } },
{ "type": "Feature", "properties": { "value": 113.9 }, "geometry": { "type": "Point", "coordinates": [ 129.324387, 35.490524, 10.0 ] } },
{ "type": "Feature", "properties": { "value": 117.57 }, "geometry": { "type": "Point", "coordinates": [ 129.325485, 35.49052, 10.0 ] } },
{ "type": "Feature", "properties": { "value": 60.63 }, "geometry": { "type": "Point", "coordinates": [ 129.326584, 35.490517, 10.0 ] } },
{ "type": "Feature", "properties": { "value": 15.205 }, "geometry": { "type": "Point", "coordinates": [ 129.327698, 35.490513, 10.0 ] } },
{ "type": "Feature", "properties": { "value": 1.5018 }, "geometry": { "type": "Point", "coordinates": [ 129.328796, 35.490509, 10.0 ] } },
{ "type": "Feature", "properties": { "value": 41.307 }, "geometry": { "type": "Point", "coordinates": [ 129.31337, 35.491451, 10.0 ] } },
{ "type": "Feature", "properties": { "value": 355.25 }, "geometry": { "type": "Point", "coordinates": [ 129.314468, 35.491451, 10.0 ] } },
{ "type": "Feature", "properties": { "value": 326.1 }, "geometry": { "type": "Point", "coordinates": [ 129.315567, 35.491447, 10.0 ] } },
{ "type": "Feature", "properties": { "value": 19.752 }, "geometry": { "type": "Point", "coordinates": [ 129.316681, 35.491444, 10.0 ] } },
{ "type": "Feature", "properties": { "value": 6.7294 }, "geometry": { "type": "Point", "coordinates": [ 129.321091, 35.491432, 10.0 ] } },
{ "type": "Feature", "properties": { "value": 30.058 }, "geometry": { "type": "Point", "coordinates": [ 129.322189, 35.491428, 10.0 ] } },
{ "type": "Feature", "properties": { "value": 78.504 }, "geometry": { "type": "Point", "coordinates": [ 129.323288, 35.491428, 10.0 ] } },
{ "type": "Feature", "properties": { "value": 118.15 }, "geometry": { "type": "Point", "coordinates": [ 129.324387, 35.491425, 10.0 ] } },
{ "type": "Feature", "properties": { "value": 97.064 }, "geometry": { "type": "Point", "coordinates": [ 129.325485, 35.491421, 10.0 ] } },
{ "type": "Feature", "properties": { "value": 43.433 }, "geometry": { "type": "Point", "coordinates": [ 129.326599, 35.491417, 10.0 ] } },
{ "type": "Feature", "properties": { "value": 9.5013 }, "geometry": { "type": "Point", "coordinates": [ 129.327698, 35.491413, 10.0 ] } },
{ "type": "Feature", "properties": { "value": 0.3482 }, "geometry": { "type": "Point", "coordinates": [ 129.328796, 35.491413, 10.0 ] } },
{ "type": "Feature", "properties": { "value": 17.434 }, "geometry": { "type": "Point", "coordinates": [ 129.312271, 35.492355, 10.0 ] } },
{ "type": "Feature", "properties": { "value": 203.69 }, "geometry": { "type": "Point", "coordinates": [ 129.31337, 35.492355, 10.0 ] } },
{ "type": "Feature", "properties": { "value": 403.07 }, "geometry": { "type": "Point", "coordinates": [ 129.314468, 35.492352, 10.0 ] } },
{ "type": "Feature", "properties": { "value": 100.42 }, "geometry": { "type": "Point", "coordinates": [ 129.315582, 35.492348, 10.0 ] } },
{ "type": "Feature", "properties": { "value": 1.1613 }, "geometry": { "type": "Point", "coordinates": [ 129.316681, 35.492344, 10.0 ] } },
{ "type": "Feature", "properties": { "value": 2.5552 }, "geometry": { "type": "Point", "coordinates": [ 129.319992, 35.492336, 10.0 ] } },
{ "type": "Feature", "properties": { "value": 14.903 }, "geometry": { "type": "Point", "coordinates": [ 129.321091, 35.492332, 10.0 ] } },
{ "type": "Feature", "properties": { "value": 48.587 }, "geometry": { "type": "Point", "coordinates": [ 129.322189, 35.492332, 10.0 ] } },
{ "type": "Feature", "properties": { "value": 97.151 }, "geometry": { "type": "Point", "coordinates": [ 129.323288, 35.492329, 10.0 ] } },
{ "type": "Feature", "properties": { "value": 109.09 }, "geometry": { "type": "Point", "coordinates": [ 129.324387, 35.492325, 10.0 ] } },
{ "type": "Feature", "properties": { "value": 69.884 }, "geometry": { "type": "Point", "coordinates": [ 129.3255, 35.492321, 10.0 ] } },
{ "type": "Feature", "properties": { "value": 26.885 }, "geometry": { "type": "Point", "coordinates": [ 129.326599, 35.492317, 10.0 ] } },
{ "type": "Feature", "properties": { "value": 5.2787 }, "geometry": { "type": "Point", "coordinates": [ 129.327698, 35.492317, 10.0 ] } },
{ "type": "Feature", "properties": { "value": 8.8896 }, "geometry": { "type": "Point", "coordinates": [ 129.311172, 35.493259, 10.0 ] } },
{ "type": "Feature", "properties": { "value": 100.2 }, "geometry": { "type": "Point", "coordinates": [ 129.312271, 35.493259, 10.0 ] } },
{ "type": "Feature", "properties": { "value": 315.29 }, "geometry": { "type": "Point", "coordinates": [ 129.31337, 35.493256, 10.0 ] } },
{ "type": "Feature", "properties": { "value": 205.74 }, "geometry": { "type": "Point", "coordinates": [ 129.314484, 35.493252, 10.0 ] } },
{ "type": "Feature", "properties": { "value": 14.175 }, "geometry": { "type": "Point", "coordinates": [ 129.315582, 35.493248, 10.0 ] } },
{ "type": "Feature", "properties": { "value": 0.5957 }, "geometry": { "type": "Point", "coordinates": [ 129.318893, 35.49324, 10.0 ] } },
{ "type": "Feature", "properties": { "value": 7.5237 }, "geometry": { "type": "Point", "coordinates": [ 129.319992, 35.493237, 10.0 ] } },
{ "type": "Feature", "properties": { "value": 28.774 }, "geometry": { "type": "Point", "coordinates": [ 129.321091, 35.493237, 10.0 ] } },
{ "type": "Feature", "properties": { "value": 70.583 }, "geometry": { "type": "Point", "coordinates": [ 129.322189, 35.493233, 10.0 ] } },
{ "type": "Feature", "properties": { "value": 109.47 }, "geometry": { "type": "Point", "coordinates": [ 129.323288, 35.493229, 10.0 ] } },
{ "type": "Feature", "properties": { "value": 97.816 }, "geometry": { "type": "Point", "coordinates": [ 129.324402, 35.493225, 10.0 ] } },
{ "type": "Feature", "properties": { "value": 49.223 }, "geometry": { "type": "Point", "coordinates": [ 129.3255, 35.493225, 10.0 ] } },
{ "type": "Feature", "properties": { "value": 15.658 }, "geometry": { "type": "Point", "coordinates": [ 129.326599, 35.493221, 10.0 ] } },
{ "type": "Feature", "properties": { "value": 2.6649 }, "geometry": { "type": "Point", "coordinates": [ 129.327698, 35.493217, 10.0 ] } },
{ "type": "Feature", "properties": { "value": 3.0456 }, "geometry": { "type": "Point", "coordinates": [ 129.310074, 35.494164, 10.0 ] } },
{ "type": "Feature", "properties": { "value": 49.339 }, "geometry": { "type": "Point", "coordinates": [ 129.311172, 35.494164, 10.0 ] } },
{ "type": "Feature", "properties": { "value": 207.32 }, "geometry": { "type": "Point", "coordinates": [ 129.312271, 35.49416, 10.0 ] } },
{ "type": "Feature", "properties": { "value": 227.02 }, "geometry": { "type": "Point", "coordinates": [ 129.313385, 35.494156, 10.0 ] } },
{ "type": "Feature", "properties": { "value": 53.962 }, "geometry": { "type": "Point", "coordinates": [ 129.314484, 35.494152, 10.0 ] } },
{ "type": "Feature", "properties": { "value": 1.0975 }, "geometry": { "type": "Point", "coordinates": [ 129.315582, 35.494152, 10.0 ] } },
{ "type": "Feature", "properties": { "value": 4.0432 }, "geometry": { "type": "Point", "coordinates": [ 129.318893, 35.494141, 10.0 ] } },
{ "type": "Feature", "properties": { "value": 17.319 }, "geometry": { "type": "Point", "coordinates": [ 129.319992, 35.494141, 10.0 ] } },
{ "type": "Feature", "properties": { "value": 48.776 }, "geometry": { "type": "Point", "coordinates": [ 129.321091, 35.494137, 10.0 ] } },
{ "type": "Feature", "properties": { "value": 91.545 }, "geometry": { "type": "Point", "coordinates": [ 129.322189, 35.494133, 10.0 ] } },
{ "type": "Feature", "properties": { "value": 111.2 }, "geometry": { "type": "Point", "coordinates": [ 129.323303, 35.494129, 10.0 ] } },
{ "type": "Feature", "properties": { "value": 82.143 }, "geometry": { "type": "Point", "coordinates": [ 129.324402, 35.494129, 10.0 ] } },
{ "type": "Feature", "properties": { "value": 34.626 }, "geometry": { "type": "Point", "coordinates": [ 129.3255, 35.494125, 10.0 ] } },
{ "type": "Feature", "properties": { "value": 9.0506 }, "geometry": { "type": "Point", "coordinates": [ 129.326599, 35.494122, 10.0 ] } },
{ "type": "Feature", "properties": { "value": 0.9097 }, "geometry": { "type": "Point", "coordinates": [ 129.327713, 35.494118, 10.0 ] } },
{ "type": "Feature", "properties": { "value": 16.054 }, "geometry": { "type": "Point", "coordinates": [ 129.310074, 35.495068, 10.0 ] } },
{ "type": "Feature", "properties": { "value": 112.09 }, "geometry": { "type": "Point", "coordinates": [ 129.311172, 35.495064, 10.0 ] } },
{ "type": "Feature", "properties": { "value": 214.05 }, "geometry": { "type": "Point", "coordinates": [ 129.312286, 35.49506, 10.0 ] } },
{ "type": "Feature", "properties": { "value": 101.47 }, "geometry": { "type": "Point", "coordinates": [ 129.313385, 35.495056, 10.0 ] } },
{ "type": "Feature", "properties": { "value": 9.8807 }, "geometry": { "type": "Point", "coordinates": [ 129.314484, 35.495056, 10.0 ] } },
{ "type": "Feature", "properties": { "value": 2.4023 }, "geometry": { "type": "Point", "coordinates": [ 129.317795, 35.495045, 10.0 ] } },
{ "type": "Feature", "properties": { "value": 11.155 }, "geometry": { "type": "Point", "coordinates": [ 129.318893, 35.495045, 10.0 ] } },
{ "type": "Feature", "properties": { "value": 33.947 }, "geometry": { "type": "Point", "coordinates": [ 129.319992, 35.495041, 10.0 ] } },
{ "type": "Feature", "properties": { "value": 72.362 }, "geometry": { "type": "Point", "coordinates": [ 129.321091, 35.495037, 10.0 ] } },
{ "type": "Feature", "properties": { "value": 105.31 }, "geometry": { "type": "Point", "coordinates": [ 129.322205, 35.495033, 10.0 ] } },
{ "type": "Feature", "properties": { "value": 101.07 }, "geometry": { "type": "Point", "coordinates": [ 129.323303, 35.495033, 10.0 ] } },
{ "type": "Feature", "properties": { "value": 59.651 }, "geometry": { "type": "Point", "coordinates": [ 129.324402, 35.495029, 10.0 ] } },
{ "type": "Feature", "properties": { "value": 21.29 }, "geometry": { "type": "Point", "coordinates": [ 129.3255, 35.495026, 10.0 ] } },
{ "type": "Feature", "properties": { "value": 4.5386 }, "geometry": { "type": "Point", "coordinates": [ 129.326614, 35.495022, 10.0 ] } },
{ "type": "Feature", "properties": { "value": 1.6936 }, "geometry": { "type": "Point", "coordinates": [ 129.308975, 35.495972, 10.0 ] } },
{ "type": "Feature", "properties": { "value": 34.349 }, "geometry": { "type": "Point", "coordinates": [ 129.310074, 35.495968, 10.0 ] } },
{ "type": "Feature", "properties": { "value": 142.85 }, "geometry": { "type": "Point", "coordinates": [ 129.311188, 35.495964, 10.0 ] } },
{ "type": "Feature", "properties": { "value": 144.55 }, "geometry": { "type": "Point", "coordinates": [ 129.312286, 35.495964, 10.0 ] } },
{ "type": "Feature", "properties": { "value": 32.987 }, "geometry": { "type": "Point", "coordinates": [ 129.313385, 35.49596, 10.0 ] } },
{ "type": "Feature", "properties": { "value": 0.7784 }, "geometry": { "type": "Point", "coordinates": [ 129.314484, 35.495956, 10.0 ] } },
{ "type": "Feature", "properties": { "value": 1.7241 }, "geometry": { "type": "Point", "coordinates": [ 129.316696, 35.495949, 10.0 ] } },
{ "type": "Feature", "properties": { "value": 8.1158 }, "geometry": { "type": "Point", "coordinates": [ 129.317795, 35.495949, 10.0 ] } },
{ "type": "Feature", "properties": { "value": 25.012 }, "geometry": { "type": "Point", "coordinates": [ 129.318893, 35.495945, 10.0 ] } },
{ "type": "Feature", "properties": { "value": 57.017 }, "geometry": { "type": "Point", "coordinates": [ 129.319992, 35.495941, 10.0 ] } },
{ "type": "Feature", "properties": { "value": 93.498 }, "geometry": { "type": "Point", "coordinates": [ 129.321106, 35.495937, 10.0 ] } },
{ "type": "Feature", "properties": { "value": 106.63 }, "geometry": { "type": "Point", "coordinates": [ 129.322205, 35.495937, 10.0 ] } },
{ "type": "Feature", "properties": { "value": 77.874 }, "geometry": { "type": "Point", "coordinates": [ 129.323303, 35.495934, 10.0 ] } },
{ "type": "Feature", "properties": { "value": 37.549 }, "geometry": { "type": "Point", "coordinates": [ 129.324402, 35.49593, 10.0 ] } },
{ "type": "Feature", "properties": { "value": 11.252 }, "geometry": { "type": "Point", "coordinates": [ 129.325516, 35.495926, 10.0 ] } },
{ "type": "Feature", "properties": { "value": 1.7674 }, "geometry": { "type": "Point", "coordinates": [ 129.326614, 35.495926, 10.0 ] } },
{ "type": "Feature", "properties": { "value": 4.9037 }, "geometry": { "type": "Point", "coordinates": [ 129.308975, 35.496872, 10.0 ] } },
{ "type": "Feature", "properties": { "value": 45.116 }, "geometry": { "type": "Point", "coordinates": [ 129.310089, 35.496868, 10.0 ] } },
{ "type": "Feature", "properties": { "value": 120.57 }, "geometry": { "type": "Point", "coordinates": [ 129.311188, 35.496868, 10.0 ] } },
{ "type": "Feature", "properties": { "value": 83.118 }, "geometry": { "type": "Point", "coordinates": [ 129.312286, 35.496864, 10.0 ] } },
{ "type": "Feature", "properties": { "value": 12.68 }, "geometry": { "type": "Point", "coordinates": [ 129.313385, 35.496861, 10.0 ] } },
{ "type": "Feature", "properties": { "value": 1.4431 }, "geometry": { "type": "Point", "coordinates": [ 129.315598, 35.496857, 10.0 ] } },
{ "type": "Feature", "properties": { "value": 6.4399 }, "geometry": { "type": "Point", "coordinates": [ 129.316696, 35.496853, 10.0 ] } },
{ "type": "Feature", "properties": { "value": 19.85 }, "geometry": { "type": "Point", "coordinates": [ 129.317795, 35.496849, 10.0 ] } },
{ "type": "Feature", "properties": { "value": 46.596 }, "geometry": { "type": "Point", "coordinates": [ 129.318893, 35.496845, 10.0 ] } },
{ "type": "Feature", "properties": { "value": 81.892 }, "geometry": { "type": "Point", "coordinates": [ 129.320007, 35.496841, 10.0 ] } },
{ "type": "Feature", "properties": { "value": 104.76 }, "geometry": { "type": "Point", "coordinates": [ 129.321106, 35.496841, 10.0 ] } },
{ "type": "Feature", "properties": { "value": 90.701 }, "geometry": { "type": "Point", "coordinates": [ 129.322205, 35.496838, 10.0 ] } },
{ "type": "Feature", "properties": { "value": 52.356 }, "geometry": { "type": "Point", "coordinates": [ 129.323303, 35.496834, 10.0 ] } },
{ "type": "Feature", "properties": { "value": 21.99 }, "geometry": { "type": "Point", "coordinates": [ 129.324417, 35.49683, 10.0 ] } },
{ "type": "Feature", "properties": { "value": 5.486 }, "geometry": { "type": "Point", "coordinates": [ 129.325516, 35.49683, 10.0 ] } },
{ "type": "Feature", "properties": { "value": 0.3107 }, "geometry": { "type": "Point", "coordinates": [ 129.326614, 35.496826, 10.0 ] } },
{ "type": "Feature", "properties": { "value": 0.8193 }, "geometry": { "type": "Point", "coordinates": [ 129.306778, 35.49778, 10.0 ] } },
{ "type": "Feature", "properties": { "value": 4.1529 }, "geometry": { "type": "Point", "coordinates": [ 129.307877, 35.497776, 10.0 ] } },
{ "type": "Feature", "properties": { "value": 18.79 }, "geometry": { "type": "Point", "coordinates": [ 129.30899, 35.497772, 10.0 ] } },
{ "type": "Feature", "properties": { "value": 61.419 }, "geometry": { "type": "Point", "coordinates": [ 129.310089, 35.497772, 10.0 ] } },
{ "type": "Feature", "properties": { "value": 90.08 }, "geometry": { "type": "Point", "coordinates": [ 129.311188, 35.497768, 10.0 ] } },
{ "type": "Feature", "properties": { "value": 43.078 }, "geometry": { "type": "Point", "coordinates": [ 129.312286, 35.497765, 10.0 ] } },
{ "type": "Feature", "properties": { "value": 5.2841 }, "geometry": { "type": "Point", "coordinates": [ 129.3134, 35.497761, 10.0 ] } },
{ "type": "Feature", "properties": { "value": 0.8167 }, "geometry": { "type": "Point", "coordinates": [ 129.314499, 35.497761, 10.0 ] } },
{ "type": "Feature", "properties": { "value": 4.4168 }, "geometry": { "type": "Point", "coordinates": [ 129.315598, 35.497757, 10.0 ] } },
{ "type": "Feature", "properties": { "value": 15.288 }, "geometry": { "type": "Point", "coordinates": [ 129.316696, 35.497753, 10.0 ] } },
{ "type": "Feature", "properties": { "value": 38.102 }, "geometry": { "type": "Point", "coordinates": [ 129.317795, 35.497749, 10.0 ] } },
{ "type": "Feature", "properties": { "value": 71.064 }, "geometry": { "type": "Point", "coordinates": [ 129.318909, 35.497749, 10.0 ] } },
{ "type": "Feature", "properties": { "value": 99.585 }, "geometry": { "type": "Point", "coordinates": [ 129.320007, 35.497746, 10.0 ] } },
{ "type": "Feature", "properties": { "value": 100.04 }, "geometry": { "type": "Point", "coordinates": [ 129.321106, 35.497742, 10.0 ] } },
{ "type": "Feature", "properties": { "value": 64.696 }, "geometry": { "type": "Point", "coordinates": [ 129.322205, 35.497738, 10.0 ] } },
{ "type": "Feature", "properties": { "value": 32.836 }, "geometry": { "type": "Point", "coordinates": [ 129.323318, 35.497734, 10.0 ] } },
{ "type": "Feature", "properties": { "value": 11.766 }, "geometry": { "type": "Point", "coordinates": [ 129.324417, 35.497734, 10.0 ] } },
{ "type": "Feature", "properties": { "value": 2.2519 }, "geometry": { "type": "Point", "coordinates": [ 129.325516, 35.49773, 10.0 ] } },
{ "type": "Feature", "properties": { "value": 0.4171 }, "geometry": { "type": "Point", "coordinates": [ 129.304581, 35.498684, 10.0 ] } },
{ "type": "Feature", "properties": { "value": 2.4408 }, "geometry": { "type": "Point", "coordinates": [ 129.305679, 35.498684, 10.0 ] } },
{ "type": "Feature", "properties": { "value": 8.9035 }, "geometry": { "type": "Point", "coordinates": [ 129.306778, 35.49868, 10.0 ] } },
{ "type": "Feature", "properties": { "value": 25.589 }, "geometry": { "type": "Point", "coordinates": [ 129.307892, 35.498676, 10.0 ] } },
{ "type": "Feature", "properties": { "value": 55.901 }, "geometry": { "type": "Point", "coordinates": [ 129.30899, 35.498676, 10.0 ] } },
{ "type": "Feature", "properties": { "value": 81.819 }, "geometry": { "type": "Point", "coordinates": [ 129.310089, 35.498672, 10.0 ] } },
{ "type": "Feature", "properties": { "value": 64.239 }, "geometry": { "type": "Point", "coordinates": [ 129.311188, 35.498669, 10.0 ] } },
{ "type": "Feature", "properties": { "value": 19.601 }, "geometry": { "type": "Point", "coordinates": [ 129.312302, 35.498665, 10.0 ] } },
{ "type": "Feature", "properties": { "value": 1.8838 }, "geometry": { "type": "Point", "coordinates": [ 129.3134, 35.498665, 10.0 ] } },
{ "type": "Feature", "properties": { "value": 2.0044 }, "geometry": { "type": "Point", "coordinates": [ 129.314499, 35.498661, 10.0 ] } },
{ "type": "Feature", "properties": { "value": 9.1529 }, "geometry": { "type": "Point", "coordinates": [ 129.315598, 35.498657, 10.0 ] } },
{ "type": "Feature", "properties": { "value": 27.074 }, "geometry": { "type": "Point", "coordinates": [ 129.316696, 35.498653, 10.0 ] } },
{ "type": "Feature", "properties": { "value": 57.061 }, "geometry": { "type": "Point", "coordinates": [ 129.31781, 35.498653, 10.0 ] } },
{ "type": "Feature", "properties": { "value": 79.725 }, "geometry": { "type": "Point", "coordinates": [ 129.318909, 35.49865, 10.0 ] } },
{ "type": "Feature", "properties": { "value": 101.25 }, "geometry": { "type": "Point", "coordinates": [ 129.320007, 35.498646, 10.0 ] } },
{ "type": "Feature", "properties": { "value": 73.933 }, "geometry": { "type": "Point", "coordinates": [ 129.321106, 35.498642, 10.0 ] } },
{ "type": "Feature", "properties": { "value": 40.62 }, "geometry": { "type": "Point", "coordinates": [ 129.32222, 35.498638, 10.0 ] } },
{ "type": "Feature", "properties": { "value": 18.265 }, "geometry": { "type": "Point", "coordinates": [ 129.323318, 35.498638, 10.0 ] } },
{ "type": "Feature", "properties": { "value": 5.1852 }, "geometry": { "type": "Point", "coordinates": [ 129.324417, 35.498634, 10.0 ] } },
{ "type": "Feature", "properties": { "value": 0.2919 }, "geometry": { "type": "Point", "coordinates": [ 129.325516, 35.498631, 10.0 ] } },
{ "type": "Feature", "properties": { "value": 0.166 }, "geometry": { "type": "Point", "coordinates": [ 129.303482, 35.499588, 10.0 ] } },
{ "type": "Feature", "properties": { "value": 2.1867 }, "geometry": { "type": "Point", "coordinates": [ 129.304581, 35.499588, 10.0 ] } },
{ "type": "Feature", "properties": { "value": 10.97 }, "geometry": { "type": "Point", "coordinates": [ 129.305679, 35.499584, 10.0 ] } },
{ "type": "Feature", "properties": { "value": 31.724 }, "geometry": { "type": "Point", "coordinates": [ 129.306793, 35.49958, 10.0 ] } },
{ "type": "Feature", "properties": { "value": 63.467 }, "geometry": { "type": "Point", "coordinates": [ 129.307892, 35.49958, 10.0 ] } },
{ "type": "Feature", "properties": { "value": 84.912 }, "geometry": { "type": "Point", "coordinates": [ 129.30899, 35.499577, 10.0 ] } },
{ "type": "Feature", "properties": { "value": 67.915 }, "geometry": { "type": "Point", "coordinates": [ 129.310089, 35.499573, 10.0 ] } },
{ "type": "Feature", "properties": { "value": 29.603 }, "geometry": { "type": "Point", "coordinates": [ 129.311203, 35.499569, 10.0 ] } },
{ "type": "Feature", "properties": { "value": 5.6152 }, "geometry": { "type": "Point", "coordinates": [ 129.312302, 35.499569, 10.0 ] } },
{ "type": "Feature", "properties": { "value": 0.6819 }, "geometry": { "type": "Point", "coordinates": [ 129.3134, 35.499565, 10.0 ] } },
{ "type": "Feature", "properties": { "value": 3.2832 }, "geometry": { "type": "Point", "coordinates": [ 129.314499, 35.499561, 10.0 ] } },
{ "type": "Feature", "properties": { "value": 13.147 }, "geometry": { "type": "Point", "coordinates": [ 129.315598, 35.499557, 10.0 ] } },
{ "type": "Feature", "properties": { "value": 34.475 }, "geometry": { "type": "Point", "coordinates": [ 129.316711, 35.499557, 10.0 ] } },
{ "type": "Feature", "properties": { "value": 59.561 }, "geometry": { "type": "Point", "coordinates": [ 129.31781, 35.499554, 10.0 ] } },
{ "type": "Feature", "properties": { "value": 70.098 }, "geometry": { "type": "Point", "coordinates": [ 129.318909, 35.49955, 10.0 ] } },
{ "type": "Feature", "properties": { "value": 76.488 }, "geometry": { "type": "Point", "coordinates": [ 129.320007, 35.499546, 10.0 ] } },
{ "type": "Feature", "properties": { "value": 45.839 }, "geometry": { "type": "Point", "coordinates": [ 129.321121, 35.499546, 10.0 ] } },
{ "type": "Feature", "properties": { "value": 23.026 }, "geometry": { "type": "Point", "coordinates": [ 129.32222, 35.499542, 10.0 ] } },
{ "type": "Feature", "properties": { "value": 8.7238 }, "geometry": { "type": "Point", "coordinates": [ 129.323318, 35.499538, 10.0 ] } },
{ "type": "Feature", "properties": { "value": 1.6247 }, "geometry": { "type": "Point", "coordinates": [ 129.324417, 35.499535, 10.0 ] } },
{ "type": "Feature", "properties": { "value": 0.4006 }, "geometry": { "type": "Point", "coordinates": [ 129.303482, 35.500492, 10.0 ] } },
{ "type": "Feature", "properties": { "value": 4.2119 }, "geometry": { "type": "Point", "coordinates": [ 129.304581, 35.500488, 10.0 ] } },
{ "type": "Feature", "properties": { "value": 19.155 }, "geometry": { "type": "Point", "coordinates": [ 129.305695, 35.500484, 10.0 ] } },
{ "type": "Feature", "properties": { "value": 45.677 }, "geometry": { "type": "Point", "coordinates": [ 129.306793, 35.500484, 10.0 ] } },
{ "type": "Feature", "properties": { "value": 66.213 }, "geometry": { "type": "Point", "coordinates": [ 129.307892, 35.500481, 10.0 ] } },
{ "type": "Feature", "properties": { "value": 59.532 }, "geometry": { "type": "Point", "coordinates": [ 129.30899, 35.500477, 10.0 ] } },
{ "type": "Feature", "properties": { "value": 29.416 }, "geometry": { "type": "Point", "coordinates": [ 129.310104, 35.500473, 10.0 ] } },
{ "type": "Feature", "properties": { "value": 7.2678 }, "geometry": { "type": "Point", "coordinates": [ 129.311203, 35.500473, 10.0 ] } },
{ "type": "Feature", "properties": { "value": 0.759 }, "geometry": { "type": "Point", "coordinates": [ 129.312302, 35.500469, 10.0 ] } },
{ "type": "Feature", "properties": { "value": 0.6335 }, "geometry": { "type": "Point", "coordinates": [ 129.3134, 35.500465, 10.0 ] } },
{ "type": "Feature", "properties": { "value": 3.5928 }, "geometry": { "type": "Point", "coordinates": [ 129.314499, 35.500462, 10.0 ] } },
{ "type": "Feature", "properties": { "value": 12.65 }, "geometry": { "type": "Point", "coordinates": [ 129.315613, 35.500462, 10.0 ] } },
{ "type": "Feature", "properties": { "value": 29.215 }, "geometry": { "type": "Point", "coordinates": [ 129.316711, 35.500458, 10.0 ] } },
{ "type": "Feature", "properties": { "value": 44.126 }, "geometry": { "type": "Point", "coordinates": [ 129.31781, 35.500454, 10.0 ] } },
{ "type": "Feature", "properties": { "value": 49.271 }, "geometry": { "type": "Point", "coordinates": [ 129.318909, 35.50045, 10.0 ] } },
{ "type": "Feature", "properties": { "value": 43.541 }, "geometry": { "type": "Point", "coordinates": [ 129.320023, 35.50045, 10.0 ] } },
{ "type": "Feature", "properties": { "value": 24.395 }, "geometry": { "type": "Point", "coordinates": [ 129.321121, 35.500446, 10.0 ] } },
{ "type": "Feature", "properties": { "value": 11.532 }, "geometry": { "type": "Point", "coordinates": [ 129.32222, 35.500443, 10.0 ] } },
{ "type": "Feature", "properties": { "value": 3.5545 }, "geometry": { "type": "Point", "coordinates": [ 129.323318, 35.500439, 10.0 ] } },
{ "type": "Feature", "properties": { "value": 0.1068 }, "geometry": { "type": "Point", "coordinates": [ 129.324432, 35.500435, 10.0 ] } },
{ "type": "Feature", "properties": { "value": 0.2963 }, "geometry": { "type": "Point", "coordinates": [ 129.303482, 35.501392, 10.0 ] } },
{ "type": "Feature", "properties": { "value": 3.2828 }, "geometry": { "type": "Point", "coordinates": [ 129.304596, 35.501389, 10.0 ] } },
{ "type": "Feature", "properties": { "value": 13.887 }, "geometry": { "type": "Point", "coordinates": [ 129.305695, 35.501389, 10.0 ] } },
{ "type": "Feature", "properties": { "value": 28.195 }, "geometry": { "type": "Point", "coordinates": [ 129.306793, 35.501385, 10.0 ] } },
{ "type": "Feature", "properties": { "value": 30.776 }, "geometry": { "type": "Point", "coordinates": [ 129.307892, 35.501381, 10.0 ] } },
{ "type": "Feature", "properties": { "value": 18.953 }, "geometry": { "type": "Point", "coordinates": [ 129.309006, 35.501377, 10.0 ] } },
{ "type": "Feature", "properties": { "value": 6.0832 }, "geometry": { "type": "Point", "coordinates": [ 129.310104, 35.501377, 10.0 ] } },
{ "type": "Feature", "properties": { "value": 0.7745 }, "geometry": { "type": "Point", "coordinates": [ 129.311203, 35.501373, 10.0 ] } },
{ "type": "Feature", "properties": { "value": 0.0197 }, "geometry": { "type": "Point", "coordinates": [ 129.312302, 35.501369, 10.0 ] } },
{ "type": "Feature", "properties": { "value": 0.5108 }, "geometry": { "type": "Point", "coordinates": [ 129.3134, 35.501366, 10.0 ] } },
{ "type": "Feature", "properties": { "value": 2.6541 }, "geometry": { "type": "Point", "coordinates": [ 129.314514, 35.501366, 10.0 ] } },
{ "type": "Feature", "properties": { "value": 8.5675 }, "geometry": { "type": "Point", "coordinates": [ 129.315613, 35.501362, 10.0 ] } },
{ "type": "Feature", "properties": { "value": 17.708 }, "geometry": { "type": "Point", "coordinates": [ 129.316711, 35.501358, 10.0 ] } },
{ "type": "Feature", "properties": { "value": 24.939 }, "geometry": { "type": "Point", "coordinates": [ 129.31781, 35.501354, 10.0 ] } },
{ "type": "Feature", "properties": { "value": 28.565 }, "geometry": { "type": "Point", "coordinates": [ 129.318924, 35.501354, 10.0 ] } },
{ "type": "Feature", "properties": { "value": 20.213 }, "geometry": { "type": "Point", "coordinates": [ 129.320023, 35.50135, 10.0 ] } },
{ "type": "Feature", "properties": { "value": 11.375 }, "geometry": { "type": "Point", "coordinates": [ 129.321121, 35.501347, 10.0 ] } },
{ "type": "Feature", "properties": { "value": 4.8641 }, "geometry": { "type": "Point", "coordinates": [ 129.32222, 35.501343, 10.0 ] } },
{ "type": "Feature", "properties": { "value": 0.7599 }, "geometry": { "type": "Point", "coordinates": [ 129.323334, 35.501339, 10.0 ] } }
]
}
