{
"type": "FeatureCollection",
"features": [
{ "type": "Feature", "properties": { "value": 0.0033 }, "geometry": { "type": "Point", "coordinates": [ 129.32756, 35.458969, 60.0 ] } },
{ "type": "Feature", "properties": { "value": 3.4596 }, "geometry": { "type": "Point", "coordinates": [ 129.32756, 35.459869, 60.0 ] } },
{ "type": "Feature", "properties": { "value": 79.724 }, "geometry": { "type": "Point", "coordinates": [ 129.327576, 35.46077, 60.0 ] } },
{ "type": "Feature", "properties": { "value": 128.49 }, "geometry": { "type": "Point", "coordinates": [ 129.327576, 35.461674, 60.0 ] } },
{ "type": "Feature", "properties": { "value": 96.505 }, "geometry": { "type": "Point", "coordinates": [ 129.327576, 35.462574, 60.0 ] } },
{ "type": "Feature", "properties": { "value": 61.964 }, "geometry": { "type": "Point", "coordinates": [ 129.327576, 35.463474, 60.0 ] } },
{ "type": "Feature", "properties": { "value": 8.9341 }, "geometry": { "type": "Point", "coordinates": [ 129.32869, 35.46347, 60.0 ] } },
{ "type": "Feature", "properties": { "value": 40.647 }, "geometry": { "type": "Point", "coordinates": [ 129.327591, 35.464375, 60.0 ] } },
{ "type": "Feature", "properties": { "value": 25.378 }, "geometry": { "type": "Point", "coordinates": [ 129.32869, 35.464375, 60.0 ] } },
{ "type": "Feature", "properties": { "value": 29.085 }, "geometry": { "type": "Point", "coordinates": [ 129.327591, 35.465279, 60.0 ] } },
{ "type": "Feature", "properties": { "value": 59.656 }, "geometry": { "type": "Point", "coordinates": [ 129.32869, 35.465275, 60.0 ] } },
{ "type": "Feature", "properties": { "value": 19.621 }, "geometry": { "type": "Point", "coordinates": [ 129.327591, 35.466179, 60.0 ] } },
{ "type": "Feature", "properties": { "value": 95.976 }, "geometry": { "type": "Point", "coordinates": [ 129.32869, 35.466175, 60.0 ] } },
{ "type": "Feature", "properties": { "value": 12.281 }, "geometry": { "type": "Point", "coordinates": [ 129.327591, 35.467079, 60.0 ] } },
{ "type": "Feature", "properties": { "value": 113.41 }, "geometry": { "type": "Point", "coordinates": [ 129.328705, 35.467075, 60.0 ] } },
{ "type": "Feature", "properties": { "value": 3.3522 }, "geometry": { "type": "Point", "coordinates": [ 129.329803, 35.467075, 60.0 ] } },
{ "type": "Feature", "properties": { "value": 7.451 }, "geometry": { "type": "Point", "coordinates": [ 129.327606, 35.467983, 60.0 ] } },
{ "type": "Feature", "properties": { "value": 110.27 }, "geometry": { "type": "Point", "coordinates": [ 129.328705, 35.467979, 60.0 ] } },
{ "type": "Feature", "properties": { "value": 11.196 }, "geometry": { "type": "Point", "coordinates": [ 129.329803, 35.467976, 60.0 ] } },
{ "type": "Feature", "properties": { "value": 4.0295 }, "geometry": { "type": "Point", "coordinates": [ 129.327606, 35.468884, 60.0 ] } },
{ "type": "Feature", "properties": { "value": 94.592 }, "geometry": { "type": "Point", "coordinates": [ 129.328705, 35.46888, 60.0 ] } },
{ "type": "Feature", "properties": { "value": 25.251 }, "geometry": { "type": "Point", "coordinates": [ 129.329803, 35.468876, 60.0 ] } },
{ "type": "Feature", "properties": { "value": 2.1799 }, "geometry": { "type": "Point", "coordinates": [ 129.327606, 35.469784, 60.0 ] } },
{ "type": "Feature", "properties": { "value": 73.376 }, "geometry": { "type": "Point", "coordinates": [ 129.328705, 35.46978, 60.0 ] } },
{ "type": "Feature", "properties": { "value": 44.026 }, "geometry": { "type": "Point", "coordinates": [ 129.329819, 35.469776, 60.0 ] } },
{ "type": "Feature", "properties": { "value": 0.9989 }, "geometry": { "type": "Point", "coordinates": [ 129.327606, 35.470684, 60.0 ] } },
{ "type": "Feature", "properties": { "value": 50.435 }, "geometry": { "type": "Point", "coordinates": [ 129.32872, 35.470684, 60.0 ] } },
{ "type": "Feature", "properties": { "value": 55.902 }, "geometry": { "type": "Point", "coordinates": [ 129.329819, 35.47068, 60.0 ] } },
{ "type": "Feature", "properties": { "value": 1.8048 }, "geometry": { "type": "Point", "coordinates": [ 129.330917, 35.470676, 60.0 ] } },
{ "type": "Feature", "properties": { "value": 26.315 }, "geometry": { "type": "Point", "coordinates": [ 129.32872, 35.471584, 60.0 ] } },
{ "type": "Feature", "properties": { "value": 45.431 }, "geometry": { "type": "Point", "coordinates": [ 129.329819, 35.471581, 60.0 ] } },
{ "type": "Feature", "properties": { "value": 3.7747 }, "geometry": { "type": "Point", "coordinates": [ 129.330917, 35.471577, 60.0 ] } },
{ "type": "Feature", "properties": { "value": 10.606 }, "geometry": { "type": "Point", "coordinates": [ 129.32872, 35.472485, 60.0 ] } },
{ "type": "Feature", "properties": { "value": 33.814 }, "geometry": { "type": "Point", "coordinates": [ 129.329819, 35.472481, 60.0 ] } },
{ "type": "Feature", "properties": { "value": 8.6226 }, "geometry": { "type": "Point", "coordinates": [ 129.330917, 35.472477, 60.0 ] } },
{ "type": "Feature", "properties": { "value": 4.8419 }, "geometry": { "type": "Point", "coordinates": [ 129.32872, 35.473385, 60.0 ] } },
{ "type": "Feature", "properties": { "value": 32.03 }, "geometry": { "type": "Point", "coordinates": [ 129.329819, 35.473385, 60.0 ] } },
{ "type": "Feature", "properties": { "value": 20.873 }, "geometry": { "type": "Point", "coordinates": [ 129.330933, 35.473381, 60.0 ] } },
{ "type": "Feature", "properties": { "value": 1.3428 }, "geometry": { "type": "Point", "coordinates": [ 129.332031, 35.473377, 60.0 ] } },
{ "type": "Feature", "properties": { "value": 2.6721 }, "geometry": { "type": "Point", "coordinates": [ 129.328735, 35.474289, 60.0 ] } },
{ "type": "Feature", "properties": { "value": 32.373 }, "geometry": { "type": "Point", "coordinates": [ 129.329834, 35.474285, 60.0 ] } },
{ "type": "Feature", "properties": { "value": 39.512 }, "geometry": { "type": "Point", "coordinates": [ 129.330933, 35.474281, 60.0 ] } },
{ "type": "Feature", "properties": { "value": 5.4343 }, "geometry": { "type": "Point", "coordinates": [ 129.332031, 35.474277, 60.0 ] } },
{ "type": "Feature", "properties": { "value": 1.5757 }, "geometry": { "type": "Point", "coordinates": [ 129.328735, 35.475189, 60.0 ] } },
{ "type": "Feature", "properties": { "value": 26.578 }, "geometry": { "type": "Point", "coordinates": [ 129.329834, 35.475185, 60.0 ] } },
{ "type": "Feature", "properties": { "value": 51.629 }, "geometry": { "type": "Point", "coordinates": [ 129.330933, 35.475182, 60.0 ] } },
{ "type": "Feature", "properties": { "value": 13.265 }, "geometry": { "type": "Point", "coordinates": [ 129.332031, 35.475178, 60.0 ] } },
{ "type": "Feature", "properties": { "value": 0.0552 }, "geometry": { "type": "Point", "coordinates": [ 129.333145, 35.475178, 60.0 ] } },
{ "type": "Feature", "properties": { "value": 0.7816 }, "geometry": { "type": "Point", "coordinates": [ 129.328735, 35.476089, 60.0 ] } },
{ "type": "Feature", "properties": { "value": 18.945 }, "geometry": { "type": "Point", "coordinates": [ 129.329834, 35.476086, 60.0 ] } },
{ "type": "Feature", "properties": { "value": 54.471 }, "geometry": { "type": "Point", "coordinates": [ 129.330933, 35.476086, 60.0 ] } },
{ "type": "Feature", "properties": { "value": 24.287 }, "geometry": { "type": "Point", "coordinates": [ 129.332047, 35.476082, 60.0 ] } },
{ "type": "Feature", "properties": { "value": 1.9027 }, "geometry": { "type": "Point", "coordinates": [ 129.333145, 35.476078, 60.0 ] } },
{ "type": "Feature", "properties": { "value": 11.952 }, "geometry": { "type": "Point", "coordinates": [ 129.329834, 35.47699, 60.0 ] } },
{ "type": "Feature", "properties": { "value": 48.577 }, "geometry": { "type": "Point", "coordinates": [ 129.330948, 35.476986, 60.0 ] } },
{ "type": "Feature", "properties": { "value": 36.053 }, "geometry": { "type": "Point", "coordinates": [ 129.332047, 35.476982, 60.0 ] } },
{ "type": "Feature", "properties": { "value": 5.5393 }, "geometry": { "type": "Point", "coordinates": [ 129.333145, 35.476978, 60.0 ] } },
{ "type": "Feature", "properties": { "value": 6.6538 }, "geometry": { "type": "Point", "coordinates": [ 129.329849, 35.47789, 60.0 ] } },
{ "type": "Feature", "properties": { "value": 38.168 }, "geometry": { "type": "Point", "coordinates": [ 129.330948, 35.477886, 60.0 ] } },
{ "type": "Feature", "properties": { "value": 45.227 }, "geometry": { "type": "Point", "coordinates": [ 129.332047, 35.477882, 60.0 ] } },
{ "type": "Feature", "properties": { "value": 12.364 }, "geometry": { "type": "Point", "coordinates": [ 129.333145, 35.477879, 60.0 ] } },
{ "type": "Feature", "properties": { "value": 0.7279 }, "geometry": { "type": "Point", "coordinates": [ 129.334259, 35.477879, 60.0 ] } },
{ "type": "Feature", "properties": { "value": 3.2814 }, "geometry": { "type": "Point", "coordinates": [ 129.329849, 35.47879, 60.0 ] } },
{ "type": "Feature", "properties": { "value": 26.607 }, "geometry": { "type": "Point", "coordinates": [ 129.330948, 35.478786, 60.0 ] } },
{ "type": "Feature", "properties": { "value": 48.531 }, "geometry": { "type": "Point", "coordinates": [ 129.332047, 35.478786, 60.0 ] } },
{ "type": "Feature", "properties": { "value": 22.396 }, "geometry": { "type": "Point", "coordinates": [ 129.33316, 35.478783, 60.0 ] } },
{ "type": "Feature", "properties": { "value": 2.8045 }, "geometry": { "type": "Point", "coordinates": [ 129.334259, 35.478779, 60.0 ] } },
{ "type": "Feature", "properties": { "value": 1.3905 }, "geometry": { "type": "Point", "coordinates": [ 129.329849, 35.479691, 60.0 ] } },
{ "type": "Feature", "properties": { "value": 16.375 }, "geometry": { "type": "Point", "coordinates": [ 129.330948, 35.479691, 60.0 ] } },
{ "type": "Feature", "properties": { "value": 44.692 }, "geometry": { "type": "Point", "coordinates": [ 129.332062, 35.479687, 60.0 ] } },
{ "type": "Feature", "properties": { "value": 33.522 }, "geometry": { "type": "Point", "coordinates": [ 129.33316, 35.479683, 60.0 ] } },
{ "type": "Feature", "properties": { "value": 7.5973 }, "geometry": { "type": "Point", "coordinates": [ 129.334259, 35.479679, 60.0 ] } },
{ "type": "Feature", "properties": { "value": 0.2923 }, "geometry": { "type": "Point", "coordinates": [ 129.335358, 35.479675, 60.0 ] } },
{ "type": "Feature", "properties": { "value": 0.4449 }, "geometry": { "type": "Point", "coordinates": [ 129.329849, 35.480595, 60.0 ] } },
{ "type": "Feature", "properties": { "value": 8.8647 }, "geometry": { "type": "Point", "coordinates": [ 129.330963, 35.480591, 60.0 ] } },
{ "type": "Feature", "properties": { "value": 35.392 }, "geometry": { "type": "Point", "coordinates": [ 129.332062, 35.480587, 60.0 ] } },
{ "type": "Feature", "properties": { "value": 41.621 }, "geometry": { "type": "Point", "coordinates": [ 129.33316, 35.480583, 60.0 ] } },
{ "type": "Feature", "properties": { "value": 15.864 }, "geometry": { "type": "Point", "coordinates": [ 129.334259, 35.480579, 60.0 ] } },
{ "type": "Feature", "properties": { "value": 2.0541 }, "geometry": { "type": "Point", "coordinates": [ 129.335358, 35.480579, 60.0 ] } },
{ "type": "Feature", "properties": { "value": 4.2242 }, "geometry": { "type": "Point", "coordinates": [ 129.330963, 35.481491, 60.0 ] } },
{ "type": "Feature", "properties": { "value": 24.13 }, "geometry": { "type": "Point", "coordinates": [ 129.332062, 35.481487, 60.0 ] } },
{ "type": "Feature", "properties": { "value": 43.171 }, "geometry": { "type": "Point", "coordinates": [ 129.33316, 35.481487, 60.0 ] } },
{ "type": "Feature", "properties": { "value": 26.502 }, "geometry": { "type": "Point", "coordinates": [ 129.334259, 35.481483, 60.0 ] } },
{ "type": "Feature", "properties": { "value": 6.0792 }, "geometry": { "type": "Point", "coordinates": [ 129.335373, 35.48148, 60.0 ] } },
{ "type": "Feature", "properties": { "value": 0.3937 }, "geometry": { "type": "Point", "coordinates": [ 129.336472, 35.481476, 60.0 ] } },
{ "type": "Feature", "properties": { "value": 1.7226 }, "geometry": { "type": "Point", "coordinates": [ 129.330963, 35.482391, 60.0 ] } },
{ "type": "Feature", "properties": { "value": 14.208 }, "geometry": { "type": "Point", "coordinates": [ 129.332062, 35.482391, 60.0 ] } },
{ "type": "Feature", "properties": { "value": 37.588 }, "geometry": { "type": "Point", "coordinates": [ 129.333176, 35.482388, 60.0 ] } },
{ "type": "Feature", "properties": { "value": 36.025 }, "geometry": { "type": "Point", "coordinates": [ 129.334274, 35.482384, 60.0 ] } },
{ "type": "Feature", "properties": { "value": 13.669 }, "geometry": { "type": "Point", "coordinates": [ 129.335373, 35.48238, 60.0 ] } },
{ "type": "Feature", "properties": { "value": 2.2039 }, "geometry": { "type": "Point", "coordinates": [ 129.336472, 35.482376, 60.0 ] } },
{ "type": "Feature", "properties": { "value": 0.5289 }, "geometry": { "type": "Point", "coordinates": [ 129.330963, 35.483295, 60.0 ] } },
{ "type": "Feature", "properties": { "value": 7.2064 }, "geometry": { "type": "Point", "coordinates": [ 129.332077, 35.483292, 60.0 ] } },
{ "type": "Feature", "properties": { "value": 27.623 }, "geometry": { "type": "Point", "coordinates": [ 129.333176, 35.483288, 60.0 ] } },
{ "type": "Feature", "properties": { "value": 40.104 }, "geometry": { "type": "Point", "coordinates": [ 129.334274, 35.483284, 60.0 ] } },
{ "type": "Feature", "properties": { "value": 24.192 }, "geometry": { "type": "Point", "coordinates": [ 129.335373, 35.48328, 60.0 ] } },
{ "type": "Feature", "properties": { "value": 6.7491 }, "geometry": { "type": "Point", "coordinates": [ 129.336472, 35.48328, 60.0 ] } },
{ "type": "Feature", "properties": { "value": 0.9463 }, "geometry": { "type": "Point", "coordinates": [ 129.337585, 35.483276, 60.0 ] } },
{ "type": "Feature", "properties": { "value": 3.1609 }, "geometry": { "type": "Point", "coordinates": [ 129.332077, 35.484192, 60.0 ] } },
{ "type": "Feature", "properties": { "value": 17.141 }, "geometry": { "type": "Point", "coordinates": [ 129.333176, 35.484188, 60.0 ] } },
{ "type": "Feature", "properties": { "value": 36.2 }, "geometry": { "type": "Point", "coordinates": [ 129.334274, 35.484188, 60.0 ] } },
{ "type": "Feature", "properties": { "value": 33.028 }, "geometry": { "type": "Point", "coordinates": [ 129.335373, 35.484184, 60.0 ] } },
{ "type": "Feature", "properties": { "value": 14.75 }, "geometry": { "type": "Point", "coordinates": [ 129.336487, 35.48418, 60.0 ] } },
{ "type": "Feature", "properties": { "value": 3.8151 }, "geometry": { "type": "Point", "coordinates": [ 129.337585, 35.484177, 60.0 ] } },
{ "type": "Feature", "properties": { "value": 0.5738 }, "geometry": { "type": "Point", "coordinates": [ 129.338684, 35.484173, 60.0 ] } },
{ "type": "Feature", "properties": { "value": 1.2103 }, "geometry": { "type": "Point", "coordinates": [ 129.332077, 35.485092, 60.0 ] } },
{ "type": "Feature", "properties": { "value": 9.0405 }, "geometry": { "type": "Point", "coordinates": [ 129.333176, 35.485092, 60.0 ] } },
{ "type": "Feature", "properties": { "value": 26.208 }, "geometry": { "type": "Point", "coordinates": [ 129.334274, 35.485088, 60.0 ] } },
{ "type": "Feature", "properties": { "value": 34.335 }, "geometry": { "type": "Point", "coordinates": [ 129.335388, 35.485085, 60.0 ] } },
{ "type": "Feature", "properties": { "value": 23.284 }, "geometry": { "type": "Point", "coordinates": [ 129.336487, 35.485081, 60.0 ] } },
{ "type": "Feature", "properties": { "value": 9.3213 }, "geometry": { "type": "Point", "coordinates": [ 129.337585, 35.485077, 60.0 ] } },
{ "type": "Feature", "properties": { "value": 2.4801 }, "geometry": { "type": "Point", "coordinates": [ 129.338684, 35.485077, 60.0 ] } },
{ "type": "Feature", "properties": { "value": 0.3981 }, "geometry": { "type": "Point", "coordinates": [ 129.339798, 35.485073, 60.0 ] } },
{ "type": "Feature", "properties": { "value": 0.3488 }, "geometry": { "type": "Point", "coordinates": [ 129.332077, 35.485996, 60.0 ] } },
{ "type": "Feature", "properties": { "value": 4.2876 }, "geometry": { "type": "Point", "coordinates": [ 129.333176, 35.485992, 60.0 ] } },
{ "type": "Feature", "properties": { "value": 16.187 }, "geometry": { "type": "Point", "coordinates": [ 129.33429, 35.485989, 60.0 ] } },
{ "type": "Feature", "properties": { "value": 29.137 }, "geometry": { "type": "Point", "coordinates": [ 129.335388, 35.485985, 60.0 ] } },
{ "type": "Feature", "properties": { "value": 28.18 }, "geometry": { "type": "Point", "coordinates": [ 129.336487, 35.485981, 60.0 ] } },
{ "type": "Feature", "properties": { "value": 16.372 }, "geometry": { "type": "Point", "coordinates": [ 129.337585, 35.485981, 60.0 ] } },
{ "type": "Feature", "properties": { "value": 6.3452 }, "geometry": { "type": "Point", "coordinates": [ 129.338699, 35.485977, 60.0 ] } },
{ "type": "Feature", "properties": { "value": 1.7815 }, "geometry": { "type": "Point", "coordinates": [ 129.339798, 35.485973, 60.0 ] } },
{ "type": "Feature", "properties": { "value": 0.3056 }, "geometry": { "type": "Point", "coordinates": [ 129.340897, 35.48597, 60.0 ] } },
{ "type": "Feature", "properties": { "value": 1.938 }, "geometry": { "type": "Point", "coordinates": [ 129.333191, 35.486893, 60.0 ] } },
{ "type": "Feature", "properties": { "value": 9.0796 }, "geometry": { "type": "Point", "coordinates": [ 129.33429, 35.486889, 60.0 ] } },
{ "type": "Feature", "properties": { "value": 21.237 }, "geometry": { "type": "Point", "coordinates": [ 129.335388, 35.486889, 60.0 ] } },
{ "type": "Feature", "properties": { "value": 27.709 }, "geometry": { "type": "Point", "coordinates": [ 129.336487, 35.486885, 60.0 ] } },
{ "type": "Feature", "properties": { "value": 22.186 }, "geometry": { "type": "Point", "coordinates": [ 129.337601, 35.486881, 60.0 ] } },
{ "type": "Feature", "properties": { "value": 11.877 }, "geometry": { "type": "Point", "coordinates": [ 129.338699, 35.486877, 60.0 ] } },
{ "type": "Feature", "properties": { "value": 4.6332 }, "geometry": { "type": "Point", "coordinates": [ 129.339798, 35.486874, 60.0 ] } },
{ "type": "Feature", "properties": { "value": 1.3833 }, "geometry": { "type": "Point", "coordinates": [ 129.340897, 35.486874, 60.0 ] } },
{ "type": "Feature", "properties": { "value": 0.2757 }, "geometry": { "type": "Point", "coordinates": [ 129.341995, 35.48687, 60.0 ] } },
{ "type": "Feature", "properties": { "value": 0.8175 }, "geometry": { "type": "Point", "coordinates": [ 129.333191, 35.487793, 60.0 ] } },
{ "type": "Feature", "properties": { "value": 4.7482 }, "geometry": { "type": "Point", "coordinates": [ 129.33429, 35.487793, 60.0 ] } },
{ "type": "Feature", "properties": { "value": 13.804 }, "geometry": { "type": "Point", "coordinates": [ 129.335388, 35.487789, 60.0 ] } },
{ "type": "Feature", "properties": { "value": 23.195 }, "geometry": { "type": "Point", "coordinates": [ 129.336502, 35.487785, 60.0 ] } },
{ "type": "Feature", "properties": { "value": 24.407 }, "geometry": { "type": "Point", "coordinates": [ 129.337601, 35.487782, 60.0 ] } },
{ "type": "Feature", "properties": { "value": 17.308 }, "geometry": { "type": "Point", "coordinates": [ 129.338699, 35.487778, 60.0 ] } },
{ "type": "Feature", "properties": { "value": 8.9377 }, "geometry": { "type": "Point", "coordinates": [ 129.339798, 35.487778, 60.0 ] } },
{ "type": "Feature", "properties": { "value": 3.6032 }, "geometry": { "type": "Point", "coordinates": [ 129.340912, 35.487774, 60.0 ] } },
{ "type": "Feature", "properties": { "value": 1.1684 }, "geometry": { "type": "Point", "coordinates": [ 129.34201, 35.48777, 60.0 ] } },
{ "type": "Feature", "properties": { "value": 0.2569 }, "geometry": { "type": "Point", "coordinates": [ 129.343109, 35.487766, 60.0 ] } },
{ "type": "Feature", "properties": { "value": 0.2664 }, "geometry": { "type": "Point", "coordinates": [ 129.333191, 35.488697, 60.0 ] } },
{ "type": "Feature", "properties": { "value": 2.3292 }, "geometry": { "type": "Point", "coordinates": [ 129.33429, 35.488693, 60.0 ] } },
{ "type": "Feature", "properties": { "value": 8.1752 }, "geometry": { "type": "Point", "coordinates": [ 129.335403, 35.488689, 60.0 ] } },
{ "type": "Feature", "properties": { "value": 17.039 }, "geometry": { "type": "Point", "coordinates": [ 129.336502, 35.488686, 60.0 ] } },
{ "type": "Feature", "properties": { "value": 22.739 }, "geometry": { "type": "Point", "coordinates": [ 129.337601, 35.488682, 60.0 ] } },
{ "type": "Feature", "properties": { "value": 20.664 }, "geometry": { "type": "Point", "coordinates": [ 129.338699, 35.488682, 60.0 ] } },
{ "type": "Feature", "properties": { "value": 13.727 }, "geometry": { "type": "Point", "coordinates": [ 129.339813, 35.488678, 60.0 ] } },
{ "type": "Feature", "properties": { "value": 7.1089 }, "geometry": { "type": "Point", "coordinates": [ 129.340912, 35.488674, 60.0 ] } },
{ "type": "Feature", "properties": { "value": 2.9855 }, "geometry": { "type": "Point", "coordinates": [ 129.34201, 35.48867, 60.0 ] } },
{ "type": "Feature", "properties": { "value": 1.034 }, "geometry": { "type": "Point", "coordinates": [ 129.343109, 35.488667, 60.0 ] } },
{ "type": "Feature", "properties": { "value": 0.2612 }, "geometry": { "type": "Point", "coordinates": [ 129.344208, 35.488667, 60.0 ] } },
{ "type": "Feature", "properties": { "value": 1.0605 }, "geometry": { "type": "Point", "coordinates": [ 129.334305, 35.489594, 60.0 ] } },
{ "type": "Feature", "properties": { "value": 4.4636 }, "geometry": { "type": "Point", "coordinates": [ 129.335403, 35.48959, 60.0 ] } },
{ "type": "Feature", "properties": { "value": 11.223 }, "geometry": { "type": "Point", "coordinates": [ 129.336502, 35.48959, 60.0 ] } },
{ "type": "Feature", "properties": { "value": 18.484 }, "geometry": { "type": "Point", "coordinates": [ 129.337601, 35.489586, 60.0 ] } },
{ "type": "Feature", "properties": { "value": 21.03 }, "geometry": { "type": "Point", "coordinates": [ 129.338715, 35.489582, 60.0 ] } },
{ "type": "Feature", "properties": { "value": 17.542 }, "geometry": { "type": "Point", "coordinates": [ 129.339813, 35.489578, 60.0 ] } },
{ "type": "Feature", "properties": { "value": 11.392 }, "geometry": { "type": "Point", "coordinates": [ 129.340912, 35.489574, 60.0 ] } },
{ "type": "Feature", "properties": { "value": 5.9982 }, "geometry": { "type": "Point", "coordinates": [ 129.34201, 35.489571, 60.0 ] } },
{ "type": "Feature", "properties": { "value": 2.6047 }, "geometry": { "type": "Point", "coordinates": [ 129.343109, 35.489571, 60.0 ] } },
{ "type": "Feature", "properties": { "value": 0.9452 }, "geometry": { "type": "Point", "coordinates": [ 129.344223, 35.489567, 60.0 ] } },
{ "type": "Feature", "properties": { "value": 0.243 }, "geometry": { "type": "Point", "coordinates": [ 129.345322, 35.489563, 60.0 ] } },
{ "type": "Feature", "properties": { "value": 0.4159 }, "geometry": { "type": "Point", "coordinates": [ 129.334305, 35.490494, 60.0 ] } },
{ "type": "Feature", "properties": { "value": 2.2502 }, "geometry": { "type": "Point", "coordinates": [ 129.335403, 35.490494, 60.0 ] } },
{ "type": "Feature", "properties": { "value": 6.7289 }, "geometry": { "type": "Point", "coordinates": [ 129.336502, 35.49049, 60.0 ] } },
{ "type": "Feature", "properties": { "value": 13.349 }, "geometry": { "type": "Point", "coordinates": [ 129.337616, 35.490486, 60.0 ] } },
{ "type": "Feature", "properties": { "value": 18.527 }, "geometry": { "type": "Point", "coordinates": [ 129.338715, 35.490482, 60.0 ] } },
{ "type": "Feature", "properties": { "value": 19.049 }, "geometry": { "type": "Point", "coordinates": [ 129.339813, 35.490479, 60.0 ] } },
{ "type": "Feature", "properties": { "value": 15.313 }, "geometry": { "type": "Point", "coordinates": [ 129.340912, 35.490479, 60.0 ] } },
{ "type": "Feature", "properties": { "value": 9.9171 }, "geometry": { "type": "Point", "coordinates": [ 129.34201, 35.490475, 60.0 ] } },
{ "type": "Feature", "properties": { "value": 5.2651 }, "geometry": { "type": "Point", "coordinates": [ 129.343124, 35.490471, 60.0 ] } },
{ "type": "Feature", "properties": { "value": 2.3593 }, "geometry": { "type": "Point", "coordinates": [ 129.344223, 35.490467, 60.0 ] } },
{ "type": "Feature", "properties": { "value": 0.8902 }, "geometry": { "type": "Point", "coordinates": [ 129.345322, 35.490463, 60.0 ] } },
{ "type": "Feature", "properties": { "value": 0.2465 }, "geometry": { "type": "Point", "coordinates": [ 129.34642, 35.490459, 60.0 ] } },
{ "type": "Feature", "properties": { "value": 1.0439 }, "geometry": { "type": "Point", "coordinates": [ 129.335403, 35.491394, 60.0 ] } },
{ "type": "Feature", "properties": { "value": 3.6881 }, "geometry": { "type": "Point", "coordinates": [ 129.336517, 35.49139, 60.0 ] } },
{ "type": "Feature", "properties": { "value": 8.665 }, "geometry": { "type": "Point", "coordinates": [ 129.337616, 35.491386, 60.0 ] } },
{ "type": "Feature", "properties": { "value": 14.376 }, "geometry": { "type": "Point", "coordinates": [ 129.338715, 35.491383, 60.0 ] } },
{ "type": "Feature", "properties": { "value": 17.91 }, "geometry": { "type": "Point", "coordinates": [ 129.339813, 35.491383, 60.0 ] } },
{ "type": "Feature", "properties": { "value": 17.498 }, "geometry": { "type": "Point", "coordinates": [ 129.340927, 35.491379, 60.0 ] } },
{ "type": "Feature", "properties": { "value": 13.684 }, "geometry": { "type": "Point", "coordinates": [ 129.342026, 35.491375, 60.0 ] } },
{ "type": "Feature", "properties": { "value": 8.7885 }, "geometry": { "type": "Point", "coordinates": [ 129.343124, 35.491371, 60.0 ] } },
{ "type": "Feature", "properties": { "value": 4.7455 }, "geometry": { "type": "Point", "coordinates": [ 129.344223, 35.491367, 60.0 ] } },
{ "type": "Feature", "properties": { "value": 2.1917 }, "geometry": { "type": "Point", "coordinates": [ 129.345322, 35.491367, 60.0 ] } },
{ "type": "Feature", "properties": { "value": 0.8624 }, "geometry": { "type": "Point", "coordinates": [ 129.346436, 35.491364, 60.0 ] } },
{ "type": "Feature", "properties": { "value": 0.2539 }, "geometry": { "type": "Point", "coordinates": [ 129.347534, 35.49136, 60.0 ] } },
{ "type": "Feature", "properties": { "value": 0.4222 }, "geometry": { "type": "Point", "coordinates": [ 129.335419, 35.492294, 60.0 ] } },
{ "type": "Feature", "properties": { "value": 1.8471 }, "geometry": { "type": "Point", "coordinates": [ 129.336517, 35.49229, 60.0 ] } },
{ "type": "Feature", "properties": { "value": 5.0718 }, "geometry": { "type": "Point", "coordinates": [ 129.337616, 35.49229, 60.0 ] } },
{ "type": "Feature", "properties": { "value": 9.9853 }, "geometry": { "type": "Point", "coordinates": [ 129.338715, 35.492287, 60.0 ] } },
{ "type": "Feature", "properties": { "value": 14.793 }, "geometry": { "type": "Point", "coordinates": [ 129.339828, 35.492283, 60.0 ] } },
{ "type": "Feature", "properties": { "value": 17.201 }, "geometry": { "type": "Point", "coordinates": [ 129.340927, 35.492279, 60.0 ] } },
{ "type": "Feature", "properties": { "value": 16.062 }, "geometry": { "type": "Point", "coordinates": [ 129.342026, 35.492275, 60.0 ] } },
{ "type": "Feature", "properties": { "value": 12.311 }, "geometry": { "type": "Point", "coordinates": [ 129.343124, 35.492271, 60.0 ] } },
{ "type": "Feature", "properties": { "value": 7.9175 }, "geometry": { "type": "Point", "coordinates": [ 129.344223, 35.492271, 60.0 ] } },
{ "type": "Feature", "properties": { "value": 4.3631 }, "geometry": { "type": "Point", "coordinates": [ 129.345337, 35.492268, 60.0 ] } },
{ "type": "Feature", "properties": { "value": 2.0827 }, "geometry": { "type": "Point", "coordinates": [ 129.346436, 35.492264, 60.0 ] } },
{ "type": "Feature", "properties": { "value": 0.8599 }, "geometry": { "type": "Point", "coordinates": [ 129.347534, 35.49226, 60.0 ] } },
{ "type": "Feature", "properties": { "value": 0.2867 }, "geometry": { "type": "Point", "coordinates": [ 129.348633, 35.492256, 60.0 ] } },
{ "type": "Feature", "properties": { "value": 0.0327 }, "geometry": { "type": "Point", "coordinates": [ 129.335419, 35.493195, 60.0 ] } },
{ "type": "Feature", "properties": { "value": 0.8223 }, "geometry": { "type": "Point", "coordinates": [ 129.336517, 35.493195, 60.0 ] } },
{ "type": "Feature", "properties": { "value": 2.6664 }, "geometry": { "type": "Point", "coordinates": [ 129.337616, 35.493191, 60.0 ] } },
{ "type": "Feature", "properties": { "value": 6.1888 }, "geometry": { "type": "Point", "coordinates": [ 129.33873, 35.493187, 60.0 ] } },
{ "type": "Feature", "properties": { "value": 10.82 }, "geometry": { "type": "Point", "coordinates": [ 129.339828, 35.493183, 60.0 ] } },
{ "type": "Feature", "properties": { "value": 14.779 }, "geometry": { "type": "Point", "coordinates": [ 129.340927, 35.493179, 60.0 ] } },
{ "type": "Feature", "properties": { "value": 16.268 }, "geometry": { "type": "Point", "coordinates": [ 129.342026, 35.493179, 60.0 ] } },
{ "type": "Feature", "properties": { "value": 14.756 }, "geometry": { "type": "Point", "coordinates": [ 129.343124, 35.493176, 60.0 ] } },
{ "type": "Feature", "properties": { "value": 11.209 }, "geometry": { "type": "Point", "coordinates": [ 129.344238, 35.493172, 60.0 ] } },
{ "type": "Feature", "properties": { "value": 7.2736 }, "geometry": { "type": "Point", "coordinates": [ 129.345337, 35.493168, 60.0 ] } },
{ "type": "Feature", "properties": { "value": 4.108 }, "geometry": { "type": "Point", "coordinates": [ 129.346436, 35.493164, 60.0 ] } },
{ "type": "Feature", "properties": { "value": 2.0461 }, "geometry": { "type": "Point", "coordinates": [ 129.347534, 35.49316, 60.0 ] } },
{ "type": "Feature", "properties": { "value": 0.8972 }, "geometry": { "type": "Point", "coordinates": [ 129.348648, 35.49316, 60.0 ] } },
{ "type": "Feature", "properties": { "value": 0.3393 }, "geometry": { "type": "Point", "coordinates": [ 129.349747, 35.493156, 60.0 ] } },
{ "type": "Feature", "properties": { "value": 0.0409 }, "geometry": { "type": "Point", "coordinates": [ 129.350845, 35.493153, 60.0 ] } },
{ "type": "Feature", "properties": { "value": 0.3031 }, "geometry": { "type": "Point", "coordinates": [ 129.336517, 35.494095, 60.0 ] } },
{ "type": "Feature", "properties": { "value": 1.2553 }, "geometry": { "type": "Point", "coordinates": [ 129.337631, 35.494091, 60.0 ] } },
{ "type": "Feature", "properties": { "value": 3.4158 }, "geometry": { "type": "Point", "coordinates": [ 129.33873, 35.494087, 60.0 ] } },
{ "type": "Feature", "properties": { "value": 6.9753 }, "geometry": { "type": "Point", "coordinates": [ 129.339828, 35.494083, 60.0 ] } },
{ "type": "Feature", "properties": { "value": 11.16 }, "geometry": { "type": "Point", "coordinates": [ 129.340927, 35.494083, 60.0 ] } },
{ "type": "Feature", "properties": { "value": 14.4 }, "geometry": { "type": "Point", "coordinates": [ 129.342026, 35.49408, 60.0 ] } },
{ "type": "Feature", "properties": { "value": 15.305 }, "geometry": { "type": "Point", "coordinates": [ 129.34314, 35.494076, 60.0 ] } },
{ "type": "Feature", "properties": { "value": 13.649 }, "geometry": { "type": "Point", "coordinates": [ 129.344238, 35.494072, 60.0 ] } },
{ "type": "Feature", "properties": { "value": 10.394 }, "geometry": { "type": "Point", "coordinates": [ 129.345337, 35.494068, 60.0 ] } },
{ "type": "Feature", "properties": { "value": 6.8784 }, "geometry": { "type": "Point", "coordinates": [ 129.346436, 35.494068, 60.0 ] } },
{ "type": "Feature", "properties": { "value": 4.0222 }, "geometry": { "type": "Point", "coordinates": [ 129.347549, 35.494064, 60.0 ] } },
{ "type": "Feature", "properties": { "value": 2.1168 }, "geometry": { "type": "Point", "coordinates": [ 129.348648, 35.494061, 60.0 ] } },
{ "type": "Feature", "properties": { "value": 1.0064 }, "geometry": { "type": "Point", "coordinates": [ 129.349747, 35.494057, 60.0 ] } },
{ "type": "Feature", "properties": { "value": 0.4302 }, "geometry": { "type": "Point", "coordinates": [ 129.350845, 35.494053, 60.0 ] } },
{ "type": "Feature", "properties": { "value": 0.1477 }, "geometry": { "type": "Point", "coordinates": [ 129.351959, 35.494049, 60.0 ] } },
{ "type": "Feature", "properties": { "value": 0.5028 }, "geometry": { "type": "Point", "coordinates": [ 129.337631, 35.494991, 60.0 ] } },
{ "type": "Feature", "properties": { "value": 1.6675 }, "geometry": { "type": "Point", "coordinates": [ 129.33873, 35.494991, 60.0 ] } },
{ "type": "Feature", "properties": { "value": 3.9718 }, "geometry": { "type": "Point", "coordinates": [ 129.339828, 35.494987, 60.0 ] } },
{ "type": "Feature", "properties": { "value": 7.4322 }, "geometry": { "type": "Point", "coordinates": [ 129.340942, 35.494984, 60.0 ] } },
{ "type": "Feature", "properties": { "value": 11.161 }, "geometry": { "type": "Point", "coordinates": [ 129.342041, 35.49498, 60.0 ] } },
{ "type": "Feature", "properties": { "value": 13.793 }, "geometry": { "type": "Point", "coordinates": [ 129.34314, 35.494976, 60.0 ] } },
{ "type": "Feature", "properties": { "value": 14.372 }, "geometry": { "type": "Point", "coordinates": [ 129.344238, 35.494972, 60.0 ] } },
{ "type": "Feature", "properties": { "value": 12.808 }, "geometry": { "type": "Point", "coordinates": [ 129.345337, 35.494972, 60.0 ] } },
{ "type": "Feature", "properties": { "value": 9.8891 }, "geometry": { "type": "Point", "coordinates": [ 129.346451, 35.494968, 60.0 ] } },
{ "type": "Feature", "properties": { "value": 6.7524 }, "geometry": { "type": "Point", "coordinates": [ 129.347549, 35.494965, 60.0 ] } },
{ "type": "Feature", "properties": { "value": 4.1536 }, "geometry": { "type": "Point", "coordinates": [ 129.348648, 35.494961, 60.0 ] } },
{ "type": "Feature", "properties": { "value": 2.3314 }, "geometry": { "type": "Point", "coordinates": [ 129.349747, 35.494957, 60.0 ] } },
{ "type": "Feature", "properties": { "value": 1.2092 }, "geometry": { "type": "Point", "coordinates": [ 129.350861, 35.494953, 60.0 ] } },
{ "type": "Feature", "properties": { "value": 0.5913 }, "geometry": { "type": "Point", "coordinates": [ 129.351959, 35.494953, 60.0 ] } },
{ "type": "Feature", "properties": { "value": 0.2607 }, "geometry": { "type": "Point", "coordinates": [ 129.353058, 35.494949, 60.0 ] } },
{ "type": "Feature", "properties": { "value": 0.0717 }, "geometry": { "type": "Point", "coordinates": [ 129.354156, 35.494946, 60.0 ] } },
{ "type": "Feature", "properties": { "value": 0.125 }, "geometry": { "type": "Point", "coordinates": [ 129.337631, 35.495895, 60.0 ] } },
{ "type": "Feature", "properties": { "value": 0.7065 }, "geometry": { "type": "Point", "coordinates": [ 129.33873, 35.495892, 60.0 ] } },
{ "type": "Feature", "properties": { "value": 1.9973 }, "geometry": { "type": "Point", "coordinates": [ 129.339844, 35.495888, 60.0 ] } },
{ "type": "Feature", "properties": { "value": 4.3571 }, "geometry": { "type": "Point", "coordinates": [ 129.340942, 35.495884, 60.0 ] } },
{ "type": "Feature", "properties": { "value": 7.5996 }, "geometry": { "type": "Point", "coordinates": [ 129.342041, 35.49588, 60.0 ] } },
{ "type": "Feature", "properties": { "value": 10.88 }, "geometry": { "type": "Point", "coordinates": [ 129.34314, 35.49588, 60.0 ] } },
{ "type": "Feature", "properties": { "value": 13.171 }, "geometry": { "type": "Point", "coordinates": [ 129.344238, 35.495876, 60.0 ] } },
{ "type": "Feature", "properties": { "value": 13.666 }, "geometry": { "type": "Point", "coordinates": [ 129.345352, 35.495872, 60.0 ] } },
{ "type": "Feature", "properties": { "value": 12.251 }, "geometry": { "type": "Point", "coordinates": [ 129.346451, 35.495869, 60.0 ] } },
{ "type": "Feature", "properties": { "value": 9.6762 }, "geometry": { "type": "Point", "coordinates": [ 129.347549, 35.495865, 60.0 ] } },
{ "type": "Feature", "properties": { "value": 6.8872 }, "geometry": { "type": "Point", "coordinates": [ 129.348648, 35.495861, 60.0 ] } },
{ "type": "Feature", "properties": { "value": 4.469 }, "geometry": { "type": "Point", "coordinates": [ 129.349762, 35.495861, 60.0 ] } },
{ "type": "Feature", "properties": { "value": 2.6845 }, "geometry": { "type": "Point", "coordinates": [ 129.350861, 35.495857, 60.0 ] } },
{ "type": "Feature", "properties": { "value": 1.5272 }, "geometry": { "type": "Point", "coordinates": [ 129.351959, 35.495853, 60.0 ] } },
{ "type": "Feature", "properties": { "value": 0.8255 }, "geometry": { "type": "Point", "coordinates": [ 129.353058, 35.49585, 60.0 ] } },
{ "type": "Feature", "properties": { "value": 0.4206 }, "geometry": { "type": "Point", "coordinates": [ 129.354156, 35.495846, 60.0 ] } },
{ "type": "Feature", "properties": { "value": 0.1946 }, "geometry": { "type": "Point", "coordinates": [ 129.35527, 35.495842, 60.0 ] } },
{ "type": "Feature", "properties": { "value": 0.0385 }, "geometry": { "type": "Point", "coordinates": [ 129.356369, 35.495838, 60.0 ] } },
{ "type": "Feature", "properties": { "value": 0.234 }, "geometry": { "type": "Point", "coordinates": [ 129.338745, 35.496792, 60.0 ] } },
{ "type": "Feature", "properties": { "value": 0.886 }, "geometry": { "type": "Point", "coordinates": [ 129.339844, 35.496788, 60.0 ] } },
{ "type": "Feature", "properties": { "value": 2.2642 }, "geometry": { "type": "Point", "coordinates": [ 129.340942, 35.496784, 60.0 ] } },
{ "type": "Feature", "properties": { "value": 4.5763 }, "geometry": { "type": "Point", "coordinates": [ 129.342041, 35.496784, 60.0 ] } },
{ "type": "Feature", "properties": { "value": 7.5723 }, "geometry": { "type": "Point", "coordinates": [ 129.34314, 35.49678, 60.0 ] } },
{ "type": "Feature", "properties": { "value": 10.587 }, "geometry": { "type": "Point", "coordinates": [ 129.344254, 35.496777, 60.0 ] } },
{ "type": "Feature", "properties": { "value": 12.665 }, "geometry": { "type": "Point", "coordinates": [ 129.345352, 35.496773, 60.0 ] } },
{ "type": "Feature", "properties": { "value": 13.081 }, "geometry": { "type": "Point", "coordinates": [ 129.346451, 35.496769, 60.0 ] } },
{ "type": "Feature", "properties": { "value": 11.894 }, "geometry": { "type": "Point", "coordinates": [ 129.347549, 35.496765, 60.0 ] } },
{ "type": "Feature", "properties": { "value": 9.7057 }, "geometry": { "type": "Point", "coordinates": [ 129.348663, 35.496765, 60.0 ] } },
{ "type": "Feature", "properties": { "value": 7.2287 }, "geometry": { "type": "Point", "coordinates": [ 129.349762, 35.496761, 60.0 ] } },
{ "type": "Feature", "properties": { "value": 4.9582 }, "geometry": { "type": "Point", "coordinates": [ 129.350861, 35.496758, 60.0 ] } },
{ "type": "Feature", "properties": { "value": 3.1694 }, "geometry": { "type": "Point", "coordinates": [ 129.351959, 35.496754, 60.0 ] } },
{ "type": "Feature", "properties": { "value": 1.9182 }, "geometry": { "type": "Point", "coordinates": [ 129.353073, 35.49675, 60.0 ] } },
{ "type": "Feature", "properties": { "value": 1.0914 }, "geometry": { "type": "Point", "coordinates": [ 129.354172, 35.496746, 60.0 ] } },
{ "type": "Feature", "properties": { "value": 0.5776 }, "geometry": { "type": "Point", "coordinates": [ 129.35527, 35.496746, 60.0 ] } },
{ "type": "Feature", "properties": { "value": 0.2711 }, "geometry": { "type": "Point", "coordinates": [ 129.356369, 35.496742, 60.0 ] } },
{ "type": "Feature", "properties": { "value": 0.1036 }, "geometry": { "type": "Point", "coordinates": [ 129.357468, 35.496738, 60.0 ] } },
{ "type": "Feature", "properties": { "value": 0.0172 }, "geometry": { "type": "Point", "coordinates": [ 129.358582, 35.496735, 60.0 ] } },
{ "type": "Feature", "properties": { "value": 0.3229 }, "geometry": { "type": "Point", "coordinates": [ 129.339844, 35.497692, 60.0 ] } },
{ "type": "Feature", "properties": { "value": 1.0278 }, "geometry": { "type": "Point", "coordinates": [ 129.340942, 35.497688, 60.0 ] } },
{ "type": "Feature", "properties": { "value": 2.4233 }, "geometry": { "type": "Point", "coordinates": [ 129.342041, 35.497684, 60.0 ] } },
{ "type": "Feature", "properties": { "value": 4.63 }, "geometry": { "type": "Point", "coordinates": [ 129.343155, 35.497681, 60.0 ] } },
{ "type": "Feature", "properties": { "value": 7.4396 }, "geometry": { "type": "Point", "coordinates": [ 129.344254, 35.497677, 60.0 ] } },
{ "type": "Feature", "properties": { "value": 10.2 }, "geometry": { "type": "Point", "coordinates": [ 129.345352, 35.497673, 60.0 ] } },
{ "type": "Feature", "properties": { "value": 12.071 }, "geometry": { "type": "Point", "coordinates": [ 129.346451, 35.497673, 60.0 ] } },
{ "type": "Feature", "properties": { "value": 12.557 }, "geometry": { "type": "Point", "coordinates": [ 129.347565, 35.497669, 60.0 ] } },
{ "type": "Feature", "properties": { "value": 11.663 }, "geometry": { "type": "Point", "coordinates": [ 129.348663, 35.497665, 60.0 ] } },
{ "type": "Feature", "properties": { "value": 9.8442 }, "geometry": { "type": "Point", "coordinates": [ 129.349762, 35.497662, 60.0 ] } },
{ "type": "Feature", "properties": { "value": 7.6281 }, "geometry": { "type": "Point", "coordinates": [ 129.350861, 35.497658, 60.0 ] } },
{ "type": "Feature", "properties": { "value": 5.4808 }, "geometry": { "type": "Point", "coordinates": [ 129.351974, 35.497654, 60.0 ] } },
{ "type": "Feature", "properties": { "value": 3.6848 }, "geometry": { "type": "Point", "coordinates": [ 129.353073, 35.497654, 60.0 ] } },
{ "type": "Feature", "properties": { "value": 2.3027 }, "geometry": { "type": "Point", "coordinates": [ 129.354172, 35.49765, 60.0 ] } },
{ "type": "Feature", "properties": { "value": 1.3133 }, "geometry": { "type": "Point", "coordinates": [ 129.35527, 35.497646, 60.0 ] } },
{ "type": "Feature", "properties": { "value": 0.6697 }, "geometry": { "type": "Point", "coordinates": [ 129.356369, 35.497643, 60.0 ] } },
{ "type": "Feature", "properties": { "value": 0.2978 }, "geometry": { "type": "Point", "coordinates": [ 129.357483, 35.497639, 60.0 ] } },
{ "type": "Feature", "properties": { "value": 0.1076 }, "geometry": { "type": "Point", "coordinates": [ 129.358582, 35.497635, 60.0 ] } },
{ "type": "Feature", "properties": { "value": 0.0194 }, "geometry": { "type": "Point", "coordinates": [ 129.35968, 35.497631, 60.0 ] } },
{ "type": "Feature", "properties": { "value": 0.3941 }, "geometry": { "type": "Point", "coordinates": [ 129.340958, 35.498589, 60.0 ] } },
{ "type": "Feature", "properties": { "value": 1.1193 }, "geometry": { "type": "Point", "coordinates": [ 129.342056, 35.498585, 60.0 ] } },
{ "type": "Feature", "properties": { "value": 2.48 }, "geometry": { "type": "Point", "coordinates": [ 129.343155, 35.498581, 60.0 ] } },
{ "type": "Feature", "properties": { "value": 4.5616 }, "geometry": { "type": "Point", "coordinates": [ 129.344254, 35.498581, 60.0 ] } },
{ "type": "Feature", "properties": { "value": 7.1361 }, "geometry": { "type": "Point", "coordinates": [ 129.345352, 35.498577, 60.0 ] } },
{ "type": "Feature", "properties": { "value": 9.6205 }, "geometry": { "type": "Point", "coordinates": [ 129.346466, 35.498573, 60.0 ] } },
{ "type": "Feature", "properties": { "value": 11.368 }, "geometry": { "type": "Point", "coordinates": [ 129.347565, 35.498569, 60.0 ] } },
{ "type": "Feature", "properties": { "value": 11.954 }, "geometry": { "type": "Point", "coordinates": [ 129.348663, 35.498566, 60.0 ] } },
{ "type": "Feature", "properties": { "value": 11.367 }, "geometry": { "type": "Point", "coordinates": [ 129.349762, 35.498562, 60.0 ] } },
{ "type": "Feature", "properties": { "value": 9.9001 }, "geometry": { "type": "Point", "coordinates": [ 129.350876, 35.498562, 60.0 ] } },
{ "type": "Feature", "properties": { "value": 7.9553 }, "geometry": { "type": "Point", "coordinates": [ 129.351974, 35.498558, 60.0 ] } },
{ "type": "Feature", "properties": { "value": 5.902 }, "geometry": { "type": "Point", "coordinates": [ 129.353073, 35.498554, 60.0 ] } },
{ "type": "Feature", "properties": { "value": 3.9922 }, "geometry": { "type": "Point", "coordinates": [ 129.354172, 35.49855, 60.0 ] } },
{ "type": "Feature", "properties": { "value": 2.4258 }, "geometry": { "type": "Point", "coordinates": [ 129.35527, 35.498547, 60.0 ] } },
{ "type": "Feature", "properties": { "value": 1.3077 }, "geometry": { "type": "Point", "coordinates": [ 129.356384, 35.498543, 60.0 ] } },
{ "type": "Feature", "properties": { "value": 0.6126 }, "geometry": { "type": "Point", "coordinates": [ 129.357483, 35.498539, 60.0 ] } },
{ "type": "Feature", "properties": { "value": 0.2414 }, "geometry": { "type": "Point", "coordinates": [ 129.358582, 35.498539, 60.0 ] } },
{ "type": "Feature", "properties": { "value": 0.0706 }, "geometry": { "type": "Point", "coordinates": [ 129.35968, 35.498535, 60.0 ] } },
{ "type": "Feature", "properties": { "value": 0.0072 }, "geometry": { "type": "Point", "coordinates": [ 129.360794, 35.498531, 60.0 ] } },
{ "type": "Feature", "properties": { "value": 0.0853 }, "geometry": { "type": "Point", "coordinates": [ 129.340958, 35.499489, 60.0 ] } },
{ "type": "Feature", "properties": { "value": 0.4379 }, "geometry": { "type": "Point", "coordinates": [ 129.342056, 35.499485, 60.0 ] } },
{ "type": "Feature", "properties": { "value": 1.1567 }, "geometry": { "type": "Point", "coordinates": [ 129.343155, 35.499485, 60.0 ] } },
{ "type": "Feature", "properties": { "value": 2.443 }, "geometry": { "type": "Point", "coordinates": [ 129.344254, 35.499481, 60.0 ] } },
{ "type": "Feature", "properties": { "value": 4.3352 }, "geometry": { "type": "Point", "coordinates": [ 129.345367, 35.499477, 60.0 ] } },
{ "type": "Feature", "properties": { "value": 6.624 }, "geometry": { "type": "Point", "coordinates": [ 129.346466, 35.499474, 60.0 ] } },
{ "type": "Feature", "properties": { "value": 8.8696 }, "geometry": { "type": "Point", "coordinates": [ 129.347565, 35.49947, 60.0 ] } },
{ "type": "Feature", "properties": { "value": 10.528 }, "geometry": { "type": "Point", "coordinates": [ 129.348663, 35.499466, 60.0 ] } },
{ "type": "Feature", "properties": { "value": 11.249 }, "geometry": { "type": "Point", "coordinates": [ 129.349777, 35.499466, 60.0 ] } },
{ "type": "Feature", "properties": { "value": 10.942 }, "geometry": { "type": "Point", "coordinates": [ 129.350876, 35.499462, 60.0 ] } },
{ "type": "Feature", "properties": { "value": 9.7416 }, "geometry": { "type": "Point", "coordinates": [ 129.351974, 35.499458, 60.0 ] } },
{ "type": "Feature", "properties": { "value": 7.8763 }, "geometry": { "type": "Point", "coordinates": [ 129.353073, 35.499454, 60.0 ] } },
{ "type": "Feature", "properties": { "value": 5.7125 }, "geometry": { "type": "Point", "coordinates": [ 129.354187, 35.499451, 60.0 ] } },
{ "type": "Feature", "properties": { "value": 3.6727 }, "geometry": { "type": "Point", "coordinates": [ 129.355286, 35.499447, 60.0 ] } },
{ "type": "Feature", "properties": { "value": 2.0641 }, "geometry": { "type": "Point", "coordinates": [ 129.356384, 35.499447, 60.0 ] } },
{ "type": "Feature", "properties": { "value": 1.0016 }, "geometry": { "type": "Point", "coordinates": [ 129.357483, 35.499443, 60.0 ] } },
{ "type": "Feature", "properties": { "value": 0.4148 }, "geometry": { "type": "Point", "coordinates": [ 129.358582, 35.499439, 60.0 ] } },
{ "type": "Feature", "properties": { "value": 0.1394 }, "geometry": { "type": "Point", "coordinates": [ 129.359695, 35.499435, 60.0 ] } },
{ "type": "Feature", "properties": { "value": 0.0351 }, "geometry": { "type": "Point", "coordinates": [ 129.360794, 35.499432, 60.0 ] } },
{ "type": "Feature", "properties": { "value": 0.1113 }, "geometry": { "type": "Point", "coordinates": [ 129.342056, 35.500389, 60.0 ] } },
{ "type": "Feature", "properties": { "value": 0.4582 }, "geometry": { "type": "Point", "coordinates": [ 129.343155, 35.500385, 60.0 ] } },
{ "type": "Feature", "properties": { "value": 1.1379 }, "geometry": { "type": "Point", "coordinates": [ 129.344269, 35.500381, 60.0 ] } },
{ "type": "Feature", "properties": { "value": 2.2976 }, "geometry": { "type": "Point", "coordinates": [ 129.345367, 35.500378, 60.0 ] } },
{ "type": "Feature", "properties": { "value": 3.9678 }, "geometry": { "type": "Point", "coordinates": [ 129.346466, 35.500374, 60.0 ] } },
{ "type": "Feature", "properties": { "value": 6.0071 }, "geometry": { "type": "Point", "coordinates": [ 129.347565, 35.500374, 60.0 ] } },
{ "type": "Feature", "properties": { "value": 8.0278 }, "geometry": { "type": "Point", "coordinates": [ 129.348679, 35.50037, 60.0 ] } },
{ "type": "Feature", "properties": { "value": 9.5858 }, "geometry": { "type": "Point", "coordinates": [ 129.349777, 35.500366, 60.0 ] } },
{ "type": "Feature", "properties": { "value": 10.333 }, "geometry": { "type": "Point", "coordinates": [ 129.350876, 35.500362, 60.0 ] } },
{ "type": "Feature", "properties": { "value": 10.061 }, "geometry": { "type": "Point", "coordinates": [ 129.351974, 35.500359, 60.0 ] } },
{ "type": "Feature", "properties": { "value": 8.7741 }, "geometry": { "type": "Point", "coordinates": [ 129.353088, 35.500355, 60.0 ] } },
{ "type": "Feature", "properties": { "value": 6.7818 }, "geometry": { "type": "Point", "coordinates": [ 129.354187, 35.500355, 60.0 ] } },
{ "type": "Feature", "properties": { "value": 4.5719 }, "geometry": { "type": "Point", "coordinates": [ 129.355286, 35.500351, 60.0 ] } },
{ "type": "Feature", "properties": { "value": 2.6684 }, "geometry": { "type": "Point", "coordinates": [ 129.356384, 35.500347, 60.0 ] } },
{ "type": "Feature", "properties": { "value": 1.3429 }, "geometry": { "type": "Point", "coordinates": [ 129.357483, 35.500343, 60.0 ] } },
{ "type": "Feature", "properties": { "value": 0.5745 }, "geometry": { "type": "Point", "coordinates": [ 129.358597, 35.50034, 60.0 ] } },
{ "type": "Feature", "properties": { "value": 0.2033 }, "geometry": { "type": "Point", "coordinates": [ 129.359695, 35.500336, 60.0 ] } },
{ "type": "Feature", "properties": { "value": 0.051 }, "geometry": { "type": "Point", "coordinates": [ 129.360794, 35.500332, 60.0 ] } },
{ "type": "Feature", "properties": { "value": 0.0057 }, "geometry": { "type": "Point", "coordinates": [ 129.361893, 35.500332, 60.0 ] } },
{ "type": "Feature", "properties": { "value": 0.1249 }, "geometry": { "type": "Point", "coordinates": [ 129.34317, 35.501286, 60.0 ] } },
{ "type": "Feature", "properties": { "value": 0.4392 }, "geometry": { "type": "Point", "coordinates": [ 129.344269, 35.501282, 60.0 ] } },
{ "type": "Feature", "properties": { "value": 1.0518 }, "geometry": { "type": "Point", "coordinates": [ 129.345367, 35.501278, 60.0 ] } },
{ "type": "Feature", "properties": { "value": 2.068 }, "geometry": { "type": "Point", "coordinates": [ 129.346466, 35.501278, 60.0 ] } },
{ "type": "Feature", "properties": { "value": 3.522 }, "geometry": { "type": "Point", "coordinates": [ 129.34758, 35.501274, 60.0 ] } },
{ "type": "Feature", "properties": { "value": 5.2682 }, "geometry": { "type": "Point", "coordinates": [ 129.348679, 35.50127, 60.0 ] } },
{ "type": "Feature", "properties": { "value": 7.0024 }, "geometry": { "type": "Point", "coordinates": [ 129.349777, 35.501266, 60.0 ] } },
{ "type": "Feature", "properties": { "value": 8.3021 }, "geometry": { "type": "Point", "coordinates": [ 129.350876, 35.501263, 60.0 ] } },
{ "type": "Feature", "properties": { "value": 8.7686 }, "geometry": { "type": "Point", "coordinates": [ 129.35199, 35.501259, 60.0 ] } },
{ "type": "Feature", "properties": { "value": 8.1911 }, "geometry": { "type": "Point", "coordinates": [ 129.353088, 35.501259, 60.0 ] } },
{ "type": "Feature", "properties": { "value": 6.6857 }, "geometry": { "type": "Point", "coordinates": [ 129.354187, 35.501255, 60.0 ] } },
{ "type": "Feature", "properties": { "value": 4.7096 }, "geometry": { "type": "Point", "coordinates": [ 129.355286, 35.501251, 60.0 ] } },
{ "type": "Feature", "properties": { "value": 2.8631 }, "geometry": { "type": "Point", "coordinates": [ 129.3564, 35.501247, 60.0 ] } },
{ "type": "Feature", "properties": { "value": 1.4846 }, "geometry": { "type": "Point", "coordinates": [ 129.357498, 35.501244, 60.0 ] } },
{ "type": "Feature", "properties": { "value": 0.6492 }, "geometry": { "type": "Point", "coordinates": [ 129.358597, 35.50124, 60.0 ] } },
{ "type": "Feature", "properties": { "value": 0.2361 }, "geometry": { "type": "Point", "coordinates": [ 129.359695, 35.50124, 60.0 ] } },
{ "type": "Feature", "properties": { "value": 0.064 }, "geometry": { "type": "Point", "coordinates": [ 129.360794, 35.501236, 60.0 ] } },
{ "type": "Feature", "properties": { "value": 0.0069 }, "geometry": { "type": "Point", "coordinates": [ 129.361908, 35.501232, 60.0 ] } }
]
}
