{
"type": "FeatureCollection",
"features": [
{ "type": "Feature", "properties": { "value": 0.0004 }, "geometry": { "type": "Point", "coordinates": [ 129.327576, 35.46077, 115.0 ] } },
{ "type": "Feature", "properties": { "value": 0.0075 }, "geometry": { "type": "Point", "coordinates": [ 129.327576, 35.461674, 115.0 ] } },
{ "type": "Feature", "properties": { "value": 0.0138 }, "geometry": { "type": "Point", "coordinates": [ 129.327576, 35.462574, 115.0 ] } },
{ "type": "Feature", "properties": { "value": 0.0197 }, "geometry": { "type": "Point", "coordinates": [ 129.327576, 35.463474, 115.0 ] } },
{ "type": "Feature", "properties": { "value": 0.0068 }, "geometry": { "type": "Point", "coordinates": [ 129.32869, 35.46347, 115.0 ] } },
{ "type": "Feature", "properties": { "value": 0.0316 }, "geometry": { "type": "Point", "coordinates": [ 129.327591, 35.464375, 115.0 ] } },
{ "type": "Feature", "properties": { "value": 0.0245 }, "geometry": { "type": "Point", "coordinates": [ 129.32869, 35.464375, 115.0 ] } },
{ "type": "Feature", "properties": { "value": 0.0801 }, "geometry": { "type": "Point", "coordinates": [ 129.327591, 35.465279, 115.0 ] } },
{ "type": "Feature", "properties": { "value": 0.2048 }, "geometry": { "type": "Point", "coordinates": [ 129.32869, 35.465275, 115.0 ] } },
{ "type": "Feature", "properties": { "value": 0.1771 }, "geometry": { "type": "Point", "coordinates": [ 129.327591, 35.466179, 115.0 ] } },
{ "type": "Feature", "properties": { "value": 1.2416 }, "geometry": { "type": "Point", "coordinates": [ 129.32869, 35.466175, 115.0 ] } },
{ "type": "Feature", "properties": { "value": 0.2518 }, "geometry": { "type": "Point", "coordinates": [ 129.327591, 35.467079, 115.0 ] } },
{ "type": "Feature", "properties": { "value": 3.1805 }, "geometry": { "type": "Point", "coordinates": [ 129.328705, 35.467075, 115.0 ] } },
{ "type": "Feature", "properties": { "value": 0.1174 }, "geometry": { "type": "Point", "coordinates": [ 129.329803, 35.467075, 115.0 ] } },
{ "type": "Feature", "properties": { "value": 0.2742 }, "geometry": { "type": "Point", "coordinates": [ 129.327606, 35.467983, 115.0 ] } },
{ "type": "Feature", "properties": { "value": 5.1008 }, "geometry": { "type": "Point", "coordinates": [ 129.328705, 35.467979, 115.0 ] } },
{ "type": "Feature", "properties": { "value": 0.6738 }, "geometry": { "type": "Point", "coordinates": [ 129.329803, 35.467976, 115.0 ] } },
{ "type": "Feature", "properties": { "value": 0.215 }, "geometry": { "type": "Point", "coordinates": [ 129.327606, 35.468884, 115.0 ] } },
{ "type": "Feature", "properties": { "value": 5.7118 }, "geometry": { "type": "Point", "coordinates": [ 129.328705, 35.46888, 115.0 ] } },
{ "type": "Feature", "properties": { "value": 1.7918 }, "geometry": { "type": "Point", "coordinates": [ 129.329803, 35.468876, 115.0 ] } },
{ "type": "Feature", "properties": { "value": 0.005 }, "geometry": { "type": "Point", "coordinates": [ 129.318787, 35.469807, 115.0 ] } },
{ "type": "Feature", "properties": { "value": 0.1123 }, "geometry": { "type": "Point", "coordinates": [ 129.327606, 35.469784, 115.0 ] } },
{ "type": "Feature", "properties": { "value": 4.49 }, "geometry": { "type": "Point", "coordinates": [ 129.328705, 35.46978, 115.0 ] } },
{ "type": "Feature", "properties": { "value": 2.494 }, "geometry": { "type": "Point", "coordinates": [ 129.329819, 35.469776, 115.0 ] } },
{ "type": "Feature", "properties": { "value": 0.1482 }, "geometry": { "type": "Point", "coordinates": [ 129.318802, 35.470707, 115.0 ] } },
{ "type": "Feature", "properties": { "value": 0.0197 }, "geometry": { "type": "Point", "coordinates": [ 129.319901, 35.470707, 115.0 ] } },
{ "type": "Feature", "properties": { "value": 0.0443 }, "geometry": { "type": "Point", "coordinates": [ 129.327606, 35.470684, 115.0 ] } },
{ "type": "Feature", "properties": { "value": 2.2362 }, "geometry": { "type": "Point", "coordinates": [ 129.32872, 35.470684, 115.0 ] } },
{ "type": "Feature", "properties": { "value": 1.5992 }, "geometry": { "type": "Point", "coordinates": [ 129.329819, 35.47068, 115.0 ] } },
{ "type": "Feature", "properties": { "value": 0.0242 }, "geometry": { "type": "Point", "coordinates": [ 129.330917, 35.470676, 115.0 ] } },
{ "type": "Feature", "properties": { "value": 0.0287 }, "geometry": { "type": "Point", "coordinates": [ 129.317703, 35.471615, 115.0 ] } },
{ "type": "Feature", "properties": { "value": 1.3788 }, "geometry": { "type": "Point", "coordinates": [ 129.318802, 35.471611, 115.0 ] } },
{ "type": "Feature", "properties": { "value": 0.6441 }, "geometry": { "type": "Point", "coordinates": [ 129.319901, 35.471607, 115.0 ] } },
{ "type": "Feature", "properties": { "value": 0.5585 }, "geometry": { "type": "Point", "coordinates": [ 129.32872, 35.471584, 115.0 ] } },
{ "type": "Feature", "properties": { "value": 0.5215 }, "geometry": { "type": "Point", "coordinates": [ 129.329819, 35.471581, 115.0 ] } },
{ "type": "Feature", "properties": { "value": 0.0246 }, "geometry": { "type": "Point", "coordinates": [ 129.330917, 35.471577, 115.0 ] } },
{ "type": "Feature", "properties": { "value": 0.1842 }, "geometry": { "type": "Point", "coordinates": [ 129.317703, 35.472515, 115.0 ] } },
{ "type": "Feature", "properties": { "value": 4.2412 }, "geometry": { "type": "Point", "coordinates": [ 129.318802, 35.472511, 115.0 ] } },
{ "type": "Feature", "properties": { "value": 3.9707 }, "geometry": { "type": "Point", "coordinates": [ 129.319901, 35.472507, 115.0 ] } },
{ "type": "Feature", "properties": { "value": 0.2458 }, "geometry": { "type": "Point", "coordinates": [ 129.321014, 35.472507, 115.0 ] } },
{ "type": "Feature", "properties": { "value": 0.117 }, "geometry": { "type": "Point", "coordinates": [ 129.32872, 35.472485, 115.0 ] } },
{ "type": "Feature", "properties": { "value": 0.2582 }, "geometry": { "type": "Point", "coordinates": [ 129.329819, 35.472481, 115.0 ] } },
{ "type": "Feature", "properties": { "value": 0.0661 }, "geometry": { "type": "Point", "coordinates": [ 129.330917, 35.472477, 115.0 ] } },
{ "type": "Feature", "properties": { "value": 0.4384 }, "geometry": { "type": "Point", "coordinates": [ 129.317703, 35.473415, 115.0 ] } },
{ "type": "Feature", "properties": { "value": 7.5764 }, "geometry": { "type": "Point", "coordinates": [ 129.318802, 35.473412, 115.0 ] } },
{ "type": "Feature", "properties": { "value": 11.117 }, "geometry": { "type": "Point", "coordinates": [ 129.319916, 35.473412, 115.0 ] } },
{ "type": "Feature", "properties": { "value": 2.0589 }, "geometry": { "type": "Point", "coordinates": [ 129.321014, 35.473408, 115.0 ] } },
{ "type": "Feature", "properties": { "value": 0.051 }, "geometry": { "type": "Point", "coordinates": [ 129.32872, 35.473385, 115.0 ] } },
{ "type": "Feature", "properties": { "value": 0.3638 }, "geometry": { "type": "Point", "coordinates": [ 129.329819, 35.473385, 115.0 ] } },
{ "type": "Feature", "properties": { "value": 0.3653 }, "geometry": { "type": "Point", "coordinates": [ 129.330933, 35.473381, 115.0 ] } },
{ "type": "Feature", "properties": { "value": 0.0436 }, "geometry": { "type": "Point", "coordinates": [ 129.332031, 35.473377, 115.0 ] } },
{ "type": "Feature", "properties": { "value": 0.7192 }, "geometry": { "type": "Point", "coordinates": [ 129.317703, 35.474316, 115.0 ] } },
{ "type": "Feature", "properties": { "value": 10.168 }, "geometry": { "type": "Point", "coordinates": [ 129.318817, 35.474316, 115.0 ] } },
{ "type": "Feature", "properties": { "value": 20.659 }, "geometry": { "type": "Point", "coordinates": [ 129.319916, 35.474312, 115.0 ] } },
{ "type": "Feature", "properties": { "value": 8.059 }, "geometry": { "type": "Point", "coordinates": [ 129.321014, 35.474308, 115.0 ] } },
{ "type": "Feature", "properties": { "value": 0.8157 }, "geometry": { "type": "Point", "coordinates": [ 129.322113, 35.474304, 115.0 ] } },
{ "type": "Feature", "properties": { "value": 0.0463 }, "geometry": { "type": "Point", "coordinates": [ 129.328735, 35.474289, 115.0 ] } },
{ "type": "Feature", "properties": { "value": 0.8377 }, "geometry": { "type": "Point", "coordinates": [ 129.329834, 35.474285, 115.0 ] } },
{ "type": "Feature", "properties": { "value": 1.7171 }, "geometry": { "type": "Point", "coordinates": [ 129.330933, 35.474281, 115.0 ] } },
{ "type": "Feature", "properties": { "value": 0.3855 }, "geometry": { "type": "Point", "coordinates": [ 129.332031, 35.474277, 115.0 ] } },
{ "type": "Feature", "properties": { "value": 0.852 }, "geometry": { "type": "Point", "coordinates": [ 129.317719, 35.47522, 115.0 ] } },
{ "type": "Feature", "properties": { "value": 11.411 }, "geometry": { "type": "Point", "coordinates": [ 129.318817, 35.475216, 115.0 ] } },
{ "type": "Feature", "properties": { "value": 29.936 }, "geometry": { "type": "Point", "coordinates": [ 129.319916, 35.475212, 115.0 ] } },
{ "type": "Feature", "properties": { "value": 19.823 }, "geometry": { "type": "Point", "coordinates": [ 129.321014, 35.475208, 115.0 ] } },
{ "type": "Feature", "properties": { "value": 4.1731 }, "geometry": { "type": "Point", "coordinates": [ 129.322113, 35.475208, 115.0 ] } },
{ "type": "Feature", "properties": { "value": 0.0491 }, "geometry": { "type": "Point", "coordinates": [ 129.328735, 35.475189, 115.0 ] } },
{ "type": "Feature", "properties": { "value": 1.3904 }, "geometry": { "type": "Point", "coordinates": [ 129.329834, 35.475185, 115.0 ] } },
{ "type": "Feature", "properties": { "value": 4.3475 }, "geometry": { "type": "Point", "coordinates": [ 129.330933, 35.475182, 115.0 ] } },
{ "type": "Feature", "properties": { "value": 1.4261 }, "geometry": { "type": "Point", "coordinates": [ 129.332031, 35.475178, 115.0 ] } },
{ "type": "Feature", "properties": { "value": 0.8609 }, "geometry": { "type": "Point", "coordinates": [ 129.317719, 35.47612, 115.0 ] } },
{ "type": "Feature", "properties": { "value": 11.156 }, "geometry": { "type": "Point", "coordinates": [ 129.318817, 35.476116, 115.0 ] } },
{ "type": "Feature", "properties": { "value": 36.04 }, "geometry": { "type": "Point", "coordinates": [ 129.319916, 35.476112, 115.0 ] } },
{ "type": "Feature", "properties": { "value": 35.886 }, "geometry": { "type": "Point", "coordinates": [ 129.32103, 35.476112, 115.0 ] } },
{ "type": "Feature", "properties": { "value": 12.798 }, "geometry": { "type": "Point", "coordinates": [ 129.322128, 35.476109, 115.0 ] } },
{ "type": "Feature", "properties": { "value": 1.7901 }, "geometry": { "type": "Point", "coordinates": [ 129.323227, 35.476105, 115.0 ] } },
{ "type": "Feature", "properties": { "value": 0.0404 }, "geometry": { "type": "Point", "coordinates": [ 129.328735, 35.476089, 115.0 ] } },
{ "type": "Feature", "properties": { "value": 1.5953 }, "geometry": { "type": "Point", "coordinates": [ 129.329834, 35.476086, 115.0 ] } },
{ "type": "Feature", "properties": { "value": 6.9271 }, "geometry": { "type": "Point", "coordinates": [ 129.330933, 35.476086, 115.0 ] } },
{ "type": "Feature", "properties": { "value": 3.465 }, "geometry": { "type": "Point", "coordinates": [ 129.332047, 35.476082, 115.0 ] } },
{ "type": "Feature", "properties": { "value": 0.2768 }, "geometry": { "type": "Point", "coordinates": [ 129.333145, 35.476078, 115.0 ] } },
{ "type": "Feature", "properties": { "value": 0.4999 }, "geometry": { "type": "Point", "coordinates": [ 129.317719, 35.47702, 115.0 ] } },
{ "type": "Feature", "properties": { "value": 9.2981 }, "geometry": { "type": "Point", "coordinates": [ 129.318817, 35.477016, 115.0 ] } },
{ "type": "Feature", "properties": { "value": 37.089 }, "geometry": { "type": "Point", "coordinates": [ 129.319931, 35.477016, 115.0 ] } },
{ "type": "Feature", "properties": { "value": 51.859 }, "geometry": { "type": "Point", "coordinates": [ 129.32103, 35.477013, 115.0 ] } },
{ "type": "Feature", "properties": { "value": 28.315 }, "geometry": { "type": "Point", "coordinates": [ 129.322128, 35.477009, 115.0 ] } },
{ "type": "Feature", "properties": { "value": 7.0038 }, "geometry": { "type": "Point", "coordinates": [ 129.323227, 35.477005, 115.0 ] } },
{ "type": "Feature", "properties": { "value": 0.6507 }, "geometry": { "type": "Point", "coordinates": [ 129.324326, 35.477005, 115.0 ] } },
{ "type": "Feature", "properties": { "value": 0.0213 }, "geometry": { "type": "Point", "coordinates": [ 129.328735, 35.47699, 115.0 ] } },
{ "type": "Feature", "properties": { "value": 1.5408 }, "geometry": { "type": "Point", "coordinates": [ 129.329834, 35.47699, 115.0 ] } },
{ "type": "Feature", "properties": { "value": 7.8905 }, "geometry": { "type": "Point", "coordinates": [ 129.330948, 35.476986, 115.0 ] } },
{ "type": "Feature", "properties": { "value": 6.1117 }, "geometry": { "type": "Point", "coordinates": [ 129.332047, 35.476982, 115.0 ] } },
{ "type": "Feature", "properties": { "value": 0.931 }, "geometry": { "type": "Point", "coordinates": [ 129.333145, 35.476978, 115.0 ] } },
{ "type": "Feature", "properties": { "value": 6.6033 }, "geometry": { "type": "Point", "coordinates": [ 129.318832, 35.477921, 115.0 ] } },
{ "type": "Feature", "properties": { "value": 33.095 }, "geometry": { "type": "Point", "coordinates": [ 129.319931, 35.477917, 115.0 ] } },
{ "type": "Feature", "properties": { "value": 61.798 }, "geometry": { "type": "Point", "coordinates": [ 129.32103, 35.477913, 115.0 ] } },
{ "type": "Feature", "properties": { "value": 49.113 }, "geometry": { "type": "Point", "coordinates": [ 129.322128, 35.477909, 115.0 ] } },
{ "type": "Feature", "properties": { "value": 18.741 }, "geometry": { "type": "Point", "coordinates": [ 129.323227, 35.477909, 115.0 ] } },
{ "type": "Feature", "properties": { "value": 3.56 }, "geometry": { "type": "Point", "coordinates": [ 129.324341, 35.477905, 115.0 ] } },
{ "type": "Feature", "properties": { "value": 1.2025 }, "geometry": { "type": "Point", "coordinates": [ 129.329849, 35.47789, 115.0 ] } },
{ "type": "Feature", "properties": { "value": 7.263 }, "geometry": { "type": "Point", "coordinates": [ 129.330948, 35.477886, 115.0 ] } },
{ "type": "Feature", "properties": { "value": 8.521 }, "geometry": { "type": "Point", "coordinates": [ 129.332047, 35.477882, 115.0 ] } },
{ "type": "Feature", "properties": { "value": 2.2903 }, "geometry": { "type": "Point", "coordinates": [ 129.333145, 35.477879, 115.0 ] } },
{ "type": "Feature", "properties": { "value": 0.1111 }, "geometry": { "type": "Point", "coordinates": [ 129.334259, 35.477879, 115.0 ] } },
{ "type": "Feature", "properties": { "value": 4.435 }, "geometry": { "type": "Point", "coordinates": [ 129.318832, 35.478821, 115.0 ] } },
{ "type": "Feature", "properties": { "value": 25.768 }, "geometry": { "type": "Point", "coordinates": [ 129.319931, 35.478817, 115.0 ] } },
{ "type": "Feature", "properties": { "value": 61.434 }, "geometry": { "type": "Point", "coordinates": [ 129.32103, 35.478813, 115.0 ] } },
{ "type": "Feature", "properties": { "value": 67.926 }, "geometry": { "type": "Point", "coordinates": [ 129.322128, 35.478813, 115.0 ] } },
{ "type": "Feature", "properties": { "value": 38.118 }, "geometry": { "type": "Point", "coordinates": [ 129.323242, 35.478809, 115.0 ] } },
{ "type": "Feature", "properties": { "value": 10.755 }, "geometry": { "type": "Point", "coordinates": [ 129.324341, 35.478806, 115.0 ] } },
{ "type": "Feature", "properties": { "value": 1.4562 }, "geometry": { "type": "Point", "coordinates": [ 129.325439, 35.478802, 115.0 ] } },
{ "type": "Feature", "properties": { "value": 0.7393 }, "geometry": { "type": "Point", "coordinates": [ 129.329849, 35.47879, 115.0 ] } },
{ "type": "Feature", "properties": { "value": 5.7926 }, "geometry": { "type": "Point", "coordinates": [ 129.330948, 35.478786, 115.0 ] } },
{ "type": "Feature", "properties": { "value": 10.21 }, "geometry": { "type": "Point", "coordinates": [ 129.332047, 35.478786, 115.0 ] } },
{ "type": "Feature", "properties": { "value": 4.6019 }, "geometry": { "type": "Point", "coordinates": [ 129.33316, 35.478783, 115.0 ] } },
{ "type": "Feature", "properties": { "value": 0.5614 }, "geometry": { "type": "Point", "coordinates": [ 129.334259, 35.478779, 115.0 ] } },
{ "type": "Feature", "properties": { "value": 2.3464 }, "geometry": { "type": "Point", "coordinates": [ 129.318832, 35.479721, 115.0 ] } },
{ "type": "Feature", "properties": { "value": 16.974 }, "geometry": { "type": "Point", "coordinates": [ 129.319931, 35.479717, 115.0 ] } },
{ "type": "Feature", "properties": { "value": 51.914 }, "geometry": { "type": "Point", "coordinates": [ 129.32103, 35.479717, 115.0 ] } },
{ "type": "Feature", "properties": { "value": 78.444 }, "geometry": { "type": "Point", "coordinates": [ 129.322144, 35.479713, 115.0 ] } },
{ "type": "Feature", "properties": { "value": 61.294 }, "geometry": { "type": "Point", "coordinates": [ 129.323242, 35.47971, 115.0 ] } },
{ "type": "Feature", "properties": { "value": 24.323 }, "geometry": { "type": "Point", "coordinates": [ 129.324341, 35.479706, 115.0 ] } },
{ "type": "Feature", "properties": { "value": 5.5369 }, "geometry": { "type": "Point", "coordinates": [ 129.325439, 35.479706, 115.0 ] } },
{ "type": "Feature", "properties": { "value": 0.3469 }, "geometry": { "type": "Point", "coordinates": [ 129.329849, 35.479691, 115.0 ] } },
{ "type": "Feature", "properties": { "value": 3.9472 }, "geometry": { "type": "Point", "coordinates": [ 129.330948, 35.479691, 115.0 ] } },
{ "type": "Feature", "properties": { "value": 10.294 }, "geometry": { "type": "Point", "coordinates": [ 129.332062, 35.479687, 115.0 ] } },
{ "type": "Feature", "properties": { "value": 7.4946 }, "geometry": { "type": "Point", "coordinates": [ 129.33316, 35.479683, 115.0 ] } },
{ "type": "Feature", "properties": { "value": 1.6233 }, "geometry": { "type": "Point", "coordinates": [ 129.334259, 35.479679, 115.0 ] } },
{ "type": "Feature", "properties": { "value": 0.0441 }, "geometry": { "type": "Point", "coordinates": [ 129.335358, 35.479675, 115.0 ] } },
{ "type": "Feature", "properties": { "value": 0.9365 }, "geometry": { "type": "Point", "coordinates": [ 129.318832, 35.480621, 115.0 ] } },
{ "type": "Feature", "properties": { "value": 9.2177 }, "geometry": { "type": "Point", "coordinates": [ 129.319931, 35.480621, 115.0 ] } },
{ "type": "Feature", "properties": { "value": 36.438 }, "geometry": { "type": "Point", "coordinates": [ 129.321045, 35.480618, 115.0 ] } },
{ "type": "Feature", "properties": { "value": 72.835 }, "geometry": { "type": "Point", "coordinates": [ 129.322144, 35.480614, 115.0 ] } },
{ "type": "Feature", "properties": { "value": 76.421 }, "geometry": { "type": "Point", "coordinates": [ 129.323242, 35.48061, 115.0 ] } },
{ "type": "Feature", "properties": { "value": 42.923 }, "geometry": { "type": "Point", "coordinates": [ 129.324341, 35.48061, 115.0 ] } },
{ "type": "Feature", "properties": { "value": 13.635 }, "geometry": { "type": "Point", "coordinates": [ 129.325455, 35.480606, 115.0 ] } },
{ "type": "Feature", "properties": { "value": 2.2848 }, "geometry": { "type": "Point", "coordinates": [ 129.326553, 35.480602, 115.0 ] } },
{ "type": "Feature", "properties": { "value": 0.1194 }, "geometry": { "type": "Point", "coordinates": [ 129.329849, 35.480595, 115.0 ] } },
{ "type": "Feature", "properties": { "value": 2.2655 }, "geometry": { "type": "Point", "coordinates": [ 129.330963, 35.480591, 115.0 ] } },
{ "type": "Feature", "properties": { "value": 8.6113 }, "geometry": { "type": "Point", "coordinates": [ 129.332062, 35.480587, 115.0 ] } },
{ "type": "Feature", "properties": { "value": 9.8641 }, "geometry": { "type": "Point", "coordinates": [ 129.33316, 35.480583, 115.0 ] } },
{ "type": "Feature", "properties": { "value": 3.6173 }, "geometry": { "type": "Point", "coordinates": [ 129.334259, 35.480579, 115.0 ] } },
{ "type": "Feature", "properties": { "value": 0.4359 }, "geometry": { "type": "Point", "coordinates": [ 129.335358, 35.480579, 115.0 ] } },
{ "type": "Feature", "properties": { "value": 4.0205 }, "geometry": { "type": "Point", "coordinates": [ 129.319946, 35.481522, 115.0 ] } },
{ "type": "Feature", "properties": { "value": 21.018 }, "geometry": { "type": "Point", "coordinates": [ 129.321045, 35.481518, 115.0 ] } },
{ "type": "Feature", "properties": { "value": 55.586 }, "geometry": { "type": "Point", "coordinates": [ 129.322144, 35.481514, 115.0 ] } },
{ "type": "Feature", "properties": { "value": 78.373 }, "geometry": { "type": "Point", "coordinates": [ 129.323242, 35.481514, 115.0 ] } },
{ "type": "Feature", "properties": { "value": 60.872 }, "geometry": { "type": "Point", "coordinates": [ 129.324356, 35.48151, 115.0 ] } },
{ "type": "Feature", "properties": { "value": 26.919 }, "geometry": { "type": "Point", "coordinates": [ 129.325455, 35.481506, 115.0 ] } },
{ "type": "Feature", "properties": { "value": 7.0319 }, "geometry": { "type": "Point", "coordinates": [ 129.326553, 35.481503, 115.0 ] } },
{ "type": "Feature", "properties": { "value": 0.8373 }, "geometry": { "type": "Point", "coordinates": [ 129.327652, 35.481503, 115.0 ] } },
{ "type": "Feature", "properties": { "value": 1.1351 }, "geometry": { "type": "Point", "coordinates": [ 129.330963, 35.481491, 115.0 ] } },
{ "type": "Feature", "properties": { "value": 6.1842 }, "geometry": { "type": "Point", "coordinates": [ 129.332062, 35.481487, 115.0 ] } },
{ "type": "Feature", "properties": { "value": 10.83 }, "geometry": { "type": "Point", "coordinates": [ 129.33316, 35.481487, 115.0 ] } },
{ "type": "Feature", "properties": { "value": 6.4934 }, "geometry": { "type": "Point", "coordinates": [ 129.334259, 35.481483, 115.0 ] } },
{ "type": "Feature", "properties": { "value": 1.4016 }, "geometry": { "type": "Point", "coordinates": [ 129.335373, 35.48148, 115.0 ] } },
{ "type": "Feature", "properties": { "value": 0.0444 }, "geometry": { "type": "Point", "coordinates": [ 129.336472, 35.481476, 115.0 ] } },
{ "type": "Feature", "properties": { "value": 1.2511 }, "geometry": { "type": "Point", "coordinates": [ 129.319946, 35.482422, 115.0 ] } },
{ "type": "Feature", "properties": { "value": 10.092 }, "geometry": { "type": "Point", "coordinates": [ 129.321045, 35.482418, 115.0 ] } },
{ "type": "Feature", "properties": { "value": 35.67 }, "geometry": { "type": "Point", "coordinates": [ 129.322144, 35.482418, 115.0 ] } },
{ "type": "Feature", "properties": { "value": 67.888 }, "geometry": { "type": "Point", "coordinates": [ 129.323257, 35.482414, 115.0 ] } },
{ "type": "Feature", "properties": { "value": 72.088 }, "geometry": { "type": "Point", "coordinates": [ 129.324356, 35.48241, 115.0 ] } },
{ "type": "Feature", "properties": { "value": 44.474 }, "geometry": { "type": "Point", "coordinates": [ 129.325455, 35.482407, 115.0 ] } },
{ "type": "Feature", "properties": { "value": 16.633 }, "geometry": { "type": "Point", "coordinates": [ 129.326553, 35.482407, 115.0 ] } },
{ "type": "Feature", "properties": { "value": 3.7949 }, "geometry": { "type": "Point", "coordinates": [ 129.327652, 35.482403, 115.0 ] } },
{ "type": "Feature", "properties": { "value": 0.4969 }, "geometry": { "type": "Point", "coordinates": [ 129.330963, 35.482391, 115.0 ] } },
{ "type": "Feature", "properties": { "value": 3.8345 }, "geometry": { "type": "Point", "coordinates": [ 129.332062, 35.482391, 115.0 ] } },
{ "type": "Feature", "properties": { "value": 9.9341 }, "geometry": { "type": "Point", "coordinates": [ 129.333176, 35.482388, 115.0 ] } },
{ "type": "Feature", "properties": { "value": 9.3057 }, "geometry": { "type": "Point", "coordinates": [ 129.334274, 35.482384, 115.0 ] } },
{ "type": "Feature", "properties": { "value": 3.3516 }, "geometry": { "type": "Point", "coordinates": [ 129.335373, 35.48238, 115.0 ] } },
{ "type": "Feature", "properties": { "value": 0.506 }, "geometry": { "type": "Point", "coordinates": [ 129.336472, 35.482376, 115.0 ] } },
{ "type": "Feature", "properties": { "value": 4.2 }, "geometry": { "type": "Point", "coordinates": [ 129.321045, 35.483322, 115.0 ] } },
{ "type": "Feature", "properties": { "value": 19.858 }, "geometry": { "type": "Point", "coordinates": [ 129.322159, 35.483318, 115.0 ] } },
{ "type": "Feature", "properties": { "value": 50.655 }, "geometry": { "type": "Point", "coordinates": [ 129.323257, 35.483315, 115.0 ] } },
{ "type": "Feature", "properties": { "value": 72.935 }, "geometry": { "type": "Point", "coordinates": [ 129.324356, 35.483311, 115.0 ] } },
{ "type": "Feature", "properties": { "value": 61.717 }, "geometry": { "type": "Point", "coordinates": [ 129.325455, 35.483311, 115.0 ] } },
{ "type": "Feature", "properties": { "value": 32.063 }, "geometry": { "type": "Point", "coordinates": [ 129.326553, 35.483307, 115.0 ] } },
{ "type": "Feature", "properties": { "value": 10.716 }, "geometry": { "type": "Point", "coordinates": [ 129.327667, 35.483303, 115.0 ] } },
{ "type": "Feature", "properties": { "value": 2.1807 }, "geometry": { "type": "Point", "coordinates": [ 129.328766, 35.483299, 115.0 ] } },
{ "type": "Feature", "properties": { "value": 0.1623 }, "geometry": { "type": "Point", "coordinates": [ 129.330963, 35.483295, 115.0 ] } },
{ "type": "Feature", "properties": { "value": 2.0493 }, "geometry": { "type": "Point", "coordinates": [ 129.332077, 35.483292, 115.0 ] } },
{ "type": "Feature", "properties": { "value": 7.6553 }, "geometry": { "type": "Point", "coordinates": [ 129.333176, 35.483288, 115.0 ] } },
{ "type": "Feature", "properties": { "value": 10.846 }, "geometry": { "type": "Point", "coordinates": [ 129.334274, 35.483284, 115.0 ] } },
{ "type": "Feature", "properties": { "value": 6.2841 }, "geometry": { "type": "Point", "coordinates": [ 129.335373, 35.48328, 115.0 ] } },
{ "type": "Feature", "properties": { "value": 1.6388 }, "geometry": { "type": "Point", "coordinates": [ 129.336472, 35.48328, 115.0 ] } },
{ "type": "Feature", "properties": { "value": 0.2063 }, "geometry": { "type": "Point", "coordinates": [ 129.337585, 35.483276, 115.0 ] } },
{ "type": "Feature", "properties": { "value": 1.3579 }, "geometry": { "type": "Point", "coordinates": [ 129.32106, 35.484222, 115.0 ] } },
{ "type": "Feature", "properties": { "value": 9.9723 }, "geometry": { "type": "Point", "coordinates": [ 129.322159, 35.484219, 115.0 ] } },
{ "type": "Feature", "properties": { "value": 33.45 }, "geometry": { "type": "Point", "coordinates": [ 129.323257, 35.484215, 115.0 ] } },
{ "type": "Feature", "properties": { "value": 63.824 }, "geometry": { "type": "Point", "coordinates": [ 129.324356, 35.484215, 115.0 ] } },
{ "type": "Feature", "properties": { "value": 72.749 }, "geometry": { "type": "Point", "coordinates": [ 129.325455, 35.484211, 115.0 ] } },
{ "type": "Feature", "properties": { "value": 51.392 }, "geometry": { "type": "Point", "coordinates": [ 129.326569, 35.484207, 115.0 ] } },
{ "type": "Feature", "properties": { "value": 23.383 }, "geometry": { "type": "Point", "coordinates": [ 129.327667, 35.484203, 115.0 ] } },
{ "type": "Feature", "properties": { "value": 7.0127 }, "geometry": { "type": "Point", "coordinates": [ 129.328766, 35.484203, 115.0 ] } },
{ "type": "Feature", "properties": { "value": 1.1629 }, "geometry": { "type": "Point", "coordinates": [ 129.329865, 35.4842, 115.0 ] } },
{ "type": "Feature", "properties": { "value": 0.9318 }, "geometry": { "type": "Point", "coordinates": [ 129.332077, 35.484192, 115.0 ] } },
{ "type": "Feature", "properties": { "value": 4.945 }, "geometry": { "type": "Point", "coordinates": [ 129.333176, 35.484188, 115.0 ] } },
{ "type": "Feature", "properties": { "value": 10.308 }, "geometry": { "type": "Point", "coordinates": [ 129.334274, 35.484188, 115.0 ] } },
{ "type": "Feature", "properties": { "value": 9.1854 }, "geometry": { "type": "Point", "coordinates": [ 129.335373, 35.484184, 115.0 ] } },
{ "type": "Feature", "properties": { "value": 3.9075 }, "geometry": { "type": "Point", "coordinates": [ 129.336487, 35.48418, 115.0 ] } },
{ "type": "Feature", "properties": { "value": 0.9559 }, "geometry": { "type": "Point", "coordinates": [ 129.337585, 35.484177, 115.0 ] } },
{ "type": "Feature", "properties": { "value": 0.1242 }, "geometry": { "type": "Point", "coordinates": [ 129.338684, 35.484173, 115.0 ] } },
{ "type": "Feature", "properties": { "value": 4.403 }, "geometry": { "type": "Point", "coordinates": [ 129.322159, 35.485119, 115.0 ] } },
{ "type": "Feature", "properties": { "value": 19.617 }, "geometry": { "type": "Point", "coordinates": [ 129.323257, 35.485119, 115.0 ] } },
{ "type": "Feature", "properties": { "value": 48.859 }, "geometry": { "type": "Point", "coordinates": [ 129.324371, 35.485115, 115.0 ] } },
{ "type": "Feature", "properties": { "value": 73.376 }, "geometry": { "type": "Point", "coordinates": [ 129.32547, 35.485111, 115.0 ] } },
{ "type": "Feature", "properties": { "value": 68.941 }, "geometry": { "type": "Point", "coordinates": [ 129.326569, 35.485107, 115.0 ] } },
{ "type": "Feature", "properties": { "value": 41.821 }, "geometry": { "type": "Point", "coordinates": [ 129.327667, 35.485107, 115.0 ] } },
{ "type": "Feature", "properties": { "value": 16.844 }, "geometry": { "type": "Point", "coordinates": [ 129.328766, 35.485104, 115.0 ] } },
{ "type": "Feature", "properties": { "value": 4.5907 }, "geometry": { "type": "Point", "coordinates": [ 129.32988, 35.4851, 115.0 ] } },
{ "type": "Feature", "properties": { "value": 0.3276 }, "geometry": { "type": "Point", "coordinates": [ 129.330978, 35.485096, 115.0 ] } },
{ "type": "Feature", "properties": { "value": 0.362 }, "geometry": { "type": "Point", "coordinates": [ 129.332077, 35.485092, 115.0 ] } },
{ "type": "Feature", "properties": { "value": 2.6865 }, "geometry": { "type": "Point", "coordinates": [ 129.333176, 35.485092, 115.0 ] } },
{ "type": "Feature", "properties": { "value": 7.7763 }, "geometry": { "type": "Point", "coordinates": [ 129.334274, 35.485088, 115.0 ] } },
{ "type": "Feature", "properties": { "value": 10.039 }, "geometry": { "type": "Point", "coordinates": [ 129.335388, 35.485085, 115.0 ] } },
{ "type": "Feature", "properties": { "value": 6.6143 }, "geometry": { "type": "Point", "coordinates": [ 129.336487, 35.485081, 115.0 ] } },
{ "type": "Feature", "properties": { "value": 2.5627 }, "geometry": { "type": "Point", "coordinates": [ 129.337585, 35.485077, 115.0 ] } },
{ "type": "Feature", "properties": { "value": 0.653 }, "geometry": { "type": "Point", "coordinates": [ 129.338684, 35.485077, 115.0 ] } },
{ "type": "Feature", "properties": { "value": 0.0789 }, "geometry": { "type": "Point", "coordinates": [ 129.339798, 35.485073, 115.0 ] } },
{ "type": "Feature", "properties": { "value": 1.6607 }, "geometry": { "type": "Point", "coordinates": [ 129.322159, 35.486023, 115.0 ] } },
{ "type": "Feature", "properties": { "value": 10.19 }, "geometry": { "type": "Point", "coordinates": [ 129.323273, 35.486019, 115.0 ] } },
{ "type": "Feature", "properties": { "value": 32.598 }, "geometry": { "type": "Point", "coordinates": [ 129.324371, 35.486015, 115.0 ] } },
{ "type": "Feature", "properties": { "value": 63.468 }, "geometry": { "type": "Point", "coordinates": [ 129.32547, 35.486012, 115.0 ] } },
{ "type": "Feature", "properties": { "value": 77.722 }, "geometry": { "type": "Point", "coordinates": [ 129.326569, 35.486012, 115.0 ] } },
{ "type": "Feature", "properties": { "value": 61.948 }, "geometry": { "type": "Point", "coordinates": [ 129.327667, 35.486008, 115.0 ] } },
{ "type": "Feature", "properties": { "value": 33.107 }, "geometry": { "type": "Point", "coordinates": [ 129.328781, 35.486004, 115.0 ] } },
{ "type": "Feature", "properties": { "value": 12.15 }, "geometry": { "type": "Point", "coordinates": [ 129.32988, 35.486, 115.0 ] } },
{ "type": "Feature", "properties": { "value": 2.9172 }, "geometry": { "type": "Point", "coordinates": [ 129.330978, 35.485996, 115.0 ] } },
{ "type": "Feature", "properties": { "value": 0.1055 }, "geometry": { "type": "Point", "coordinates": [ 129.332077, 35.485996, 115.0 ] } },
{ "type": "Feature", "properties": { "value": 1.3197 }, "geometry": { "type": "Point", "coordinates": [ 129.333176, 35.485992, 115.0 ] } },
{ "type": "Feature", "properties": { "value": 4.9653 }, "geometry": { "type": "Point", "coordinates": [ 129.33429, 35.485989, 115.0 ] } },
{ "type": "Feature", "properties": { "value": 8.8469 }, "geometry": { "type": "Point", "coordinates": [ 129.335388, 35.485985, 115.0 ] } },
{ "type": "Feature", "properties": { "value": 8.4321 }, "geometry": { "type": "Point", "coordinates": [ 129.336487, 35.485981, 115.0 ] } },
{ "type": "Feature", "properties": { "value": 4.7904 }, "geometry": { "type": "Point", "coordinates": [ 129.337585, 35.485981, 115.0 ] } },
{ "type": "Feature", "properties": { "value": 1.7961 }, "geometry": { "type": "Point", "coordinates": [ 129.338699, 35.485977, 115.0 ] } },
{ "type": "Feature", "properties": { "value": 0.4787 }, "geometry": { "type": "Point", "coordinates": [ 129.339798, 35.485973, 115.0 ] } },
{ "type": "Feature", "properties": { "value": 0.0613 }, "geometry": { "type": "Point", "coordinates": [ 129.340897, 35.48597, 115.0 ] } },
{ "type": "Feature", "properties": { "value": 0.0647 }, "geometry": { "type": "Point", "coordinates": [ 129.322174, 35.486923, 115.0 ] } },
{ "type": "Feature", "properties": { "value": 4.5599 }, "geometry": { "type": "Point", "coordinates": [ 129.323273, 35.486919, 115.0 ] } },
{ "type": "Feature", "properties": { "value": 18.881 }, "geometry": { "type": "Point", "coordinates": [ 129.324371, 35.486916, 115.0 ] } },
{ "type": "Feature", "properties": { "value": 47.022 }, "geometry": { "type": "Point", "coordinates": [ 129.32547, 35.486916, 115.0 ] } },
{ "type": "Feature", "properties": { "value": 73.893 }, "geometry": { "type": "Point", "coordinates": [ 129.326569, 35.486912, 115.0 ] } },
{ "type": "Feature", "properties": { "value": 76.047 }, "geometry": { "type": "Point", "coordinates": [ 129.327682, 35.486908, 115.0 ] } },
{ "type": "Feature", "properties": { "value": 52.938 }, "geometry": { "type": "Point", "coordinates": [ 129.328781, 35.486904, 115.0 ] } },
{ "type": "Feature", "properties": { "value": 25.621 }, "geometry": { "type": "Point", "coordinates": [ 129.32988, 35.486904, 115.0 ] } },
{ "type": "Feature", "properties": { "value": 8.7347 }, "geometry": { "type": "Point", "coordinates": [ 129.330978, 35.4869, 115.0 ] } },
{ "type": "Feature", "properties": { "value": 2.0267 }, "geometry": { "type": "Point", "coordinates": [ 129.332092, 35.486897, 115.0 ] } },
{ "type": "Feature", "properties": { "value": 0.6248 }, "geometry": { "type": "Point", "coordinates": [ 129.333191, 35.486893, 115.0 ] } },
{ "type": "Feature", "properties": { "value": 2.9086 }, "geometry": { "type": "Point", "coordinates": [ 129.33429, 35.486889, 115.0 ] } },
{ "type": "Feature", "properties": { "value": 6.7662 }, "geometry": { "type": "Point", "coordinates": [ 129.335388, 35.486889, 115.0 ] } },
{ "type": "Feature", "properties": { "value": 8.7184 }, "geometry": { "type": "Point", "coordinates": [ 129.336487, 35.486885, 115.0 ] } },
{ "type": "Feature", "properties": { "value": 6.8286 }, "geometry": { "type": "Point", "coordinates": [ 129.337601, 35.486881, 115.0 ] } },
{ "type": "Feature", "properties": { "value": 3.5795 }, "geometry": { "type": "Point", "coordinates": [ 129.338699, 35.486877, 115.0 ] } },
{ "type": "Feature", "properties": { "value": 1.358 }, "geometry": { "type": "Point", "coordinates": [ 129.339798, 35.486874, 115.0 ] } },
{ "type": "Feature", "properties": { "value": 0.395 }, "geometry": { "type": "Point", "coordinates": [ 129.340897, 35.486874, 115.0 ] } },
{ "type": "Feature", "properties": { "value": 0.0578 }, "geometry": { "type": "Point", "coordinates": [ 129.341995, 35.48687, 115.0 ] } },
{ "type": "Feature", "properties": { "value": 1.6507 }, "geometry": { "type": "Point", "coordinates": [ 129.323273, 35.48782, 115.0 ] } },
{ "type": "Feature", "properties": { "value": 9.3877 }, "geometry": { "type": "Point", "coordinates": [ 129.324371, 35.48782, 115.0 ] } },
{ "type": "Feature", "properties": { "value": 29.705 }, "geometry": { "type": "Point", "coordinates": [ 129.32547, 35.487816, 115.0 ] } },
{ "type": "Feature", "properties": { "value": 59.342 }, "geometry": { "type": "Point", "coordinates": [ 129.326584, 35.487812, 115.0 ] } },
{ "type": "Feature", "properties": { "value": 78.141 }, "geometry": { "type": "Point", "coordinates": [ 129.327682, 35.487808, 115.0 ] } },
{ "type": "Feature", "properties": { "value": 70.038 }, "geometry": { "type": "Point", "coordinates": [ 129.328781, 35.487808, 115.0 ] } },
{ "type": "Feature", "properties": { "value": 43.889 }, "geometry": { "type": "Point", "coordinates": [ 129.32988, 35.487804, 115.0 ] } },
{ "type": "Feature", "properties": { "value": 19.727 }, "geometry": { "type": "Point", "coordinates": [ 129.330994, 35.487801, 115.0 ] } },
{ "type": "Feature", "properties": { "value": 6.3585 }, "geometry": { "type": "Point", "coordinates": [ 129.332092, 35.487797, 115.0 ] } },
{ "type": "Feature", "properties": { "value": 1.6635 }, "geometry": { "type": "Point", "coordinates": [ 129.333191, 35.487793, 115.0 ] } },
{ "type": "Feature", "properties": { "value": 1.601 }, "geometry": { "type": "Point", "coordinates": [ 129.33429, 35.487793, 115.0 ] } },
{ "type": "Feature", "properties": { "value": 4.6216 }, "geometry": { "type": "Point", "coordinates": [ 129.335388, 35.487789, 115.0 ] } },
{ "type": "Feature", "properties": { "value": 7.6655 }, "geometry": { "type": "Point", "coordinates": [ 129.336502, 35.487785, 115.0 ] } },
{ "type": "Feature", "properties": { "value": 7.9223 }, "geometry": { "type": "Point", "coordinates": [ 129.337601, 35.487782, 115.0 ] } },
{ "type": "Feature", "properties": { "value": 5.5595 }, "geometry": { "type": "Point", "coordinates": [ 129.338699, 35.487778, 115.0 ] } },
{ "type": "Feature", "properties": { "value": 2.8232 }, "geometry": { "type": "Point", "coordinates": [ 129.339798, 35.487778, 115.0 ] } },
{ "type": "Feature", "properties": { "value": 1.1011 }, "geometry": { "type": "Point", "coordinates": [ 129.340912, 35.487774, 115.0 ] } },
{ "type": "Feature", "properties": { "value": 0.3435 }, "geometry": { "type": "Point", "coordinates": [ 129.34201, 35.48777, 115.0 ] } },
{ "type": "Feature", "properties": { "value": 0.0609 }, "geometry": { "type": "Point", "coordinates": [ 129.343109, 35.487766, 115.0 ] } },
{ "type": "Feature", "properties": { "value": 3.9456 }, "geometry": { "type": "Point", "coordinates": [ 129.324371, 35.48872, 115.0 ] } },
{ "type": "Feature", "properties": { "value": 16.049 }, "geometry": { "type": "Point", "coordinates": [ 129.325485, 35.488716, 115.0 ] } },
{ "type": "Feature", "properties": { "value": 40.5 }, "geometry": { "type": "Point", "coordinates": [ 129.326584, 35.488712, 115.0 ] } },
{ "type": "Feature", "properties": { "value": 67.767 }, "geometry": { "type": "Point", "coordinates": [ 129.327682, 35.488712, 115.0 ] } },
{ "type": "Feature", "properties": { "value": 77.597 }, "geometry": { "type": "Point", "coordinates": [ 129.328781, 35.488708, 115.0 ] } },
{ "type": "Feature", "properties": { "value": 62.216 }, "geometry": { "type": "Point", "coordinates": [ 129.329895, 35.488705, 115.0 ] } },
{ "type": "Feature", "properties": { "value": 35.976 }, "geometry": { "type": "Point", "coordinates": [ 129.330994, 35.488701, 115.0 ] } },
{ "type": "Feature", "properties": { "value": 15.302 }, "geometry": { "type": "Point", "coordinates": [ 129.332092, 35.488697, 115.0 ] } },
{ "type": "Feature", "properties": { "value": 4.9271 }, "geometry": { "type": "Point", "coordinates": [ 129.333191, 35.488697, 115.0 ] } },
{ "type": "Feature", "properties": { "value": 1.7872 }, "geometry": { "type": "Point", "coordinates": [ 129.33429, 35.488693, 115.0 ] } },
{ "type": "Feature", "properties": { "value": 2.8817 }, "geometry": { "type": "Point", "coordinates": [ 129.335403, 35.488689, 115.0 ] } },
{ "type": "Feature", "properties": { "value": 5.9044 }, "geometry": { "type": "Point", "coordinates": [ 129.336502, 35.488686, 115.0 ] } },
{ "type": "Feature", "properties": { "value": 7.7518 }, "geometry": { "type": "Point", "coordinates": [ 129.337601, 35.488682, 115.0 ] } },
{ "type": "Feature", "properties": { "value": 7.0038 }, "geometry": { "type": "Point", "coordinates": [ 129.338699, 35.488682, 115.0 ] } },
{ "type": "Feature", "properties": { "value": 4.5964 }, "geometry": { "type": "Point", "coordinates": [ 129.339813, 35.488678, 115.0 ] } },
{ "type": "Feature", "properties": { "value": 2.313 }, "geometry": { "type": "Point", "coordinates": [ 129.340912, 35.488674, 115.0 ] } },
{ "type": "Feature", "properties": { "value": 0.9403 }, "geometry": { "type": "Point", "coordinates": [ 129.34201, 35.48867, 115.0 ] } },
{ "type": "Feature", "properties": { "value": 0.3079 }, "geometry": { "type": "Point", "coordinates": [ 129.343109, 35.488667, 115.0 ] } },
{ "type": "Feature", "properties": { "value": 0.0602 }, "geometry": { "type": "Point", "coordinates": [ 129.344208, 35.488667, 115.0 ] } },
{ "type": "Feature", "properties": { "value": 1.3085 }, "geometry": { "type": "Point", "coordinates": [ 129.324387, 35.48962, 115.0 ] } },
{ "type": "Feature", "properties": { "value": 7.569 }, "geometry": { "type": "Point", "coordinates": [ 129.325485, 35.489616, 115.0 ] } },
{ "type": "Feature", "properties": { "value": 23.868 }, "geometry": { "type": "Point", "coordinates": [ 129.326584, 35.489616, 115.0 ] } },
{ "type": "Feature", "properties": { "value": 50.304 }, "geometry": { "type": "Point", "coordinates": [ 129.327682, 35.489613, 115.0 ] } },
{ "type": "Feature", "properties": { "value": 72.749 }, "geometry": { "type": "Point", "coordinates": [ 129.328796, 35.489609, 115.0 ] } },
{ "type": "Feature", "properties": { "value": 74.026 }, "geometry": { "type": "Point", "coordinates": [ 129.329895, 35.489605, 115.0 ] } },
{ "type": "Feature", "properties": { "value": 54.411 }, "geometry": { "type": "Point", "coordinates": [ 129.330994, 35.489605, 115.0 ] } },
{ "type": "Feature", "properties": { "value": 29.64 }, "geometry": { "type": "Point", "coordinates": [ 129.332092, 35.489601, 115.0 ] } },
{ "type": "Feature", "properties": { "value": 12.22 }, "geometry": { "type": "Point", "coordinates": [ 129.333191, 35.489597, 115.0 ] } },
{ "type": "Feature", "properties": { "value": 4.2242 }, "geometry": { "type": "Point", "coordinates": [ 129.334305, 35.489594, 115.0 ] } },
{ "type": "Feature", "properties": { "value": 2.2508 }, "geometry": { "type": "Point", "coordinates": [ 129.335403, 35.48959, 115.0 ] } },
{ "type": "Feature", "properties": { "value": 4.0688 }, "geometry": { "type": "Point", "coordinates": [ 129.336502, 35.48959, 115.0 ] } },
{ "type": "Feature", "properties": { "value": 6.5631 }, "geometry": { "type": "Point", "coordinates": [ 129.337601, 35.489586, 115.0 ] } },
{ "type": "Feature", "properties": { "value": 7.3882 }, "geometry": { "type": "Point", "coordinates": [ 129.338715, 35.489582, 115.0 ] } },
{ "type": "Feature", "properties": { "value": 6.1032 }, "geometry": { "type": "Point", "coordinates": [ 129.339813, 35.489578, 115.0 ] } },
{ "type": "Feature", "properties": { "value": 3.8715 }, "geometry": { "type": "Point", "coordinates": [ 129.340912, 35.489574, 115.0 ] } },
{ "type": "Feature", "properties": { "value": 1.9717 }, "geometry": { "type": "Point", "coordinates": [ 129.34201, 35.489571, 115.0 ] } },
{ "type": "Feature", "properties": { "value": 0.8215 }, "geometry": { "type": "Point", "coordinates": [ 129.343109, 35.489571, 115.0 ] } },
{ "type": "Feature", "properties": { "value": 0.2738 }, "geometry": { "type": "Point", "coordinates": [ 129.344223, 35.489567, 115.0 ] } },
{ "type": "Feature", "properties": { "value": 0.0522 }, "geometry": { "type": "Point", "coordinates": [ 129.345322, 35.489563, 115.0 ] } },
{ "type": "Feature", "properties": { "value": 3.0102 }, "geometry": { "type": "Point", "coordinates": [ 129.325485, 35.49052, 115.0 ] } },
{ "type": "Feature", "properties": { "value": 12.299 }, "geometry": { "type": "Point", "coordinates": [ 129.326584, 35.490517, 115.0 ] } },
{ "type": "Feature", "properties": { "value": 32.327 }, "geometry": { "type": "Point", "coordinates": [ 129.327698, 35.490513, 115.0 ] } },
{ "type": "Feature", "properties": { "value": 58.318 }, "geometry": { "type": "Point", "coordinates": [ 129.328796, 35.490509, 115.0 ] } },
{ "type": "Feature", "properties": { "value": 74.45 }, "geometry": { "type": "Point", "coordinates": [ 129.329895, 35.490509, 115.0 ] } },
{ "type": "Feature", "properties": { "value": 68.875 }, "geometry": { "type": "Point", "coordinates": [ 129.330994, 35.490505, 115.0 ] } },
{ "type": "Feature", "properties": { "value": 47.442 }, "geometry": { "type": "Point", "coordinates": [ 129.332092, 35.490501, 115.0 ] } },
{ "type": "Feature", "properties": { "value": 24.908 }, "geometry": { "type": "Point", "coordinates": [ 129.333206, 35.490498, 115.0 ] } },
{ "type": "Feature", "properties": { "value": 10.317 }, "geometry": { "type": "Point", "coordinates": [ 129.334305, 35.490494, 115.0 ] } },
{ "type": "Feature", "properties": { "value": 4.0567 }, "geometry": { "type": "Point", "coordinates": [ 129.335403, 35.490494, 115.0 ] } },
{ "type": "Feature", "properties": { "value": 2.91 }, "geometry": { "type": "Point", "coordinates": [ 129.336502, 35.49049, 115.0 ] } },
{ "type": "Feature", "properties": { "value": 4.9165 }, "geometry": { "type": "Point", "coordinates": [ 129.337616, 35.490486, 115.0 ] } },
{ "type": "Feature", "properties": { "value": 6.7552 }, "geometry": { "type": "Point", "coordinates": [ 129.338715, 35.490482, 115.0 ] } },
{ "type": "Feature", "properties": { "value": 6.8655 }, "geometry": { "type": "Point", "coordinates": [ 129.339813, 35.490479, 115.0 ] } },
{ "type": "Feature", "properties": { "value": 5.3762 }, "geometry": { "type": "Point", "coordinates": [ 129.340912, 35.490479, 115.0 ] } },
{ "type": "Feature", "properties": { "value": 3.374 }, "geometry": { "type": "Point", "coordinates": [ 129.34201, 35.490475, 115.0 ] } },
{ "type": "Feature", "properties": { "value": 1.7325 }, "geometry": { "type": "Point", "coordinates": [ 129.343124, 35.490471, 115.0 ] } },
{ "type": "Feature", "properties": { "value": 0.7364 }, "geometry": { "type": "Point", "coordinates": [ 129.344223, 35.490467, 115.0 ] } },
{ "type": "Feature", "properties": { "value": 0.255 }, "geometry": { "type": "Point", "coordinates": [ 129.345322, 35.490463, 115.0 ] } },
{ "type": "Feature", "properties": { "value": 0.0408 }, "geometry": { "type": "Point", "coordinates": [ 129.34642, 35.490459, 115.0 ] } },
{ "type": "Feature", "properties": { "value": 0.8622 }, "geometry": { "type": "Point", "coordinates": [ 129.325485, 35.491421, 115.0 ] } },
{ "type": "Feature", "properties": { "value": 5.4907 }, "geometry": { "type": "Point", "coordinates": [ 129.326599, 35.491417, 115.0 ] } },
{ "type": "Feature", "properties": { "value": 18.073 }, "geometry": { "type": "Point", "coordinates": [ 129.327698, 35.491413, 115.0 ] } },
{ "type": "Feature", "properties": { "value": 40.304 }, "geometry": { "type": "Point", "coordinates": [ 129.328796, 35.491413, 115.0 ] } },
{ "type": "Feature", "properties": { "value": 63.974 }, "geometry": { "type": "Point", "coordinates": [ 129.329895, 35.491409, 115.0 ] } },
{ "type": "Feature", "properties": { "value": 73.814 }, "geometry": { "type": "Point", "coordinates": [ 129.331009, 35.491405, 115.0 ] } },
{ "type": "Feature", "properties": { "value": 63.743 }, "geometry": { "type": "Point", "coordinates": [ 129.332108, 35.491402, 115.0 ] } },
{ "type": "Feature", "properties": { "value": 42.032 }, "geometry": { "type": "Point", "coordinates": [ 129.333206, 35.491398, 115.0 ] } },
{ "type": "Feature", "properties": { "value": 21.663 }, "geometry": { "type": "Point", "coordinates": [ 129.334305, 35.491398, 115.0 ] } },
{ "type": "Feature", "properties": { "value": 9.1792 }, "geometry": { "type": "Point", "coordinates": [ 129.335403, 35.491394, 115.0 ] } },
{ "type": "Feature", "properties": { "value": 4.1969 }, "geometry": { "type": "Point", "coordinates": [ 129.336517, 35.49139, 115.0 ] } },
{ "type": "Feature", "properties": { "value": 3.3036 }, "geometry": { "type": "Point", "coordinates": [ 129.337616, 35.491386, 115.0 ] } },
{ "type": "Feature", "properties": { "value": 5.449 }, "geometry": { "type": "Point", "coordinates": [ 129.338715, 35.491383, 115.0 ] } },
{ "type": "Feature", "properties": { "value": 6.7235 }, "geometry": { "type": "Point", "coordinates": [ 129.339813, 35.491383, 115.0 ] } },
{ "type": "Feature", "properties": { "value": 6.409 }, "geometry": { "type": "Point", "coordinates": [ 129.340927, 35.491379, 115.0 ] } },
{ "type": "Feature", "properties": { "value": 4.8774 }, "geometry": { "type": "Point", "coordinates": [ 129.342026, 35.491375, 115.0 ] } },
{ "type": "Feature", "properties": { "value": 3.0289 }, "geometry": { "type": "Point", "coordinates": [ 129.343124, 35.491371, 115.0 ] } },
{ "type": "Feature", "properties": { "value": 1.5601 }, "geometry": { "type": "Point", "coordinates": [ 129.344223, 35.491367, 115.0 ] } },
{ "type": "Feature", "properties": { "value": 0.6771 }, "geometry": { "type": "Point", "coordinates": [ 129.345322, 35.491367, 115.0 ] } },
{ "type": "Feature", "properties": { "value": 0.2431 }, "geometry": { "type": "Point", "coordinates": [ 129.346436, 35.491364, 115.0 ] } },
{ "type": "Feature", "properties": { "value": 0.0499 }, "geometry": { "type": "Point", "coordinates": [ 129.347534, 35.49136, 115.0 ] } },
{ "type": "Feature", "properties": { "value": 2.0306 }, "geometry": { "type": "Point", "coordinates": [ 129.326599, 35.492317, 115.0 ] } },
{ "type": "Feature", "properties": { "value": 8.6962 }, "geometry": { "type": "Point", "coordinates": [ 129.327698, 35.492317, 115.0 ] } },
{ "type": "Feature", "properties": { "value": 24.106 }, "geometry": { "type": "Point", "coordinates": [ 129.328796, 35.492313, 115.0 ] } },
{ "type": "Feature", "properties": { "value": 47.169 }, "geometry": { "type": "Point", "coordinates": [ 129.32991, 35.49231, 115.0 ] } },
{ "type": "Feature", "properties": { "value": 67.431 }, "geometry": { "type": "Point", "coordinates": [ 129.331009, 35.492306, 115.0 ] } },
{ "type": "Feature", "properties": { "value": 72.29 }, "geometry": { "type": "Point", "coordinates": [ 129.332108, 35.492306, 115.0 ] } },
{ "type": "Feature", "properties": { "value": 59.462 }, "geometry": { "type": "Point", "coordinates": [ 129.333206, 35.492302, 115.0 ] } },
{ "type": "Feature", "properties": { "value": 38.052 }, "geometry": { "type": "Point", "coordinates": [ 129.334305, 35.492298, 115.0 ] } },
{ "type": "Feature", "properties": { "value": 19.403 }, "geometry": { "type": "Point", "coordinates": [ 129.335419, 35.492294, 115.0 ] } },
{ "type": "Feature", "properties": { "value": 8.5964 }, "geometry": { "type": "Point", "coordinates": [ 129.336517, 35.49229, 115.0 ] } },
{ "type": "Feature", "properties": { "value": 4.5099 }, "geometry": { "type": "Point", "coordinates": [ 129.337616, 35.49229, 115.0 ] } },
{ "type": "Feature", "properties": { "value": 4.1359 }, "geometry": { "type": "Point", "coordinates": [ 129.338715, 35.492287, 115.0 ] } },
{ "type": "Feature", "properties": { "value": 5.7787 }, "geometry": { "type": "Point", "coordinates": [ 129.339828, 35.492283, 115.0 ] } },
{ "type": "Feature", "properties": { "value": 6.6178 }, "geometry": { "type": "Point", "coordinates": [ 129.340927, 35.492279, 115.0 ] } },
{ "type": "Feature", "properties": { "value": 6.0457 }, "geometry": { "type": "Point", "coordinates": [ 129.342026, 35.492275, 115.0 ] } },
{ "type": "Feature", "properties": { "value": 4.4971 }, "geometry": { "type": "Point", "coordinates": [ 129.343124, 35.492271, 115.0 ] } },
{ "type": "Feature", "properties": { "value": 2.7798 }, "geometry": { "type": "Point", "coordinates": [ 129.344223, 35.492271, 115.0 ] } },
{ "type": "Feature", "properties": { "value": 1.4491 }, "geometry": { "type": "Point", "coordinates": [ 129.345337, 35.492268, 115.0 ] } },
{ "type": "Feature", "properties": { "value": 0.6493 }, "geometry": { "type": "Point", "coordinates": [ 129.346436, 35.492264, 115.0 ] } },
{ "type": "Feature", "properties": { "value": 0.2426 }, "geometry": { "type": "Point", "coordinates": [ 129.347534, 35.49226, 115.0 ] } },
{ "type": "Feature", "properties": { "value": 0.0577 }, "geometry": { "type": "Point", "coordinates": [ 129.348633, 35.492256, 115.0 ] } },
{ "type": "Feature", "properties": { "value": 0.2232 }, "geometry": { "type": "Point", "coordinates": [ 129.326599, 35.493221, 115.0 ] } },
{ "type": "Feature", "properties": { "value": 3.597 }, "geometry": { "type": "Point", "coordinates": [ 129.327698, 35.493217, 115.0 ] } },
{ "type": "Feature", "properties": { "value": 12.541 }, "geometry": { "type": "Point", "coordinates": [ 129.328812, 35.493214, 115.0 ] } },
{ "type": "Feature", "properties": { "value": 30.067 }, "geometry": { "type": "Point", "coordinates": [ 129.32991, 35.49321, 115.0 ] } },
{ "type": "Feature", "properties": { "value": 52.893 }, "geometry": { "type": "Point", "coordinates": [ 129.331009, 35.49321, 115.0 ] } },
{ "type": "Feature", "properties": { "value": 69.835 }, "geometry": { "type": "Point", "coordinates": [ 129.332108, 35.493206, 115.0 ] } },
{ "type": "Feature", "properties": { "value": 70.596 }, "geometry": { "type": "Point", "coordinates": [ 129.333206, 35.493202, 115.0 ] } },
{ "type": "Feature", "properties": { "value": 55.55 }, "geometry": { "type": "Point", "coordinates": [ 129.33432, 35.493198, 115.0 ] } },
{ "type": "Feature", "properties": { "value": 34.729 }, "geometry": { "type": "Point", "coordinates": [ 129.335419, 35.493195, 115.0 ] } },
{ "type": "Feature", "properties": { "value": 17.824 }, "geometry": { "type": "Point", "coordinates": [ 129.336517, 35.493195, 115.0 ] } },
{ "type": "Feature", "properties": { "value": 8.3709 }, "geometry": { "type": "Point", "coordinates": [ 129.337616, 35.493191, 115.0 ] } },
{ "type": "Feature", "properties": { "value": 4.8879 }, "geometry": { "type": "Point", "coordinates": [ 129.33873, 35.493187, 115.0 ] } },
{ "type": "Feature", "properties": { "value": 4.7401 }, "geometry": { "type": "Point", "coordinates": [ 129.339828, 35.493183, 115.0 ] } },
{ "type": "Feature", "properties": { "value": 5.9477 }, "geometry": { "type": "Point", "coordinates": [ 129.340927, 35.493179, 115.0 ] } },
{ "type": "Feature", "properties": { "value": 6.457 }, "geometry": { "type": "Point", "coordinates": [ 129.342026, 35.493179, 115.0 ] } },
{ "type": "Feature", "properties": { "value": 5.7121 }, "geometry": { "type": "Point", "coordinates": [ 129.343124, 35.493176, 115.0 ] } },
{ "type": "Feature", "properties": { "value": 4.1962 }, "geometry": { "type": "Point", "coordinates": [ 129.344238, 35.493172, 115.0 ] } },
{ "type": "Feature", "properties": { "value": 2.6059 }, "geometry": { "type": "Point", "coordinates": [ 129.345337, 35.493168, 115.0 ] } },
{ "type": "Feature", "properties": { "value": 1.3942 }, "geometry": { "type": "Point", "coordinates": [ 129.346436, 35.493164, 115.0 ] } },
{ "type": "Feature", "properties": { "value": 0.6474 }, "geometry": { "type": "Point", "coordinates": [ 129.347534, 35.49316, 115.0 ] } },
{ "type": "Feature", "properties": { "value": 0.2612 }, "geometry": { "type": "Point", "coordinates": [ 129.348648, 35.49316, 115.0 ] } },
{ "type": "Feature", "properties": { "value": 0.0812 }, "geometry": { "type": "Point", "coordinates": [ 129.349747, 35.493156, 115.0 ] } },
{ "type": "Feature", "properties": { "value": 1.1521 }, "geometry": { "type": "Point", "coordinates": [ 129.327713, 35.494118, 115.0 ] } },
{ "type": "Feature", "properties": { "value": 5.6136 }, "geometry": { "type": "Point", "coordinates": [ 129.328812, 35.494114, 115.0 ] } },
{ "type": "Feature", "properties": { "value": 16.583 }, "geometry": { "type": "Point", "coordinates": [ 129.32991, 35.494114, 115.0 ] } },
{ "type": "Feature", "properties": { "value": 35.547 }, "geometry": { "type": "Point", "coordinates": [ 129.331009, 35.49411, 115.0 ] } },
{ "type": "Feature", "properties": { "value": 57.119 }, "geometry": { "type": "Point", "coordinates": [ 129.332108, 35.494106, 115.0 ] } },
{ "type": "Feature", "properties": { "value": 70.276 }, "geometry": { "type": "Point", "coordinates": [ 129.333221, 35.494102, 115.0 ] } },
{ "type": "Feature", "properties": { "value": 67.343 }, "geometry": { "type": "Point", "coordinates": [ 129.33432, 35.494099, 115.0 ] } },
{ "type": "Feature", "properties": { "value": 51.399 }, "geometry": { "type": "Point", "coordinates": [ 129.335419, 35.494099, 115.0 ] } },
{ "type": "Feature", "properties": { "value": 32.04 }, "geometry": { "type": "Point", "coordinates": [ 129.336517, 35.494095, 115.0 ] } },
{ "type": "Feature", "properties": { "value": 17.032 }, "geometry": { "type": "Point", "coordinates": [ 129.337631, 35.494091, 115.0 ] } },
{ "type": "Feature", "properties": { "value": 8.589 }, "geometry": { "type": "Point", "coordinates": [ 129.33873, 35.494087, 115.0 ] } },
{ "type": "Feature", "properties": { "value": 5.5441 }, "geometry": { "type": "Point", "coordinates": [ 129.339828, 35.494083, 115.0 ] } },
{ "type": "Feature", "properties": { "value": 5.2326 }, "geometry": { "type": "Point", "coordinates": [ 129.340927, 35.494083, 115.0 ] } },
{ "type": "Feature", "properties": { "value": 5.975 }, "geometry": { "type": "Point", "coordinates": [ 129.342026, 35.49408, 115.0 ] } },
{ "type": "Feature", "properties": { "value": 6.2383 }, "geometry": { "type": "Point", "coordinates": [ 129.34314, 35.494076, 115.0 ] } },
{ "type": "Feature", "properties": { "value": 5.4105 }, "geometry": { "type": "Point", "coordinates": [ 129.344238, 35.494072, 115.0 ] } },
{ "type": "Feature", "properties": { "value": 3.9718 }, "geometry": { "type": "Point", "coordinates": [ 129.345337, 35.494068, 115.0 ] } },
{ "type": "Feature", "properties": { "value": 2.5079 }, "geometry": { "type": "Point", "coordinates": [ 129.346436, 35.494068, 115.0 ] } },
{ "type": "Feature", "properties": { "value": 1.3888 }, "geometry": { "type": "Point", "coordinates": [ 129.347549, 35.494064, 115.0 ] } },
{ "type": "Feature", "properties": { "value": 0.6876 }, "geometry": { "type": "Point", "coordinates": [ 129.348648, 35.494061, 115.0 ] } },
{ "type": "Feature", "properties": { "value": 0.3037 }, "geometry": { "type": "Point", "coordinates": [ 129.349747, 35.494057, 115.0 ] } },
{ "type": "Feature", "properties": { "value": 0.1156 }, "geometry": { "type": "Point", "coordinates": [ 129.350845, 35.494053, 115.0 ] } },
{ "type": "Feature", "properties": { "value": 0.0017 }, "geometry": { "type": "Point", "coordinates": [ 129.351959, 35.494049, 115.0 ] } },
{ "type": "Feature", "properties": { "value": 2.0728 }, "geometry": { "type": "Point", "coordinates": [ 129.328812, 35.495018, 115.0 ] } },
{ "type": "Feature", "properties": { "value": 7.8529 }, "geometry": { "type": "Point", "coordinates": [ 129.32991, 35.495014, 115.0 ] } },
{ "type": "Feature", "properties": { "value": 20.329 }, "geometry": { "type": "Point", "coordinates": [ 129.331009, 35.49501, 115.0 ] } },
{ "type": "Feature", "properties": { "value": 39.49 }, "geometry": { "type": "Point", "coordinates": [ 129.332123, 35.495007, 115.0 ] } },
{ "type": "Feature", "properties": { "value": 58.713 }, "geometry": { "type": "Point", "coordinates": [ 129.333221, 35.495007, 115.0 ] } },
{ "type": "Feature", "properties": { "value": 68.189 }, "geometry": { "type": "Point", "coordinates": [ 129.33432, 35.495003, 115.0 ] } },
{ "type": "Feature", "properties": { "value": 63.251 }, "geometry": { "type": "Point", "coordinates": [ 129.335419, 35.494999, 115.0 ] } },
{ "type": "Feature", "properties": { "value": 48.033 }, "geometry": { "type": "Point", "coordinates": [ 129.336533, 35.494995, 115.0 ] } },
{ "type": "Feature", "properties": { "value": 30.581 }, "geometry": { "type": "Point", "coordinates": [ 129.337631, 35.494991, 115.0 ] } },
{ "type": "Feature", "properties": { "value": 16.907 }, "geometry": { "type": "Point", "coordinates": [ 129.33873, 35.494991, 115.0 ] } },
{ "type": "Feature", "properties": { "value": 9.1131 }, "geometry": { "type": "Point", "coordinates": [ 129.339828, 35.494987, 115.0 ] } },
{ "type": "Feature", "properties": { "value": 6.0616 }, "geometry": { "type": "Point", "coordinates": [ 129.340942, 35.494984, 115.0 ] } },
{ "type": "Feature", "properties": { "value": 5.6092 }, "geometry": { "type": "Point", "coordinates": [ 129.342041, 35.49498, 115.0 ] } },
{ "type": "Feature", "properties": { "value": 5.8883 }, "geometry": { "type": "Point", "coordinates": [ 129.34314, 35.494976, 115.0 ] } },
{ "type": "Feature", "properties": { "value": 5.9967 }, "geometry": { "type": "Point", "coordinates": [ 129.344238, 35.494972, 115.0 ] } },
{ "type": "Feature", "properties": { "value": 5.1678 }, "geometry": { "type": "Point", "coordinates": [ 129.345337, 35.494972, 115.0 ] } },
{ "type": "Feature", "properties": { "value": 3.8321 }, "geometry": { "type": "Point", "coordinates": [ 129.346451, 35.494968, 115.0 ] } },
{ "type": "Feature", "properties": { "value": 2.4952 }, "geometry": { "type": "Point", "coordinates": [ 129.347549, 35.494965, 115.0 ] } },
{ "type": "Feature", "properties": { "value": 1.4564 }, "geometry": { "type": "Point", "coordinates": [ 129.348648, 35.494961, 115.0 ] } },
{ "type": "Feature", "properties": { "value": 0.773 }, "geometry": { "type": "Point", "coordinates": [ 129.349747, 35.494957, 115.0 ] } },
{ "type": "Feature", "properties": { "value": 0.3761 }, "geometry": { "type": "Point", "coordinates": [ 129.350861, 35.494953, 115.0 ] } },
{ "type": "Feature", "properties": { "value": 0.1679 }, "geometry": { "type": "Point", "coordinates": [ 129.351959, 35.494953, 115.0 ] } },
{ "type": "Feature", "properties": { "value": 0.0574 }, "geometry": { "type": "Point", "coordinates": [ 129.353058, 35.494949, 115.0 ] } },
{ "type": "Feature", "properties": { "value": 0.2499 }, "geometry": { "type": "Point", "coordinates": [ 129.328812, 35.495918, 115.0 ] } },
{ "type": "Feature", "properties": { "value": 3.0691 }, "geometry": { "type": "Point", "coordinates": [ 129.329926, 35.495914, 115.0 ] } },
{ "type": "Feature", "properties": { "value": 9.749 }, "geometry": { "type": "Point", "coordinates": [ 129.331024, 35.495911, 115.0 ] } },
{ "type": "Feature", "properties": { "value": 22.889 }, "geometry": { "type": "Point", "coordinates": [ 129.332123, 35.495911, 115.0 ] } },
{ "type": "Feature", "properties": { "value": 41.226 }, "geometry": { "type": "Point", "coordinates": [ 129.333221, 35.495907, 115.0 ] } },
{ "type": "Feature", "properties": { "value": 57.95 }, "geometry": { "type": "Point", "coordinates": [ 129.33432, 35.495903, 115.0 ] } },
{ "type": "Feature", "properties": { "value": 65.198 }, "geometry": { "type": "Point", "coordinates": [ 129.335434, 35.495899, 115.0 ] } },
{ "type": "Feature", "properties": { "value": 60.132 }, "geometry": { "type": "Point", "coordinates": [ 129.336533, 35.495895, 115.0 ] } },
{ "type": "Feature", "properties": { "value": 46.165 }, "geometry": { "type": "Point", "coordinates": [ 129.337631, 35.495895, 115.0 ] } },
{ "type": "Feature", "properties": { "value": 30.16 }, "geometry": { "type": "Point", "coordinates": [ 129.33873, 35.495892, 115.0 ] } },
{ "type": "Feature", "properties": { "value": 17.425 }, "geometry": { "type": "Point", "coordinates": [ 129.339844, 35.495888, 115.0 ] } },
{ "type": "Feature", "properties": { "value": 9.831 }, "geometry": { "type": "Point", "coordinates": [ 129.340942, 35.495884, 115.0 ] } },
{ "type": "Feature", "properties": { "value": 6.6223 }, "geometry": { "type": "Point", "coordinates": [ 129.342041, 35.49588, 115.0 ] } },
{ "type": "Feature", "properties": { "value": 5.882 }, "geometry": { "type": "Point", "coordinates": [ 129.34314, 35.49588, 115.0 ] } },
{ "type": "Feature", "properties": { "value": 5.7367 }, "geometry": { "type": "Point", "coordinates": [ 129.344238, 35.495876, 115.0 ] } },
{ "type": "Feature", "properties": { "value": 5.7716 }, "geometry": { "type": "Point", "coordinates": [ 129.345352, 35.495872, 115.0 ] } },
{ "type": "Feature", "properties": { "value": 4.9946 }, "geometry": { "type": "Point", "coordinates": [ 129.346451, 35.495869, 115.0 ] } },
{ "type": "Feature", "properties": { "value": 3.7941 }, "geometry": { "type": "Point", "coordinates": [ 129.347549, 35.495865, 115.0 ] } },
{ "type": "Feature", "properties": { "value": 2.581 }, "geometry": { "type": "Point", "coordinates": [ 129.348648, 35.495861, 115.0 ] } },
{ "type": "Feature", "properties": { "value": 1.5979 }, "geometry": { "type": "Point", "coordinates": [ 129.349762, 35.495861, 115.0 ] } },
{ "type": "Feature", "properties": { "value": 0.9116 }, "geometry": { "type": "Point", "coordinates": [ 129.350861, 35.495857, 115.0 ] } },
{ "type": "Feature", "properties": { "value": 0.4858 }, "geometry": { "type": "Point", "coordinates": [ 129.351959, 35.495853, 115.0 ] } },
{ "type": "Feature", "properties": { "value": 0.2406 }, "geometry": { "type": "Point", "coordinates": [ 129.353058, 35.49585, 115.0 ] } },
{ "type": "Feature", "properties": { "value": 0.1068 }, "geometry": { "type": "Point", "coordinates": [ 129.354156, 35.495846, 115.0 ] } },
{ "type": "Feature", "properties": { "value": 0.0289 }, "geometry": { "type": "Point", "coordinates": [ 129.35527, 35.495842, 115.0 ] } },
{ "type": "Feature", "properties": { "value": 0.8166 }, "geometry": { "type": "Point", "coordinates": [ 129.329926, 35.496815, 115.0 ] } },
{ "type": "Feature", "properties": { "value": 3.9127 }, "geometry": { "type": "Point", "coordinates": [ 129.331024, 35.496815, 115.0 ] } },
{ "type": "Feature", "properties": { "value": 11.215 }, "geometry": { "type": "Point", "coordinates": [ 129.332123, 35.496811, 115.0 ] } },
{ "type": "Feature", "properties": { "value": 24.422 }, "geometry": { "type": "Point", "coordinates": [ 129.333221, 35.496807, 115.0 ] } },
{ "type": "Feature", "properties": { "value": 41.583 }, "geometry": { "type": "Point", "coordinates": [ 129.334335, 35.496803, 115.0 ] } },
{ "type": "Feature", "properties": { "value": 56.651 }, "geometry": { "type": "Point", "coordinates": [ 129.335434, 35.496799, 115.0 ] } },
{ "type": "Feature", "properties": { "value": 62.992 }, "geometry": { "type": "Point", "coordinates": [ 129.336533, 35.496799, 115.0 ] } },
{ "type": "Feature", "properties": { "value": 58.143 }, "geometry": { "type": "Point", "coordinates": [ 129.337631, 35.496796, 115.0 ] } },
{ "type": "Feature", "properties": { "value": 45.305 }, "geometry": { "type": "Point", "coordinates": [ 129.338745, 35.496792, 115.0 ] } },
{ "type": "Feature", "properties": { "value": 30.309 }, "geometry": { "type": "Point", "coordinates": [ 129.339844, 35.496788, 115.0 ] } },
{ "type": "Feature", "properties": { "value": 18.123 }, "geometry": { "type": "Point", "coordinates": [ 129.340942, 35.496784, 115.0 ] } },
{ "type": "Feature", "properties": { "value": 10.655 }, "geometry": { "type": "Point", "coordinates": [ 129.342041, 35.496784, 115.0 ] } },
{ "type": "Feature", "properties": { "value": 7.2191 }, "geometry": { "type": "Point", "coordinates": [ 129.34314, 35.49678, 115.0 ] } },
{ "type": "Feature", "properties": { "value": 6.1578 }, "geometry": { "type": "Point", "coordinates": [ 129.344254, 35.496777, 115.0 ] } },
{ "type": "Feature", "properties": { "value": 5.8445 }, "geometry": { "type": "Point", "coordinates": [ 129.345352, 35.496773, 115.0 ] } },
{ "type": "Feature", "properties": { "value": 5.5714 }, "geometry": { "type": "Point", "coordinates": [ 129.346451, 35.496769, 115.0 ] } },
{ "type": "Feature", "properties": { "value": 4.9063 }, "geometry": { "type": "Point", "coordinates": [ 129.347549, 35.496765, 115.0 ] } },
{ "type": "Feature", "properties": { "value": 3.8584 }, "geometry": { "type": "Point", "coordinates": [ 129.348663, 35.496765, 115.0 ] } },
{ "type": "Feature", "properties": { "value": 2.7535 }, "geometry": { "type": "Point", "coordinates": [ 129.349762, 35.496761, 115.0 ] } },
{ "type": "Feature", "properties": { "value": 1.8026 }, "geometry": { "type": "Point", "coordinates": [ 129.350861, 35.496758, 115.0 ] } },
{ "type": "Feature", "properties": { "value": 1.092 }, "geometry": { "type": "Point", "coordinates": [ 129.351959, 35.496754, 115.0 ] } },
{ "type": "Feature", "properties": { "value": 0.6162 }, "geometry": { "type": "Point", "coordinates": [ 129.353073, 35.49675, 115.0 ] } },
{ "type": "Feature", "properties": { "value": 0.3237 }, "geometry": { "type": "Point", "coordinates": [ 129.354172, 35.496746, 115.0 ] } },
{ "type": "Feature", "properties": { "value": 0.1518 }, "geometry": { "type": "Point", "coordinates": [ 129.35527, 35.496746, 115.0 ] } },
{ "type": "Feature", "properties": { "value": 0.0604 }, "geometry": { "type": "Point", "coordinates": [ 129.356369, 35.496742, 115.0 ] } },
{ "type": "Feature", "properties": { "value": 0.0051 }, "geometry": { "type": "Point", "coordinates": [ 129.357468, 35.496738, 115.0 ] } },
{ "type": "Feature", "properties": { "value": 1.1582 }, "geometry": { "type": "Point", "coordinates": [ 129.331024, 35.497715, 115.0 ] } },
{ "type": "Feature", "properties": { "value": 4.576 }, "geometry": { "type": "Point", "coordinates": [ 129.332123, 35.497711, 115.0 ] } },
{ "type": "Feature", "properties": { "value": 12.341 }, "geometry": { "type": "Point", "coordinates": [ 129.333237, 35.497707, 115.0 ] } },
{ "type": "Feature", "properties": { "value": 25.426 }, "geometry": { "type": "Point", "coordinates": [ 129.334335, 35.497707, 115.0 ] } },
{ "type": "Feature", "properties": { "value": 41.809 }, "geometry": { "type": "Point", "coordinates": [ 129.335434, 35.497704, 115.0 ] } },
{ "type": "Feature", "properties": { "value": 55.724 }, "geometry": { "type": "Point", "coordinates": [ 129.336533, 35.4977, 115.0 ] } },
{ "type": "Feature", "properties": { "value": 61.346 }, "geometry": { "type": "Point", "coordinates": [ 129.337646, 35.497696, 115.0 ] } },
{ "type": "Feature", "properties": { "value": 56.715 }, "geometry": { "type": "Point", "coordinates": [ 129.338745, 35.497692, 115.0 ] } },
{ "type": "Feature", "properties": { "value": 44.601 }, "geometry": { "type": "Point", "coordinates": [ 129.339844, 35.497692, 115.0 ] } },
{ "type": "Feature", "properties": { "value": 30.402 }, "geometry": { "type": "Point", "coordinates": [ 129.340942, 35.497688, 115.0 ] } },
{ "type": "Feature", "properties": { "value": 18.661 }, "geometry": { "type": "Point", "coordinates": [ 129.342041, 35.497684, 115.0 ] } },
{ "type": "Feature", "properties": { "value": 11.181 }, "geometry": { "type": "Point", "coordinates": [ 129.343155, 35.497681, 115.0 ] } },
{ "type": "Feature", "properties": { "value": 7.4561 }, "geometry": { "type": "Point", "coordinates": [ 129.344254, 35.497677, 115.0 ] } },
{ "type": "Feature", "properties": { "value": 6.1337 }, "geometry": { "type": "Point", "coordinates": [ 129.345352, 35.497673, 115.0 ] } },
{ "type": "Feature", "properties": { "value": 5.7331 }, "geometry": { "type": "Point", "coordinates": [ 129.346451, 35.497673, 115.0 ] } },
{ "type": "Feature", "properties": { "value": 5.4089 }, "geometry": { "type": "Point", "coordinates": [ 129.347565, 35.497669, 115.0 ] } },
{ "type": "Feature", "properties": { "value": 4.8838 }, "geometry": { "type": "Point", "coordinates": [ 129.348663, 35.497665, 115.0 ] } },
{ "type": "Feature", "properties": { "value": 3.9782 }, "geometry": { "type": "Point", "coordinates": [ 129.349762, 35.497662, 115.0 ] } },
{ "type": "Feature", "properties": { "value": 2.9546 }, "geometry": { "type": "Point", "coordinates": [ 129.350861, 35.497658, 115.0 ] } },
{ "type": "Feature", "properties": { "value": 2.0186 }, "geometry": { "type": "Point", "coordinates": [ 129.351974, 35.497654, 115.0 ] } },
{ "type": "Feature", "properties": { "value": 1.2729 }, "geometry": { "type": "Point", "coordinates": [ 129.353073, 35.497654, 115.0 ] } },
{ "type": "Feature", "properties": { "value": 0.7371 }, "geometry": { "type": "Point", "coordinates": [ 129.354172, 35.49765, 115.0 ] } },
{ "type": "Feature", "properties": { "value": 0.3843 }, "geometry": { "type": "Point", "coordinates": [ 129.35527, 35.497646, 115.0 ] } },
{ "type": "Feature", "properties": { "value": 0.1741 }, "geometry": { "type": "Point", "coordinates": [ 129.356369, 35.497643, 115.0 ] } },
{ "type": "Feature", "properties": { "value": 0.0653 }, "geometry": { "type": "Point", "coordinates": [ 129.357483, 35.497639, 115.0 ] } },
{ "type": "Feature", "properties": { "value": 0.0135 }, "geometry": { "type": "Point", "coordinates": [ 129.358582, 35.497635, 115.0 ] } },
{ "type": "Feature", "properties": { "value": 1.5488 }, "geometry": { "type": "Point", "coordinates": [ 129.332138, 35.498611, 115.0 ] } },
{ "type": "Feature", "properties": { "value": 5.3592 }, "geometry": { "type": "Point", "coordinates": [ 129.333237, 35.498611, 115.0 ] } },
{ "type": "Feature", "properties": { "value": 13.291 }, "geometry": { "type": "Point", "coordinates": [ 129.334335, 35.498608, 115.0 ] } },
{ "type": "Feature", "properties": { "value": 26.178 }, "geometry": { "type": "Point", "coordinates": [ 129.335434, 35.498604, 115.0 ] } },
{ "type": "Feature", "properties": { "value": 41.621 }, "geometry": { "type": "Point", "coordinates": [ 129.336548, 35.4986, 115.0 ] } },
{ "type": "Feature", "properties": { "value": 54.285 }, "geometry": { "type": "Point", "coordinates": [ 129.337646, 35.498596, 115.0 ] } },
{ "type": "Feature", "properties": { "value": 59.165 }, "geometry": { "type": "Point", "coordinates": [ 129.338745, 35.498596, 115.0 ] } },
{ "type": "Feature", "properties": { "value": 54.424 }, "geometry": { "type": "Point", "coordinates": [ 129.339844, 35.498592, 115.0 ] } },
{ "type": "Feature", "properties": { "value": 43.048 }, "geometry": { "type": "Point", "coordinates": [ 129.340958, 35.498589, 115.0 ] } },
{ "type": "Feature", "properties": { "value": 29.725 }, "geometry": { "type": "Point", "coordinates": [ 129.342056, 35.498585, 115.0 ] } },
{ "type": "Feature", "properties": { "value": 18.439 }, "geometry": { "type": "Point", "coordinates": [ 129.343155, 35.498581, 115.0 ] } },
{ "type": "Feature", "properties": { "value": 10.883 }, "geometry": { "type": "Point", "coordinates": [ 129.344254, 35.498581, 115.0 ] } },
{ "type": "Feature", "properties": { "value": 7.0563 }, "geometry": { "type": "Point", "coordinates": [ 129.345352, 35.498577, 115.0 ] } },
{ "type": "Feature", "properties": { "value": 5.6755 }, "geometry": { "type": "Point", "coordinates": [ 129.346466, 35.498573, 115.0 ] } },
{ "type": "Feature", "properties": { "value": 5.3778 }, "geometry": { "type": "Point", "coordinates": [ 129.347565, 35.498569, 115.0 ] } },
{ "type": "Feature", "properties": { "value": 5.2439 }, "geometry": { "type": "Point", "coordinates": [ 129.348663, 35.498566, 115.0 ] } },
{ "type": "Feature", "properties": { "value": 4.8438 }, "geometry": { "type": "Point", "coordinates": [ 129.349762, 35.498562, 115.0 ] } },
{ "type": "Feature", "properties": { "value": 4.0571 }, "geometry": { "type": "Point", "coordinates": [ 129.350876, 35.498562, 115.0 ] } },
{ "type": "Feature", "properties": { "value": 3.1025 }, "geometry": { "type": "Point", "coordinates": [ 129.351974, 35.498558, 115.0 ] } },
{ "type": "Feature", "properties": { "value": 2.1648 }, "geometry": { "type": "Point", "coordinates": [ 129.353073, 35.498554, 115.0 ] } },
{ "type": "Feature", "properties": { "value": 1.3626 }, "geometry": { "type": "Point", "coordinates": [ 129.354172, 35.49855, 115.0 ] } },
{ "type": "Feature", "properties": { "value": 0.759 }, "geometry": { "type": "Point", "coordinates": [ 129.35527, 35.498547, 115.0 ] } },
{ "type": "Feature", "properties": { "value": 0.3675 }, "geometry": { "type": "Point", "coordinates": [ 129.356384, 35.498543, 115.0 ] } },
{ "type": "Feature", "properties": { "value": 0.1508 }, "geometry": { "type": "Point", "coordinates": [ 129.357483, 35.498539, 115.0 ] } },
{ "type": "Feature", "properties": { "value": 0.0474 }, "geometry": { "type": "Point", "coordinates": [ 129.358582, 35.498539, 115.0 ] } },
{ "type": "Feature", "properties": { "value": 0.0074 }, "geometry": { "type": "Point", "coordinates": [ 129.35968, 35.498535, 115.0 ] } },
{ "type": "Feature", "properties": { "value": 1.8993 }, "geometry": { "type": "Point", "coordinates": [ 129.333237, 35.499512, 115.0 ] } },
{ "type": "Feature", "properties": { "value": 5.9283 }, "geometry": { "type": "Point", "coordinates": [ 129.334335, 35.499508, 115.0 ] } },
{ "type": "Feature", "properties": { "value": 13.917 }, "geometry": { "type": "Point", "coordinates": [ 129.335449, 35.499504, 115.0 ] } },
{ "type": "Feature", "properties": { "value": 26.237 }, "geometry": { "type": "Point", "coordinates": [ 129.336548, 35.4995, 115.0 ] } },
{ "type": "Feature", "properties": { "value": 40.365 }, "geometry": { "type": "Point", "coordinates": [ 129.337646, 35.4995, 115.0 ] } },
{ "type": "Feature", "properties": { "value": 51.565 }, "geometry": { "type": "Point", "coordinates": [ 129.338745, 35.499496, 115.0 ] } },
{ "type": "Feature", "properties": { "value": 55.362 }, "geometry": { "type": "Point", "coordinates": [ 129.339859, 35.499493, 115.0 ] } },
{ "type": "Feature", "properties": { "value": 50.564 }, "geometry": { "type": "Point", "coordinates": [ 129.340958, 35.499489, 115.0 ] } },
{ "type": "Feature", "properties": { "value": 39.726 }, "geometry": { "type": "Point", "coordinates": [ 129.342056, 35.499485, 115.0 ] } },
{ "type": "Feature", "properties": { "value": 26.992 }, "geometry": { "type": "Point", "coordinates": [ 129.343155, 35.499485, 115.0 ] } },
{ "type": "Feature", "properties": { "value": 16.058 }, "geometry": { "type": "Point", "coordinates": [ 129.344254, 35.499481, 115.0 ] } },
{ "type": "Feature", "properties": { "value": 8.9747 }, "geometry": { "type": "Point", "coordinates": [ 129.345367, 35.499477, 115.0 ] } },
{ "type": "Feature", "properties": { "value": 5.6622 }, "geometry": { "type": "Point", "coordinates": [ 129.346466, 35.499474, 115.0 ] } },
{ "type": "Feature", "properties": { "value": 4.8408 }, "geometry": { "type": "Point", "coordinates": [ 129.347565, 35.49947, 115.0 ] } },
{ "type": "Feature", "properties": { "value": 4.8661 }, "geometry": { "type": "Point", "coordinates": [ 129.348663, 35.499466, 115.0 ] } },
{ "type": "Feature", "properties": { "value": 5.0037 }, "geometry": { "type": "Point", "coordinates": [ 129.349777, 35.499466, 115.0 ] } },
{ "type": "Feature", "properties": { "value": 4.6982 }, "geometry": { "type": "Point", "coordinates": [ 129.350876, 35.499462, 115.0 ] } },
{ "type": "Feature", "properties": { "value": 3.9885 }, "geometry": { "type": "Point", "coordinates": [ 129.351974, 35.499458, 115.0 ] } },
{ "type": "Feature", "properties": { "value": 3.0435 }, "geometry": { "type": "Point", "coordinates": [ 129.353073, 35.499454, 115.0 ] } },
{ "type": "Feature", "properties": { "value": 2.0591 }, "geometry": { "type": "Point", "coordinates": [ 129.354187, 35.499451, 115.0 ] } },
{ "type": "Feature", "properties": { "value": 1.2163 }, "geometry": { "type": "Point", "coordinates": [ 129.355286, 35.499447, 115.0 ] } },
{ "type": "Feature", "properties": { "value": 0.6164 }, "geometry": { "type": "Point", "coordinates": [ 129.356384, 35.499447, 115.0 ] } },
{ "type": "Feature", "properties": { "value": 0.2657 }, "geometry": { "type": "Point", "coordinates": [ 129.357483, 35.499443, 115.0 ] } },
{ "type": "Feature", "properties": { "value": 0.0933 }, "geometry": { "type": "Point", "coordinates": [ 129.358582, 35.499439, 115.0 ] } },
{ "type": "Feature", "properties": { "value": 0.0234 }, "geometry": { "type": "Point", "coordinates": [ 129.359695, 35.499435, 115.0 ] } },
{ "type": "Feature", "properties": { "value": 0.0014 }, "geometry": { "type": "Point", "coordinates": [ 129.360794, 35.499432, 115.0 ] } },
{ "type": "Feature", "properties": { "value": 0.2449 }, "geometry": { "type": "Point", "coordinates": [ 129.333237, 35.500412, 115.0 ] } },
{ "type": "Feature", "properties": { "value": 2.1407 }, "geometry": { "type": "Point", "coordinates": [ 129.334351, 35.500408, 115.0 ] } },
{ "type": "Feature", "properties": { "value": 6.3204 }, "geometry": { "type": "Point", "coordinates": [ 129.335449, 35.500408, 115.0 ] } },
{ "type": "Feature", "properties": { "value": 14.008 }, "geometry": { "type": "Point", "coordinates": [ 129.336548, 35.500404, 115.0 ] } },
{ "type": "Feature", "properties": { "value": 25.303 }, "geometry": { "type": "Point", "coordinates": [ 129.337646, 35.500401, 115.0 ] } },
{ "type": "Feature", "properties": { "value": 37.703 }, "geometry": { "type": "Point", "coordinates": [ 129.33876, 35.500397, 115.0 ] } },
{ "type": "Feature", "properties": { "value": 46.998 }, "geometry": { "type": "Point", "coordinates": [ 129.339859, 35.500393, 115.0 ] } },
{ "type": "Feature", "properties": { "value": 49.32 }, "geometry": { "type": "Point", "coordinates": [ 129.340958, 35.500393, 115.0 ] } },
{ "type": "Feature", "properties": { "value": 43.738 }, "geometry": { "type": "Point", "coordinates": [ 129.342056, 35.500389, 115.0 ] } },
{ "type": "Feature", "properties": { "value": 32.692 }, "geometry": { "type": "Point", "coordinates": [ 129.343155, 35.500385, 115.0 ] } },
{ "type": "Feature", "properties": { "value": 20.449 }, "geometry": { "type": "Point", "coordinates": [ 129.344269, 35.500381, 115.0 ] } },
{ "type": "Feature", "properties": { "value": 10.957 }, "geometry": { "type": "Point", "coordinates": [ 129.345367, 35.500378, 115.0 ] } },
{ "type": "Feature", "properties": { "value": 5.7705 }, "geometry": { "type": "Point", "coordinates": [ 129.346466, 35.500374, 115.0 ] } },
{ "type": "Feature", "properties": { "value": 4.0169 }, "geometry": { "type": "Point", "coordinates": [ 129.347565, 35.500374, 115.0 ] } },
{ "type": "Feature", "properties": { "value": 4.0119 }, "geometry": { "type": "Point", "coordinates": [ 129.348679, 35.50037, 115.0 ] } },
{ "type": "Feature", "properties": { "value": 4.3987 }, "geometry": { "type": "Point", "coordinates": [ 129.349777, 35.500366, 115.0 ] } },
{ "type": "Feature", "properties": { "value": 4.5953 }, "geometry": { "type": "Point", "coordinates": [ 129.350876, 35.500362, 115.0 ] } },
{ "type": "Feature", "properties": { "value": 4.2849 }, "geometry": { "type": "Point", "coordinates": [ 129.351974, 35.500359, 115.0 ] } },
{ "type": "Feature", "properties": { "value": 3.5375 }, "geometry": { "type": "Point", "coordinates": [ 129.353088, 35.500355, 115.0 ] } },
{ "type": "Feature", "properties": { "value": 2.5521 }, "geometry": { "type": "Point", "coordinates": [ 129.354187, 35.500355, 115.0 ] } },
{ "type": "Feature", "properties": { "value": 1.5815 }, "geometry": { "type": "Point", "coordinates": [ 129.355286, 35.500351, 115.0 ] } },
{ "type": "Feature", "properties": { "value": 0.8361 }, "geometry": { "type": "Point", "coordinates": [ 129.356384, 35.500347, 115.0 ] } },
{ "type": "Feature", "properties": { "value": 0.3724 }, "geometry": { "type": "Point", "coordinates": [ 129.357483, 35.500343, 115.0 ] } },
{ "type": "Feature", "properties": { "value": 0.1364 }, "geometry": { "type": "Point", "coordinates": [ 129.358597, 35.50034, 115.0 ] } },
{ "type": "Feature", "properties": { "value": 0.0383 }, "geometry": { "type": "Point", "coordinates": [ 129.359695, 35.500336, 115.0 ] } },
{ "type": "Feature", "properties": { "value": 0.0063 }, "geometry": { "type": "Point", "coordinates": [ 129.360794, 35.500332, 115.0 ] } },
{ "type": "Feature", "properties": { "value": 0.4354 }, "geometry": { "type": "Point", "coordinates": [ 129.334351, 35.501312, 115.0 ] } },
{ "type": "Feature", "properties": { "value": 2.333 }, "geometry": { "type": "Point", "coordinates": [ 129.335449, 35.501308, 115.0 ] } },
{ "type": "Feature", "properties": { "value": 6.3215 }, "geometry": { "type": "Point", "coordinates": [ 129.336548, 35.501305, 115.0 ] } },
{ "type": "Feature", "properties": { "value": 13.386 }, "geometry": { "type": "Point", "coordinates": [ 129.337662, 35.501301, 115.0 ] } },
{ "type": "Feature", "properties": { "value": 23.205 }, "geometry": { "type": "Point", "coordinates": [ 129.33876, 35.501297, 115.0 ] } },
{ "type": "Feature", "properties": { "value": 33.344 }, "geometry": { "type": "Point", "coordinates": [ 129.339859, 35.501297, 115.0 ] } },
{ "type": "Feature", "properties": { "value": 39.773 }, "geometry": { "type": "Point", "coordinates": [ 129.340958, 35.501293, 115.0 ] } },
{ "type": "Feature", "properties": { "value": 39.26 }, "geometry": { "type": "Point", "coordinates": [ 129.342056, 35.501289, 115.0 ] } },
{ "type": "Feature", "properties": { "value": 31.864 }, "geometry": { "type": "Point", "coordinates": [ 129.34317, 35.501286, 115.0 ] } },
{ "type": "Feature", "properties": { "value": 21.114 }, "geometry": { "type": "Point", "coordinates": [ 129.344269, 35.501282, 115.0 ] } },
{ "type": "Feature", "properties": { "value": 11.452 }, "geometry": { "type": "Point", "coordinates": [ 129.345367, 35.501278, 115.0 ] } },
{ "type": "Feature", "properties": { "value": 5.4947 }, "geometry": { "type": "Point", "coordinates": [ 129.346466, 35.501278, 115.0 ] } },
{ "type": "Feature", "properties": { "value": 3.1105 }, "geometry": { "type": "Point", "coordinates": [ 129.34758, 35.501274, 115.0 ] } },
{ "type": "Feature", "properties": { "value": 2.8392 }, "geometry": { "type": "Point", "coordinates": [ 129.348679, 35.50127, 115.0 ] } },
{ "type": "Feature", "properties": { "value": 3.2875 }, "geometry": { "type": "Point", "coordinates": [ 129.349777, 35.501266, 115.0 ] } },
{ "type": "Feature", "properties": { "value": 3.7896 }, "geometry": { "type": "Point", "coordinates": [ 129.350876, 35.501263, 115.0 ] } },
{ "type": "Feature", "properties": { "value": 3.845 }, "geometry": { "type": "Point", "coordinates": [ 129.35199, 35.501259, 115.0 ] } },
{ "type": "Feature", "properties": { "value": 3.403 }, "geometry": { "type": "Point", "coordinates": [ 129.353088, 35.501259, 115.0 ] } },
{ "type": "Feature", "properties": { "value": 2.5928 }, "geometry": { "type": "Point", "coordinates": [ 129.354187, 35.501255, 115.0 ] } },
{ "type": "Feature", "properties": { "value": 1.682 }, "geometry": { "type": "Point", "coordinates": [ 129.355286, 35.501251, 115.0 ] } },
{ "type": "Feature", "properties": { "value": 0.9217 }, "geometry": { "type": "Point", "coordinates": [ 129.3564, 35.501247, 115.0 ] } },
{ "type": "Feature", "properties": { "value": 0.4231 }, "geometry": { "type": "Point", "coordinates": [ 129.357498, 35.501244, 115.0 ] } },
{ "type": "Feature", "properties": { "value": 0.1594 }, "geometry": { "type": "Point", "coordinates": [ 129.358597, 35.50124, 115.0 ] } },
{ "type": "Feature", "properties": { "value": 0.0462 }, "geometry": { "type": "Point", "coordinates": [ 129.359695, 35.50124, 115.0 ] } },
{ "type": "Feature", "properties": { "value": 0.0079 }, "geometry": { "type": "Point", "coordinates": [ 129.360794, 35.501236, 115.0 ] } }
]
}
