{
"type": "FeatureCollection",
"features": [
{ "type": "Feature", "properties": { "value": 0.0009 }, "geometry": { "type": "Point", "coordinates": [ 129.327576, 35.46077, 115.0 ] } },
{ "type": "Feature", "properties": { "value": 0.0151 }, "geometry": { "type": "Point", "coordinates": [ 129.327576, 35.461674, 115.0 ] } },
{ "type": "Feature", "properties": { "value": 0.0265 }, "geometry": { "type": "Point", "coordinates": [ 129.327576, 35.462574, 115.0 ] } },
{ "type": "Feature", "properties": { "value": 0.003 }, "geometry": { "type": "Point", "coordinates": [ 129.328674, 35.46257, 115.0 ] } },
{ "type": "Feature", "properties": { "value": 0.0353 }, "geometry": { "type": "Point", "coordinates": [ 129.327576, 35.463474, 115.0 ] } },
{ "type": "Feature", "properties": { "value": 0.0188 }, "geometry": { "type": "Point", "coordinates": [ 129.32869, 35.46347, 115.0 ] } },
{ "type": "Feature", "properties": { "value": 0.0519 }, "geometry": { "type": "Point", "coordinates": [ 129.327591, 35.464375, 115.0 ] } },
{ "type": "Feature", "properties": { "value": 0.0662 }, "geometry": { "type": "Point", "coordinates": [ 129.32869, 35.464375, 115.0 ] } },
{ "type": "Feature", "properties": { "value": 0.117 }, "geometry": { "type": "Point", "coordinates": [ 129.327591, 35.465279, 115.0 ] } },
{ "type": "Feature", "properties": { "value": 0.5252 }, "geometry": { "type": "Point", "coordinates": [ 129.32869, 35.465275, 115.0 ] } },
{ "type": "Feature", "properties": { "value": 0.2249 }, "geometry": { "type": "Point", "coordinates": [ 129.327591, 35.466179, 115.0 ] } },
{ "type": "Feature", "properties": { "value": 2.9477 }, "geometry": { "type": "Point", "coordinates": [ 129.32869, 35.466175, 115.0 ] } },
{ "type": "Feature", "properties": { "value": 0.0267 }, "geometry": { "type": "Point", "coordinates": [ 129.329803, 35.466171, 115.0 ] } },
{ "type": "Feature", "properties": { "value": 0.2692 }, "geometry": { "type": "Point", "coordinates": [ 129.327591, 35.467079, 115.0 ] } },
{ "type": "Feature", "properties": { "value": 6.8455 }, "geometry": { "type": "Point", "coordinates": [ 129.328705, 35.467075, 115.0 ] } },
{ "type": "Feature", "properties": { "value": 0.5447 }, "geometry": { "type": "Point", "coordinates": [ 129.329803, 35.467075, 115.0 ] } },
{ "type": "Feature", "properties": { "value": 0.2203 }, "geometry": { "type": "Point", "coordinates": [ 129.327606, 35.467983, 115.0 ] } },
{ "type": "Feature", "properties": { "value": 9.7233 }, "geometry": { "type": "Point", "coordinates": [ 129.328705, 35.467979, 115.0 ] } },
{ "type": "Feature", "properties": { "value": 2.8674 }, "geometry": { "type": "Point", "coordinates": [ 129.329803, 35.467976, 115.0 ] } },
{ "type": "Feature", "properties": { "value": 0.131 }, "geometry": { "type": "Point", "coordinates": [ 129.327606, 35.468884, 115.0 ] } },
{ "type": "Feature", "properties": { "value": 9.3934 }, "geometry": { "type": "Point", "coordinates": [ 129.328705, 35.46888, 115.0 ] } },
{ "type": "Feature", "properties": { "value": 7.1128 }, "geometry": { "type": "Point", "coordinates": [ 129.329803, 35.468876, 115.0 ] } },
{ "type": "Feature", "properties": { "value": 6.0226 }, "geometry": { "type": "Point", "coordinates": [ 129.328705, 35.46978, 115.0 ] } },
{ "type": "Feature", "properties": { "value": 8.6954 }, "geometry": { "type": "Point", "coordinates": [ 129.329819, 35.469776, 115.0 ] } },
{ "type": "Feature", "properties": { "value": 0.213 }, "geometry": { "type": "Point", "coordinates": [ 129.330917, 35.469776, 115.0 ] } },
{ "type": "Feature", "properties": { "value": 2.3713 }, "geometry": { "type": "Point", "coordinates": [ 129.32872, 35.470684, 115.0 ] } },
{ "type": "Feature", "properties": { "value": 4.7011 }, "geometry": { "type": "Point", "coordinates": [ 129.329819, 35.47068, 115.0 ] } },
{ "type": "Feature", "properties": { "value": 0.2164 }, "geometry": { "type": "Point", "coordinates": [ 129.330917, 35.470676, 115.0 ] } },
{ "type": "Feature", "properties": { "value": 0.4616 }, "geometry": { "type": "Point", "coordinates": [ 129.32872, 35.471584, 115.0 ] } },
{ "type": "Feature", "properties": { "value": 1.2633 }, "geometry": { "type": "Point", "coordinates": [ 129.329819, 35.471581, 115.0 ] } },
{ "type": "Feature", "properties": { "value": 0.1812 }, "geometry": { "type": "Point", "coordinates": [ 129.330917, 35.471577, 115.0 ] } },
{ "type": "Feature", "properties": { "value": 0.0726 }, "geometry": { "type": "Point", "coordinates": [ 129.32872, 35.472485, 115.0 ] } },
{ "type": "Feature", "properties": { "value": 0.5118 }, "geometry": { "type": "Point", "coordinates": [ 129.329819, 35.472481, 115.0 ] } },
{ "type": "Feature", "properties": { "value": 0.4204 }, "geometry": { "type": "Point", "coordinates": [ 129.330917, 35.472477, 115.0 ] } },
{ "type": "Feature", "properties": { "value": 0.0423 }, "geometry": { "type": "Point", "coordinates": [ 129.332031, 35.472477, 115.0 ] } },
{ "type": "Feature", "properties": { "value": 0.0244 }, "geometry": { "type": "Point", "coordinates": [ 129.32872, 35.473385, 115.0 ] } },
{ "type": "Feature", "properties": { "value": 0.6457 }, "geometry": { "type": "Point", "coordinates": [ 129.329819, 35.473385, 115.0 ] } },
{ "type": "Feature", "properties": { "value": 2.002 }, "geometry": { "type": "Point", "coordinates": [ 129.330933, 35.473381, 115.0 ] } },
{ "type": "Feature", "properties": { "value": 0.7688 }, "geometry": { "type": "Point", "coordinates": [ 129.332031, 35.473377, 115.0 ] } },
{ "type": "Feature", "properties": { "value": 0.0078 }, "geometry": { "type": "Point", "coordinates": [ 129.328735, 35.474289, 115.0 ] } },
{ "type": "Feature", "properties": { "value": 1.1322 }, "geometry": { "type": "Point", "coordinates": [ 129.329834, 35.474285, 115.0 ] } },
{ "type": "Feature", "properties": { "value": 6.2156 }, "geometry": { "type": "Point", "coordinates": [ 129.330933, 35.474281, 115.0 ] } },
{ "type": "Feature", "properties": { "value": 4.1369 }, "geometry": { "type": "Point", "coordinates": [ 129.332031, 35.474277, 115.0 ] } },
{ "type": "Feature", "properties": { "value": 0.3683 }, "geometry": { "type": "Point", "coordinates": [ 129.33313, 35.474274, 115.0 ] } },
{ "type": "Feature", "properties": { "value": 1.1786 }, "geometry": { "type": "Point", "coordinates": [ 129.329834, 35.475185, 115.0 ] } },
{ "type": "Feature", "properties": { "value": 9.5405 }, "geometry": { "type": "Point", "coordinates": [ 129.330933, 35.475182, 115.0 ] } },
{ "type": "Feature", "properties": { "value": 9.8297 }, "geometry": { "type": "Point", "coordinates": [ 129.332031, 35.475178, 115.0 ] } },
{ "type": "Feature", "properties": { "value": 1.6833 }, "geometry": { "type": "Point", "coordinates": [ 129.333145, 35.475178, 115.0 ] } },
{ "type": "Feature", "properties": { "value": 0.8252 }, "geometry": { "type": "Point", "coordinates": [ 129.329834, 35.476086, 115.0 ] } },
{ "type": "Feature", "properties": { "value": 9.9107 }, "geometry": { "type": "Point", "coordinates": [ 129.330933, 35.476086, 115.0 ] } },
{ "type": "Feature", "properties": { "value": 16.05 }, "geometry": { "type": "Point", "coordinates": [ 129.332047, 35.476082, 115.0 ] } },
{ "type": "Feature", "properties": { "value": 5.0437 }, "geometry": { "type": "Point", "coordinates": [ 129.333145, 35.476078, 115.0 ] } },
{ "type": "Feature", "properties": { "value": 0.3255 }, "geometry": { "type": "Point", "coordinates": [ 129.334244, 35.476074, 115.0 ] } },
{ "type": "Feature", "properties": { "value": 0.4803 }, "geometry": { "type": "Point", "coordinates": [ 129.329834, 35.47699, 115.0 ] } },
{ "type": "Feature", "properties": { "value": 7.3993 }, "geometry": { "type": "Point", "coordinates": [ 129.330948, 35.476986, 115.0 ] } },
{ "type": "Feature", "properties": { "value": 18.808 }, "geometry": { "type": "Point", "coordinates": [ 129.332047, 35.476982, 115.0 ] } },
{ "type": "Feature", "properties": { "value": 10.674 }, "geometry": { "type": "Point", "coordinates": [ 129.333145, 35.476978, 115.0 ] } },
{ "type": "Feature", "properties": { "value": 1.589 }, "geometry": { "type": "Point", "coordinates": [ 129.334244, 35.476974, 115.0 ] } },
{ "type": "Feature", "properties": { "value": 0.1656 }, "geometry": { "type": "Point", "coordinates": [ 129.329849, 35.47789, 115.0 ] } },
{ "type": "Feature", "properties": { "value": 4.3224 }, "geometry": { "type": "Point", "coordinates": [ 129.330948, 35.477886, 115.0 ] } },
{ "type": "Feature", "properties": { "value": 16.934 }, "geometry": { "type": "Point", "coordinates": [ 129.332047, 35.477882, 115.0 ] } },
{ "type": "Feature", "properties": { "value": 16.807 }, "geometry": { "type": "Point", "coordinates": [ 129.333145, 35.477879, 115.0 ] } },
{ "type": "Feature", "properties": { "value": 4.7955 }, "geometry": { "type": "Point", "coordinates": [ 129.334259, 35.477879, 115.0 ] } },
{ "type": "Feature", "properties": { "value": 0.3628 }, "geometry": { "type": "Point", "coordinates": [ 129.335358, 35.477875, 115.0 ] } },
{ "type": "Feature", "properties": { "value": 2.0937 }, "geometry": { "type": "Point", "coordinates": [ 129.330948, 35.478786, 115.0 ] } },
{ "type": "Feature", "properties": { "value": 12.582 }, "geometry": { "type": "Point", "coordinates": [ 129.332047, 35.478786, 115.0 ] } },
{ "type": "Feature", "properties": { "value": 20.845 }, "geometry": { "type": "Point", "coordinates": [ 129.33316, 35.478783, 115.0 ] } },
{ "type": "Feature", "properties": { "value": 10.56 }, "geometry": { "type": "Point", "coordinates": [ 129.334259, 35.478779, 115.0 ] } },
{ "type": "Feature", "properties": { "value": 1.7493 }, "geometry": { "type": "Point", "coordinates": [ 129.335358, 35.478775, 115.0 ] } },
{ "type": "Feature", "properties": { "value": 0.8134 }, "geometry": { "type": "Point", "coordinates": [ 129.330948, 35.479691, 115.0 ] } },
{ "type": "Feature", "properties": { "value": 7.5522 }, "geometry": { "type": "Point", "coordinates": [ 129.332062, 35.479687, 115.0 ] } },
{ "type": "Feature", "properties": { "value": 20.064 }, "geometry": { "type": "Point", "coordinates": [ 129.33316, 35.479683, 115.0 ] } },
{ "type": "Feature", "properties": { "value": 17.236 }, "geometry": { "type": "Point", "coordinates": [ 129.334259, 35.479679, 115.0 ] } },
{ "type": "Feature", "properties": { "value": 5.2459 }, "geometry": { "type": "Point", "coordinates": [ 129.335358, 35.479675, 115.0 ] } },
{ "type": "Feature", "properties": { "value": 0.6579 }, "geometry": { "type": "Point", "coordinates": [ 129.336456, 35.479675, 115.0 ] } },
{ "type": "Feature", "properties": { "value": 0.1984 }, "geometry": { "type": "Point", "coordinates": [ 129.330963, 35.480591, 115.0 ] } },
{ "type": "Feature", "properties": { "value": 3.6405 }, "geometry": { "type": "Point", "coordinates": [ 129.332062, 35.480587, 115.0 ] } },
{ "type": "Feature", "properties": { "value": 15.031 }, "geometry": { "type": "Point", "coordinates": [ 129.33316, 35.480583, 115.0 ] } },
{ "type": "Feature", "properties": { "value": 21.241 }, "geometry": { "type": "Point", "coordinates": [ 129.334259, 35.480579, 115.0 ] } },
{ "type": "Feature", "properties": { "value": 11.465 }, "geometry": { "type": "Point", "coordinates": [ 129.335358, 35.480579, 115.0 ] } },
{ "type": "Feature", "properties": { "value": 2.8848 }, "geometry": { "type": "Point", "coordinates": [ 129.336472, 35.480576, 115.0 ] } },
{ "type": "Feature", "properties": { "value": 0.3801 }, "geometry": { "type": "Point", "coordinates": [ 129.33757, 35.480572, 115.0 ] } },
{ "type": "Feature", "properties": { "value": 1.5151 }, "geometry": { "type": "Point", "coordinates": [ 129.332062, 35.481487, 115.0 ] } },
{ "type": "Feature", "properties": { "value": 9.2581 }, "geometry": { "type": "Point", "coordinates": [ 129.33316, 35.481487, 115.0 ] } },
{ "type": "Feature", "properties": { "value": 20.081 }, "geometry": { "type": "Point", "coordinates": [ 129.334259, 35.481483, 115.0 ] } },
{ "type": "Feature", "properties": { "value": 17.58 }, "geometry": { "type": "Point", "coordinates": [ 129.335373, 35.48148, 115.0 ] } },
{ "type": "Feature", "properties": { "value": 7.6288 }, "geometry": { "type": "Point", "coordinates": [ 129.336472, 35.481476, 115.0 ] } },
{ "type": "Feature", "properties": { "value": 1.9862 }, "geometry": { "type": "Point", "coordinates": [ 129.33757, 35.481472, 115.0 ] } },
{ "type": "Feature", "properties": { "value": 0.3008 }, "geometry": { "type": "Point", "coordinates": [ 129.338669, 35.481472, 115.0 ] } },
{ "type": "Feature", "properties": { "value": 0.5637 }, "geometry": { "type": "Point", "coordinates": [ 129.332062, 35.482391, 115.0 ] } },
{ "type": "Feature", "properties": { "value": 4.9153 }, "geometry": { "type": "Point", "coordinates": [ 129.333176, 35.482388, 115.0 ] } },
{ "type": "Feature", "properties": { "value": 14.864 }, "geometry": { "type": "Point", "coordinates": [ 129.334274, 35.482384, 115.0 ] } },
{ "type": "Feature", "properties": { "value": 19.5 }, "geometry": { "type": "Point", "coordinates": [ 129.335373, 35.48238, 115.0 ] } },
{ "type": "Feature", "properties": { "value": 13.062 }, "geometry": { "type": "Point", "coordinates": [ 129.336472, 35.482376, 115.0 ] } },
{ "type": "Feature", "properties": { "value": 5.3197 }, "geometry": { "type": "Point", "coordinates": [ 129.33757, 35.482376, 115.0 ] } },
{ "type": "Feature", "properties": { "value": 1.5098 }, "geometry": { "type": "Point", "coordinates": [ 129.338684, 35.482372, 115.0 ] } },
{ "type": "Feature", "properties": { "value": 0.2809 }, "geometry": { "type": "Point", "coordinates": [ 129.339783, 35.482368, 115.0 ] } },
{ "type": "Feature", "properties": { "value": 0.1802 }, "geometry": { "type": "Point", "coordinates": [ 129.332077, 35.483292, 115.0 ] } },
{ "type": "Feature", "properties": { "value": 2.4063 }, "geometry": { "type": "Point", "coordinates": [ 129.333176, 35.483288, 115.0 ] } },
{ "type": "Feature", "properties": { "value": 9.4006 }, "geometry": { "type": "Point", "coordinates": [ 129.334274, 35.483284, 115.0 ] } },
{ "type": "Feature", "properties": { "value": 17.062 }, "geometry": { "type": "Point", "coordinates": [ 129.335373, 35.48328, 115.0 ] } },
{ "type": "Feature", "properties": { "value": 16.482 }, "geometry": { "type": "Point", "coordinates": [ 129.336472, 35.48328, 115.0 ] } },
{ "type": "Feature", "properties": { "value": 9.839 }, "geometry": { "type": "Point", "coordinates": [ 129.337585, 35.483276, 115.0 ] } },
{ "type": "Feature", "properties": { "value": 4.1315 }, "geometry": { "type": "Point", "coordinates": [ 129.338684, 35.483273, 115.0 ] } },
{ "type": "Feature", "properties": { "value": 1.3116 }, "geometry": { "type": "Point", "coordinates": [ 129.339783, 35.483269, 115.0 ] } },
{ "type": "Feature", "properties": { "value": 0.3243 }, "geometry": { "type": "Point", "coordinates": [ 129.340881, 35.483265, 115.0 ] } },
{ "type": "Feature", "properties": { "value": 1.0742 }, "geometry": { "type": "Point", "coordinates": [ 129.333176, 35.484188, 115.0 ] } },
{ "type": "Feature", "properties": { "value": 5.2217 }, "geometry": { "type": "Point", "coordinates": [ 129.334274, 35.484188, 115.0 ] } },
{ "type": "Feature", "properties": { "value": 12.394 }, "geometry": { "type": "Point", "coordinates": [ 129.335373, 35.484184, 115.0 ] } },
{ "type": "Feature", "properties": { "value": 16.425 }, "geometry": { "type": "Point", "coordinates": [ 129.336487, 35.48418, 115.0 ] } },
{ "type": "Feature", "properties": { "value": 13.708 }, "geometry": { "type": "Point", "coordinates": [ 129.337585, 35.484177, 115.0 ] } },
{ "type": "Feature", "properties": { "value": 7.9895 }, "geometry": { "type": "Point", "coordinates": [ 129.338684, 35.484173, 115.0 ] } },
{ "type": "Feature", "properties": { "value": 3.5317 }, "geometry": { "type": "Point", "coordinates": [ 129.339783, 35.484173, 115.0 ] } },
{ "type": "Feature", "properties": { "value": 1.2687 }, "geometry": { "type": "Point", "coordinates": [ 129.340897, 35.484169, 115.0 ] } },
{ "type": "Feature", "properties": { "value": 0.3651 }, "geometry": { "type": "Point", "coordinates": [ 129.341995, 35.484165, 115.0 ] } },
{ "type": "Feature", "properties": { "value": 0.4271 }, "geometry": { "type": "Point", "coordinates": [ 129.333176, 35.485092, 115.0 ] } },
{ "type": "Feature", "properties": { "value": 2.5607 }, "geometry": { "type": "Point", "coordinates": [ 129.334274, 35.485088, 115.0 ] } },
{ "type": "Feature", "properties": { "value": 7.6734 }, "geometry": { "type": "Point", "coordinates": [ 129.335388, 35.485085, 115.0 ] } },
{ "type": "Feature", "properties": { "value": 13.4 }, "geometry": { "type": "Point", "coordinates": [ 129.336487, 35.485081, 115.0 ] } },
{ "type": "Feature", "properties": { "value": 15.008 }, "geometry": { "type": "Point", "coordinates": [ 129.337585, 35.485077, 115.0 ] } },
{ "type": "Feature", "properties": { "value": 11.733 }, "geometry": { "type": "Point", "coordinates": [ 129.338684, 35.485077, 115.0 ] } },
{ "type": "Feature", "properties": { "value": 6.8809 }, "geometry": { "type": "Point", "coordinates": [ 129.339798, 35.485073, 115.0 ] } },
{ "type": "Feature", "properties": { "value": 3.2454 }, "geometry": { "type": "Point", "coordinates": [ 129.340897, 35.485069, 115.0 ] } },
{ "type": "Feature", "properties": { "value": 1.3077 }, "geometry": { "type": "Point", "coordinates": [ 129.341995, 35.485065, 115.0 ] } },
{ "type": "Feature", "properties": { "value": 0.4505 }, "geometry": { "type": "Point", "coordinates": [ 129.343094, 35.485062, 115.0 ] } },
{ "type": "Feature", "properties": { "value": 0.0898 }, "geometry": { "type": "Point", "coordinates": [ 129.344193, 35.485062, 115.0 ] } },
{ "type": "Feature", "properties": { "value": 0.0687 }, "geometry": { "type": "Point", "coordinates": [ 129.333176, 35.485992, 115.0 ] } },
{ "type": "Feature", "properties": { "value": 1.1302 }, "geometry": { "type": "Point", "coordinates": [ 129.33429, 35.485989, 115.0 ] } },
{ "type": "Feature", "properties": { "value": 4.1791 }, "geometry": { "type": "Point", "coordinates": [ 129.335388, 35.485985, 115.0 ] } },
{ "type": "Feature", "properties": { "value": 9.2747 }, "geometry": { "type": "Point", "coordinates": [ 129.336487, 35.485981, 115.0 ] } },
{ "type": "Feature", "properties": { "value": 13.423 }, "geometry": { "type": "Point", "coordinates": [ 129.337585, 35.485981, 115.0 ] } },
{ "type": "Feature", "properties": { "value": 13.622 }, "geometry": { "type": "Point", "coordinates": [ 129.338699, 35.485977, 115.0 ] } },
{ "type": "Feature", "properties": { "value": 10.339 }, "geometry": { "type": "Point", "coordinates": [ 129.339798, 35.485973, 115.0 ] } },
{ "type": "Feature", "properties": { "value": 6.2588 }, "geometry": { "type": "Point", "coordinates": [ 129.340897, 35.48597, 115.0 ] } },
{ "type": "Feature", "properties": { "value": 3.1936 }, "geometry": { "type": "Point", "coordinates": [ 129.341995, 35.485966, 115.0 ] } },
{ "type": "Feature", "properties": { "value": 1.447 }, "geometry": { "type": "Point", "coordinates": [ 129.343094, 35.485966, 115.0 ] } },
{ "type": "Feature", "properties": { "value": 0.5943 }, "geometry": { "type": "Point", "coordinates": [ 129.344208, 35.485962, 115.0 ] } },
{ "type": "Feature", "properties": { "value": 0.2174 }, "geometry": { "type": "Point", "coordinates": [ 129.345306, 35.485958, 115.0 ] } },
{ "type": "Feature", "properties": { "value": 0.0078 }, "geometry": { "type": "Point", "coordinates": [ 129.346405, 35.485954, 115.0 ] } },
{ "type": "Feature", "properties": { "value": 0.4346 }, "geometry": { "type": "Point", "coordinates": [ 129.33429, 35.486889, 115.0 ] } },
{ "type": "Feature", "properties": { "value": 2.0442 }, "geometry": { "type": "Point", "coordinates": [ 129.335388, 35.486889, 115.0 ] } },
{ "type": "Feature", "properties": { "value": 5.5946 }, "geometry": { "type": "Point", "coordinates": [ 129.336487, 35.486885, 115.0 ] } },
{ "type": "Feature", "properties": { "value": 10.139 }, "geometry": { "type": "Point", "coordinates": [ 129.337601, 35.486881, 115.0 ] } },
{ "type": "Feature", "properties": { "value": 12.976 }, "geometry": { "type": "Point", "coordinates": [ 129.338699, 35.486877, 115.0 ] } },
{ "type": "Feature", "properties": { "value": 12.435 }, "geometry": { "type": "Point", "coordinates": [ 129.339798, 35.486874, 115.0 ] } },
{ "type": "Feature", "properties": { "value": 9.4319 }, "geometry": { "type": "Point", "coordinates": [ 129.340897, 35.486874, 115.0 ] } },
{ "type": "Feature", "properties": { "value": 5.9718 }, "geometry": { "type": "Point", "coordinates": [ 129.341995, 35.48687, 115.0 ] } },
{ "type": "Feature", "properties": { "value": 3.3173 }, "geometry": { "type": "Point", "coordinates": [ 129.343109, 35.486866, 115.0 ] } },
{ "type": "Feature", "properties": { "value": 1.6885 }, "geometry": { "type": "Point", "coordinates": [ 129.344208, 35.486862, 115.0 ] } },
{ "type": "Feature", "properties": { "value": 0.8067 }, "geometry": { "type": "Point", "coordinates": [ 129.345306, 35.486858, 115.0 ] } },
{ "type": "Feature", "properties": { "value": 0.3622 }, "geometry": { "type": "Point", "coordinates": [ 129.346405, 35.486855, 115.0 ] } },
{ "type": "Feature", "properties": { "value": 0.133 }, "geometry": { "type": "Point", "coordinates": [ 129.347519, 35.486855, 115.0 ] } },
{ "type": "Feature", "properties": { "value": 0.0047 }, "geometry": { "type": "Point", "coordinates": [ 129.379471, 35.486755, 115.0 ] } },
{ "type": "Feature", "properties": { "value": 0.0071 }, "geometry": { "type": "Point", "coordinates": [ 129.380569, 35.486752, 115.0 ] } },
{ "type": "Feature", "properties": { "value": 0.0074 }, "geometry": { "type": "Point", "coordinates": [ 129.381668, 35.486752, 115.0 ] } },
{ "type": "Feature", "properties": { "value": 0.1184 }, "geometry": { "type": "Point", "coordinates": [ 129.33429, 35.487793, 115.0 ] } },
{ "type": "Feature", "properties": { "value": 0.9018 }, "geometry": { "type": "Point", "coordinates": [ 129.335388, 35.487789, 115.0 ] } },
{ "type": "Feature", "properties": { "value": 2.9935 }, "geometry": { "type": "Point", "coordinates": [ 129.336502, 35.487785, 115.0 ] } },
{ "type": "Feature", "properties": { "value": 6.6219 }, "geometry": { "type": "Point", "coordinates": [ 129.337601, 35.487782, 115.0 ] } },
{ "type": "Feature", "properties": { "value": 10.436 }, "geometry": { "type": "Point", "coordinates": [ 129.338699, 35.487778, 115.0 ] } },
{ "type": "Feature", "properties": { "value": 12.333 }, "geometry": { "type": "Point", "coordinates": [ 129.339798, 35.487778, 115.0 ] } },
{ "type": "Feature", "properties": { "value": 11.496 }, "geometry": { "type": "Point", "coordinates": [ 129.340912, 35.487774, 115.0 ] } },
{ "type": "Feature", "properties": { "value": 8.889 }, "geometry": { "type": "Point", "coordinates": [ 129.34201, 35.48777, 115.0 ] } },
{ "type": "Feature", "properties": { "value": 5.9707 }, "geometry": { "type": "Point", "coordinates": [ 129.343109, 35.487766, 115.0 ] } },
{ "type": "Feature", "properties": { "value": 3.6221 }, "geometry": { "type": "Point", "coordinates": [ 129.344208, 35.487762, 115.0 ] } },
{ "type": "Feature", "properties": { "value": 2.0471 }, "geometry": { "type": "Point", "coordinates": [ 129.345306, 35.487759, 115.0 ] } },
{ "type": "Feature", "properties": { "value": 1.1022 }, "geometry": { "type": "Point", "coordinates": [ 129.34642, 35.487759, 115.0 ] } },
{ "type": "Feature", "properties": { "value": 0.5612 }, "geometry": { "type": "Point", "coordinates": [ 129.347519, 35.487755, 115.0 ] } },
{ "type": "Feature", "properties": { "value": 0.2641 }, "geometry": { "type": "Point", "coordinates": [ 129.348618, 35.487751, 115.0 ] } },
{ "type": "Feature", "properties": { "value": 0.1004 }, "geometry": { "type": "Point", "coordinates": [ 129.349716, 35.487747, 115.0 ] } },
{ "type": "Feature", "properties": { "value": 0.021 }, "geometry": { "type": "Point", "coordinates": [ 129.377274, 35.487663, 115.0 ] } },
{ "type": "Feature", "properties": { "value": 0.0269 }, "geometry": { "type": "Point", "coordinates": [ 129.378372, 35.487663, 115.0 ] } },
{ "type": "Feature", "properties": { "value": 0.0307 }, "geometry": { "type": "Point", "coordinates": [ 129.379471, 35.487659, 115.0 ] } },
{ "type": "Feature", "properties": { "value": 0.0315 }, "geometry": { "type": "Point", "coordinates": [ 129.380569, 35.487656, 115.0 ] } },
{ "type": "Feature", "properties": { "value": 0.0294 }, "geometry": { "type": "Point", "coordinates": [ 129.381683, 35.487652, 115.0 ] } },
{ "type": "Feature", "properties": { "value": 0.337 }, "geometry": { "type": "Point", "coordinates": [ 129.335403, 35.488689, 115.0 ] } },
{ "type": "Feature", "properties": { "value": 1.4272 }, "geometry": { "type": "Point", "coordinates": [ 129.336502, 35.488686, 115.0 ] } },
{ "type": "Feature", "properties": { "value": 3.7892 }, "geometry": { "type": "Point", "coordinates": [ 129.337601, 35.488682, 115.0 ] } },
{ "type": "Feature", "properties": { "value": 7.1845 }, "geometry": { "type": "Point", "coordinates": [ 129.338699, 35.488682, 115.0 ] } },
{ "type": "Feature", "properties": { "value": 10.272 }, "geometry": { "type": "Point", "coordinates": [ 129.339813, 35.488678, 115.0 ] } },
{ "type": "Feature", "properties": { "value": 11.587 }, "geometry": { "type": "Point", "coordinates": [ 129.340912, 35.488674, 115.0 ] } },
{ "type": "Feature", "properties": { "value": 10.789 }, "geometry": { "type": "Point", "coordinates": [ 129.34201, 35.48867, 115.0 ] } },
{ "type": "Feature", "properties": { "value": 8.654 }, "geometry": { "type": "Point", "coordinates": [ 129.343109, 35.488667, 115.0 ] } },
{ "type": "Feature", "properties": { "value": 6.2027 }, "geometry": { "type": "Point", "coordinates": [ 129.344208, 35.488667, 115.0 ] } },
{ "type": "Feature", "properties": { "value": 4.0758 }, "geometry": { "type": "Point", "coordinates": [ 129.345322, 35.488663, 115.0 ] } },
{ "type": "Feature", "properties": { "value": 2.5099 }, "geometry": { "type": "Point", "coordinates": [ 129.34642, 35.488659, 115.0 ] } },
{ "type": "Feature", "properties": { "value": 1.4659 }, "geometry": { "type": "Point", "coordinates": [ 129.347519, 35.488655, 115.0 ] } },
{ "type": "Feature", "properties": { "value": 0.813 }, "geometry": { "type": "Point", "coordinates": [ 129.348618, 35.488651, 115.0 ] } },
{ "type": "Feature", "properties": { "value": 0.4426 }, "geometry": { "type": "Point", "coordinates": [ 129.349731, 35.488647, 115.0 ] } },
{ "type": "Feature", "properties": { "value": 0.2268 }, "geometry": { "type": "Point", "coordinates": [ 129.35083, 35.488647, 115.0 ] } },
{ "type": "Feature", "properties": { "value": 0.103 }, "geometry": { "type": "Point", "coordinates": [ 129.351929, 35.488644, 115.0 ] } },
{ "type": "Feature", "properties": { "value": 0.0052 }, "geometry": { "type": "Point", "coordinates": [ 129.353027, 35.48864, 115.0 ] } },
{ "type": "Feature", "properties": { "value": 0.0183 }, "geometry": { "type": "Point", "coordinates": [ 129.373962, 35.488575, 115.0 ] } },
{ "type": "Feature", "properties": { "value": 0.0452 }, "geometry": { "type": "Point", "coordinates": [ 129.375076, 35.488571, 115.0 ] } },
{ "type": "Feature", "properties": { "value": 0.0578 }, "geometry": { "type": "Point", "coordinates": [ 129.376175, 35.488571, 115.0 ] } },
{ "type": "Feature", "properties": { "value": 0.0684 }, "geometry": { "type": "Point", "coordinates": [ 129.377274, 35.488567, 115.0 ] } },
{ "type": "Feature", "properties": { "value": 0.0757 }, "geometry": { "type": "Point", "coordinates": [ 129.378372, 35.488564, 115.0 ] } },
{ "type": "Feature", "properties": { "value": 0.0794 }, "geometry": { "type": "Point", "coordinates": [ 129.379471, 35.48856, 115.0 ] } },
{ "type": "Feature", "properties": { "value": 0.0786 }, "geometry": { "type": "Point", "coordinates": [ 129.380585, 35.488556, 115.0 ] } },
{ "type": "Feature", "properties": { "value": 0.0723 }, "geometry": { "type": "Point", "coordinates": [ 129.381683, 35.488552, 115.0 ] } },
{ "type": "Feature", "properties": { "value": 0.0471 }, "geometry": { "type": "Point", "coordinates": [ 129.335403, 35.48959, 115.0 ] } },
{ "type": "Feature", "properties": { "value": 0.6016 }, "geometry": { "type": "Point", "coordinates": [ 129.336502, 35.48959, 115.0 ] } },
{ "type": "Feature", "properties": { "value": 1.9107 }, "geometry": { "type": "Point", "coordinates": [ 129.337601, 35.489586, 115.0 ] } },
{ "type": "Feature", "properties": { "value": 4.2999 }, "geometry": { "type": "Point", "coordinates": [ 129.338715, 35.489582, 115.0 ] } },
{ "type": "Feature", "properties": { "value": 7.3095 }, "geometry": { "type": "Point", "coordinates": [ 129.339813, 35.489578, 115.0 ] } },
{ "type": "Feature", "properties": { "value": 9.8296 }, "geometry": { "type": "Point", "coordinates": [ 129.340912, 35.489574, 115.0 ] } },
{ "type": "Feature", "properties": { "value": 10.891 }, "geometry": { "type": "Point", "coordinates": [ 129.34201, 35.489571, 115.0 ] } },
{ "type": "Feature", "properties": { "value": 10.319 }, "geometry": { "type": "Point", "coordinates": [ 129.343109, 35.489571, 115.0 ] } },
{ "type": "Feature", "properties": { "value": 8.6371 }, "geometry": { "type": "Point", "coordinates": [ 129.344223, 35.489567, 115.0 ] } },
{ "type": "Feature", "properties": { "value": 6.5536 }, "geometry": { "type": "Point", "coordinates": [ 129.345322, 35.489563, 115.0 ] } },
{ "type": "Feature", "properties": { "value": 4.5972 }, "geometry": { "type": "Point", "coordinates": [ 129.34642, 35.489559, 115.0 ] } },
{ "type": "Feature", "properties": { "value": 3.0204 }, "geometry": { "type": "Point", "coordinates": [ 129.347519, 35.489555, 115.0 ] } },
{ "type": "Feature", "properties": { "value": 1.8929 }, "geometry": { "type": "Point", "coordinates": [ 129.348633, 35.489555, 115.0 ] } },
{ "type": "Feature", "properties": { "value": 1.1547 }, "geometry": { "type": "Point", "coordinates": [ 129.349731, 35.489552, 115.0 ] } },
{ "type": "Feature", "properties": { "value": 0.6923 }, "geometry": { "type": "Point", "coordinates": [ 129.35083, 35.489548, 115.0 ] } },
{ "type": "Feature", "properties": { "value": 0.4121 }, "geometry": { "type": "Point", "coordinates": [ 129.351929, 35.489544, 115.0 ] } },
{ "type": "Feature", "properties": { "value": 0.2442 }, "geometry": { "type": "Point", "coordinates": [ 129.353027, 35.48954, 115.0 ] } },
{ "type": "Feature", "properties": { "value": 0.1433 }, "geometry": { "type": "Point", "coordinates": [ 129.354141, 35.489536, 115.0 ] } },
{ "type": "Feature", "properties": { "value": 0.0695 }, "geometry": { "type": "Point", "coordinates": [ 129.35524, 35.489532, 115.0 ] } },
{ "type": "Feature", "properties": { "value": 0.0152 }, "geometry": { "type": "Point", "coordinates": [ 129.356339, 35.489532, 115.0 ] } },
{ "type": "Feature", "properties": { "value": 0.0202 }, "geometry": { "type": "Point", "coordinates": [ 129.370667, 35.489487, 115.0 ] } },
{ "type": "Feature", "properties": { "value": 0.0506 }, "geometry": { "type": "Point", "coordinates": [ 129.371765, 35.489483, 115.0 ] } },
{ "type": "Feature", "properties": { "value": 0.0764 }, "geometry": { "type": "Point", "coordinates": [ 129.372864, 35.489483, 115.0 ] } },
{ "type": "Feature", "properties": { "value": 0.1006 }, "geometry": { "type": "Point", "coordinates": [ 129.373978, 35.489479, 115.0 ] } },
{ "type": "Feature", "properties": { "value": 0.1202 }, "geometry": { "type": "Point", "coordinates": [ 129.375076, 35.489475, 115.0 ] } },
{ "type": "Feature", "properties": { "value": 0.141 }, "geometry": { "type": "Point", "coordinates": [ 129.376175, 35.489471, 115.0 ] } },
{ "type": "Feature", "properties": { "value": 0.1566 }, "geometry": { "type": "Point", "coordinates": [ 129.377274, 35.489468, 115.0 ] } },
{ "type": "Feature", "properties": { "value": 0.1666 }, "geometry": { "type": "Point", "coordinates": [ 129.378387, 35.489464, 115.0 ] } },
{ "type": "Feature", "properties": { "value": 0.1685 }, "geometry": { "type": "Point", "coordinates": [ 129.379486, 35.48946, 115.0 ] } },
{ "type": "Feature", "properties": { "value": 0.1621 }, "geometry": { "type": "Point", "coordinates": [ 129.380585, 35.489456, 115.0 ] } },
{ "type": "Feature", "properties": { "value": 0.1485 }, "geometry": { "type": "Point", "coordinates": [ 129.381683, 35.489452, 115.0 ] } },
{ "type": "Feature", "properties": { "value": 0.2052 }, "geometry": { "type": "Point", "coordinates": [ 129.336502, 35.49049, 115.0 ] } },
{ "type": "Feature", "properties": { "value": 0.8483 }, "geometry": { "type": "Point", "coordinates": [ 129.337616, 35.490486, 115.0 ] } },
{ "type": "Feature", "properties": { "value": 2.2533 }, "geometry": { "type": "Point", "coordinates": [ 129.338715, 35.490482, 115.0 ] } },
{ "type": "Feature", "properties": { "value": 4.5076 }, "geometry": { "type": "Point", "coordinates": [ 129.339813, 35.490479, 115.0 ] } },
{ "type": "Feature", "properties": { "value": 7.1322 }, "geometry": { "type": "Point", "coordinates": [ 129.340912, 35.490479, 115.0 ] } },
{ "type": "Feature", "properties": { "value": 9.2856 }, "geometry": { "type": "Point", "coordinates": [ 129.34201, 35.490475, 115.0 ] } },
{ "type": "Feature", "properties": { "value": 10.291 }, "geometry": { "type": "Point", "coordinates": [ 129.343124, 35.490471, 115.0 ] } },
{ "type": "Feature", "properties": { "value": 9.9894 }, "geometry": { "type": "Point", "coordinates": [ 129.344223, 35.490467, 115.0 ] } },
{ "type": "Feature", "properties": { "value": 8.7016 }, "geometry": { "type": "Point", "coordinates": [ 129.345322, 35.490463, 115.0 ] } },
{ "type": "Feature", "properties": { "value": 6.9148 }, "geometry": { "type": "Point", "coordinates": [ 129.34642, 35.490459, 115.0 ] } },
{ "type": "Feature", "properties": { "value": 5.1124 }, "geometry": { "type": "Point", "coordinates": [ 129.347534, 35.490459, 115.0 ] } },
{ "type": "Feature", "properties": { "value": 3.5767 }, "geometry": { "type": "Point", "coordinates": [ 129.348633, 35.490456, 115.0 ] } },
{ "type": "Feature", "properties": { "value": 2.4141 }, "geometry": { "type": "Point", "coordinates": [ 129.349731, 35.490452, 115.0 ] } },
{ "type": "Feature", "properties": { "value": 1.6032 }, "geometry": { "type": "Point", "coordinates": [ 129.35083, 35.490448, 115.0 ] } },
{ "type": "Feature", "properties": { "value": 1.0559 }, "geometry": { "type": "Point", "coordinates": [ 129.351929, 35.490444, 115.0 ] } },
{ "type": "Feature", "properties": { "value": 0.7011 }, "geometry": { "type": "Point", "coordinates": [ 129.353043, 35.49044, 115.0 ] } },
{ "type": "Feature", "properties": { "value": 0.4708 }, "geometry": { "type": "Point", "coordinates": [ 129.354141, 35.49044, 115.0 ] } },
{ "type": "Feature", "properties": { "value": 0.3196 }, "geometry": { "type": "Point", "coordinates": [ 129.35524, 35.490437, 115.0 ] } },
{ "type": "Feature", "properties": { "value": 0.2277 }, "geometry": { "type": "Point", "coordinates": [ 129.356339, 35.490433, 115.0 ] } },
{ "type": "Feature", "properties": { "value": 0.1606 }, "geometry": { "type": "Point", "coordinates": [ 129.357452, 35.490429, 115.0 ] } },
{ "type": "Feature", "properties": { "value": 0.1165 }, "geometry": { "type": "Point", "coordinates": [ 129.358551, 35.490425, 115.0 ] } },
{ "type": "Feature", "properties": { "value": 0.0856 }, "geometry": { "type": "Point", "coordinates": [ 129.35965, 35.490421, 115.0 ] } },
{ "type": "Feature", "properties": { "value": 0.0645 }, "geometry": { "type": "Point", "coordinates": [ 129.360748, 35.490417, 115.0 ] } },
{ "type": "Feature", "properties": { "value": 0.0494 }, "geometry": { "type": "Point", "coordinates": [ 129.361847, 35.490417, 115.0 ] } },
{ "type": "Feature", "properties": { "value": 0.0402 }, "geometry": { "type": "Point", "coordinates": [ 129.362961, 35.490414, 115.0 ] } },
{ "type": "Feature", "properties": { "value": 0.0369 }, "geometry": { "type": "Point", "coordinates": [ 129.364059, 35.49041, 115.0 ] } },
{ "type": "Feature", "properties": { "value": 0.0421 }, "geometry": { "type": "Point", "coordinates": [ 129.365158, 35.490406, 115.0 ] } },
{ "type": "Feature", "properties": { "value": 0.0498 }, "geometry": { "type": "Point", "coordinates": [ 129.366257, 35.490402, 115.0 ] } },
{ "type": "Feature", "properties": { "value": 0.0588 }, "geometry": { "type": "Point", "coordinates": [ 129.367371, 35.490398, 115.0 ] } },
{ "type": "Feature", "properties": { "value": 0.0746 }, "geometry": { "type": "Point", "coordinates": [ 129.368469, 35.490395, 115.0 ] } },
{ "type": "Feature", "properties": { "value": 0.0944 }, "geometry": { "type": "Point", "coordinates": [ 129.369568, 35.490391, 115.0 ] } },
{ "type": "Feature", "properties": { "value": 0.1198 }, "geometry": { "type": "Point", "coordinates": [ 129.370667, 35.490391, 115.0 ] } },
{ "type": "Feature", "properties": { "value": 0.1513 }, "geometry": { "type": "Point", "coordinates": [ 129.371765, 35.490387, 115.0 ] } },
{ "type": "Feature", "properties": { "value": 0.1857 }, "geometry": { "type": "Point", "coordinates": [ 129.372879, 35.490383, 115.0 ] } },
{ "type": "Feature", "properties": { "value": 0.2196 }, "geometry": { "type": "Point", "coordinates": [ 129.373978, 35.490379, 115.0 ] } },
{ "type": "Feature", "properties": { "value": 0.2536 }, "geometry": { "type": "Point", "coordinates": [ 129.375076, 35.490376, 115.0 ] } },
{ "type": "Feature", "properties": { "value": 0.2844 }, "geometry": { "type": "Point", "coordinates": [ 129.376175, 35.490372, 115.0 ] } },
{ "type": "Feature", "properties": { "value": 0.3083 }, "geometry": { "type": "Point", "coordinates": [ 129.377289, 35.490368, 115.0 ] } },
{ "type": "Feature", "properties": { "value": 0.3216 }, "geometry": { "type": "Point", "coordinates": [ 129.378387, 35.490364, 115.0 ] } },
{ "type": "Feature", "properties": { "value": 0.3206 }, "geometry": { "type": "Point", "coordinates": [ 129.379486, 35.49036, 115.0 ] } },
{ "type": "Feature", "properties": { "value": 0.3059 }, "geometry": { "type": "Point", "coordinates": [ 129.380585, 35.490356, 115.0 ] } },
{ "type": "Feature", "properties": { "value": 0.2755 }, "geometry": { "type": "Point", "coordinates": [ 129.381683, 35.490356, 115.0 ] } },
{ "type": "Feature", "properties": { "value": 0.3232 }, "geometry": { "type": "Point", "coordinates": [ 129.337616, 35.491386, 115.0 ] } },
{ "type": "Feature", "properties": { "value": 1.0391 }, "geometry": { "type": "Point", "coordinates": [ 129.338715, 35.491383, 115.0 ] } },
{ "type": "Feature", "properties": { "value": 2.425 }, "geometry": { "type": "Point", "coordinates": [ 129.339813, 35.491383, 115.0 ] } },
{ "type": "Feature", "properties": { "value": 4.4718 }, "geometry": { "type": "Point", "coordinates": [ 129.340927, 35.491379, 115.0 ] } },
{ "type": "Feature", "properties": { "value": 6.7839 }, "geometry": { "type": "Point", "coordinates": [ 129.342026, 35.491375, 115.0 ] } },
{ "type": "Feature", "properties": { "value": 8.7085 }, "geometry": { "type": "Point", "coordinates": [ 129.343124, 35.491371, 115.0 ] } },
{ "type": "Feature", "properties": { "value": 9.7215 }, "geometry": { "type": "Point", "coordinates": [ 129.344223, 35.491367, 115.0 ] } },
{ "type": "Feature", "properties": { "value": 9.6517 }, "geometry": { "type": "Point", "coordinates": [ 129.345322, 35.491367, 115.0 ] } },
{ "type": "Feature", "properties": { "value": 8.6867 }, "geometry": { "type": "Point", "coordinates": [ 129.346436, 35.491364, 115.0 ] } },
{ "type": "Feature", "properties": { "value": 7.2101 }, "geometry": { "type": "Point", "coordinates": [ 129.347534, 35.49136, 115.0 ] } },
{ "type": "Feature", "properties": { "value": 5.6115 }, "geometry": { "type": "Point", "coordinates": [ 129.348633, 35.491356, 115.0 ] } },
{ "type": "Feature", "properties": { "value": 4.1894 }, "geometry": { "type": "Point", "coordinates": [ 129.349731, 35.491352, 115.0 ] } },
{ "type": "Feature", "properties": { "value": 3.047 }, "geometry": { "type": "Point", "coordinates": [ 129.350845, 35.491348, 115.0 ] } },
{ "type": "Feature", "properties": { "value": 2.1893 }, "geometry": { "type": "Point", "coordinates": [ 129.351944, 35.491348, 115.0 ] } },
{ "type": "Feature", "properties": { "value": 1.5634 }, "geometry": { "type": "Point", "coordinates": [ 129.353043, 35.491344, 115.0 ] } },
{ "type": "Feature", "properties": { "value": 1.1258 }, "geometry": { "type": "Point", "coordinates": [ 129.354141, 35.491341, 115.0 ] } },
{ "type": "Feature", "properties": { "value": 0.8224 }, "geometry": { "type": "Point", "coordinates": [ 129.35524, 35.491337, 115.0 ] } },
{ "type": "Feature", "properties": { "value": 0.6129 }, "geometry": { "type": "Point", "coordinates": [ 129.356354, 35.491333, 115.0 ] } },
{ "type": "Feature", "properties": { "value": 0.4685 }, "geometry": { "type": "Point", "coordinates": [ 129.357452, 35.491329, 115.0 ] } },
{ "type": "Feature", "properties": { "value": 0.3674 }, "geometry": { "type": "Point", "coordinates": [ 129.358551, 35.491325, 115.0 ] } },
{ "type": "Feature", "properties": { "value": 0.2965 }, "geometry": { "type": "Point", "coordinates": [ 129.35965, 35.491325, 115.0 ] } },
{ "type": "Feature", "properties": { "value": 0.2455 }, "geometry": { "type": "Point", "coordinates": [ 129.360764, 35.491322, 115.0 ] } },
{ "type": "Feature", "properties": { "value": 0.2136 }, "geometry": { "type": "Point", "coordinates": [ 129.361862, 35.491318, 115.0 ] } },
{ "type": "Feature", "properties": { "value": 0.1905 }, "geometry": { "type": "Point", "coordinates": [ 129.362961, 35.491314, 115.0 ] } },
{ "type": "Feature", "properties": { "value": 0.1795 }, "geometry": { "type": "Point", "coordinates": [ 129.364059, 35.49131, 115.0 ] } },
{ "type": "Feature", "properties": { "value": 0.1747 }, "geometry": { "type": "Point", "coordinates": [ 129.365158, 35.491306, 115.0 ] } },
{ "type": "Feature", "properties": { "value": 0.1789 }, "geometry": { "type": "Point", "coordinates": [ 129.366272, 35.491302, 115.0 ] } },
{ "type": "Feature", "properties": { "value": 0.1908 }, "geometry": { "type": "Point", "coordinates": [ 129.367371, 35.491299, 115.0 ] } },
{ "type": "Feature", "properties": { "value": 0.2115 }, "geometry": { "type": "Point", "coordinates": [ 129.368469, 35.491299, 115.0 ] } },
{ "type": "Feature", "properties": { "value": 0.2417 }, "geometry": { "type": "Point", "coordinates": [ 129.369568, 35.491295, 115.0 ] } },
{ "type": "Feature", "properties": { "value": 0.2796 }, "geometry": { "type": "Point", "coordinates": [ 129.370682, 35.491291, 115.0 ] } },
{ "type": "Feature", "properties": { "value": 0.3282 }, "geometry": { "type": "Point", "coordinates": [ 129.37178, 35.491287, 115.0 ] } },
{ "type": "Feature", "properties": { "value": 0.3766 }, "geometry": { "type": "Point", "coordinates": [ 129.372879, 35.491283, 115.0 ] } },
{ "type": "Feature", "properties": { "value": 0.4301 }, "geometry": { "type": "Point", "coordinates": [ 129.373978, 35.49128, 115.0 ] } },
{ "type": "Feature", "properties": { "value": 0.4802 }, "geometry": { "type": "Point", "coordinates": [ 129.375076, 35.491276, 115.0 ] } },
{ "type": "Feature", "properties": { "value": 0.5256 }, "geometry": { "type": "Point", "coordinates": [ 129.37619, 35.491272, 115.0 ] } },
{ "type": "Feature", "properties": { "value": 0.5566 }, "geometry": { "type": "Point", "coordinates": [ 129.377289, 35.491268, 115.0 ] } },
{ "type": "Feature", "properties": { "value": 0.57 }, "geometry": { "type": "Point", "coordinates": [ 129.378387, 35.491268, 115.0 ] } },
{ "type": "Feature", "properties": { "value": 0.5598 }, "geometry": { "type": "Point", "coordinates": [ 129.379486, 35.491264, 115.0 ] } },
{ "type": "Feature", "properties": { "value": 0.526 }, "geometry": { "type": "Point", "coordinates": [ 129.3806, 35.491261, 115.0 ] } },
{ "type": "Feature", "properties": { "value": 0.4707 }, "geometry": { "type": "Point", "coordinates": [ 129.381699, 35.491257, 115.0 ] } },
{ "type": "Feature", "properties": { "value": 0.0703 }, "geometry": { "type": "Point", "coordinates": [ 129.337616, 35.49229, 115.0 ] } },
{ "type": "Feature", "properties": { "value": 0.4114 }, "geometry": { "type": "Point", "coordinates": [ 129.338715, 35.492287, 115.0 ] } },
{ "type": "Feature", "properties": { "value": 1.144 }, "geometry": { "type": "Point", "coordinates": [ 129.339828, 35.492283, 115.0 ] } },
{ "type": "Feature", "properties": { "value": 2.4502 }, "geometry": { "type": "Point", "coordinates": [ 129.340927, 35.492279, 115.0 ] } },
{ "type": "Feature", "properties": { "value": 4.2789 }, "geometry": { "type": "Point", "coordinates": [ 129.342026, 35.492275, 115.0 ] } },
{ "type": "Feature", "properties": { "value": 6.3197 }, "geometry": { "type": "Point", "coordinates": [ 129.343124, 35.492271, 115.0 ] } },
{ "type": "Feature", "properties": { "value": 8.0582 }, "geometry": { "type": "Point", "coordinates": [ 129.344223, 35.492271, 115.0 ] } },
{ "type": "Feature", "properties": { "value": 9.0733 }, "geometry": { "type": "Point", "coordinates": [ 129.345337, 35.492268, 115.0 ] } },
{ "type": "Feature", "properties": { "value": 9.2006 }, "geometry": { "type": "Point", "coordinates": [ 129.346436, 35.492264, 115.0 ] } },
{ "type": "Feature", "properties": { "value": 8.5481 }, "geometry": { "type": "Point", "coordinates": [ 129.347534, 35.49226, 115.0 ] } },
{ "type": "Feature", "properties": { "value": 7.4126 }, "geometry": { "type": "Point", "coordinates": [ 129.348633, 35.492256, 115.0 ] } },
{ "type": "Feature", "properties": { "value": 6.1024 }, "geometry": { "type": "Point", "coordinates": [ 129.349747, 35.492252, 115.0 ] } },
{ "type": "Feature", "properties": { "value": 4.8573 }, "geometry": { "type": "Point", "coordinates": [ 129.350845, 35.492252, 115.0 ] } },
{ "type": "Feature", "properties": { "value": 3.779 }, "geometry": { "type": "Point", "coordinates": [ 129.351944, 35.492249, 115.0 ] } },
{ "type": "Feature", "properties": { "value": 2.9047 }, "geometry": { "type": "Point", "coordinates": [ 129.353043, 35.492245, 115.0 ] } },
{ "type": "Feature", "properties": { "value": 2.2266 }, "geometry": { "type": "Point", "coordinates": [ 129.354141, 35.492241, 115.0 ] } },
{ "type": "Feature", "properties": { "value": 1.7148 }, "geometry": { "type": "Point", "coordinates": [ 129.355255, 35.492237, 115.0 ] } },
{ "type": "Feature", "properties": { "value": 1.3391 }, "geometry": { "type": "Point", "coordinates": [ 129.356354, 35.492233, 115.0 ] } },
{ "type": "Feature", "properties": { "value": 1.0627 }, "geometry": { "type": "Point", "coordinates": [ 129.357452, 35.492233, 115.0 ] } },
{ "type": "Feature", "properties": { "value": 0.8598 }, "geometry": { "type": "Point", "coordinates": [ 129.358551, 35.492229, 115.0 ] } },
{ "type": "Feature", "properties": { "value": 0.7113 }, "geometry": { "type": "Point", "coordinates": [ 129.359665, 35.492226, 115.0 ] } },
{ "type": "Feature", "properties": { "value": 0.6038 }, "geometry": { "type": "Point", "coordinates": [ 129.360764, 35.492222, 115.0 ] } },
{ "type": "Feature", "properties": { "value": 0.5272 }, "geometry": { "type": "Point", "coordinates": [ 129.361862, 35.492218, 115.0 ] } },
{ "type": "Feature", "properties": { "value": 0.474 }, "geometry": { "type": "Point", "coordinates": [ 129.362961, 35.492214, 115.0 ] } },
{ "type": "Feature", "properties": { "value": 0.4413 }, "geometry": { "type": "Point", "coordinates": [ 129.364059, 35.49221, 115.0 ] } },
{ "type": "Feature", "properties": { "value": 0.4217 }, "geometry": { "type": "Point", "coordinates": [ 129.365173, 35.49221, 115.0 ] } },
{ "type": "Feature", "properties": { "value": 0.42 }, "geometry": { "type": "Point", "coordinates": [ 129.366272, 35.492207, 115.0 ] } },
{ "type": "Feature", "properties": { "value": 0.4356 }, "geometry": { "type": "Point", "coordinates": [ 129.367371, 35.492203, 115.0 ] } },
{ "type": "Feature", "properties": { "value": 0.4614 }, "geometry": { "type": "Point", "coordinates": [ 129.368469, 35.492199, 115.0 ] } },
{ "type": "Feature", "properties": { "value": 0.5019 }, "geometry": { "type": "Point", "coordinates": [ 129.369583, 35.492195, 115.0 ] } },
{ "type": "Feature", "properties": { "value": 0.5563 }, "geometry": { "type": "Point", "coordinates": [ 129.370682, 35.492191, 115.0 ] } },
{ "type": "Feature", "properties": { "value": 0.6241 }, "geometry": { "type": "Point", "coordinates": [ 129.37178, 35.492188, 115.0 ] } },
{ "type": "Feature", "properties": { "value": 0.694 }, "geometry": { "type": "Point", "coordinates": [ 129.372879, 35.492184, 115.0 ] } },
{ "type": "Feature", "properties": { "value": 0.7696 }, "geometry": { "type": "Point", "coordinates": [ 129.373978, 35.49218, 115.0 ] } },
{ "type": "Feature", "properties": { "value": 0.8377 }, "geometry": { "type": "Point", "coordinates": [ 129.375092, 35.49218, 115.0 ] } },
{ "type": "Feature", "properties": { "value": 0.8959 }, "geometry": { "type": "Point", "coordinates": [ 129.37619, 35.492176, 115.0 ] } },
{ "type": "Feature", "properties": { "value": 0.93 }, "geometry": { "type": "Point", "coordinates": [ 129.377289, 35.492172, 115.0 ] } },
{ "type": "Feature", "properties": { "value": 0.936 }, "geometry": { "type": "Point", "coordinates": [ 129.378387, 35.492168, 115.0 ] } },
{ "type": "Feature", "properties": { "value": 0.906 }, "geometry": { "type": "Point", "coordinates": [ 129.379501, 35.492165, 115.0 ] } },
{ "type": "Feature", "properties": { "value": 0.8415 }, "geometry": { "type": "Point", "coordinates": [ 129.3806, 35.492161, 115.0 ] } },
{ "type": "Feature", "properties": { "value": 0.7446 }, "geometry": { "type": "Point", "coordinates": [ 129.381699, 35.492157, 115.0 ] } },
{ "type": "Feature", "properties": { "value": 0.1166 }, "geometry": { "type": "Point", "coordinates": [ 129.33873, 35.493187, 115.0 ] } },
{ "type": "Feature", "properties": { "value": 0.4664 }, "geometry": { "type": "Point", "coordinates": [ 129.339828, 35.493183, 115.0 ] } },
{ "type": "Feature", "properties": { "value": 1.1784 }, "geometry": { "type": "Point", "coordinates": [ 129.340927, 35.493179, 115.0 ] } },
{ "type": "Feature", "properties": { "value": 2.3676 }, "geometry": { "type": "Point", "coordinates": [ 129.342026, 35.493179, 115.0 ] } },
{ "type": "Feature", "properties": { "value": 3.9861 }, "geometry": { "type": "Point", "coordinates": [ 129.343124, 35.493176, 115.0 ] } },
{ "type": "Feature", "properties": { "value": 5.7654 }, "geometry": { "type": "Point", "coordinates": [ 129.344238, 35.493172, 115.0 ] } },
{ "type": "Feature", "properties": { "value": 7.3264 }, "geometry": { "type": "Point", "coordinates": [ 129.345337, 35.493168, 115.0 ] } },
{ "type": "Feature", "properties": { "value": 8.3296 }, "geometry": { "type": "Point", "coordinates": [ 129.346436, 35.493164, 115.0 ] } },
{ "type": "Feature", "properties": { "value": 8.6393 }, "geometry": { "type": "Point", "coordinates": [ 129.347534, 35.49316, 115.0 ] } },
{ "type": "Feature", "properties": { "value": 8.3188 }, "geometry": { "type": "Point", "coordinates": [ 129.348648, 35.49316, 115.0 ] } },
{ "type": "Feature", "properties": { "value": 7.567 }, "geometry": { "type": "Point", "coordinates": [ 129.349747, 35.493156, 115.0 ] } },
{ "type": "Feature", "properties": { "value": 6.5769 }, "geometry": { "type": "Point", "coordinates": [ 129.350845, 35.493153, 115.0 ] } },
{ "type": "Feature", "properties": { "value": 5.5377 }, "geometry": { "type": "Point", "coordinates": [ 129.351944, 35.493149, 115.0 ] } },
{ "type": "Feature", "properties": { "value": 4.5645 }, "geometry": { "type": "Point", "coordinates": [ 129.353043, 35.493145, 115.0 ] } },
{ "type": "Feature", "properties": { "value": 3.7232 }, "geometry": { "type": "Point", "coordinates": [ 129.354156, 35.493141, 115.0 ] } },
{ "type": "Feature", "properties": { "value": 3.0277 }, "geometry": { "type": "Point", "coordinates": [ 129.355255, 35.493141, 115.0 ] } },
{ "type": "Feature", "properties": { "value": 2.4679 }, "geometry": { "type": "Point", "coordinates": [ 129.356354, 35.493137, 115.0 ] } },
{ "type": "Feature", "properties": { "value": 2.0304 }, "geometry": { "type": "Point", "coordinates": [ 129.357452, 35.493134, 115.0 ] } },
{ "type": "Feature", "properties": { "value": 1.6903 }, "geometry": { "type": "Point", "coordinates": [ 129.358566, 35.49313, 115.0 ] } },
{ "type": "Feature", "properties": { "value": 1.4302 }, "geometry": { "type": "Point", "coordinates": [ 129.359665, 35.493126, 115.0 ] } },
{ "type": "Feature", "properties": { "value": 1.2336 }, "geometry": { "type": "Point", "coordinates": [ 129.360764, 35.493122, 115.0 ] } },
{ "type": "Feature", "properties": { "value": 1.0853 }, "geometry": { "type": "Point", "coordinates": [ 129.361862, 35.493118, 115.0 ] } },
{ "type": "Feature", "properties": { "value": 0.9782 }, "geometry": { "type": "Point", "coordinates": [ 129.362961, 35.493118, 115.0 ] } },
{ "type": "Feature", "properties": { "value": 0.9047 }, "geometry": { "type": "Point", "coordinates": [ 129.364075, 35.493114, 115.0 ] } },
{ "type": "Feature", "properties": { "value": 0.8619 }, "geometry": { "type": "Point", "coordinates": [ 129.365173, 35.493111, 115.0 ] } },
{ "type": "Feature", "properties": { "value": 0.8436 }, "geometry": { "type": "Point", "coordinates": [ 129.366272, 35.493107, 115.0 ] } },
{ "type": "Feature", "properties": { "value": 0.8486 }, "geometry": { "type": "Point", "coordinates": [ 129.367371, 35.493103, 115.0 ] } },
{ "type": "Feature", "properties": { "value": 0.8773 }, "geometry": { "type": "Point", "coordinates": [ 129.368484, 35.493099, 115.0 ] } },
{ "type": "Feature", "properties": { "value": 0.9283 }, "geometry": { "type": "Point", "coordinates": [ 129.369583, 35.493095, 115.0 ] } },
{ "type": "Feature", "properties": { "value": 0.999 }, "geometry": { "type": "Point", "coordinates": [ 129.370682, 35.493092, 115.0 ] } },
{ "type": "Feature", "properties": { "value": 1.0802 }, "geometry": { "type": "Point", "coordinates": [ 129.37178, 35.493088, 115.0 ] } },
{ "type": "Feature", "properties": { "value": 1.1743 }, "geometry": { "type": "Point", "coordinates": [ 129.372894, 35.493088, 115.0 ] } },
{ "type": "Feature", "properties": { "value": 1.266 }, "geometry": { "type": "Point", "coordinates": [ 129.373993, 35.493084, 115.0 ] } },
{ "type": "Feature", "properties": { "value": 1.3513 }, "geometry": { "type": "Point", "coordinates": [ 129.375092, 35.49308, 115.0 ] } },
{ "type": "Feature", "properties": { "value": 1.4119 }, "geometry": { "type": "Point", "coordinates": [ 129.37619, 35.493076, 115.0 ] } },
{ "type": "Feature", "properties": { "value": 1.4417 }, "geometry": { "type": "Point", "coordinates": [ 129.377289, 35.493073, 115.0 ] } },
{ "type": "Feature", "properties": { "value": 1.4257 }, "geometry": { "type": "Point", "coordinates": [ 129.378403, 35.493069, 115.0 ] } },
{ "type": "Feature", "properties": { "value": 1.3608 }, "geometry": { "type": "Point", "coordinates": [ 129.379501, 35.493065, 115.0 ] } },
{ "type": "Feature", "properties": { "value": 1.2481 }, "geometry": { "type": "Point", "coordinates": [ 129.3806, 35.493061, 115.0 ] } },
{ "type": "Feature", "properties": { "value": 1.0932 }, "geometry": { "type": "Point", "coordinates": [ 129.381699, 35.493057, 115.0 ] } },
{ "type": "Feature", "properties": { "value": 0.1503 }, "geometry": { "type": "Point", "coordinates": [ 129.339828, 35.494083, 115.0 ] } },
{ "type": "Feature", "properties": { "value": 0.4939 }, "geometry": { "type": "Point", "coordinates": [ 129.340927, 35.494083, 115.0 ] } },
{ "type": "Feature", "properties": { "value": 1.1549 }, "geometry": { "type": "Point", "coordinates": [ 129.342026, 35.49408, 115.0 ] } },
{ "type": "Feature", "properties": { "value": 2.2058 }, "geometry": { "type": "Point", "coordinates": [ 129.34314, 35.494076, 115.0 ] } },
{ "type": "Feature", "properties": { "value": 3.6073 }, "geometry": { "type": "Point", "coordinates": [ 129.344238, 35.494072, 115.0 ] } },
{ "type": "Feature", "properties": { "value": 5.1416 }, "geometry": { "type": "Point", "coordinates": [ 129.345337, 35.494068, 115.0 ] } },
{ "type": "Feature", "properties": { "value": 6.5314 }, "geometry": { "type": "Point", "coordinates": [ 129.346436, 35.494068, 115.0 ] } },
{ "type": "Feature", "properties": { "value": 7.5361 }, "geometry": { "type": "Point", "coordinates": [ 129.347549, 35.494064, 115.0 ] } },
{ "type": "Feature", "properties": { "value": 8.037 }, "geometry": { "type": "Point", "coordinates": [ 129.348648, 35.494061, 115.0 ] } },
{ "type": "Feature", "properties": { "value": 8.0283 }, "geometry": { "type": "Point", "coordinates": [ 129.349747, 35.494057, 115.0 ] } },
{ "type": "Feature", "properties": { "value": 7.6069 }, "geometry": { "type": "Point", "coordinates": [ 129.350845, 35.494053, 115.0 ] } },
{ "type": "Feature", "properties": { "value": 6.9395 }, "geometry": { "type": "Point", "coordinates": [ 129.351959, 35.494049, 115.0 ] } },
{ "type": "Feature", "properties": { "value": 6.1314 }, "geometry": { "type": "Point", "coordinates": [ 129.353058, 35.494049, 115.0 ] } },
{ "type": "Feature", "properties": { "value": 5.3105 }, "geometry": { "type": "Point", "coordinates": [ 129.354156, 35.494045, 115.0 ] } },
{ "type": "Feature", "properties": { "value": 4.5539 }, "geometry": { "type": "Point", "coordinates": [ 129.355255, 35.494041, 115.0 ] } },
{ "type": "Feature", "properties": { "value": 3.8912 }, "geometry": { "type": "Point", "coordinates": [ 129.356354, 35.494038, 115.0 ] } },
{ "type": "Feature", "properties": { "value": 3.3255 }, "geometry": { "type": "Point", "coordinates": [ 129.357468, 35.494034, 115.0 ] } },
{ "type": "Feature", "properties": { "value": 2.8587 }, "geometry": { "type": "Point", "coordinates": [ 129.358566, 35.49403, 115.0 ] } },
{ "type": "Feature", "properties": { "value": 2.4826 }, "geometry": { "type": "Point", "coordinates": [ 129.359665, 35.494026, 115.0 ] } },
{ "type": "Feature", "properties": { "value": 2.1815 }, "geometry": { "type": "Point", "coordinates": [ 129.360764, 35.494026, 115.0 ] } },
{ "type": "Feature", "properties": { "value": 1.9435 }, "geometry": { "type": "Point", "coordinates": [ 129.361877, 35.494022, 115.0 ] } },
{ "type": "Feature", "properties": { "value": 1.7615 }, "geometry": { "type": "Point", "coordinates": [ 129.362976, 35.494019, 115.0 ] } },
{ "type": "Feature", "properties": { "value": 1.6304 }, "geometry": { "type": "Point", "coordinates": [ 129.364075, 35.494015, 115.0 ] } },
{ "type": "Feature", "properties": { "value": 1.5428 }, "geometry": { "type": "Point", "coordinates": [ 129.365173, 35.494011, 115.0 ] } },
{ "type": "Feature", "properties": { "value": 1.4937 }, "geometry": { "type": "Point", "coordinates": [ 129.366272, 35.494007, 115.0 ] } },
{ "type": "Feature", "properties": { "value": 1.4797 }, "geometry": { "type": "Point", "coordinates": [ 129.367386, 35.494003, 115.0 ] } },
{ "type": "Feature", "properties": { "value": 1.5007 }, "geometry": { "type": "Point", "coordinates": [ 129.368484, 35.493999, 115.0 ] } },
{ "type": "Feature", "properties": { "value": 1.549 }, "geometry": { "type": "Point", "coordinates": [ 129.369583, 35.493999, 115.0 ] } },
{ "type": "Feature", "properties": { "value": 1.6243 }, "geometry": { "type": "Point", "coordinates": [ 129.370682, 35.493996, 115.0 ] } },
{ "type": "Feature", "properties": { "value": 1.717 }, "geometry": { "type": "Point", "coordinates": [ 129.371796, 35.493992, 115.0 ] } },
{ "type": "Feature", "properties": { "value": 1.8215 }, "geometry": { "type": "Point", "coordinates": [ 129.372894, 35.493988, 115.0 ] } },
{ "type": "Feature", "properties": { "value": 1.9218 }, "geometry": { "type": "Point", "coordinates": [ 129.373993, 35.493984, 115.0 ] } },
{ "type": "Feature", "properties": { "value": 2.009 }, "geometry": { "type": "Point", "coordinates": [ 129.375092, 35.49398, 115.0 ] } },
{ "type": "Feature", "properties": { "value": 2.0608 }, "geometry": { "type": "Point", "coordinates": [ 129.37619, 35.493977, 115.0 ] } },
{ "type": "Feature", "properties": { "value": 2.0684 }, "geometry": { "type": "Point", "coordinates": [ 129.377304, 35.493973, 115.0 ] } },
{ "type": "Feature", "properties": { "value": 2.0142 }, "geometry": { "type": "Point", "coordinates": [ 129.378403, 35.493969, 115.0 ] } },
{ "type": "Feature", "properties": { "value": 1.8983 }, "geometry": { "type": "Point", "coordinates": [ 129.379501, 35.493965, 115.0 ] } },
{ "type": "Feature", "properties": { "value": 1.7196 }, "geometry": { "type": "Point", "coordinates": [ 129.3806, 35.493965, 115.0 ] } },
{ "type": "Feature", "properties": { "value": 1.4919 }, "geometry": { "type": "Point", "coordinates": [ 129.381714, 35.493961, 115.0 ] } },
{ "type": "Feature", "properties": { "value": 0.1696 }, "geometry": { "type": "Point", "coordinates": [ 129.340942, 35.494984, 115.0 ] } },
{ "type": "Feature", "properties": { "value": 0.4918 }, "geometry": { "type": "Point", "coordinates": [ 129.342041, 35.49498, 115.0 ] } },
{ "type": "Feature", "properties": { "value": 1.0763 }, "geometry": { "type": "Point", "coordinates": [ 129.34314, 35.494976, 115.0 ] } },
{ "type": "Feature", "properties": { "value": 1.9807 }, "geometry": { "type": "Point", "coordinates": [ 129.344238, 35.494972, 115.0 ] } },
{ "type": "Feature", "properties": { "value": 3.1555 }, "geometry": { "type": "Point", "coordinates": [ 129.345337, 35.494972, 115.0 ] } },
{ "type": "Feature", "properties": { "value": 4.4672 }, "geometry": { "type": "Point", "coordinates": [ 129.346451, 35.494968, 115.0 ] } },
{ "type": "Feature", "properties": { "value": 5.7077 }, "geometry": { "type": "Point", "coordinates": [ 129.347549, 35.494965, 115.0 ] } },
{ "type": "Feature", "properties": { "value": 6.7147 }, "geometry": { "type": "Point", "coordinates": [ 129.348648, 35.494961, 115.0 ] } },
{ "type": "Feature", "properties": { "value": 7.3389 }, "geometry": { "type": "Point", "coordinates": [ 129.349747, 35.494957, 115.0 ] } },
{ "type": "Feature", "properties": { "value": 7.5705 }, "geometry": { "type": "Point", "coordinates": [ 129.350861, 35.494953, 115.0 ] } },
{ "type": "Feature", "properties": { "value": 7.4525 }, "geometry": { "type": "Point", "coordinates": [ 129.351959, 35.494953, 115.0 ] } },
{ "type": "Feature", "properties": { "value": 7.0542 }, "geometry": { "type": "Point", "coordinates": [ 129.353058, 35.494949, 115.0 ] } },
{ "type": "Feature", "properties": { "value": 6.5078 }, "geometry": { "type": "Point", "coordinates": [ 129.354156, 35.494946, 115.0 ] } },
{ "type": "Feature", "properties": { "value": 5.894 }, "geometry": { "type": "Point", "coordinates": [ 129.355255, 35.494942, 115.0 ] } },
{ "type": "Feature", "properties": { "value": 5.2771 }, "geometry": { "type": "Point", "coordinates": [ 129.356369, 35.494938, 115.0 ] } },
{ "type": "Feature", "properties": { "value": 4.7031 }, "geometry": { "type": "Point", "coordinates": [ 129.357468, 35.494934, 115.0 ] } },
{ "type": "Feature", "properties": { "value": 4.183 }, "geometry": { "type": "Point", "coordinates": [ 129.358566, 35.494934, 115.0 ] } },
{ "type": "Feature", "properties": { "value": 3.733 }, "geometry": { "type": "Point", "coordinates": [ 129.359665, 35.49493, 115.0 ] } },
{ "type": "Feature", "properties": { "value": 3.3505 }, "geometry": { "type": "Point", "coordinates": [ 129.360779, 35.494926, 115.0 ] } },
{ "type": "Feature", "properties": { "value": 3.0353 }, "geometry": { "type": "Point", "coordinates": [ 129.361877, 35.494923, 115.0 ] } },
{ "type": "Feature", "properties": { "value": 2.7849 }, "geometry": { "type": "Point", "coordinates": [ 129.362976, 35.494919, 115.0 ] } },
{ "type": "Feature", "properties": { "value": 2.5909 }, "geometry": { "type": "Point", "coordinates": [ 129.364075, 35.494915, 115.0 ] } },
{ "type": "Feature", "properties": { "value": 2.4502 }, "geometry": { "type": "Point", "coordinates": [ 129.365173, 35.494911, 115.0 ] } },
{ "type": "Feature", "properties": { "value": 2.3578 }, "geometry": { "type": "Point", "coordinates": [ 129.366287, 35.494907, 115.0 ] } },
{ "type": "Feature", "properties": { "value": 2.3109 }, "geometry": { "type": "Point", "coordinates": [ 129.367386, 35.494907, 115.0 ] } },
{ "type": "Feature", "properties": { "value": 2.3066 }, "geometry": { "type": "Point", "coordinates": [ 129.368484, 35.494904, 115.0 ] } },
{ "type": "Feature", "properties": { "value": 2.3434 }, "geometry": { "type": "Point", "coordinates": [ 129.369583, 35.4949, 115.0 ] } },
{ "type": "Feature", "properties": { "value": 2.4089 }, "geometry": { "type": "Point", "coordinates": [ 129.370697, 35.494896, 115.0 ] } },
{ "type": "Feature", "properties": { "value": 2.4953 }, "geometry": { "type": "Point", "coordinates": [ 129.371796, 35.494892, 115.0 ] } },
{ "type": "Feature", "properties": { "value": 2.5957 }, "geometry": { "type": "Point", "coordinates": [ 129.372894, 35.494888, 115.0 ] } },
{ "type": "Feature", "properties": { "value": 2.6871 }, "geometry": { "type": "Point", "coordinates": [ 129.373993, 35.494884, 115.0 ] } },
{ "type": "Feature", "properties": { "value": 2.7553 }, "geometry": { "type": "Point", "coordinates": [ 129.375107, 35.494881, 115.0 ] } },
{ "type": "Feature", "properties": { "value": 2.7818 }, "geometry": { "type": "Point", "coordinates": [ 129.376205, 35.494877, 115.0 ] } },
{ "type": "Feature", "properties": { "value": 2.7464 }, "geometry": { "type": "Point", "coordinates": [ 129.377304, 35.494877, 115.0 ] } },
{ "type": "Feature", "properties": { "value": 2.64 }, "geometry": { "type": "Point", "coordinates": [ 129.378403, 35.494873, 115.0 ] } },
{ "type": "Feature", "properties": { "value": 2.4561 }, "geometry": { "type": "Point", "coordinates": [ 129.379501, 35.494869, 115.0 ] } },
{ "type": "Feature", "properties": { "value": 2.201 }, "geometry": { "type": "Point", "coordinates": [ 129.380615, 35.494865, 115.0 ] } },
{ "type": "Feature", "properties": { "value": 1.891 }, "geometry": { "type": "Point", "coordinates": [ 129.381714, 35.494862, 115.0 ] } },
{ "type": "Feature", "properties": { "value": 0.1742 }, "geometry": { "type": "Point", "coordinates": [ 129.342041, 35.49588, 115.0 ] } },
{ "type": "Feature", "properties": { "value": 0.4587 }, "geometry": { "type": "Point", "coordinates": [ 129.34314, 35.49588, 115.0 ] } },
{ "type": "Feature", "properties": { "value": 0.9581 }, "geometry": { "type": "Point", "coordinates": [ 129.344238, 35.495876, 115.0 ] } },
{ "type": "Feature", "properties": { "value": 1.7003 }, "geometry": { "type": "Point", "coordinates": [ 129.345352, 35.495872, 115.0 ] } },
{ "type": "Feature", "properties": { "value": 2.6669 }, "geometry": { "type": "Point", "coordinates": [ 129.346451, 35.495869, 115.0 ] } },
{ "type": "Feature", "properties": { "value": 3.7602 }, "geometry": { "type": "Point", "coordinates": [ 129.347549, 35.495865, 115.0 ] } },
{ "type": "Feature", "properties": { "value": 4.8591 }, "geometry": { "type": "Point", "coordinates": [ 129.348648, 35.495861, 115.0 ] } },
{ "type": "Feature", "properties": { "value": 5.813 }, "geometry": { "type": "Point", "coordinates": [ 129.349762, 35.495861, 115.0 ] } },
{ "type": "Feature", "properties": { "value": 6.5144 }, "geometry": { "type": "Point", "coordinates": [ 129.350861, 35.495857, 115.0 ] } },
{ "type": "Feature", "properties": { "value": 6.902 }, "geometry": { "type": "Point", "coordinates": [ 129.351959, 35.495853, 115.0 ] } },
{ "type": "Feature", "properties": { "value": 7.0033 }, "geometry": { "type": "Point", "coordinates": [ 129.353058, 35.49585, 115.0 ] } },
{ "type": "Feature", "properties": { "value": 6.877 }, "geometry": { "type": "Point", "coordinates": [ 129.354156, 35.495846, 115.0 ] } },
{ "type": "Feature", "properties": { "value": 6.5951 }, "geometry": { "type": "Point", "coordinates": [ 129.35527, 35.495842, 115.0 ] } },
{ "type": "Feature", "properties": { "value": 6.2071 }, "geometry": { "type": "Point", "coordinates": [ 129.356369, 35.495838, 115.0 ] } },
{ "type": "Feature", "properties": { "value": 5.7685 }, "geometry": { "type": "Point", "coordinates": [ 129.357468, 35.495838, 115.0 ] } },
{ "type": "Feature", "properties": { "value": 5.3277 }, "geometry": { "type": "Point", "coordinates": [ 129.358566, 35.495834, 115.0 ] } },
{ "type": "Feature", "properties": { "value": 4.8995 }, "geometry": { "type": "Point", "coordinates": [ 129.35968, 35.495831, 115.0 ] } },
{ "type": "Feature", "properties": { "value": 4.5078 }, "geometry": { "type": "Point", "coordinates": [ 129.360779, 35.495827, 115.0 ] } },
{ "type": "Feature", "properties": { "value": 4.1652 }, "geometry": { "type": "Point", "coordinates": [ 129.361877, 35.495823, 115.0 ] } },
{ "type": "Feature", "properties": { "value": 3.8777 }, "geometry": { "type": "Point", "coordinates": [ 129.362976, 35.495819, 115.0 ] } },
{ "type": "Feature", "properties": { "value": 3.6398 }, "geometry": { "type": "Point", "coordinates": [ 129.36409, 35.495815, 115.0 ] } },
{ "type": "Feature", "properties": { "value": 3.4547 }, "geometry": { "type": "Point", "coordinates": [ 129.365189, 35.495815, 115.0 ] } },
{ "type": "Feature", "properties": { "value": 3.322 }, "geometry": { "type": "Point", "coordinates": [ 129.366287, 35.495811, 115.0 ] } },
{ "type": "Feature", "properties": { "value": 3.2397 }, "geometry": { "type": "Point", "coordinates": [ 129.367386, 35.495808, 115.0 ] } },
{ "type": "Feature", "properties": { "value": 3.2017 }, "geometry": { "type": "Point", "coordinates": [ 129.368484, 35.495804, 115.0 ] } },
{ "type": "Feature", "properties": { "value": 3.2085 }, "geometry": { "type": "Point", "coordinates": [ 129.369598, 35.4958, 115.0 ] } },
{ "type": "Feature", "properties": { "value": 3.2526 }, "geometry": { "type": "Point", "coordinates": [ 129.370697, 35.495796, 115.0 ] } },
{ "type": "Feature", "properties": { "value": 3.3162 }, "geometry": { "type": "Point", "coordinates": [ 129.371796, 35.495792, 115.0 ] } },
{ "type": "Feature", "properties": { "value": 3.3888 }, "geometry": { "type": "Point", "coordinates": [ 129.372894, 35.495789, 115.0 ] } },
{ "type": "Feature", "properties": { "value": 3.4547 }, "geometry": { "type": "Point", "coordinates": [ 129.374008, 35.495785, 115.0 ] } },
{ "type": "Feature", "properties": { "value": 3.4859 }, "geometry": { "type": "Point", "coordinates": [ 129.375107, 35.495785, 115.0 ] } },
{ "type": "Feature", "properties": { "value": 3.4674 }, "geometry": { "type": "Point", "coordinates": [ 129.376205, 35.495781, 115.0 ] } },
{ "type": "Feature", "properties": { "value": 3.3758 }, "geometry": { "type": "Point", "coordinates": [ 129.377304, 35.495777, 115.0 ] } },
{ "type": "Feature", "properties": { "value": 3.2036 }, "geometry": { "type": "Point", "coordinates": [ 129.378403, 35.495773, 115.0 ] } },
{ "type": "Feature", "properties": { "value": 2.946 }, "geometry": { "type": "Point", "coordinates": [ 129.379517, 35.49577, 115.0 ] } },
{ "type": "Feature", "properties": { "value": 2.6144 }, "geometry": { "type": "Point", "coordinates": [ 129.380615, 35.495766, 115.0 ] } },
{ "type": "Feature", "properties": { "value": 2.2258 }, "geometry": { "type": "Point", "coordinates": [ 129.381714, 35.495762, 115.0 ] } },
{ "type": "Feature", "properties": { "value": 0.1591 }, "geometry": { "type": "Point", "coordinates": [ 129.34314, 35.49678, 115.0 ] } },
{ "type": "Feature", "properties": { "value": 0.3955 }, "geometry": { "type": "Point", "coordinates": [ 129.344254, 35.496777, 115.0 ] } },
{ "type": "Feature", "properties": { "value": 0.7979 }, "geometry": { "type": "Point", "coordinates": [ 129.345352, 35.496773, 115.0 ] } },
{ "type": "Feature", "properties": { "value": 1.395 }, "geometry": { "type": "Point", "coordinates": [ 129.346451, 35.496769, 115.0 ] } },
{ "type": "Feature", "properties": { "value": 2.1671 }, "geometry": { "type": "Point", "coordinates": [ 129.347549, 35.496765, 115.0 ] } },
{ "type": "Feature", "properties": { "value": 3.0693 }, "geometry": { "type": "Point", "coordinates": [ 129.348663, 35.496765, 115.0 ] } },
{ "type": "Feature", "properties": { "value": 4.0076 }, "geometry": { "type": "Point", "coordinates": [ 129.349762, 35.496761, 115.0 ] } },
{ "type": "Feature", "properties": { "value": 4.8635 }, "geometry": { "type": "Point", "coordinates": [ 129.350861, 35.496758, 115.0 ] } },
{ "type": "Feature", "properties": { "value": 5.5456 }, "geometry": { "type": "Point", "coordinates": [ 129.351959, 35.496754, 115.0 ] } },
{ "type": "Feature", "properties": { "value": 6.0284 }, "geometry": { "type": "Point", "coordinates": [ 129.353073, 35.49675, 115.0 ] } },
{ "type": "Feature", "properties": { "value": 6.3074 }, "geometry": { "type": "Point", "coordinates": [ 129.354172, 35.496746, 115.0 ] } },
{ "type": "Feature", "properties": { "value": 6.4076 }, "geometry": { "type": "Point", "coordinates": [ 129.35527, 35.496746, 115.0 ] } },
{ "type": "Feature", "properties": { "value": 6.3462 }, "geometry": { "type": "Point", "coordinates": [ 129.356369, 35.496742, 115.0 ] } },
{ "type": "Feature", "properties": { "value": 6.1722 }, "geometry": { "type": "Point", "coordinates": [ 129.357468, 35.496738, 115.0 ] } },
{ "type": "Feature", "properties": { "value": 5.9202 }, "geometry": { "type": "Point", "coordinates": [ 129.358582, 35.496735, 115.0 ] } },
{ "type": "Feature", "properties": { "value": 5.6334 }, "geometry": { "type": "Point", "coordinates": [ 129.35968, 35.496731, 115.0 ] } },
{ "type": "Feature", "properties": { "value": 5.3315 }, "geometry": { "type": "Point", "coordinates": [ 129.360779, 35.496727, 115.0 ] } },
{ "type": "Feature", "properties": { "value": 5.0411 }, "geometry": { "type": "Point", "coordinates": [ 129.361877, 35.496723, 115.0 ] } },
{ "type": "Feature", "properties": { "value": 4.7746 }, "geometry": { "type": "Point", "coordinates": [ 129.362991, 35.496723, 115.0 ] } },
{ "type": "Feature", "properties": { "value": 4.5373 }, "geometry": { "type": "Point", "coordinates": [ 129.36409, 35.496719, 115.0 ] } },
{ "type": "Feature", "properties": { "value": 4.3386 }, "geometry": { "type": "Point", "coordinates": [ 129.365189, 35.496716, 115.0 ] } },
{ "type": "Feature", "properties": { "value": 4.1863 }, "geometry": { "type": "Point", "coordinates": [ 129.366287, 35.496712, 115.0 ] } },
{ "type": "Feature", "properties": { "value": 4.0736 }, "geometry": { "type": "Point", "coordinates": [ 129.367386, 35.496708, 115.0 ] } },
{ "type": "Feature", "properties": { "value": 4.005 }, "geometry": { "type": "Point", "coordinates": [ 129.3685, 35.496704, 115.0 ] } },
{ "type": "Feature", "properties": { "value": 3.9817 }, "geometry": { "type": "Point", "coordinates": [ 129.369598, 35.4967, 115.0 ] } },
{ "type": "Feature", "properties": { "value": 3.9904 }, "geometry": { "type": "Point", "coordinates": [ 129.370697, 35.496696, 115.0 ] } },
{ "type": "Feature", "properties": { "value": 4.0184 }, "geometry": { "type": "Point", "coordinates": [ 129.371796, 35.496696, 115.0 ] } },
{ "type": "Feature", "properties": { "value": 4.0559 }, "geometry": { "type": "Point", "coordinates": [ 129.37291, 35.496693, 115.0 ] } },
{ "type": "Feature", "properties": { "value": 4.0755 }, "geometry": { "type": "Point", "coordinates": [ 129.374008, 35.496689, 115.0 ] } },
{ "type": "Feature", "properties": { "value": 4.0586 }, "geometry": { "type": "Point", "coordinates": [ 129.375107, 35.496685, 115.0 ] } },
{ "type": "Feature", "properties": { "value": 3.9844 }, "geometry": { "type": "Point", "coordinates": [ 129.376205, 35.496681, 115.0 ] } },
{ "type": "Feature", "properties": { "value": 3.8329 }, "geometry": { "type": "Point", "coordinates": [ 129.377319, 35.496677, 115.0 ] } },
{ "type": "Feature", "properties": { "value": 3.5968 }, "geometry": { "type": "Point", "coordinates": [ 129.378418, 35.496674, 115.0 ] } },
{ "type": "Feature", "properties": { "value": 3.2747 }, "geometry": { "type": "Point", "coordinates": [ 129.379517, 35.49667, 115.0 ] } },
{ "type": "Feature", "properties": { "value": 2.8782 }, "geometry": { "type": "Point", "coordinates": [ 129.380615, 35.496666, 115.0 ] } },
{ "type": "Feature", "properties": { "value": 2.4328 }, "geometry": { "type": "Point", "coordinates": [ 129.381714, 35.496662, 115.0 ] } },
{ "type": "Feature", "properties": { "value": 0.1334 }, "geometry": { "type": "Point", "coordinates": [ 129.344254, 35.497677, 115.0 ] } },
{ "type": "Feature", "properties": { "value": 0.3215 }, "geometry": { "type": "Point", "coordinates": [ 129.345352, 35.497673, 115.0 ] } },
{ "type": "Feature", "properties": { "value": 0.6348 }, "geometry": { "type": "Point", "coordinates": [ 129.346451, 35.497673, 115.0 ] } },
{ "type": "Feature", "properties": { "value": 1.0929 }, "geometry": { "type": "Point", "coordinates": [ 129.347565, 35.497669, 115.0 ] } },
{ "type": "Feature", "properties": { "value": 1.692 }, "geometry": { "type": "Point", "coordinates": [ 129.348663, 35.497665, 115.0 ] } },
{ "type": "Feature", "properties": { "value": 2.3993 }, "geometry": { "type": "Point", "coordinates": [ 129.349762, 35.497662, 115.0 ] } },
{ "type": "Feature", "properties": { "value": 3.1568 }, "geometry": { "type": "Point", "coordinates": [ 129.350861, 35.497658, 115.0 ] } },
{ "type": "Feature", "properties": { "value": 3.8823 }, "geometry": { "type": "Point", "coordinates": [ 129.351974, 35.497654, 115.0 ] } },
{ "type": "Feature", "properties": { "value": 4.5258 }, "geometry": { "type": "Point", "coordinates": [ 129.353073, 35.497654, 115.0 ] } },
{ "type": "Feature", "properties": { "value": 5.0551 }, "geometry": { "type": "Point", "coordinates": [ 129.354172, 35.49765, 115.0 ] } },
{ "type": "Feature", "properties": { "value": 5.442 }, "geometry": { "type": "Point", "coordinates": [ 129.35527, 35.497646, 115.0 ] } },
{ "type": "Feature", "properties": { "value": 5.6766 }, "geometry": { "type": "Point", "coordinates": [ 129.356369, 35.497643, 115.0 ] } },
{ "type": "Feature", "properties": { "value": 5.7747 }, "geometry": { "type": "Point", "coordinates": [ 129.357483, 35.497639, 115.0 ] } },
{ "type": "Feature", "properties": { "value": 5.7714 }, "geometry": { "type": "Point", "coordinates": [ 129.358582, 35.497635, 115.0 ] } },
{ "type": "Feature", "properties": { "value": 5.6878 }, "geometry": { "type": "Point", "coordinates": [ 129.35968, 35.497631, 115.0 ] } },
{ "type": "Feature", "properties": { "value": 5.5546 }, "geometry": { "type": "Point", "coordinates": [ 129.360779, 35.497631, 115.0 ] } },
{ "type": "Feature", "properties": { "value": 5.3853 }, "geometry": { "type": "Point", "coordinates": [ 129.361893, 35.497627, 115.0 ] } },
{ "type": "Feature", "properties": { "value": 5.2033 }, "geometry": { "type": "Point", "coordinates": [ 129.362991, 35.497623, 115.0 ] } },
{ "type": "Feature", "properties": { "value": 5.0251 }, "geometry": { "type": "Point", "coordinates": [ 129.36409, 35.49762, 115.0 ] } },
{ "type": "Feature", "properties": { "value": 4.8575 }, "geometry": { "type": "Point", "coordinates": [ 129.365189, 35.497616, 115.0 ] } },
{ "type": "Feature", "properties": { "value": 4.7154 }, "geometry": { "type": "Point", "coordinates": [ 129.366302, 35.497612, 115.0 ] } },
{ "type": "Feature", "properties": { "value": 4.5993 }, "geometry": { "type": "Point", "coordinates": [ 129.367401, 35.497608, 115.0 ] } },
{ "type": "Feature", "properties": { "value": 4.516 }, "geometry": { "type": "Point", "coordinates": [ 129.3685, 35.497604, 115.0 ] } },
{ "type": "Feature", "properties": { "value": 4.4708 }, "geometry": { "type": "Point", "coordinates": [ 129.369598, 35.497604, 115.0 ] } },
{ "type": "Feature", "properties": { "value": 4.4479 }, "geometry": { "type": "Point", "coordinates": [ 129.370697, 35.497601, 115.0 ] } },
{ "type": "Feature", "properties": { "value": 4.4398 }, "geometry": { "type": "Point", "coordinates": [ 129.371811, 35.497597, 115.0 ] } },
{ "type": "Feature", "properties": { "value": 4.4364 }, "geometry": { "type": "Point", "coordinates": [ 129.37291, 35.497593, 115.0 ] } },
{ "type": "Feature", "properties": { "value": 4.4103 }, "geometry": { "type": "Point", "coordinates": [ 129.374008, 35.497589, 115.0 ] } },
{ "type": "Feature", "properties": { "value": 4.3467 }, "geometry": { "type": "Point", "coordinates": [ 129.375107, 35.497585, 115.0 ] } },
{ "type": "Feature", "properties": { "value": 4.219 }, "geometry": { "type": "Point", "coordinates": [ 129.376221, 35.497581, 115.0 ] } },
{ "type": "Feature", "properties": { "value": 4.019 }, "geometry": { "type": "Point", "coordinates": [ 129.377319, 35.497578, 115.0 ] } },
{ "type": "Feature", "properties": { "value": 3.733 }, "geometry": { "type": "Point", "coordinates": [ 129.378418, 35.497574, 115.0 ] } },
{ "type": "Feature", "properties": { "value": 3.3695 }, "geometry": { "type": "Point", "coordinates": [ 129.379517, 35.497574, 115.0 ] } },
{ "type": "Feature", "properties": { "value": 2.9376 }, "geometry": { "type": "Point", "coordinates": [ 129.380615, 35.49757, 115.0 ] } },
{ "type": "Feature", "properties": { "value": 2.4645 }, "geometry": { "type": "Point", "coordinates": [ 129.381729, 35.497566, 115.0 ] } },
{ "type": "Feature", "properties": { "value": 0.0942 }, "geometry": { "type": "Point", "coordinates": [ 129.345352, 35.498577, 115.0 ] } },
{ "type": "Feature", "properties": { "value": 0.242 }, "geometry": { "type": "Point", "coordinates": [ 129.346466, 35.498573, 115.0 ] } },
{ "type": "Feature", "properties": { "value": 0.476 }, "geometry": { "type": "Point", "coordinates": [ 129.347565, 35.498569, 115.0 ] } },
{ "type": "Feature", "properties": { "value": 0.8126 }, "geometry": { "type": "Point", "coordinates": [ 129.348663, 35.498566, 115.0 ] } },
{ "type": "Feature", "properties": { "value": 1.2579 }, "geometry": { "type": "Point", "coordinates": [ 129.349762, 35.498562, 115.0 ] } },
{ "type": "Feature", "properties": { "value": 1.7906 }, "geometry": { "type": "Point", "coordinates": [ 129.350876, 35.498562, 115.0 ] } },
{ "type": "Feature", "properties": { "value": 2.3746 }, "geometry": { "type": "Point", "coordinates": [ 129.351974, 35.498558, 115.0 ] } },
{ "type": "Feature", "properties": { "value": 2.9753 }, "geometry": { "type": "Point", "coordinates": [ 129.353073, 35.498554, 115.0 ] } },
{ "type": "Feature", "properties": { "value": 3.5454 }, "geometry": { "type": "Point", "coordinates": [ 129.354172, 35.49855, 115.0 ] } },
{ "type": "Feature", "properties": { "value": 4.0436 }, "geometry": { "type": "Point", "coordinates": [ 129.35527, 35.498547, 115.0 ] } },
{ "type": "Feature", "properties": { "value": 4.4438 }, "geometry": { "type": "Point", "coordinates": [ 129.356384, 35.498543, 115.0 ] } },
{ "type": "Feature", "properties": { "value": 4.7379 }, "geometry": { "type": "Point", "coordinates": [ 129.357483, 35.498539, 115.0 ] } },
{ "type": "Feature", "properties": { "value": 4.9423 }, "geometry": { "type": "Point", "coordinates": [ 129.358582, 35.498539, 115.0 ] } },
{ "type": "Feature", "properties": { "value": 5.0574 }, "geometry": { "type": "Point", "coordinates": [ 129.35968, 35.498535, 115.0 ] } },
{ "type": "Feature", "properties": { "value": 5.1021 }, "geometry": { "type": "Point", "coordinates": [ 129.360794, 35.498531, 115.0 ] } },
{ "type": "Feature", "properties": { "value": 5.0886 }, "geometry": { "type": "Point", "coordinates": [ 129.361893, 35.498528, 115.0 ] } },
{ "type": "Feature", "properties": { "value": 5.0312 }, "geometry": { "type": "Point", "coordinates": [ 129.362991, 35.498524, 115.0 ] } },
{ "type": "Feature", "properties": { "value": 4.9463 }, "geometry": { "type": "Point", "coordinates": [ 129.36409, 35.49852, 115.0 ] } },
{ "type": "Feature", "properties": { "value": 4.8504 }, "geometry": { "type": "Point", "coordinates": [ 129.365204, 35.498516, 115.0 ] } },
{ "type": "Feature", "properties": { "value": 4.7507 }, "geometry": { "type": "Point", "coordinates": [ 129.366302, 35.498512, 115.0 ] } },
{ "type": "Feature", "properties": { "value": 4.6641 }, "geometry": { "type": "Point", "coordinates": [ 129.367401, 35.498512, 115.0 ] } },
{ "type": "Feature", "properties": { "value": 4.5892 }, "geometry": { "type": "Point", "coordinates": [ 129.3685, 35.498508, 115.0 ] } },
{ "type": "Feature", "properties": { "value": 4.5376 }, "geometry": { "type": "Point", "coordinates": [ 129.369598, 35.498505, 115.0 ] } },
{ "type": "Feature", "properties": { "value": 4.501 }, "geometry": { "type": "Point", "coordinates": [ 129.370712, 35.498501, 115.0 ] } },
{ "type": "Feature", "properties": { "value": 4.4683 }, "geometry": { "type": "Point", "coordinates": [ 129.371811, 35.498497, 115.0 ] } },
{ "type": "Feature", "properties": { "value": 4.434 }, "geometry": { "type": "Point", "coordinates": [ 129.37291, 35.498493, 115.0 ] } },
{ "type": "Feature", "properties": { "value": 4.3733 }, "geometry": { "type": "Point", "coordinates": [ 129.374008, 35.498489, 115.0 ] } },
{ "type": "Feature", "properties": { "value": 4.2739 }, "geometry": { "type": "Point", "coordinates": [ 129.375122, 35.498486, 115.0 ] } },
{ "type": "Feature", "properties": { "value": 4.113 }, "geometry": { "type": "Point", "coordinates": [ 129.376221, 35.498482, 115.0 ] } },
{ "type": "Feature", "properties": { "value": 3.8851 }, "geometry": { "type": "Point", "coordinates": [ 129.377319, 35.498482, 115.0 ] } },
{ "type": "Feature", "properties": { "value": 3.5792 }, "geometry": { "type": "Point", "coordinates": [ 129.378418, 35.498478, 115.0 ] } },
{ "type": "Feature", "properties": { "value": 3.2062 }, "geometry": { "type": "Point", "coordinates": [ 129.379532, 35.498474, 115.0 ] } },
{ "type": "Feature", "properties": { "value": 2.7758 }, "geometry": { "type": "Point", "coordinates": [ 129.38063, 35.49847, 115.0 ] } },
{ "type": "Feature", "properties": { "value": 2.3143 }, "geometry": { "type": "Point", "coordinates": [ 129.381729, 35.498466, 115.0 ] } },
{ "type": "Feature", "properties": { "value": 0.0511 }, "geometry": { "type": "Point", "coordinates": [ 129.346466, 35.499474, 115.0 ] } },
{ "type": "Feature", "properties": { "value": 0.1711 }, "geometry": { "type": "Point", "coordinates": [ 129.347565, 35.49947, 115.0 ] } },
{ "type": "Feature", "properties": { "value": 0.3364 }, "geometry": { "type": "Point", "coordinates": [ 129.348663, 35.499466, 115.0 ] } },
{ "type": "Feature", "properties": { "value": 0.5744 }, "geometry": { "type": "Point", "coordinates": [ 129.349777, 35.499466, 115.0 ] } },
{ "type": "Feature", "properties": { "value": 0.8908 }, "geometry": { "type": "Point", "coordinates": [ 129.350876, 35.499462, 115.0 ] } },
{ "type": "Feature", "properties": { "value": 1.2746 }, "geometry": { "type": "Point", "coordinates": [ 129.351974, 35.499458, 115.0 ] } },
{ "type": "Feature", "properties": { "value": 1.713 }, "geometry": { "type": "Point", "coordinates": [ 129.353073, 35.499454, 115.0 ] } },
{ "type": "Feature", "properties": { "value": 2.177 }, "geometry": { "type": "Point", "coordinates": [ 129.354187, 35.499451, 115.0 ] } },
{ "type": "Feature", "properties": { "value": 2.6312 }, "geometry": { "type": "Point", "coordinates": [ 129.355286, 35.499447, 115.0 ] } },
{ "type": "Feature", "properties": { "value": 3.0508 }, "geometry": { "type": "Point", "coordinates": [ 129.356384, 35.499447, 115.0 ] } },
{ "type": "Feature", "properties": { "value": 3.4202 }, "geometry": { "type": "Point", "coordinates": [ 129.357483, 35.499443, 115.0 ] } },
{ "type": "Feature", "properties": { "value": 3.7296 }, "geometry": { "type": "Point", "coordinates": [ 129.358582, 35.499439, 115.0 ] } },
{ "type": "Feature", "properties": { "value": 3.9715 }, "geometry": { "type": "Point", "coordinates": [ 129.359695, 35.499435, 115.0 ] } },
{ "type": "Feature", "properties": { "value": 4.1446 }, "geometry": { "type": "Point", "coordinates": [ 129.360794, 35.499432, 115.0 ] } },
{ "type": "Feature", "properties": { "value": 4.2605 }, "geometry": { "type": "Point", "coordinates": [ 129.361893, 35.499428, 115.0 ] } },
{ "type": "Feature", "properties": { "value": 4.3176 }, "geometry": { "type": "Point", "coordinates": [ 129.362991, 35.499424, 115.0 ] } },
{ "type": "Feature", "properties": { "value": 4.3379 }, "geometry": { "type": "Point", "coordinates": [ 129.364105, 35.499424, 115.0 ] } },
{ "type": "Feature", "properties": { "value": 4.3213 }, "geometry": { "type": "Point", "coordinates": [ 129.365204, 35.49942, 115.0 ] } },
{ "type": "Feature", "properties": { "value": 4.29 }, "geometry": { "type": "Point", "coordinates": [ 129.366302, 35.499416, 115.0 ] } },
{ "type": "Feature", "properties": { "value": 4.2446 }, "geometry": { "type": "Point", "coordinates": [ 129.367401, 35.499413, 115.0 ] } },
{ "type": "Feature", "properties": { "value": 4.2037 }, "geometry": { "type": "Point", "coordinates": [ 129.368515, 35.499409, 115.0 ] } },
{ "type": "Feature", "properties": { "value": 4.1643 }, "geometry": { "type": "Point", "coordinates": [ 129.369614, 35.499405, 115.0 ] } },
{ "type": "Feature", "properties": { "value": 4.1327 }, "geometry": { "type": "Point", "coordinates": [ 129.370712, 35.499401, 115.0 ] } },
{ "type": "Feature", "properties": { "value": 4.0936 }, "geometry": { "type": "Point", "coordinates": [ 129.371811, 35.499397, 115.0 ] } },
{ "type": "Feature", "properties": { "value": 4.0463 }, "geometry": { "type": "Point", "coordinates": [ 129.37291, 35.499393, 115.0 ] } },
{ "type": "Feature", "properties": { "value": 3.9703 }, "geometry": { "type": "Point", "coordinates": [ 129.374023, 35.499393, 115.0 ] } },
{ "type": "Feature", "properties": { "value": 3.8572 }, "geometry": { "type": "Point", "coordinates": [ 129.375122, 35.49939, 115.0 ] } },
{ "type": "Feature", "properties": { "value": 3.6884 }, "geometry": { "type": "Point", "coordinates": [ 129.376221, 35.499386, 115.0 ] } },
{ "type": "Feature", "properties": { "value": 3.4611 }, "geometry": { "type": "Point", "coordinates": [ 129.377319, 35.499382, 115.0 ] } },
{ "type": "Feature", "properties": { "value": 3.168 }, "geometry": { "type": "Point", "coordinates": [ 129.378433, 35.499378, 115.0 ] } },
{ "type": "Feature", "properties": { "value": 2.8202 }, "geometry": { "type": "Point", "coordinates": [ 129.379532, 35.499374, 115.0 ] } },
{ "type": "Feature", "properties": { "value": 2.4277 }, "geometry": { "type": "Point", "coordinates": [ 129.38063, 35.499371, 115.0 ] } },
{ "type": "Feature", "properties": { "value": 2.0137 }, "geometry": { "type": "Point", "coordinates": [ 129.381729, 35.499367, 115.0 ] } },
{ "type": "Feature", "properties": { "value": 0.1053 }, "geometry": { "type": "Point", "coordinates": [ 129.348679, 35.50037, 115.0 ] } },
{ "type": "Feature", "properties": { "value": 0.2229 }, "geometry": { "type": "Point", "coordinates": [ 129.349777, 35.500366, 115.0 ] } },
{ "type": "Feature", "properties": { "value": 0.3856 }, "geometry": { "type": "Point", "coordinates": [ 129.350876, 35.500362, 115.0 ] } },
{ "type": "Feature", "properties": { "value": 0.5982 }, "geometry": { "type": "Point", "coordinates": [ 129.351974, 35.500359, 115.0 ] } },
{ "type": "Feature", "properties": { "value": 0.8675 }, "geometry": { "type": "Point", "coordinates": [ 129.353088, 35.500355, 115.0 ] } },
{ "type": "Feature", "properties": { "value": 1.177 }, "geometry": { "type": "Point", "coordinates": [ 129.354187, 35.500355, 115.0 ] } },
{ "type": "Feature", "properties": { "value": 1.5098 }, "geometry": { "type": "Point", "coordinates": [ 129.355286, 35.500351, 115.0 ] } },
{ "type": "Feature", "properties": { "value": 1.8486 }, "geometry": { "type": "Point", "coordinates": [ 129.356384, 35.500347, 115.0 ] } },
{ "type": "Feature", "properties": { "value": 2.1797 }, "geometry": { "type": "Point", "coordinates": [ 129.357483, 35.500343, 115.0 ] } },
{ "type": "Feature", "properties": { "value": 2.4883 }, "geometry": { "type": "Point", "coordinates": [ 129.358597, 35.50034, 115.0 ] } },
{ "type": "Feature", "properties": { "value": 2.759 }, "geometry": { "type": "Point", "coordinates": [ 129.359695, 35.500336, 115.0 ] } },
{ "type": "Feature", "properties": { "value": 2.9859 }, "geometry": { "type": "Point", "coordinates": [ 129.360794, 35.500332, 115.0 ] } },
{ "type": "Feature", "properties": { "value": 3.1679 }, "geometry": { "type": "Point", "coordinates": [ 129.361893, 35.500332, 115.0 ] } },
{ "type": "Feature", "properties": { "value": 3.3016 }, "geometry": { "type": "Point", "coordinates": [ 129.363007, 35.500328, 115.0 ] } },
{ "type": "Feature", "properties": { "value": 3.3895 }, "geometry": { "type": "Point", "coordinates": [ 129.364105, 35.500324, 115.0 ] } },
{ "type": "Feature", "properties": { "value": 3.4456 }, "geometry": { "type": "Point", "coordinates": [ 129.365204, 35.50032, 115.0 ] } },
{ "type": "Feature", "properties": { "value": 3.4684 }, "geometry": { "type": "Point", "coordinates": [ 129.366302, 35.500317, 115.0 ] } },
{ "type": "Feature", "properties": { "value": 3.4762 }, "geometry": { "type": "Point", "coordinates": [ 129.367416, 35.500313, 115.0 ] } },
{ "type": "Feature", "properties": { "value": 3.4677 }, "geometry": { "type": "Point", "coordinates": [ 129.368515, 35.500309, 115.0 ] } },
{ "type": "Feature", "properties": { "value": 3.4574 }, "geometry": { "type": "Point", "coordinates": [ 129.369614, 35.500305, 115.0 ] } },
{ "type": "Feature", "properties": { "value": 3.4392 }, "geometry": { "type": "Point", "coordinates": [ 129.370712, 35.500301, 115.0 ] } },
{ "type": "Feature", "properties": { "value": 3.4127 }, "geometry": { "type": "Point", "coordinates": [ 129.371811, 35.500301, 115.0 ] } },
{ "type": "Feature", "properties": { "value": 3.3668 }, "geometry": { "type": "Point", "coordinates": [ 129.372925, 35.500298, 115.0 ] } },
{ "type": "Feature", "properties": { "value": 3.2983 }, "geometry": { "type": "Point", "coordinates": [ 129.374023, 35.500294, 115.0 ] } },
{ "type": "Feature", "properties": { "value": 3.1904 }, "geometry": { "type": "Point", "coordinates": [ 129.375122, 35.50029, 115.0 ] } },
{ "type": "Feature", "properties": { "value": 3.0406 }, "geometry": { "type": "Point", "coordinates": [ 129.376221, 35.500286, 115.0 ] } },
{ "type": "Feature", "properties": { "value": 2.8372 }, "geometry": { "type": "Point", "coordinates": [ 129.377335, 35.500282, 115.0 ] } },
{ "type": "Feature", "properties": { "value": 2.5869 }, "geometry": { "type": "Point", "coordinates": [ 129.378433, 35.500278, 115.0 ] } },
{ "type": "Feature", "properties": { "value": 2.2896 }, "geometry": { "type": "Point", "coordinates": [ 129.379532, 35.500275, 115.0 ] } },
{ "type": "Feature", "properties": { "value": 1.9634 }, "geometry": { "type": "Point", "coordinates": [ 129.38063, 35.500271, 115.0 ] } },
{ "type": "Feature", "properties": { "value": 1.6215 }, "geometry": { "type": "Point", "coordinates": [ 129.381744, 35.500267, 115.0 ] } },
{ "type": "Feature", "properties": { "value": 0.0528 }, "geometry": { "type": "Point", "coordinates": [ 129.349777, 35.501266, 115.0 ] } },
{ "type": "Feature", "properties": { "value": 0.1314 }, "geometry": { "type": "Point", "coordinates": [ 129.350876, 35.501263, 115.0 ] } },
{ "type": "Feature", "properties": { "value": 0.2413 }, "geometry": { "type": "Point", "coordinates": [ 129.35199, 35.501259, 115.0 ] } },
{ "type": "Feature", "properties": { "value": 0.3795 }, "geometry": { "type": "Point", "coordinates": [ 129.353088, 35.501259, 115.0 ] } },
{ "type": "Feature", "properties": { "value": 0.5588 }, "geometry": { "type": "Point", "coordinates": [ 129.354187, 35.501255, 115.0 ] } },
{ "type": "Feature", "properties": { "value": 0.7621 }, "geometry": { "type": "Point", "coordinates": [ 129.355286, 35.501251, 115.0 ] } },
{ "type": "Feature", "properties": { "value": 0.9899 }, "geometry": { "type": "Point", "coordinates": [ 129.3564, 35.501247, 115.0 ] } },
{ "type": "Feature", "properties": { "value": 1.2291 }, "geometry": { "type": "Point", "coordinates": [ 129.357498, 35.501244, 115.0 ] } },
{ "type": "Feature", "properties": { "value": 1.4718 }, "geometry": { "type": "Point", "coordinates": [ 129.358597, 35.50124, 115.0 ] } },
{ "type": "Feature", "properties": { "value": 1.7049 }, "geometry": { "type": "Point", "coordinates": [ 129.359695, 35.50124, 115.0 ] } },
{ "type": "Feature", "properties": { "value": 1.9163 }, "geometry": { "type": "Point", "coordinates": [ 129.360794, 35.501236, 115.0 ] } },
{ "type": "Feature", "properties": { "value": 2.0985 }, "geometry": { "type": "Point", "coordinates": [ 129.361908, 35.501232, 115.0 ] } },
{ "type": "Feature", "properties": { "value": 2.2457 }, "geometry": { "type": "Point", "coordinates": [ 129.363007, 35.501228, 115.0 ] } },
{ "type": "Feature", "properties": { "value": 2.3657 }, "geometry": { "type": "Point", "coordinates": [ 129.364105, 35.501225, 115.0 ] } },
{ "type": "Feature", "properties": { "value": 2.4558 }, "geometry": { "type": "Point", "coordinates": [ 129.365204, 35.501221, 115.0 ] } },
{ "type": "Feature", "properties": { "value": 2.5148 }, "geometry": { "type": "Point", "coordinates": [ 129.366318, 35.501217, 115.0 ] } },
{ "type": "Feature", "properties": { "value": 2.5568 }, "geometry": { "type": "Point", "coordinates": [ 129.367416, 35.501213, 115.0 ] } },
{ "type": "Feature", "properties": { "value": 2.5817 }, "geometry": { "type": "Point", "coordinates": [ 129.368515, 35.501213, 115.0 ] } },
{ "type": "Feature", "properties": { "value": 2.5938 }, "geometry": { "type": "Point", "coordinates": [ 129.369614, 35.501209, 115.0 ] } },
{ "type": "Feature", "properties": { "value": 2.5981 }, "geometry": { "type": "Point", "coordinates": [ 129.370728, 35.501205, 115.0 ] } },
{ "type": "Feature", "properties": { "value": 2.5856 }, "geometry": { "type": "Point", "coordinates": [ 129.371826, 35.501202, 115.0 ] } },
{ "type": "Feature", "properties": { "value": 2.5581 }, "geometry": { "type": "Point", "coordinates": [ 129.372925, 35.501198, 115.0 ] } },
{ "type": "Feature", "properties": { "value": 2.5036 }, "geometry": { "type": "Point", "coordinates": [ 129.374023, 35.501194, 115.0 ] } },
{ "type": "Feature", "properties": { "value": 2.4216 }, "geometry": { "type": "Point", "coordinates": [ 129.375122, 35.50119, 115.0 ] } },
{ "type": "Feature", "properties": { "value": 2.3004 }, "geometry": { "type": "Point", "coordinates": [ 129.376236, 35.501186, 115.0 ] } },
{ "type": "Feature", "properties": { "value": 2.1432 }, "geometry": { "type": "Point", "coordinates": [ 129.377335, 35.501183, 115.0 ] } },
{ "type": "Feature", "properties": { "value": 1.9453 }, "geometry": { "type": "Point", "coordinates": [ 129.378433, 35.501179, 115.0 ] } },
{ "type": "Feature", "properties": { "value": 1.7184 }, "geometry": { "type": "Point", "coordinates": [ 129.379532, 35.501179, 115.0 ] } },
{ "type": "Feature", "properties": { "value": 1.4669 }, "geometry": { "type": "Point", "coordinates": [ 129.380646, 35.501175, 115.0 ] } },
{ "type": "Feature", "properties": { "value": 1.2076 }, "geometry": { "type": "Point", "coordinates": [ 129.381744, 35.501171, 115.0 ] } }
]
}
