{
"type": "FeatureCollection",
"features": [
{ "type": "Feature", "properties": { "value": 0.0 }, "geometry": { "type": "Point", "coordinates": [ 129.328705, 35.467979, 225.0 ] } },
{ "type": "Feature", "properties": { "value": 0.0 }, "geometry": { "type": "Point", "coordinates": [ 129.329803, 35.467976, 225.0 ] } },
{ "type": "Feature", "properties": { "value": 0.0 }, "geometry": { "type": "Point", "coordinates": [ 129.327606, 35.468884, 225.0 ] } },
{ "type": "Feature", "properties": { "value": 0.0 }, "geometry": { "type": "Point", "coordinates": [ 129.328705, 35.46888, 225.0 ] } },
{ "type": "Feature", "properties": { "value": 0.0 }, "geometry": { "type": "Point", "coordinates": [ 129.329803, 35.468876, 225.0 ] } },
{ "type": "Feature", "properties": { "value": 0.0 }, "geometry": { "type": "Point", "coordinates": [ 129.327606, 35.469784, 225.0 ] } },
{ "type": "Feature", "properties": { "value": 0.0 }, "geometry": { "type": "Point", "coordinates": [ 129.328705, 35.46978, 225.0 ] } },
{ "type": "Feature", "properties": { "value": 0.0 }, "geometry": { "type": "Point", "coordinates": [ 129.329819, 35.469776, 225.0 ] } },
{ "type": "Feature", "properties": { "value": 0.0 }, "geometry": { "type": "Point", "coordinates": [ 129.32872, 35.470684, 225.0 ] } },
{ "type": "Feature", "properties": { "value": 0.0 }, "geometry": { "type": "Point", "coordinates": [ 129.329819, 35.47068, 225.0 ] } },
{ "type": "Feature", "properties": { "value": 0.0 }, "geometry": { "type": "Point", "coordinates": [ 129.32872, 35.471584, 225.0 ] } },
{ "type": "Feature", "properties": { "value": 0.0 }, "geometry": { "type": "Point", "coordinates": [ 129.329819, 35.472481, 225.0 ] } },
{ "type": "Feature", "properties": { "value": 0.0 }, "geometry": { "type": "Point", "coordinates": [ 129.330917, 35.472477, 225.0 ] } },
{ "type": "Feature", "properties": { "value": 0.0 }, "geometry": { "type": "Point", "coordinates": [ 129.32872, 35.473385, 225.0 ] } },
{ "type": "Feature", "properties": { "value": 0.0 }, "geometry": { "type": "Point", "coordinates": [ 129.329819, 35.473385, 225.0 ] } },
{ "type": "Feature", "properties": { "value": 0.0 }, "geometry": { "type": "Point", "coordinates": [ 129.330933, 35.473381, 225.0 ] } },
{ "type": "Feature", "properties": { "value": 0.0 }, "geometry": { "type": "Point", "coordinates": [ 129.332031, 35.473377, 225.0 ] } },
{ "type": "Feature", "properties": { "value": 0.0 }, "geometry": { "type": "Point", "coordinates": [ 129.328735, 35.474289, 225.0 ] } },
{ "type": "Feature", "properties": { "value": 0.0 }, "geometry": { "type": "Point", "coordinates": [ 129.329834, 35.474285, 225.0 ] } },
{ "type": "Feature", "properties": { "value": 0.0001 }, "geometry": { "type": "Point", "coordinates": [ 129.330933, 35.474281, 225.0 ] } },
{ "type": "Feature", "properties": { "value": 0.0001 }, "geometry": { "type": "Point", "coordinates": [ 129.332031, 35.474277, 225.0 ] } },
{ "type": "Feature", "properties": { "value": 0.0 }, "geometry": { "type": "Point", "coordinates": [ 129.328735, 35.475189, 225.0 ] } },
{ "type": "Feature", "properties": { "value": 0.0001 }, "geometry": { "type": "Point", "coordinates": [ 129.329834, 35.475185, 225.0 ] } },
{ "type": "Feature", "properties": { "value": 0.0009 }, "geometry": { "type": "Point", "coordinates": [ 129.330933, 35.475182, 225.0 ] } },
{ "type": "Feature", "properties": { "value": 0.0009 }, "geometry": { "type": "Point", "coordinates": [ 129.332031, 35.475178, 225.0 ] } },
{ "type": "Feature", "properties": { "value": 0.0001 }, "geometry": { "type": "Point", "coordinates": [ 129.333145, 35.475178, 225.0 ] } },
{ "type": "Feature", "properties": { "value": 0.0 }, "geometry": { "type": "Point", "coordinates": [ 129.328735, 35.476089, 225.0 ] } },
{ "type": "Feature", "properties": { "value": 0.0004 }, "geometry": { "type": "Point", "coordinates": [ 129.329834, 35.476086, 225.0 ] } },
{ "type": "Feature", "properties": { "value": 0.0049 }, "geometry": { "type": "Point", "coordinates": [ 129.330933, 35.476086, 225.0 ] } },
{ "type": "Feature", "properties": { "value": 0.0052 }, "geometry": { "type": "Point", "coordinates": [ 129.332047, 35.476082, 225.0 ] } },
{ "type": "Feature", "properties": { "value": 0.0008 }, "geometry": { "type": "Point", "coordinates": [ 129.333145, 35.476078, 225.0 ] } },
{ "type": "Feature", "properties": { "value": 0.001 }, "geometry": { "type": "Point", "coordinates": [ 129.329834, 35.47699, 225.0 ] } },
{ "type": "Feature", "properties": { "value": 0.0119 }, "geometry": { "type": "Point", "coordinates": [ 129.330948, 35.476986, 225.0 ] } },
{ "type": "Feature", "properties": { "value": 0.0168 }, "geometry": { "type": "Point", "coordinates": [ 129.332047, 35.476982, 225.0 ] } },
{ "type": "Feature", "properties": { "value": 0.0047 }, "geometry": { "type": "Point", "coordinates": [ 129.333145, 35.476978, 225.0 ] } },
{ "type": "Feature", "properties": { "value": 0.0001 }, "geometry": { "type": "Point", "coordinates": [ 129.334244, 35.476974, 225.0 ] } },
{ "type": "Feature", "properties": { "value": 0.0018 }, "geometry": { "type": "Point", "coordinates": [ 129.329849, 35.47789, 225.0 ] } },
{ "type": "Feature", "properties": { "value": 0.0183 }, "geometry": { "type": "Point", "coordinates": [ 129.330948, 35.477886, 225.0 ] } },
{ "type": "Feature", "properties": { "value": 0.035 }, "geometry": { "type": "Point", "coordinates": [ 129.332047, 35.477882, 225.0 ] } },
{ "type": "Feature", "properties": { "value": 0.0166 }, "geometry": { "type": "Point", "coordinates": [ 129.333145, 35.477879, 225.0 ] } },
{ "type": "Feature", "properties": { "value": 0.0021 }, "geometry": { "type": "Point", "coordinates": [ 129.334259, 35.477879, 225.0 ] } },
{ "type": "Feature", "properties": { "value": 0.0019 }, "geometry": { "type": "Point", "coordinates": [ 129.329849, 35.47879, 225.0 ] } },
{ "type": "Feature", "properties": { "value": 0.0221 }, "geometry": { "type": "Point", "coordinates": [ 129.330948, 35.478786, 225.0 ] } },
{ "type": "Feature", "properties": { "value": 0.0601 }, "geometry": { "type": "Point", "coordinates": [ 129.332047, 35.478786, 225.0 ] } },
{ "type": "Feature", "properties": { "value": 0.0459 }, "geometry": { "type": "Point", "coordinates": [ 129.33316, 35.478783, 225.0 ] } },
{ "type": "Feature", "properties": { "value": 0.0104 }, "geometry": { "type": "Point", "coordinates": [ 129.334259, 35.478779, 225.0 ] } },
{ "type": "Feature", "properties": { "value": 0.001 }, "geometry": { "type": "Point", "coordinates": [ 129.329849, 35.479691, 225.0 ] } },
{ "type": "Feature", "properties": { "value": 0.0206 }, "geometry": { "type": "Point", "coordinates": [ 129.330948, 35.479691, 225.0 ] } },
{ "type": "Feature", "properties": { "value": 0.0809 }, "geometry": { "type": "Point", "coordinates": [ 129.332062, 35.479687, 225.0 ] } },
{ "type": "Feature", "properties": { "value": 0.0964 }, "geometry": { "type": "Point", "coordinates": [ 129.33316, 35.479683, 225.0 ] } },
{ "type": "Feature", "properties": { "value": 0.0358 }, "geometry": { "type": "Point", "coordinates": [ 129.334259, 35.479679, 225.0 ] } },
{ "type": "Feature", "properties": { "value": 0.0039 }, "geometry": { "type": "Point", "coordinates": [ 129.335358, 35.479675, 225.0 ] } },
{ "type": "Feature", "properties": { "value": 0.0146 }, "geometry": { "type": "Point", "coordinates": [ 129.330963, 35.480591, 225.0 ] } },
{ "type": "Feature", "properties": { "value": 0.0823 }, "geometry": { "type": "Point", "coordinates": [ 129.332062, 35.480587, 225.0 ] } },
{ "type": "Feature", "properties": { "value": 0.154 }, "geometry": { "type": "Point", "coordinates": [ 129.33316, 35.480583, 225.0 ] } },
{ "type": "Feature", "properties": { "value": 0.0968 }, "geometry": { "type": "Point", "coordinates": [ 129.334259, 35.480579, 225.0 ] } },
{ "type": "Feature", "properties": { "value": 0.021 }, "geometry": { "type": "Point", "coordinates": [ 129.335358, 35.480579, 225.0 ] } },
{ "type": "Feature", "properties": { "value": 0.0086 }, "geometry": { "type": "Point", "coordinates": [ 129.330963, 35.481491, 225.0 ] } },
{ "type": "Feature", "properties": { "value": 0.0724 }, "geometry": { "type": "Point", "coordinates": [ 129.332062, 35.481487, 225.0 ] } },
{ "type": "Feature", "properties": { "value": 0.2111 }, "geometry": { "type": "Point", "coordinates": [ 129.33316, 35.481487, 225.0 ] } },
{ "type": "Feature", "properties": { "value": 0.2254 }, "geometry": { "type": "Point", "coordinates": [ 129.334259, 35.481483, 225.0 ] } },
{ "type": "Feature", "properties": { "value": 0.09 }, "geometry": { "type": "Point", "coordinates": [ 129.335373, 35.48148, 225.0 ] } },
{ "type": "Feature", "properties": { "value": 0.0145 }, "geometry": { "type": "Point", "coordinates": [ 129.336472, 35.481476, 225.0 ] } },
{ "type": "Feature", "properties": { "value": 0.004 }, "geometry": { "type": "Point", "coordinates": [ 129.330963, 35.482391, 225.0 ] } },
{ "type": "Feature", "properties": { "value": 0.0576 }, "geometry": { "type": "Point", "coordinates": [ 129.332062, 35.482391, 225.0 ] } },
{ "type": "Feature", "properties": { "value": 0.2529 }, "geometry": { "type": "Point", "coordinates": [ 129.333176, 35.482388, 225.0 ] } },
{ "type": "Feature", "properties": { "value": 0.4259 }, "geometry": { "type": "Point", "coordinates": [ 129.334274, 35.482384, 225.0 ] } },
{ "type": "Feature", "properties": { "value": 0.2864 }, "geometry": { "type": "Point", "coordinates": [ 129.335373, 35.48238, 225.0 ] } },
{ "type": "Feature", "properties": { "value": 0.0904 }, "geometry": { "type": "Point", "coordinates": [ 129.336472, 35.482376, 225.0 ] } },
{ "type": "Feature", "properties": { "value": 0.0122 }, "geometry": { "type": "Point", "coordinates": [ 129.33757, 35.482376, 225.0 ] } },
{ "type": "Feature", "properties": { "value": 0.0404 }, "geometry": { "type": "Point", "coordinates": [ 129.332077, 35.483292, 225.0 ] } },
{ "type": "Feature", "properties": { "value": 0.2562 }, "geometry": { "type": "Point", "coordinates": [ 129.333176, 35.483288, 225.0 ] } },
{ "type": "Feature", "properties": { "value": 0.6349 }, "geometry": { "type": "Point", "coordinates": [ 129.334274, 35.483284, 225.0 ] } },
{ "type": "Feature", "properties": { "value": 0.6684 }, "geometry": { "type": "Point", "coordinates": [ 129.335373, 35.48328, 225.0 ] } },
{ "type": "Feature", "properties": { "value": 0.3424 }, "geometry": { "type": "Point", "coordinates": [ 129.336472, 35.48328, 225.0 ] } },
{ "type": "Feature", "properties": { "value": 0.1088 }, "geometry": { "type": "Point", "coordinates": [ 129.337585, 35.483276, 225.0 ] } },
{ "type": "Feature", "properties": { "value": 0.0151 }, "geometry": { "type": "Point", "coordinates": [ 129.338684, 35.483273, 225.0 ] } },
{ "type": "Feature", "properties": { "value": 0.0242 }, "geometry": { "type": "Point", "coordinates": [ 129.332077, 35.484192, 225.0 ] } },
{ "type": "Feature", "properties": { "value": 0.2109 }, "geometry": { "type": "Point", "coordinates": [ 129.333176, 35.484188, 225.0 ] } },
{ "type": "Feature", "properties": { "value": 0.7278 }, "geometry": { "type": "Point", "coordinates": [ 129.334274, 35.484188, 225.0 ] } },
{ "type": "Feature", "properties": { "value": 1.1237 }, "geometry": { "type": "Point", "coordinates": [ 129.335373, 35.484184, 225.0 ] } },
{ "type": "Feature", "properties": { "value": 0.8699 }, "geometry": { "type": "Point", "coordinates": [ 129.336487, 35.48418, 225.0 ] } },
{ "type": "Feature", "properties": { "value": 0.4088 }, "geometry": { "type": "Point", "coordinates": [ 129.337585, 35.484177, 225.0 ] } },
{ "type": "Feature", "properties": { "value": 0.1303 }, "geometry": { "type": "Point", "coordinates": [ 129.338684, 35.484173, 225.0 ] } },
{ "type": "Feature", "properties": { "value": 0.0205 }, "geometry": { "type": "Point", "coordinates": [ 129.339783, 35.484173, 225.0 ] } },
{ "type": "Feature", "properties": { "value": 0.0108 }, "geometry": { "type": "Point", "coordinates": [ 129.332077, 35.485092, 225.0 ] } },
{ "type": "Feature", "properties": { "value": 0.146 }, "geometry": { "type": "Point", "coordinates": [ 129.333176, 35.485092, 225.0 ] } },
{ "type": "Feature", "properties": { "value": 0.6449 }, "geometry": { "type": "Point", "coordinates": [ 129.334274, 35.485088, 225.0 ] } },
{ "type": "Feature", "properties": { "value": 1.3274 }, "geometry": { "type": "Point", "coordinates": [ 129.335388, 35.485085, 225.0 ] } },
{ "type": "Feature", "properties": { "value": 1.4604 }, "geometry": { "type": "Point", "coordinates": [ 129.336487, 35.485081, 225.0 ] } },
{ "type": "Feature", "properties": { "value": 0.9787 }, "geometry": { "type": "Point", "coordinates": [ 129.337585, 35.485077, 225.0 ] } },
{ "type": "Feature", "properties": { "value": 0.4414 }, "geometry": { "type": "Point", "coordinates": [ 129.338684, 35.485077, 225.0 ] } },
{ "type": "Feature", "properties": { "value": 0.1399 }, "geometry": { "type": "Point", "coordinates": [ 129.339798, 35.485073, 225.0 ] } },
{ "type": "Feature", "properties": { "value": 0.0233 }, "geometry": { "type": "Point", "coordinates": [ 129.340897, 35.485069, 225.0 ] } },
{ "type": "Feature", "properties": { "value": 0.0907 }, "geometry": { "type": "Point", "coordinates": [ 129.333176, 35.485992, 225.0 ] } },
{ "type": "Feature", "properties": { "value": 0.4735 }, "geometry": { "type": "Point", "coordinates": [ 129.33429, 35.485989, 225.0 ] } },
{ "type": "Feature", "properties": { "value": 1.2373 }, "geometry": { "type": "Point", "coordinates": [ 129.335388, 35.485985, 225.0 ] } },
{ "type": "Feature", "properties": { "value": 1.8238 }, "geometry": { "type": "Point", "coordinates": [ 129.336487, 35.485981, 225.0 ] } },
{ "type": "Feature", "properties": { "value": 1.6599 }, "geometry": { "type": "Point", "coordinates": [ 129.337585, 35.485981, 225.0 ] } },
{ "type": "Feature", "properties": { "value": 1.0179 }, "geometry": { "type": "Point", "coordinates": [ 129.338699, 35.485977, 225.0 ] } },
{ "type": "Feature", "properties": { "value": 0.4492 }, "geometry": { "type": "Point", "coordinates": [ 129.339798, 35.485973, 225.0 ] } },
{ "type": "Feature", "properties": { "value": 0.1526 }, "geometry": { "type": "Point", "coordinates": [ 129.340897, 35.48597, 225.0 ] } },
{ "type": "Feature", "properties": { "value": 0.0294 }, "geometry": { "type": "Point", "coordinates": [ 129.341995, 35.485966, 225.0 ] } },
{ "type": "Feature", "properties": { "value": 0.0496 }, "geometry": { "type": "Point", "coordinates": [ 129.333191, 35.486893, 225.0 ] } },
{ "type": "Feature", "properties": { "value": 0.3146 }, "geometry": { "type": "Point", "coordinates": [ 129.33429, 35.486889, 225.0 ] } },
{ "type": "Feature", "properties": { "value": 1.0049 }, "geometry": { "type": "Point", "coordinates": [ 129.335388, 35.486889, 225.0 ] } },
{ "type": "Feature", "properties": { "value": 1.8763 }, "geometry": { "type": "Point", "coordinates": [ 129.336487, 35.486885, 225.0 ] } },
{ "type": "Feature", "properties": { "value": 2.2033 }, "geometry": { "type": "Point", "coordinates": [ 129.337601, 35.486881, 225.0 ] } },
{ "type": "Feature", "properties": { "value": 1.7862 }, "geometry": { "type": "Point", "coordinates": [ 129.338699, 35.486877, 225.0 ] } },
{ "type": "Feature", "properties": { "value": 1.0532 }, "geometry": { "type": "Point", "coordinates": [ 129.339798, 35.486874, 225.0 ] } },
{ "type": "Feature", "properties": { "value": 0.4749 }, "geometry": { "type": "Point", "coordinates": [ 129.340897, 35.486874, 225.0 ] } },
{ "type": "Feature", "properties": { "value": 0.1732 }, "geometry": { "type": "Point", "coordinates": [ 129.341995, 35.48687, 225.0 ] } },
{ "type": "Feature", "properties": { "value": 0.0475 }, "geometry": { "type": "Point", "coordinates": [ 129.343109, 35.486866, 225.0 ] } },
{ "type": "Feature", "properties": { "value": 0.0219 }, "geometry": { "type": "Point", "coordinates": [ 129.333191, 35.487793, 225.0 ] } },
{ "type": "Feature", "properties": { "value": 0.1914 }, "geometry": { "type": "Point", "coordinates": [ 129.33429, 35.487793, 225.0 ] } },
{ "type": "Feature", "properties": { "value": 0.7276 }, "geometry": { "type": "Point", "coordinates": [ 129.335388, 35.487789, 225.0 ] } },
{ "type": "Feature", "properties": { "value": 1.6609 }, "geometry": { "type": "Point", "coordinates": [ 129.336502, 35.487785, 225.0 ] } },
{ "type": "Feature", "properties": { "value": 2.4588 }, "geometry": { "type": "Point", "coordinates": [ 129.337601, 35.487782, 225.0 ] } },
{ "type": "Feature", "properties": { "value": 2.568 }, "geometry": { "type": "Point", "coordinates": [ 129.338699, 35.487778, 225.0 ] } },
{ "type": "Feature", "properties": { "value": 1.9486 }, "geometry": { "type": "Point", "coordinates": [ 129.339798, 35.487778, 225.0 ] } },
{ "type": "Feature", "properties": { "value": 1.1206 }, "geometry": { "type": "Point", "coordinates": [ 129.340912, 35.487774, 225.0 ] } },
{ "type": "Feature", "properties": { "value": 0.5294 }, "geometry": { "type": "Point", "coordinates": [ 129.34201, 35.48777, 225.0 ] } },
{ "type": "Feature", "properties": { "value": 0.2141 }, "geometry": { "type": "Point", "coordinates": [ 129.343109, 35.487766, 225.0 ] } },
{ "type": "Feature", "properties": { "value": 0.0699 }, "geometry": { "type": "Point", "coordinates": [ 129.344208, 35.487762, 225.0 ] } },
{ "type": "Feature", "properties": { "value": 0.106 }, "geometry": { "type": "Point", "coordinates": [ 129.33429, 35.488693, 225.0 ] } },
{ "type": "Feature", "properties": { "value": 0.4766 }, "geometry": { "type": "Point", "coordinates": [ 129.335403, 35.488689, 225.0 ] } },
{ "type": "Feature", "properties": { "value": 1.2958 }, "geometry": { "type": "Point", "coordinates": [ 129.336502, 35.488686, 225.0 ] } },
{ "type": "Feature", "properties": { "value": 2.3444 }, "geometry": { "type": "Point", "coordinates": [ 129.337601, 35.488682, 225.0 ] } },
{ "type": "Feature", "properties": { "value": 3.0374 }, "geometry": { "type": "Point", "coordinates": [ 129.338699, 35.488682, 225.0 ] } },
{ "type": "Feature", "properties": { "value": 2.878 }, "geometry": { "type": "Point", "coordinates": [ 129.339813, 35.488678, 225.0 ] } },
{ "type": "Feature", "properties": { "value": 2.0708 }, "geometry": { "type": "Point", "coordinates": [ 129.340912, 35.488674, 225.0 ] } },
{ "type": "Feature", "properties": { "value": 1.2155 }, "geometry": { "type": "Point", "coordinates": [ 129.34201, 35.48867, 225.0 ] } },
{ "type": "Feature", "properties": { "value": 0.6123 }, "geometry": { "type": "Point", "coordinates": [ 129.343109, 35.488667, 225.0 ] } },
{ "type": "Feature", "properties": { "value": 0.274 }, "geometry": { "type": "Point", "coordinates": [ 129.344208, 35.488667, 225.0 ] } },
{ "type": "Feature", "properties": { "value": 0.1023 }, "geometry": { "type": "Point", "coordinates": [ 129.345322, 35.488663, 225.0 ] } },
{ "type": "Feature", "properties": { "value": 0.0103 }, "geometry": { "type": "Point", "coordinates": [ 129.34642, 35.488659, 225.0 ] } },
{ "type": "Feature", "properties": { "value": 0.05 }, "geometry": { "type": "Point", "coordinates": [ 129.334305, 35.489594, 225.0 ] } },
{ "type": "Feature", "properties": { "value": 0.2828 }, "geometry": { "type": "Point", "coordinates": [ 129.335403, 35.48959, 225.0 ] } },
{ "type": "Feature", "properties": { "value": 0.8947 }, "geometry": { "type": "Point", "coordinates": [ 129.336502, 35.48959, 225.0 ] } },
{ "type": "Feature", "properties": { "value": 1.9145 }, "geometry": { "type": "Point", "coordinates": [ 129.337601, 35.489586, 225.0 ] } },
{ "type": "Feature", "properties": { "value": 2.9665 }, "geometry": { "type": "Point", "coordinates": [ 129.338715, 35.489582, 225.0 ] } },
{ "type": "Feature", "properties": { "value": 3.4303 }, "geometry": { "type": "Point", "coordinates": [ 129.339813, 35.489578, 225.0 ] } },
{ "type": "Feature", "properties": { "value": 3.019 }, "geometry": { "type": "Point", "coordinates": [ 129.340912, 35.489574, 225.0 ] } },
{ "type": "Feature", "properties": { "value": 2.1479 }, "geometry": { "type": "Point", "coordinates": [ 129.34201, 35.489571, 225.0 ] } },
{ "type": "Feature", "properties": { "value": 1.3114 }, "geometry": { "type": "Point", "coordinates": [ 129.343109, 35.489571, 225.0 ] } },
{ "type": "Feature", "properties": { "value": 0.706 }, "geometry": { "type": "Point", "coordinates": [ 129.344223, 35.489567, 225.0 ] } },
{ "type": "Feature", "properties": { "value": 0.3363 }, "geometry": { "type": "Point", "coordinates": [ 129.345322, 35.489563, 225.0 ] } },
{ "type": "Feature", "properties": { "value": 0.1413 }, "geometry": { "type": "Point", "coordinates": [ 129.34642, 35.489559, 225.0 ] } },
{ "type": "Feature", "properties": { "value": 0.0391 }, "geometry": { "type": "Point", "coordinates": [ 129.347519, 35.489555, 225.0 ] } },
{ "type": "Feature", "properties": { "value": 0.1494 }, "geometry": { "type": "Point", "coordinates": [ 129.335403, 35.490494, 225.0 ] } },
{ "type": "Feature", "properties": { "value": 0.5479 }, "geometry": { "type": "Point", "coordinates": [ 129.336502, 35.49049, 225.0 ] } },
{ "type": "Feature", "properties": { "value": 1.369 }, "geometry": { "type": "Point", "coordinates": [ 129.337616, 35.490486, 225.0 ] } },
{ "type": "Feature", "properties": { "value": 2.5145 }, "geometry": { "type": "Point", "coordinates": [ 129.338715, 35.490482, 225.0 ] } },
{ "type": "Feature", "properties": { "value": 3.4474 }, "geometry": { "type": "Point", "coordinates": [ 129.339813, 35.490479, 225.0 ] } },
{ "type": "Feature", "properties": { "value": 3.6098 }, "geometry": { "type": "Point", "coordinates": [ 129.340912, 35.490479, 225.0 ] } },
{ "type": "Feature", "properties": { "value": 3.0797 }, "geometry": { "type": "Point", "coordinates": [ 129.34201, 35.490475, 225.0 ] } },
{ "type": "Feature", "properties": { "value": 2.249 }, "geometry": { "type": "Point", "coordinates": [ 129.343124, 35.490471, 225.0 ] } },
{ "type": "Feature", "properties": { "value": 1.4264 }, "geometry": { "type": "Point", "coordinates": [ 129.344223, 35.490467, 225.0 ] } },
{ "type": "Feature", "properties": { "value": 0.7995 }, "geometry": { "type": "Point", "coordinates": [ 129.345322, 35.490463, 225.0 ] } },
{ "type": "Feature", "properties": { "value": 0.4049 }, "geometry": { "type": "Point", "coordinates": [ 129.34642, 35.490459, 225.0 ] } },
{ "type": "Feature", "properties": { "value": 0.1856 }, "geometry": { "type": "Point", "coordinates": [ 129.347534, 35.490459, 225.0 ] } },
{ "type": "Feature", "properties": { "value": 0.0703 }, "geometry": { "type": "Point", "coordinates": [ 129.348633, 35.490456, 225.0 ] } },
{ "type": "Feature", "properties": { "value": 0.0681 }, "geometry": { "type": "Point", "coordinates": [ 129.335403, 35.491394, 225.0 ] } },
{ "type": "Feature", "properties": { "value": 0.3008 }, "geometry": { "type": "Point", "coordinates": [ 129.336517, 35.49139, 225.0 ] } },
{ "type": "Feature", "properties": { "value": 0.8698 }, "geometry": { "type": "Point", "coordinates": [ 129.337616, 35.491386, 225.0 ] } },
{ "type": "Feature", "properties": { "value": 1.8739 }, "geometry": { "type": "Point", "coordinates": [ 129.338715, 35.491383, 225.0 ] } },
{ "type": "Feature", "properties": { "value": 3.0222 }, "geometry": { "type": "Point", "coordinates": [ 129.339813, 35.491383, 225.0 ] } },
{ "type": "Feature", "properties": { "value": 3.739 }, "geometry": { "type": "Point", "coordinates": [ 129.340927, 35.491379, 225.0 ] } },
{ "type": "Feature", "properties": { "value": 3.7827 }, "geometry": { "type": "Point", "coordinates": [ 129.342026, 35.491375, 225.0 ] } },
{ "type": "Feature", "properties": { "value": 3.246 }, "geometry": { "type": "Point", "coordinates": [ 129.343124, 35.491371, 225.0 ] } },
{ "type": "Feature", "properties": { "value": 2.397 }, "geometry": { "type": "Point", "coordinates": [ 129.344223, 35.491367, 225.0 ] } },
{ "type": "Feature", "properties": { "value": 1.5554 }, "geometry": { "type": "Point", "coordinates": [ 129.345322, 35.491367, 225.0 ] } },
{ "type": "Feature", "properties": { "value": 0.9059 }, "geometry": { "type": "Point", "coordinates": [ 129.346436, 35.491364, 225.0 ] } },
{ "type": "Feature", "properties": { "value": 0.4849 }, "geometry": { "type": "Point", "coordinates": [ 129.347534, 35.49136, 225.0 ] } },
{ "type": "Feature", "properties": { "value": 0.2378 }, "geometry": { "type": "Point", "coordinates": [ 129.348633, 35.491356, 225.0 ] } },
{ "type": "Feature", "properties": { "value": 0.1022 }, "geometry": { "type": "Point", "coordinates": [ 129.349731, 35.491352, 225.0 ] } },
{ "type": "Feature", "properties": { "value": 0.0121 }, "geometry": { "type": "Point", "coordinates": [ 129.350845, 35.491348, 225.0 ] } },
{ "type": "Feature", "properties": { "value": 0.0057 }, "geometry": { "type": "Point", "coordinates": [ 129.335419, 35.492294, 225.0 ] } },
{ "type": "Feature", "properties": { "value": 0.1475 }, "geometry": { "type": "Point", "coordinates": [ 129.336517, 35.49229, 225.0 ] } },
{ "type": "Feature", "properties": { "value": 0.4974 }, "geometry": { "type": "Point", "coordinates": [ 129.337616, 35.49229, 225.0 ] } },
{ "type": "Feature", "properties": { "value": 1.2329 }, "geometry": { "type": "Point", "coordinates": [ 129.338715, 35.492287, 225.0 ] } },
{ "type": "Feature", "properties": { "value": 2.3194 }, "geometry": { "type": "Point", "coordinates": [ 129.339828, 35.492283, 225.0 ] } },
{ "type": "Feature", "properties": { "value": 3.3994 }, "geometry": { "type": "Point", "coordinates": [ 129.340927, 35.492279, 225.0 ] } },
{ "type": "Feature", "properties": { "value": 4.0402 }, "geometry": { "type": "Point", "coordinates": [ 129.342026, 35.492275, 225.0 ] } },
{ "type": "Feature", "properties": { "value": 4.0269 }, "geometry": { "type": "Point", "coordinates": [ 129.343124, 35.492271, 225.0 ] } },
{ "type": "Feature", "properties": { "value": 3.4467 }, "geometry": { "type": "Point", "coordinates": [ 129.344223, 35.492271, 225.0 ] } },
{ "type": "Feature", "properties": { "value": 2.5753 }, "geometry": { "type": "Point", "coordinates": [ 129.345337, 35.492268, 225.0 ] } },
{ "type": "Feature", "properties": { "value": 1.7138 }, "geometry": { "type": "Point", "coordinates": [ 129.346436, 35.492264, 225.0 ] } },
{ "type": "Feature", "properties": { "value": 1.0436 }, "geometry": { "type": "Point", "coordinates": [ 129.347534, 35.49226, 225.0 ] } },
{ "type": "Feature", "properties": { "value": 0.5916 }, "geometry": { "type": "Point", "coordinates": [ 129.348633, 35.492256, 225.0 ] } },
{ "type": "Feature", "properties": { "value": 0.3106 }, "geometry": { "type": "Point", "coordinates": [ 129.349747, 35.492252, 225.0 ] } },
{ "type": "Feature", "properties": { "value": 0.1509 }, "geometry": { "type": "Point", "coordinates": [ 129.350845, 35.492252, 225.0 ] } },
{ "type": "Feature", "properties": { "value": 0.0555 }, "geometry": { "type": "Point", "coordinates": [ 129.351944, 35.492249, 225.0 ] } },
{ "type": "Feature", "properties": { "value": 0.0595 }, "geometry": { "type": "Point", "coordinates": [ 129.336517, 35.493195, 225.0 ] } },
{ "type": "Feature", "properties": { "value": 0.2585 }, "geometry": { "type": "Point", "coordinates": [ 129.337616, 35.493191, 225.0 ] } },
{ "type": "Feature", "properties": { "value": 0.7317 }, "geometry": { "type": "Point", "coordinates": [ 129.33873, 35.493187, 225.0 ] } },
{ "type": "Feature", "properties": { "value": 1.5856 }, "geometry": { "type": "Point", "coordinates": [ 129.339828, 35.493183, 225.0 ] } },
{ "type": "Feature", "properties": { "value": 2.7158 }, "geometry": { "type": "Point", "coordinates": [ 129.340927, 35.493179, 225.0 ] } },
{ "type": "Feature", "properties": { "value": 3.7556 }, "geometry": { "type": "Point", "coordinates": [ 129.342026, 35.493179, 225.0 ] } },
{ "type": "Feature", "properties": { "value": 4.3156 }, "geometry": { "type": "Point", "coordinates": [ 129.343124, 35.493176, 225.0 ] } },
{ "type": "Feature", "properties": { "value": 4.2373 }, "geometry": { "type": "Point", "coordinates": [ 129.344238, 35.493172, 225.0 ] } },
{ "type": "Feature", "properties": { "value": 3.6227 }, "geometry": { "type": "Point", "coordinates": [ 129.345337, 35.493168, 225.0 ] } },
{ "type": "Feature", "properties": { "value": 2.7529 }, "geometry": { "type": "Point", "coordinates": [ 129.346436, 35.493164, 225.0 ] } },
{ "type": "Feature", "properties": { "value": 1.8998 }, "geometry": { "type": "Point", "coordinates": [ 129.347534, 35.49316, 225.0 ] } },
{ "type": "Feature", "properties": { "value": 1.2141 }, "geometry": { "type": "Point", "coordinates": [ 129.348648, 35.49316, 225.0 ] } },
{ "type": "Feature", "properties": { "value": 0.726 }, "geometry": { "type": "Point", "coordinates": [ 129.349747, 35.493156, 225.0 ] } },
{ "type": "Feature", "properties": { "value": 0.4126 }, "geometry": { "type": "Point", "coordinates": [ 129.350845, 35.493153, 225.0 ] } },
{ "type": "Feature", "properties": { "value": 0.224 }, "geometry": { "type": "Point", "coordinates": [ 129.351944, 35.493149, 225.0 ] } },
{ "type": "Feature", "properties": { "value": 0.1124 }, "geometry": { "type": "Point", "coordinates": [ 129.353043, 35.493145, 225.0 ] } },
{ "type": "Feature", "properties": { "value": 0.0485 }, "geometry": { "type": "Point", "coordinates": [ 129.354156, 35.493141, 225.0 ] } },
{ "type": "Feature", "properties": { "value": 0.0025 }, "geometry": { "type": "Point", "coordinates": [ 129.355255, 35.493141, 225.0 ] } },
{ "type": "Feature", "properties": { "value": 0.1185 }, "geometry": { "type": "Point", "coordinates": [ 129.337631, 35.494091, 225.0 ] } },
{ "type": "Feature", "properties": { "value": 0.3978 }, "geometry": { "type": "Point", "coordinates": [ 129.33873, 35.494087, 225.0 ] } },
{ "type": "Feature", "properties": { "value": 0.9852 }, "geometry": { "type": "Point", "coordinates": [ 129.339828, 35.494083, 225.0 ] } },
{ "type": "Feature", "properties": { "value": 1.9292 }, "geometry": { "type": "Point", "coordinates": [ 129.340927, 35.494083, 225.0 ] } },
{ "type": "Feature", "properties": { "value": 3.0569 }, "geometry": { "type": "Point", "coordinates": [ 129.342026, 35.49408, 225.0 ] } },
{ "type": "Feature", "properties": { "value": 4.0146 }, "geometry": { "type": "Point", "coordinates": [ 129.34314, 35.494076, 225.0 ] } },
{ "type": "Feature", "properties": { "value": 4.4836 }, "geometry": { "type": "Point", "coordinates": [ 129.344238, 35.494072, 225.0 ] } },
{ "type": "Feature", "properties": { "value": 4.3566 }, "geometry": { "type": "Point", "coordinates": [ 129.345337, 35.494068, 225.0 ] } },
{ "type": "Feature", "properties": { "value": 3.7622 }, "geometry": { "type": "Point", "coordinates": [ 129.346436, 35.494068, 225.0 ] } },
{ "type": "Feature", "properties": { "value": 2.9363 }, "geometry": { "type": "Point", "coordinates": [ 129.347549, 35.494064, 225.0 ] } },
{ "type": "Feature", "properties": { "value": 2.1075 }, "geometry": { "type": "Point", "coordinates": [ 129.348648, 35.494061, 225.0 ] } },
{ "type": "Feature", "properties": { "value": 1.4183 }, "geometry": { "type": "Point", "coordinates": [ 129.349747, 35.494057, 225.0 ] } },
{ "type": "Feature", "properties": { "value": 0.9061 }, "geometry": { "type": "Point", "coordinates": [ 129.350845, 35.494053, 225.0 ] } },
{ "type": "Feature", "properties": { "value": 0.5589 }, "geometry": { "type": "Point", "coordinates": [ 129.351959, 35.494049, 225.0 ] } },
{ "type": "Feature", "properties": { "value": 0.3383 }, "geometry": { "type": "Point", "coordinates": [ 129.353058, 35.494049, 225.0 ] } },
{ "type": "Feature", "properties": { "value": 0.2042 }, "geometry": { "type": "Point", "coordinates": [ 129.354156, 35.494045, 225.0 ] } },
{ "type": "Feature", "properties": { "value": 0.1192 }, "geometry": { "type": "Point", "coordinates": [ 129.355255, 35.494041, 225.0 ] } },
{ "type": "Feature", "properties": { "value": 0.0663 }, "geometry": { "type": "Point", "coordinates": [ 129.356354, 35.494038, 225.0 ] } },
{ "type": "Feature", "properties": { "value": 0.0284 }, "geometry": { "type": "Point", "coordinates": [ 129.357468, 35.494034, 225.0 ] } },
{ "type": "Feature", "properties": { "value": 0.0418 }, "geometry": { "type": "Point", "coordinates": [ 129.337631, 35.494991, 225.0 ] } },
{ "type": "Feature", "properties": { "value": 0.1981 }, "geometry": { "type": "Point", "coordinates": [ 129.33873, 35.494991, 225.0 ] } },
{ "type": "Feature", "properties": { "value": 0.5584 }, "geometry": { "type": "Point", "coordinates": [ 129.339828, 35.494987, 225.0 ] } },
{ "type": "Feature", "properties": { "value": 1.229 }, "geometry": { "type": "Point", "coordinates": [ 129.340942, 35.494984, 225.0 ] } },
{ "type": "Feature", "properties": { "value": 2.2054 }, "geometry": { "type": "Point", "coordinates": [ 129.342041, 35.49498, 225.0 ] } },
{ "type": "Feature", "properties": { "value": 3.2893 }, "geometry": { "type": "Point", "coordinates": [ 129.34314, 35.494976, 225.0 ] } },
{ "type": "Feature", "properties": { "value": 4.1508 }, "geometry": { "type": "Point", "coordinates": [ 129.344238, 35.494972, 225.0 ] } },
{ "type": "Feature", "properties": { "value": 4.5502 }, "geometry": { "type": "Point", "coordinates": [ 129.345337, 35.494972, 225.0 ] } },
{ "type": "Feature", "properties": { "value": 4.4315 }, "geometry": { "type": "Point", "coordinates": [ 129.346451, 35.494968, 225.0 ] } },
{ "type": "Feature", "properties": { "value": 3.8897 }, "geometry": { "type": "Point", "coordinates": [ 129.347549, 35.494965, 225.0 ] } },
{ "type": "Feature", "properties": { "value": 3.1278 }, "geometry": { "type": "Point", "coordinates": [ 129.348648, 35.494961, 225.0 ] } },
{ "type": "Feature", "properties": { "value": 2.3535 }, "geometry": { "type": "Point", "coordinates": [ 129.349747, 35.494957, 225.0 ] } },
{ "type": "Feature", "properties": { "value": 1.6799 }, "geometry": { "type": "Point", "coordinates": [ 129.350861, 35.494953, 225.0 ] } },
{ "type": "Feature", "properties": { "value": 1.1491 }, "geometry": { "type": "Point", "coordinates": [ 129.351959, 35.494953, 225.0 ] } },
{ "type": "Feature", "properties": { "value": 0.7717 }, "geometry": { "type": "Point", "coordinates": [ 129.353058, 35.494949, 225.0 ] } },
{ "type": "Feature", "properties": { "value": 0.5133 }, "geometry": { "type": "Point", "coordinates": [ 129.354156, 35.494946, 225.0 ] } },
{ "type": "Feature", "properties": { "value": 0.3416 }, "geometry": { "type": "Point", "coordinates": [ 129.355255, 35.494942, 225.0 ] } },
{ "type": "Feature", "properties": { "value": 0.2287 }, "geometry": { "type": "Point", "coordinates": [ 129.356369, 35.494938, 225.0 ] } },
{ "type": "Feature", "properties": { "value": 0.1498 }, "geometry": { "type": "Point", "coordinates": [ 129.357468, 35.494934, 225.0 ] } },
{ "type": "Feature", "properties": { "value": 0.0957 }, "geometry": { "type": "Point", "coordinates": [ 129.358566, 35.494934, 225.0 ] } },
{ "type": "Feature", "properties": { "value": 0.0553 }, "geometry": { "type": "Point", "coordinates": [ 129.359665, 35.49493, 225.0 ] } },
{ "type": "Feature", "properties": { "value": 0.0262 }, "geometry": { "type": "Point", "coordinates": [ 129.360779, 35.494926, 225.0 ] } },
{ "type": "Feature", "properties": { "value": 0.0088 }, "geometry": { "type": "Point", "coordinates": [ 129.361877, 35.494923, 225.0 ] } },
{ "type": "Feature", "properties": { "value": 0.001 }, "geometry": { "type": "Point", "coordinates": [ 129.362976, 35.494919, 225.0 ] } },
{ "type": "Feature", "properties": { "value": 0.0857 }, "geometry": { "type": "Point", "coordinates": [ 129.33873, 35.495892, 225.0 ] } },
{ "type": "Feature", "properties": { "value": 0.2851 }, "geometry": { "type": "Point", "coordinates": [ 129.339844, 35.495888, 225.0 ] } },
{ "type": "Feature", "properties": { "value": 0.7062 }, "geometry": { "type": "Point", "coordinates": [ 129.340942, 35.495884, 225.0 ] } },
{ "type": "Feature", "properties": { "value": 1.4189 }, "geometry": { "type": "Point", "coordinates": [ 129.342041, 35.49588, 225.0 ] } },
{ "type": "Feature", "properties": { "value": 2.3832 }, "geometry": { "type": "Point", "coordinates": [ 129.34314, 35.49588, 225.0 ] } },
{ "type": "Feature", "properties": { "value": 3.3806 }, "geometry": { "type": "Point", "coordinates": [ 129.344238, 35.495876, 225.0 ] } },
{ "type": "Feature", "properties": { "value": 4.151 }, "geometry": { "type": "Point", "coordinates": [ 129.345352, 35.495872, 225.0 ] } },
{ "type": "Feature", "properties": { "value": 4.5345 }, "geometry": { "type": "Point", "coordinates": [ 129.346451, 35.495869, 225.0 ] } },
{ "type": "Feature", "properties": { "value": 4.4608 }, "geometry": { "type": "Point", "coordinates": [ 129.347549, 35.495865, 225.0 ] } },
{ "type": "Feature", "properties": { "value": 4.0022 }, "geometry": { "type": "Point", "coordinates": [ 129.348648, 35.495861, 225.0 ] } },
{ "type": "Feature", "properties": { "value": 3.3425 }, "geometry": { "type": "Point", "coordinates": [ 129.349762, 35.495861, 225.0 ] } },
{ "type": "Feature", "properties": { "value": 2.6421 }, "geometry": { "type": "Point", "coordinates": [ 129.350861, 35.495857, 225.0 ] } },
{ "type": "Feature", "properties": { "value": 2.0014 }, "geometry": { "type": "Point", "coordinates": [ 129.351959, 35.495853, 225.0 ] } },
{ "type": "Feature", "properties": { "value": 1.4722 }, "geometry": { "type": "Point", "coordinates": [ 129.353058, 35.49585, 225.0 ] } },
{ "type": "Feature", "properties": { "value": 1.0638 }, "geometry": { "type": "Point", "coordinates": [ 129.354156, 35.495846, 225.0 ] } },
{ "type": "Feature", "properties": { "value": 0.7588 }, "geometry": { "type": "Point", "coordinates": [ 129.35527, 35.495842, 225.0 ] } },
{ "type": "Feature", "properties": { "value": 0.534 }, "geometry": { "type": "Point", "coordinates": [ 129.356369, 35.495838, 225.0 ] } },
{ "type": "Feature", "properties": { "value": 0.3711 }, "geometry": { "type": "Point", "coordinates": [ 129.357468, 35.495838, 225.0 ] } },
{ "type": "Feature", "properties": { "value": 0.2503 }, "geometry": { "type": "Point", "coordinates": [ 129.358566, 35.495834, 225.0 ] } },
{ "type": "Feature", "properties": { "value": 0.1605 }, "geometry": { "type": "Point", "coordinates": [ 129.35968, 35.495831, 225.0 ] } },
{ "type": "Feature", "properties": { "value": 0.0961 }, "geometry": { "type": "Point", "coordinates": [ 129.360779, 35.495827, 225.0 ] } },
{ "type": "Feature", "properties": { "value": 0.0519 }, "geometry": { "type": "Point", "coordinates": [ 129.361877, 35.495823, 225.0 ] } },
{ "type": "Feature", "properties": { "value": 0.0233 }, "geometry": { "type": "Point", "coordinates": [ 129.362976, 35.495819, 225.0 ] } },
{ "type": "Feature", "properties": { "value": 0.0066 }, "geometry": { "type": "Point", "coordinates": [ 129.36409, 35.495815, 225.0 ] } },
{ "type": "Feature", "properties": { "value": 0.0031 }, "geometry": { "type": "Point", "coordinates": [ 129.338745, 35.496792, 225.0 ] } },
{ "type": "Feature", "properties": { "value": 0.1264 }, "geometry": { "type": "Point", "coordinates": [ 129.339844, 35.496788, 225.0 ] } },
{ "type": "Feature", "properties": { "value": 0.3616 }, "geometry": { "type": "Point", "coordinates": [ 129.340942, 35.496784, 225.0 ] } },
{ "type": "Feature", "properties": { "value": 0.8122 }, "geometry": { "type": "Point", "coordinates": [ 129.342041, 35.496784, 225.0 ] } },
{ "type": "Feature", "properties": { "value": 1.5221 }, "geometry": { "type": "Point", "coordinates": [ 129.34314, 35.49678, 225.0 ] } },
{ "type": "Feature", "properties": { "value": 2.4125 }, "geometry": { "type": "Point", "coordinates": [ 129.344254, 35.496777, 225.0 ] } },
{ "type": "Feature", "properties": { "value": 3.316 }, "geometry": { "type": "Point", "coordinates": [ 129.345352, 35.496773, 225.0 ] } },
{ "type": "Feature", "properties": { "value": 4.0445 }, "geometry": { "type": "Point", "coordinates": [ 129.346451, 35.496769, 225.0 ] } },
{ "type": "Feature", "properties": { "value": 4.4361 }, "geometry": { "type": "Point", "coordinates": [ 129.347549, 35.496765, 225.0 ] } },
{ "type": "Feature", "properties": { "value": 4.4284 }, "geometry": { "type": "Point", "coordinates": [ 129.348663, 35.496765, 225.0 ] } },
{ "type": "Feature", "properties": { "value": 4.091 }, "geometry": { "type": "Point", "coordinates": [ 129.349762, 35.496761, 225.0 ] } },
{ "type": "Feature", "properties": { "value": 3.5647 }, "geometry": { "type": "Point", "coordinates": [ 129.350861, 35.496758, 225.0 ] } },
{ "type": "Feature", "properties": { "value": 2.9703 }, "geometry": { "type": "Point", "coordinates": [ 129.351959, 35.496754, 225.0 ] } },
{ "type": "Feature", "properties": { "value": 2.3815 }, "geometry": { "type": "Point", "coordinates": [ 129.353073, 35.49675, 225.0 ] } },
{ "type": "Feature", "properties": { "value": 1.854 }, "geometry": { "type": "Point", "coordinates": [ 129.354172, 35.496746, 225.0 ] } },
{ "type": "Feature", "properties": { "value": 1.411 }, "geometry": { "type": "Point", "coordinates": [ 129.35527, 35.496746, 225.0 ] } },
{ "type": "Feature", "properties": { "value": 1.0527 }, "geometry": { "type": "Point", "coordinates": [ 129.356369, 35.496742, 225.0 ] } },
{ "type": "Feature", "properties": { "value": 0.7671 }, "geometry": { "type": "Point", "coordinates": [ 129.357468, 35.496738, 225.0 ] } },
{ "type": "Feature", "properties": { "value": 0.5378 }, "geometry": { "type": "Point", "coordinates": [ 129.358582, 35.496735, 225.0 ] } },
{ "type": "Feature", "properties": { "value": 0.3594 }, "geometry": { "type": "Point", "coordinates": [ 129.35968, 35.496731, 225.0 ] } },
{ "type": "Feature", "properties": { "value": 0.2247 }, "geometry": { "type": "Point", "coordinates": [ 129.360779, 35.496727, 225.0 ] } },
{ "type": "Feature", "properties": { "value": 0.1289 }, "geometry": { "type": "Point", "coordinates": [ 129.361877, 35.496723, 225.0 ] } },
{ "type": "Feature", "properties": { "value": 0.0666 }, "geometry": { "type": "Point", "coordinates": [ 129.362991, 35.496723, 225.0 ] } },
{ "type": "Feature", "properties": { "value": 0.0282 }, "geometry": { "type": "Point", "coordinates": [ 129.36409, 35.496719, 225.0 ] } },
{ "type": "Feature", "properties": { "value": 0.0096 }, "geometry": { "type": "Point", "coordinates": [ 129.365189, 35.496716, 225.0 ] } },
{ "type": "Feature", "properties": { "value": 0.0009 }, "geometry": { "type": "Point", "coordinates": [ 129.366287, 35.496712, 225.0 ] } },
{ "type": "Feature", "properties": { "value": 0.0402 }, "geometry": { "type": "Point", "coordinates": [ 129.339844, 35.497692, 225.0 ] } },
{ "type": "Feature", "properties": { "value": 0.1618 }, "geometry": { "type": "Point", "coordinates": [ 129.340942, 35.497688, 225.0 ] } },
{ "type": "Feature", "properties": { "value": 0.4122 }, "geometry": { "type": "Point", "coordinates": [ 129.342041, 35.497684, 225.0 ] } },
{ "type": "Feature", "properties": { "value": 0.8595 }, "geometry": { "type": "Point", "coordinates": [ 129.343155, 35.497681, 225.0 ] } },
{ "type": "Feature", "properties": { "value": 1.5169 }, "geometry": { "type": "Point", "coordinates": [ 129.344254, 35.497677, 225.0 ] } },
{ "type": "Feature", "properties": { "value": 2.3196 }, "geometry": { "type": "Point", "coordinates": [ 129.345352, 35.497673, 225.0 ] } },
{ "type": "Feature", "properties": { "value": 3.1466 }, "geometry": { "type": "Point", "coordinates": [ 129.346451, 35.497673, 225.0 ] } },
{ "type": "Feature", "properties": { "value": 3.8318 }, "geometry": { "type": "Point", "coordinates": [ 129.347565, 35.497669, 225.0 ] } },
{ "type": "Feature", "properties": { "value": 4.2527 }, "geometry": { "type": "Point", "coordinates": [ 129.348663, 35.497665, 225.0 ] } },
{ "type": "Feature", "properties": { "value": 4.349 }, "geometry": { "type": "Point", "coordinates": [ 129.349762, 35.497662, 225.0 ] } },
{ "type": "Feature", "properties": { "value": 4.1692 }, "geometry": { "type": "Point", "coordinates": [ 129.350861, 35.497658, 225.0 ] } },
{ "type": "Feature", "properties": { "value": 3.7982 }, "geometry": { "type": "Point", "coordinates": [ 129.351974, 35.497654, 225.0 ] } },
{ "type": "Feature", "properties": { "value": 3.3006 }, "geometry": { "type": "Point", "coordinates": [ 129.353073, 35.497654, 225.0 ] } },
{ "type": "Feature", "properties": { "value": 2.7643 }, "geometry": { "type": "Point", "coordinates": [ 129.354172, 35.49765, 225.0 ] } },
{ "type": "Feature", "properties": { "value": 2.2466 }, "geometry": { "type": "Point", "coordinates": [ 129.35527, 35.497646, 225.0 ] } },
{ "type": "Feature", "properties": { "value": 1.7721 }, "geometry": { "type": "Point", "coordinates": [ 129.356369, 35.497643, 225.0 ] } },
{ "type": "Feature", "properties": { "value": 1.3513 }, "geometry": { "type": "Point", "coordinates": [ 129.357483, 35.497639, 225.0 ] } },
{ "type": "Feature", "properties": { "value": 0.9844 }, "geometry": { "type": "Point", "coordinates": [ 129.358582, 35.497635, 225.0 ] } },
{ "type": "Feature", "properties": { "value": 0.6762 }, "geometry": { "type": "Point", "coordinates": [ 129.35968, 35.497631, 225.0 ] } },
{ "type": "Feature", "properties": { "value": 0.4332 }, "geometry": { "type": "Point", "coordinates": [ 129.360779, 35.497631, 225.0 ] } },
{ "type": "Feature", "properties": { "value": 0.2559 }, "geometry": { "type": "Point", "coordinates": [ 129.361893, 35.497627, 225.0 ] } },
{ "type": "Feature", "properties": { "value": 0.1354 }, "geometry": { "type": "Point", "coordinates": [ 129.362991, 35.497623, 225.0 ] } },
{ "type": "Feature", "properties": { "value": 0.0627 }, "geometry": { "type": "Point", "coordinates": [ 129.36409, 35.49762, 225.0 ] } },
{ "type": "Feature", "properties": { "value": 0.0244 }, "geometry": { "type": "Point", "coordinates": [ 129.365189, 35.497616, 225.0 ] } },
{ "type": "Feature", "properties": { "value": 0.0057 }, "geometry": { "type": "Point", "coordinates": [ 129.366302, 35.497612, 225.0 ] } },
{ "type": "Feature", "properties": { "value": 0.055 }, "geometry": { "type": "Point", "coordinates": [ 129.340958, 35.498589, 225.0 ] } },
{ "type": "Feature", "properties": { "value": 0.1815 }, "geometry": { "type": "Point", "coordinates": [ 129.342056, 35.498585, 225.0 ] } },
{ "type": "Feature", "properties": { "value": 0.4276 }, "geometry": { "type": "Point", "coordinates": [ 129.343155, 35.498581, 225.0 ] } },
{ "type": "Feature", "properties": { "value": 0.8377 }, "geometry": { "type": "Point", "coordinates": [ 129.344254, 35.498581, 225.0 ] } },
{ "type": "Feature", "properties": { "value": 1.4237 }, "geometry": { "type": "Point", "coordinates": [ 129.345352, 35.498577, 225.0 ] } },
{ "type": "Feature", "properties": { "value": 2.1446 }, "geometry": { "type": "Point", "coordinates": [ 129.346466, 35.498573, 225.0 ] } },
{ "type": "Feature", "properties": { "value": 2.898 }, "geometry": { "type": "Point", "coordinates": [ 129.347565, 35.498569, 225.0 ] } },
{ "type": "Feature", "properties": { "value": 3.5648 }, "geometry": { "type": "Point", "coordinates": [ 129.348663, 35.498566, 225.0 ] } },
{ "type": "Feature", "properties": { "value": 4.0335 }, "geometry": { "type": "Point", "coordinates": [ 129.349762, 35.498562, 225.0 ] } },
{ "type": "Feature", "properties": { "value": 4.2473 }, "geometry": { "type": "Point", "coordinates": [ 129.350876, 35.498562, 225.0 ] } },
{ "type": "Feature", "properties": { "value": 4.2095 }, "geometry": { "type": "Point", "coordinates": [ 129.351974, 35.498558, 225.0 ] } },
{ "type": "Feature", "properties": { "value": 3.9556 }, "geometry": { "type": "Point", "coordinates": [ 129.353073, 35.498554, 225.0 ] } },
{ "type": "Feature", "properties": { "value": 3.563 }, "geometry": { "type": "Point", "coordinates": [ 129.354172, 35.49855, 225.0 ] } },
{ "type": "Feature", "properties": { "value": 3.0897 }, "geometry": { "type": "Point", "coordinates": [ 129.35527, 35.498547, 225.0 ] } },
{ "type": "Feature", "properties": { "value": 2.5761 }, "geometry": { "type": "Point", "coordinates": [ 129.356384, 35.498543, 225.0 ] } },
{ "type": "Feature", "properties": { "value": 2.0535 }, "geometry": { "type": "Point", "coordinates": [ 129.357483, 35.498539, 225.0 ] } },
{ "type": "Feature", "properties": { "value": 1.5487 }, "geometry": { "type": "Point", "coordinates": [ 129.358582, 35.498539, 225.0 ] } },
{ "type": "Feature", "properties": { "value": 1.0932 }, "geometry": { "type": "Point", "coordinates": [ 129.35968, 35.498535, 225.0 ] } },
{ "type": "Feature", "properties": { "value": 0.715 }, "geometry": { "type": "Point", "coordinates": [ 129.360794, 35.498531, 225.0 ] } },
{ "type": "Feature", "properties": { "value": 0.4276 }, "geometry": { "type": "Point", "coordinates": [ 129.361893, 35.498528, 225.0 ] } },
{ "type": "Feature", "properties": { "value": 0.231 }, "geometry": { "type": "Point", "coordinates": [ 129.362991, 35.498524, 225.0 ] } },
{ "type": "Feature", "properties": { "value": 0.1119 }, "geometry": { "type": "Point", "coordinates": [ 129.36409, 35.49852, 225.0 ] } },
{ "type": "Feature", "properties": { "value": 0.0468 }, "geometry": { "type": "Point", "coordinates": [ 129.365204, 35.498516, 225.0 ] } },
{ "type": "Feature", "properties": { "value": 0.0161 }, "geometry": { "type": "Point", "coordinates": [ 129.366302, 35.498512, 225.0 ] } },
{ "type": "Feature", "properties": { "value": 0.0022 }, "geometry": { "type": "Point", "coordinates": [ 129.367401, 35.498512, 225.0 ] } },
{ "type": "Feature", "properties": { "value": 0.0599 }, "geometry": { "type": "Point", "coordinates": [ 129.342056, 35.499485, 225.0 ] } },
{ "type": "Feature", "properties": { "value": 0.1802 }, "geometry": { "type": "Point", "coordinates": [ 129.343155, 35.499485, 225.0 ] } },
{ "type": "Feature", "properties": { "value": 0.4025 }, "geometry": { "type": "Point", "coordinates": [ 129.344254, 35.499481, 225.0 ] } },
{ "type": "Feature", "properties": { "value": 0.7663 }, "geometry": { "type": "Point", "coordinates": [ 129.345367, 35.499477, 225.0 ] } },
{ "type": "Feature", "properties": { "value": 1.2849 }, "geometry": { "type": "Point", "coordinates": [ 129.346466, 35.499474, 225.0 ] } },
{ "type": "Feature", "properties": { "value": 1.9257 }, "geometry": { "type": "Point", "coordinates": [ 129.347565, 35.49947, 225.0 ] } },
{ "type": "Feature", "properties": { "value": 2.6186 }, "geometry": { "type": "Point", "coordinates": [ 129.348663, 35.499466, 225.0 ] } },
{ "type": "Feature", "properties": { "value": 3.2659 }, "geometry": { "type": "Point", "coordinates": [ 129.349777, 35.499466, 225.0 ] } },
{ "type": "Feature", "properties": { "value": 3.7747 }, "geometry": { "type": "Point", "coordinates": [ 129.350876, 35.499462, 225.0 ] } },
{ "type": "Feature", "properties": { "value": 4.0669 }, "geometry": { "type": "Point", "coordinates": [ 129.351974, 35.499458, 225.0 ] } },
{ "type": "Feature", "properties": { "value": 4.1363 }, "geometry": { "type": "Point", "coordinates": [ 129.353073, 35.499454, 225.0 ] } },
{ "type": "Feature", "properties": { "value": 4.0037 }, "geometry": { "type": "Point", "coordinates": [ 129.354187, 35.499451, 225.0 ] } },
{ "type": "Feature", "properties": { "value": 3.6939 }, "geometry": { "type": "Point", "coordinates": [ 129.355286, 35.499447, 225.0 ] } },
{ "type": "Feature", "properties": { "value": 3.2467 }, "geometry": { "type": "Point", "coordinates": [ 129.356384, 35.499447, 225.0 ] } },
{ "type": "Feature", "properties": { "value": 2.701 }, "geometry": { "type": "Point", "coordinates": [ 129.357483, 35.499443, 225.0 ] } },
{ "type": "Feature", "properties": { "value": 2.107 }, "geometry": { "type": "Point", "coordinates": [ 129.358582, 35.499439, 225.0 ] } },
{ "type": "Feature", "properties": { "value": 1.5254 }, "geometry": { "type": "Point", "coordinates": [ 129.359695, 35.499435, 225.0 ] } },
{ "type": "Feature", "properties": { "value": 1.0165 }, "geometry": { "type": "Point", "coordinates": [ 129.360794, 35.499432, 225.0 ] } },
{ "type": "Feature", "properties": { "value": 0.6185 }, "geometry": { "type": "Point", "coordinates": [ 129.361893, 35.499428, 225.0 ] } },
{ "type": "Feature", "properties": { "value": 0.3399 }, "geometry": { "type": "Point", "coordinates": [ 129.362991, 35.499424, 225.0 ] } },
{ "type": "Feature", "properties": { "value": 0.1661 }, "geometry": { "type": "Point", "coordinates": [ 129.364105, 35.499424, 225.0 ] } },
{ "type": "Feature", "properties": { "value": 0.0717 }, "geometry": { "type": "Point", "coordinates": [ 129.365204, 35.49942, 225.0 ] } },
{ "type": "Feature", "properties": { "value": 0.0253 }, "geometry": { "type": "Point", "coordinates": [ 129.366302, 35.499416, 225.0 ] } },
{ "type": "Feature", "properties": { "value": 0.0058 }, "geometry": { "type": "Point", "coordinates": [ 129.367401, 35.499413, 225.0 ] } },
{ "type": "Feature", "properties": { "value": 0.056 }, "geometry": { "type": "Point", "coordinates": [ 129.343155, 35.500385, 225.0 ] } },
{ "type": "Feature", "properties": { "value": 0.1646 }, "geometry": { "type": "Point", "coordinates": [ 129.344269, 35.500381, 225.0 ] } },
{ "type": "Feature", "properties": { "value": 0.361 }, "geometry": { "type": "Point", "coordinates": [ 129.345367, 35.500378, 225.0 ] } },
{ "type": "Feature", "properties": { "value": 0.6765 }, "geometry": { "type": "Point", "coordinates": [ 129.346466, 35.500374, 225.0 ] } },
{ "type": "Feature", "properties": { "value": 1.1248 }, "geometry": { "type": "Point", "coordinates": [ 129.347565, 35.500374, 225.0 ] } },
{ "type": "Feature", "properties": { "value": 1.69 }, "geometry": { "type": "Point", "coordinates": [ 129.348679, 35.50037, 225.0 ] } },
{ "type": "Feature", "properties": { "value": 2.3237 }, "geometry": { "type": "Point", "coordinates": [ 129.349777, 35.500366, 225.0 ] } },
{ "type": "Feature", "properties": { "value": 2.9392 }, "geometry": { "type": "Point", "coordinates": [ 129.350876, 35.500362, 225.0 ] } },
{ "type": "Feature", "properties": { "value": 3.4466 }, "geometry": { "type": "Point", "coordinates": [ 129.351974, 35.500359, 225.0 ] } },
{ "type": "Feature", "properties": { "value": 3.7883 }, "geometry": { "type": "Point", "coordinates": [ 129.353088, 35.500355, 225.0 ] } },
{ "type": "Feature", "properties": { "value": 3.9268 }, "geometry": { "type": "Point", "coordinates": [ 129.354187, 35.500355, 225.0 ] } },
{ "type": "Feature", "properties": { "value": 3.847 }, "geometry": { "type": "Point", "coordinates": [ 129.355286, 35.500351, 225.0 ] } },
{ "type": "Feature", "properties": { "value": 3.5583 }, "geometry": { "type": "Point", "coordinates": [ 129.356384, 35.500347, 225.0 ] } },
{ "type": "Feature", "properties": { "value": 3.0833 }, "geometry": { "type": "Point", "coordinates": [ 129.357483, 35.500343, 225.0 ] } },
{ "type": "Feature", "properties": { "value": 2.4823 }, "geometry": { "type": "Point", "coordinates": [ 129.358597, 35.50034, 225.0 ] } },
{ "type": "Feature", "properties": { "value": 1.8427 }, "geometry": { "type": "Point", "coordinates": [ 129.359695, 35.500336, 225.0 ] } },
{ "type": "Feature", "properties": { "value": 1.2531 }, "geometry": { "type": "Point", "coordinates": [ 129.360794, 35.500332, 225.0 ] } },
{ "type": "Feature", "properties": { "value": 0.7743 }, "geometry": { "type": "Point", "coordinates": [ 129.361893, 35.500332, 225.0 ] } },
{ "type": "Feature", "properties": { "value": 0.4307 }, "geometry": { "type": "Point", "coordinates": [ 129.363007, 35.500328, 225.0 ] } },
{ "type": "Feature", "properties": { "value": 0.2138 }, "geometry": { "type": "Point", "coordinates": [ 129.364105, 35.500324, 225.0 ] } },
{ "type": "Feature", "properties": { "value": 0.0935 }, "geometry": { "type": "Point", "coordinates": [ 129.365204, 35.50032, 225.0 ] } },
{ "type": "Feature", "properties": { "value": 0.035 }, "geometry": { "type": "Point", "coordinates": [ 129.366302, 35.500317, 225.0 ] } },
{ "type": "Feature", "properties": { "value": 0.0105 }, "geometry": { "type": "Point", "coordinates": [ 129.367416, 35.500313, 225.0 ] } },
{ "type": "Feature", "properties": { "value": 0.0009 }, "geometry": { "type": "Point", "coordinates": [ 129.368515, 35.500309, 225.0 ] } },
{ "type": "Feature", "properties": { "value": 0.0471 }, "geometry": { "type": "Point", "coordinates": [ 129.344269, 35.501282, 225.0 ] } },
{ "type": "Feature", "properties": { "value": 0.1443 }, "geometry": { "type": "Point", "coordinates": [ 129.345367, 35.501278, 225.0 ] } },
{ "type": "Feature", "properties": { "value": 0.3146 }, "geometry": { "type": "Point", "coordinates": [ 129.346466, 35.501278, 225.0 ] } },
{ "type": "Feature", "properties": { "value": 0.5853 }, "geometry": { "type": "Point", "coordinates": [ 129.34758, 35.501274, 225.0 ] } },
{ "type": "Feature", "properties": { "value": 0.9734 }, "geometry": { "type": "Point", "coordinates": [ 129.348679, 35.50127, 225.0 ] } },
{ "type": "Feature", "properties": { "value": 1.4654 }, "geometry": { "type": "Point", "coordinates": [ 129.349777, 35.501266, 225.0 ] } },
{ "type": "Feature", "properties": { "value": 2.0221 }, "geometry": { "type": "Point", "coordinates": [ 129.350876, 35.501263, 225.0 ] } },
{ "type": "Feature", "properties": { "value": 2.5728 }, "geometry": { "type": "Point", "coordinates": [ 129.35199, 35.501259, 225.0 ] } },
{ "type": "Feature", "properties": { "value": 3.0453 }, "geometry": { "type": "Point", "coordinates": [ 129.353088, 35.501259, 225.0 ] } },
{ "type": "Feature", "properties": { "value": 3.3695 }, "geometry": { "type": "Point", "coordinates": [ 129.354187, 35.501255, 225.0 ] } },
{ "type": "Feature", "properties": { "value": 3.4941 }, "geometry": { "type": "Point", "coordinates": [ 129.355286, 35.501251, 225.0 ] } },
{ "type": "Feature", "properties": { "value": 3.3899 }, "geometry": { "type": "Point", "coordinates": [ 129.3564, 35.501247, 225.0 ] } },
{ "type": "Feature", "properties": { "value": 3.0533 }, "geometry": { "type": "Point", "coordinates": [ 129.357498, 35.501244, 225.0 ] } },
{ "type": "Feature", "properties": { "value": 2.5348 }, "geometry": { "type": "Point", "coordinates": [ 129.358597, 35.50124, 225.0 ] } },
{ "type": "Feature", "properties": { "value": 1.9257 }, "geometry": { "type": "Point", "coordinates": [ 129.359695, 35.50124, 225.0 ] } },
{ "type": "Feature", "properties": { "value": 1.3378 }, "geometry": { "type": "Point", "coordinates": [ 129.360794, 35.501236, 225.0 ] } },
{ "type": "Feature", "properties": { "value": 0.8399 }, "geometry": { "type": "Point", "coordinates": [ 129.361908, 35.501232, 225.0 ] } },
{ "type": "Feature", "properties": { "value": 0.4737 }, "geometry": { "type": "Point", "coordinates": [ 129.363007, 35.501228, 225.0 ] } },
{ "type": "Feature", "properties": { "value": 0.2376 }, "geometry": { "type": "Point", "coordinates": [ 129.364105, 35.501225, 225.0 ] } },
{ "type": "Feature", "properties": { "value": 0.1049 }, "geometry": { "type": "Point", "coordinates": [ 129.365204, 35.501221, 225.0 ] } },
{ "type": "Feature", "properties": { "value": 0.0396 }, "geometry": { "type": "Point", "coordinates": [ 129.366318, 35.501217, 225.0 ] } },
{ "type": "Feature", "properties": { "value": 0.0119 }, "geometry": { "type": "Point", "coordinates": [ 129.367416, 35.501213, 225.0 ] } },
{ "type": "Feature", "properties": { "value": 0.001 }, "geometry": { "type": "Point", "coordinates": [ 129.368515, 35.501213, 225.0 ] } }
]
}
