{
"type": "FeatureCollection",
"features": [
{ "type": "Feature", "properties": { "value": 0.0133 }, "geometry": { "type": "Point", "coordinates": [ 129.32756, 35.458969, 60.0 ] } },
{ "type": "Feature", "properties": { "value": 14.922 }, "geometry": { "type": "Point", "coordinates": [ 129.32756, 35.459869, 60.0 ] } },
{ "type": "Feature", "properties": { "value": 384.11 }, "geometry": { "type": "Point", "coordinates": [ 129.327576, 35.46077, 60.0 ] } },
{ "type": "Feature", "properties": { "value": 697.62 }, "geometry": { "type": "Point", "coordinates": [ 129.327576, 35.461674, 60.0 ] } },
{ "type": "Feature", "properties": { "value": 618.08 }, "geometry": { "type": "Point", "coordinates": [ 129.327576, 35.462574, 60.0 ] } },
{ "type": "Feature", "properties": { "value": 496.43 }, "geometry": { "type": "Point", "coordinates": [ 129.327576, 35.463474, 60.0 ] } },
{ "type": "Feature", "properties": { "value": 12.111 }, "geometry": { "type": "Point", "coordinates": [ 129.32869, 35.46347, 60.0 ] } },
{ "type": "Feature", "properties": { "value": 431.66 }, "geometry": { "type": "Point", "coordinates": [ 129.327591, 35.464375, 60.0 ] } },
{ "type": "Feature", "properties": { "value": 36.153 }, "geometry": { "type": "Point", "coordinates": [ 129.32869, 35.464375, 60.0 ] } },
{ "type": "Feature", "properties": { "value": 433.18 }, "geometry": { "type": "Point", "coordinates": [ 129.327591, 35.465279, 60.0 ] } },
{ "type": "Feature", "properties": { "value": 89.729 }, "geometry": { "type": "Point", "coordinates": [ 129.32869, 35.465275, 60.0 ] } },
{ "type": "Feature", "properties": { "value": 433.89 }, "geometry": { "type": "Point", "coordinates": [ 129.327591, 35.466179, 60.0 ] } },
{ "type": "Feature", "properties": { "value": 162.31 }, "geometry": { "type": "Point", "coordinates": [ 129.32869, 35.466175, 60.0 ] } },
{ "type": "Feature", "properties": { "value": 412.65 }, "geometry": { "type": "Point", "coordinates": [ 129.327591, 35.467079, 60.0 ] } },
{ "type": "Feature", "properties": { "value": 214.43 }, "geometry": { "type": "Point", "coordinates": [ 129.328705, 35.467075, 60.0 ] } },
{ "type": "Feature", "properties": { "value": 394.3 }, "geometry": { "type": "Point", "coordinates": [ 129.327606, 35.467983, 60.0 ] } },
{ "type": "Feature", "properties": { "value": 247.57 }, "geometry": { "type": "Point", "coordinates": [ 129.328705, 35.467979, 60.0 ] } },
{ "type": "Feature", "properties": { "value": 379.23 }, "geometry": { "type": "Point", "coordinates": [ 129.327606, 35.468884, 60.0 ] } },
{ "type": "Feature", "properties": { "value": 262.55 }, "geometry": { "type": "Point", "coordinates": [ 129.328705, 35.46888, 60.0 ] } },
{ "type": "Feature", "properties": { "value": 7.94 }, "geometry": { "type": "Point", "coordinates": [ 129.326508, 35.469788, 60.0 ] } },
{ "type": "Feature", "properties": { "value": 366.17 }, "geometry": { "type": "Point", "coordinates": [ 129.327606, 35.469784, 60.0 ] } },
{ "type": "Feature", "properties": { "value": 266.68 }, "geometry": { "type": "Point", "coordinates": [ 129.328705, 35.46978, 60.0 ] } },
{ "type": "Feature", "properties": { "value": 12.296 }, "geometry": { "type": "Point", "coordinates": [ 129.326508, 35.470688, 60.0 ] } },
{ "type": "Feature", "properties": { "value": 348.9 }, "geometry": { "type": "Point", "coordinates": [ 129.327606, 35.470684, 60.0 ] } },
{ "type": "Feature", "properties": { "value": 253.75 }, "geometry": { "type": "Point", "coordinates": [ 129.32872, 35.470684, 60.0 ] } },
{ "type": "Feature", "properties": { "value": 16.971 }, "geometry": { "type": "Point", "coordinates": [ 129.326508, 35.471588, 60.0 ] } },
{ "type": "Feature", "properties": { "value": 312.99 }, "geometry": { "type": "Point", "coordinates": [ 129.327621, 35.471588, 60.0 ] } },
{ "type": "Feature", "properties": { "value": 200.38 }, "geometry": { "type": "Point", "coordinates": [ 129.32872, 35.471584, 60.0 ] } },
{ "type": "Feature", "properties": { "value": 3.702 }, "geometry": { "type": "Point", "coordinates": [ 129.329819, 35.471581, 60.0 ] } },
{ "type": "Feature", "properties": { "value": 20.869 }, "geometry": { "type": "Point", "coordinates": [ 129.326523, 35.472492, 60.0 ] } },
{ "type": "Feature", "properties": { "value": 251.32 }, "geometry": { "type": "Point", "coordinates": [ 129.327621, 35.472488, 60.0 ] } },
{ "type": "Feature", "properties": { "value": 133.0 }, "geometry": { "type": "Point", "coordinates": [ 129.32872, 35.472485, 60.0 ] } },
{ "type": "Feature", "properties": { "value": 3.6489 }, "geometry": { "type": "Point", "coordinates": [ 129.329819, 35.472481, 60.0 ] } },
{ "type": "Feature", "properties": { "value": 27.317 }, "geometry": { "type": "Point", "coordinates": [ 129.326523, 35.473392, 60.0 ] } },
{ "type": "Feature", "properties": { "value": 196.96 }, "geometry": { "type": "Point", "coordinates": [ 129.327621, 35.473389, 60.0 ] } },
{ "type": "Feature", "properties": { "value": 110.6 }, "geometry": { "type": "Point", "coordinates": [ 129.32872, 35.473385, 60.0 ] } },
{ "type": "Feature", "properties": { "value": 6.6234 }, "geometry": { "type": "Point", "coordinates": [ 129.329819, 35.473385, 60.0 ] } },
{ "type": "Feature", "properties": { "value": 34.647 }, "geometry": { "type": "Point", "coordinates": [ 129.326523, 35.474293, 60.0 ] } },
{ "type": "Feature", "properties": { "value": 169.46 }, "geometry": { "type": "Point", "coordinates": [ 129.327621, 35.474289, 60.0 ] } },
{ "type": "Feature", "properties": { "value": 113.22 }, "geometry": { "type": "Point", "coordinates": [ 129.328735, 35.474289, 60.0 ] } },
{ "type": "Feature", "properties": { "value": 11.815 }, "geometry": { "type": "Point", "coordinates": [ 129.329834, 35.474285, 60.0 ] } },
{ "type": "Feature", "properties": { "value": 39.403 }, "geometry": { "type": "Point", "coordinates": [ 129.326523, 35.475193, 60.0 ] } },
{ "type": "Feature", "properties": { "value": 167.98 }, "geometry": { "type": "Point", "coordinates": [ 129.327637, 35.475193, 60.0 ] } },
{ "type": "Feature", "properties": { "value": 120.74 }, "geometry": { "type": "Point", "coordinates": [ 129.328735, 35.475189, 60.0 ] } },
{ "type": "Feature", "properties": { "value": 15.571 }, "geometry": { "type": "Point", "coordinates": [ 129.329834, 35.475185, 60.0 ] } },
{ "type": "Feature", "properties": { "value": 0.7308 }, "geometry": { "type": "Point", "coordinates": [ 129.325424, 35.476097, 60.0 ] } },
{ "type": "Feature", "properties": { "value": 49.113 }, "geometry": { "type": "Point", "coordinates": [ 129.326538, 35.476097, 60.0 ] } },
{ "type": "Feature", "properties": { "value": 193.74 }, "geometry": { "type": "Point", "coordinates": [ 129.327637, 35.476093, 60.0 ] } },
{ "type": "Feature", "properties": { "value": 134.82 }, "geometry": { "type": "Point", "coordinates": [ 129.328735, 35.476089, 60.0 ] } },
{ "type": "Feature", "properties": { "value": 17.544 }, "geometry": { "type": "Point", "coordinates": [ 129.329834, 35.476086, 60.0 ] } },
{ "type": "Feature", "properties": { "value": 3.8606 }, "geometry": { "type": "Point", "coordinates": [ 129.325439, 35.477001, 60.0 ] } },
{ "type": "Feature", "properties": { "value": 69.653 }, "geometry": { "type": "Point", "coordinates": [ 129.326538, 35.476997, 60.0 ] } },
{ "type": "Feature", "properties": { "value": 234.3 }, "geometry": { "type": "Point", "coordinates": [ 129.327637, 35.476994, 60.0 ] } },
{ "type": "Feature", "properties": { "value": 146.96 }, "geometry": { "type": "Point", "coordinates": [ 129.328735, 35.47699, 60.0 ] } },
{ "type": "Feature", "properties": { "value": 17.753 }, "geometry": { "type": "Point", "coordinates": [ 129.329834, 35.47699, 60.0 ] } },
{ "type": "Feature", "properties": { "value": 8.4109 }, "geometry": { "type": "Point", "coordinates": [ 129.325439, 35.477901, 60.0 ] } },
{ "type": "Feature", "properties": { "value": 100.24 }, "geometry": { "type": "Point", "coordinates": [ 129.326538, 35.477898, 60.0 ] } },
{ "type": "Feature", "properties": { "value": 258.53 }, "geometry": { "type": "Point", "coordinates": [ 129.327637, 35.477894, 60.0 ] } },
{ "type": "Feature", "properties": { "value": 142.35 }, "geometry": { "type": "Point", "coordinates": [ 129.328735, 35.477894, 60.0 ] } },
{ "type": "Feature", "properties": { "value": 16.635 }, "geometry": { "type": "Point", "coordinates": [ 129.329849, 35.47789, 60.0 ] } },
{ "type": "Feature", "properties": { "value": 16.556 }, "geometry": { "type": "Point", "coordinates": [ 129.325439, 35.478802, 60.0 ] } },
{ "type": "Feature", "properties": { "value": 132.94 }, "geometry": { "type": "Point", "coordinates": [ 129.326538, 35.478798, 60.0 ] } },
{ "type": "Feature", "properties": { "value": 263.17 }, "geometry": { "type": "Point", "coordinates": [ 129.327637, 35.478798, 60.0 ] } },
{ "type": "Feature", "properties": { "value": 126.91 }, "geometry": { "type": "Point", "coordinates": [ 129.328751, 35.478794, 60.0 ] } },
{ "type": "Feature", "properties": { "value": 14.119 }, "geometry": { "type": "Point", "coordinates": [ 129.329849, 35.47879, 60.0 ] } },
{ "type": "Feature", "properties": { "value": 28.056 }, "geometry": { "type": "Point", "coordinates": [ 129.325439, 35.479706, 60.0 ] } },
{ "type": "Feature", "properties": { "value": 162.11 }, "geometry": { "type": "Point", "coordinates": [ 129.326553, 35.479702, 60.0 ] } },
{ "type": "Feature", "properties": { "value": 257.64 }, "geometry": { "type": "Point", "coordinates": [ 129.327652, 35.479698, 60.0 ] } },
{ "type": "Feature", "properties": { "value": 109.6 }, "geometry": { "type": "Point", "coordinates": [ 129.328751, 35.479694, 60.0 ] } },
{ "type": "Feature", "properties": { "value": 11.63 }, "geometry": { "type": "Point", "coordinates": [ 129.329849, 35.479691, 60.0 ] } },
{ "type": "Feature", "properties": { "value": 0.8169 }, "geometry": { "type": "Point", "coordinates": [ 129.324341, 35.48061, 60.0 ] } },
{ "type": "Feature", "properties": { "value": 41.443 }, "geometry": { "type": "Point", "coordinates": [ 129.325455, 35.480606, 60.0 ] } },
{ "type": "Feature", "properties": { "value": 181.29 }, "geometry": { "type": "Point", "coordinates": [ 129.326553, 35.480602, 60.0 ] } },
{ "type": "Feature", "properties": { "value": 236.58 }, "geometry": { "type": "Point", "coordinates": [ 129.327652, 35.480598, 60.0 ] } },
{ "type": "Feature", "properties": { "value": 90.803 }, "geometry": { "type": "Point", "coordinates": [ 129.328751, 35.480595, 60.0 ] } },
{ "type": "Feature", "properties": { "value": 9.2421 }, "geometry": { "type": "Point", "coordinates": [ 129.329849, 35.480595, 60.0 ] } },
{ "type": "Feature", "properties": { "value": 4.9389 }, "geometry": { "type": "Point", "coordinates": [ 129.324356, 35.48151, 60.0 ] } },
{ "type": "Feature", "properties": { "value": 55.56 }, "geometry": { "type": "Point", "coordinates": [ 129.325455, 35.481506, 60.0 ] } },
{ "type": "Feature", "properties": { "value": 190.41 }, "geometry": { "type": "Point", "coordinates": [ 129.326553, 35.481503, 60.0 ] } },
{ "type": "Feature", "properties": { "value": 212.35 }, "geometry": { "type": "Point", "coordinates": [ 129.327652, 35.481503, 60.0 ] } },
{ "type": "Feature", "properties": { "value": 73.452 }, "geometry": { "type": "Point", "coordinates": [ 129.328751, 35.481499, 60.0 ] } },
{ "type": "Feature", "properties": { "value": 6.9731 }, "geometry": { "type": "Point", "coordinates": [ 129.329865, 35.481495, 60.0 ] } },
{ "type": "Feature", "properties": { "value": 9.3182 }, "geometry": { "type": "Point", "coordinates": [ 129.324356, 35.48241, 60.0 ] } },
{ "type": "Feature", "properties": { "value": 73.782 }, "geometry": { "type": "Point", "coordinates": [ 129.325455, 35.482407, 60.0 ] } },
{ "type": "Feature", "properties": { "value": 202.38 }, "geometry": { "type": "Point", "coordinates": [ 129.326553, 35.482407, 60.0 ] } },
{ "type": "Feature", "properties": { "value": 191.35 }, "geometry": { "type": "Point", "coordinates": [ 129.327652, 35.482403, 60.0 ] } },
{ "type": "Feature", "properties": { "value": 58.537 }, "geometry": { "type": "Point", "coordinates": [ 129.328766, 35.482399, 60.0 ] } },
{ "type": "Feature", "properties": { "value": 5.0158 }, "geometry": { "type": "Point", "coordinates": [ 129.329865, 35.482395, 60.0 ] } },
{ "type": "Feature", "properties": { "value": 17.104 }, "geometry": { "type": "Point", "coordinates": [ 129.324356, 35.483311, 60.0 ] } },
{ "type": "Feature", "properties": { "value": 97.749 }, "geometry": { "type": "Point", "coordinates": [ 129.325455, 35.483311, 60.0 ] } },
{ "type": "Feature", "properties": { "value": 212.78 }, "geometry": { "type": "Point", "coordinates": [ 129.326553, 35.483307, 60.0 ] } },
{ "type": "Feature", "properties": { "value": 166.41 }, "geometry": { "type": "Point", "coordinates": [ 129.327667, 35.483303, 60.0 ] } },
{ "type": "Feature", "properties": { "value": 45.03 }, "geometry": { "type": "Point", "coordinates": [ 129.328766, 35.483299, 60.0 ] } },
{ "type": "Feature", "properties": { "value": 3.41 }, "geometry": { "type": "Point", "coordinates": [ 129.329865, 35.483295, 60.0 ] } },
{ "type": "Feature", "properties": { "value": 1.9753 }, "geometry": { "type": "Point", "coordinates": [ 129.323257, 35.484215, 60.0 ] } },
{ "type": "Feature", "properties": { "value": 29.437 }, "geometry": { "type": "Point", "coordinates": [ 129.324356, 35.484215, 60.0 ] } },
{ "type": "Feature", "properties": { "value": 125.01 }, "geometry": { "type": "Point", "coordinates": [ 129.325455, 35.484211, 60.0 ] } },
{ "type": "Feature", "properties": { "value": 213.17 }, "geometry": { "type": "Point", "coordinates": [ 129.326569, 35.484207, 60.0 ] } },
{ "type": "Feature", "properties": { "value": 138.05 }, "geometry": { "type": "Point", "coordinates": [ 129.327667, 35.484203, 60.0 ] } },
{ "type": "Feature", "properties": { "value": 33.236 }, "geometry": { "type": "Point", "coordinates": [ 129.328766, 35.484203, 60.0 ] } },
{ "type": "Feature", "properties": { "value": 1.5628 }, "geometry": { "type": "Point", "coordinates": [ 129.329865, 35.4842, 60.0 ] } },
{ "type": "Feature", "properties": { "value": 6.285 }, "geometry": { "type": "Point", "coordinates": [ 129.323257, 35.485119, 60.0 ] } },
{ "type": "Feature", "properties": { "value": 48.371 }, "geometry": { "type": "Point", "coordinates": [ 129.324371, 35.485115, 60.0 ] } },
{ "type": "Feature", "properties": { "value": 153.42 }, "geometry": { "type": "Point", "coordinates": [ 129.32547, 35.485111, 60.0 ] } },
{ "type": "Feature", "properties": { "value": 205.81 }, "geometry": { "type": "Point", "coordinates": [ 129.326569, 35.485107, 60.0 ] } },
{ "type": "Feature", "properties": { "value": 111.31 }, "geometry": { "type": "Point", "coordinates": [ 129.327667, 35.485107, 60.0 ] } },
{ "type": "Feature", "properties": { "value": 23.704 }, "geometry": { "type": "Point", "coordinates": [ 129.328766, 35.485104, 60.0 ] } },
{ "type": "Feature", "properties": { "value": 0.4969 }, "geometry": { "type": "Point", "coordinates": [ 129.32988, 35.4851, 60.0 ] } },
{ "type": "Feature", "properties": { "value": 14.344 }, "geometry": { "type": "Point", "coordinates": [ 129.323273, 35.486019, 60.0 ] } },
{ "type": "Feature", "properties": { "value": 76.336 }, "geometry": { "type": "Point", "coordinates": [ 129.324371, 35.486015, 60.0 ] } },
{ "type": "Feature", "properties": { "value": 182.85 }, "geometry": { "type": "Point", "coordinates": [ 129.32547, 35.486012, 60.0 ] } },
{ "type": "Feature", "properties": { "value": 193.45 }, "geometry": { "type": "Point", "coordinates": [ 129.326569, 35.486012, 60.0 ] } },
{ "type": "Feature", "properties": { "value": 87.365 }, "geometry": { "type": "Point", "coordinates": [ 129.327667, 35.486008, 60.0 ] } },
{ "type": "Feature", "properties": { "value": 16.123 }, "geometry": { "type": "Point", "coordinates": [ 129.328781, 35.486004, 60.0 ] } },
{ "type": "Feature", "properties": { "value": 3.1303 }, "geometry": { "type": "Point", "coordinates": [ 129.322174, 35.486923, 60.0 ] } },
{ "type": "Feature", "properties": { "value": 29.008 }, "geometry": { "type": "Point", "coordinates": [ 129.323273, 35.486919, 60.0 ] } },
{ "type": "Feature", "properties": { "value": 112.65 }, "geometry": { "type": "Point", "coordinates": [ 129.324371, 35.486916, 60.0 ] } },
{ "type": "Feature", "properties": { "value": 205.91 }, "geometry": { "type": "Point", "coordinates": [ 129.32547, 35.486916, 60.0 ] } },
{ "type": "Feature", "properties": { "value": 173.64 }, "geometry": { "type": "Point", "coordinates": [ 129.326569, 35.486912, 60.0 ] } },
{ "type": "Feature", "properties": { "value": 65.355 }, "geometry": { "type": "Point", "coordinates": [ 129.327682, 35.486908, 60.0 ] } },
{ "type": "Feature", "properties": { "value": 10.296 }, "geometry": { "type": "Point", "coordinates": [ 129.328781, 35.486904, 60.0 ] } },
{ "type": "Feature", "properties": { "value": 9.0298 }, "geometry": { "type": "Point", "coordinates": [ 129.322174, 35.487823, 60.0 ] } },
{ "type": "Feature", "properties": { "value": 52.723 }, "geometry": { "type": "Point", "coordinates": [ 129.323273, 35.48782, 60.0 ] } },
{ "type": "Feature", "properties": { "value": 151.4 }, "geometry": { "type": "Point", "coordinates": [ 129.324371, 35.48782, 60.0 ] } },
{ "type": "Feature", "properties": { "value": 214.56 }, "geometry": { "type": "Point", "coordinates": [ 129.32547, 35.487816, 60.0 ] } },
{ "type": "Feature", "properties": { "value": 146.31 }, "geometry": { "type": "Point", "coordinates": [ 129.326584, 35.487812, 60.0 ] } },
{ "type": "Feature", "properties": { "value": 46.257 }, "geometry": { "type": "Point", "coordinates": [ 129.327682, 35.487808, 60.0 ] } },
{ "type": "Feature", "properties": { "value": 6.1648 }, "geometry": { "type": "Point", "coordinates": [ 129.328781, 35.487808, 60.0 ] } },
{ "type": "Feature", "properties": { "value": 1.6129 }, "geometry": { "type": "Point", "coordinates": [ 129.321075, 35.488728, 60.0 ] } },
{ "type": "Feature", "properties": { "value": 20.162 }, "geometry": { "type": "Point", "coordinates": [ 129.322174, 35.488728, 60.0 ] } },
{ "type": "Feature", "properties": { "value": 84.153 }, "geometry": { "type": "Point", "coordinates": [ 129.323273, 35.488724, 60.0 ] } },
{ "type": "Feature", "properties": { "value": 184.47 }, "geometry": { "type": "Point", "coordinates": [ 129.324371, 35.48872, 60.0 ] } },
{ "type": "Feature", "properties": { "value": 206.87 }, "geometry": { "type": "Point", "coordinates": [ 129.325485, 35.488716, 60.0 ] } },
{ "type": "Feature", "properties": { "value": 115.14 }, "geometry": { "type": "Point", "coordinates": [ 129.326584, 35.488712, 60.0 ] } },
{ "type": "Feature", "properties": { "value": 30.737 }, "geometry": { "type": "Point", "coordinates": [ 129.327682, 35.488712, 60.0 ] } },
{ "type": "Feature", "properties": { "value": 3.1514 }, "geometry": { "type": "Point", "coordinates": [ 129.328781, 35.488708, 60.0 ] } },
{ "type": "Feature", "properties": { "value": 6.8226 }, "geometry": { "type": "Point", "coordinates": [ 129.321075, 35.489632, 60.0 ] } },
{ "type": "Feature", "properties": { "value": 38.851 }, "geometry": { "type": "Point", "coordinates": [ 129.322174, 35.489628, 60.0 ] } },
{ "type": "Feature", "properties": { "value": 119.2 }, "geometry": { "type": "Point", "coordinates": [ 129.323273, 35.489624, 60.0 ] } },
{ "type": "Feature", "properties": { "value": 201.61 }, "geometry": { "type": "Point", "coordinates": [ 129.324387, 35.48962, 60.0 ] } },
{ "type": "Feature", "properties": { "value": 180.8 }, "geometry": { "type": "Point", "coordinates": [ 129.325485, 35.489616, 60.0 ] } },
{ "type": "Feature", "properties": { "value": 83.077 }, "geometry": { "type": "Point", "coordinates": [ 129.326584, 35.489616, 60.0 ] } },
{ "type": "Feature", "properties": { "value": 18.663 }, "geometry": { "type": "Point", "coordinates": [ 129.327682, 35.489613, 60.0 ] } },
{ "type": "Feature", "properties": { "value": 0.6194 }, "geometry": { "type": "Point", "coordinates": [ 129.328796, 35.489609, 60.0 ] } },
{ "type": "Feature", "properties": { "value": 1.6557 }, "geometry": { "type": "Point", "coordinates": [ 129.319977, 35.490536, 60.0 ] } },
{ "type": "Feature", "properties": { "value": 17.057 }, "geometry": { "type": "Point", "coordinates": [ 129.321075, 35.490532, 60.0 ] } },
{ "type": "Feature", "properties": { "value": 66.829 }, "geometry": { "type": "Point", "coordinates": [ 129.322174, 35.490528, 60.0 ] } },
{ "type": "Feature", "properties": { "value": 153.39 }, "geometry": { "type": "Point", "coordinates": [ 129.323288, 35.490524, 60.0 ] } },
{ "type": "Feature", "properties": { "value": 199.89 }, "geometry": { "type": "Point", "coordinates": [ 129.324387, 35.490524, 60.0 ] } },
{ "type": "Feature", "properties": { "value": 142.99 }, "geometry": { "type": "Point", "coordinates": [ 129.325485, 35.49052, 60.0 ] } },
{ "type": "Feature", "properties": { "value": 54.241 }, "geometry": { "type": "Point", "coordinates": [ 129.326584, 35.490517, 60.0 ] } },
{ "type": "Feature", "properties": { "value": 10.135 }, "geometry": { "type": "Point", "coordinates": [ 129.327698, 35.490513, 60.0 ] } },
{ "type": "Feature", "properties": { "value": 7.6092 }, "geometry": { "type": "Point", "coordinates": [ 129.319977, 35.491436, 60.0 ] } },
{ "type": "Feature", "properties": { "value": 36.068 }, "geometry": { "type": "Point", "coordinates": [ 129.321091, 35.491432, 60.0 ] } },
{ "type": "Feature", "properties": { "value": 103.58 }, "geometry": { "type": "Point", "coordinates": [ 129.322189, 35.491428, 60.0 ] } },
{ "type": "Feature", "properties": { "value": 179.55 }, "geometry": { "type": "Point", "coordinates": [ 129.323288, 35.491428, 60.0 ] } },
{ "type": "Feature", "properties": { "value": 182.01 }, "geometry": { "type": "Point", "coordinates": [ 129.324387, 35.491425, 60.0 ] } },
{ "type": "Feature", "properties": { "value": 104.23 }, "geometry": { "type": "Point", "coordinates": [ 129.325485, 35.491421, 60.0 ] } },
{ "type": "Feature", "properties": { "value": 32.378 }, "geometry": { "type": "Point", "coordinates": [ 129.326599, 35.491417, 60.0 ] } },
{ "type": "Feature", "properties": { "value": 4.7297 }, "geometry": { "type": "Point", "coordinates": [ 129.327698, 35.491413, 60.0 ] } },
{ "type": "Feature", "properties": { "value": 3.4237 }, "geometry": { "type": "Point", "coordinates": [ 129.318878, 35.49234, 60.0 ] } },
{ "type": "Feature", "properties": { "value": 19.952 }, "geometry": { "type": "Point", "coordinates": [ 129.319992, 35.492336, 60.0 ] } },
{ "type": "Feature", "properties": { "value": 66.651 }, "geometry": { "type": "Point", "coordinates": [ 129.321091, 35.492332, 60.0 ] } },
{ "type": "Feature", "properties": { "value": 142.63 }, "geometry": { "type": "Point", "coordinates": [ 129.322189, 35.492332, 60.0 ] } },
{ "type": "Feature", "properties": { "value": 189.59 }, "geometry": { "type": "Point", "coordinates": [ 129.323288, 35.492329, 60.0 ] } },
{ "type": "Feature", "properties": { "value": 151.21 }, "geometry": { "type": "Point", "coordinates": [ 129.324387, 35.492325, 60.0 ] } },
{ "type": "Feature", "properties": { "value": 69.56 }, "geometry": { "type": "Point", "coordinates": [ 129.3255, 35.492321, 60.0 ] } },
{ "type": "Feature", "properties": { "value": 17.695 }, "geometry": { "type": "Point", "coordinates": [ 129.326599, 35.492317, 60.0 ] } },
{ "type": "Feature", "properties": { "value": 1.3101 }, "geometry": { "type": "Point", "coordinates": [ 129.327698, 35.492317, 60.0 ] } },
{ "type": "Feature", "properties": { "value": 1.3432 }, "geometry": { "type": "Point", "coordinates": [ 129.31778, 35.493244, 60.0 ] } },
{ "type": "Feature", "properties": { "value": 11.858 }, "geometry": { "type": "Point", "coordinates": [ 129.318893, 35.49324, 60.0 ] } },
{ "type": "Feature", "properties": { "value": 43.343 }, "geometry": { "type": "Point", "coordinates": [ 129.319992, 35.493237, 60.0 ] } },
{ "type": "Feature", "properties": { "value": 106.49 }, "geometry": { "type": "Point", "coordinates": [ 129.321091, 35.493237, 60.0 ] } },
{ "type": "Feature", "properties": { "value": 172.87 }, "geometry": { "type": "Point", "coordinates": [ 129.322189, 35.493233, 60.0 ] } },
{ "type": "Feature", "properties": { "value": 178.38 }, "geometry": { "type": "Point", "coordinates": [ 129.323288, 35.493229, 60.0 ] } },
{ "type": "Feature", "properties": { "value": 112.81 }, "geometry": { "type": "Point", "coordinates": [ 129.324402, 35.493225, 60.0 ] } },
{ "type": "Feature", "properties": { "value": 41.879 }, "geometry": { "type": "Point", "coordinates": [ 129.3255, 35.493225, 60.0 ] } },
{ "type": "Feature", "properties": { "value": 8.5851 }, "geometry": { "type": "Point", "coordinates": [ 129.326599, 35.493221, 60.0 ] } },
{ "type": "Feature", "properties": { "value": 7.7878 }, "geometry": { "type": "Point", "coordinates": [ 129.317795, 35.494144, 60.0 ] } },
{ "type": "Feature", "properties": { "value": 29.926 }, "geometry": { "type": "Point", "coordinates": [ 129.318893, 35.494141, 60.0 ] } },
{ "type": "Feature", "properties": { "value": 79.495 }, "geometry": { "type": "Point", "coordinates": [ 129.319992, 35.494141, 60.0 ] } },
{ "type": "Feature", "properties": { "value": 147.1 }, "geometry": { "type": "Point", "coordinates": [ 129.321091, 35.494137, 60.0 ] } },
{ "type": "Feature", "properties": { "value": 183.27 }, "geometry": { "type": "Point", "coordinates": [ 129.322189, 35.494133, 60.0 ] } },
{ "type": "Feature", "properties": { "value": 148.08 }, "geometry": { "type": "Point", "coordinates": [ 129.323303, 35.494129, 60.0 ] } },
{ "type": "Feature", "properties": { "value": 74.778 }, "geometry": { "type": "Point", "coordinates": [ 129.324402, 35.494129, 60.0 ] } },
{ "type": "Feature", "properties": { "value": 22.563 }, "geometry": { "type": "Point", "coordinates": [ 129.3255, 35.494125, 60.0 ] } },
{ "type": "Feature", "properties": { "value": 3.4255 }, "geometry": { "type": "Point", "coordinates": [ 129.326599, 35.494122, 60.0 ] } },
{ "type": "Feature", "properties": { "value": 5.7195 }, "geometry": { "type": "Point", "coordinates": [ 129.316696, 35.495049, 60.0 ] } },
{ "type": "Feature", "properties": { "value": 22.276 }, "geometry": { "type": "Point", "coordinates": [ 129.317795, 35.495045, 60.0 ] } },
{ "type": "Feature", "properties": { "value": 61.478 }, "geometry": { "type": "Point", "coordinates": [ 129.318893, 35.495045, 60.0 ] } },
{ "type": "Feature", "properties": { "value": 123.34 }, "geometry": { "type": "Point", "coordinates": [ 129.319992, 35.495041, 60.0 ] } },
{ "type": "Feature", "properties": { "value": 174.8 }, "geometry": { "type": "Point", "coordinates": [ 129.321091, 35.495037, 60.0 ] } },
{ "type": "Feature", "properties": { "value": 168.95 }, "geometry": { "type": "Point", "coordinates": [ 129.322205, 35.495033, 60.0 ] } },
{ "type": "Feature", "properties": { "value": 107.65 }, "geometry": { "type": "Point", "coordinates": [ 129.323303, 35.495033, 60.0 ] } },
{ "type": "Feature", "properties": { "value": 43.633 }, "geometry": { "type": "Point", "coordinates": [ 129.324402, 35.495029, 60.0 ] } },
{ "type": "Feature", "properties": { "value": 10.591 }, "geometry": { "type": "Point", "coordinates": [ 129.3255, 35.495026, 60.0 ] } },
{ "type": "Feature", "properties": { "value": 0.366 }, "geometry": { "type": "Point", "coordinates": [ 129.326614, 35.495022, 60.0 ] } },
{ "type": "Feature", "properties": { "value": 4.8293 }, "geometry": { "type": "Point", "coordinates": [ 129.315598, 35.495953, 60.0 ] } },
{ "type": "Feature", "properties": { "value": 18.187 }, "geometry": { "type": "Point", "coordinates": [ 129.316696, 35.495949, 60.0 ] } },
{ "type": "Feature", "properties": { "value": 50.043 }, "geometry": { "type": "Point", "coordinates": [ 129.317795, 35.495949, 60.0 ] } },
{ "type": "Feature", "properties": { "value": 104.5 }, "geometry": { "type": "Point", "coordinates": [ 129.318893, 35.495945, 60.0 ] } },
{ "type": "Feature", "properties": { "value": 161.45 }, "geometry": { "type": "Point", "coordinates": [ 129.319992, 35.495941, 60.0 ] } },
{ "type": "Feature", "properties": { "value": 177.65 }, "geometry": { "type": "Point", "coordinates": [ 129.321106, 35.495937, 60.0 ] } },
{ "type": "Feature", "properties": { "value": 134.86 }, "geometry": { "type": "Point", "coordinates": [ 129.322205, 35.495937, 60.0 ] } },
{ "type": "Feature", "properties": { "value": 68.231 }, "geometry": { "type": "Point", "coordinates": [ 129.323303, 35.495934, 60.0 ] } },
{ "type": "Feature", "properties": { "value": 22.189 }, "geometry": { "type": "Point", "coordinates": [ 129.324402, 35.49593, 60.0 ] } },
{ "type": "Feature", "properties": { "value": 3.9756 }, "geometry": { "type": "Point", "coordinates": [ 129.325516, 35.495926, 60.0 ] } },
{ "type": "Feature", "properties": { "value": 5.087 }, "geometry": { "type": "Point", "coordinates": [ 129.314499, 35.496857, 60.0 ] } },
{ "type": "Feature", "properties": { "value": 16.938 }, "geometry": { "type": "Point", "coordinates": [ 129.315598, 35.496857, 60.0 ] } },
{ "type": "Feature", "properties": { "value": 44.234 }, "geometry": { "type": "Point", "coordinates": [ 129.316696, 35.496853, 60.0 ] } },
{ "type": "Feature", "properties": { "value": 92.035 }, "geometry": { "type": "Point", "coordinates": [ 129.317795, 35.496849, 60.0 ] } },
{ "type": "Feature", "properties": { "value": 148.24 }, "geometry": { "type": "Point", "coordinates": [ 129.318893, 35.496845, 60.0 ] } },
{ "type": "Feature", "properties": { "value": 178.08 }, "geometry": { "type": "Point", "coordinates": [ 129.320007, 35.496841, 60.0 ] } },
{ "type": "Feature", "properties": { "value": 154.12 }, "geometry": { "type": "Point", "coordinates": [ 129.321106, 35.496841, 60.0 ] } },
{ "type": "Feature", "properties": { "value": 92.701 }, "geometry": { "type": "Point", "coordinates": [ 129.322205, 35.496838, 60.0 ] } },
{ "type": "Feature", "properties": { "value": 37.411 }, "geometry": { "type": "Point", "coordinates": [ 129.323303, 35.496834, 60.0 ] } },
{ "type": "Feature", "properties": { "value": 9.6243 }, "geometry": { "type": "Point", "coordinates": [ 129.324417, 35.49683, 60.0 ] } },
{ "type": "Feature", "properties": { "value": 0.3304 }, "geometry": { "type": "Point", "coordinates": [ 129.325516, 35.49683, 60.0 ] } },
{ "type": "Feature", "properties": { "value": 1.262 }, "geometry": { "type": "Point", "coordinates": [ 129.312286, 35.497765, 60.0 ] } },
{ "type": "Feature", "properties": { "value": 5.9098 }, "geometry": { "type": "Point", "coordinates": [ 129.3134, 35.497761, 60.0 ] } },
{ "type": "Feature", "properties": { "value": 17.645 }, "geometry": { "type": "Point", "coordinates": [ 129.314499, 35.497761, 60.0 ] } },
{ "type": "Feature", "properties": { "value": 42.86 }, "geometry": { "type": "Point", "coordinates": [ 129.315598, 35.497757, 60.0 ] } },
{ "type": "Feature", "properties": { "value": 86.288 }, "geometry": { "type": "Point", "coordinates": [ 129.316696, 35.497753, 60.0 ] } },
{ "type": "Feature", "properties": { "value": 139.2 }, "geometry": { "type": "Point", "coordinates": [ 129.317795, 35.497749, 60.0 ] } },
{ "type": "Feature", "properties": { "value": 174.99 }, "geometry": { "type": "Point", "coordinates": [ 129.318909, 35.497749, 60.0 ] } },
{ "type": "Feature", "properties": { "value": 165.64 }, "geometry": { "type": "Point", "coordinates": [ 129.320007, 35.497746, 60.0 ] } },
{ "type": "Feature", "properties": { "value": 113.7 }, "geometry": { "type": "Point", "coordinates": [ 129.321106, 35.497742, 60.0 ] } },
{ "type": "Feature", "properties": { "value": 54.279 }, "geometry": { "type": "Point", "coordinates": [ 129.322205, 35.497738, 60.0 ] } },
{ "type": "Feature", "properties": { "value": 17.71 }, "geometry": { "type": "Point", "coordinates": [ 129.323318, 35.497734, 60.0 ] } },
{ "type": "Feature", "properties": { "value": 3.3001 }, "geometry": { "type": "Point", "coordinates": [ 129.324417, 35.497734, 60.0 ] } },
{ "type": "Feature", "properties": { "value": 1.2897 }, "geometry": { "type": "Point", "coordinates": [ 129.311188, 35.498669, 60.0 ] } },
{ "type": "Feature", "properties": { "value": 5.6676 }, "geometry": { "type": "Point", "coordinates": [ 129.312302, 35.498665, 60.0 ] } },
{ "type": "Feature", "properties": { "value": 17.471 }, "geometry": { "type": "Point", "coordinates": [ 129.3134, 35.498665, 60.0 ] } },
{ "type": "Feature", "properties": { "value": 42.533 }, "geometry": { "type": "Point", "coordinates": [ 129.314499, 35.498661, 60.0 ] } },
{ "type": "Feature", "properties": { "value": 84.519 }, "geometry": { "type": "Point", "coordinates": [ 129.315598, 35.498657, 60.0 ] } },
{ "type": "Feature", "properties": { "value": 135.27 }, "geometry": { "type": "Point", "coordinates": [ 129.316696, 35.498653, 60.0 ] } },
{ "type": "Feature", "properties": { "value": 172.95 }, "geometry": { "type": "Point", "coordinates": [ 129.31781, 35.498653, 60.0 ] } },
{ "type": "Feature", "properties": { "value": 169.47 }, "geometry": { "type": "Point", "coordinates": [ 129.318909, 35.49865, 60.0 ] } },
{ "type": "Feature", "properties": { "value": 129.63 }, "geometry": { "type": "Point", "coordinates": [ 129.320007, 35.498646, 60.0 ] } },
{ "type": "Feature", "properties": { "value": 70.325 }, "geometry": { "type": "Point", "coordinates": [ 129.321106, 35.498642, 60.0 ] } },
{ "type": "Feature", "properties": { "value": 27.111 }, "geometry": { "type": "Point", "coordinates": [ 129.32222, 35.498638, 60.0 ] } },
{ "type": "Feature", "properties": { "value": 6.9803 }, "geometry": { "type": "Point", "coordinates": [ 129.323318, 35.498638, 60.0 ] } },
{ "type": "Feature", "properties": { "value": 0.6774 }, "geometry": { "type": "Point", "coordinates": [ 129.310089, 35.499573, 60.0 ] } },
{ "type": "Feature", "properties": { "value": 3.8531 }, "geometry": { "type": "Point", "coordinates": [ 129.311203, 35.499569, 60.0 ] } },
{ "type": "Feature", "properties": { "value": 13.666 }, "geometry": { "type": "Point", "coordinates": [ 129.312302, 35.499569, 60.0 ] } },
{ "type": "Feature", "properties": { "value": 36.856 }, "geometry": { "type": "Point", "coordinates": [ 129.3134, 35.499565, 60.0 ] } },
{ "type": "Feature", "properties": { "value": 77.842 }, "geometry": { "type": "Point", "coordinates": [ 129.314499, 35.499561, 60.0 ] } },
{ "type": "Feature", "properties": { "value": 129.57 }, "geometry": { "type": "Point", "coordinates": [ 129.315598, 35.499557, 60.0 ] } },
{ "type": "Feature", "properties": { "value": 169.34 }, "geometry": { "type": "Point", "coordinates": [ 129.316711, 35.499557, 60.0 ] } },
{ "type": "Feature", "properties": { "value": 172.63 }, "geometry": { "type": "Point", "coordinates": [ 129.31781, 35.499554, 60.0 ] } },
{ "type": "Feature", "properties": { "value": 134.87 }, "geometry": { "type": "Point", "coordinates": [ 129.318909, 35.49955, 60.0 ] } },
{ "type": "Feature", "properties": { "value": 83.86 }, "geometry": { "type": "Point", "coordinates": [ 129.320007, 35.499546, 60.0 ] } },
{ "type": "Feature", "properties": { "value": 36.339 }, "geometry": { "type": "Point", "coordinates": [ 129.321121, 35.499546, 60.0 ] } },
{ "type": "Feature", "properties": { "value": 11.411 }, "geometry": { "type": "Point", "coordinates": [ 129.32222, 35.499542, 60.0 ] } },
{ "type": "Feature", "properties": { "value": 1.8213 }, "geometry": { "type": "Point", "coordinates": [ 129.323318, 35.499538, 60.0 ] } },
{ "type": "Feature", "properties": { "value": 0.0789 }, "geometry": { "type": "Point", "coordinates": [ 129.30899, 35.500477, 60.0 ] } },
{ "type": "Feature", "properties": { "value": 1.4974 }, "geometry": { "type": "Point", "coordinates": [ 129.310104, 35.500473, 60.0 ] } },
{ "type": "Feature", "properties": { "value": 7.0237 }, "geometry": { "type": "Point", "coordinates": [ 129.311203, 35.500473, 60.0 ] } },
{ "type": "Feature", "properties": { "value": 23.222 }, "geometry": { "type": "Point", "coordinates": [ 129.312302, 35.500469, 60.0 ] } },
{ "type": "Feature", "properties": { "value": 57.015 }, "geometry": { "type": "Point", "coordinates": [ 129.3134, 35.500465, 60.0 ] } },
{ "type": "Feature", "properties": { "value": 105.34 }, "geometry": { "type": "Point", "coordinates": [ 129.314499, 35.500462, 60.0 ] } },
{ "type": "Feature", "properties": { "value": 149.85 }, "geometry": { "type": "Point", "coordinates": [ 129.315613, 35.500462, 60.0 ] } },
{ "type": "Feature", "properties": { "value": 163.79 }, "geometry": { "type": "Point", "coordinates": [ 129.316711, 35.500458, 60.0 ] } },
{ "type": "Feature", "properties": { "value": 136.47 }, "geometry": { "type": "Point", "coordinates": [ 129.31781, 35.500454, 60.0 ] } },
{ "type": "Feature", "properties": { "value": 88.368 }, "geometry": { "type": "Point", "coordinates": [ 129.318909, 35.50045, 60.0 ] } },
{ "type": "Feature", "properties": { "value": 44.348 }, "geometry": { "type": "Point", "coordinates": [ 129.320023, 35.50045, 60.0 ] } },
{ "type": "Feature", "properties": { "value": 15.711 }, "geometry": { "type": "Point", "coordinates": [ 129.321121, 35.500446, 60.0 ] } },
{ "type": "Feature", "properties": { "value": 3.8529 }, "geometry": { "type": "Point", "coordinates": [ 129.32222, 35.500443, 60.0 ] } },
{ "type": "Feature", "properties": { "value": 0.1924 }, "geometry": { "type": "Point", "coordinates": [ 129.309006, 35.501377, 60.0 ] } },
{ "type": "Feature", "properties": { "value": 1.9524 }, "geometry": { "type": "Point", "coordinates": [ 129.310104, 35.501377, 60.0 ] } },
{ "type": "Feature", "properties": { "value": 8.7345 }, "geometry": { "type": "Point", "coordinates": [ 129.311203, 35.501373, 60.0 ] } },
{ "type": "Feature", "properties": { "value": 27.457 }, "geometry": { "type": "Point", "coordinates": [ 129.312302, 35.501369, 60.0 ] } },
{ "type": "Feature", "properties": { "value": 62.38 }, "geometry": { "type": "Point", "coordinates": [ 129.3134, 35.501366, 60.0 ] } },
{ "type": "Feature", "properties": { "value": 104.29 }, "geometry": { "type": "Point", "coordinates": [ 129.314514, 35.501366, 60.0 ] } },
{ "type": "Feature", "properties": { "value": 130.33 }, "geometry": { "type": "Point", "coordinates": [ 129.315613, 35.501362, 60.0 ] } },
{ "type": "Feature", "properties": { "value": 121.82 }, "geometry": { "type": "Point", "coordinates": [ 129.316711, 35.501358, 60.0 ] } },
{ "type": "Feature", "properties": { "value": 86.012 }, "geometry": { "type": "Point", "coordinates": [ 129.31781, 35.501354, 60.0 ] } },
{ "type": "Feature", "properties": { "value": 48.069 }, "geometry": { "type": "Point", "coordinates": [ 129.318924, 35.501354, 60.0 ] } },
{ "type": "Feature", "properties": { "value": 19.272 }, "geometry": { "type": "Point", "coordinates": [ 129.320023, 35.50135, 60.0 ] } },
{ "type": "Feature", "properties": { "value": 5.5328 }, "geometry": { "type": "Point", "coordinates": [ 129.321121, 35.501347, 60.0 ] } }
]
}
