{
"type": "FeatureCollection",
"features": [
{ "type": "Feature", "properties": { "value": 0.0 }, "geometry": { "type": "Point", "coordinates": [ 129.292252, 35.441032, 115.0 ] } },
{ "type": "Feature", "properties": { "value": 0.0 }, "geometry": { "type": "Point", "coordinates": [ 129.29335, 35.441029, 115.0 ] } },
{ "type": "Feature", "properties": { "value": 0.0 }, "geometry": { "type": "Point", "coordinates": [ 129.294449, 35.441029, 115.0 ] } },
{ "type": "Feature", "properties": { "value": 0.0003 }, "geometry": { "type": "Point", "coordinates": [ 129.292252, 35.441933, 115.0 ] } },
{ "type": "Feature", "properties": { "value": 0.0009 }, "geometry": { "type": "Point", "coordinates": [ 129.29335, 35.441933, 115.0 ] } },
{ "type": "Feature", "properties": { "value": 0.0001 }, "geometry": { "type": "Point", "coordinates": [ 129.294449, 35.441929, 115.0 ] } },
{ "type": "Feature", "properties": { "value": 0.0002 }, "geometry": { "type": "Point", "coordinates": [ 129.291153, 35.442837, 115.0 ] } },
{ "type": "Feature", "properties": { "value": 0.0107 }, "geometry": { "type": "Point", "coordinates": [ 129.292252, 35.442837, 115.0 ] } },
{ "type": "Feature", "properties": { "value": 0.0155 }, "geometry": { "type": "Point", "coordinates": [ 129.29335, 35.442833, 115.0 ] } },
{ "type": "Feature", "properties": { "value": 0.0011 }, "geometry": { "type": "Point", "coordinates": [ 129.294464, 35.442829, 115.0 ] } },
{ "type": "Feature", "properties": { "value": 0.0086 }, "geometry": { "type": "Point", "coordinates": [ 129.291153, 35.443741, 115.0 ] } },
{ "type": "Feature", "properties": { "value": 0.0819 }, "geometry": { "type": "Point", "coordinates": [ 129.292252, 35.443737, 115.0 ] } },
{ "type": "Feature", "properties": { "value": 0.0626 }, "geometry": { "type": "Point", "coordinates": [ 129.293365, 35.443733, 115.0 ] } },
{ "type": "Feature", "properties": { "value": 0.0029 }, "geometry": { "type": "Point", "coordinates": [ 129.294464, 35.443733, 115.0 ] } },
{ "type": "Feature", "properties": { "value": 0.0028 }, "geometry": { "type": "Point", "coordinates": [ 129.290054, 35.444645, 115.0 ] } },
{ "type": "Feature", "properties": { "value": 0.1037 }, "geometry": { "type": "Point", "coordinates": [ 129.291153, 35.444641, 115.0 ] } },
{ "type": "Feature", "properties": { "value": 0.36 }, "geometry": { "type": "Point", "coordinates": [ 129.292267, 35.444637, 115.0 ] } },
{ "type": "Feature", "properties": { "value": 0.151 }, "geometry": { "type": "Point", "coordinates": [ 129.293365, 35.444637, 115.0 ] } },
{ "type": "Feature", "properties": { "value": 0.0041 }, "geometry": { "type": "Point", "coordinates": [ 129.294464, 35.444633, 115.0 ] } },
{ "type": "Feature", "properties": { "value": 0.043 }, "geometry": { "type": "Point", "coordinates": [ 129.290054, 35.445545, 115.0 ] } },
{ "type": "Feature", "properties": { "value": 0.5325 }, "geometry": { "type": "Point", "coordinates": [ 129.291168, 35.445541, 115.0 ] } },
{ "type": "Feature", "properties": { "value": 0.9521 }, "geometry": { "type": "Point", "coordinates": [ 129.292267, 35.445541, 115.0 ] } },
{ "type": "Feature", "properties": { "value": 0.2513 }, "geometry": { "type": "Point", "coordinates": [ 129.293365, 35.445538, 115.0 ] } },
{ "type": "Feature", "properties": { "value": 0.005 }, "geometry": { "type": "Point", "coordinates": [ 129.294464, 35.445534, 115.0 ] } },
{ "type": "Feature", "properties": { "value": 0.1925 }, "geometry": { "type": "Point", "coordinates": [ 129.29007, 35.446445, 115.0 ] } },
{ "type": "Feature", "properties": { "value": 1.3694 }, "geometry": { "type": "Point", "coordinates": [ 129.291168, 35.446442, 115.0 ] } },
{ "type": "Feature", "properties": { "value": 1.6061 }, "geometry": { "type": "Point", "coordinates": [ 129.292267, 35.446442, 115.0 ] } },
{ "type": "Feature", "properties": { "value": 0.3078 }, "geometry": { "type": "Point", "coordinates": [ 129.293365, 35.446438, 115.0 ] } },
{ "type": "Feature", "properties": { "value": 0.0051 }, "geometry": { "type": "Point", "coordinates": [ 129.294464, 35.446434, 115.0 ] } },
{ "type": "Feature", "properties": { "value": 0.0188 }, "geometry": { "type": "Point", "coordinates": [ 129.288971, 35.44735, 115.0 ] } },
{ "type": "Feature", "properties": { "value": 0.5 }, "geometry": { "type": "Point", "coordinates": [ 129.29007, 35.447346, 115.0 ] } },
{ "type": "Feature", "properties": { "value": 2.0674 }, "geometry": { "type": "Point", "coordinates": [ 129.291168, 35.447346, 115.0 ] } },
{ "type": "Feature", "properties": { "value": 1.6044 }, "geometry": { "type": "Point", "coordinates": [ 129.292267, 35.447342, 115.0 ] } },
{ "type": "Feature", "properties": { "value": 0.2156 }, "geometry": { "type": "Point", "coordinates": [ 129.293365, 35.447338, 115.0 ] } },
{ "type": "Feature", "properties": { "value": 0.0837 }, "geometry": { "type": "Point", "coordinates": [ 129.288971, 35.44825, 115.0 ] } },
{ "type": "Feature", "properties": { "value": 0.9944 }, "geometry": { "type": "Point", "coordinates": [ 129.29007, 35.44825, 115.0 ] } },
{ "type": "Feature", "properties": { "value": 2.3434 }, "geometry": { "type": "Point", "coordinates": [ 129.291168, 35.448246, 115.0 ] } },
{ "type": "Feature", "properties": { "value": 1.1779 }, "geometry": { "type": "Point", "coordinates": [ 129.292267, 35.448242, 115.0 ] } },
{ "type": "Feature", "properties": { "value": 0.1073 }, "geometry": { "type": "Point", "coordinates": [ 129.293381, 35.448242, 115.0 ] } },
{ "type": "Feature", "properties": { "value": 0.2651 }, "geometry": { "type": "Point", "coordinates": [ 129.288971, 35.449154, 115.0 ] } },
{ "type": "Feature", "properties": { "value": 1.7406 }, "geometry": { "type": "Point", "coordinates": [ 129.29007, 35.44915, 115.0 ] } },
{ "type": "Feature", "properties": { "value": 2.5038 }, "geometry": { "type": "Point", "coordinates": [ 129.291168, 35.449146, 115.0 ] } },
{ "type": "Feature", "properties": { "value": 0.8226 }, "geometry": { "type": "Point", "coordinates": [ 129.292282, 35.449146, 115.0 ] } },
{ "type": "Feature", "properties": { "value": 0.0499 }, "geometry": { "type": "Point", "coordinates": [ 129.293381, 35.449142, 115.0 ] } },
{ "type": "Feature", "properties": { "value": 0.031 }, "geometry": { "type": "Point", "coordinates": [ 129.287872, 35.450058, 115.0 ] } },
{ "type": "Feature", "properties": { "value": 0.7656 }, "geometry": { "type": "Point", "coordinates": [ 129.288971, 35.450054, 115.0 ] } },
{ "type": "Feature", "properties": { "value": 3.1873 }, "geometry": { "type": "Point", "coordinates": [ 129.290085, 35.45005, 115.0 ] } },
{ "type": "Feature", "properties": { "value": 3.0861 }, "geometry": { "type": "Point", "coordinates": [ 129.291183, 35.45005, 115.0 ] } },
{ "type": "Feature", "properties": { "value": 0.6896 }, "geometry": { "type": "Point", "coordinates": [ 129.292282, 35.450047, 115.0 ] } },
{ "type": "Feature", "properties": { "value": 0.0216 }, "geometry": { "type": "Point", "coordinates": [ 129.293381, 35.450043, 115.0 ] } },
{ "type": "Feature", "properties": { "value": 0.1522 }, "geometry": { "type": "Point", "coordinates": [ 129.287872, 35.450958, 115.0 ] } },
{ "type": "Feature", "properties": { "value": 2.1993 }, "geometry": { "type": "Point", "coordinates": [ 129.288986, 35.450954, 115.0 ] } },
{ "type": "Feature", "properties": { "value": 7.0364 }, "geometry": { "type": "Point", "coordinates": [ 129.290085, 35.450954, 115.0 ] } },
{ "type": "Feature", "properties": { "value": 5.7048 }, "geometry": { "type": "Point", "coordinates": [ 129.291183, 35.450951, 115.0 ] } },
{ "type": "Feature", "properties": { "value": 1.1378 }, "geometry": { "type": "Point", "coordinates": [ 129.292282, 35.450947, 115.0 ] } },
{ "type": "Feature", "properties": { "value": 0.025 }, "geometry": { "type": "Point", "coordinates": [ 129.293381, 35.450943, 115.0 ] } },
{ "type": "Feature", "properties": { "value": 0.4238 }, "geometry": { "type": "Point", "coordinates": [ 129.287888, 35.451859, 115.0 ] } },
{ "type": "Feature", "properties": { "value": 4.7966 }, "geometry": { "type": "Point", "coordinates": [ 129.288986, 35.451855, 115.0 ] } },
{ "type": "Feature", "properties": { "value": 13.5 }, "geometry": { "type": "Point", "coordinates": [ 129.290085, 35.451855, 115.0 ] } },
{ "type": "Feature", "properties": { "value": 10.571 }, "geometry": { "type": "Point", "coordinates": [ 129.291183, 35.451851, 115.0 ] } },
{ "type": "Feature", "properties": { "value": 2.2685 }, "geometry": { "type": "Point", "coordinates": [ 129.292282, 35.451847, 115.0 ] } },
{ "type": "Feature", "properties": { "value": 0.0983 }, "geometry": { "type": "Point", "coordinates": [ 129.293381, 35.451847, 115.0 ] } },
{ "type": "Feature", "properties": { "value": 0.7083 }, "geometry": { "type": "Point", "coordinates": [ 129.287888, 35.452759, 115.0 ] } },
{ "type": "Feature", "properties": { "value": 7.034 }, "geometry": { "type": "Point", "coordinates": [ 129.288986, 35.452759, 115.0 ] } },
{ "type": "Feature", "properties": { "value": 19.264 }, "geometry": { "type": "Point", "coordinates": [ 129.290085, 35.452755, 115.0 ] } },
{ "type": "Feature", "properties": { "value": 15.678 }, "geometry": { "type": "Point", "coordinates": [ 129.291183, 35.452751, 115.0 ] } },
{ "type": "Feature", "properties": { "value": 3.7984 }, "geometry": { "type": "Point", "coordinates": [ 129.292297, 35.452751, 115.0 ] } },
{ "type": "Feature", "properties": { "value": 0.2438 }, "geometry": { "type": "Point", "coordinates": [ 129.293396, 35.452747, 115.0 ] } },
{ "type": "Feature", "properties": { "value": 0.8333 }, "geometry": { "type": "Point", "coordinates": [ 129.287888, 35.453663, 115.0 ] } },
{ "type": "Feature", "properties": { "value": 7.7409 }, "geometry": { "type": "Point", "coordinates": [ 129.288986, 35.453659, 115.0 ] } },
{ "type": "Feature", "properties": { "value": 21.125 }, "geometry": { "type": "Point", "coordinates": [ 129.290085, 35.453655, 115.0 ] } },
{ "type": "Feature", "properties": { "value": 18.198 }, "geometry": { "type": "Point", "coordinates": [ 129.291199, 35.453655, 115.0 ] } },
{ "type": "Feature", "properties": { "value": 4.953 }, "geometry": { "type": "Point", "coordinates": [ 129.292297, 35.453651, 115.0 ] } },
{ "type": "Feature", "properties": { "value": 0.3843 }, "geometry": { "type": "Point", "coordinates": [ 129.293396, 35.453648, 115.0 ] } },
{ "type": "Feature", "properties": { "value": 0.9693 }, "geometry": { "type": "Point", "coordinates": [ 129.287888, 35.454563, 115.0 ] } },
{ "type": "Feature", "properties": { "value": 7.7955 }, "geometry": { "type": "Point", "coordinates": [ 129.288986, 35.454559, 115.0 ] } },
{ "type": "Feature", "properties": { "value": 20.237 }, "geometry": { "type": "Point", "coordinates": [ 129.2901, 35.454559, 115.0 ] } },
{ "type": "Feature", "properties": { "value": 17.702 }, "geometry": { "type": "Point", "coordinates": [ 129.291199, 35.454556, 115.0 ] } },
{ "type": "Feature", "properties": { "value": 5.1605 }, "geometry": { "type": "Point", "coordinates": [ 129.292297, 35.454552, 115.0 ] } },
{ "type": "Feature", "properties": { "value": 0.4633 }, "geometry": { "type": "Point", "coordinates": [ 129.293396, 35.454552, 115.0 ] } },
{ "type": "Feature", "properties": { "value": 1.3395 }, "geometry": { "type": "Point", "coordinates": [ 129.287888, 35.455463, 115.0 ] } },
{ "type": "Feature", "properties": { "value": 8.3378 }, "geometry": { "type": "Point", "coordinates": [ 129.289001, 35.455463, 115.0 ] } },
{ "type": "Feature", "properties": { "value": 18.828 }, "geometry": { "type": "Point", "coordinates": [ 129.2901, 35.45546, 115.0 ] } },
{ "type": "Feature", "properties": { "value": 15.394 }, "geometry": { "type": "Point", "coordinates": [ 129.291199, 35.455456, 115.0 ] } },
{ "type": "Feature", "properties": { "value": 4.4346 }, "geometry": { "type": "Point", "coordinates": [ 129.292297, 35.455452, 115.0 ] } },
{ "type": "Feature", "properties": { "value": 0.4036 }, "geometry": { "type": "Point", "coordinates": [ 129.293396, 35.455452, 115.0 ] } },
{ "type": "Feature", "properties": { "value": 0.126 }, "geometry": { "type": "Point", "coordinates": [ 129.286789, 35.456367, 115.0 ] } },
{ "type": "Feature", "properties": { "value": 1.8919 }, "geometry": { "type": "Point", "coordinates": [ 129.287903, 35.456367, 115.0 ] } },
{ "type": "Feature", "properties": { "value": 9.1489 }, "geometry": { "type": "Point", "coordinates": [ 129.289001, 35.456364, 115.0 ] } },
{ "type": "Feature", "properties": { "value": 17.083 }, "geometry": { "type": "Point", "coordinates": [ 129.2901, 35.45636, 115.0 ] } },
{ "type": "Feature", "properties": { "value": 12.239 }, "geometry": { "type": "Point", "coordinates": [ 129.291199, 35.456356, 115.0 ] } },
{ "type": "Feature", "properties": { "value": 3.2481 }, "geometry": { "type": "Point", "coordinates": [ 129.292297, 35.456356, 115.0 ] } },
{ "type": "Feature", "properties": { "value": 0.2814 }, "geometry": { "type": "Point", "coordinates": [ 129.293411, 35.456352, 115.0 ] } },
{ "type": "Feature", "properties": { "value": 0.175 }, "geometry": { "type": "Point", "coordinates": [ 129.286804, 35.457268, 115.0 ] } },
{ "type": "Feature", "properties": { "value": 1.9752 }, "geometry": { "type": "Point", "coordinates": [ 129.287903, 35.457268, 115.0 ] } },
{ "type": "Feature", "properties": { "value": 8.0863 }, "geometry": { "type": "Point", "coordinates": [ 129.289001, 35.457264, 115.0 ] } },
{ "type": "Feature", "properties": { "value": 12.979 }, "geometry": { "type": "Point", "coordinates": [ 129.2901, 35.45726, 115.0 ] } },
{ "type": "Feature", "properties": { "value": 8.1762 }, "geometry": { "type": "Point", "coordinates": [ 129.291199, 35.45726, 115.0 ] } },
{ "type": "Feature", "properties": { "value": 1.9629 }, "geometry": { "type": "Point", "coordinates": [ 129.292313, 35.457256, 115.0 ] } },
{ "type": "Feature", "properties": { "value": 0.1585 }, "geometry": { "type": "Point", "coordinates": [ 129.293411, 35.457253, 115.0 ] } },
{ "type": "Feature", "properties": { "value": 0.1055 }, "geometry": { "type": "Point", "coordinates": [ 129.286804, 35.458172, 115.0 ] } },
{ "type": "Feature", "properties": { "value": 1.1489 }, "geometry": { "type": "Point", "coordinates": [ 129.287903, 35.458168, 115.0 ] } },
{ "type": "Feature", "properties": { "value": 4.3145 }, "geometry": { "type": "Point", "coordinates": [ 129.289001, 35.458164, 115.0 ] } },
{ "type": "Feature", "properties": { "value": 6.3247 }, "geometry": { "type": "Point", "coordinates": [ 129.2901, 35.458164, 115.0 ] } },
{ "type": "Feature", "properties": { "value": 3.6539 }, "geometry": { "type": "Point", "coordinates": [ 129.291214, 35.45816, 115.0 ] } },
{ "type": "Feature", "properties": { "value": 0.8083 }, "geometry": { "type": "Point", "coordinates": [ 129.292313, 35.458157, 115.0 ] } },
{ "type": "Feature", "properties": { "value": 0.0444 }, "geometry": { "type": "Point", "coordinates": [ 129.293411, 35.458157, 115.0 ] } },
{ "type": "Feature", "properties": { "value": 0.0149 }, "geometry": { "type": "Point", "coordinates": [ 129.286804, 35.459072, 115.0 ] } },
{ "type": "Feature", "properties": { "value": 0.3055 }, "geometry": { "type": "Point", "coordinates": [ 129.287903, 35.459068, 115.0 ] } },
{ "type": "Feature", "properties": { "value": 1.127 }, "geometry": { "type": "Point", "coordinates": [ 129.289001, 35.459068, 115.0 ] } },
{ "type": "Feature", "properties": { "value": 1.5812 }, "geometry": { "type": "Point", "coordinates": [ 129.290115, 35.459064, 115.0 ] } },
{ "type": "Feature", "properties": { "value": 0.865 }, "geometry": { "type": "Point", "coordinates": [ 129.291214, 35.459061, 115.0 ] } },
{ "type": "Feature", "properties": { "value": 0.1718 }, "geometry": { "type": "Point", "coordinates": [ 129.292313, 35.459061, 115.0 ] } },
{ "type": "Feature", "properties": { "value": 0.0271 }, "geometry": { "type": "Point", "coordinates": [ 129.287903, 35.459972, 115.0 ] } },
{ "type": "Feature", "properties": { "value": 0.1244 }, "geometry": { "type": "Point", "coordinates": [ 129.289017, 35.459969, 115.0 ] } },
{ "type": "Feature", "properties": { "value": 0.1697 }, "geometry": { "type": "Point", "coordinates": [ 129.290115, 35.459965, 115.0 ] } },
{ "type": "Feature", "properties": { "value": 0.0812 }, "geometry": { "type": "Point", "coordinates": [ 129.291214, 35.459965, 115.0 ] } },
{ "type": "Feature", "properties": { "value": 0.0017 }, "geometry": { "type": "Point", "coordinates": [ 129.327576, 35.46077, 115.0 ] } },
{ "type": "Feature", "properties": { "value": 0.0307 }, "geometry": { "type": "Point", "coordinates": [ 129.327576, 35.461674, 115.0 ] } },
{ "type": "Feature", "properties": { "value": 0.0651 }, "geometry": { "type": "Point", "coordinates": [ 129.327576, 35.462574, 115.0 ] } },
{ "type": "Feature", "properties": { "value": 0.1127 }, "geometry": { "type": "Point", "coordinates": [ 129.327576, 35.463474, 115.0 ] } },
{ "type": "Feature", "properties": { "value": 0.0077 }, "geometry": { "type": "Point", "coordinates": [ 129.32869, 35.46347, 115.0 ] } },
{ "type": "Feature", "properties": { "value": 0.2329 }, "geometry": { "type": "Point", "coordinates": [ 129.327591, 35.464375, 115.0 ] } },
{ "type": "Feature", "properties": { "value": 0.0301 }, "geometry": { "type": "Point", "coordinates": [ 129.32869, 35.464375, 115.0 ] } },
{ "type": "Feature", "properties": { "value": 0.7954 }, "geometry": { "type": "Point", "coordinates": [ 129.327591, 35.465279, 115.0 ] } },
{ "type": "Feature", "properties": { "value": 0.2691 }, "geometry": { "type": "Point", "coordinates": [ 129.32869, 35.465275, 115.0 ] } },
{ "type": "Feature", "properties": { "value": 2.4227 }, "geometry": { "type": "Point", "coordinates": [ 129.327591, 35.466179, 115.0 ] } },
{ "type": "Feature", "properties": { "value": 1.848 }, "geometry": { "type": "Point", "coordinates": [ 129.32869, 35.466175, 115.0 ] } },
{ "type": "Feature", "properties": { "value": 5.1297 }, "geometry": { "type": "Point", "coordinates": [ 129.327591, 35.467079, 115.0 ] } },
{ "type": "Feature", "properties": { "value": 5.4731 }, "geometry": { "type": "Point", "coordinates": [ 129.328705, 35.467075, 115.0 ] } },
{ "type": "Feature", "properties": { "value": 8.6385 }, "geometry": { "type": "Point", "coordinates": [ 129.327606, 35.467983, 115.0 ] } },
{ "type": "Feature", "properties": { "value": 10.569 }, "geometry": { "type": "Point", "coordinates": [ 129.328705, 35.467979, 115.0 ] } },
{ "type": "Feature", "properties": { "value": 11.424 }, "geometry": { "type": "Point", "coordinates": [ 129.327606, 35.468884, 115.0 ] } },
{ "type": "Feature", "properties": { "value": 15.055 }, "geometry": { "type": "Point", "coordinates": [ 129.328705, 35.46888, 115.0 ] } },
{ "type": "Feature", "properties": { "value": 11.206 }, "geometry": { "type": "Point", "coordinates": [ 129.327606, 35.469784, 115.0 ] } },
{ "type": "Feature", "properties": { "value": 15.905 }, "geometry": { "type": "Point", "coordinates": [ 129.328705, 35.46978, 115.0 ] } },
{ "type": "Feature", "properties": { "value": 0.2656 }, "geometry": { "type": "Point", "coordinates": [ 129.329819, 35.469776, 115.0 ] } },
{ "type": "Feature", "properties": { "value": 0.1272 }, "geometry": { "type": "Point", "coordinates": [ 129.326508, 35.470688, 115.0 ] } },
{ "type": "Feature", "properties": { "value": 9.0871 }, "geometry": { "type": "Point", "coordinates": [ 129.327606, 35.470684, 115.0 ] } },
{ "type": "Feature", "properties": { "value": 11.309 }, "geometry": { "type": "Point", "coordinates": [ 129.32872, 35.470684, 115.0 ] } },
{ "type": "Feature", "properties": { "value": 0.2175 }, "geometry": { "type": "Point", "coordinates": [ 129.329819, 35.47068, 115.0 ] } },
{ "type": "Feature", "properties": { "value": 0.1467 }, "geometry": { "type": "Point", "coordinates": [ 129.326508, 35.471588, 115.0 ] } },
{ "type": "Feature", "properties": { "value": 5.469 }, "geometry": { "type": "Point", "coordinates": [ 129.327621, 35.471588, 115.0 ] } },
{ "type": "Feature", "properties": { "value": 4.3869 }, "geometry": { "type": "Point", "coordinates": [ 129.32872, 35.471584, 115.0 ] } },
{ "type": "Feature", "properties": { "value": 0.0938 }, "geometry": { "type": "Point", "coordinates": [ 129.329819, 35.471581, 115.0 ] } },
{ "type": "Feature", "properties": { "value": 0.1217 }, "geometry": { "type": "Point", "coordinates": [ 129.326523, 35.472492, 115.0 ] } },
{ "type": "Feature", "properties": { "value": 2.6045 }, "geometry": { "type": "Point", "coordinates": [ 129.327621, 35.472488, 115.0 ] } },
{ "type": "Feature", "properties": { "value": 1.4786 }, "geometry": { "type": "Point", "coordinates": [ 129.32872, 35.472485, 115.0 ] } },
{ "type": "Feature", "properties": { "value": 0.0581 }, "geometry": { "type": "Point", "coordinates": [ 129.329819, 35.472481, 115.0 ] } },
{ "type": "Feature", "properties": { "value": 0.1189 }, "geometry": { "type": "Point", "coordinates": [ 129.326523, 35.473392, 115.0 ] } },
{ "type": "Feature", "properties": { "value": 1.587 }, "geometry": { "type": "Point", "coordinates": [ 129.327621, 35.473389, 115.0 ] } },
{ "type": "Feature", "properties": { "value": 1.0322 }, "geometry": { "type": "Point", "coordinates": [ 129.32872, 35.473385, 115.0 ] } },
{ "type": "Feature", "properties": { "value": 0.1039 }, "geometry": { "type": "Point", "coordinates": [ 129.329819, 35.473385, 115.0 ] } },
{ "type": "Feature", "properties": { "value": 0.1395 }, "geometry": { "type": "Point", "coordinates": [ 129.326523, 35.474293, 115.0 ] } },
{ "type": "Feature", "properties": { "value": 1.2938 }, "geometry": { "type": "Point", "coordinates": [ 129.327621, 35.474289, 115.0 ] } },
{ "type": "Feature", "properties": { "value": 1.3632 }, "geometry": { "type": "Point", "coordinates": [ 129.328735, 35.474289, 115.0 ] } },
{ "type": "Feature", "properties": { "value": 0.3158 }, "geometry": { "type": "Point", "coordinates": [ 129.329834, 35.474285, 115.0 ] } },
{ "type": "Feature", "properties": { "value": 0.1745 }, "geometry": { "type": "Point", "coordinates": [ 129.326523, 35.475193, 115.0 ] } },
{ "type": "Feature", "properties": { "value": 1.5466 }, "geometry": { "type": "Point", "coordinates": [ 129.327637, 35.475193, 115.0 ] } },
{ "type": "Feature", "properties": { "value": 2.4012 }, "geometry": { "type": "Point", "coordinates": [ 129.328735, 35.475189, 115.0 ] } },
{ "type": "Feature", "properties": { "value": 0.9026 }, "geometry": { "type": "Point", "coordinates": [ 129.329834, 35.475185, 115.0 ] } },
{ "type": "Feature", "properties": { "value": 0.2944 }, "geometry": { "type": "Point", "coordinates": [ 129.326538, 35.476097, 115.0 ] } },
{ "type": "Feature", "properties": { "value": 3.4191 }, "geometry": { "type": "Point", "coordinates": [ 129.327637, 35.476093, 115.0 ] } },
{ "type": "Feature", "properties": { "value": 5.5451 }, "geometry": { "type": "Point", "coordinates": [ 129.328735, 35.476089, 115.0 ] } },
{ "type": "Feature", "properties": { "value": 1.9946 }, "geometry": { "type": "Point", "coordinates": [ 129.329834, 35.476086, 115.0 ] } },
{ "type": "Feature", "properties": { "value": 0.7899 }, "geometry": { "type": "Point", "coordinates": [ 129.326538, 35.476997, 115.0 ] } },
{ "type": "Feature", "properties": { "value": 9.781 }, "geometry": { "type": "Point", "coordinates": [ 129.327637, 35.476994, 115.0 ] } },
{ "type": "Feature", "properties": { "value": 13.781 }, "geometry": { "type": "Point", "coordinates": [ 129.328735, 35.47699, 115.0 ] } },
{ "type": "Feature", "properties": { "value": 3.5919 }, "geometry": { "type": "Point", "coordinates": [ 129.329834, 35.47699, 115.0 ] } },
{ "type": "Feature", "properties": { "value": 2.4512 }, "geometry": { "type": "Point", "coordinates": [ 129.326538, 35.477898, 115.0 ] } },
{ "type": "Feature", "properties": { "value": 21.65 }, "geometry": { "type": "Point", "coordinates": [ 129.327637, 35.477894, 115.0 ] } },
{ "type": "Feature", "properties": { "value": 25.51 }, "geometry": { "type": "Point", "coordinates": [ 129.328735, 35.477894, 115.0 ] } },
{ "type": "Feature", "properties": { "value": 5.2832 }, "geometry": { "type": "Point", "coordinates": [ 129.329849, 35.47789, 115.0 ] } },
{ "type": "Feature", "properties": { "value": 5.6785 }, "geometry": { "type": "Point", "coordinates": [ 129.326538, 35.478798, 115.0 ] } },
{ "type": "Feature", "properties": { "value": 32.37 }, "geometry": { "type": "Point", "coordinates": [ 129.327637, 35.478798, 115.0 ] } },
{ "type": "Feature", "properties": { "value": 33.002 }, "geometry": { "type": "Point", "coordinates": [ 129.328751, 35.478794, 115.0 ] } },
{ "type": "Feature", "properties": { "value": 6.3985 }, "geometry": { "type": "Point", "coordinates": [ 129.329849, 35.47879, 115.0 ] } },
{ "type": "Feature", "properties": { "value": 0.3237 }, "geometry": { "type": "Point", "coordinates": [ 129.325439, 35.479706, 115.0 ] } },
{ "type": "Feature", "properties": { "value": 8.1381 }, "geometry": { "type": "Point", "coordinates": [ 129.326553, 35.479702, 115.0 ] } },
{ "type": "Feature", "properties": { "value": 31.898 }, "geometry": { "type": "Point", "coordinates": [ 129.327652, 35.479698, 115.0 ] } },
{ "type": "Feature", "properties": { "value": 30.367 }, "geometry": { "type": "Point", "coordinates": [ 129.328751, 35.479694, 115.0 ] } },
{ "type": "Feature", "properties": { "value": 6.406 }, "geometry": { "type": "Point", "coordinates": [ 129.329849, 35.479691, 115.0 ] } },
{ "type": "Feature", "properties": { "value": 0.5631 }, "geometry": { "type": "Point", "coordinates": [ 129.325455, 35.480606, 115.0 ] } },
{ "type": "Feature", "properties": { "value": 7.4337 }, "geometry": { "type": "Point", "coordinates": [ 129.326553, 35.480602, 115.0 ] } },
{ "type": "Feature", "properties": { "value": 23.559 }, "geometry": { "type": "Point", "coordinates": [ 129.327652, 35.480598, 115.0 ] } },
{ "type": "Feature", "properties": { "value": 23.191 }, "geometry": { "type": "Point", "coordinates": [ 129.328751, 35.480595, 115.0 ] } },
{ "type": "Feature", "properties": { "value": 5.6105 }, "geometry": { "type": "Point", "coordinates": [ 129.329849, 35.480595, 115.0 ] } },
{ "type": "Feature", "properties": { "value": 0.5949 }, "geometry": { "type": "Point", "coordinates": [ 129.325455, 35.481506, 115.0 ] } },
{ "type": "Feature", "properties": { "value": 6.4024 }, "geometry": { "type": "Point", "coordinates": [ 129.326553, 35.481503, 115.0 ] } },
{ "type": "Feature", "properties": { "value": 21.199 }, "geometry": { "type": "Point", "coordinates": [ 129.327652, 35.481503, 115.0 ] } },
{ "type": "Feature", "properties": { "value": 21.201 }, "geometry": { "type": "Point", "coordinates": [ 129.328751, 35.481499, 115.0 ] } },
{ "type": "Feature", "properties": { "value": 5.0824 }, "geometry": { "type": "Point", "coordinates": [ 129.329865, 35.481495, 115.0 ] } },
{ "type": "Feature", "properties": { "value": 0.7261 }, "geometry": { "type": "Point", "coordinates": [ 129.325455, 35.482407, 115.0 ] } },
{ "type": "Feature", "properties": { "value": 7.5944 }, "geometry": { "type": "Point", "coordinates": [ 129.326553, 35.482407, 115.0 ] } },
{ "type": "Feature", "properties": { "value": 25.098 }, "geometry": { "type": "Point", "coordinates": [ 129.327652, 35.482403, 115.0 ] } },
{ "type": "Feature", "properties": { "value": 22.073 }, "geometry": { "type": "Point", "coordinates": [ 129.328766, 35.482399, 115.0 ] } },
{ "type": "Feature", "properties": { "value": 4.7066 }, "geometry": { "type": "Point", "coordinates": [ 129.329865, 35.482395, 115.0 ] } },
{ "type": "Feature", "properties": { "value": 1.1471 }, "geometry": { "type": "Point", "coordinates": [ 129.325455, 35.483311, 115.0 ] } },
{ "type": "Feature", "properties": { "value": 10.147 }, "geometry": { "type": "Point", "coordinates": [ 129.326553, 35.483307, 115.0 ] } },
{ "type": "Feature", "properties": { "value": 26.144 }, "geometry": { "type": "Point", "coordinates": [ 129.327667, 35.483303, 115.0 ] } },
{ "type": "Feature", "properties": { "value": 18.835 }, "geometry": { "type": "Point", "coordinates": [ 129.328766, 35.483299, 115.0 ] } },
{ "type": "Feature", "properties": { "value": 3.9654 }, "geometry": { "type": "Point", "coordinates": [ 129.329865, 35.483295, 115.0 ] } },
{ "type": "Feature", "properties": { "value": 0.0067 }, "geometry": { "type": "Point", "coordinates": [ 129.324356, 35.484215, 115.0 ] } },
{ "type": "Feature", "properties": { "value": 1.8705 }, "geometry": { "type": "Point", "coordinates": [ 129.325455, 35.484211, 115.0 ] } },
{ "type": "Feature", "properties": { "value": 11.945 }, "geometry": { "type": "Point", "coordinates": [ 129.326569, 35.484207, 115.0 ] } },
{ "type": "Feature", "properties": { "value": 22.402 }, "geometry": { "type": "Point", "coordinates": [ 129.327667, 35.484203, 115.0 ] } },
{ "type": "Feature", "properties": { "value": 14.057 }, "geometry": { "type": "Point", "coordinates": [ 129.328766, 35.484203, 115.0 ] } },
{ "type": "Feature", "properties": { "value": 3.1613 }, "geometry": { "type": "Point", "coordinates": [ 129.329865, 35.4842, 115.0 ] } },
{ "type": "Feature", "properties": { "value": 0.2399 }, "geometry": { "type": "Point", "coordinates": [ 129.324371, 35.485115, 115.0 ] } },
{ "type": "Feature", "properties": { "value": 3.189 }, "geometry": { "type": "Point", "coordinates": [ 129.32547, 35.485111, 115.0 ] } },
{ "type": "Feature", "properties": { "value": 14.477 }, "geometry": { "type": "Point", "coordinates": [ 129.326569, 35.485107, 115.0 ] } },
{ "type": "Feature", "properties": { "value": 21.592 }, "geometry": { "type": "Point", "coordinates": [ 129.327667, 35.485107, 115.0 ] } },
{ "type": "Feature", "properties": { "value": 12.579 }, "geometry": { "type": "Point", "coordinates": [ 129.328766, 35.485104, 115.0 ] } },
{ "type": "Feature", "properties": { "value": 2.6138 }, "geometry": { "type": "Point", "coordinates": [ 129.32988, 35.4851, 115.0 ] } },
{ "type": "Feature", "properties": { "value": 0.7253 }, "geometry": { "type": "Point", "coordinates": [ 129.324371, 35.486015, 115.0 ] } },
{ "type": "Feature", "properties": { "value": 6.3426 }, "geometry": { "type": "Point", "coordinates": [ 129.32547, 35.486012, 115.0 ] } },
{ "type": "Feature", "properties": { "value": 20.477 }, "geometry": { "type": "Point", "coordinates": [ 129.326569, 35.486012, 115.0 ] } },
{ "type": "Feature", "properties": { "value": 25.221 }, "geometry": { "type": "Point", "coordinates": [ 129.327667, 35.486008, 115.0 ] } },
{ "type": "Feature", "properties": { "value": 12.714 }, "geometry": { "type": "Point", "coordinates": [ 129.328781, 35.486004, 115.0 ] } },
{ "type": "Feature", "properties": { "value": 2.1538 }, "geometry": { "type": "Point", "coordinates": [ 129.32988, 35.486, 115.0 ] } },
{ "type": "Feature", "properties": { "value": 1.8866 }, "geometry": { "type": "Point", "coordinates": [ 129.324371, 35.486916, 115.0 ] } },
{ "type": "Feature", "properties": { "value": 12.23 }, "geometry": { "type": "Point", "coordinates": [ 129.32547, 35.486916, 115.0 ] } },
{ "type": "Feature", "properties": { "value": 29.18 }, "geometry": { "type": "Point", "coordinates": [ 129.326569, 35.486912, 115.0 ] } },
{ "type": "Feature", "properties": { "value": 28.574 }, "geometry": { "type": "Point", "coordinates": [ 129.327682, 35.486908, 115.0 ] } },
{ "type": "Feature", "properties": { "value": 11.783 }, "geometry": { "type": "Point", "coordinates": [ 129.328781, 35.486904, 115.0 ] } },
{ "type": "Feature", "properties": { "value": 1.7135 }, "geometry": { "type": "Point", "coordinates": [ 129.32988, 35.486904, 115.0 ] } },
{ "type": "Feature", "properties": { "value": 0.0 }, "geometry": { "type": "Point", "coordinates": [ 129.316666, 35.487839, 115.0 ] } },
{ "type": "Feature", "properties": { "value": 0.0 }, "geometry": { "type": "Point", "coordinates": [ 129.317764, 35.487835, 115.0 ] } },
{ "type": "Feature", "properties": { "value": 0.0 }, "geometry": { "type": "Point", "coordinates": [ 129.318863, 35.487835, 115.0 ] } },
{ "type": "Feature", "properties": { "value": 0.114 }, "geometry": { "type": "Point", "coordinates": [ 129.323273, 35.48782, 115.0 ] } },
{ "type": "Feature", "properties": { "value": 3.6461 }, "geometry": { "type": "Point", "coordinates": [ 129.324371, 35.48782, 115.0 ] } },
{ "type": "Feature", "properties": { "value": 18.268 }, "geometry": { "type": "Point", "coordinates": [ 129.32547, 35.487816, 115.0 ] } },
{ "type": "Feature", "properties": { "value": 35.347 }, "geometry": { "type": "Point", "coordinates": [ 129.326584, 35.487812, 115.0 ] } },
{ "type": "Feature", "properties": { "value": 29.29 }, "geometry": { "type": "Point", "coordinates": [ 129.327682, 35.487808, 115.0 ] } },
{ "type": "Feature", "properties": { "value": 10.435 }, "geometry": { "type": "Point", "coordinates": [ 129.328781, 35.487808, 115.0 ] } },
{ "type": "Feature", "properties": { "value": 1.3796 }, "geometry": { "type": "Point", "coordinates": [ 129.32988, 35.487804, 115.0 ] } },
{ "type": "Feature", "properties": { "value": 0.0 }, "geometry": { "type": "Point", "coordinates": [ 129.315567, 35.488743, 115.0 ] } },
{ "type": "Feature", "properties": { "value": 0.0075 }, "geometry": { "type": "Point", "coordinates": [ 129.316666, 35.488739, 115.0 ] } },
{ "type": "Feature", "properties": { "value": 0.0072 }, "geometry": { "type": "Point", "coordinates": [ 129.317764, 35.488739, 115.0 ] } },
{ "type": "Feature", "properties": { "value": 0.0 }, "geometry": { "type": "Point", "coordinates": [ 129.318863, 35.488735, 115.0 ] } },
{ "type": "Feature", "properties": { "value": 0.4223 }, "geometry": { "type": "Point", "coordinates": [ 129.323273, 35.488724, 115.0 ] } },
{ "type": "Feature", "properties": { "value": 4.9595 }, "geometry": { "type": "Point", "coordinates": [ 129.324371, 35.48872, 115.0 ] } },
{ "type": "Feature", "properties": { "value": 20.312 }, "geometry": { "type": "Point", "coordinates": [ 129.325485, 35.488716, 115.0 ] } },
{ "type": "Feature", "properties": { "value": 34.989 }, "geometry": { "type": "Point", "coordinates": [ 129.326584, 35.488712, 115.0 ] } },
{ "type": "Feature", "properties": { "value": 26.809 }, "geometry": { "type": "Point", "coordinates": [ 129.327682, 35.488712, 115.0 ] } },
{ "type": "Feature", "properties": { "value": 9.0536 }, "geometry": { "type": "Point", "coordinates": [ 129.328781, 35.488708, 115.0 ] } },
{ "type": "Feature", "properties": { "value": 1.1309 }, "geometry": { "type": "Point", "coordinates": [ 129.329895, 35.488705, 115.0 ] } },
{ "type": "Feature", "properties": { "value": 0.0034 }, "geometry": { "type": "Point", "coordinates": [ 129.315567, 35.489643, 115.0 ] } },
{ "type": "Feature", "properties": { "value": 0.0973 }, "geometry": { "type": "Point", "coordinates": [ 129.316666, 35.489643, 115.0 ] } },
{ "type": "Feature", "properties": { "value": 0.0552 }, "geometry": { "type": "Point", "coordinates": [ 129.317764, 35.489639, 115.0 ] } },
{ "type": "Feature", "properties": { "value": 0.0002 }, "geometry": { "type": "Point", "coordinates": [ 129.318878, 35.489635, 115.0 ] } },
{ "type": "Feature", "properties": { "value": 0.6739 }, "geometry": { "type": "Point", "coordinates": [ 129.323273, 35.489624, 115.0 ] } },
{ "type": "Feature", "properties": { "value": 5.1475 }, "geometry": { "type": "Point", "coordinates": [ 129.324387, 35.48962, 115.0 ] } },
{ "type": "Feature", "properties": { "value": 17.705 }, "geometry": { "type": "Point", "coordinates": [ 129.325485, 35.489616, 115.0 ] } },
{ "type": "Feature", "properties": { "value": 29.184 }, "geometry": { "type": "Point", "coordinates": [ 129.326584, 35.489616, 115.0 ] } },
{ "type": "Feature", "properties": { "value": 22.012 }, "geometry": { "type": "Point", "coordinates": [ 129.327682, 35.489613, 115.0 ] } },
{ "type": "Feature", "properties": { "value": 7.4434 }, "geometry": { "type": "Point", "coordinates": [ 129.328796, 35.489609, 115.0 ] } },
{ "type": "Feature", "properties": { "value": 0.8964 }, "geometry": { "type": "Point", "coordinates": [ 129.329895, 35.489605, 115.0 ] } },
{ "type": "Feature", "properties": { "value": 0.0 }, "geometry": { "type": "Point", "coordinates": [ 129.314468, 35.490547, 115.0 ] } },
{ "type": "Feature", "properties": { "value": 0.02 }, "geometry": { "type": "Point", "coordinates": [ 129.315567, 35.490547, 115.0 ] } },
{ "type": "Feature", "properties": { "value": 0.1374 }, "geometry": { "type": "Point", "coordinates": [ 129.316666, 35.490543, 115.0 ] } },
{ "type": "Feature", "properties": { "value": 0.0443 }, "geometry": { "type": "Point", "coordinates": [ 129.31778, 35.49054, 115.0 ] } },
{ "type": "Feature", "properties": { "value": 0.0002 }, "geometry": { "type": "Point", "coordinates": [ 129.318878, 35.490536, 115.0 ] } },
{ "type": "Feature", "properties": { "value": 1.2358 }, "geometry": { "type": "Point", "coordinates": [ 129.323288, 35.490524, 115.0 ] } },
{ "type": "Feature", "properties": { "value": 6.2493 }, "geometry": { "type": "Point", "coordinates": [ 129.324387, 35.490524, 115.0 ] } },
{ "type": "Feature", "properties": { "value": 16.254 }, "geometry": { "type": "Point", "coordinates": [ 129.325485, 35.49052, 115.0 ] } },
{ "type": "Feature", "properties": { "value": 23.494 }, "geometry": { "type": "Point", "coordinates": [ 129.326584, 35.490517, 115.0 ] } },
{ "type": "Feature", "properties": { "value": 17.219 }, "geometry": { "type": "Point", "coordinates": [ 129.327698, 35.490513, 115.0 ] } },
{ "type": "Feature", "properties": { "value": 5.8264 }, "geometry": { "type": "Point", "coordinates": [ 129.328796, 35.490509, 115.0 ] } },
{ "type": "Feature", "properties": { "value": 0.6725 }, "geometry": { "type": "Point", "coordinates": [ 129.329895, 35.490509, 115.0 ] } },
{ "type": "Feature", "properties": { "value": 0.0003 }, "geometry": { "type": "Point", "coordinates": [ 129.31337, 35.491451, 115.0 ] } },
{ "type": "Feature", "properties": { "value": 0.004 }, "geometry": { "type": "Point", "coordinates": [ 129.314468, 35.491451, 115.0 ] } },
{ "type": "Feature", "properties": { "value": 0.0354 }, "geometry": { "type": "Point", "coordinates": [ 129.315567, 35.491447, 115.0 ] } },
{ "type": "Feature", "properties": { "value": 0.0845 }, "geometry": { "type": "Point", "coordinates": [ 129.316681, 35.491444, 115.0 ] } },
{ "type": "Feature", "properties": { "value": 0.0097 }, "geometry": { "type": "Point", "coordinates": [ 129.31778, 35.49144, 115.0 ] } },
{ "type": "Feature", "properties": { "value": 0.2402 }, "geometry": { "type": "Point", "coordinates": [ 129.322189, 35.491428, 115.0 ] } },
{ "type": "Feature", "properties": { "value": 2.2912 }, "geometry": { "type": "Point", "coordinates": [ 129.323288, 35.491428, 115.0 ] } },
{ "type": "Feature", "properties": { "value": 8.9019 }, "geometry": { "type": "Point", "coordinates": [ 129.324387, 35.491425, 115.0 ] } },
{ "type": "Feature", "properties": { "value": 19.496 }, "geometry": { "type": "Point", "coordinates": [ 129.325485, 35.491421, 115.0 ] } },
{ "type": "Feature", "properties": { "value": 21.503 }, "geometry": { "type": "Point", "coordinates": [ 129.326599, 35.491417, 115.0 ] } },
{ "type": "Feature", "properties": { "value": 13.523 }, "geometry": { "type": "Point", "coordinates": [ 129.327698, 35.491413, 115.0 ] } },
{ "type": "Feature", "properties": { "value": 4.319 }, "geometry": { "type": "Point", "coordinates": [ 129.328796, 35.491413, 115.0 ] } },
{ "type": "Feature", "properties": { "value": 0.396 }, "geometry": { "type": "Point", "coordinates": [ 129.329895, 35.491409, 115.0 ] } },
{ "type": "Feature", "properties": { "value": 0.0259 }, "geometry": { "type": "Point", "coordinates": [ 129.31337, 35.492355, 115.0 ] } },
{ "type": "Feature", "properties": { "value": 0.0721 }, "geometry": { "type": "Point", "coordinates": [ 129.314468, 35.492352, 115.0 ] } },
{ "type": "Feature", "properties": { "value": 0.0439 }, "geometry": { "type": "Point", "coordinates": [ 129.315582, 35.492348, 115.0 ] } },
{ "type": "Feature", "properties": { "value": 0.015 }, "geometry": { "type": "Point", "coordinates": [ 129.316681, 35.492344, 115.0 ] } },
{ "type": "Feature", "properties": { "value": 0.0006 }, "geometry": { "type": "Point", "coordinates": [ 129.31778, 35.492344, 115.0 ] } },
{ "type": "Feature", "properties": { "value": 0.7323 }, "geometry": { "type": "Point", "coordinates": [ 129.322189, 35.492332, 115.0 ] } },
{ "type": "Feature", "properties": { "value": 4.0936 }, "geometry": { "type": "Point", "coordinates": [ 129.323288, 35.492329, 115.0 ] } },
{ "type": "Feature", "properties": { "value": 14.095 }, "geometry": { "type": "Point", "coordinates": [ 129.324387, 35.492325, 115.0 ] } },
{ "type": "Feature", "properties": { "value": 26.501 }, "geometry": { "type": "Point", "coordinates": [ 129.3255, 35.492321, 115.0 ] } },
{ "type": "Feature", "properties": { "value": 22.482 }, "geometry": { "type": "Point", "coordinates": [ 129.326599, 35.492317, 115.0 ] } },
{ "type": "Feature", "properties": { "value": 10.685 }, "geometry": { "type": "Point", "coordinates": [ 129.327698, 35.492317, 115.0 ] } },
{ "type": "Feature", "properties": { "value": 2.852 }, "geometry": { "type": "Point", "coordinates": [ 129.328796, 35.492313, 115.0 ] } },
{ "type": "Feature", "properties": { "value": 0.0635 }, "geometry": { "type": "Point", "coordinates": [ 129.312271, 35.493259, 115.0 ] } },
{ "type": "Feature", "properties": { "value": 0.4088 }, "geometry": { "type": "Point", "coordinates": [ 129.31337, 35.493256, 115.0 ] } },
{ "type": "Feature", "properties": { "value": 0.5589 }, "geometry": { "type": "Point", "coordinates": [ 129.314484, 35.493252, 115.0 ] } },
{ "type": "Feature", "properties": { "value": 0.1351 }, "geometry": { "type": "Point", "coordinates": [ 129.315582, 35.493248, 115.0 ] } },
{ "type": "Feature", "properties": { "value": 0.0051 }, "geometry": { "type": "Point", "coordinates": [ 129.316681, 35.493248, 115.0 ] } },
{ "type": "Feature", "properties": { "value": 0.0465 }, "geometry": { "type": "Point", "coordinates": [ 129.321091, 35.493237, 115.0 ] } },
{ "type": "Feature", "properties": { "value": 1.6597 }, "geometry": { "type": "Point", "coordinates": [ 129.322189, 35.493233, 115.0 ] } },
{ "type": "Feature", "properties": { "value": 6.7879 }, "geometry": { "type": "Point", "coordinates": [ 129.323288, 35.493229, 115.0 ] } },
{ "type": "Feature", "properties": { "value": 18.188 }, "geometry": { "type": "Point", "coordinates": [ 129.324402, 35.493225, 115.0 ] } },
{ "type": "Feature", "properties": { "value": 29.431 }, "geometry": { "type": "Point", "coordinates": [ 129.3255, 35.493225, 115.0 ] } },
{ "type": "Feature", "properties": { "value": 21.12 }, "geometry": { "type": "Point", "coordinates": [ 129.326599, 35.493221, 115.0 ] } },
{ "type": "Feature", "properties": { "value": 7.7654 }, "geometry": { "type": "Point", "coordinates": [ 129.327698, 35.493217, 115.0 ] } },
{ "type": "Feature", "properties": { "value": 1.6232 }, "geometry": { "type": "Point", "coordinates": [ 129.328812, 35.493214, 115.0 ] } },
{ "type": "Feature", "properties": { "value": 0.109 }, "geometry": { "type": "Point", "coordinates": [ 129.311172, 35.494164, 115.0 ] } },
{ "type": "Feature", "properties": { "value": 0.9477 }, "geometry": { "type": "Point", "coordinates": [ 129.312271, 35.49416, 115.0 ] } },
{ "type": "Feature", "properties": { "value": 2.1664 }, "geometry": { "type": "Point", "coordinates": [ 129.313385, 35.494156, 115.0 ] } },
{ "type": "Feature", "properties": { "value": 1.4082 }, "geometry": { "type": "Point", "coordinates": [ 129.314484, 35.494152, 115.0 ] } },
{ "type": "Feature", "properties": { "value": 0.2179 }, "geometry": { "type": "Point", "coordinates": [ 129.315582, 35.494152, 115.0 ] } },
{ "type": "Feature", "properties": { "value": 0.0032 }, "geometry": { "type": "Point", "coordinates": [ 129.316681, 35.494148, 115.0 ] } },
{ "type": "Feature", "properties": { "value": 0.604 }, "geometry": { "type": "Point", "coordinates": [ 129.321091, 35.494137, 115.0 ] } },
{ "type": "Feature", "properties": { "value": 3.333 }, "geometry": { "type": "Point", "coordinates": [ 129.322189, 35.494133, 115.0 ] } },
{ "type": "Feature", "properties": { "value": 10.353 }, "geometry": { "type": "Point", "coordinates": [ 129.323303, 35.494129, 115.0 ] } },
{ "type": "Feature", "properties": { "value": 20.39 }, "geometry": { "type": "Point", "coordinates": [ 129.324402, 35.494129, 115.0 ] } },
{ "type": "Feature", "properties": { "value": 26.089 }, "geometry": { "type": "Point", "coordinates": [ 129.3255, 35.494125, 115.0 ] } },
{ "type": "Feature", "properties": { "value": 16.236 }, "geometry": { "type": "Point", "coordinates": [ 129.326599, 35.494122, 115.0 ] } },
{ "type": "Feature", "properties": { "value": 5.1446 }, "geometry": { "type": "Point", "coordinates": [ 129.327713, 35.494118, 115.0 ] } },
{ "type": "Feature", "properties": { "value": 0.8499 }, "geometry": { "type": "Point", "coordinates": [ 129.328812, 35.494114, 115.0 ] } },
{ "type": "Feature", "properties": { "value": 0.0268 }, "geometry": { "type": "Point", "coordinates": [ 129.310074, 35.495068, 115.0 ] } },
{ "type": "Feature", "properties": { "value": 1.8904 }, "geometry": { "type": "Point", "coordinates": [ 129.311172, 35.495064, 115.0 ] } },
{ "type": "Feature", "properties": { "value": 6.8154 }, "geometry": { "type": "Point", "coordinates": [ 129.312286, 35.49506, 115.0 ] } },
{ "type": "Feature", "properties": { "value": 6.7987 }, "geometry": { "type": "Point", "coordinates": [ 129.313385, 35.495056, 115.0 ] } },
{ "type": "Feature", "properties": { "value": 1.8579 }, "geometry": { "type": "Point", "coordinates": [ 129.314484, 35.495056, 115.0 ] } },
{ "type": "Feature", "properties": { "value": 0.1118 }, "geometry": { "type": "Point", "coordinates": [ 129.315582, 35.495052, 115.0 ] } },
{ "type": "Feature", "properties": { "value": 0.161 }, "geometry": { "type": "Point", "coordinates": [ 129.319992, 35.495041, 115.0 ] } },
{ "type": "Feature", "properties": { "value": 1.5782 }, "geometry": { "type": "Point", "coordinates": [ 129.321091, 35.495037, 115.0 ] } },
{ "type": "Feature", "properties": { "value": 6.0521 }, "geometry": { "type": "Point", "coordinates": [ 129.322205, 35.495033, 115.0 ] } },
{ "type": "Feature", "properties": { "value": 14.444 }, "geometry": { "type": "Point", "coordinates": [ 129.323303, 35.495033, 115.0 ] } },
{ "type": "Feature", "properties": { "value": 23.122 }, "geometry": { "type": "Point", "coordinates": [ 129.324402, 35.495029, 115.0 ] } },
{ "type": "Feature", "properties": { "value": 22.676 }, "geometry": { "type": "Point", "coordinates": [ 129.3255, 35.495026, 115.0 ] } },
{ "type": "Feature", "properties": { "value": 12.067 }, "geometry": { "type": "Point", "coordinates": [ 129.326614, 35.495022, 115.0 ] } },
{ "type": "Feature", "properties": { "value": 3.4028 }, "geometry": { "type": "Point", "coordinates": [ 129.327713, 35.495022, 115.0 ] } },
{ "type": "Feature", "properties": { "value": 0.4197 }, "geometry": { "type": "Point", "coordinates": [ 129.328812, 35.495018, 115.0 ] } },
{ "type": "Feature", "properties": { "value": 1.0057 }, "geometry": { "type": "Point", "coordinates": [ 129.310074, 35.495968, 115.0 ] } },
{ "type": "Feature", "properties": { "value": 9.5087 }, "geometry": { "type": "Point", "coordinates": [ 129.311188, 35.495964, 115.0 ] } },
{ "type": "Feature", "properties": { "value": 22.038 }, "geometry": { "type": "Point", "coordinates": [ 129.312286, 35.495964, 115.0 ] } },
{ "type": "Feature", "properties": { "value": 13.329 }, "geometry": { "type": "Point", "coordinates": [ 129.313385, 35.49596, 115.0 ] } },
{ "type": "Feature", "properties": { "value": 1.9006 }, "geometry": { "type": "Point", "coordinates": [ 129.314484, 35.495956, 115.0 ] } },
{ "type": "Feature", "properties": { "value": 0.0362 }, "geometry": { "type": "Point", "coordinates": [ 129.315598, 35.495953, 115.0 ] } },
{ "type": "Feature", "properties": { "value": 0.7635 }, "geometry": { "type": "Point", "coordinates": [ 129.319992, 35.495941, 115.0 ] } },
{ "type": "Feature", "properties": { "value": 3.4255 }, "geometry": { "type": "Point", "coordinates": [ 129.321106, 35.495937, 115.0 ] } },
{ "type": "Feature", "properties": { "value": 9.8545 }, "geometry": { "type": "Point", "coordinates": [ 129.322205, 35.495937, 115.0 ] } },
{ "type": "Feature", "properties": { "value": 20.386 }, "geometry": { "type": "Point", "coordinates": [ 129.323303, 35.495934, 115.0 ] } },
{ "type": "Feature", "properties": { "value": 25.465 }, "geometry": { "type": "Point", "coordinates": [ 129.324402, 35.49593, 115.0 ] } },
{ "type": "Feature", "properties": { "value": 19.578 }, "geometry": { "type": "Point", "coordinates": [ 129.325516, 35.495926, 115.0 ] } },
{ "type": "Feature", "properties": { "value": 8.9174 }, "geometry": { "type": "Point", "coordinates": [ 129.326614, 35.495926, 115.0 ] } },
{ "type": "Feature", "properties": { "value": 2.1486 }, "geometry": { "type": "Point", "coordinates": [ 129.327713, 35.495922, 115.0 ] } },
{ "type": "Feature", "properties": { "value": 0.0423 }, "geometry": { "type": "Point", "coordinates": [ 129.328812, 35.495918, 115.0 ] } },
{ "type": "Feature", "properties": { "value": 0.2654 }, "geometry": { "type": "Point", "coordinates": [ 129.308975, 35.496872, 115.0 ] } },
{ "type": "Feature", "properties": { "value": 4.8697 }, "geometry": { "type": "Point", "coordinates": [ 129.310089, 35.496868, 115.0 ] } },
{ "type": "Feature", "properties": { "value": 24.251 }, "geometry": { "type": "Point", "coordinates": [ 129.311188, 35.496868, 115.0 ] } },
{ "type": "Feature", "properties": { "value": 35.083 }, "geometry": { "type": "Point", "coordinates": [ 129.312286, 35.496864, 115.0 ] } },
{ "type": "Feature", "properties": { "value": 13.959 }, "geometry": { "type": "Point", "coordinates": [ 129.313385, 35.496861, 115.0 ] } },
{ "type": "Feature", "properties": { "value": 1.2847 }, "geometry": { "type": "Point", "coordinates": [ 129.314499, 35.496857, 115.0 ] } },
{ "type": "Feature", "properties": { "value": 0.28 }, "geometry": { "type": "Point", "coordinates": [ 129.318893, 35.496845, 115.0 ] } },
{ "type": "Feature", "properties": { "value": 1.7141 }, "geometry": { "type": "Point", "coordinates": [ 129.320007, 35.496841, 115.0 ] } },
{ "type": "Feature", "properties": { "value": 6.07 }, "geometry": { "type": "Point", "coordinates": [ 129.321106, 35.496841, 115.0 ] } },
{ "type": "Feature", "properties": { "value": 15.26 }, "geometry": { "type": "Point", "coordinates": [ 129.322205, 35.496838, 115.0 ] } },
{ "type": "Feature", "properties": { "value": 25.702 }, "geometry": { "type": "Point", "coordinates": [ 129.323303, 35.496834, 115.0 ] } },
{ "type": "Feature", "properties": { "value": 22.778 }, "geometry": { "type": "Point", "coordinates": [ 129.324417, 35.49683, 115.0 ] } },
{ "type": "Feature", "properties": { "value": 13.784 }, "geometry": { "type": "Point", "coordinates": [ 129.325516, 35.49683, 115.0 ] } },
{ "type": "Feature", "properties": { "value": 5.6283 }, "geometry": { "type": "Point", "coordinates": [ 129.326614, 35.496826, 115.0 ] } },
{ "type": "Feature", "properties": { "value": 1.1926 }, "geometry": { "type": "Point", "coordinates": [ 129.327713, 35.496822, 115.0 ] } },
{ "type": "Feature", "properties": { "value": 1.1581 }, "geometry": { "type": "Point", "coordinates": [ 129.30899, 35.497772, 115.0 ] } },
{ "type": "Feature", "properties": { "value": 11.952 }, "geometry": { "type": "Point", "coordinates": [ 129.310089, 35.497772, 115.0 ] } },
{ "type": "Feature", "properties": { "value": 36.489 }, "geometry": { "type": "Point", "coordinates": [ 129.311188, 35.497768, 115.0 ] } },
{ "type": "Feature", "properties": { "value": 32.914 }, "geometry": { "type": "Point", "coordinates": [ 129.312286, 35.497765, 115.0 ] } },
{ "type": "Feature", "properties": { "value": 8.4371 }, "geometry": { "type": "Point", "coordinates": [ 129.3134, 35.497761, 115.0 ] } },
{ "type": "Feature", "properties": { "value": 0.5048 }, "geometry": { "type": "Point", "coordinates": [ 129.314499, 35.497761, 115.0 ] } },
{ "type": "Feature", "properties": { "value": 0.0093 }, "geometry": { "type": "Point", "coordinates": [ 129.317795, 35.497749, 115.0 ] } },
{ "type": "Feature", "properties": { "value": 0.5809 }, "geometry": { "type": "Point", "coordinates": [ 129.318909, 35.497749, 115.0 ] } },
{ "type": "Feature", "properties": { "value": 2.7847 }, "geometry": { "type": "Point", "coordinates": [ 129.320007, 35.497746, 115.0 ] } },
{ "type": "Feature", "properties": { "value": 8.6237 }, "geometry": { "type": "Point", "coordinates": [ 129.321106, 35.497742, 115.0 ] } },
{ "type": "Feature", "properties": { "value": 20.552 }, "geometry": { "type": "Point", "coordinates": [ 129.322205, 35.497738, 115.0 ] } },
{ "type": "Feature", "properties": { "value": 24.57 }, "geometry": { "type": "Point", "coordinates": [ 129.323318, 35.497734, 115.0 ] } },
{ "type": "Feature", "properties": { "value": 16.359 }, "geometry": { "type": "Point", "coordinates": [ 129.324417, 35.497734, 115.0 ] } },
{ "type": "Feature", "properties": { "value": 8.1612 }, "geometry": { "type": "Point", "coordinates": [ 129.325516, 35.49773, 115.0 ] } },
{ "type": "Feature", "properties": { "value": 3.0068 }, "geometry": { "type": "Point", "coordinates": [ 129.326614, 35.497726, 115.0 ] } },
{ "type": "Feature", "properties": { "value": 0.5226 }, "geometry": { "type": "Point", "coordinates": [ 129.327728, 35.497723, 115.0 ] } },
{ "type": "Feature", "properties": { "value": 1.549 }, "geometry": { "type": "Point", "coordinates": [ 129.30899, 35.498676, 115.0 ] } },
{ "type": "Feature", "properties": { "value": 12.461 }, "geometry": { "type": "Point", "coordinates": [ 129.310089, 35.498672, 115.0 ] } },
{ "type": "Feature", "properties": { "value": 27.817 }, "geometry": { "type": "Point", "coordinates": [ 129.311188, 35.498669, 115.0 ] } },
{ "type": "Feature", "properties": { "value": 17.676 }, "geometry": { "type": "Point", "coordinates": [ 129.312302, 35.498665, 115.0 ] } },
{ "type": "Feature", "properties": { "value": 3.0666 }, "geometry": { "type": "Point", "coordinates": [ 129.3134, 35.498665, 115.0 ] } },
{ "type": "Feature", "properties": { "value": 0.0705 }, "geometry": { "type": "Point", "coordinates": [ 129.31781, 35.498653, 115.0 ] } },
{ "type": "Feature", "properties": { "value": 0.8925 }, "geometry": { "type": "Point", "coordinates": [ 129.318909, 35.49865, 115.0 ] } },
{ "type": "Feature", "properties": { "value": 3.1755 }, "geometry": { "type": "Point", "coordinates": [ 129.320007, 35.498646, 115.0 ] } },
{ "type": "Feature", "properties": { "value": 10.82 }, "geometry": { "type": "Point", "coordinates": [ 129.321106, 35.498642, 115.0 ] } },
{ "type": "Feature", "properties": { "value": 20.339 }, "geometry": { "type": "Point", "coordinates": [ 129.32222, 35.498638, 115.0 ] } },
{ "type": "Feature", "properties": { "value": 18.408 }, "geometry": { "type": "Point", "coordinates": [ 129.323318, 35.498638, 115.0 ] } },
{ "type": "Feature", "properties": { "value": 10.809 }, "geometry": { "type": "Point", "coordinates": [ 129.324417, 35.498634, 115.0 ] } },
{ "type": "Feature", "properties": { "value": 4.7447 }, "geometry": { "type": "Point", "coordinates": [ 129.325516, 35.498631, 115.0 ] } },
{ "type": "Feature", "properties": { "value": 1.482 }, "geometry": { "type": "Point", "coordinates": [ 129.32663, 35.498627, 115.0 ] } },
{ "type": "Feature", "properties": { "value": 0.6242 }, "geometry": { "type": "Point", "coordinates": [ 129.30899, 35.499577, 115.0 ] } },
{ "type": "Feature", "properties": { "value": 4.5271 }, "geometry": { "type": "Point", "coordinates": [ 129.310089, 35.499573, 115.0 ] } },
{ "type": "Feature", "properties": { "value": 8.4649 }, "geometry": { "type": "Point", "coordinates": [ 129.311203, 35.499569, 115.0 ] } },
{ "type": "Feature", "properties": { "value": 4.2814 }, "geometry": { "type": "Point", "coordinates": [ 129.312302, 35.499569, 115.0 ] } },
{ "type": "Feature", "properties": { "value": 0.5475 }, "geometry": { "type": "Point", "coordinates": [ 129.3134, 35.499565, 115.0 ] } },
{ "type": "Feature", "properties": { "value": 0.0836 }, "geometry": { "type": "Point", "coordinates": [ 129.31781, 35.499554, 115.0 ] } },
{ "type": "Feature", "properties": { "value": 0.8662 }, "geometry": { "type": "Point", "coordinates": [ 129.318909, 35.49955, 115.0 ] } },
{ "type": "Feature", "properties": { "value": 2.9648 }, "geometry": { "type": "Point", "coordinates": [ 129.320007, 35.499546, 115.0 ] } },
{ "type": "Feature", "properties": { "value": 9.105 }, "geometry": { "type": "Point", "coordinates": [ 129.321121, 35.499546, 115.0 ] } },
{ "type": "Feature", "properties": { "value": 13.529 }, "geometry": { "type": "Point", "coordinates": [ 129.32222, 35.499542, 115.0 ] } },
{ "type": "Feature", "properties": { "value": 10.615 }, "geometry": { "type": "Point", "coordinates": [ 129.323318, 35.499538, 115.0 ] } },
{ "type": "Feature", "properties": { "value": 6.0623 }, "geometry": { "type": "Point", "coordinates": [ 129.324417, 35.499535, 115.0 ] } },
{ "type": "Feature", "properties": { "value": 2.4539 }, "geometry": { "type": "Point", "coordinates": [ 129.325531, 35.499531, 115.0 ] } },
{ "type": "Feature", "properties": { "value": 0.6116 }, "geometry": { "type": "Point", "coordinates": [ 129.32663, 35.499531, 115.0 ] } },
{ "type": "Feature", "properties": { "value": 0.0646 }, "geometry": { "type": "Point", "coordinates": [ 129.30899, 35.500477, 115.0 ] } },
{ "type": "Feature", "properties": { "value": 0.4782 }, "geometry": { "type": "Point", "coordinates": [ 129.310104, 35.500473, 115.0 ] } },
{ "type": "Feature", "properties": { "value": 0.8002 }, "geometry": { "type": "Point", "coordinates": [ 129.311203, 35.500473, 115.0 ] } },
{ "type": "Feature", "properties": { "value": 0.3388 }, "geometry": { "type": "Point", "coordinates": [ 129.312302, 35.500469, 115.0 ] } },
{ "type": "Feature", "properties": { "value": 0.0447 }, "geometry": { "type": "Point", "coordinates": [ 129.31781, 35.500454, 115.0 ] } },
{ "type": "Feature", "properties": { "value": 0.4946 }, "geometry": { "type": "Point", "coordinates": [ 129.318909, 35.50045, 115.0 ] } },
{ "type": "Feature", "properties": { "value": 1.8819 }, "geometry": { "type": "Point", "coordinates": [ 129.320023, 35.50045, 115.0 ] } },
{ "type": "Feature", "properties": { "value": 4.7899 }, "geometry": { "type": "Point", "coordinates": [ 129.321121, 35.500446, 115.0 ] } },
{ "type": "Feature", "properties": { "value": 5.8765 }, "geometry": { "type": "Point", "coordinates": [ 129.32222, 35.500443, 115.0 ] } },
{ "type": "Feature", "properties": { "value": 4.3201 }, "geometry": { "type": "Point", "coordinates": [ 129.323318, 35.500439, 115.0 ] } },
{ "type": "Feature", "properties": { "value": 2.4385 }, "geometry": { "type": "Point", "coordinates": [ 129.324432, 35.500435, 115.0 ] } },
{ "type": "Feature", "properties": { "value": 0.9408 }, "geometry": { "type": "Point", "coordinates": [ 129.325531, 35.500435, 115.0 ] } },
{ "type": "Feature", "properties": { "value": 0.0655 }, "geometry": { "type": "Point", "coordinates": [ 129.32663, 35.500431, 115.0 ] } },
{ "type": "Feature", "properties": { "value": 0.149 }, "geometry": { "type": "Point", "coordinates": [ 129.318924, 35.501354, 115.0 ] } },
{ "type": "Feature", "properties": { "value": 0.6903 }, "geometry": { "type": "Point", "coordinates": [ 129.320023, 35.50135, 115.0 ] } },
{ "type": "Feature", "properties": { "value": 1.4909 }, "geometry": { "type": "Point", "coordinates": [ 129.321121, 35.501347, 115.0 ] } },
{ "type": "Feature", "properties": { "value": 1.6506 }, "geometry": { "type": "Point", "coordinates": [ 129.32222, 35.501343, 115.0 ] } },
{ "type": "Feature", "properties": { "value": 1.2239 }, "geometry": { "type": "Point", "coordinates": [ 129.323334, 35.501339, 115.0 ] } },
{ "type": "Feature", "properties": { "value": 0.681 }, "geometry": { "type": "Point", "coordinates": [ 129.324432, 35.501339, 115.0 ] } },
{ "type": "Feature", "properties": { "value": 0.2156 }, "geometry": { "type": "Point", "coordinates": [ 129.325531, 35.501335, 115.0 ] } }
]
}
