{
"type": "FeatureCollection",
"features": [
{ "type": "Feature", "properties": { "value": 3.6619 }, "geometry": { "type": "Point", "coordinates": [ 129.32756, 35.458969, 30.0 ] } },
{ "type": "Feature", "properties": { "value": 99.073 }, "geometry": { "type": "Point", "coordinates": [ 129.32756, 35.459869, 30.0 ] } },
{ "type": "Feature", "properties": { "value": 175.96 }, "geometry": { "type": "Point", "coordinates": [ 129.327576, 35.46077, 30.0 ] } },
{ "type": "Feature", "properties": { "value": 162.99 }, "geometry": { "type": "Point", "coordinates": [ 129.327576, 35.461674, 30.0 ] } },
{ "type": "Feature", "properties": { "value": 150.45 }, "geometry": { "type": "Point", "coordinates": [ 129.327576, 35.462574, 30.0 ] } },
{ "type": "Feature", "properties": { "value": 122.01 }, "geometry": { "type": "Point", "coordinates": [ 129.327576, 35.463474, 30.0 ] } },
{ "type": "Feature", "properties": { "value": 2.5333 }, "geometry": { "type": "Point", "coordinates": [ 129.32869, 35.46347, 30.0 ] } },
{ "type": "Feature", "properties": { "value": 95.837 }, "geometry": { "type": "Point", "coordinates": [ 129.327591, 35.464375, 30.0 ] } },
{ "type": "Feature", "properties": { "value": 10.257 }, "geometry": { "type": "Point", "coordinates": [ 129.32869, 35.464375, 30.0 ] } },
{ "type": "Feature", "properties": { "value": 67.104 }, "geometry": { "type": "Point", "coordinates": [ 129.327591, 35.465279, 30.0 ] } },
{ "type": "Feature", "properties": { "value": 18.311 }, "geometry": { "type": "Point", "coordinates": [ 129.32869, 35.465275, 30.0 ] } },
{ "type": "Feature", "properties": { "value": 46.02 }, "geometry": { "type": "Point", "coordinates": [ 129.327591, 35.466179, 30.0 ] } },
{ "type": "Feature", "properties": { "value": 22.381 }, "geometry": { "type": "Point", "coordinates": [ 129.32869, 35.466175, 30.0 ] } },
{ "type": "Feature", "properties": { "value": 36.844 }, "geometry": { "type": "Point", "coordinates": [ 129.327591, 35.467079, 30.0 ] } },
{ "type": "Feature", "properties": { "value": 26.683 }, "geometry": { "type": "Point", "coordinates": [ 129.328705, 35.467075, 30.0 ] } },
{ "type": "Feature", "properties": { "value": 31.958 }, "geometry": { "type": "Point", "coordinates": [ 129.327606, 35.467983, 30.0 ] } },
{ "type": "Feature", "properties": { "value": 29.918 }, "geometry": { "type": "Point", "coordinates": [ 129.328705, 35.467979, 30.0 ] } },
{ "type": "Feature", "properties": { "value": 31.002 }, "geometry": { "type": "Point", "coordinates": [ 129.327606, 35.468884, 30.0 ] } },
{ "type": "Feature", "properties": { "value": 33.34 }, "geometry": { "type": "Point", "coordinates": [ 129.328705, 35.46888, 30.0 ] } },
{ "type": "Feature", "properties": { "value": 33.589 }, "geometry": { "type": "Point", "coordinates": [ 129.327606, 35.469784, 30.0 ] } },
{ "type": "Feature", "properties": { "value": 38.787 }, "geometry": { "type": "Point", "coordinates": [ 129.328705, 35.46978, 30.0 ] } },
{ "type": "Feature", "properties": { "value": 0.7715 }, "geometry": { "type": "Point", "coordinates": [ 129.329819, 35.469776, 30.0 ] } },
{ "type": "Feature", "properties": { "value": 0.4975 }, "geometry": { "type": "Point", "coordinates": [ 129.326508, 35.470688, 30.0 ] } },
{ "type": "Feature", "properties": { "value": 37.069 }, "geometry": { "type": "Point", "coordinates": [ 129.327606, 35.470684, 30.0 ] } },
{ "type": "Feature", "properties": { "value": 48.744 }, "geometry": { "type": "Point", "coordinates": [ 129.32872, 35.470684, 30.0 ] } },
{ "type": "Feature", "properties": { "value": 2.0155 }, "geometry": { "type": "Point", "coordinates": [ 129.329819, 35.47068, 30.0 ] } },
{ "type": "Feature", "properties": { "value": 0.9972 }, "geometry": { "type": "Point", "coordinates": [ 129.326508, 35.471588, 30.0 ] } },
{ "type": "Feature", "properties": { "value": 41.753 }, "geometry": { "type": "Point", "coordinates": [ 129.327621, 35.471588, 30.0 ] } },
{ "type": "Feature", "properties": { "value": 64.312 }, "geometry": { "type": "Point", "coordinates": [ 129.32872, 35.471584, 30.0 ] } },
{ "type": "Feature", "properties": { "value": 3.9649 }, "geometry": { "type": "Point", "coordinates": [ 129.329819, 35.471581, 30.0 ] } },
{ "type": "Feature", "properties": { "value": 1.4839 }, "geometry": { "type": "Point", "coordinates": [ 129.326523, 35.472492, 30.0 ] } },
{ "type": "Feature", "properties": { "value": 45.889 }, "geometry": { "type": "Point", "coordinates": [ 129.327621, 35.472488, 30.0 ] } },
{ "type": "Feature", "properties": { "value": 73.4 }, "geometry": { "type": "Point", "coordinates": [ 129.32872, 35.472485, 30.0 ] } },
{ "type": "Feature", "properties": { "value": 6.0105 }, "geometry": { "type": "Point", "coordinates": [ 129.329819, 35.472481, 30.0 ] } },
{ "type": "Feature", "properties": { "value": 1.8828 }, "geometry": { "type": "Point", "coordinates": [ 129.326523, 35.473392, 30.0 ] } },
{ "type": "Feature", "properties": { "value": 46.592 }, "geometry": { "type": "Point", "coordinates": [ 129.327621, 35.473389, 30.0 ] } },
{ "type": "Feature", "properties": { "value": 75.282 }, "geometry": { "type": "Point", "coordinates": [ 129.32872, 35.473385, 30.0 ] } },
{ "type": "Feature", "properties": { "value": 8.2655 }, "geometry": { "type": "Point", "coordinates": [ 129.329819, 35.473385, 30.0 ] } },
{ "type": "Feature", "properties": { "value": 2.3063 }, "geometry": { "type": "Point", "coordinates": [ 129.326523, 35.474293, 30.0 ] } },
{ "type": "Feature", "properties": { "value": 46.489 }, "geometry": { "type": "Point", "coordinates": [ 129.327621, 35.474289, 30.0 ] } },
{ "type": "Feature", "properties": { "value": 75.302 }, "geometry": { "type": "Point", "coordinates": [ 129.328735, 35.474289, 30.0 ] } },
{ "type": "Feature", "properties": { "value": 10.284 }, "geometry": { "type": "Point", "coordinates": [ 129.329834, 35.474285, 30.0 ] } },
{ "type": "Feature", "properties": { "value": 2.9676 }, "geometry": { "type": "Point", "coordinates": [ 129.326523, 35.475193, 30.0 ] } },
{ "type": "Feature", "properties": { "value": 46.663 }, "geometry": { "type": "Point", "coordinates": [ 129.327637, 35.475193, 30.0 ] } },
{ "type": "Feature", "properties": { "value": 73.944 }, "geometry": { "type": "Point", "coordinates": [ 129.328735, 35.475189, 30.0 ] } },
{ "type": "Feature", "properties": { "value": 11.566 }, "geometry": { "type": "Point", "coordinates": [ 129.329834, 35.475185, 30.0 ] } },
{ "type": "Feature", "properties": { "value": 3.8458 }, "geometry": { "type": "Point", "coordinates": [ 129.326538, 35.476097, 30.0 ] } },
{ "type": "Feature", "properties": { "value": 46.058 }, "geometry": { "type": "Point", "coordinates": [ 129.327637, 35.476093, 30.0 ] } },
{ "type": "Feature", "properties": { "value": 69.182 }, "geometry": { "type": "Point", "coordinates": [ 129.328735, 35.476089, 30.0 ] } },
{ "type": "Feature", "properties": { "value": 11.978 }, "geometry": { "type": "Point", "coordinates": [ 129.329834, 35.476086, 30.0 ] } },
{ "type": "Feature", "properties": { "value": 4.9362 }, "geometry": { "type": "Point", "coordinates": [ 129.326538, 35.476997, 30.0 ] } },
{ "type": "Feature", "properties": { "value": 43.102 }, "geometry": { "type": "Point", "coordinates": [ 129.327637, 35.476994, 30.0 ] } },
{ "type": "Feature", "properties": { "value": 59.662 }, "geometry": { "type": "Point", "coordinates": [ 129.328735, 35.47699, 30.0 ] } },
{ "type": "Feature", "properties": { "value": 11.571 }, "geometry": { "type": "Point", "coordinates": [ 129.329834, 35.47699, 30.0 ] } },
{ "type": "Feature", "properties": { "value": 5.8729 }, "geometry": { "type": "Point", "coordinates": [ 129.326538, 35.477898, 30.0 ] } },
{ "type": "Feature", "properties": { "value": 39.198 }, "geometry": { "type": "Point", "coordinates": [ 129.327637, 35.477894, 30.0 ] } },
{ "type": "Feature", "properties": { "value": 49.852 }, "geometry": { "type": "Point", "coordinates": [ 129.328735, 35.477894, 30.0 ] } },
{ "type": "Feature", "properties": { "value": 10.825 }, "geometry": { "type": "Point", "coordinates": [ 129.329849, 35.47789, 30.0 ] } },
{ "type": "Feature", "properties": { "value": 6.6685 }, "geometry": { "type": "Point", "coordinates": [ 129.326538, 35.478798, 30.0 ] } },
{ "type": "Feature", "properties": { "value": 38.004 }, "geometry": { "type": "Point", "coordinates": [ 129.327637, 35.478798, 30.0 ] } },
{ "type": "Feature", "properties": { "value": 44.906 }, "geometry": { "type": "Point", "coordinates": [ 129.328751, 35.478794, 30.0 ] } },
{ "type": "Feature", "properties": { "value": 10.539 }, "geometry": { "type": "Point", "coordinates": [ 129.329849, 35.47879, 30.0 ] } },
{ "type": "Feature", "properties": { "value": 8.135 }, "geometry": { "type": "Point", "coordinates": [ 129.326553, 35.479702, 30.0 ] } },
{ "type": "Feature", "properties": { "value": 42.549 }, "geometry": { "type": "Point", "coordinates": [ 129.327652, 35.479698, 30.0 ] } },
{ "type": "Feature", "properties": { "value": 46.638 }, "geometry": { "type": "Point", "coordinates": [ 129.328751, 35.479694, 30.0 ] } },
{ "type": "Feature", "properties": { "value": 10.946 }, "geometry": { "type": "Point", "coordinates": [ 129.329849, 35.479691, 30.0 ] } },
{ "type": "Feature", "properties": { "value": 0.3459 }, "geometry": { "type": "Point", "coordinates": [ 129.330948, 35.479691, 30.0 ] } },
{ "type": "Feature", "properties": { "value": 10.852 }, "geometry": { "type": "Point", "coordinates": [ 129.326553, 35.480602, 30.0 ] } },
{ "type": "Feature", "properties": { "value": 49.634 }, "geometry": { "type": "Point", "coordinates": [ 129.327652, 35.480598, 30.0 ] } },
{ "type": "Feature", "properties": { "value": 50.215 }, "geometry": { "type": "Point", "coordinates": [ 129.328751, 35.480595, 30.0 ] } },
{ "type": "Feature", "properties": { "value": 11.684 }, "geometry": { "type": "Point", "coordinates": [ 129.329849, 35.480595, 30.0 ] } },
{ "type": "Feature", "properties": { "value": 0.5256 }, "geometry": { "type": "Point", "coordinates": [ 129.330963, 35.480591, 30.0 ] } },
{ "type": "Feature", "properties": { "value": 0.6222 }, "geometry": { "type": "Point", "coordinates": [ 129.325455, 35.481506, 30.0 ] } },
{ "type": "Feature", "properties": { "value": 13.966 }, "geometry": { "type": "Point", "coordinates": [ 129.326553, 35.481503, 30.0 ] } },
{ "type": "Feature", "properties": { "value": 52.169 }, "geometry": { "type": "Point", "coordinates": [ 129.327652, 35.481503, 30.0 ] } },
{ "type": "Feature", "properties": { "value": 48.438 }, "geometry": { "type": "Point", "coordinates": [ 129.328751, 35.481499, 30.0 ] } },
{ "type": "Feature", "properties": { "value": 11.694 }, "geometry": { "type": "Point", "coordinates": [ 129.329865, 35.481495, 30.0 ] } },
{ "type": "Feature", "properties": { "value": 0.6483 }, "geometry": { "type": "Point", "coordinates": [ 129.330963, 35.481491, 30.0 ] } },
{ "type": "Feature", "properties": { "value": 1.3039 }, "geometry": { "type": "Point", "coordinates": [ 129.325455, 35.482407, 30.0 ] } },
{ "type": "Feature", "properties": { "value": 16.657 }, "geometry": { "type": "Point", "coordinates": [ 129.326553, 35.482407, 30.0 ] } },
{ "type": "Feature", "properties": { "value": 50.691 }, "geometry": { "type": "Point", "coordinates": [ 129.327652, 35.482403, 30.0 ] } },
{ "type": "Feature", "properties": { "value": 43.767 }, "geometry": { "type": "Point", "coordinates": [ 129.328766, 35.482399, 30.0 ] } },
{ "type": "Feature", "properties": { "value": 11.226 }, "geometry": { "type": "Point", "coordinates": [ 129.329865, 35.482395, 30.0 ] } },
{ "type": "Feature", "properties": { "value": 0.7388 }, "geometry": { "type": "Point", "coordinates": [ 129.330963, 35.482391, 30.0 ] } },
{ "type": "Feature", "properties": { "value": 2.1162 }, "geometry": { "type": "Point", "coordinates": [ 129.325455, 35.483311, 30.0 ] } },
{ "type": "Feature", "properties": { "value": 19.455 }, "geometry": { "type": "Point", "coordinates": [ 129.326553, 35.483307, 30.0 ] } },
{ "type": "Feature", "properties": { "value": 51.432 }, "geometry": { "type": "Point", "coordinates": [ 129.327667, 35.483303, 30.0 ] } },
{ "type": "Feature", "properties": { "value": 42.943 }, "geometry": { "type": "Point", "coordinates": [ 129.328766, 35.483299, 30.0 ] } },
{ "type": "Feature", "properties": { "value": 10.951 }, "geometry": { "type": "Point", "coordinates": [ 129.329865, 35.483295, 30.0 ] } },
{ "type": "Feature", "properties": { "value": 0.7393 }, "geometry": { "type": "Point", "coordinates": [ 129.330963, 35.483295, 30.0 ] } },
{ "type": "Feature", "properties": { "value": 3.3936 }, "geometry": { "type": "Point", "coordinates": [ 129.325455, 35.484211, 30.0 ] } },
{ "type": "Feature", "properties": { "value": 23.662 }, "geometry": { "type": "Point", "coordinates": [ 129.326569, 35.484207, 30.0 ] } },
{ "type": "Feature", "properties": { "value": 55.615 }, "geometry": { "type": "Point", "coordinates": [ 129.327667, 35.484203, 30.0 ] } },
{ "type": "Feature", "properties": { "value": 43.442 }, "geometry": { "type": "Point", "coordinates": [ 129.328766, 35.484203, 30.0 ] } },
{ "type": "Feature", "properties": { "value": 10.459 }, "geometry": { "type": "Point", "coordinates": [ 129.329865, 35.4842, 30.0 ] } },
{ "type": "Feature", "properties": { "value": 0.7002 }, "geometry": { "type": "Point", "coordinates": [ 129.330978, 35.484196, 30.0 ] } },
{ "type": "Feature", "properties": { "value": 5.3327 }, "geometry": { "type": "Point", "coordinates": [ 129.32547, 35.485111, 30.0 ] } },
{ "type": "Feature", "properties": { "value": 28.862 }, "geometry": { "type": "Point", "coordinates": [ 129.326569, 35.485107, 30.0 ] } },
{ "type": "Feature", "properties": { "value": 57.676 }, "geometry": { "type": "Point", "coordinates": [ 129.327667, 35.485107, 30.0 ] } },
{ "type": "Feature", "properties": { "value": 39.696 }, "geometry": { "type": "Point", "coordinates": [ 129.328766, 35.485104, 30.0 ] } },
{ "type": "Feature", "properties": { "value": 9.1653 }, "geometry": { "type": "Point", "coordinates": [ 129.32988, 35.4851, 30.0 ] } },
{ "type": "Feature", "properties": { "value": 0.6219 }, "geometry": { "type": "Point", "coordinates": [ 129.330978, 35.485096, 30.0 ] } },
{ "type": "Feature", "properties": { "value": 0.3451 }, "geometry": { "type": "Point", "coordinates": [ 129.324371, 35.486015, 30.0 ] } },
{ "type": "Feature", "properties": { "value": 7.8529 }, "geometry": { "type": "Point", "coordinates": [ 129.32547, 35.486012, 30.0 ] } },
{ "type": "Feature", "properties": { "value": 33.637 }, "geometry": { "type": "Point", "coordinates": [ 129.326569, 35.486012, 30.0 ] } },
{ "type": "Feature", "properties": { "value": 55.694 }, "geometry": { "type": "Point", "coordinates": [ 129.327667, 35.486008, 30.0 ] } },
{ "type": "Feature", "properties": { "value": 33.62 }, "geometry": { "type": "Point", "coordinates": [ 129.328781, 35.486004, 30.0 ] } },
{ "type": "Feature", "properties": { "value": 7.6078 }, "geometry": { "type": "Point", "coordinates": [ 129.32988, 35.486, 30.0 ] } },
{ "type": "Feature", "properties": { "value": 0.44 }, "geometry": { "type": "Point", "coordinates": [ 129.330978, 35.485996, 30.0 ] } },
{ "type": "Feature", "properties": { "value": 1.1549 }, "geometry": { "type": "Point", "coordinates": [ 129.324371, 35.486916, 30.0 ] } },
{ "type": "Feature", "properties": { "value": 10.614 }, "geometry": { "type": "Point", "coordinates": [ 129.32547, 35.486916, 30.0 ] } },
{ "type": "Feature", "properties": { "value": 37.219 }, "geometry": { "type": "Point", "coordinates": [ 129.326569, 35.486912, 30.0 ] } },
{ "type": "Feature", "properties": { "value": 52.725 }, "geometry": { "type": "Point", "coordinates": [ 129.327682, 35.486908, 30.0 ] } },
{ "type": "Feature", "properties": { "value": 28.833 }, "geometry": { "type": "Point", "coordinates": [ 129.328781, 35.486904, 30.0 ] } },
{ "type": "Feature", "properties": { "value": 6.2205 }, "geometry": { "type": "Point", "coordinates": [ 129.32988, 35.486904, 30.0 ] } },
{ "type": "Feature", "properties": { "value": 0.1819 }, "geometry": { "type": "Point", "coordinates": [ 129.330978, 35.4869, 30.0 ] } },
{ "type": "Feature", "properties": { "value": 1.9663 }, "geometry": { "type": "Point", "coordinates": [ 129.324371, 35.48782, 30.0 ] } },
{ "type": "Feature", "properties": { "value": 13.856 }, "geometry": { "type": "Point", "coordinates": [ 129.32547, 35.487816, 30.0 ] } },
{ "type": "Feature", "properties": { "value": 40.769 }, "geometry": { "type": "Point", "coordinates": [ 129.326584, 35.487812, 30.0 ] } },
{ "type": "Feature", "properties": { "value": 50.215 }, "geometry": { "type": "Point", "coordinates": [ 129.327682, 35.487808, 30.0 ] } },
{ "type": "Feature", "properties": { "value": 25.091 }, "geometry": { "type": "Point", "coordinates": [ 129.328781, 35.487808, 30.0 ] } },
{ "type": "Feature", "properties": { "value": 5.092 }, "geometry": { "type": "Point", "coordinates": [ 129.32988, 35.487804, 30.0 ] } },
{ "type": "Feature", "properties": { "value": 3.2267 }, "geometry": { "type": "Point", "coordinates": [ 129.324371, 35.48872, 30.0 ] } },
{ "type": "Feature", "properties": { "value": 18.379 }, "geometry": { "type": "Point", "coordinates": [ 129.325485, 35.488716, 30.0 ] } },
{ "type": "Feature", "properties": { "value": 45.728 }, "geometry": { "type": "Point", "coordinates": [ 129.326584, 35.488712, 30.0 ] } },
{ "type": "Feature", "properties": { "value": 49.171 }, "geometry": { "type": "Point", "coordinates": [ 129.327682, 35.488712, 30.0 ] } },
{ "type": "Feature", "properties": { "value": 22.333 }, "geometry": { "type": "Point", "coordinates": [ 129.328781, 35.488708, 30.0 ] } },
{ "type": "Feature", "properties": { "value": 4.329 }, "geometry": { "type": "Point", "coordinates": [ 129.329895, 35.488705, 30.0 ] } },
{ "type": "Feature", "properties": { "value": 5.2313 }, "geometry": { "type": "Point", "coordinates": [ 129.324387, 35.48962, 30.0 ] } },
{ "type": "Feature", "properties": { "value": 24.619 }, "geometry": { "type": "Point", "coordinates": [ 129.325485, 35.489616, 30.0 ] } },
{ "type": "Feature", "properties": { "value": 51.907 }, "geometry": { "type": "Point", "coordinates": [ 129.326584, 35.489616, 30.0 ] } },
{ "type": "Feature", "properties": { "value": 49.095 }, "geometry": { "type": "Point", "coordinates": [ 129.327682, 35.489613, 30.0 ] } },
{ "type": "Feature", "properties": { "value": 20.431 }, "geometry": { "type": "Point", "coordinates": [ 129.328796, 35.489609, 30.0 ] } },
{ "type": "Feature", "properties": { "value": 3.7569 }, "geometry": { "type": "Point", "coordinates": [ 129.329895, 35.489605, 30.0 ] } },
{ "type": "Feature", "properties": { "value": 0.6547 }, "geometry": { "type": "Point", "coordinates": [ 129.323288, 35.490524, 30.0 ] } },
{ "type": "Feature", "properties": { "value": 7.9372 }, "geometry": { "type": "Point", "coordinates": [ 129.324387, 35.490524, 30.0 ] } },
{ "type": "Feature", "properties": { "value": 31.147 }, "geometry": { "type": "Point", "coordinates": [ 129.325485, 35.49052, 30.0 ] } },
{ "type": "Feature", "properties": { "value": 56.817 }, "geometry": { "type": "Point", "coordinates": [ 129.326584, 35.490517, 30.0 ] } },
{ "type": "Feature", "properties": { "value": 47.551 }, "geometry": { "type": "Point", "coordinates": [ 129.327698, 35.490513, 30.0 ] } },
{ "type": "Feature", "properties": { "value": 18.027 }, "geometry": { "type": "Point", "coordinates": [ 129.328796, 35.490509, 30.0 ] } },
{ "type": "Feature", "properties": { "value": 3.1505 }, "geometry": { "type": "Point", "coordinates": [ 129.329895, 35.490509, 30.0 ] } },
{ "type": "Feature", "properties": { "value": 1.8294 }, "geometry": { "type": "Point", "coordinates": [ 129.323288, 35.491428, 30.0 ] } },
{ "type": "Feature", "properties": { "value": 11.957 }, "geometry": { "type": "Point", "coordinates": [ 129.324387, 35.491425, 30.0 ] } },
{ "type": "Feature", "properties": { "value": 36.819 }, "geometry": { "type": "Point", "coordinates": [ 129.325485, 35.491421, 30.0 ] } },
{ "type": "Feature", "properties": { "value": 58.054 }, "geometry": { "type": "Point", "coordinates": [ 129.326599, 35.491417, 30.0 ] } },
{ "type": "Feature", "properties": { "value": 43.248 }, "geometry": { "type": "Point", "coordinates": [ 129.327698, 35.491413, 30.0 ] } },
{ "type": "Feature", "properties": { "value": 14.838 }, "geometry": { "type": "Point", "coordinates": [ 129.328796, 35.491413, 30.0 ] } },
{ "type": "Feature", "properties": { "value": 2.4027 }, "geometry": { "type": "Point", "coordinates": [ 129.329895, 35.491409, 30.0 ] } },
{ "type": "Feature", "properties": { "value": 3.873 }, "geometry": { "type": "Point", "coordinates": [ 129.323288, 35.492329, 30.0 ] } },
{ "type": "Feature", "properties": { "value": 17.259 }, "geometry": { "type": "Point", "coordinates": [ 129.324387, 35.492325, 30.0 ] } },
{ "type": "Feature", "properties": { "value": 40.918 }, "geometry": { "type": "Point", "coordinates": [ 129.3255, 35.492321, 30.0 ] } },
{ "type": "Feature", "properties": { "value": 54.743 }, "geometry": { "type": "Point", "coordinates": [ 129.326599, 35.492317, 30.0 ] } },
{ "type": "Feature", "properties": { "value": 36.733 }, "geometry": { "type": "Point", "coordinates": [ 129.327698, 35.492317, 30.0 ] } },
{ "type": "Feature", "properties": { "value": 11.578 }, "geometry": { "type": "Point", "coordinates": [ 129.328796, 35.492313, 30.0 ] } },
{ "type": "Feature", "properties": { "value": 1.7188 }, "geometry": { "type": "Point", "coordinates": [ 129.32991, 35.49231, 30.0 ] } },
{ "type": "Feature", "properties": { "value": 1.0056 }, "geometry": { "type": "Point", "coordinates": [ 129.322189, 35.493233, 30.0 ] } },
{ "type": "Feature", "properties": { "value": 7.4156 }, "geometry": { "type": "Point", "coordinates": [ 129.323288, 35.493229, 30.0 ] } },
{ "type": "Feature", "properties": { "value": 25.035 }, "geometry": { "type": "Point", "coordinates": [ 129.324402, 35.493225, 30.0 ] } },
{ "type": "Feature", "properties": { "value": 45.873 }, "geometry": { "type": "Point", "coordinates": [ 129.3255, 35.493225, 30.0 ] } },
{ "type": "Feature", "properties": { "value": 50.342 }, "geometry": { "type": "Point", "coordinates": [ 129.326599, 35.493221, 30.0 ] } },
{ "type": "Feature", "properties": { "value": 30.072 }, "geometry": { "type": "Point", "coordinates": [ 129.327698, 35.493217, 30.0 ] } },
{ "type": "Feature", "properties": { "value": 8.8522 }, "geometry": { "type": "Point", "coordinates": [ 129.328812, 35.493214, 30.0 ] } },
{ "type": "Feature", "properties": { "value": 1.167 }, "geometry": { "type": "Point", "coordinates": [ 129.32991, 35.49321, 30.0 ] } },
{ "type": "Feature", "properties": { "value": 2.683 }, "geometry": { "type": "Point", "coordinates": [ 129.322189, 35.494133, 30.0 ] } },
{ "type": "Feature", "properties": { "value": 12.968 }, "geometry": { "type": "Point", "coordinates": [ 129.323303, 35.494129, 30.0 ] } },
{ "type": "Feature", "properties": { "value": 34.844 }, "geometry": { "type": "Point", "coordinates": [ 129.324402, 35.494129, 30.0 ] } },
{ "type": "Feature", "properties": { "value": 52.089 }, "geometry": { "type": "Point", "coordinates": [ 129.3255, 35.494125, 30.0 ] } },
{ "type": "Feature", "properties": { "value": 46.459 }, "geometry": { "type": "Point", "coordinates": [ 129.326599, 35.494122, 30.0 ] } },
{ "type": "Feature", "properties": { "value": 23.549 }, "geometry": { "type": "Point", "coordinates": [ 129.327713, 35.494118, 30.0 ] } },
{ "type": "Feature", "properties": { "value": 6.2145 }, "geometry": { "type": "Point", "coordinates": [ 129.328812, 35.494114, 30.0 ] } },
{ "type": "Feature", "properties": { "value": 0.6059 }, "geometry": { "type": "Point", "coordinates": [ 129.32991, 35.494114, 30.0 ] } },
{ "type": "Feature", "properties": { "value": 0.8799 }, "geometry": { "type": "Point", "coordinates": [ 129.321091, 35.495037, 30.0 ] } },
{ "type": "Feature", "properties": { "value": 5.8701 }, "geometry": { "type": "Point", "coordinates": [ 129.322205, 35.495033, 30.0 ] } },
{ "type": "Feature", "properties": { "value": 20.762 }, "geometry": { "type": "Point", "coordinates": [ 129.323303, 35.495033, 30.0 ] } },
{ "type": "Feature", "properties": { "value": 43.565 }, "geometry": { "type": "Point", "coordinates": [ 129.324402, 35.495029, 30.0 ] } },
{ "type": "Feature", "properties": { "value": 53.876 }, "geometry": { "type": "Point", "coordinates": [ 129.3255, 35.495026, 30.0 ] } },
{ "type": "Feature", "properties": { "value": 39.529 }, "geometry": { "type": "Point", "coordinates": [ 129.326614, 35.495022, 30.0 ] } },
{ "type": "Feature", "properties": { "value": 16.753 }, "geometry": { "type": "Point", "coordinates": [ 129.327713, 35.495022, 30.0 ] } },
{ "type": "Feature", "properties": { "value": 3.8163 }, "geometry": { "type": "Point", "coordinates": [ 129.328812, 35.495018, 30.0 ] } },
{ "type": "Feature", "properties": { "value": 0.0219 }, "geometry": { "type": "Point", "coordinates": [ 129.32991, 35.495014, 30.0 ] } },
{ "type": "Feature", "properties": { "value": 2.6637 }, "geometry": { "type": "Point", "coordinates": [ 129.321106, 35.495937, 30.0 ] } },
{ "type": "Feature", "properties": { "value": 11.215 }, "geometry": { "type": "Point", "coordinates": [ 129.322205, 35.495937, 30.0 ] } },
{ "type": "Feature", "properties": { "value": 29.251 }, "geometry": { "type": "Point", "coordinates": [ 129.323303, 35.495934, 30.0 ] } },
{ "type": "Feature", "properties": { "value": 49.025 }, "geometry": { "type": "Point", "coordinates": [ 129.324402, 35.49593, 30.0 ] } },
{ "type": "Feature", "properties": { "value": 50.097 }, "geometry": { "type": "Point", "coordinates": [ 129.325516, 35.495926, 30.0 ] } },
{ "type": "Feature", "properties": { "value": 30.239 }, "geometry": { "type": "Point", "coordinates": [ 129.326614, 35.495926, 30.0 ] } },
{ "type": "Feature", "properties": { "value": 10.857 }, "geometry": { "type": "Point", "coordinates": [ 129.327713, 35.495922, 30.0 ] } },
{ "type": "Feature", "properties": { "value": 2.0959 }, "geometry": { "type": "Point", "coordinates": [ 129.328812, 35.495918, 30.0 ] } },
{ "type": "Feature", "properties": { "value": 1.2906 }, "geometry": { "type": "Point", "coordinates": [ 129.320007, 35.496841, 30.0 ] } },
{ "type": "Feature", "properties": { "value": 6.2143 }, "geometry": { "type": "Point", "coordinates": [ 129.321106, 35.496841, 30.0 ] } },
{ "type": "Feature", "properties": { "value": 18.511 }, "geometry": { "type": "Point", "coordinates": [ 129.322205, 35.496838, 30.0 ] } },
{ "type": "Feature", "properties": { "value": 36.995 }, "geometry": { "type": "Point", "coordinates": [ 129.323303, 35.496834, 30.0 ] } },
{ "type": "Feature", "properties": { "value": 52.364 }, "geometry": { "type": "Point", "coordinates": [ 129.324417, 35.49683, 30.0 ] } },
{ "type": "Feature", "properties": { "value": 44.848 }, "geometry": { "type": "Point", "coordinates": [ 129.325516, 35.49683, 30.0 ] } },
{ "type": "Feature", "properties": { "value": 22.101 }, "geometry": { "type": "Point", "coordinates": [ 129.326614, 35.496826, 30.0 ] } },
{ "type": "Feature", "properties": { "value": 6.5652 }, "geometry": { "type": "Point", "coordinates": [ 129.327713, 35.496822, 30.0 ] } },
{ "type": "Feature", "properties": { "value": 1.0366 }, "geometry": { "type": "Point", "coordinates": [ 129.328827, 35.496819, 30.0 ] } },
{ "type": "Feature", "properties": { "value": 0.6568 }, "geometry": { "type": "Point", "coordinates": [ 129.318909, 35.497749, 30.0 ] } },
{ "type": "Feature", "properties": { "value": 3.7185 }, "geometry": { "type": "Point", "coordinates": [ 129.320007, 35.497746, 30.0 ] } },
{ "type": "Feature", "properties": { "value": 12.219 }, "geometry": { "type": "Point", "coordinates": [ 129.321106, 35.497742, 30.0 ] } },
{ "type": "Feature", "properties": { "value": 26.397 }, "geometry": { "type": "Point", "coordinates": [ 129.322205, 35.497738, 30.0 ] } },
{ "type": "Feature", "properties": { "value": 43.953 }, "geometry": { "type": "Point", "coordinates": [ 129.323318, 35.497734, 30.0 ] } },
{ "type": "Feature", "properties": { "value": 51.951 }, "geometry": { "type": "Point", "coordinates": [ 129.324417, 35.497734, 30.0 ] } },
{ "type": "Feature", "properties": { "value": 37.071 }, "geometry": { "type": "Point", "coordinates": [ 129.325516, 35.49773, 30.0 ] } },
{ "type": "Feature", "properties": { "value": 15.145 }, "geometry": { "type": "Point", "coordinates": [ 129.326614, 35.497726, 30.0 ] } },
{ "type": "Feature", "properties": { "value": 3.6443 }, "geometry": { "type": "Point", "coordinates": [ 129.327728, 35.497723, 30.0 ] } },
{ "type": "Feature", "properties": { "value": 0.3358 }, "geometry": { "type": "Point", "coordinates": [ 129.328827, 35.497723, 30.0 ] } },
{ "type": "Feature", "properties": { "value": 0.1559 }, "geometry": { "type": "Point", "coordinates": [ 129.31781, 35.498653, 30.0 ] } },
{ "type": "Feature", "properties": { "value": 1.9088 }, "geometry": { "type": "Point", "coordinates": [ 129.318909, 35.49865, 30.0 ] } },
{ "type": "Feature", "properties": { "value": 7.8456 }, "geometry": { "type": "Point", "coordinates": [ 129.320007, 35.498646, 30.0 ] } },
{ "type": "Feature", "properties": { "value": 18.969 }, "geometry": { "type": "Point", "coordinates": [ 129.321106, 35.498642, 30.0 ] } },
{ "type": "Feature", "properties": { "value": 33.856 }, "geometry": { "type": "Point", "coordinates": [ 129.32222, 35.498638, 30.0 ] } },
{ "type": "Feature", "properties": { "value": 47.961 }, "geometry": { "type": "Point", "coordinates": [ 129.323318, 35.498638, 30.0 ] } },
{ "type": "Feature", "properties": { "value": 45.083 }, "geometry": { "type": "Point", "coordinates": [ 129.324417, 35.498634, 30.0 ] } },
{ "type": "Feature", "properties": { "value": 26.307 }, "geometry": { "type": "Point", "coordinates": [ 129.325516, 35.498631, 30.0 ] } },
{ "type": "Feature", "properties": { "value": 9.135 }, "geometry": { "type": "Point", "coordinates": [ 129.32663, 35.498627, 30.0 ] } },
{ "type": "Feature", "properties": { "value": 1.8178 }, "geometry": { "type": "Point", "coordinates": [ 129.327728, 35.498627, 30.0 ] } },
{ "type": "Feature", "properties": { "value": 0.8052 }, "geometry": { "type": "Point", "coordinates": [ 129.31781, 35.499554, 30.0 ] } },
{ "type": "Feature", "properties": { "value": 3.5492 }, "geometry": { "type": "Point", "coordinates": [ 129.318909, 35.49955, 30.0 ] } },
{ "type": "Feature", "properties": { "value": 12.223 }, "geometry": { "type": "Point", "coordinates": [ 129.320007, 35.499546, 30.0 ] } },
{ "type": "Feature", "properties": { "value": 24.447 }, "geometry": { "type": "Point", "coordinates": [ 129.321121, 35.499546, 30.0 ] } },
{ "type": "Feature", "properties": { "value": 39.028 }, "geometry": { "type": "Point", "coordinates": [ 129.32222, 35.499542, 30.0 ] } },
{ "type": "Feature", "properties": { "value": 46.367 }, "geometry": { "type": "Point", "coordinates": [ 129.323318, 35.499538, 30.0 ] } },
{ "type": "Feature", "properties": { "value": 34.793 }, "geometry": { "type": "Point", "coordinates": [ 129.324417, 35.499535, 30.0 ] } },
{ "type": "Feature", "properties": { "value": 16.564 }, "geometry": { "type": "Point", "coordinates": [ 129.325531, 35.499531, 30.0 ] } },
{ "type": "Feature", "properties": { "value": 4.904 }, "geometry": { "type": "Point", "coordinates": [ 129.32663, 35.499531, 30.0 ] } },
{ "type": "Feature", "properties": { "value": 0.7551 }, "geometry": { "type": "Point", "coordinates": [ 129.327728, 35.499527, 30.0 ] } },
{ "type": "Feature", "properties": { "value": 0.1427 }, "geometry": { "type": "Point", "coordinates": [ 129.316711, 35.500458, 30.0 ] } },
{ "type": "Feature", "properties": { "value": 1.2488 }, "geometry": { "type": "Point", "coordinates": [ 129.31781, 35.500454, 30.0 ] } },
{ "type": "Feature", "properties": { "value": 4.9287 }, "geometry": { "type": "Point", "coordinates": [ 129.318909, 35.50045, 30.0 ] } },
{ "type": "Feature", "properties": { "value": 14.115 }, "geometry": { "type": "Point", "coordinates": [ 129.320023, 35.50045, 30.0 ] } },
{ "type": "Feature", "properties": { "value": 25.971 }, "geometry": { "type": "Point", "coordinates": [ 129.321121, 35.500446, 30.0 ] } },
{ "type": "Feature", "properties": { "value": 38.543 }, "geometry": { "type": "Point", "coordinates": [ 129.32222, 35.500443, 30.0 ] } },
{ "type": "Feature", "properties": { "value": 38.785 }, "geometry": { "type": "Point", "coordinates": [ 129.323318, 35.500439, 30.0 ] } },
{ "type": "Feature", "properties": { "value": 24.009 }, "geometry": { "type": "Point", "coordinates": [ 129.324432, 35.500435, 30.0 ] } },
{ "type": "Feature", "properties": { "value": 9.3995 }, "geometry": { "type": "Point", "coordinates": [ 129.325531, 35.500435, 30.0 ] } },
{ "type": "Feature", "properties": { "value": 2.3398 }, "geometry": { "type": "Point", "coordinates": [ 129.32663, 35.500431, 30.0 ] } },
{ "type": "Feature", "properties": { "value": 0.0909 }, "geometry": { "type": "Point", "coordinates": [ 129.327728, 35.500427, 30.0 ] } },
{ "type": "Feature", "properties": { "value": 0.2198 }, "geometry": { "type": "Point", "coordinates": [ 129.316711, 35.501358, 30.0 ] } },
{ "type": "Feature", "properties": { "value": 1.3504 }, "geometry": { "type": "Point", "coordinates": [ 129.31781, 35.501354, 30.0 ] } },
{ "type": "Feature", "properties": { "value": 5.2751 }, "geometry": { "type": "Point", "coordinates": [ 129.318924, 35.501354, 30.0 ] } },
{ "type": "Feature", "properties": { "value": 12.63 }, "geometry": { "type": "Point", "coordinates": [ 129.320023, 35.50135, 30.0 ] } },
{ "type": "Feature", "properties": { "value": 22.953 }, "geometry": { "type": "Point", "coordinates": [ 129.321121, 35.501347, 30.0 ] } },
{ "type": "Feature", "properties": { "value": 31.075 }, "geometry": { "type": "Point", "coordinates": [ 129.32222, 35.501343, 30.0 ] } },
{ "type": "Feature", "properties": { "value": 26.569 }, "geometry": { "type": "Point", "coordinates": [ 129.323334, 35.501339, 30.0 ] } },
{ "type": "Feature", "properties": { "value": 14.091 }, "geometry": { "type": "Point", "coordinates": [ 129.324432, 35.501339, 30.0 ] } },
{ "type": "Feature", "properties": { "value": 4.716 }, "geometry": { "type": "Point", "coordinates": [ 129.325531, 35.501335, 30.0 ] } },
{ "type": "Feature", "properties": { "value": 0.9559 }, "geometry": { "type": "Point", "coordinates": [ 129.32663, 35.501331, 30.0 ] } }
]
}
