{
"type": "FeatureCollection",
"features": [
{ "type": "Feature", "properties": { "value": 3.765 }, "geometry": { "type": "Point", "coordinates": [ 129.32756, 35.458969, 30.0 ] } },
{ "type": "Feature", "properties": { "value": 101.22 }, "geometry": { "type": "Point", "coordinates": [ 129.32756, 35.459869, 30.0 ] } },
{ "type": "Feature", "properties": { "value": 178.14 }, "geometry": { "type": "Point", "coordinates": [ 129.327576, 35.46077, 30.0 ] } },
{ "type": "Feature", "properties": { "value": 163.7 }, "geometry": { "type": "Point", "coordinates": [ 129.327576, 35.461674, 30.0 ] } },
{ "type": "Feature", "properties": { "value": 149.19 }, "geometry": { "type": "Point", "coordinates": [ 129.327576, 35.462574, 30.0 ] } },
{ "type": "Feature", "properties": { "value": 119.03 }, "geometry": { "type": "Point", "coordinates": [ 129.327576, 35.463474, 30.0 ] } },
{ "type": "Feature", "properties": { "value": 2.874 }, "geometry": { "type": "Point", "coordinates": [ 129.32869, 35.46347, 30.0 ] } },
{ "type": "Feature", "properties": { "value": 91.556 }, "geometry": { "type": "Point", "coordinates": [ 129.327591, 35.464375, 30.0 ] } },
{ "type": "Feature", "properties": { "value": 11.705 }, "geometry": { "type": "Point", "coordinates": [ 129.32869, 35.464375, 30.0 ] } },
{ "type": "Feature", "properties": { "value": 62.668 }, "geometry": { "type": "Point", "coordinates": [ 129.327591, 35.465279, 30.0 ] } },
{ "type": "Feature", "properties": { "value": 20.979 }, "geometry": { "type": "Point", "coordinates": [ 129.32869, 35.465275, 30.0 ] } },
{ "type": "Feature", "properties": { "value": 41.967 }, "geometry": { "type": "Point", "coordinates": [ 129.327591, 35.466179, 30.0 ] } },
{ "type": "Feature", "properties": { "value": 25.758 }, "geometry": { "type": "Point", "coordinates": [ 129.32869, 35.466175, 30.0 ] } },
{ "type": "Feature", "properties": { "value": 32.832 }, "geometry": { "type": "Point", "coordinates": [ 129.327591, 35.467079, 30.0 ] } },
{ "type": "Feature", "properties": { "value": 30.631 }, "geometry": { "type": "Point", "coordinates": [ 129.328705, 35.467075, 30.0 ] } },
{ "type": "Feature", "properties": { "value": 27.797 }, "geometry": { "type": "Point", "coordinates": [ 129.327606, 35.467983, 30.0 ] } },
{ "type": "Feature", "properties": { "value": 34.328 }, "geometry": { "type": "Point", "coordinates": [ 129.328705, 35.467979, 30.0 ] } },
{ "type": "Feature", "properties": { "value": 26.074 }, "geometry": { "type": "Point", "coordinates": [ 129.327606, 35.468884, 30.0 ] } },
{ "type": "Feature", "properties": { "value": 38.485 }, "geometry": { "type": "Point", "coordinates": [ 129.328705, 35.46888, 30.0 ] } },
{ "type": "Feature", "properties": { "value": 0.502 }, "geometry": { "type": "Point", "coordinates": [ 129.329803, 35.468876, 30.0 ] } },
{ "type": "Feature", "properties": { "value": 27.334 }, "geometry": { "type": "Point", "coordinates": [ 129.327606, 35.469784, 30.0 ] } },
{ "type": "Feature", "properties": { "value": 45.092 }, "geometry": { "type": "Point", "coordinates": [ 129.328705, 35.46978, 30.0 ] } },
{ "type": "Feature", "properties": { "value": 1.5042 }, "geometry": { "type": "Point", "coordinates": [ 129.329819, 35.469776, 30.0 ] } },
{ "type": "Feature", "properties": { "value": 29.657 }, "geometry": { "type": "Point", "coordinates": [ 129.327606, 35.470684, 30.0 ] } },
{ "type": "Feature", "properties": { "value": 56.683 }, "geometry": { "type": "Point", "coordinates": [ 129.32872, 35.470684, 30.0 ] } },
{ "type": "Feature", "properties": { "value": 3.5702 }, "geometry": { "type": "Point", "coordinates": [ 129.329819, 35.47068, 30.0 ] } },
{ "type": "Feature", "properties": { "value": 32.978 }, "geometry": { "type": "Point", "coordinates": [ 129.327621, 35.471588, 30.0 ] } },
{ "type": "Feature", "properties": { "value": 73.932 }, "geometry": { "type": "Point", "coordinates": [ 129.32872, 35.471584, 30.0 ] } },
{ "type": "Feature", "properties": { "value": 6.7303 }, "geometry": { "type": "Point", "coordinates": [ 129.329819, 35.471581, 30.0 ] } },
{ "type": "Feature", "properties": { "value": 0.0936 }, "geometry": { "type": "Point", "coordinates": [ 129.326523, 35.472492, 30.0 ] } },
{ "type": "Feature", "properties": { "value": 35.607 }, "geometry": { "type": "Point", "coordinates": [ 129.327621, 35.472488, 30.0 ] } },
{ "type": "Feature", "properties": { "value": 83.07 }, "geometry": { "type": "Point", "coordinates": [ 129.32872, 35.472485, 30.0 ] } },
{ "type": "Feature", "properties": { "value": 10.091 }, "geometry": { "type": "Point", "coordinates": [ 129.329819, 35.472481, 30.0 ] } },
{ "type": "Feature", "properties": { "value": 0.7405 }, "geometry": { "type": "Point", "coordinates": [ 129.326523, 35.473392, 30.0 ] } },
{ "type": "Feature", "properties": { "value": 35.324 }, "geometry": { "type": "Point", "coordinates": [ 129.327621, 35.473389, 30.0 ] } },
{ "type": "Feature", "properties": { "value": 84.083 }, "geometry": { "type": "Point", "coordinates": [ 129.32872, 35.473385, 30.0 ] } },
{ "type": "Feature", "properties": { "value": 13.679 }, "geometry": { "type": "Point", "coordinates": [ 129.329819, 35.473385, 30.0 ] } },
{ "type": "Feature", "properties": { "value": 0.9094 }, "geometry": { "type": "Point", "coordinates": [ 129.326523, 35.474293, 30.0 ] } },
{ "type": "Feature", "properties": { "value": 34.189 }, "geometry": { "type": "Point", "coordinates": [ 129.327621, 35.474289, 30.0 ] } },
{ "type": "Feature", "properties": { "value": 83.101 }, "geometry": { "type": "Point", "coordinates": [ 129.328735, 35.474289, 30.0 ] } },
{ "type": "Feature", "properties": { "value": 17.143 }, "geometry": { "type": "Point", "coordinates": [ 129.329834, 35.474285, 30.0 ] } },
{ "type": "Feature", "properties": { "value": 1.1799 }, "geometry": { "type": "Point", "coordinates": [ 129.326523, 35.475193, 30.0 ] } },
{ "type": "Feature", "properties": { "value": 33.233 }, "geometry": { "type": "Point", "coordinates": [ 129.327637, 35.475193, 30.0 ] } },
{ "type": "Feature", "properties": { "value": 80.9 }, "geometry": { "type": "Point", "coordinates": [ 129.328735, 35.475189, 30.0 ] } },
{ "type": "Feature", "properties": { "value": 19.523 }, "geometry": { "type": "Point", "coordinates": [ 129.329834, 35.475185, 30.0 ] } },
{ "type": "Feature", "properties": { "value": 1.4785 }, "geometry": { "type": "Point", "coordinates": [ 129.326538, 35.476097, 30.0 ] } },
{ "type": "Feature", "properties": { "value": 32.156 }, "geometry": { "type": "Point", "coordinates": [ 129.327637, 35.476093, 30.0 ] } },
{ "type": "Feature", "properties": { "value": 75.867 }, "geometry": { "type": "Point", "coordinates": [ 129.328735, 35.476089, 30.0 ] } },
{ "type": "Feature", "properties": { "value": 20.755 }, "geometry": { "type": "Point", "coordinates": [ 129.329834, 35.476086, 30.0 ] } },
{ "type": "Feature", "properties": { "value": 0.4898 }, "geometry": { "type": "Point", "coordinates": [ 129.330933, 35.476086, 30.0 ] } },
{ "type": "Feature", "properties": { "value": 1.9431 }, "geometry": { "type": "Point", "coordinates": [ 129.326538, 35.476997, 30.0 ] } },
{ "type": "Feature", "properties": { "value": 29.75 }, "geometry": { "type": "Point", "coordinates": [ 129.327637, 35.476994, 30.0 ] } },
{ "type": "Feature", "properties": { "value": 66.078 }, "geometry": { "type": "Point", "coordinates": [ 129.328735, 35.47699, 30.0 ] } },
{ "type": "Feature", "properties": { "value": 20.681 }, "geometry": { "type": "Point", "coordinates": [ 129.329834, 35.47699, 30.0 ] } },
{ "type": "Feature", "properties": { "value": 0.8267 }, "geometry": { "type": "Point", "coordinates": [ 129.330948, 35.476986, 30.0 ] } },
{ "type": "Feature", "properties": { "value": 2.317 }, "geometry": { "type": "Point", "coordinates": [ 129.326538, 35.477898, 30.0 ] } },
{ "type": "Feature", "properties": { "value": 26.804 }, "geometry": { "type": "Point", "coordinates": [ 129.327637, 35.477894, 30.0 ] } },
{ "type": "Feature", "properties": { "value": 56.097 }, "geometry": { "type": "Point", "coordinates": [ 129.328735, 35.477894, 30.0 ] } },
{ "type": "Feature", "properties": { "value": 20.171 }, "geometry": { "type": "Point", "coordinates": [ 129.329849, 35.47789, 30.0 ] } },
{ "type": "Feature", "properties": { "value": 1.1381 }, "geometry": { "type": "Point", "coordinates": [ 129.330948, 35.477886, 30.0 ] } },
{ "type": "Feature", "properties": { "value": 2.5805 }, "geometry": { "type": "Point", "coordinates": [ 129.326538, 35.478798, 30.0 ] } },
{ "type": "Feature", "properties": { "value": 25.675 }, "geometry": { "type": "Point", "coordinates": [ 129.327637, 35.478798, 30.0 ] } },
{ "type": "Feature", "properties": { "value": 51.363 }, "geometry": { "type": "Point", "coordinates": [ 129.328751, 35.478794, 30.0 ] } },
{ "type": "Feature", "properties": { "value": 20.5 }, "geometry": { "type": "Point", "coordinates": [ 129.329849, 35.47879, 30.0 ] } },
{ "type": "Feature", "properties": { "value": 1.5167 }, "geometry": { "type": "Point", "coordinates": [ 129.330948, 35.478786, 30.0 ] } },
{ "type": "Feature", "properties": { "value": 2.9441 }, "geometry": { "type": "Point", "coordinates": [ 129.326553, 35.479702, 30.0 ] } },
{ "type": "Feature", "properties": { "value": 28.015 }, "geometry": { "type": "Point", "coordinates": [ 129.327652, 35.479698, 30.0 ] } },
{ "type": "Feature", "properties": { "value": 53.858 }, "geometry": { "type": "Point", "coordinates": [ 129.328751, 35.479694, 30.0 ] } },
{ "type": "Feature", "properties": { "value": 22.334 }, "geometry": { "type": "Point", "coordinates": [ 129.329849, 35.479691, 30.0 ] } },
{ "type": "Feature", "properties": { "value": 2.0593 }, "geometry": { "type": "Point", "coordinates": [ 129.330948, 35.479691, 30.0 ] } },
{ "type": "Feature", "properties": { "value": 3.6522 }, "geometry": { "type": "Point", "coordinates": [ 129.326553, 35.480602, 30.0 ] } },
{ "type": "Feature", "properties": { "value": 31.438 }, "geometry": { "type": "Point", "coordinates": [ 129.327652, 35.480598, 30.0 ] } },
{ "type": "Feature", "properties": { "value": 58.113 }, "geometry": { "type": "Point", "coordinates": [ 129.328751, 35.480595, 30.0 ] } },
{ "type": "Feature", "properties": { "value": 24.895 }, "geometry": { "type": "Point", "coordinates": [ 129.329849, 35.480595, 30.0 ] } },
{ "type": "Feature", "properties": { "value": 2.7457 }, "geometry": { "type": "Point", "coordinates": [ 129.330963, 35.480591, 30.0 ] } },
{ "type": "Feature", "properties": { "value": 4.4033 }, "geometry": { "type": "Point", "coordinates": [ 129.326553, 35.481503, 30.0 ] } },
{ "type": "Feature", "properties": { "value": 32.099 }, "geometry": { "type": "Point", "coordinates": [ 129.327652, 35.481503, 30.0 ] } },
{ "type": "Feature", "properties": { "value": 56.697 }, "geometry": { "type": "Point", "coordinates": [ 129.328751, 35.481499, 30.0 ] } },
{ "type": "Feature", "properties": { "value": 26.19 }, "geometry": { "type": "Point", "coordinates": [ 129.329865, 35.481495, 30.0 ] } },
{ "type": "Feature", "properties": { "value": 3.4367 }, "geometry": { "type": "Point", "coordinates": [ 129.330963, 35.481491, 30.0 ] } },
{ "type": "Feature", "properties": { "value": 4.9885 }, "geometry": { "type": "Point", "coordinates": [ 129.326553, 35.482407, 30.0 ] } },
{ "type": "Feature", "properties": { "value": 30.773 }, "geometry": { "type": "Point", "coordinates": [ 129.327652, 35.482403, 30.0 ] } },
{ "type": "Feature", "properties": { "value": 52.602 }, "geometry": { "type": "Point", "coordinates": [ 129.328766, 35.482399, 30.0 ] } },
{ "type": "Feature", "properties": { "value": 26.767 }, "geometry": { "type": "Point", "coordinates": [ 129.329865, 35.482395, 30.0 ] } },
{ "type": "Feature", "properties": { "value": 4.134 }, "geometry": { "type": "Point", "coordinates": [ 129.330963, 35.482391, 30.0 ] } },
{ "type": "Feature", "properties": { "value": 5.4823 }, "geometry": { "type": "Point", "coordinates": [ 129.326553, 35.483307, 30.0 ] } },
{ "type": "Feature", "properties": { "value": 30.846 }, "geometry": { "type": "Point", "coordinates": [ 129.327667, 35.483303, 30.0 ] } },
{ "type": "Feature", "properties": { "value": 53.456 }, "geometry": { "type": "Point", "coordinates": [ 129.328766, 35.483299, 30.0 ] } },
{ "type": "Feature", "properties": { "value": 28.429 }, "geometry": { "type": "Point", "coordinates": [ 129.329865, 35.483295, 30.0 ] } },
{ "type": "Feature", "properties": { "value": 4.8269 }, "geometry": { "type": "Point", "coordinates": [ 129.330963, 35.483295, 30.0 ] } },
{ "type": "Feature", "properties": { "value": 6.3045 }, "geometry": { "type": "Point", "coordinates": [ 129.326569, 35.484207, 30.0 ] } },
{ "type": "Feature", "properties": { "value": 33.284 }, "geometry": { "type": "Point", "coordinates": [ 129.327667, 35.484203, 30.0 ] } },
{ "type": "Feature", "properties": { "value": 56.772 }, "geometry": { "type": "Point", "coordinates": [ 129.328766, 35.484203, 30.0 ] } },
{ "type": "Feature", "properties": { "value": 30.087 }, "geometry": { "type": "Point", "coordinates": [ 129.329865, 35.4842, 30.0 ] } },
{ "type": "Feature", "properties": { "value": 5.4665 }, "geometry": { "type": "Point", "coordinates": [ 129.330978, 35.484196, 30.0 ] } },
{ "type": "Feature", "properties": { "value": 7.6181 }, "geometry": { "type": "Point", "coordinates": [ 129.326569, 35.485107, 30.0 ] } },
{ "type": "Feature", "properties": { "value": 35.519 }, "geometry": { "type": "Point", "coordinates": [ 129.327667, 35.485107, 30.0 ] } },
{ "type": "Feature", "properties": { "value": 56.005 }, "geometry": { "type": "Point", "coordinates": [ 129.328766, 35.485104, 30.0 ] } },
{ "type": "Feature", "properties": { "value": 29.796 }, "geometry": { "type": "Point", "coordinates": [ 129.32988, 35.4851, 30.0 ] } },
{ "type": "Feature", "properties": { "value": 5.861 }, "geometry": { "type": "Point", "coordinates": [ 129.330978, 35.485096, 30.0 ] } },
{ "type": "Feature", "properties": { "value": 0.5973 }, "geometry": { "type": "Point", "coordinates": [ 129.32547, 35.486012, 30.0 ] } },
{ "type": "Feature", "properties": { "value": 9.2654 }, "geometry": { "type": "Point", "coordinates": [ 129.326569, 35.486012, 30.0 ] } },
{ "type": "Feature", "properties": { "value": 36.654 }, "geometry": { "type": "Point", "coordinates": [ 129.327667, 35.486008, 30.0 ] } },
{ "type": "Feature", "properties": { "value": 52.475 }, "geometry": { "type": "Point", "coordinates": [ 129.328781, 35.486004, 30.0 ] } },
{ "type": "Feature", "properties": { "value": 28.397 }, "geometry": { "type": "Point", "coordinates": [ 129.32988, 35.486, 30.0 ] } },
{ "type": "Feature", "properties": { "value": 5.9537 }, "geometry": { "type": "Point", "coordinates": [ 129.330978, 35.485996, 30.0 ] } },
{ "type": "Feature", "properties": { "value": 1.1851 }, "geometry": { "type": "Point", "coordinates": [ 129.32547, 35.486916, 30.0 ] } },
{ "type": "Feature", "properties": { "value": 11.041 }, "geometry": { "type": "Point", "coordinates": [ 129.326569, 35.486912, 30.0 ] } },
{ "type": "Feature", "properties": { "value": 37.747 }, "geometry": { "type": "Point", "coordinates": [ 129.327682, 35.486908, 30.0 ] } },
{ "type": "Feature", "properties": { "value": 50.254 }, "geometry": { "type": "Point", "coordinates": [ 129.328781, 35.486904, 30.0 ] } },
{ "type": "Feature", "properties": { "value": 26.972 }, "geometry": { "type": "Point", "coordinates": [ 129.32988, 35.486904, 30.0 ] } },
{ "type": "Feature", "properties": { "value": 5.8055 }, "geometry": { "type": "Point", "coordinates": [ 129.330978, 35.4869, 30.0 ] } },
{ "type": "Feature", "properties": { "value": 1.8533 }, "geometry": { "type": "Point", "coordinates": [ 129.32547, 35.487816, 30.0 ] } },
{ "type": "Feature", "properties": { "value": 13.106 }, "geometry": { "type": "Point", "coordinates": [ 129.326584, 35.487812, 30.0 ] } },
{ "type": "Feature", "properties": { "value": 38.365 }, "geometry": { "type": "Point", "coordinates": [ 129.327682, 35.487808, 30.0 ] } },
{ "type": "Feature", "properties": { "value": 47.5 }, "geometry": { "type": "Point", "coordinates": [ 129.328781, 35.487808, 30.0 ] } },
{ "type": "Feature", "properties": { "value": 25.152 }, "geometry": { "type": "Point", "coordinates": [ 129.32988, 35.487804, 30.0 ] } },
{ "type": "Feature", "properties": { "value": 5.7054 }, "geometry": { "type": "Point", "coordinates": [ 129.330994, 35.487801, 30.0 ] } },
{ "type": "Feature", "properties": { "value": 0.2229 }, "geometry": { "type": "Point", "coordinates": [ 129.332092, 35.487797, 30.0 ] } },
{ "type": "Feature", "properties": { "value": 2.7982 }, "geometry": { "type": "Point", "coordinates": [ 129.325485, 35.488716, 30.0 ] } },
{ "type": "Feature", "properties": { "value": 15.701 }, "geometry": { "type": "Point", "coordinates": [ 129.326584, 35.488712, 30.0 ] } },
{ "type": "Feature", "properties": { "value": 39.482 }, "geometry": { "type": "Point", "coordinates": [ 129.327682, 35.488712, 30.0 ] } },
{ "type": "Feature", "properties": { "value": 44.781 }, "geometry": { "type": "Point", "coordinates": [ 129.328781, 35.488708, 30.0 ] } },
{ "type": "Feature", "properties": { "value": 23.444 }, "geometry": { "type": "Point", "coordinates": [ 129.329895, 35.488705, 30.0 ] } },
{ "type": "Feature", "properties": { "value": 5.6916 }, "geometry": { "type": "Point", "coordinates": [ 129.330994, 35.488701, 30.0 ] } },
{ "type": "Feature", "properties": { "value": 0.4318 }, "geometry": { "type": "Point", "coordinates": [ 129.332092, 35.488697, 30.0 ] } },
{ "type": "Feature", "properties": { "value": 3.9867 }, "geometry": { "type": "Point", "coordinates": [ 129.325485, 35.489616, 30.0 ] } },
{ "type": "Feature", "properties": { "value": 18.823 }, "geometry": { "type": "Point", "coordinates": [ 129.326584, 35.489616, 30.0 ] } },
{ "type": "Feature", "properties": { "value": 41.78 }, "geometry": { "type": "Point", "coordinates": [ 129.327682, 35.489613, 30.0 ] } },
{ "type": "Feature", "properties": { "value": 43.74 }, "geometry": { "type": "Point", "coordinates": [ 129.328796, 35.489609, 30.0 ] } },
{ "type": "Feature", "properties": { "value": 22.175 }, "geometry": { "type": "Point", "coordinates": [ 129.329895, 35.489605, 30.0 ] } },
{ "type": "Feature", "properties": { "value": 5.5134 }, "geometry": { "type": "Point", "coordinates": [ 129.330994, 35.489605, 30.0 ] } },
{ "type": "Feature", "properties": { "value": 0.472 }, "geometry": { "type": "Point", "coordinates": [ 129.332092, 35.489601, 30.0 ] } },
{ "type": "Feature", "properties": { "value": 0.2022 }, "geometry": { "type": "Point", "coordinates": [ 129.324387, 35.490524, 30.0 ] } },
{ "type": "Feature", "properties": { "value": 5.2199 }, "geometry": { "type": "Point", "coordinates": [ 129.325485, 35.49052, 30.0 ] } },
{ "type": "Feature", "properties": { "value": 21.696 }, "geometry": { "type": "Point", "coordinates": [ 129.326584, 35.490517, 30.0 ] } },
{ "type": "Feature", "properties": { "value": 43.466 }, "geometry": { "type": "Point", "coordinates": [ 129.327698, 35.490513, 30.0 ] } },
{ "type": "Feature", "properties": { "value": 42.267 }, "geometry": { "type": "Point", "coordinates": [ 129.328796, 35.490509, 30.0 ] } },
{ "type": "Feature", "properties": { "value": 20.548 }, "geometry": { "type": "Point", "coordinates": [ 129.329895, 35.490509, 30.0 ] } },
{ "type": "Feature", "properties": { "value": 5.1189 }, "geometry": { "type": "Point", "coordinates": [ 129.330994, 35.490505, 30.0 ] } },
{ "type": "Feature", "properties": { "value": 0.478 }, "geometry": { "type": "Point", "coordinates": [ 129.332092, 35.490501, 30.0 ] } },
{ "type": "Feature", "properties": { "value": 0.7055 }, "geometry": { "type": "Point", "coordinates": [ 129.324387, 35.491425, 30.0 ] } },
{ "type": "Feature", "properties": { "value": 6.0488 }, "geometry": { "type": "Point", "coordinates": [ 129.325485, 35.491421, 30.0 ] } },
{ "type": "Feature", "properties": { "value": 22.941 }, "geometry": { "type": "Point", "coordinates": [ 129.326599, 35.491417, 30.0 ] } },
{ "type": "Feature", "properties": { "value": 42.785 }, "geometry": { "type": "Point", "coordinates": [ 129.327698, 35.491413, 30.0 ] } },
{ "type": "Feature", "properties": { "value": 39.139 }, "geometry": { "type": "Point", "coordinates": [ 129.328796, 35.491413, 30.0 ] } },
{ "type": "Feature", "properties": { "value": 18.453 }, "geometry": { "type": "Point", "coordinates": [ 129.329895, 35.491409, 30.0 ] } },
{ "type": "Feature", "properties": { "value": 4.6245 }, "geometry": { "type": "Point", "coordinates": [ 129.331009, 35.491405, 30.0 ] } },
{ "type": "Feature", "properties": { "value": 0.4486 }, "geometry": { "type": "Point", "coordinates": [ 129.332108, 35.491402, 30.0 ] } },
{ "type": "Feature", "properties": { "value": 0.8084 }, "geometry": { "type": "Point", "coordinates": [ 129.324387, 35.492325, 30.0 ] } },
{ "type": "Feature", "properties": { "value": 5.7553 }, "geometry": { "type": "Point", "coordinates": [ 129.3255, 35.492321, 30.0 ] } },
{ "type": "Feature", "properties": { "value": 20.433 }, "geometry": { "type": "Point", "coordinates": [ 129.326599, 35.492317, 30.0 ] } },
{ "type": "Feature", "properties": { "value": 36.92 }, "geometry": { "type": "Point", "coordinates": [ 129.327698, 35.492317, 30.0 ] } },
{ "type": "Feature", "properties": { "value": 32.983 }, "geometry": { "type": "Point", "coordinates": [ 129.328796, 35.492313, 30.0 ] } },
{ "type": "Feature", "properties": { "value": 15.368 }, "geometry": { "type": "Point", "coordinates": [ 129.32991, 35.49231, 30.0 ] } },
{ "type": "Feature", "properties": { "value": 3.813 }, "geometry": { "type": "Point", "coordinates": [ 129.331009, 35.492306, 30.0 ] } },
{ "type": "Feature", "properties": { "value": 0.3992 }, "geometry": { "type": "Point", "coordinates": [ 129.332108, 35.492306, 30.0 ] } },
{ "type": "Feature", "properties": { "value": 0.6559 }, "geometry": { "type": "Point", "coordinates": [ 129.324402, 35.493225, 30.0 ] } },
{ "type": "Feature", "properties": { "value": 4.228 }, "geometry": { "type": "Point", "coordinates": [ 129.3255, 35.493225, 30.0 ] } },
{ "type": "Feature", "properties": { "value": 14.131 }, "geometry": { "type": "Point", "coordinates": [ 129.326599, 35.493221, 30.0 ] } },
{ "type": "Feature", "properties": { "value": 25.136 }, "geometry": { "type": "Point", "coordinates": [ 129.327698, 35.493217, 30.0 ] } },
{ "type": "Feature", "properties": { "value": 22.669 }, "geometry": { "type": "Point", "coordinates": [ 129.328812, 35.493214, 30.0 ] } },
{ "type": "Feature", "properties": { "value": 10.508 }, "geometry": { "type": "Point", "coordinates": [ 129.32991, 35.49321, 30.0 ] } },
{ "type": "Feature", "properties": { "value": 2.5342 }, "geometry": { "type": "Point", "coordinates": [ 129.331009, 35.49321, 30.0 ] } },
{ "type": "Feature", "properties": { "value": 0.2184 }, "geometry": { "type": "Point", "coordinates": [ 129.332108, 35.493206, 30.0 ] } },
{ "type": "Feature", "properties": { "value": 0.3097 }, "geometry": { "type": "Point", "coordinates": [ 129.324402, 35.494129, 30.0 ] } },
{ "type": "Feature", "properties": { "value": 2.1669 }, "geometry": { "type": "Point", "coordinates": [ 129.3255, 35.494125, 30.0 ] } },
{ "type": "Feature", "properties": { "value": 6.9513 }, "geometry": { "type": "Point", "coordinates": [ 129.326599, 35.494122, 30.0 ] } },
{ "type": "Feature", "properties": { "value": 11.986 }, "geometry": { "type": "Point", "coordinates": [ 129.327713, 35.494118, 30.0 ] } },
{ "type": "Feature", "properties": { "value": 10.831 }, "geometry": { "type": "Point", "coordinates": [ 129.328812, 35.494114, 30.0 ] } },
{ "type": "Feature", "properties": { "value": 5.0175 }, "geometry": { "type": "Point", "coordinates": [ 129.32991, 35.494114, 30.0 ] } },
{ "type": "Feature", "properties": { "value": 1.1645 }, "geometry": { "type": "Point", "coordinates": [ 129.331009, 35.49411, 30.0 ] } },
{ "type": "Feature", "properties": { "value": 0.0161 }, "geometry": { "type": "Point", "coordinates": [ 129.332108, 35.494106, 30.0 ] } },
{ "type": "Feature", "properties": { "value": 0.0476 }, "geometry": { "type": "Point", "coordinates": [ 129.324402, 35.495029, 30.0 ] } },
{ "type": "Feature", "properties": { "value": 0.6435 }, "geometry": { "type": "Point", "coordinates": [ 129.3255, 35.495026, 30.0 ] } },
{ "type": "Feature", "properties": { "value": 2.0831 }, "geometry": { "type": "Point", "coordinates": [ 129.326614, 35.495022, 30.0 ] } },
{ "type": "Feature", "properties": { "value": 3.5337 }, "geometry": { "type": "Point", "coordinates": [ 129.327713, 35.495022, 30.0 ] } },
{ "type": "Feature", "properties": { "value": 3.1485 }, "geometry": { "type": "Point", "coordinates": [ 129.328812, 35.495018, 30.0 ] } },
{ "type": "Feature", "properties": { "value": 1.4349 }, "geometry": { "type": "Point", "coordinates": [ 129.32991, 35.495014, 30.0 ] } },
{ "type": "Feature", "properties": { "value": 0.2951 }, "geometry": { "type": "Point", "coordinates": [ 129.331009, 35.49501, 30.0 ] } },
{ "type": "Feature", "properties": { "value": 0.0742 }, "geometry": { "type": "Point", "coordinates": [ 129.325516, 35.495926, 30.0 ] } },
{ "type": "Feature", "properties": { "value": 0.3329 }, "geometry": { "type": "Point", "coordinates": [ 129.326614, 35.495926, 30.0 ] } },
{ "type": "Feature", "properties": { "value": 0.5795 }, "geometry": { "type": "Point", "coordinates": [ 129.327713, 35.495922, 30.0 ] } },
{ "type": "Feature", "properties": { "value": 0.4961 }, "geometry": { "type": "Point", "coordinates": [ 129.328812, 35.495918, 30.0 ] } },
{ "type": "Feature", "properties": { "value": 0.2054 }, "geometry": { "type": "Point", "coordinates": [ 129.329926, 35.495914, 30.0 ] } },
{ "type": "Feature", "properties": { "value": 0.0152 }, "geometry": { "type": "Point", "coordinates": [ 129.331024, 35.495911, 30.0 ] } },
{ "type": "Feature", "properties": { "value": 0.0202 }, "geometry": { "type": "Point", "coordinates": [ 129.327713, 35.496822, 30.0 ] } },
{ "type": "Feature", "properties": { "value": 0.0175 }, "geometry": { "type": "Point", "coordinates": [ 129.328827, 35.496819, 30.0 ] } }
]
}
