{
"type": "FeatureCollection",
"features": [
{ "type": "Feature", "properties": { "value": 0.0036 }, "geometry": { "type": "Point", "coordinates": [ 129.32756, 35.458969, 60.0 ] } },
{ "type": "Feature", "properties": { "value": 4.0725 }, "geometry": { "type": "Point", "coordinates": [ 129.32756, 35.459869, 60.0 ] } },
{ "type": "Feature", "properties": { "value": 104.84 }, "geometry": { "type": "Point", "coordinates": [ 129.327576, 35.46077, 60.0 ] } },
{ "type": "Feature", "properties": { "value": 190.42 }, "geometry": { "type": "Point", "coordinates": [ 129.327576, 35.461674, 60.0 ] } },
{ "type": "Feature", "properties": { "value": 168.73 }, "geometry": { "type": "Point", "coordinates": [ 129.327576, 35.462574, 60.0 ] } },
{ "type": "Feature", "properties": { "value": 135.54 }, "geometry": { "type": "Point", "coordinates": [ 129.327576, 35.463474, 60.0 ] } },
{ "type": "Feature", "properties": { "value": 3.3064 }, "geometry": { "type": "Point", "coordinates": [ 129.32869, 35.46347, 60.0 ] } },
{ "type": "Feature", "properties": { "value": 117.87 }, "geometry": { "type": "Point", "coordinates": [ 129.327591, 35.464375, 60.0 ] } },
{ "type": "Feature", "properties": { "value": 9.8719 }, "geometry": { "type": "Point", "coordinates": [ 129.32869, 35.464375, 60.0 ] } },
{ "type": "Feature", "properties": { "value": 118.3 }, "geometry": { "type": "Point", "coordinates": [ 129.327591, 35.465279, 60.0 ] } },
{ "type": "Feature", "properties": { "value": 24.506 }, "geometry": { "type": "Point", "coordinates": [ 129.32869, 35.465275, 60.0 ] } },
{ "type": "Feature", "properties": { "value": 118.51 }, "geometry": { "type": "Point", "coordinates": [ 129.327591, 35.466179, 60.0 ] } },
{ "type": "Feature", "properties": { "value": 44.335 }, "geometry": { "type": "Point", "coordinates": [ 129.32869, 35.466175, 60.0 ] } },
{ "type": "Feature", "properties": { "value": 112.73 }, "geometry": { "type": "Point", "coordinates": [ 129.327591, 35.467079, 60.0 ] } },
{ "type": "Feature", "properties": { "value": 58.576 }, "geometry": { "type": "Point", "coordinates": [ 129.328705, 35.467075, 60.0 ] } },
{ "type": "Feature", "properties": { "value": 107.72 }, "geometry": { "type": "Point", "coordinates": [ 129.327606, 35.467983, 60.0 ] } },
{ "type": "Feature", "properties": { "value": 67.637 }, "geometry": { "type": "Point", "coordinates": [ 129.328705, 35.467979, 60.0 ] } },
{ "type": "Feature", "properties": { "value": 103.62 }, "geometry": { "type": "Point", "coordinates": [ 129.327606, 35.468884, 60.0 ] } },
{ "type": "Feature", "properties": { "value": 71.74 }, "geometry": { "type": "Point", "coordinates": [ 129.328705, 35.46888, 60.0 ] } },
{ "type": "Feature", "properties": { "value": 2.1699 }, "geometry": { "type": "Point", "coordinates": [ 129.326508, 35.469788, 60.0 ] } },
{ "type": "Feature", "properties": { "value": 100.07 }, "geometry": { "type": "Point", "coordinates": [ 129.327606, 35.469784, 60.0 ] } },
{ "type": "Feature", "properties": { "value": 72.878 }, "geometry": { "type": "Point", "coordinates": [ 129.328705, 35.46978, 60.0 ] } },
{ "type": "Feature", "properties": { "value": 3.3611 }, "geometry": { "type": "Point", "coordinates": [ 129.326508, 35.470688, 60.0 ] } },
{ "type": "Feature", "properties": { "value": 95.369 }, "geometry": { "type": "Point", "coordinates": [ 129.327606, 35.470684, 60.0 ] } },
{ "type": "Feature", "properties": { "value": 69.361 }, "geometry": { "type": "Point", "coordinates": [ 129.32872, 35.470684, 60.0 ] } },
{ "type": "Feature", "properties": { "value": 4.6404 }, "geometry": { "type": "Point", "coordinates": [ 129.326508, 35.471588, 60.0 ] } },
{ "type": "Feature", "properties": { "value": 85.581 }, "geometry": { "type": "Point", "coordinates": [ 129.327621, 35.471588, 60.0 ] } },
{ "type": "Feature", "properties": { "value": 54.79 }, "geometry": { "type": "Point", "coordinates": [ 129.32872, 35.471584, 60.0 ] } },
{ "type": "Feature", "properties": { "value": 1.0122 }, "geometry": { "type": "Point", "coordinates": [ 129.329819, 35.471581, 60.0 ] } },
{ "type": "Feature", "properties": { "value": 5.7096 }, "geometry": { "type": "Point", "coordinates": [ 129.326523, 35.472492, 60.0 ] } },
{ "type": "Feature", "properties": { "value": 68.756 }, "geometry": { "type": "Point", "coordinates": [ 129.327621, 35.472488, 60.0 ] } },
{ "type": "Feature", "properties": { "value": 36.388 }, "geometry": { "type": "Point", "coordinates": [ 129.32872, 35.472485, 60.0 ] } },
{ "type": "Feature", "properties": { "value": 0.9983 }, "geometry": { "type": "Point", "coordinates": [ 129.329819, 35.472481, 60.0 ] } },
{ "type": "Feature", "properties": { "value": 7.4796 }, "geometry": { "type": "Point", "coordinates": [ 129.326523, 35.473392, 60.0 ] } },
{ "type": "Feature", "properties": { "value": 53.925 }, "geometry": { "type": "Point", "coordinates": [ 129.327621, 35.473389, 60.0 ] } },
{ "type": "Feature", "properties": { "value": 30.281 }, "geometry": { "type": "Point", "coordinates": [ 129.32872, 35.473385, 60.0 ] } },
{ "type": "Feature", "properties": { "value": 1.8135 }, "geometry": { "type": "Point", "coordinates": [ 129.329819, 35.473385, 60.0 ] } },
{ "type": "Feature", "properties": { "value": 9.4937 }, "geometry": { "type": "Point", "coordinates": [ 129.326523, 35.474293, 60.0 ] } },
{ "type": "Feature", "properties": { "value": 46.43 }, "geometry": { "type": "Point", "coordinates": [ 129.327621, 35.474289, 60.0 ] } },
{ "type": "Feature", "properties": { "value": 31.021 }, "geometry": { "type": "Point", "coordinates": [ 129.328735, 35.474289, 60.0 ] } },
{ "type": "Feature", "properties": { "value": 3.2374 }, "geometry": { "type": "Point", "coordinates": [ 129.329834, 35.474285, 60.0 ] } },
{ "type": "Feature", "properties": { "value": 10.808 }, "geometry": { "type": "Point", "coordinates": [ 129.326523, 35.475193, 60.0 ] } },
{ "type": "Feature", "properties": { "value": 46.071 }, "geometry": { "type": "Point", "coordinates": [ 129.327637, 35.475193, 60.0 ] } },
{ "type": "Feature", "properties": { "value": 33.113 }, "geometry": { "type": "Point", "coordinates": [ 129.328735, 35.475189, 60.0 ] } },
{ "type": "Feature", "properties": { "value": 4.2706 }, "geometry": { "type": "Point", "coordinates": [ 129.329834, 35.475185, 60.0 ] } },
{ "type": "Feature", "properties": { "value": 0.2007 }, "geometry": { "type": "Point", "coordinates": [ 129.325424, 35.476097, 60.0 ] } },
{ "type": "Feature", "properties": { "value": 13.485 }, "geometry": { "type": "Point", "coordinates": [ 129.326538, 35.476097, 60.0 ] } },
{ "type": "Feature", "properties": { "value": 53.19 }, "geometry": { "type": "Point", "coordinates": [ 129.327637, 35.476093, 60.0 ] } },
{ "type": "Feature", "properties": { "value": 37.013 }, "geometry": { "type": "Point", "coordinates": [ 129.328735, 35.476089, 60.0 ] } },
{ "type": "Feature", "properties": { "value": 4.8162 }, "geometry": { "type": "Point", "coordinates": [ 129.329834, 35.476086, 60.0 ] } },
{ "type": "Feature", "properties": { "value": 1.0609 }, "geometry": { "type": "Point", "coordinates": [ 129.325439, 35.477001, 60.0 ] } },
{ "type": "Feature", "properties": { "value": 19.139 }, "geometry": { "type": "Point", "coordinates": [ 129.326538, 35.476997, 60.0 ] } },
{ "type": "Feature", "properties": { "value": 64.373 }, "geometry": { "type": "Point", "coordinates": [ 129.327637, 35.476994, 60.0 ] } },
{ "type": "Feature", "properties": { "value": 40.376 }, "geometry": { "type": "Point", "coordinates": [ 129.328735, 35.47699, 60.0 ] } },
{ "type": "Feature", "properties": { "value": 4.8774 }, "geometry": { "type": "Point", "coordinates": [ 129.329834, 35.47699, 60.0 ] } },
{ "type": "Feature", "properties": { "value": 2.3126 }, "geometry": { "type": "Point", "coordinates": [ 129.325439, 35.477901, 60.0 ] } },
{ "type": "Feature", "properties": { "value": 27.558 }, "geometry": { "type": "Point", "coordinates": [ 129.326538, 35.477898, 60.0 ] } },
{ "type": "Feature", "properties": { "value": 71.07 }, "geometry": { "type": "Point", "coordinates": [ 129.327637, 35.477894, 60.0 ] } },
{ "type": "Feature", "properties": { "value": 39.131 }, "geometry": { "type": "Point", "coordinates": [ 129.328735, 35.477894, 60.0 ] } },
{ "type": "Feature", "properties": { "value": 4.5725 }, "geometry": { "type": "Point", "coordinates": [ 129.329849, 35.47789, 60.0 ] } },
{ "type": "Feature", "properties": { "value": 4.5543 }, "geometry": { "type": "Point", "coordinates": [ 129.325439, 35.478802, 60.0 ] } },
{ "type": "Feature", "properties": { "value": 36.566 }, "geometry": { "type": "Point", "coordinates": [ 129.326538, 35.478798, 60.0 ] } },
{ "type": "Feature", "properties": { "value": 72.38 }, "geometry": { "type": "Point", "coordinates": [ 129.327637, 35.478798, 60.0 ] } },
{ "type": "Feature", "properties": { "value": 34.904 }, "geometry": { "type": "Point", "coordinates": [ 129.328751, 35.478794, 60.0 ] } },
{ "type": "Feature", "properties": { "value": 3.8828 }, "geometry": { "type": "Point", "coordinates": [ 129.329849, 35.47879, 60.0 ] } },
{ "type": "Feature", "properties": { "value": 7.7213 }, "geometry": { "type": "Point", "coordinates": [ 129.325439, 35.479706, 60.0 ] } },
{ "type": "Feature", "properties": { "value": 44.61 }, "geometry": { "type": "Point", "coordinates": [ 129.326553, 35.479702, 60.0 ] } },
{ "type": "Feature", "properties": { "value": 70.894 }, "geometry": { "type": "Point", "coordinates": [ 129.327652, 35.479698, 60.0 ] } },
{ "type": "Feature", "properties": { "value": 30.157 }, "geometry": { "type": "Point", "coordinates": [ 129.328751, 35.479694, 60.0 ] } },
{ "type": "Feature", "properties": { "value": 3.1998 }, "geometry": { "type": "Point", "coordinates": [ 129.329849, 35.479691, 60.0 ] } },
{ "type": "Feature", "properties": { "value": 0.225 }, "geometry": { "type": "Point", "coordinates": [ 129.324341, 35.48061, 60.0 ] } },
{ "type": "Feature", "properties": { "value": 11.413 }, "geometry": { "type": "Point", "coordinates": [ 129.325455, 35.480606, 60.0 ] } },
{ "type": "Feature", "properties": { "value": 49.918 }, "geometry": { "type": "Point", "coordinates": [ 129.326553, 35.480602, 60.0 ] } },
{ "type": "Feature", "properties": { "value": 65.135 }, "geometry": { "type": "Point", "coordinates": [ 129.327652, 35.480598, 60.0 ] } },
{ "type": "Feature", "properties": { "value": 24.998 }, "geometry": { "type": "Point", "coordinates": [ 129.328751, 35.480595, 60.0 ] } },
{ "type": "Feature", "properties": { "value": 2.5442 }, "geometry": { "type": "Point", "coordinates": [ 129.329849, 35.480595, 60.0 ] } },
{ "type": "Feature", "properties": { "value": 1.3614 }, "geometry": { "type": "Point", "coordinates": [ 129.324356, 35.48151, 60.0 ] } },
{ "type": "Feature", "properties": { "value": 15.312 }, "geometry": { "type": "Point", "coordinates": [ 129.325455, 35.481506, 60.0 ] } },
{ "type": "Feature", "properties": { "value": 52.466 }, "geometry": { "type": "Point", "coordinates": [ 129.326553, 35.481503, 60.0 ] } },
{ "type": "Feature", "properties": { "value": 58.506 }, "geometry": { "type": "Point", "coordinates": [ 129.327652, 35.481503, 60.0 ] } },
{ "type": "Feature", "properties": { "value": 20.235 }, "geometry": { "type": "Point", "coordinates": [ 129.328751, 35.481499, 60.0 ] } },
{ "type": "Feature", "properties": { "value": 1.9209 }, "geometry": { "type": "Point", "coordinates": [ 129.329865, 35.481495, 60.0 ] } },
{ "type": "Feature", "properties": { "value": 2.5708 }, "geometry": { "type": "Point", "coordinates": [ 129.324356, 35.48241, 60.0 ] } },
{ "type": "Feature", "properties": { "value": 20.351 }, "geometry": { "type": "Point", "coordinates": [ 129.325455, 35.482407, 60.0 ] } },
{ "type": "Feature", "properties": { "value": 55.811 }, "geometry": { "type": "Point", "coordinates": [ 129.326553, 35.482407, 60.0 ] } },
{ "type": "Feature", "properties": { "value": 52.761 }, "geometry": { "type": "Point", "coordinates": [ 129.327652, 35.482403, 60.0 ] } },
{ "type": "Feature", "properties": { "value": 16.139 }, "geometry": { "type": "Point", "coordinates": [ 129.328766, 35.482399, 60.0 ] } },
{ "type": "Feature", "properties": { "value": 1.3828 }, "geometry": { "type": "Point", "coordinates": [ 129.329865, 35.482395, 60.0 ] } },
{ "type": "Feature", "properties": { "value": 4.7231 }, "geometry": { "type": "Point", "coordinates": [ 129.324356, 35.483311, 60.0 ] } },
{ "type": "Feature", "properties": { "value": 26.986 }, "geometry": { "type": "Point", "coordinates": [ 129.325455, 35.483311, 60.0 ] } },
{ "type": "Feature", "properties": { "value": 58.731 }, "geometry": { "type": "Point", "coordinates": [ 129.326553, 35.483307, 60.0 ] } },
{ "type": "Feature", "properties": { "value": 45.924 }, "geometry": { "type": "Point", "coordinates": [ 129.327667, 35.483303, 60.0 ] } },
{ "type": "Feature", "properties": { "value": 12.426 }, "geometry": { "type": "Point", "coordinates": [ 129.328766, 35.483299, 60.0 ] } },
{ "type": "Feature", "properties": { "value": 0.9409 }, "geometry": { "type": "Point", "coordinates": [ 129.329865, 35.483295, 60.0 ] } },
{ "type": "Feature", "properties": { "value": 0.5461 }, "geometry": { "type": "Point", "coordinates": [ 129.323257, 35.484215, 60.0 ] } },
{ "type": "Feature", "properties": { "value": 8.1359 }, "geometry": { "type": "Point", "coordinates": [ 129.324356, 35.484215, 60.0 ] } },
{ "type": "Feature", "properties": { "value": 34.541 }, "geometry": { "type": "Point", "coordinates": [ 129.325455, 35.484211, 60.0 ] } },
{ "type": "Feature", "properties": { "value": 58.89 }, "geometry": { "type": "Point", "coordinates": [ 129.326569, 35.484207, 60.0 ] } },
{ "type": "Feature", "properties": { "value": 38.132 }, "geometry": { "type": "Point", "coordinates": [ 129.327667, 35.484203, 60.0 ] } },
{ "type": "Feature", "properties": { "value": 9.1789 }, "geometry": { "type": "Point", "coordinates": [ 129.328766, 35.484203, 60.0 ] } },
{ "type": "Feature", "properties": { "value": 0.4316 }, "geometry": { "type": "Point", "coordinates": [ 129.329865, 35.4842, 60.0 ] } },
{ "type": "Feature", "properties": { "value": 1.7391 }, "geometry": { "type": "Point", "coordinates": [ 129.323257, 35.485119, 60.0 ] } },
{ "type": "Feature", "properties": { "value": 13.38 }, "geometry": { "type": "Point", "coordinates": [ 129.324371, 35.485115, 60.0 ] } },
{ "type": "Feature", "properties": { "value": 42.428 }, "geometry": { "type": "Point", "coordinates": [ 129.32547, 35.485111, 60.0 ] } },
{ "type": "Feature", "properties": { "value": 56.906 }, "geometry": { "type": "Point", "coordinates": [ 129.326569, 35.485107, 60.0 ] } },
{ "type": "Feature", "properties": { "value": 30.772 }, "geometry": { "type": "Point", "coordinates": [ 129.327667, 35.485107, 60.0 ] } },
{ "type": "Feature", "properties": { "value": 6.5519 }, "geometry": { "type": "Point", "coordinates": [ 129.328766, 35.485104, 60.0 ] } },
{ "type": "Feature", "properties": { "value": 0.1373 }, "geometry": { "type": "Point", "coordinates": [ 129.32988, 35.4851, 60.0 ] } },
{ "type": "Feature", "properties": { "value": 3.9721 }, "geometry": { "type": "Point", "coordinates": [ 129.323273, 35.486019, 60.0 ] } },
{ "type": "Feature", "properties": { "value": 21.133 }, "geometry": { "type": "Point", "coordinates": [ 129.324371, 35.486015, 60.0 ] } },
{ "type": "Feature", "properties": { "value": 50.607 }, "geometry": { "type": "Point", "coordinates": [ 129.32547, 35.486012, 60.0 ] } },
{ "type": "Feature", "properties": { "value": 53.529 }, "geometry": { "type": "Point", "coordinates": [ 129.326569, 35.486012, 60.0 ] } },
{ "type": "Feature", "properties": { "value": 24.171 }, "geometry": { "type": "Point", "coordinates": [ 129.327667, 35.486008, 60.0 ] } },
{ "type": "Feature", "properties": { "value": 4.4602 }, "geometry": { "type": "Point", "coordinates": [ 129.328781, 35.486004, 60.0 ] } },
{ "type": "Feature", "properties": { "value": 0.8677 }, "geometry": { "type": "Point", "coordinates": [ 129.322174, 35.486923, 60.0 ] } },
{ "type": "Feature", "properties": { "value": 8.0387 }, "geometry": { "type": "Point", "coordinates": [ 129.323273, 35.486919, 60.0 ] } },
{ "type": "Feature", "properties": { "value": 31.208 }, "geometry": { "type": "Point", "coordinates": [ 129.324371, 35.486916, 60.0 ] } },
{ "type": "Feature", "properties": { "value": 57.033 }, "geometry": { "type": "Point", "coordinates": [ 129.32547, 35.486916, 60.0 ] } },
{ "type": "Feature", "properties": { "value": 48.084 }, "geometry": { "type": "Point", "coordinates": [ 129.326569, 35.486912, 60.0 ] } },
{ "type": "Feature", "properties": { "value": 18.095 }, "geometry": { "type": "Point", "coordinates": [ 129.327682, 35.486908, 60.0 ] } },
{ "type": "Feature", "properties": { "value": 2.8503 }, "geometry": { "type": "Point", "coordinates": [ 129.328781, 35.486904, 60.0 ] } },
{ "type": "Feature", "properties": { "value": 2.5049 }, "geometry": { "type": "Point", "coordinates": [ 129.322174, 35.487823, 60.0 ] } },
{ "type": "Feature", "properties": { "value": 14.621 }, "geometry": { "type": "Point", "coordinates": [ 129.323273, 35.48782, 60.0 ] } },
{ "type": "Feature", "properties": { "value": 41.975 }, "geometry": { "type": "Point", "coordinates": [ 129.324371, 35.48782, 60.0 ] } },
{ "type": "Feature", "properties": { "value": 59.472 }, "geometry": { "type": "Point", "coordinates": [ 129.32547, 35.487816, 60.0 ] } },
{ "type": "Feature", "properties": { "value": 40.544 }, "geometry": { "type": "Point", "coordinates": [ 129.326584, 35.487812, 60.0 ] } },
{ "type": "Feature", "properties": { "value": 12.816 }, "geometry": { "type": "Point", "coordinates": [ 129.327682, 35.487808, 60.0 ] } },
{ "type": "Feature", "properties": { "value": 1.7077 }, "geometry": { "type": "Point", "coordinates": [ 129.328781, 35.487808, 60.0 ] } },
{ "type": "Feature", "properties": { "value": 0.448 }, "geometry": { "type": "Point", "coordinates": [ 129.321075, 35.488728, 60.0 ] } },
{ "type": "Feature", "properties": { "value": 5.5974 }, "geometry": { "type": "Point", "coordinates": [ 129.322174, 35.488728, 60.0 ] } },
{ "type": "Feature", "properties": { "value": 23.355 }, "geometry": { "type": "Point", "coordinates": [ 129.323273, 35.488724, 60.0 ] } },
{ "type": "Feature", "properties": { "value": 51.182 }, "geometry": { "type": "Point", "coordinates": [ 129.324371, 35.48872, 60.0 ] } },
{ "type": "Feature", "properties": { "value": 57.38 }, "geometry": { "type": "Point", "coordinates": [ 129.325485, 35.488716, 60.0 ] } },
{ "type": "Feature", "properties": { "value": 31.93 }, "geometry": { "type": "Point", "coordinates": [ 129.326584, 35.488712, 60.0 ] } },
{ "type": "Feature", "properties": { "value": 8.5221 }, "geometry": { "type": "Point", "coordinates": [ 129.327682, 35.488712, 60.0 ] } },
{ "type": "Feature", "properties": { "value": 0.8736 }, "geometry": { "type": "Point", "coordinates": [ 129.328781, 35.488708, 60.0 ] } },
{ "type": "Feature", "properties": { "value": 1.8967 }, "geometry": { "type": "Point", "coordinates": [ 129.321075, 35.489632, 60.0 ] } },
{ "type": "Feature", "properties": { "value": 10.795 }, "geometry": { "type": "Point", "coordinates": [ 129.322174, 35.489628, 60.0 ] } },
{ "type": "Feature", "properties": { "value": 33.108 }, "geometry": { "type": "Point", "coordinates": [ 129.323273, 35.489624, 60.0 ] } },
{ "type": "Feature", "properties": { "value": 55.979 }, "geometry": { "type": "Point", "coordinates": [ 129.324387, 35.48962, 60.0 ] } },
{ "type": "Feature", "properties": { "value": 50.186 }, "geometry": { "type": "Point", "coordinates": [ 129.325485, 35.489616, 60.0 ] } },
{ "type": "Feature", "properties": { "value": 23.055 }, "geometry": { "type": "Point", "coordinates": [ 129.326584, 35.489616, 60.0 ] } },
{ "type": "Feature", "properties": { "value": 5.1779 }, "geometry": { "type": "Point", "coordinates": [ 129.327682, 35.489613, 60.0 ] } },
{ "type": "Feature", "properties": { "value": 0.1718 }, "geometry": { "type": "Point", "coordinates": [ 129.328796, 35.489609, 60.0 ] } },
{ "type": "Feature", "properties": { "value": 0.461 }, "geometry": { "type": "Point", "coordinates": [ 129.319977, 35.490536, 60.0 ] } },
{ "type": "Feature", "properties": { "value": 4.7463 }, "geometry": { "type": "Point", "coordinates": [ 129.321075, 35.490532, 60.0 ] } },
{ "type": "Feature", "properties": { "value": 18.587 }, "geometry": { "type": "Point", "coordinates": [ 129.322174, 35.490528, 60.0 ] } },
{ "type": "Feature", "properties": { "value": 42.644 }, "geometry": { "type": "Point", "coordinates": [ 129.323288, 35.490524, 60.0 ] } },
{ "type": "Feature", "properties": { "value": 55.547 }, "geometry": { "type": "Point", "coordinates": [ 129.324387, 35.490524, 60.0 ] } },
{ "type": "Feature", "properties": { "value": 39.722 }, "geometry": { "type": "Point", "coordinates": [ 129.325485, 35.49052, 60.0 ] } },
{ "type": "Feature", "properties": { "value": 15.064 }, "geometry": { "type": "Point", "coordinates": [ 129.326584, 35.490517, 60.0 ] } },
{ "type": "Feature", "properties": { "value": 2.814 }, "geometry": { "type": "Point", "coordinates": [ 129.327698, 35.490513, 60.0 ] } },
{ "type": "Feature", "properties": { "value": 2.1207 }, "geometry": { "type": "Point", "coordinates": [ 129.319977, 35.491436, 60.0 ] } },
{ "type": "Feature", "properties": { "value": 10.047 }, "geometry": { "type": "Point", "coordinates": [ 129.321091, 35.491432, 60.0 ] } },
{ "type": "Feature", "properties": { "value": 28.837 }, "geometry": { "type": "Point", "coordinates": [ 129.322189, 35.491428, 60.0 ] } },
{ "type": "Feature", "properties": { "value": 49.963 }, "geometry": { "type": "Point", "coordinates": [ 129.323288, 35.491428, 60.0 ] } },
{ "type": "Feature", "properties": { "value": 50.625 }, "geometry": { "type": "Point", "coordinates": [ 129.324387, 35.491425, 60.0 ] } },
{ "type": "Feature", "properties": { "value": 28.98 }, "geometry": { "type": "Point", "coordinates": [ 129.325485, 35.491421, 60.0 ] } },
{ "type": "Feature", "properties": { "value": 8.9995 }, "geometry": { "type": "Point", "coordinates": [ 129.326599, 35.491417, 60.0 ] } },
{ "type": "Feature", "properties": { "value": 1.3142 }, "geometry": { "type": "Point", "coordinates": [ 129.327698, 35.491413, 60.0 ] } },
{ "type": "Feature", "properties": { "value": 0.9557 }, "geometry": { "type": "Point", "coordinates": [ 129.318878, 35.49234, 60.0 ] } },
{ "type": "Feature", "properties": { "value": 5.5661 }, "geometry": { "type": "Point", "coordinates": [ 129.319992, 35.492336, 60.0 ] } },
{ "type": "Feature", "properties": { "value": 18.583 }, "geometry": { "type": "Point", "coordinates": [ 129.321091, 35.492332, 60.0 ] } },
{ "type": "Feature", "properties": { "value": 39.746 }, "geometry": { "type": "Point", "coordinates": [ 129.322189, 35.492332, 60.0 ] } },
{ "type": "Feature", "properties": { "value": 52.806 }, "geometry": { "type": "Point", "coordinates": [ 129.323288, 35.492329, 60.0 ] } },
{ "type": "Feature", "properties": { "value": 42.098 }, "geometry": { "type": "Point", "coordinates": [ 129.324387, 35.492325, 60.0 ] } },
{ "type": "Feature", "properties": { "value": 19.359 }, "geometry": { "type": "Point", "coordinates": [ 129.3255, 35.492321, 60.0 ] } },
{ "type": "Feature", "properties": { "value": 4.9229 }, "geometry": { "type": "Point", "coordinates": [ 129.326599, 35.492317, 60.0 ] } },
{ "type": "Feature", "properties": { "value": 0.3643 }, "geometry": { "type": "Point", "coordinates": [ 129.327698, 35.492317, 60.0 ] } },
{ "type": "Feature", "properties": { "value": 0.3756 }, "geometry": { "type": "Point", "coordinates": [ 129.31778, 35.493244, 60.0 ] } },
{ "type": "Feature", "properties": { "value": 3.3132 }, "geometry": { "type": "Point", "coordinates": [ 129.318893, 35.49324, 60.0 ] } },
{ "type": "Feature", "properties": { "value": 12.102 }, "geometry": { "type": "Point", "coordinates": [ 129.319992, 35.493237, 60.0 ] } },
{ "type": "Feature", "properties": { "value": 29.717 }, "geometry": { "type": "Point", "coordinates": [ 129.321091, 35.493237, 60.0 ] } },
{ "type": "Feature", "properties": { "value": 48.217 }, "geometry": { "type": "Point", "coordinates": [ 129.322189, 35.493233, 60.0 ] } },
{ "type": "Feature", "properties": { "value": 49.728 }, "geometry": { "type": "Point", "coordinates": [ 129.323288, 35.493229, 60.0 ] } },
{ "type": "Feature", "properties": { "value": 31.436 }, "geometry": { "type": "Point", "coordinates": [ 129.324402, 35.493225, 60.0 ] } },
{ "type": "Feature", "properties": { "value": 11.666 }, "geometry": { "type": "Point", "coordinates": [ 129.3255, 35.493225, 60.0 ] } },
{ "type": "Feature", "properties": { "value": 2.3906 }, "geometry": { "type": "Point", "coordinates": [ 129.326599, 35.493221, 60.0 ] } },
{ "type": "Feature", "properties": { "value": 2.1792 }, "geometry": { "type": "Point", "coordinates": [ 129.317795, 35.494144, 60.0 ] } },
{ "type": "Feature", "properties": { "value": 8.3685 }, "geometry": { "type": "Point", "coordinates": [ 129.318893, 35.494141, 60.0 ] } },
{ "type": "Feature", "properties": { "value": 22.216 }, "geometry": { "type": "Point", "coordinates": [ 129.319992, 35.494141, 60.0 ] } },
{ "type": "Feature", "properties": { "value": 41.086 }, "geometry": { "type": "Point", "coordinates": [ 129.321091, 35.494137, 60.0 ] } },
{ "type": "Feature", "properties": { "value": 51.161 }, "geometry": { "type": "Point", "coordinates": [ 129.322189, 35.494133, 60.0 ] } },
{ "type": "Feature", "properties": { "value": 41.318 }, "geometry": { "type": "Point", "coordinates": [ 129.323303, 35.494129, 60.0 ] } },
{ "type": "Feature", "properties": { "value": 20.856 }, "geometry": { "type": "Point", "coordinates": [ 129.324402, 35.494129, 60.0 ] } },
{ "type": "Feature", "properties": { "value": 6.2905 }, "geometry": { "type": "Point", "coordinates": [ 129.3255, 35.494125, 60.0 ] } },
{ "type": "Feature", "properties": { "value": 0.9547 }, "geometry": { "type": "Point", "coordinates": [ 129.326599, 35.494122, 60.0 ] } },
{ "type": "Feature", "properties": { "value": 1.603 }, "geometry": { "type": "Point", "coordinates": [ 129.316696, 35.495049, 60.0 ] } },
{ "type": "Feature", "properties": { "value": 6.2387 }, "geometry": { "type": "Point", "coordinates": [ 129.317795, 35.495045, 60.0 ] } },
{ "type": "Feature", "properties": { "value": 17.206 }, "geometry": { "type": "Point", "coordinates": [ 129.318893, 35.495045, 60.0 ] } },
{ "type": "Feature", "properties": { "value": 34.499 }, "geometry": { "type": "Point", "coordinates": [ 129.319992, 35.495041, 60.0 ] } },
{ "type": "Feature", "properties": { "value": 48.866 }, "geometry": { "type": "Point", "coordinates": [ 129.321091, 35.495037, 60.0 ] } },
{ "type": "Feature", "properties": { "value": 47.204 }, "geometry": { "type": "Point", "coordinates": [ 129.322205, 35.495033, 60.0 ] } },
{ "type": "Feature", "properties": { "value": 30.063 }, "geometry": { "type": "Point", "coordinates": [ 129.323303, 35.495033, 60.0 ] } },
{ "type": "Feature", "properties": { "value": 12.18 }, "geometry": { "type": "Point", "coordinates": [ 129.324402, 35.495029, 60.0 ] } },
{ "type": "Feature", "properties": { "value": 2.9553 }, "geometry": { "type": "Point", "coordinates": [ 129.3255, 35.495026, 60.0 ] } },
{ "type": "Feature", "properties": { "value": 0.102 }, "geometry": { "type": "Point", "coordinates": [ 129.326614, 35.495022, 60.0 ] } },
{ "type": "Feature", "properties": { "value": 1.3557 }, "geometry": { "type": "Point", "coordinates": [ 129.315598, 35.495953, 60.0 ] } },
{ "type": "Feature", "properties": { "value": 5.1018 }, "geometry": { "type": "Point", "coordinates": [ 129.316696, 35.495949, 60.0 ] } },
{ "type": "Feature", "properties": { "value": 14.027 }, "geometry": { "type": "Point", "coordinates": [ 129.317795, 35.495949, 60.0 ] } },
{ "type": "Feature", "properties": { "value": 29.272 }, "geometry": { "type": "Point", "coordinates": [ 129.318893, 35.495945, 60.0 ] } },
{ "type": "Feature", "properties": { "value": 45.197 }, "geometry": { "type": "Point", "coordinates": [ 129.319992, 35.495941, 60.0 ] } },
{ "type": "Feature", "properties": { "value": 49.703 }, "geometry": { "type": "Point", "coordinates": [ 129.321106, 35.495937, 60.0 ] } },
{ "type": "Feature", "properties": { "value": 37.71 }, "geometry": { "type": "Point", "coordinates": [ 129.322205, 35.495937, 60.0 ] } },
{ "type": "Feature", "properties": { "value": 19.07 }, "geometry": { "type": "Point", "coordinates": [ 129.323303, 35.495934, 60.0 ] } },
{ "type": "Feature", "properties": { "value": 6.1989 }, "geometry": { "type": "Point", "coordinates": [ 129.324402, 35.49593, 60.0 ] } },
{ "type": "Feature", "properties": { "value": 1.1101 }, "geometry": { "type": "Point", "coordinates": [ 129.325516, 35.495926, 60.0 ] } },
{ "type": "Feature", "properties": { "value": 1.4306 }, "geometry": { "type": "Point", "coordinates": [ 129.314499, 35.496857, 60.0 ] } },
{ "type": "Feature", "properties": { "value": 4.7593 }, "geometry": { "type": "Point", "coordinates": [ 129.315598, 35.496857, 60.0 ] } },
{ "type": "Feature", "properties": { "value": 12.419 }, "geometry": { "type": "Point", "coordinates": [ 129.316696, 35.496853, 60.0 ] } },
{ "type": "Feature", "properties": { "value": 25.82 }, "geometry": { "type": "Point", "coordinates": [ 129.317795, 35.496849, 60.0 ] } },
{ "type": "Feature", "properties": { "value": 41.559 }, "geometry": { "type": "Point", "coordinates": [ 129.318893, 35.496845, 60.0 ] } },
{ "type": "Feature", "properties": { "value": 49.893 }, "geometry": { "type": "Point", "coordinates": [ 129.320007, 35.496841, 60.0 ] } },
{ "type": "Feature", "properties": { "value": 43.155 }, "geometry": { "type": "Point", "coordinates": [ 129.321106, 35.496841, 60.0 ] } },
{ "type": "Feature", "properties": { "value": 25.943 }, "geometry": { "type": "Point", "coordinates": [ 129.322205, 35.496838, 60.0 ] } },
{ "type": "Feature", "properties": { "value": 10.465 }, "geometry": { "type": "Point", "coordinates": [ 129.323303, 35.496834, 60.0 ] } },
{ "type": "Feature", "properties": { "value": 2.6909 }, "geometry": { "type": "Point", "coordinates": [ 129.324417, 35.49683, 60.0 ] } },
{ "type": "Feature", "properties": { "value": 0.0923 }, "geometry": { "type": "Point", "coordinates": [ 129.325516, 35.49683, 60.0 ] } },
{ "type": "Feature", "properties": { "value": 0.3556 }, "geometry": { "type": "Point", "coordinates": [ 129.312286, 35.497765, 60.0 ] } },
{ "type": "Feature", "properties": { "value": 1.6642 }, "geometry": { "type": "Point", "coordinates": [ 129.3134, 35.497761, 60.0 ] } },
{ "type": "Feature", "properties": { "value": 4.9651 }, "geometry": { "type": "Point", "coordinates": [ 129.314499, 35.497761, 60.0 ] } },
{ "type": "Feature", "properties": { "value": 12.052 }, "geometry": { "type": "Point", "coordinates": [ 129.315598, 35.497757, 60.0 ] } },
{ "type": "Feature", "properties": { "value": 24.245 }, "geometry": { "type": "Point", "coordinates": [ 129.316696, 35.497753, 60.0 ] } },
{ "type": "Feature", "properties": { "value": 39.084 }, "geometry": { "type": "Point", "coordinates": [ 129.317795, 35.497749, 60.0 ] } },
{ "type": "Feature", "properties": { "value": 49.099 }, "geometry": { "type": "Point", "coordinates": [ 129.318909, 35.497749, 60.0 ] } },
{ "type": "Feature", "properties": { "value": 46.446 }, "geometry": { "type": "Point", "coordinates": [ 129.320007, 35.497746, 60.0 ] } },
{ "type": "Feature", "properties": { "value": 31.862 }, "geometry": { "type": "Point", "coordinates": [ 129.321106, 35.497742, 60.0 ] } },
{ "type": "Feature", "properties": { "value": 15.203 }, "geometry": { "type": "Point", "coordinates": [ 129.322205, 35.497738, 60.0 ] } },
{ "type": "Feature", "properties": { "value": 4.958 }, "geometry": { "type": "Point", "coordinates": [ 129.323318, 35.497734, 60.0 ] } },
{ "type": "Feature", "properties": { "value": 0.9234 }, "geometry": { "type": "Point", "coordinates": [ 129.324417, 35.497734, 60.0 ] } },
{ "type": "Feature", "properties": { "value": 0.3635 }, "geometry": { "type": "Point", "coordinates": [ 129.311188, 35.498669, 60.0 ] } },
{ "type": "Feature", "properties": { "value": 1.5969 }, "geometry": { "type": "Point", "coordinates": [ 129.312302, 35.498665, 60.0 ] } },
{ "type": "Feature", "properties": { "value": 4.9207 }, "geometry": { "type": "Point", "coordinates": [ 129.3134, 35.498665, 60.0 ] } },
{ "type": "Feature", "properties": { "value": 11.974 }, "geometry": { "type": "Point", "coordinates": [ 129.314499, 35.498661, 60.0 ] } },
{ "type": "Feature", "properties": { "value": 23.78 }, "geometry": { "type": "Point", "coordinates": [ 129.315598, 35.498657, 60.0 ] } },
{ "type": "Feature", "properties": { "value": 38.033 }, "geometry": { "type": "Point", "coordinates": [ 129.316696, 35.498653, 60.0 ] } },
{ "type": "Feature", "properties": { "value": 48.596 }, "geometry": { "type": "Point", "coordinates": [ 129.31781, 35.498653, 60.0 ] } },
{ "type": "Feature", "properties": { "value": 47.587 }, "geometry": { "type": "Point", "coordinates": [ 129.318909, 35.49865, 60.0 ] } },
{ "type": "Feature", "properties": { "value": 36.378 }, "geometry": { "type": "Point", "coordinates": [ 129.320007, 35.498646, 60.0 ] } },
{ "type": "Feature", "properties": { "value": 19.723 }, "geometry": { "type": "Point", "coordinates": [ 129.321106, 35.498642, 60.0 ] } },
{ "type": "Feature", "properties": { "value": 7.5994 }, "geometry": { "type": "Point", "coordinates": [ 129.32222, 35.498638, 60.0 ] } },
{ "type": "Feature", "properties": { "value": 1.9556 }, "geometry": { "type": "Point", "coordinates": [ 129.323318, 35.498638, 60.0 ] } },
{ "type": "Feature", "properties": { "value": 0.191 }, "geometry": { "type": "Point", "coordinates": [ 129.310089, 35.499573, 60.0 ] } },
{ "type": "Feature", "properties": { "value": 1.086 }, "geometry": { "type": "Point", "coordinates": [ 129.311203, 35.499569, 60.0 ] } },
{ "type": "Feature", "properties": { "value": 3.8509 }, "geometry": { "type": "Point", "coordinates": [ 129.312302, 35.499569, 60.0 ] } },
{ "type": "Feature", "properties": { "value": 10.383 }, "geometry": { "type": "Point", "coordinates": [ 129.3134, 35.499565, 60.0 ] } },
{ "type": "Feature", "properties": { "value": 21.922 }, "geometry": { "type": "Point", "coordinates": [ 129.314499, 35.499561, 60.0 ] } },
{ "type": "Feature", "properties": { "value": 36.474 }, "geometry": { "type": "Point", "coordinates": [ 129.315598, 35.499557, 60.0 ] } },
{ "type": "Feature", "properties": { "value": 47.644 }, "geometry": { "type": "Point", "coordinates": [ 129.316711, 35.499557, 60.0 ] } },
{ "type": "Feature", "properties": { "value": 48.542 }, "geometry": { "type": "Point", "coordinates": [ 129.31781, 35.499554, 60.0 ] } },
{ "type": "Feature", "properties": { "value": 37.9 }, "geometry": { "type": "Point", "coordinates": [ 129.318909, 35.49955, 60.0 ] } },
{ "type": "Feature", "properties": { "value": 23.552 }, "geometry": { "type": "Point", "coordinates": [ 129.320007, 35.499546, 60.0 ] } },
{ "type": "Feature", "properties": { "value": 10.2 }, "geometry": { "type": "Point", "coordinates": [ 129.321121, 35.499546, 60.0 ] } },
{ "type": "Feature", "properties": { "value": 3.2012 }, "geometry": { "type": "Point", "coordinates": [ 129.32222, 35.499542, 60.0 ] } },
{ "type": "Feature", "properties": { "value": 0.5106 }, "geometry": { "type": "Point", "coordinates": [ 129.323318, 35.499538, 60.0 ] } },
{ "type": "Feature", "properties": { "value": 0.0222 }, "geometry": { "type": "Point", "coordinates": [ 129.30899, 35.500477, 60.0 ] } },
{ "type": "Feature", "properties": { "value": 0.4221 }, "geometry": { "type": "Point", "coordinates": [ 129.310104, 35.500473, 60.0 ] } },
{ "type": "Feature", "properties": { "value": 1.9798 }, "geometry": { "type": "Point", "coordinates": [ 129.311203, 35.500473, 60.0 ] } },
{ "type": "Feature", "properties": { "value": 6.5445 }, "geometry": { "type": "Point", "coordinates": [ 129.312302, 35.500469, 60.0 ] } },
{ "type": "Feature", "properties": { "value": 16.065 }, "geometry": { "type": "Point", "coordinates": [ 129.3134, 35.500465, 60.0 ] } },
{ "type": "Feature", "properties": { "value": 29.675 }, "geometry": { "type": "Point", "coordinates": [ 129.314499, 35.500462, 60.0 ] } },
{ "type": "Feature", "properties": { "value": 42.199 }, "geometry": { "type": "Point", "coordinates": [ 129.315613, 35.500462, 60.0 ] } },
{ "type": "Feature", "properties": { "value": 46.105 }, "geometry": { "type": "Point", "coordinates": [ 129.316711, 35.500458, 60.0 ] } },
{ "type": "Feature", "properties": { "value": 38.397 }, "geometry": { "type": "Point", "coordinates": [ 129.31781, 35.500454, 60.0 ] } },
{ "type": "Feature", "properties": { "value": 24.85 }, "geometry": { "type": "Point", "coordinates": [ 129.318909, 35.50045, 60.0 ] } },
{ "type": "Feature", "properties": { "value": 12.464 }, "geometry": { "type": "Point", "coordinates": [ 129.320023, 35.50045, 60.0 ] } },
{ "type": "Feature", "properties": { "value": 4.413 }, "geometry": { "type": "Point", "coordinates": [ 129.321121, 35.500446, 60.0 ] } },
{ "type": "Feature", "properties": { "value": 1.0816 }, "geometry": { "type": "Point", "coordinates": [ 129.32222, 35.500443, 60.0 ] } },
{ "type": "Feature", "properties": { "value": 0.0542 }, "geometry": { "type": "Point", "coordinates": [ 129.309006, 35.501377, 60.0 ] } },
{ "type": "Feature", "properties": { "value": 0.5504 }, "geometry": { "type": "Point", "coordinates": [ 129.310104, 35.501377, 60.0 ] } },
{ "type": "Feature", "properties": { "value": 2.4621 }, "geometry": { "type": "Point", "coordinates": [ 129.311203, 35.501373, 60.0 ] } },
{ "type": "Feature", "properties": { "value": 7.739 }, "geometry": { "type": "Point", "coordinates": [ 129.312302, 35.501369, 60.0 ] } },
{ "type": "Feature", "properties": { "value": 17.579 }, "geometry": { "type": "Point", "coordinates": [ 129.3134, 35.501366, 60.0 ] } },
{ "type": "Feature", "properties": { "value": 29.385 }, "geometry": { "type": "Point", "coordinates": [ 129.314514, 35.501366, 60.0 ] } },
{ "type": "Feature", "properties": { "value": 36.712 }, "geometry": { "type": "Point", "coordinates": [ 129.315613, 35.501362, 60.0 ] } },
{ "type": "Feature", "properties": { "value": 34.304 }, "geometry": { "type": "Point", "coordinates": [ 129.316711, 35.501358, 60.0 ] } },
{ "type": "Feature", "properties": { "value": 24.212 }, "geometry": { "type": "Point", "coordinates": [ 129.31781, 35.501354, 60.0 ] } },
{ "type": "Feature", "properties": { "value": 13.525 }, "geometry": { "type": "Point", "coordinates": [ 129.318924, 35.501354, 60.0 ] } },
{ "type": "Feature", "properties": { "value": 5.4201 }, "geometry": { "type": "Point", "coordinates": [ 129.320023, 35.50135, 60.0 ] } },
{ "type": "Feature", "properties": { "value": 1.5553 }, "geometry": { "type": "Point", "coordinates": [ 129.321121, 35.501347, 60.0 ] } }
]
}
