{
"type": "FeatureCollection",
"features": [
{ "type": "Feature", "properties": { "value": 0.0 }, "geometry": { "type": "Point", "coordinates": [ 129.342056, 35.499485, 1250.0 ] } },
{ "type": "Feature", "properties": { "value": 0.0 }, "geometry": { "type": "Point", "coordinates": [ 129.343155, 35.499485, 1250.0 ] } },
{ "type": "Feature", "properties": { "value": 0.0 }, "geometry": { "type": "Point", "coordinates": [ 129.344254, 35.499481, 1250.0 ] } },
{ "type": "Feature", "properties": { "value": 0.0 }, "geometry": { "type": "Point", "coordinates": [ 129.345367, 35.499477, 1250.0 ] } },
{ "type": "Feature", "properties": { "value": 0.0 }, "geometry": { "type": "Point", "coordinates": [ 129.346466, 35.499474, 1250.0 ] } },
{ "type": "Feature", "properties": { "value": 0.0 }, "geometry": { "type": "Point", "coordinates": [ 129.347565, 35.49947, 1250.0 ] } },
{ "type": "Feature", "properties": { "value": 0.0 }, "geometry": { "type": "Point", "coordinates": [ 129.342056, 35.500389, 1250.0 ] } },
{ "type": "Feature", "properties": { "value": 0.0 }, "geometry": { "type": "Point", "coordinates": [ 129.343155, 35.500385, 1250.0 ] } },
{ "type": "Feature", "properties": { "value": 0.0 }, "geometry": { "type": "Point", "coordinates": [ 129.344269, 35.500381, 1250.0 ] } },
{ "type": "Feature", "properties": { "value": 0.0 }, "geometry": { "type": "Point", "coordinates": [ 129.345367, 35.500378, 1250.0 ] } },
{ "type": "Feature", "properties": { "value": 0.0 }, "geometry": { "type": "Point", "coordinates": [ 129.346466, 35.500374, 1250.0 ] } },
{ "type": "Feature", "properties": { "value": 0.0 }, "geometry": { "type": "Point", "coordinates": [ 129.347565, 35.500374, 1250.0 ] } },
{ "type": "Feature", "properties": { "value": 0.0 }, "geometry": { "type": "Point", "coordinates": [ 129.348679, 35.50037, 1250.0 ] } },
{ "type": "Feature", "properties": { "value": 0.0 }, "geometry": { "type": "Point", "coordinates": [ 129.34317, 35.501286, 1250.0 ] } },
{ "type": "Feature", "properties": { "value": 0.0 }, "geometry": { "type": "Point", "coordinates": [ 129.344269, 35.501282, 1250.0 ] } },
{ "type": "Feature", "properties": { "value": 0.0 }, "geometry": { "type": "Point", "coordinates": [ 129.345367, 35.501278, 1250.0 ] } },
{ "type": "Feature", "properties": { "value": 0.0 }, "geometry": { "type": "Point", "coordinates": [ 129.346466, 35.501278, 1250.0 ] } },
{ "type": "Feature", "properties": { "value": 0.0 }, "geometry": { "type": "Point", "coordinates": [ 129.34758, 35.501274, 1250.0 ] } },
{ "type": "Feature", "properties": { "value": 0.0 }, "geometry": { "type": "Point", "coordinates": [ 129.348679, 35.50127, 1250.0 ] } }
]
}
