{
"type": "FeatureCollection",
"features": [
{ "type": "Feature", "properties": { "value": 0.013 }, "geometry": { "type": "Point", "coordinates": [ 129.32756, 35.458969, 60.0 ] } },
{ "type": "Feature", "properties": { "value": 14.687 }, "geometry": { "type": "Point", "coordinates": [ 129.32756, 35.459869, 60.0 ] } },
{ "type": "Feature", "properties": { "value": 380.53 }, "geometry": { "type": "Point", "coordinates": [ 129.327576, 35.46077, 60.0 ] } },
{ "type": "Feature", "properties": { "value": 0.2689 }, "geometry": { "type": "Point", "coordinates": [ 129.326477, 35.461674, 60.0 ] } },
{ "type": "Feature", "properties": { "value": 695.3 }, "geometry": { "type": "Point", "coordinates": [ 129.327576, 35.461674, 60.0 ] } },
{ "type": "Feature", "properties": { "value": 11.843 }, "geometry": { "type": "Point", "coordinates": [ 129.326477, 35.462578, 60.0 ] } },
{ "type": "Feature", "properties": { "value": 602.96 }, "geometry": { "type": "Point", "coordinates": [ 129.327576, 35.462574, 60.0 ] } },
{ "type": "Feature", "properties": { "value": 39.74 }, "geometry": { "type": "Point", "coordinates": [ 129.326477, 35.463478, 60.0 ] } },
{ "type": "Feature", "properties": { "value": 309.78 }, "geometry": { "type": "Point", "coordinates": [ 129.327576, 35.463474, 60.0 ] } },
{ "type": "Feature", "properties": { "value": 6.0951 }, "geometry": { "type": "Point", "coordinates": [ 129.32869, 35.46347, 60.0 ] } },
{ "type": "Feature", "properties": { "value": 0.4642 }, "geometry": { "type": "Point", "coordinates": [ 129.325378, 35.464382, 60.0 ] } },
{ "type": "Feature", "properties": { "value": 73.583 }, "geometry": { "type": "Point", "coordinates": [ 129.326477, 35.464378, 60.0 ] } },
{ "type": "Feature", "properties": { "value": 155.07 }, "geometry": { "type": "Point", "coordinates": [ 129.327591, 35.464375, 60.0 ] } },
{ "type": "Feature", "properties": { "value": 8.9787 }, "geometry": { "type": "Point", "coordinates": [ 129.32869, 35.464375, 60.0 ] } },
{ "type": "Feature", "properties": { "value": 5.3499 }, "geometry": { "type": "Point", "coordinates": [ 129.325394, 35.465282, 60.0 ] } },
{ "type": "Feature", "properties": { "value": 105.23 }, "geometry": { "type": "Point", "coordinates": [ 129.326492, 35.465279, 60.0 ] } },
{ "type": "Feature", "properties": { "value": 167.54 }, "geometry": { "type": "Point", "coordinates": [ 129.327591, 35.465279, 60.0 ] } },
{ "type": "Feature", "properties": { "value": 22.892 }, "geometry": { "type": "Point", "coordinates": [ 129.32869, 35.465275, 60.0 ] } },
{ "type": "Feature", "properties": { "value": 11.569 }, "geometry": { "type": "Point", "coordinates": [ 129.325394, 35.466187, 60.0 ] } },
{ "type": "Feature", "properties": { "value": 113.24 }, "geometry": { "type": "Point", "coordinates": [ 129.326492, 35.466183, 60.0 ] } },
{ "type": "Feature", "properties": { "value": 166.13 }, "geometry": { "type": "Point", "coordinates": [ 129.327591, 35.466179, 60.0 ] } },
{ "type": "Feature", "properties": { "value": 38.726 }, "geometry": { "type": "Point", "coordinates": [ 129.32869, 35.466175, 60.0 ] } },
{ "type": "Feature", "properties": { "value": 0.9726 }, "geometry": { "type": "Point", "coordinates": [ 129.329803, 35.466171, 60.0 ] } },
{ "type": "Feature", "properties": { "value": 16.225 }, "geometry": { "type": "Point", "coordinates": [ 129.325394, 35.467087, 60.0 ] } },
{ "type": "Feature", "properties": { "value": 104.26 }, "geometry": { "type": "Point", "coordinates": [ 129.326492, 35.467083, 60.0 ] } },
{ "type": "Feature", "properties": { "value": 150.8 }, "geometry": { "type": "Point", "coordinates": [ 129.327591, 35.467079, 60.0 ] } },
{ "type": "Feature", "properties": { "value": 50.959 }, "geometry": { "type": "Point", "coordinates": [ 129.328705, 35.467075, 60.0 ] } },
{ "type": "Feature", "properties": { "value": 4.6704 }, "geometry": { "type": "Point", "coordinates": [ 129.329803, 35.467075, 60.0 ] } },
{ "type": "Feature", "properties": { "value": 0.3109 }, "geometry": { "type": "Point", "coordinates": [ 129.324295, 35.467991, 60.0 ] } },
{ "type": "Feature", "properties": { "value": 18.774 }, "geometry": { "type": "Point", "coordinates": [ 129.325394, 35.467987, 60.0 ] } },
{ "type": "Feature", "properties": { "value": 90.915 }, "geometry": { "type": "Point", "coordinates": [ 129.326492, 35.467983, 60.0 ] } },
{ "type": "Feature", "properties": { "value": 133.45 }, "geometry": { "type": "Point", "coordinates": [ 129.327606, 35.467983, 60.0 ] } },
{ "type": "Feature", "properties": { "value": 60.562 }, "geometry": { "type": "Point", "coordinates": [ 129.328705, 35.467979, 60.0 ] } },
{ "type": "Feature", "properties": { "value": 9.7008 }, "geometry": { "type": "Point", "coordinates": [ 129.329803, 35.467976, 60.0 ] } },
{ "type": "Feature", "properties": { "value": 0.1176 }, "geometry": { "type": "Point", "coordinates": [ 129.330902, 35.467972, 60.0 ] } },
{ "type": "Feature", "properties": { "value": 1.6537 }, "geometry": { "type": "Point", "coordinates": [ 129.324295, 35.468891, 60.0 ] } },
{ "type": "Feature", "properties": { "value": 19.907 }, "geometry": { "type": "Point", "coordinates": [ 129.325394, 35.468887, 60.0 ] } },
{ "type": "Feature", "properties": { "value": 79.172 }, "geometry": { "type": "Point", "coordinates": [ 129.326508, 35.468887, 60.0 ] } },
{ "type": "Feature", "properties": { "value": 118.24 }, "geometry": { "type": "Point", "coordinates": [ 129.327606, 35.468884, 60.0 ] } },
{ "type": "Feature", "properties": { "value": 67.0 }, "geometry": { "type": "Point", "coordinates": [ 129.328705, 35.46888, 60.0 ] } },
{ "type": "Feature", "properties": { "value": 15.645 }, "geometry": { "type": "Point", "coordinates": [ 129.329803, 35.468876, 60.0 ] } },
{ "type": "Feature", "properties": { "value": 1.5173 }, "geometry": { "type": "Point", "coordinates": [ 129.330902, 35.468872, 60.0 ] } },
{ "type": "Feature", "properties": { "value": 2.6623 }, "geometry": { "type": "Point", "coordinates": [ 129.324295, 35.469791, 60.0 ] } },
{ "type": "Feature", "properties": { "value": 20.949 }, "geometry": { "type": "Point", "coordinates": [ 129.325409, 35.469791, 60.0 ] } },
{ "type": "Feature", "properties": { "value": 70.897 }, "geometry": { "type": "Point", "coordinates": [ 129.326508, 35.469788, 60.0 ] } },
{ "type": "Feature", "properties": { "value": 105.92 }, "geometry": { "type": "Point", "coordinates": [ 129.327606, 35.469784, 60.0 ] } },
{ "type": "Feature", "properties": { "value": 70.026 }, "geometry": { "type": "Point", "coordinates": [ 129.328705, 35.46978, 60.0 ] } },
{ "type": "Feature", "properties": { "value": 21.816 }, "geometry": { "type": "Point", "coordinates": [ 129.329819, 35.469776, 60.0 ] } },
{ "type": "Feature", "properties": { "value": 3.3593 }, "geometry": { "type": "Point", "coordinates": [ 129.330917, 35.469776, 60.0 ] } },
{ "type": "Feature", "properties": { "value": 3.688 }, "geometry": { "type": "Point", "coordinates": [ 129.32431, 35.470695, 60.0 ] } },
{ "type": "Feature", "properties": { "value": 21.866 }, "geometry": { "type": "Point", "coordinates": [ 129.325409, 35.470692, 60.0 ] } },
{ "type": "Feature", "properties": { "value": 64.354 }, "geometry": { "type": "Point", "coordinates": [ 129.326508, 35.470688, 60.0 ] } },
{ "type": "Feature", "properties": { "value": 94.917 }, "geometry": { "type": "Point", "coordinates": [ 129.327606, 35.470684, 60.0 ] } },
{ "type": "Feature", "properties": { "value": 70.118 }, "geometry": { "type": "Point", "coordinates": [ 129.32872, 35.470684, 60.0 ] } },
{ "type": "Feature", "properties": { "value": 27.16 }, "geometry": { "type": "Point", "coordinates": [ 129.329819, 35.47068, 60.0 ] } },
{ "type": "Feature", "properties": { "value": 5.6822 }, "geometry": { "type": "Point", "coordinates": [ 129.330917, 35.470676, 60.0 ] } },
{ "type": "Feature", "properties": { "value": 0.2508 }, "geometry": { "type": "Point", "coordinates": [ 129.332016, 35.470673, 60.0 ] } },
{ "type": "Feature", "properties": { "value": 0.0702 }, "geometry": { "type": "Point", "coordinates": [ 129.323212, 35.4716, 60.0 ] } },
{ "type": "Feature", "properties": { "value": 4.8668 }, "geometry": { "type": "Point", "coordinates": [ 129.32431, 35.471596, 60.0 ] } },
{ "type": "Feature", "properties": { "value": 22.6 }, "geometry": { "type": "Point", "coordinates": [ 129.325409, 35.471592, 60.0 ] } },
{ "type": "Feature", "properties": { "value": 58.942 }, "geometry": { "type": "Point", "coordinates": [ 129.326508, 35.471588, 60.0 ] } },
{ "type": "Feature", "properties": { "value": 85.45 }, "geometry": { "type": "Point", "coordinates": [ 129.327621, 35.471588, 60.0 ] } },
{ "type": "Feature", "properties": { "value": 68.527 }, "geometry": { "type": "Point", "coordinates": [ 129.32872, 35.471584, 60.0 ] } },
{ "type": "Feature", "properties": { "value": 30.834 }, "geometry": { "type": "Point", "coordinates": [ 129.329819, 35.471581, 60.0 ] } },
{ "type": "Feature", "properties": { "value": 8.1774 }, "geometry": { "type": "Point", "coordinates": [ 129.330917, 35.471577, 60.0 ] } },
{ "type": "Feature", "properties": { "value": 1.0826 }, "geometry": { "type": "Point", "coordinates": [ 129.332016, 35.471573, 60.0 ] } },
{ "type": "Feature", "properties": { "value": 0.657 }, "geometry": { "type": "Point", "coordinates": [ 129.323212, 35.4725, 60.0 ] } },
{ "type": "Feature", "properties": { "value": 5.9363 }, "geometry": { "type": "Point", "coordinates": [ 129.32431, 35.472496, 60.0 ] } },
{ "type": "Feature", "properties": { "value": 23.001 }, "geometry": { "type": "Point", "coordinates": [ 129.325409, 35.472492, 60.0 ] } },
{ "type": "Feature", "properties": { "value": 54.33 }, "geometry": { "type": "Point", "coordinates": [ 129.326523, 35.472492, 60.0 ] } },
{ "type": "Feature", "properties": { "value": 77.035 }, "geometry": { "type": "Point", "coordinates": [ 129.327621, 35.472488, 60.0 ] } },
{ "type": "Feature", "properties": { "value": 64.717 }, "geometry": { "type": "Point", "coordinates": [ 129.32872, 35.472485, 60.0 ] } },
{ "type": "Feature", "properties": { "value": 32.872 }, "geometry": { "type": "Point", "coordinates": [ 129.329819, 35.472481, 60.0 ] } },
{ "type": "Feature", "properties": { "value": 10.448 }, "geometry": { "type": "Point", "coordinates": [ 129.330917, 35.472477, 60.0 ] } },
{ "type": "Feature", "properties": { "value": 2.0867 }, "geometry": { "type": "Point", "coordinates": [ 129.332031, 35.472477, 60.0 ] } },
{ "type": "Feature", "properties": { "value": 1.2125 }, "geometry": { "type": "Point", "coordinates": [ 129.323212, 35.4734, 60.0 ] } },
{ "type": "Feature", "properties": { "value": 6.8691 }, "geometry": { "type": "Point", "coordinates": [ 129.32431, 35.473396, 60.0 ] } },
{ "type": "Feature", "properties": { "value": 22.887 }, "geometry": { "type": "Point", "coordinates": [ 129.325424, 35.473396, 60.0 ] } },
{ "type": "Feature", "properties": { "value": 49.487 }, "geometry": { "type": "Point", "coordinates": [ 129.326523, 35.473392, 60.0 ] } },
{ "type": "Feature", "properties": { "value": 68.393 }, "geometry": { "type": "Point", "coordinates": [ 129.327621, 35.473389, 60.0 ] } },
{ "type": "Feature", "properties": { "value": 59.819 }, "geometry": { "type": "Point", "coordinates": [ 129.32872, 35.473385, 60.0 ] } },
{ "type": "Feature", "properties": { "value": 33.634 }, "geometry": { "type": "Point", "coordinates": [ 129.329819, 35.473385, 60.0 ] } },
{ "type": "Feature", "properties": { "value": 12.485 }, "geometry": { "type": "Point", "coordinates": [ 129.330933, 35.473381, 60.0 ] } },
{ "type": "Feature", "properties": { "value": 3.1719 }, "geometry": { "type": "Point", "coordinates": [ 129.332031, 35.473377, 60.0 ] } },
{ "type": "Feature", "properties": { "value": 0.2095 }, "geometry": { "type": "Point", "coordinates": [ 129.33313, 35.473373, 60.0 ] } },
{ "type": "Feature", "properties": { "value": 1.7049 }, "geometry": { "type": "Point", "coordinates": [ 129.323212, 35.4743, 60.0 ] } },
{ "type": "Feature", "properties": { "value": 7.5597 }, "geometry": { "type": "Point", "coordinates": [ 129.324326, 35.4743, 60.0 ] } },
{ "type": "Feature", "properties": { "value": 22.259 }, "geometry": { "type": "Point", "coordinates": [ 129.325424, 35.474297, 60.0 ] } },
{ "type": "Feature", "properties": { "value": 44.625 }, "geometry": { "type": "Point", "coordinates": [ 129.326523, 35.474293, 60.0 ] } },
{ "type": "Feature", "properties": { "value": 60.335 }, "geometry": { "type": "Point", "coordinates": [ 129.327621, 35.474289, 60.0 ] } },
{ "type": "Feature", "properties": { "value": 54.589 }, "geometry": { "type": "Point", "coordinates": [ 129.328735, 35.474289, 60.0 ] } },
{ "type": "Feature", "properties": { "value": 33.476 }, "geometry": { "type": "Point", "coordinates": [ 129.329834, 35.474285, 60.0 ] } },
{ "type": "Feature", "properties": { "value": 14.253 }, "geometry": { "type": "Point", "coordinates": [ 129.330933, 35.474281, 60.0 ] } },
{ "type": "Feature", "properties": { "value": 4.2631 }, "geometry": { "type": "Point", "coordinates": [ 129.332031, 35.474277, 60.0 ] } },
{ "type": "Feature", "properties": { "value": 0.7525 }, "geometry": { "type": "Point", "coordinates": [ 129.33313, 35.474274, 60.0 ] } },
{ "type": "Feature", "properties": { "value": 0.0389 }, "geometry": { "type": "Point", "coordinates": [ 129.322113, 35.475208, 60.0 ] } },
{ "type": "Feature", "properties": { "value": 2.1321 }, "geometry": { "type": "Point", "coordinates": [ 129.323227, 35.475204, 60.0 ] } },
{ "type": "Feature", "properties": { "value": 7.9844 }, "geometry": { "type": "Point", "coordinates": [ 129.324326, 35.475201, 60.0 ] } },
{ "type": "Feature", "properties": { "value": 21.339 }, "geometry": { "type": "Point", "coordinates": [ 129.325424, 35.475197, 60.0 ] } },
{ "type": "Feature", "properties": { "value": 40.395 }, "geometry": { "type": "Point", "coordinates": [ 129.326523, 35.475193, 60.0 ] } },
{ "type": "Feature", "properties": { "value": 53.786 }, "geometry": { "type": "Point", "coordinates": [ 129.327637, 35.475193, 60.0 ] } },
{ "type": "Feature", "properties": { "value": 50.073 }, "geometry": { "type": "Point", "coordinates": [ 129.328735, 35.475189, 60.0 ] } },
{ "type": "Feature", "properties": { "value": 32.956 }, "geometry": { "type": "Point", "coordinates": [ 129.329834, 35.475185, 60.0 ] } },
{ "type": "Feature", "properties": { "value": 15.515 }, "geometry": { "type": "Point", "coordinates": [ 129.330933, 35.475182, 60.0 ] } },
{ "type": "Feature", "properties": { "value": 5.329 }, "geometry": { "type": "Point", "coordinates": [ 129.332031, 35.475178, 60.0 ] } },
{ "type": "Feature", "properties": { "value": 1.3296 }, "geometry": { "type": "Point", "coordinates": [ 129.333145, 35.475178, 60.0 ] } },
{ "type": "Feature", "properties": { "value": 0.3449 }, "geometry": { "type": "Point", "coordinates": [ 129.322128, 35.476109, 60.0 ] } },
{ "type": "Feature", "properties": { "value": 2.4552 }, "geometry": { "type": "Point", "coordinates": [ 129.323227, 35.476105, 60.0 ] } },
{ "type": "Feature", "properties": { "value": 8.2014 }, "geometry": { "type": "Point", "coordinates": [ 129.324326, 35.476101, 60.0 ] } },
{ "type": "Feature", "properties": { "value": 20.222 }, "geometry": { "type": "Point", "coordinates": [ 129.325424, 35.476097, 60.0 ] } },
{ "type": "Feature", "properties": { "value": 36.531 }, "geometry": { "type": "Point", "coordinates": [ 129.326538, 35.476097, 60.0 ] } },
{ "type": "Feature", "properties": { "value": 48.008 }, "geometry": { "type": "Point", "coordinates": [ 129.327637, 35.476093, 60.0 ] } },
{ "type": "Feature", "properties": { "value": 45.85 }, "geometry": { "type": "Point", "coordinates": [ 129.328735, 35.476089, 60.0 ] } },
{ "type": "Feature", "properties": { "value": 31.947 }, "geometry": { "type": "Point", "coordinates": [ 129.329834, 35.476086, 60.0 ] } },
{ "type": "Feature", "properties": { "value": 16.408 }, "geometry": { "type": "Point", "coordinates": [ 129.330933, 35.476086, 60.0 ] } },
{ "type": "Feature", "properties": { "value": 6.4118 }, "geometry": { "type": "Point", "coordinates": [ 129.332047, 35.476082, 60.0 ] } },
{ "type": "Feature", "properties": { "value": 1.9065 }, "geometry": { "type": "Point", "coordinates": [ 129.333145, 35.476078, 60.0 ] } },
{ "type": "Feature", "properties": { "value": 0.2568 }, "geometry": { "type": "Point", "coordinates": [ 129.334244, 35.476074, 60.0 ] } },
{ "type": "Feature", "properties": { "value": 0.5848 }, "geometry": { "type": "Point", "coordinates": [ 129.322128, 35.477009, 60.0 ] } },
{ "type": "Feature", "properties": { "value": 2.7612 }, "geometry": { "type": "Point", "coordinates": [ 129.323227, 35.477005, 60.0 ] } },
{ "type": "Feature", "properties": { "value": 8.3022 }, "geometry": { "type": "Point", "coordinates": [ 129.324326, 35.477005, 60.0 ] } },
{ "type": "Feature", "properties": { "value": 19.058 }, "geometry": { "type": "Point", "coordinates": [ 129.325439, 35.477001, 60.0 ] } },
{ "type": "Feature", "properties": { "value": 32.962 }, "geometry": { "type": "Point", "coordinates": [ 129.326538, 35.476997, 60.0 ] } },
{ "type": "Feature", "properties": { "value": 42.909 }, "geometry": { "type": "Point", "coordinates": [ 129.327637, 35.476994, 60.0 ] } },
{ "type": "Feature", "properties": { "value": 41.765 }, "geometry": { "type": "Point", "coordinates": [ 129.328735, 35.47699, 60.0 ] } },
{ "type": "Feature", "properties": { "value": 30.52 }, "geometry": { "type": "Point", "coordinates": [ 129.329834, 35.47699, 60.0 ] } },
{ "type": "Feature", "properties": { "value": 17.02 }, "geometry": { "type": "Point", "coordinates": [ 129.330948, 35.476986, 60.0 ] } },
{ "type": "Feature", "properties": { "value": 7.3822 }, "geometry": { "type": "Point", "coordinates": [ 129.332047, 35.476982, 60.0 ] } },
{ "type": "Feature", "properties": { "value": 2.4628 }, "geometry": { "type": "Point", "coordinates": [ 129.333145, 35.476978, 60.0 ] } },
{ "type": "Feature", "properties": { "value": 0.542 }, "geometry": { "type": "Point", "coordinates": [ 129.334244, 35.476974, 60.0 ] } },
{ "type": "Feature", "properties": { "value": 0.8182 }, "geometry": { "type": "Point", "coordinates": [ 129.322128, 35.477909, 60.0 ] } },
{ "type": "Feature", "properties": { "value": 3.0658 }, "geometry": { "type": "Point", "coordinates": [ 129.323227, 35.477909, 60.0 ] } },
{ "type": "Feature", "properties": { "value": 8.3797 }, "geometry": { "type": "Point", "coordinates": [ 129.324341, 35.477905, 60.0 ] } },
{ "type": "Feature", "properties": { "value": 17.979 }, "geometry": { "type": "Point", "coordinates": [ 129.325439, 35.477901, 60.0 ] } },
{ "type": "Feature", "properties": { "value": 29.897 }, "geometry": { "type": "Point", "coordinates": [ 129.326538, 35.477898, 60.0 ] } },
{ "type": "Feature", "properties": { "value": 38.266 }, "geometry": { "type": "Point", "coordinates": [ 129.327637, 35.477894, 60.0 ] } },
{ "type": "Feature", "properties": { "value": 37.841 }, "geometry": { "type": "Point", "coordinates": [ 129.328735, 35.477894, 60.0 ] } },
{ "type": "Feature", "properties": { "value": 28.906 }, "geometry": { "type": "Point", "coordinates": [ 129.329849, 35.47789, 60.0 ] } },
{ "type": "Feature", "properties": { "value": 17.277 }, "geometry": { "type": "Point", "coordinates": [ 129.330948, 35.477886, 60.0 ] } },
{ "type": "Feature", "properties": { "value": 8.1732 }, "geometry": { "type": "Point", "coordinates": [ 129.332047, 35.477882, 60.0 ] } },
{ "type": "Feature", "properties": { "value": 3.0707 }, "geometry": { "type": "Point", "coordinates": [ 129.333145, 35.477879, 60.0 ] } },
{ "type": "Feature", "properties": { "value": 0.8785 }, "geometry": { "type": "Point", "coordinates": [ 129.334259, 35.477879, 60.0 ] } },
{ "type": "Feature", "properties": { "value": 0.0183 }, "geometry": { "type": "Point", "coordinates": [ 129.335358, 35.477875, 60.0 ] } },
{ "type": "Feature", "properties": { "value": 0.0536 }, "geometry": { "type": "Point", "coordinates": [ 129.32103, 35.478813, 60.0 ] } },
{ "type": "Feature", "properties": { "value": 1.0362 }, "geometry": { "type": "Point", "coordinates": [ 129.322128, 35.478813, 60.0 ] } },
{ "type": "Feature", "properties": { "value": 3.3779 }, "geometry": { "type": "Point", "coordinates": [ 129.323242, 35.478809, 60.0 ] } },
{ "type": "Feature", "properties": { "value": 8.4815 }, "geometry": { "type": "Point", "coordinates": [ 129.324341, 35.478806, 60.0 ] } },
{ "type": "Feature", "properties": { "value": 17.053 }, "geometry": { "type": "Point", "coordinates": [ 129.325439, 35.478802, 60.0 ] } },
{ "type": "Feature", "properties": { "value": 27.24 }, "geometry": { "type": "Point", "coordinates": [ 129.326538, 35.478798, 60.0 ] } },
{ "type": "Feature", "properties": { "value": 34.491 }, "geometry": { "type": "Point", "coordinates": [ 129.327637, 35.478798, 60.0 ] } },
{ "type": "Feature", "properties": { "value": 34.519 }, "geometry": { "type": "Point", "coordinates": [ 129.328751, 35.478794, 60.0 ] } },
{ "type": "Feature", "properties": { "value": 27.332 }, "geometry": { "type": "Point", "coordinates": [ 129.329849, 35.47879, 60.0 ] } },
{ "type": "Feature", "properties": { "value": 17.279 }, "geometry": { "type": "Point", "coordinates": [ 129.330948, 35.478786, 60.0 ] } },
{ "type": "Feature", "properties": { "value": 8.785 }, "geometry": { "type": "Point", "coordinates": [ 129.332047, 35.478786, 60.0 ] } },
{ "type": "Feature", "properties": { "value": 3.6419 }, "geometry": { "type": "Point", "coordinates": [ 129.33316, 35.478783, 60.0 ] } },
{ "type": "Feature", "properties": { "value": 1.1914 }, "geometry": { "type": "Point", "coordinates": [ 129.334259, 35.478779, 60.0 ] } },
{ "type": "Feature", "properties": { "value": 0.2 }, "geometry": { "type": "Point", "coordinates": [ 129.335358, 35.478775, 60.0 ] } },
{ "type": "Feature", "properties": { "value": 0.2594 }, "geometry": { "type": "Point", "coordinates": [ 129.32103, 35.479717, 60.0 ] } },
{ "type": "Feature", "properties": { "value": 1.3091 }, "geometry": { "type": "Point", "coordinates": [ 129.322144, 35.479713, 60.0 ] } },
{ "type": "Feature", "properties": { "value": 3.7238 }, "geometry": { "type": "Point", "coordinates": [ 129.323242, 35.47971, 60.0 ] } },
{ "type": "Feature", "properties": { "value": 8.6415 }, "geometry": { "type": "Point", "coordinates": [ 129.324341, 35.479706, 60.0 ] } },
{ "type": "Feature", "properties": { "value": 16.398 }, "geometry": { "type": "Point", "coordinates": [ 129.325439, 35.479706, 60.0 ] } },
{ "type": "Feature", "properties": { "value": 25.313 }, "geometry": { "type": "Point", "coordinates": [ 129.326553, 35.479702, 60.0 ] } },
{ "type": "Feature", "properties": { "value": 31.69 }, "geometry": { "type": "Point", "coordinates": [ 129.327652, 35.479698, 60.0 ] } },
{ "type": "Feature", "properties": { "value": 31.907 }, "geometry": { "type": "Point", "coordinates": [ 129.328751, 35.479694, 60.0 ] } },
{ "type": "Feature", "properties": { "value": 25.905 }, "geometry": { "type": "Point", "coordinates": [ 129.329849, 35.479691, 60.0 ] } },
{ "type": "Feature", "properties": { "value": 17.11 }, "geometry": { "type": "Point", "coordinates": [ 129.330948, 35.479691, 60.0 ] } },
{ "type": "Feature", "properties": { "value": 9.2325 }, "geometry": { "type": "Point", "coordinates": [ 129.332062, 35.479687, 60.0 ] } },
{ "type": "Feature", "properties": { "value": 4.1085 }, "geometry": { "type": "Point", "coordinates": [ 129.33316, 35.479683, 60.0 ] } },
{ "type": "Feature", "properties": { "value": 1.4916 }, "geometry": { "type": "Point", "coordinates": [ 129.334259, 35.479679, 60.0 ] } },
{ "type": "Feature", "properties": { "value": 0.3774 }, "geometry": { "type": "Point", "coordinates": [ 129.335358, 35.479675, 60.0 ] } },
{ "type": "Feature", "properties": { "value": 0.4427 }, "geometry": { "type": "Point", "coordinates": [ 129.321045, 35.480618, 60.0 ] } },
{ "type": "Feature", "properties": { "value": 1.5881 }, "geometry": { "type": "Point", "coordinates": [ 129.322144, 35.480614, 60.0 ] } },
{ "type": "Feature", "properties": { "value": 4.1178 }, "geometry": { "type": "Point", "coordinates": [ 129.323242, 35.48061, 60.0 ] } },
{ "type": "Feature", "properties": { "value": 8.8911 }, "geometry": { "type": "Point", "coordinates": [ 129.324341, 35.48061, 60.0 ] } },
{ "type": "Feature", "properties": { "value": 16.023 }, "geometry": { "type": "Point", "coordinates": [ 129.325455, 35.480606, 60.0 ] } },
{ "type": "Feature", "properties": { "value": 23.933 }, "geometry": { "type": "Point", "coordinates": [ 129.326553, 35.480602, 60.0 ] } },
{ "type": "Feature", "properties": { "value": 29.462 }, "geometry": { "type": "Point", "coordinates": [ 129.327652, 35.480598, 60.0 ] } },
{ "type": "Feature", "properties": { "value": 29.722 }, "geometry": { "type": "Point", "coordinates": [ 129.328751, 35.480595, 60.0 ] } },
{ "type": "Feature", "properties": { "value": 24.59 }, "geometry": { "type": "Point", "coordinates": [ 129.329849, 35.480595, 60.0 ] } },
{ "type": "Feature", "properties": { "value": 16.814 }, "geometry": { "type": "Point", "coordinates": [ 129.330963, 35.480591, 60.0 ] } },
{ "type": "Feature", "properties": { "value": 9.528 }, "geometry": { "type": "Point", "coordinates": [ 129.332062, 35.480587, 60.0 ] } },
{ "type": "Feature", "properties": { "value": 4.4956 }, "geometry": { "type": "Point", "coordinates": [ 129.33316, 35.480583, 60.0 ] } },
{ "type": "Feature", "properties": { "value": 1.7542 }, "geometry": { "type": "Point", "coordinates": [ 129.334259, 35.480579, 60.0 ] } },
{ "type": "Feature", "properties": { "value": 0.5121 }, "geometry": { "type": "Point", "coordinates": [ 129.335358, 35.480579, 60.0 ] } },
{ "type": "Feature", "properties": { "value": 0.6366 }, "geometry": { "type": "Point", "coordinates": [ 129.321045, 35.481518, 60.0 ] } },
{ "type": "Feature", "properties": { "value": 1.899 }, "geometry": { "type": "Point", "coordinates": [ 129.322144, 35.481514, 60.0 ] } },
{ "type": "Feature", "properties": { "value": 4.5188 }, "geometry": { "type": "Point", "coordinates": [ 129.323242, 35.481514, 60.0 ] } },
{ "type": "Feature", "properties": { "value": 9.1487 }, "geometry": { "type": "Point", "coordinates": [ 129.324356, 35.48151, 60.0 ] } },
{ "type": "Feature", "properties": { "value": 15.734 }, "geometry": { "type": "Point", "coordinates": [ 129.325455, 35.481506, 60.0 ] } },
{ "type": "Feature", "properties": { "value": 22.748 }, "geometry": { "type": "Point", "coordinates": [ 129.326553, 35.481503, 60.0 ] } },
{ "type": "Feature", "properties": { "value": 27.535 }, "geometry": { "type": "Point", "coordinates": [ 129.327652, 35.481503, 60.0 ] } },
{ "type": "Feature", "properties": { "value": 27.732 }, "geometry": { "type": "Point", "coordinates": [ 129.328751, 35.481499, 60.0 ] } },
{ "type": "Feature", "properties": { "value": 23.268 }, "geometry": { "type": "Point", "coordinates": [ 129.329865, 35.481495, 60.0 ] } },
{ "type": "Feature", "properties": { "value": 16.359 }, "geometry": { "type": "Point", "coordinates": [ 129.330963, 35.481491, 60.0 ] } },
{ "type": "Feature", "properties": { "value": 9.6454 }, "geometry": { "type": "Point", "coordinates": [ 129.332062, 35.481487, 60.0 ] } },
{ "type": "Feature", "properties": { "value": 4.7886 }, "geometry": { "type": "Point", "coordinates": [ 129.33316, 35.481487, 60.0 ] } },
{ "type": "Feature", "properties": { "value": 2.0063 }, "geometry": { "type": "Point", "coordinates": [ 129.334259, 35.481483, 60.0 ] } },
{ "type": "Feature", "properties": { "value": 0.6607 }, "geometry": { "type": "Point", "coordinates": [ 129.335373, 35.48148, 60.0 ] } },
{ "type": "Feature", "properties": { "value": 0.0272 }, "geometry": { "type": "Point", "coordinates": [ 129.336472, 35.481476, 60.0 ] } },
{ "type": "Feature", "properties": { "value": 0.172 }, "geometry": { "type": "Point", "coordinates": [ 129.319946, 35.482422, 60.0 ] } },
{ "type": "Feature", "properties": { "value": 0.8436 }, "geometry": { "type": "Point", "coordinates": [ 129.321045, 35.482418, 60.0 ] } },
{ "type": "Feature", "properties": { "value": 2.214 }, "geometry": { "type": "Point", "coordinates": [ 129.322144, 35.482418, 60.0 ] } },
{ "type": "Feature", "properties": { "value": 4.8901 }, "geometry": { "type": "Point", "coordinates": [ 129.323257, 35.482414, 60.0 ] } },
{ "type": "Feature", "properties": { "value": 9.3772 }, "geometry": { "type": "Point", "coordinates": [ 129.324356, 35.48241, 60.0 ] } },
{ "type": "Feature", "properties": { "value": 15.449 }, "geometry": { "type": "Point", "coordinates": [ 129.325455, 35.482407, 60.0 ] } },
{ "type": "Feature", "properties": { "value": 21.674 }, "geometry": { "type": "Point", "coordinates": [ 129.326553, 35.482407, 60.0 ] } },
{ "type": "Feature", "properties": { "value": 25.766 }, "geometry": { "type": "Point", "coordinates": [ 129.327652, 35.482403, 60.0 ] } },
{ "type": "Feature", "properties": { "value": 25.847 }, "geometry": { "type": "Point", "coordinates": [ 129.328766, 35.482399, 60.0 ] } },
{ "type": "Feature", "properties": { "value": 21.913 }, "geometry": { "type": "Point", "coordinates": [ 129.329865, 35.482395, 60.0 ] } },
{ "type": "Feature", "properties": { "value": 15.72 }, "geometry": { "type": "Point", "coordinates": [ 129.330963, 35.482391, 60.0 ] } },
{ "type": "Feature", "properties": { "value": 9.5756 }, "geometry": { "type": "Point", "coordinates": [ 129.332062, 35.482391, 60.0 ] } },
{ "type": "Feature", "properties": { "value": 4.955 }, "geometry": { "type": "Point", "coordinates": [ 129.333176, 35.482388, 60.0 ] } },
{ "type": "Feature", "properties": { "value": 2.1945 }, "geometry": { "type": "Point", "coordinates": [ 129.334274, 35.482384, 60.0 ] } },
{ "type": "Feature", "properties": { "value": 0.7921 }, "geometry": { "type": "Point", "coordinates": [ 129.335373, 35.48238, 60.0 ] } },
{ "type": "Feature", "properties": { "value": 0.161 }, "geometry": { "type": "Point", "coordinates": [ 129.336472, 35.482376, 60.0 ] } },
{ "type": "Feature", "properties": { "value": 0.3397 }, "geometry": { "type": "Point", "coordinates": [ 129.319946, 35.483322, 60.0 ] } },
{ "type": "Feature", "properties": { "value": 1.0327 }, "geometry": { "type": "Point", "coordinates": [ 129.321045, 35.483322, 60.0 ] } },
{ "type": "Feature", "properties": { "value": 2.4936 }, "geometry": { "type": "Point", "coordinates": [ 129.322159, 35.483318, 60.0 ] } },
{ "type": "Feature", "properties": { "value": 5.2111 }, "geometry": { "type": "Point", "coordinates": [ 129.323257, 35.483315, 60.0 ] } },
{ "type": "Feature", "properties": { "value": 9.5251 }, "geometry": { "type": "Point", "coordinates": [ 129.324356, 35.483311, 60.0 ] } },
{ "type": "Feature", "properties": { "value": 15.079 }, "geometry": { "type": "Point", "coordinates": [ 129.325455, 35.483311, 60.0 ] } },
{ "type": "Feature", "properties": { "value": 20.6 }, "geometry": { "type": "Point", "coordinates": [ 129.326553, 35.483307, 60.0 ] } },
{ "type": "Feature", "properties": { "value": 24.075 }, "geometry": { "type": "Point", "coordinates": [ 129.327667, 35.483303, 60.0 ] } },
{ "type": "Feature", "properties": { "value": 24.045 }, "geometry": { "type": "Point", "coordinates": [ 129.328766, 35.483299, 60.0 ] } },
{ "type": "Feature", "properties": { "value": 20.5 }, "geometry": { "type": "Point", "coordinates": [ 129.329865, 35.483295, 60.0 ] } },
{ "type": "Feature", "properties": { "value": 14.95 }, "geometry": { "type": "Point", "coordinates": [ 129.330963, 35.483295, 60.0 ] } },
{ "type": "Feature", "properties": { "value": 9.3246 }, "geometry": { "type": "Point", "coordinates": [ 129.332077, 35.483292, 60.0 ] } },
{ "type": "Feature", "properties": { "value": 4.9882 }, "geometry": { "type": "Point", "coordinates": [ 129.333176, 35.483288, 60.0 ] } },
{ "type": "Feature", "properties": { "value": 2.3006 }, "geometry": { "type": "Point", "coordinates": [ 129.334274, 35.483284, 60.0 ] } },
{ "type": "Feature", "properties": { "value": 0.8932 }, "geometry": { "type": "Point", "coordinates": [ 129.335373, 35.48328, 60.0 ] } },
{ "type": "Feature", "properties": { "value": 0.2428 }, "geometry": { "type": "Point", "coordinates": [ 129.336472, 35.48328, 60.0 ] } },
{ "type": "Feature", "properties": { "value": 0.0675 }, "geometry": { "type": "Point", "coordinates": [ 129.318848, 35.48423, 60.0 ] } },
{ "type": "Feature", "properties": { "value": 0.4322 }, "geometry": { "type": "Point", "coordinates": [ 129.319946, 35.484226, 60.0 ] } },
{ "type": "Feature", "properties": { "value": 1.1902 }, "geometry": { "type": "Point", "coordinates": [ 129.32106, 35.484222, 60.0 ] } },
{ "type": "Feature", "properties": { "value": 2.7225 }, "geometry": { "type": "Point", "coordinates": [ 129.322159, 35.484219, 60.0 ] } },
{ "type": "Feature", "properties": { "value": 5.4272 }, "geometry": { "type": "Point", "coordinates": [ 129.323257, 35.484215, 60.0 ] } },
{ "type": "Feature", "properties": { "value": 9.5159 }, "geometry": { "type": "Point", "coordinates": [ 129.324356, 35.484215, 60.0 ] } },
{ "type": "Feature", "properties": { "value": 14.564 }, "geometry": { "type": "Point", "coordinates": [ 129.325455, 35.484211, 60.0 ] } },
{ "type": "Feature", "properties": { "value": 19.39 }, "geometry": { "type": "Point", "coordinates": [ 129.326569, 35.484207, 60.0 ] } },
{ "type": "Feature", "properties": { "value": 22.319 }, "geometry": { "type": "Point", "coordinates": [ 129.327667, 35.484203, 60.0 ] } },
{ "type": "Feature", "properties": { "value": 22.158 }, "geometry": { "type": "Point", "coordinates": [ 129.328766, 35.484203, 60.0 ] } },
{ "type": "Feature", "properties": { "value": 18.931 }, "geometry": { "type": "Point", "coordinates": [ 129.329865, 35.4842, 60.0 ] } },
{ "type": "Feature", "properties": { "value": 13.942 }, "geometry": { "type": "Point", "coordinates": [ 129.330978, 35.484196, 60.0 ] } },
{ "type": "Feature", "properties": { "value": 8.8801 }, "geometry": { "type": "Point", "coordinates": [ 129.332077, 35.484192, 60.0 ] } },
{ "type": "Feature", "properties": { "value": 4.8824 }, "geometry": { "type": "Point", "coordinates": [ 129.333176, 35.484188, 60.0 ] } },
{ "type": "Feature", "properties": { "value": 2.3273 }, "geometry": { "type": "Point", "coordinates": [ 129.334274, 35.484188, 60.0 ] } },
{ "type": "Feature", "properties": { "value": 0.9554 }, "geometry": { "type": "Point", "coordinates": [ 129.335373, 35.484184, 60.0 ] } },
{ "type": "Feature", "properties": { "value": 0.2882 }, "geometry": { "type": "Point", "coordinates": [ 129.336487, 35.48418, 60.0 ] } },
{ "type": "Feature", "properties": { "value": 0.1417 }, "geometry": { "type": "Point", "coordinates": [ 129.318848, 35.48513, 60.0 ] } },
{ "type": "Feature", "properties": { "value": 0.5105 }, "geometry": { "type": "Point", "coordinates": [ 129.319962, 35.485126, 60.0 ] } },
{ "type": "Feature", "properties": { "value": 1.3052 }, "geometry": { "type": "Point", "coordinates": [ 129.32106, 35.485123, 60.0 ] } },
{ "type": "Feature", "properties": { "value": 2.8427 }, "geometry": { "type": "Point", "coordinates": [ 129.322159, 35.485119, 60.0 ] } },
{ "type": "Feature", "properties": { "value": 5.4735 }, "geometry": { "type": "Point", "coordinates": [ 129.323257, 35.485119, 60.0 ] } },
{ "type": "Feature", "properties": { "value": 9.2638 }, "geometry": { "type": "Point", "coordinates": [ 129.324371, 35.485115, 60.0 ] } },
{ "type": "Feature", "properties": { "value": 13.753 }, "geometry": { "type": "Point", "coordinates": [ 129.32547, 35.485111, 60.0 ] } },
{ "type": "Feature", "properties": { "value": 17.917 }, "geometry": { "type": "Point", "coordinates": [ 129.326569, 35.485107, 60.0 ] } },
{ "type": "Feature", "properties": { "value": 20.318 }, "geometry": { "type": "Point", "coordinates": [ 129.327667, 35.485107, 60.0 ] } },
{ "type": "Feature", "properties": { "value": 20.023 }, "geometry": { "type": "Point", "coordinates": [ 129.328766, 35.485104, 60.0 ] } },
{ "type": "Feature", "properties": { "value": 17.121 }, "geometry": { "type": "Point", "coordinates": [ 129.32988, 35.4851, 60.0 ] } },
{ "type": "Feature", "properties": { "value": 12.707 }, "geometry": { "type": "Point", "coordinates": [ 129.330978, 35.485096, 60.0 ] } },
{ "type": "Feature", "properties": { "value": 8.229 }, "geometry": { "type": "Point", "coordinates": [ 129.332077, 35.485092, 60.0 ] } },
{ "type": "Feature", "properties": { "value": 4.6238 }, "geometry": { "type": "Point", "coordinates": [ 129.333176, 35.485092, 60.0 ] } },
{ "type": "Feature", "properties": { "value": 2.2647 }, "geometry": { "type": "Point", "coordinates": [ 129.334274, 35.485088, 60.0 ] } },
{ "type": "Feature", "properties": { "value": 0.9459 }, "geometry": { "type": "Point", "coordinates": [ 129.335388, 35.485085, 60.0 ] } },
{ "type": "Feature", "properties": { "value": 0.3216 }, "geometry": { "type": "Point", "coordinates": [ 129.336487, 35.485081, 60.0 ] } },
{ "type": "Feature", "properties": { "value": 0.1761 }, "geometry": { "type": "Point", "coordinates": [ 129.318863, 35.486031, 60.0 ] } },
{ "type": "Feature", "properties": { "value": 0.5604 }, "geometry": { "type": "Point", "coordinates": [ 129.319962, 35.486027, 60.0 ] } },
{ "type": "Feature", "properties": { "value": 1.3515 }, "geometry": { "type": "Point", "coordinates": [ 129.32106, 35.486027, 60.0 ] } },
{ "type": "Feature", "properties": { "value": 2.8411 }, "geometry": { "type": "Point", "coordinates": [ 129.322159, 35.486023, 60.0 ] } },
{ "type": "Feature", "properties": { "value": 5.2923 }, "geometry": { "type": "Point", "coordinates": [ 129.323273, 35.486019, 60.0 ] } },
{ "type": "Feature", "properties": { "value": 8.6968 }, "geometry": { "type": "Point", "coordinates": [ 129.324371, 35.486015, 60.0 ] } },
{ "type": "Feature", "properties": { "value": 12.595 }, "geometry": { "type": "Point", "coordinates": [ 129.32547, 35.486012, 60.0 ] } },
{ "type": "Feature", "properties": { "value": 16.069 }, "geometry": { "type": "Point", "coordinates": [ 129.326569, 35.486012, 60.0 ] } },
{ "type": "Feature", "properties": { "value": 17.983 }, "geometry": { "type": "Point", "coordinates": [ 129.327667, 35.486008, 60.0 ] } },
{ "type": "Feature", "properties": { "value": 17.589 }, "geometry": { "type": "Point", "coordinates": [ 129.328781, 35.486004, 60.0 ] } },
{ "type": "Feature", "properties": { "value": 15.03 }, "geometry": { "type": "Point", "coordinates": [ 129.32988, 35.486, 60.0 ] } },
{ "type": "Feature", "properties": { "value": 11.24 }, "geometry": { "type": "Point", "coordinates": [ 129.330978, 35.485996, 60.0 ] } },
{ "type": "Feature", "properties": { "value": 7.3623 }, "geometry": { "type": "Point", "coordinates": [ 129.332077, 35.485996, 60.0 ] } },
{ "type": "Feature", "properties": { "value": 4.2085 }, "geometry": { "type": "Point", "coordinates": [ 129.333176, 35.485992, 60.0 ] } },
{ "type": "Feature", "properties": { "value": 2.1063 }, "geometry": { "type": "Point", "coordinates": [ 129.33429, 35.485989, 60.0 ] } },
{ "type": "Feature", "properties": { "value": 0.9154 }, "geometry": { "type": "Point", "coordinates": [ 129.335388, 35.485985, 60.0 ] } },
{ "type": "Feature", "properties": { "value": 0.3271 }, "geometry": { "type": "Point", "coordinates": [ 129.336487, 35.485981, 60.0 ] } },
{ "type": "Feature", "properties": { "value": 0.0257 }, "geometry": { "type": "Point", "coordinates": [ 129.317764, 35.486935, 60.0 ] } },
{ "type": "Feature", "properties": { "value": 0.1968 }, "geometry": { "type": "Point", "coordinates": [ 129.318863, 35.486931, 60.0 ] } },
{ "type": "Feature", "properties": { "value": 0.5591 }, "geometry": { "type": "Point", "coordinates": [ 129.319962, 35.486931, 60.0 ] } },
{ "type": "Feature", "properties": { "value": 1.3117 }, "geometry": { "type": "Point", "coordinates": [ 129.32106, 35.486927, 60.0 ] } },
{ "type": "Feature", "properties": { "value": 2.68 }, "geometry": { "type": "Point", "coordinates": [ 129.322174, 35.486923, 60.0 ] } },
{ "type": "Feature", "properties": { "value": 4.8576 }, "geometry": { "type": "Point", "coordinates": [ 129.323273, 35.486919, 60.0 ] } },
{ "type": "Feature", "properties": { "value": 7.7803 }, "geometry": { "type": "Point", "coordinates": [ 129.324371, 35.486916, 60.0 ] } },
{ "type": "Feature", "properties": { "value": 11.042 }, "geometry": { "type": "Point", "coordinates": [ 129.32547, 35.486916, 60.0 ] } },
{ "type": "Feature", "properties": { "value": 13.84 }, "geometry": { "type": "Point", "coordinates": [ 129.326569, 35.486912, 60.0 ] } },
{ "type": "Feature", "properties": { "value": 15.321 }, "geometry": { "type": "Point", "coordinates": [ 129.327682, 35.486908, 60.0 ] } },
{ "type": "Feature", "properties": { "value": 14.891 }, "geometry": { "type": "Point", "coordinates": [ 129.328781, 35.486904, 60.0 ] } },
{ "type": "Feature", "properties": { "value": 12.702 }, "geometry": { "type": "Point", "coordinates": [ 129.32988, 35.486904, 60.0 ] } },
{ "type": "Feature", "properties": { "value": 9.5462 }, "geometry": { "type": "Point", "coordinates": [ 129.330978, 35.4869, 60.0 ] } },
{ "type": "Feature", "properties": { "value": 6.2956 }, "geometry": { "type": "Point", "coordinates": [ 129.332092, 35.486897, 60.0 ] } },
{ "type": "Feature", "properties": { "value": 3.6532 }, "geometry": { "type": "Point", "coordinates": [ 129.333191, 35.486893, 60.0 ] } },
{ "type": "Feature", "properties": { "value": 1.8482 }, "geometry": { "type": "Point", "coordinates": [ 129.33429, 35.486889, 60.0 ] } },
{ "type": "Feature", "properties": { "value": 0.8141 }, "geometry": { "type": "Point", "coordinates": [ 129.335388, 35.486889, 60.0 ] } },
{ "type": "Feature", "properties": { "value": 0.2903 }, "geometry": { "type": "Point", "coordinates": [ 129.336487, 35.486885, 60.0 ] } },
{ "type": "Feature", "properties": { "value": 0.0081 }, "geometry": { "type": "Point", "coordinates": [ 129.337601, 35.486881, 60.0 ] } },
{ "type": "Feature", "properties": { "value": 0.0369 }, "geometry": { "type": "Point", "coordinates": [ 129.317764, 35.487835, 60.0 ] } },
{ "type": "Feature", "properties": { "value": 0.1902 }, "geometry": { "type": "Point", "coordinates": [ 129.318863, 35.487835, 60.0 ] } },
{ "type": "Feature", "properties": { "value": 0.5144 }, "geometry": { "type": "Point", "coordinates": [ 129.319962, 35.487831, 60.0 ] } },
{ "type": "Feature", "properties": { "value": 1.1837 }, "geometry": { "type": "Point", "coordinates": [ 129.321075, 35.487827, 60.0 ] } },
{ "type": "Feature", "properties": { "value": 2.3528 }, "geometry": { "type": "Point", "coordinates": [ 129.322174, 35.487823, 60.0 ] } },
{ "type": "Feature", "properties": { "value": 4.1848 }, "geometry": { "type": "Point", "coordinates": [ 129.323273, 35.48782, 60.0 ] } },
{ "type": "Feature", "properties": { "value": 6.5721 }, "geometry": { "type": "Point", "coordinates": [ 129.324371, 35.48782, 60.0 ] } },
{ "type": "Feature", "properties": { "value": 9.182 }, "geometry": { "type": "Point", "coordinates": [ 129.32547, 35.487816, 60.0 ] } },
{ "type": "Feature", "properties": { "value": 11.354 }, "geometry": { "type": "Point", "coordinates": [ 129.326584, 35.487812, 60.0 ] } },
{ "type": "Feature", "properties": { "value": 12.434 }, "geometry": { "type": "Point", "coordinates": [ 129.327682, 35.487808, 60.0 ] } },
{ "type": "Feature", "properties": { "value": 12.016 }, "geometry": { "type": "Point", "coordinates": [ 129.328781, 35.487808, 60.0 ] } },
{ "type": "Feature", "properties": { "value": 10.242 }, "geometry": { "type": "Point", "coordinates": [ 129.32988, 35.487804, 60.0 ] } },
{ "type": "Feature", "properties": { "value": 7.7155 }, "geometry": { "type": "Point", "coordinates": [ 129.330994, 35.487801, 60.0 ] } },
{ "type": "Feature", "properties": { "value": 5.1102 }, "geometry": { "type": "Point", "coordinates": [ 129.332092, 35.487797, 60.0 ] } },
{ "type": "Feature", "properties": { "value": 2.9915 }, "geometry": { "type": "Point", "coordinates": [ 129.333191, 35.487793, 60.0 ] } },
{ "type": "Feature", "properties": { "value": 1.5267 }, "geometry": { "type": "Point", "coordinates": [ 129.33429, 35.487793, 60.0 ] } },
{ "type": "Feature", "properties": { "value": 0.6883 }, "geometry": { "type": "Point", "coordinates": [ 129.335388, 35.487789, 60.0 ] } },
{ "type": "Feature", "properties": { "value": 0.2577 }, "geometry": { "type": "Point", "coordinates": [ 129.336502, 35.487785, 60.0 ] } },
{ "type": "Feature", "properties": { "value": 0.0237 }, "geometry": { "type": "Point", "coordinates": [ 129.337601, 35.487782, 60.0 ] } },
{ "type": "Feature", "properties": { "value": 0.0292 }, "geometry": { "type": "Point", "coordinates": [ 129.317764, 35.488739, 60.0 ] } },
{ "type": "Feature", "properties": { "value": 0.1586 }, "geometry": { "type": "Point", "coordinates": [ 129.318863, 35.488735, 60.0 ] } },
{ "type": "Feature", "properties": { "value": 0.4331 }, "geometry": { "type": "Point", "coordinates": [ 129.319977, 35.488731, 60.0 ] } },
{ "type": "Feature", "properties": { "value": 0.9863 }, "geometry": { "type": "Point", "coordinates": [ 129.321075, 35.488728, 60.0 ] } },
{ "type": "Feature", "properties": { "value": 1.9301 }, "geometry": { "type": "Point", "coordinates": [ 129.322174, 35.488728, 60.0 ] } },
{ "type": "Feature", "properties": { "value": 3.365 }, "geometry": { "type": "Point", "coordinates": [ 129.323273, 35.488724, 60.0 ] } },
{ "type": "Feature", "properties": { "value": 5.2193 }, "geometry": { "type": "Point", "coordinates": [ 129.324371, 35.48872, 60.0 ] } },
{ "type": "Feature", "properties": { "value": 7.1814 }, "geometry": { "type": "Point", "coordinates": [ 129.325485, 35.488716, 60.0 ] } },
{ "type": "Feature", "properties": { "value": 8.7873 }, "geometry": { "type": "Point", "coordinates": [ 129.326584, 35.488712, 60.0 ] } },
{ "type": "Feature", "properties": { "value": 9.5292 }, "geometry": { "type": "Point", "coordinates": [ 129.327682, 35.488712, 60.0 ] } },
{ "type": "Feature", "properties": { "value": 9.1569 }, "geometry": { "type": "Point", "coordinates": [ 129.328781, 35.488708, 60.0 ] } },
{ "type": "Feature", "properties": { "value": 7.7968 }, "geometry": { "type": "Point", "coordinates": [ 129.329895, 35.488705, 60.0 ] } },
{ "type": "Feature", "properties": { "value": 5.873 }, "geometry": { "type": "Point", "coordinates": [ 129.330994, 35.488701, 60.0 ] } },
{ "type": "Feature", "properties": { "value": 3.916 }, "geometry": { "type": "Point", "coordinates": [ 129.332092, 35.488697, 60.0 ] } },
{ "type": "Feature", "properties": { "value": 2.2995 }, "geometry": { "type": "Point", "coordinates": [ 129.333191, 35.488697, 60.0 ] } },
{ "type": "Feature", "properties": { "value": 1.1902 }, "geometry": { "type": "Point", "coordinates": [ 129.33429, 35.488693, 60.0 ] } },
{ "type": "Feature", "properties": { "value": 0.5324 }, "geometry": { "type": "Point", "coordinates": [ 129.335403, 35.488689, 60.0 ] } },
{ "type": "Feature", "properties": { "value": 0.1955 }, "geometry": { "type": "Point", "coordinates": [ 129.336502, 35.488686, 60.0 ] } },
{ "type": "Feature", "properties": { "value": 0.0263 }, "geometry": { "type": "Point", "coordinates": [ 129.317764, 35.489639, 60.0 ] } },
{ "type": "Feature", "properties": { "value": 0.1256 }, "geometry": { "type": "Point", "coordinates": [ 129.318878, 35.489635, 60.0 ] } },
{ "type": "Feature", "properties": { "value": 0.3325 }, "geometry": { "type": "Point", "coordinates": [ 129.319977, 35.489632, 60.0 ] } },
{ "type": "Feature", "properties": { "value": 0.7561 }, "geometry": { "type": "Point", "coordinates": [ 129.321075, 35.489632, 60.0 ] } },
{ "type": "Feature", "properties": { "value": 1.4619 }, "geometry": { "type": "Point", "coordinates": [ 129.322174, 35.489628, 60.0 ] } },
{ "type": "Feature", "properties": { "value": 2.5166 }, "geometry": { "type": "Point", "coordinates": [ 129.323273, 35.489624, 60.0 ] } },
{ "type": "Feature", "properties": { "value": 3.8569 }, "geometry": { "type": "Point", "coordinates": [ 129.324387, 35.48962, 60.0 ] } },
{ "type": "Feature", "properties": { "value": 5.2425 }, "geometry": { "type": "Point", "coordinates": [ 129.325485, 35.489616, 60.0 ] } },
{ "type": "Feature", "properties": { "value": 6.3698 }, "geometry": { "type": "Point", "coordinates": [ 129.326584, 35.489616, 60.0 ] } },
{ "type": "Feature", "properties": { "value": 6.8551 }, "geometry": { "type": "Point", "coordinates": [ 129.327682, 35.489613, 60.0 ] } },
{ "type": "Feature", "properties": { "value": 6.5525 }, "geometry": { "type": "Point", "coordinates": [ 129.328796, 35.489609, 60.0 ] } },
{ "type": "Feature", "properties": { "value": 5.5641 }, "geometry": { "type": "Point", "coordinates": [ 129.329895, 35.489605, 60.0 ] } },
{ "type": "Feature", "properties": { "value": 4.1821 }, "geometry": { "type": "Point", "coordinates": [ 129.330994, 35.489605, 60.0 ] } },
{ "type": "Feature", "properties": { "value": 2.8043 }, "geometry": { "type": "Point", "coordinates": [ 129.332092, 35.489601, 60.0 ] } },
{ "type": "Feature", "properties": { "value": 1.6557 }, "geometry": { "type": "Point", "coordinates": [ 129.333191, 35.489597, 60.0 ] } },
{ "type": "Feature", "properties": { "value": 0.8632 }, "geometry": { "type": "Point", "coordinates": [ 129.334305, 35.489594, 60.0 ] } },
{ "type": "Feature", "properties": { "value": 0.3872 }, "geometry": { "type": "Point", "coordinates": [ 129.335403, 35.48959, 60.0 ] } },
{ "type": "Feature", "properties": { "value": 0.1322 }, "geometry": { "type": "Point", "coordinates": [ 129.336502, 35.48959, 60.0 ] } },
{ "type": "Feature", "properties": { "value": 0.0086 }, "geometry": { "type": "Point", "coordinates": [ 129.31778, 35.49054, 60.0 ] } },
{ "type": "Feature", "properties": { "value": 0.0833 }, "geometry": { "type": "Point", "coordinates": [ 129.318878, 35.490536, 60.0 ] } },
{ "type": "Feature", "properties": { "value": 0.2308 }, "geometry": { "type": "Point", "coordinates": [ 129.319977, 35.490536, 60.0 ] } },
{ "type": "Feature", "properties": { "value": 0.5305 }, "geometry": { "type": "Point", "coordinates": [ 129.321075, 35.490532, 60.0 ] } },
{ "type": "Feature", "properties": { "value": 1.0177 }, "geometry": { "type": "Point", "coordinates": [ 129.322174, 35.490528, 60.0 ] } },
{ "type": "Feature", "properties": { "value": 1.7358 }, "geometry": { "type": "Point", "coordinates": [ 129.323288, 35.490524, 60.0 ] } },
{ "type": "Feature", "properties": { "value": 2.6354 }, "geometry": { "type": "Point", "coordinates": [ 129.324387, 35.490524, 60.0 ] } },
{ "type": "Feature", "properties": { "value": 3.5497 }, "geometry": { "type": "Point", "coordinates": [ 129.325485, 35.49052, 60.0 ] } },
{ "type": "Feature", "properties": { "value": 4.2741 }, "geometry": { "type": "Point", "coordinates": [ 129.326584, 35.490517, 60.0 ] } },
{ "type": "Feature", "properties": { "value": 4.5748 }, "geometry": { "type": "Point", "coordinates": [ 129.327698, 35.490513, 60.0 ] } },
{ "type": "Feature", "properties": { "value": 4.3533 }, "geometry": { "type": "Point", "coordinates": [ 129.328796, 35.490509, 60.0 ] } },
{ "type": "Feature", "properties": { "value": 3.6867 }, "geometry": { "type": "Point", "coordinates": [ 129.329895, 35.490509, 60.0 ] } },
{ "type": "Feature", "properties": { "value": 2.7744 }, "geometry": { "type": "Point", "coordinates": [ 129.330994, 35.490505, 60.0 ] } },
{ "type": "Feature", "properties": { "value": 1.8641 }, "geometry": { "type": "Point", "coordinates": [ 129.332092, 35.490501, 60.0 ] } },
{ "type": "Feature", "properties": { "value": 1.1041 }, "geometry": { "type": "Point", "coordinates": [ 129.333206, 35.490498, 60.0 ] } },
{ "type": "Feature", "properties": { "value": 0.5777 }, "geometry": { "type": "Point", "coordinates": [ 129.334305, 35.490494, 60.0 ] } },
{ "type": "Feature", "properties": { "value": 0.2595 }, "geometry": { "type": "Point", "coordinates": [ 129.335403, 35.490494, 60.0 ] } },
{ "type": "Feature", "properties": { "value": 0.0841 }, "geometry": { "type": "Point", "coordinates": [ 129.336502, 35.49049, 60.0 ] } },
{ "type": "Feature", "properties": { "value": 0.0464 }, "geometry": { "type": "Point", "coordinates": [ 129.318878, 35.49144, 60.0 ] } },
{ "type": "Feature", "properties": { "value": 0.1428 }, "geometry": { "type": "Point", "coordinates": [ 129.319977, 35.491436, 60.0 ] } },
{ "type": "Feature", "properties": { "value": 0.3389 }, "geometry": { "type": "Point", "coordinates": [ 129.321091, 35.491432, 60.0 ] } },
{ "type": "Feature", "properties": { "value": 0.6481 }, "geometry": { "type": "Point", "coordinates": [ 129.322189, 35.491428, 60.0 ] } },
{ "type": "Feature", "properties": { "value": 1.099 }, "geometry": { "type": "Point", "coordinates": [ 129.323288, 35.491428, 60.0 ] } },
{ "type": "Feature", "properties": { "value": 1.6419 }, "geometry": { "type": "Point", "coordinates": [ 129.324387, 35.491425, 60.0 ] } },
{ "type": "Feature", "properties": { "value": 2.2152 }, "geometry": { "type": "Point", "coordinates": [ 129.325485, 35.491421, 60.0 ] } },
{ "type": "Feature", "properties": { "value": 2.6443 }, "geometry": { "type": "Point", "coordinates": [ 129.326599, 35.491417, 60.0 ] } },
{ "type": "Feature", "properties": { "value": 2.8163 }, "geometry": { "type": "Point", "coordinates": [ 129.327698, 35.491413, 60.0 ] } },
{ "type": "Feature", "properties": { "value": 2.6698 }, "geometry": { "type": "Point", "coordinates": [ 129.328796, 35.491413, 60.0 ] } },
{ "type": "Feature", "properties": { "value": 2.2562 }, "geometry": { "type": "Point", "coordinates": [ 129.329895, 35.491409, 60.0 ] } },
{ "type": "Feature", "properties": { "value": 1.7019 }, "geometry": { "type": "Point", "coordinates": [ 129.331009, 35.491405, 60.0 ] } },
{ "type": "Feature", "properties": { "value": 1.1308 }, "geometry": { "type": "Point", "coordinates": [ 129.332108, 35.491402, 60.0 ] } },
{ "type": "Feature", "properties": { "value": 0.6622 }, "geometry": { "type": "Point", "coordinates": [ 129.333206, 35.491398, 60.0 ] } },
{ "type": "Feature", "properties": { "value": 0.3484 }, "geometry": { "type": "Point", "coordinates": [ 129.334305, 35.491398, 60.0 ] } },
{ "type": "Feature", "properties": { "value": 0.1512 }, "geometry": { "type": "Point", "coordinates": [ 129.335403, 35.491394, 60.0 ] } },
{ "type": "Feature", "properties": { "value": 0.0391 }, "geometry": { "type": "Point", "coordinates": [ 129.336517, 35.49139, 60.0 ] } },
{ "type": "Feature", "properties": { "value": 0.0252 }, "geometry": { "type": "Point", "coordinates": [ 129.318878, 35.49234, 60.0 ] } },
{ "type": "Feature", "properties": { "value": 0.0766 }, "geometry": { "type": "Point", "coordinates": [ 129.319992, 35.492336, 60.0 ] } },
{ "type": "Feature", "properties": { "value": 0.1888 }, "geometry": { "type": "Point", "coordinates": [ 129.321091, 35.492332, 60.0 ] } },
{ "type": "Feature", "properties": { "value": 0.3757 }, "geometry": { "type": "Point", "coordinates": [ 129.322189, 35.492332, 60.0 ] } },
{ "type": "Feature", "properties": { "value": 0.6291 }, "geometry": { "type": "Point", "coordinates": [ 129.323288, 35.492329, 60.0 ] } },
{ "type": "Feature", "properties": { "value": 0.9432 }, "geometry": { "type": "Point", "coordinates": [ 129.324387, 35.492325, 60.0 ] } },
{ "type": "Feature", "properties": { "value": 1.2682 }, "geometry": { "type": "Point", "coordinates": [ 129.3255, 35.492321, 60.0 ] } },
{ "type": "Feature", "properties": { "value": 1.5058 }, "geometry": { "type": "Point", "coordinates": [ 129.326599, 35.492317, 60.0 ] } },
{ "type": "Feature", "properties": { "value": 1.5969 }, "geometry": { "type": "Point", "coordinates": [ 129.327698, 35.492317, 60.0 ] } },
{ "type": "Feature", "properties": { "value": 1.5101 }, "geometry": { "type": "Point", "coordinates": [ 129.328796, 35.492313, 60.0 ] } },
{ "type": "Feature", "properties": { "value": 1.2745 }, "geometry": { "type": "Point", "coordinates": [ 129.32991, 35.49231, 60.0 ] } },
{ "type": "Feature", "properties": { "value": 0.9452 }, "geometry": { "type": "Point", "coordinates": [ 129.331009, 35.492306, 60.0 ] } },
{ "type": "Feature", "properties": { "value": 0.6366 }, "geometry": { "type": "Point", "coordinates": [ 129.332108, 35.492306, 60.0 ] } },
{ "type": "Feature", "properties": { "value": 0.3706 }, "geometry": { "type": "Point", "coordinates": [ 129.333206, 35.492302, 60.0 ] } },
{ "type": "Feature", "properties": { "value": 0.1878 }, "geometry": { "type": "Point", "coordinates": [ 129.334305, 35.492298, 60.0 ] } },
{ "type": "Feature", "properties": { "value": 0.0668 }, "geometry": { "type": "Point", "coordinates": [ 129.335419, 35.492294, 60.0 ] } },
{ "type": "Feature", "properties": { "value": 0.0074 }, "geometry": { "type": "Point", "coordinates": [ 129.336517, 35.49229, 60.0 ] } },
{ "type": "Feature", "properties": { "value": 0.0065 }, "geometry": { "type": "Point", "coordinates": [ 129.318893, 35.49324, 60.0 ] } },
{ "type": "Feature", "properties": { "value": 0.0329 }, "geometry": { "type": "Point", "coordinates": [ 129.319992, 35.493237, 60.0 ] } },
{ "type": "Feature", "properties": { "value": 0.0882 }, "geometry": { "type": "Point", "coordinates": [ 129.321091, 35.493237, 60.0 ] } },
{ "type": "Feature", "properties": { "value": 0.1909 }, "geometry": { "type": "Point", "coordinates": [ 129.322189, 35.493233, 60.0 ] } },
{ "type": "Feature", "properties": { "value": 0.3231 }, "geometry": { "type": "Point", "coordinates": [ 129.323288, 35.493229, 60.0 ] } },
{ "type": "Feature", "properties": { "value": 0.4933 }, "geometry": { "type": "Point", "coordinates": [ 129.324402, 35.493225, 60.0 ] } },
{ "type": "Feature", "properties": { "value": 0.6507 }, "geometry": { "type": "Point", "coordinates": [ 129.3255, 35.493225, 60.0 ] } },
{ "type": "Feature", "properties": { "value": 0.7768 }, "geometry": { "type": "Point", "coordinates": [ 129.326599, 35.493221, 60.0 ] } },
{ "type": "Feature", "properties": { "value": 0.8286 }, "geometry": { "type": "Point", "coordinates": [ 129.327698, 35.493217, 60.0 ] } },
{ "type": "Feature", "properties": { "value": 0.7745 }, "geometry": { "type": "Point", "coordinates": [ 129.328812, 35.493214, 60.0 ] } },
{ "type": "Feature", "properties": { "value": 0.653 }, "geometry": { "type": "Point", "coordinates": [ 129.32991, 35.49321, 60.0 ] } },
{ "type": "Feature", "properties": { "value": 0.4855 }, "geometry": { "type": "Point", "coordinates": [ 129.331009, 35.49321, 60.0 ] } },
{ "type": "Feature", "properties": { "value": 0.3195 }, "geometry": { "type": "Point", "coordinates": [ 129.332108, 35.493206, 60.0 ] } },
{ "type": "Feature", "properties": { "value": 0.1807 }, "geometry": { "type": "Point", "coordinates": [ 129.333206, 35.493202, 60.0 ] } },
{ "type": "Feature", "properties": { "value": 0.0855 }, "geometry": { "type": "Point", "coordinates": [ 129.33432, 35.493198, 60.0 ] } },
{ "type": "Feature", "properties": { "value": 0.0267 }, "geometry": { "type": "Point", "coordinates": [ 129.335419, 35.493195, 60.0 ] } },
{ "type": "Feature", "properties": { "value": 0.0078 }, "geometry": { "type": "Point", "coordinates": [ 129.319992, 35.494141, 60.0 ] } },
{ "type": "Feature", "properties": { "value": 0.0346 }, "geometry": { "type": "Point", "coordinates": [ 129.321091, 35.494137, 60.0 ] } },
{ "type": "Feature", "properties": { "value": 0.0817 }, "geometry": { "type": "Point", "coordinates": [ 129.322189, 35.494133, 60.0 ] } },
{ "type": "Feature", "properties": { "value": 0.1503 }, "geometry": { "type": "Point", "coordinates": [ 129.323303, 35.494129, 60.0 ] } },
{ "type": "Feature", "properties": { "value": 0.2271 }, "geometry": { "type": "Point", "coordinates": [ 129.324402, 35.494129, 60.0 ] } },
{ "type": "Feature", "properties": { "value": 0.3064 }, "geometry": { "type": "Point", "coordinates": [ 129.3255, 35.494125, 60.0 ] } },
{ "type": "Feature", "properties": { "value": 0.3601 }, "geometry": { "type": "Point", "coordinates": [ 129.326599, 35.494122, 60.0 ] } },
{ "type": "Feature", "properties": { "value": 0.3788 }, "geometry": { "type": "Point", "coordinates": [ 129.327713, 35.494118, 60.0 ] } },
{ "type": "Feature", "properties": { "value": 0.3566 }, "geometry": { "type": "Point", "coordinates": [ 129.328812, 35.494114, 60.0 ] } },
{ "type": "Feature", "properties": { "value": 0.3002 }, "geometry": { "type": "Point", "coordinates": [ 129.32991, 35.494114, 60.0 ] } },
{ "type": "Feature", "properties": { "value": 0.2188 }, "geometry": { "type": "Point", "coordinates": [ 129.331009, 35.49411, 60.0 ] } },
{ "type": "Feature", "properties": { "value": 0.1413 }, "geometry": { "type": "Point", "coordinates": [ 129.332108, 35.494106, 60.0 ] } },
{ "type": "Feature", "properties": { "value": 0.0733 }, "geometry": { "type": "Point", "coordinates": [ 129.333221, 35.494102, 60.0 ] } },
{ "type": "Feature", "properties": { "value": 0.0288 }, "geometry": { "type": "Point", "coordinates": [ 129.33432, 35.494099, 60.0 ] } },
{ "type": "Feature", "properties": { "value": 0.0075 }, "geometry": { "type": "Point", "coordinates": [ 129.321091, 35.495037, 60.0 ] } },
{ "type": "Feature", "properties": { "value": 0.0293 }, "geometry": { "type": "Point", "coordinates": [ 129.322205, 35.495033, 60.0 ] } },
{ "type": "Feature", "properties": { "value": 0.0545 }, "geometry": { "type": "Point", "coordinates": [ 129.323303, 35.495033, 60.0 ] } },
{ "type": "Feature", "properties": { "value": 0.0883 }, "geometry": { "type": "Point", "coordinates": [ 129.324402, 35.495029, 60.0 ] } },
{ "type": "Feature", "properties": { "value": 0.1291 }, "geometry": { "type": "Point", "coordinates": [ 129.3255, 35.495026, 60.0 ] } },
{ "type": "Feature", "properties": { "value": 0.1511 }, "geometry": { "type": "Point", "coordinates": [ 129.326614, 35.495022, 60.0 ] } },
{ "type": "Feature", "properties": { "value": 0.1584 }, "geometry": { "type": "Point", "coordinates": [ 129.327713, 35.495022, 60.0 ] } },
{ "type": "Feature", "properties": { "value": 0.1487 }, "geometry": { "type": "Point", "coordinates": [ 129.328812, 35.495018, 60.0 ] } },
{ "type": "Feature", "properties": { "value": 0.125 }, "geometry": { "type": "Point", "coordinates": [ 129.32991, 35.495014, 60.0 ] } },
{ "type": "Feature", "properties": { "value": 0.0827 }, "geometry": { "type": "Point", "coordinates": [ 129.331009, 35.49501, 60.0 ] } },
{ "type": "Feature", "properties": { "value": 0.0494 }, "geometry": { "type": "Point", "coordinates": [ 129.332123, 35.495007, 60.0 ] } },
{ "type": "Feature", "properties": { "value": 0.0251 }, "geometry": { "type": "Point", "coordinates": [ 129.333221, 35.495007, 60.0 ] } },
{ "type": "Feature", "properties": { "value": 0.0093 }, "geometry": { "type": "Point", "coordinates": [ 129.323303, 35.495934, 60.0 ] } },
{ "type": "Feature", "properties": { "value": 0.0287 }, "geometry": { "type": "Point", "coordinates": [ 129.324402, 35.49593, 60.0 ] } },
{ "type": "Feature", "properties": { "value": 0.0371 }, "geometry": { "type": "Point", "coordinates": [ 129.325516, 35.495926, 60.0 ] } },
{ "type": "Feature", "properties": { "value": 0.0498 }, "geometry": { "type": "Point", "coordinates": [ 129.326614, 35.495926, 60.0 ] } },
{ "type": "Feature", "properties": { "value": 0.0519 }, "geometry": { "type": "Point", "coordinates": [ 129.327713, 35.495922, 60.0 ] } },
{ "type": "Feature", "properties": { "value": 0.0485 }, "geometry": { "type": "Point", "coordinates": [ 129.328812, 35.495918, 60.0 ] } },
{ "type": "Feature", "properties": { "value": 0.0349 }, "geometry": { "type": "Point", "coordinates": [ 129.329926, 35.495914, 60.0 ] } },
{ "type": "Feature", "properties": { "value": 0.0262 }, "geometry": { "type": "Point", "coordinates": [ 129.331024, 35.495911, 60.0 ] } },
{ "type": "Feature", "properties": { "value": 0.0077 }, "geometry": { "type": "Point", "coordinates": [ 129.332123, 35.495911, 60.0 ] } },
{ "type": "Feature", "properties": { "value": 0.0067 }, "geometry": { "type": "Point", "coordinates": [ 129.325516, 35.49683, 60.0 ] } },
{ "type": "Feature", "properties": { "value": 0.0077 }, "geometry": { "type": "Point", "coordinates": [ 129.326614, 35.496826, 60.0 ] } },
{ "type": "Feature", "properties": { "value": 0.0079 }, "geometry": { "type": "Point", "coordinates": [ 129.327713, 35.496822, 60.0 ] } },
{ "type": "Feature", "properties": { "value": 0.0073 }, "geometry": { "type": "Point", "coordinates": [ 129.328827, 35.496819, 60.0 ] } }
]
}
