{
"type": "FeatureCollection",
"features": [
{ "type": "Feature", "properties": { "value": 0.0009 }, "geometry": { "type": "Point", "coordinates": [ 129.327576, 35.46077, 115.0 ] } },
{ "type": "Feature", "properties": { "value": 0.015 }, "geometry": { "type": "Point", "coordinates": [ 129.327576, 35.461674, 115.0 ] } },
{ "type": "Feature", "properties": { "value": 0.027 }, "geometry": { "type": "Point", "coordinates": [ 129.327576, 35.462574, 115.0 ] } },
{ "type": "Feature", "properties": { "value": 0.0374 }, "geometry": { "type": "Point", "coordinates": [ 129.327576, 35.463474, 115.0 ] } },
{ "type": "Feature", "properties": { "value": 0.0156 }, "geometry": { "type": "Point", "coordinates": [ 129.32869, 35.46347, 115.0 ] } },
{ "type": "Feature", "properties": { "value": 0.0579 }, "geometry": { "type": "Point", "coordinates": [ 129.327591, 35.464375, 115.0 ] } },
{ "type": "Feature", "properties": { "value": 0.0554 }, "geometry": { "type": "Point", "coordinates": [ 129.32869, 35.464375, 115.0 ] } },
{ "type": "Feature", "properties": { "value": 0.1398 }, "geometry": { "type": "Point", "coordinates": [ 129.327591, 35.465279, 115.0 ] } },
{ "type": "Feature", "properties": { "value": 0.4541 }, "geometry": { "type": "Point", "coordinates": [ 129.32869, 35.465275, 115.0 ] } },
{ "type": "Feature", "properties": { "value": 0.2925 }, "geometry": { "type": "Point", "coordinates": [ 129.327591, 35.466179, 115.0 ] } },
{ "type": "Feature", "properties": { "value": 2.6741 }, "geometry": { "type": "Point", "coordinates": [ 129.32869, 35.466175, 115.0 ] } },
{ "type": "Feature", "properties": { "value": 0.3885 }, "geometry": { "type": "Point", "coordinates": [ 129.327591, 35.467079, 115.0 ] } },
{ "type": "Feature", "properties": { "value": 6.6034 }, "geometry": { "type": "Point", "coordinates": [ 129.328705, 35.467075, 115.0 ] } },
{ "type": "Feature", "properties": { "value": 0.3325 }, "geometry": { "type": "Point", "coordinates": [ 129.329803, 35.467075, 115.0 ] } },
{ "type": "Feature", "properties": { "value": 0.3816 }, "geometry": { "type": "Point", "coordinates": [ 129.327606, 35.467983, 115.0 ] } },
{ "type": "Feature", "properties": { "value": 10.151 }, "geometry": { "type": "Point", "coordinates": [ 129.328705, 35.467979, 115.0 ] } },
{ "type": "Feature", "properties": { "value": 1.8887 }, "geometry": { "type": "Point", "coordinates": [ 129.329803, 35.467976, 115.0 ] } },
{ "type": "Feature", "properties": { "value": 0.2616 }, "geometry": { "type": "Point", "coordinates": [ 129.327606, 35.468884, 115.0 ] } },
{ "type": "Feature", "properties": { "value": 10.847 }, "geometry": { "type": "Point", "coordinates": [ 129.328705, 35.46888, 115.0 ] } },
{ "type": "Feature", "properties": { "value": 4.9977 }, "geometry": { "type": "Point", "coordinates": [ 129.329803, 35.468876, 115.0 ] } },
{ "type": "Feature", "properties": { "value": 0.1159 }, "geometry": { "type": "Point", "coordinates": [ 129.327606, 35.469784, 115.0 ] } },
{ "type": "Feature", "properties": { "value": 7.9586 }, "geometry": { "type": "Point", "coordinates": [ 129.328705, 35.46978, 115.0 ] } },
{ "type": "Feature", "properties": { "value": 6.7953 }, "geometry": { "type": "Point", "coordinates": [ 129.329819, 35.469776, 115.0 ] } },
{ "type": "Feature", "properties": { "value": 0.0735 }, "geometry": { "type": "Point", "coordinates": [ 129.330917, 35.469776, 115.0 ] } },
{ "type": "Feature", "properties": { "value": 3.5884 }, "geometry": { "type": "Point", "coordinates": [ 129.32872, 35.470684, 115.0 ] } },
{ "type": "Feature", "properties": { "value": 4.134 }, "geometry": { "type": "Point", "coordinates": [ 129.329819, 35.47068, 115.0 ] } },
{ "type": "Feature", "properties": { "value": 0.1082 }, "geometry": { "type": "Point", "coordinates": [ 129.330917, 35.470676, 115.0 ] } },
{ "type": "Feature", "properties": { "value": 0.8183 }, "geometry": { "type": "Point", "coordinates": [ 129.32872, 35.471584, 115.0 ] } },
{ "type": "Feature", "properties": { "value": 1.2656 }, "geometry": { "type": "Point", "coordinates": [ 129.329819, 35.471581, 115.0 ] } },
{ "type": "Feature", "properties": { "value": 0.0999 }, "geometry": { "type": "Point", "coordinates": [ 129.330917, 35.471577, 115.0 ] } },
{ "type": "Feature", "properties": { "value": 0.1549 }, "geometry": { "type": "Point", "coordinates": [ 129.32872, 35.472485, 115.0 ] } },
{ "type": "Feature", "properties": { "value": 0.5773 }, "geometry": { "type": "Point", "coordinates": [ 129.329819, 35.472481, 115.0 ] } },
{ "type": "Feature", "properties": { "value": 0.2512 }, "geometry": { "type": "Point", "coordinates": [ 129.330917, 35.472477, 115.0 ] } },
{ "type": "Feature", "properties": { "value": 0.0091 }, "geometry": { "type": "Point", "coordinates": [ 129.332031, 35.472477, 115.0 ] } },
{ "type": "Feature", "properties": { "value": 0.0674 }, "geometry": { "type": "Point", "coordinates": [ 129.32872, 35.473385, 115.0 ] } },
{ "type": "Feature", "properties": { "value": 0.8379 }, "geometry": { "type": "Point", "coordinates": [ 129.329819, 35.473385, 115.0 ] } },
{ "type": "Feature", "properties": { "value": 1.383 }, "geometry": { "type": "Point", "coordinates": [ 129.330933, 35.473381, 115.0 ] } },
{ "type": "Feature", "properties": { "value": 0.2783 }, "geometry": { "type": "Point", "coordinates": [ 129.332031, 35.473377, 115.0 ] } },
{ "type": "Feature", "properties": { "value": 0.0647 }, "geometry": { "type": "Point", "coordinates": [ 129.328735, 35.474289, 115.0 ] } },
{ "type": "Feature", "properties": { "value": 1.7629 }, "geometry": { "type": "Point", "coordinates": [ 129.329834, 35.474285, 115.0 ] } },
{ "type": "Feature", "properties": { "value": 5.3045 }, "geometry": { "type": "Point", "coordinates": [ 129.330933, 35.474281, 115.0 ] } },
{ "type": "Feature", "properties": { "value": 1.9359 }, "geometry": { "type": "Point", "coordinates": [ 129.332031, 35.474277, 115.0 ] } },
{ "type": "Feature", "properties": { "value": 0.0557 }, "geometry": { "type": "Point", "coordinates": [ 129.328735, 35.475189, 115.0 ] } },
{ "type": "Feature", "properties": { "value": 2.2014 }, "geometry": { "type": "Point", "coordinates": [ 129.329834, 35.475185, 115.0 ] } },
{ "type": "Feature", "properties": { "value": 10.181 }, "geometry": { "type": "Point", "coordinates": [ 129.330933, 35.475182, 115.0 ] } },
{ "type": "Feature", "properties": { "value": 5.6366 }, "geometry": { "type": "Point", "coordinates": [ 129.332031, 35.475178, 115.0 ] } },
{ "type": "Feature", "properties": { "value": 0.4674 }, "geometry": { "type": "Point", "coordinates": [ 129.333145, 35.475178, 115.0 ] } },
{ "type": "Feature", "properties": { "value": 2.0178 }, "geometry": { "type": "Point", "coordinates": [ 129.329834, 35.476086, 115.0 ] } },
{ "type": "Feature", "properties": { "value": 13.349 }, "geometry": { "type": "Point", "coordinates": [ 129.330933, 35.476086, 115.0 ] } },
{ "type": "Feature", "properties": { "value": 11.384 }, "geometry": { "type": "Point", "coordinates": [ 129.332047, 35.476082, 115.0 ] } },
{ "type": "Feature", "properties": { "value": 1.7759 }, "geometry": { "type": "Point", "coordinates": [ 129.333145, 35.476078, 115.0 ] } },
{ "type": "Feature", "properties": { "value": 1.5847 }, "geometry": { "type": "Point", "coordinates": [ 129.329834, 35.47699, 115.0 ] } },
{ "type": "Feature", "properties": { "value": 12.731 }, "geometry": { "type": "Point", "coordinates": [ 129.330948, 35.476986, 115.0 ] } },
{ "type": "Feature", "properties": { "value": 16.844 }, "geometry": { "type": "Point", "coordinates": [ 129.332047, 35.476982, 115.0 ] } },
{ "type": "Feature", "properties": { "value": 4.75 }, "geometry": { "type": "Point", "coordinates": [ 129.333145, 35.476978, 115.0 ] } },
{ "type": "Feature", "properties": { "value": 0.272 }, "geometry": { "type": "Point", "coordinates": [ 129.334244, 35.476974, 115.0 ] } },
{ "type": "Feature", "properties": { "value": 1.0014 }, "geometry": { "type": "Point", "coordinates": [ 129.329849, 35.47789, 115.0 ] } },
{ "type": "Feature", "properties": { "value": 9.7786 }, "geometry": { "type": "Point", "coordinates": [ 129.330948, 35.477886, 115.0 ] } },
{ "type": "Feature", "properties": { "value": 19.603 }, "geometry": { "type": "Point", "coordinates": [ 129.332047, 35.477882, 115.0 ] } },
{ "type": "Feature", "properties": { "value": 9.6241 }, "geometry": { "type": "Point", "coordinates": [ 129.333145, 35.477879, 115.0 ] } },
{ "type": "Feature", "properties": { "value": 1.2834 }, "geometry": { "type": "Point", "coordinates": [ 129.334259, 35.477879, 115.0 ] } },
{ "type": "Feature", "properties": { "value": 0.4539 }, "geometry": { "type": "Point", "coordinates": [ 129.329849, 35.47879, 115.0 ] } },
{ "type": "Feature", "properties": { "value": 6.3941 }, "geometry": { "type": "Point", "coordinates": [ 129.330948, 35.478786, 115.0 ] } },
{ "type": "Feature", "properties": { "value": 19.303 }, "geometry": { "type": "Point", "coordinates": [ 129.332047, 35.478786, 115.0 ] } },
{ "type": "Feature", "properties": { "value": 15.755 }, "geometry": { "type": "Point", "coordinates": [ 129.33316, 35.478783, 115.0 ] } },
{ "type": "Feature", "properties": { "value": 3.7964 }, "geometry": { "type": "Point", "coordinates": [ 129.334259, 35.478779, 115.0 ] } },
{ "type": "Feature", "properties": { "value": 0.2028 }, "geometry": { "type": "Point", "coordinates": [ 129.335358, 35.478775, 115.0 ] } },
{ "type": "Feature", "properties": { "value": 0.0388 }, "geometry": { "type": "Point", "coordinates": [ 129.329849, 35.479691, 115.0 ] } },
{ "type": "Feature", "properties": { "value": 3.4867 }, "geometry": { "type": "Point", "coordinates": [ 129.330948, 35.479691, 115.0 ] } },
{ "type": "Feature", "properties": { "value": 15.705 }, "geometry": { "type": "Point", "coordinates": [ 129.332062, 35.479687, 115.0 ] } },
{ "type": "Feature", "properties": { "value": 20.545 }, "geometry": { "type": "Point", "coordinates": [ 129.33316, 35.479683, 115.0 ] } },
{ "type": "Feature", "properties": { "value": 8.4632 }, "geometry": { "type": "Point", "coordinates": [ 129.334259, 35.479679, 115.0 ] } },
{ "type": "Feature", "properties": { "value": 1.1702 }, "geometry": { "type": "Point", "coordinates": [ 129.335358, 35.479675, 115.0 ] } },
{ "type": "Feature", "properties": { "value": 1.5704 }, "geometry": { "type": "Point", "coordinates": [ 129.330963, 35.480591, 115.0 ] } },
{ "type": "Feature", "properties": { "value": 10.482 }, "geometry": { "type": "Point", "coordinates": [ 129.332062, 35.480587, 115.0 ] } },
{ "type": "Feature", "properties": { "value": 21.435 }, "geometry": { "type": "Point", "coordinates": [ 129.33316, 35.480583, 115.0 ] } },
{ "type": "Feature", "properties": { "value": 14.736 }, "geometry": { "type": "Point", "coordinates": [ 129.334259, 35.480579, 115.0 ] } },
{ "type": "Feature", "properties": { "value": 3.7579 }, "geometry": { "type": "Point", "coordinates": [ 129.335358, 35.480579, 115.0 ] } },
{ "type": "Feature", "properties": { "value": 0.3767 }, "geometry": { "type": "Point", "coordinates": [ 129.336472, 35.480576, 115.0 ] } },
{ "type": "Feature", "properties": { "value": 0.6139 }, "geometry": { "type": "Point", "coordinates": [ 129.330963, 35.481491, 115.0 ] } },
{ "type": "Feature", "properties": { "value": 5.9775 }, "geometry": { "type": "Point", "coordinates": [ 129.332062, 35.481487, 115.0 ] } },
{ "type": "Feature", "properties": { "value": 18.239 }, "geometry": { "type": "Point", "coordinates": [ 129.33316, 35.481487, 115.0 ] } },
{ "type": "Feature", "properties": { "value": 19.815 }, "geometry": { "type": "Point", "coordinates": [ 129.334259, 35.481483, 115.0 ] } },
{ "type": "Feature", "properties": { "value": 8.7611 }, "geometry": { "type": "Point", "coordinates": [ 129.335373, 35.48148, 115.0 ] } },
{ "type": "Feature", "properties": { "value": 1.8526 }, "geometry": { "type": "Point", "coordinates": [ 129.336472, 35.481476, 115.0 ] } },
{ "type": "Feature", "properties": { "value": 0.0561 }, "geometry": { "type": "Point", "coordinates": [ 129.33757, 35.481472, 115.0 ] } },
{ "type": "Feature", "properties": { "value": 0.1146 }, "geometry": { "type": "Point", "coordinates": [ 129.330963, 35.482391, 115.0 ] } },
{ "type": "Feature", "properties": { "value": 3.0305 }, "geometry": { "type": "Point", "coordinates": [ 129.332062, 35.482391, 115.0 ] } },
{ "type": "Feature", "properties": { "value": 12.779 }, "geometry": { "type": "Point", "coordinates": [ 129.333176, 35.482388, 115.0 ] } },
{ "type": "Feature", "properties": { "value": 21.01 }, "geometry": { "type": "Point", "coordinates": [ 129.334274, 35.482384, 115.0 ] } },
{ "type": "Feature", "properties": { "value": 14.923 }, "geometry": { "type": "Point", "coordinates": [ 129.335373, 35.48238, 115.0 ] } },
{ "type": "Feature", "properties": { "value": 5.1753 }, "geometry": { "type": "Point", "coordinates": [ 129.336472, 35.482376, 115.0 ] } },
{ "type": "Feature", "properties": { "value": 1.0319 }, "geometry": { "type": "Point", "coordinates": [ 129.33757, 35.482376, 115.0 ] } },
{ "type": "Feature", "properties": { "value": 0.0196 }, "geometry": { "type": "Point", "coordinates": [ 129.338684, 35.482372, 115.0 ] } },
{ "type": "Feature", "properties": { "value": 1.3638 }, "geometry": { "type": "Point", "coordinates": [ 129.332077, 35.483292, 115.0 ] } },
{ "type": "Feature", "properties": { "value": 7.84 }, "geometry": { "type": "Point", "coordinates": [ 129.333176, 35.483288, 115.0 ] } },
{ "type": "Feature", "properties": { "value": 18.331 }, "geometry": { "type": "Point", "coordinates": [ 129.334274, 35.483284, 115.0 ] } },
{ "type": "Feature", "properties": { "value": 19.226 }, "geometry": { "type": "Point", "coordinates": [ 129.335373, 35.48328, 115.0 ] } },
{ "type": "Feature", "properties": { "value": 10.29 }, "geometry": { "type": "Point", "coordinates": [ 129.336472, 35.48328, 115.0 ] } },
{ "type": "Feature", "properties": { "value": 3.3752 }, "geometry": { "type": "Point", "coordinates": [ 129.337585, 35.483276, 115.0 ] } },
{ "type": "Feature", "properties": { "value": 0.7606 }, "geometry": { "type": "Point", "coordinates": [ 129.338684, 35.483273, 115.0 ] } },
{ "type": "Feature", "properties": { "value": 0.0169 }, "geometry": { "type": "Point", "coordinates": [ 129.339783, 35.483269, 115.0 ] } },
{ "type": "Feature", "properties": { "value": 0.5307 }, "geometry": { "type": "Point", "coordinates": [ 129.332077, 35.484192, 115.0 ] } },
{ "type": "Feature", "properties": { "value": 4.1107 }, "geometry": { "type": "Point", "coordinates": [ 129.333176, 35.484188, 115.0 ] } },
{ "type": "Feature", "properties": { "value": 12.817 }, "geometry": { "type": "Point", "coordinates": [ 129.334274, 35.484188, 115.0 ] } },
{ "type": "Feature", "properties": { "value": 18.883 }, "geometry": { "type": "Point", "coordinates": [ 129.335373, 35.484184, 115.0 ] } },
{ "type": "Feature", "properties": { "value": 14.964 }, "geometry": { "type": "Point", "coordinates": [ 129.336487, 35.48418, 115.0 ] } },
{ "type": "Feature", "properties": { "value": 7.3751 }, "geometry": { "type": "Point", "coordinates": [ 129.337585, 35.484177, 115.0 ] } },
{ "type": "Feature", "properties": { "value": 2.5432 }, "geometry": { "type": "Point", "coordinates": [ 129.338684, 35.484173, 115.0 ] } },
{ "type": "Feature", "properties": { "value": 0.6278 }, "geometry": { "type": "Point", "coordinates": [ 129.339783, 35.484173, 115.0 ] } },
{ "type": "Feature", "properties": { "value": 0.0231 }, "geometry": { "type": "Point", "coordinates": [ 129.340897, 35.484169, 115.0 ] } },
{ "type": "Feature", "properties": { "value": 0.1234 }, "geometry": { "type": "Point", "coordinates": [ 129.332077, 35.485092, 115.0 ] } },
{ "type": "Feature", "properties": { "value": 1.9093 }, "geometry": { "type": "Point", "coordinates": [ 129.333176, 35.485092, 115.0 ] } },
{ "type": "Feature", "properties": { "value": 7.5737 }, "geometry": { "type": "Point", "coordinates": [ 129.334274, 35.485088, 115.0 ] } },
{ "type": "Feature", "properties": { "value": 15.024 }, "geometry": { "type": "Point", "coordinates": [ 129.335388, 35.485085, 115.0 ] } },
{ "type": "Feature", "properties": { "value": 16.775 }, "geometry": { "type": "Point", "coordinates": [ 129.336487, 35.485081, 115.0 ] } },
{ "type": "Feature", "properties": { "value": 11.772 }, "geometry": { "type": "Point", "coordinates": [ 129.337585, 35.485077, 115.0 ] } },
{ "type": "Feature", "properties": { "value": 5.7057 }, "geometry": { "type": "Point", "coordinates": [ 129.338684, 35.485077, 115.0 ] } },
{ "type": "Feature", "properties": { "value": 2.0608 }, "geometry": { "type": "Point", "coordinates": [ 129.339798, 35.485073, 115.0 ] } },
{ "type": "Feature", "properties": { "value": 0.5827 }, "geometry": { "type": "Point", "coordinates": [ 129.340897, 35.485069, 115.0 ] } },
{ "type": "Feature", "properties": { "value": 0.0414 }, "geometry": { "type": "Point", "coordinates": [ 129.341995, 35.485065, 115.0 ] } },
{ "type": "Feature", "properties": { "value": 0.818 }, "geometry": { "type": "Point", "coordinates": [ 129.333176, 35.485992, 115.0 ] } },
{ "type": "Feature", "properties": { "value": 4.0128 }, "geometry": { "type": "Point", "coordinates": [ 129.33429, 35.485989, 115.0 ] } },
{ "type": "Feature", "properties": { "value": 10.262 }, "geometry": { "type": "Point", "coordinates": [ 129.335388, 35.485985, 115.0 ] } },
{ "type": "Feature", "properties": { "value": 15.32 }, "geometry": { "type": "Point", "coordinates": [ 129.336487, 35.485981, 115.0 ] } },
{ "type": "Feature", "properties": { "value": 14.554 }, "geometry": { "type": "Point", "coordinates": [ 129.337585, 35.485981, 115.0 ] } },
{ "type": "Feature", "properties": { "value": 9.5322 }, "geometry": { "type": "Point", "coordinates": [ 129.338699, 35.485977, 115.0 ] } },
{ "type": "Feature", "properties": { "value": 4.6444 }, "geometry": { "type": "Point", "coordinates": [ 129.339798, 35.485973, 115.0 ] } },
{ "type": "Feature", "properties": { "value": 1.7939 }, "geometry": { "type": "Point", "coordinates": [ 129.340897, 35.48597, 115.0 ] } },
{ "type": "Feature", "properties": { "value": 0.5694 }, "geometry": { "type": "Point", "coordinates": [ 129.341995, 35.485966, 115.0 ] } },
{ "type": "Feature", "properties": { "value": 0.0902 }, "geometry": { "type": "Point", "coordinates": [ 129.343094, 35.485966, 115.0 ] } },
{ "type": "Feature", "properties": { "value": 0.2926 }, "geometry": { "type": "Point", "coordinates": [ 129.333191, 35.486893, 115.0 ] } },
{ "type": "Feature", "properties": { "value": 1.9662 }, "geometry": { "type": "Point", "coordinates": [ 129.33429, 35.486889, 115.0 ] } },
{ "type": "Feature", "properties": { "value": 6.2602 }, "geometry": { "type": "Point", "coordinates": [ 129.335388, 35.486889, 115.0 ] } },
{ "type": "Feature", "properties": { "value": 11.936 }, "geometry": { "type": "Point", "coordinates": [ 129.336487, 35.486885, 115.0 ] } },
{ "type": "Feature", "properties": { "value": 14.717 }, "geometry": { "type": "Point", "coordinates": [ 129.337601, 35.486881, 115.0 ] } },
{ "type": "Feature", "properties": { "value": 12.615 }, "geometry": { "type": "Point", "coordinates": [ 129.338699, 35.486877, 115.0 ] } },
{ "type": "Feature", "properties": { "value": 8.0155 }, "geometry": { "type": "Point", "coordinates": [ 129.339798, 35.486874, 115.0 ] } },
{ "type": "Feature", "properties": { "value": 4.0166 }, "geometry": { "type": "Point", "coordinates": [ 129.340897, 35.486874, 115.0 ] } },
{ "type": "Feature", "properties": { "value": 1.6783 }, "geometry": { "type": "Point", "coordinates": [ 129.341995, 35.48687, 115.0 ] } },
{ "type": "Feature", "properties": { "value": 0.6034 }, "geometry": { "type": "Point", "coordinates": [ 129.343109, 35.486866, 115.0 ] } },
{ "type": "Feature", "properties": { "value": 0.1764 }, "geometry": { "type": "Point", "coordinates": [ 129.344208, 35.486862, 115.0 ] } },
{ "type": "Feature", "properties": { "value": 0.0141 }, "geometry": { "type": "Point", "coordinates": [ 129.333191, 35.487793, 115.0 ] } },
{ "type": "Feature", "properties": { "value": 0.9018 }, "geometry": { "type": "Point", "coordinates": [ 129.33429, 35.487793, 115.0 ] } },
{ "type": "Feature", "properties": { "value": 3.4735 }, "geometry": { "type": "Point", "coordinates": [ 129.335388, 35.487789, 115.0 ] } },
{ "type": "Feature", "properties": { "value": 8.1685 }, "geometry": { "type": "Point", "coordinates": [ 129.336502, 35.487785, 115.0 ] } },
{ "type": "Feature", "properties": { "value": 12.656 }, "geometry": { "type": "Point", "coordinates": [ 129.337601, 35.487782, 115.0 ] } },
{ "type": "Feature", "properties": { "value": 13.752 }, "geometry": { "type": "Point", "coordinates": [ 129.338699, 35.487778, 115.0 ] } },
{ "type": "Feature", "properties": { "value": 11.092 }, "geometry": { "type": "Point", "coordinates": [ 129.339798, 35.487778, 115.0 ] } },
{ "type": "Feature", "properties": { "value": 7.0214 }, "geometry": { "type": "Point", "coordinates": [ 129.340912, 35.487774, 115.0 ] } },
{ "type": "Feature", "properties": { "value": 3.6983 }, "geometry": { "type": "Point", "coordinates": [ 129.34201, 35.48777, 115.0 ] } },
{ "type": "Feature", "properties": { "value": 1.6909 }, "geometry": { "type": "Point", "coordinates": [ 129.343109, 35.487766, 115.0 ] } },
{ "type": "Feature", "properties": { "value": 0.6904 }, "geometry": { "type": "Point", "coordinates": [ 129.344208, 35.487762, 115.0 ] } },
{ "type": "Feature", "properties": { "value": 0.2469 }, "geometry": { "type": "Point", "coordinates": [ 129.345306, 35.487759, 115.0 ] } },
{ "type": "Feature", "properties": { "value": 0.0079 }, "geometry": { "type": "Point", "coordinates": [ 129.34642, 35.487759, 115.0 ] } },
{ "type": "Feature", "properties": { "value": 0.3589 }, "geometry": { "type": "Point", "coordinates": [ 129.33429, 35.488693, 115.0 ] } },
{ "type": "Feature", "properties": { "value": 1.7678 }, "geometry": { "type": "Point", "coordinates": [ 129.335403, 35.488689, 115.0 ] } },
{ "type": "Feature", "properties": { "value": 4.9907 }, "geometry": { "type": "Point", "coordinates": [ 129.336502, 35.488686, 115.0 ] } },
{ "type": "Feature", "properties": { "value": 9.4501 }, "geometry": { "type": "Point", "coordinates": [ 129.337601, 35.488682, 115.0 ] } },
{ "type": "Feature", "properties": { "value": 12.676 }, "geometry": { "type": "Point", "coordinates": [ 129.338699, 35.488682, 115.0 ] } },
{ "type": "Feature", "properties": { "value": 12.672 }, "geometry": { "type": "Point", "coordinates": [ 129.339813, 35.488678, 115.0 ] } },
{ "type": "Feature", "properties": { "value": 9.9315 }, "geometry": { "type": "Point", "coordinates": [ 129.340912, 35.488674, 115.0 ] } },
{ "type": "Feature", "properties": { "value": 6.4255 }, "geometry": { "type": "Point", "coordinates": [ 129.34201, 35.48867, 115.0 ] } },
{ "type": "Feature", "properties": { "value": 3.5875 }, "geometry": { "type": "Point", "coordinates": [ 129.343109, 35.488667, 115.0 ] } },
{ "type": "Feature", "properties": { "value": 1.7838 }, "geometry": { "type": "Point", "coordinates": [ 129.344208, 35.488667, 115.0 ] } },
{ "type": "Feature", "properties": { "value": 0.8113 }, "geometry": { "type": "Point", "coordinates": [ 129.345322, 35.488663, 115.0 ] } },
{ "type": "Feature", "properties": { "value": 0.3303 }, "geometry": { "type": "Point", "coordinates": [ 129.34642, 35.488659, 115.0 ] } },
{ "type": "Feature", "properties": { "value": 0.1018 }, "geometry": { "type": "Point", "coordinates": [ 129.347519, 35.488655, 115.0 ] } },
{ "type": "Feature", "properties": { "value": 0.0858 }, "geometry": { "type": "Point", "coordinates": [ 129.334305, 35.489594, 115.0 ] } },
{ "type": "Feature", "properties": { "value": 0.8159 }, "geometry": { "type": "Point", "coordinates": [ 129.335403, 35.48959, 115.0 ] } },
{ "type": "Feature", "properties": { "value": 2.7551 }, "geometry": { "type": "Point", "coordinates": [ 129.336502, 35.48959, 115.0 ] } },
{ "type": "Feature", "properties": { "value": 6.2246 }, "geometry": { "type": "Point", "coordinates": [ 129.337601, 35.489586, 115.0 ] } },
{ "type": "Feature", "properties": { "value": 10.067 }, "geometry": { "type": "Point", "coordinates": [ 129.338715, 35.489582, 115.0 ] } },
{ "type": "Feature", "properties": { "value": 12.217 }, "geometry": { "type": "Point", "coordinates": [ 129.339813, 35.489578, 115.0 ] } },
{ "type": "Feature", "properties": { "value": 11.645 }, "geometry": { "type": "Point", "coordinates": [ 129.340912, 35.489574, 115.0 ] } },
{ "type": "Feature", "properties": { "value": 9.1193 }, "geometry": { "type": "Point", "coordinates": [ 129.34201, 35.489571, 115.0 ] } },
{ "type": "Feature", "properties": { "value": 6.1031 }, "geometry": { "type": "Point", "coordinates": [ 129.343109, 35.489571, 115.0 ] } },
{ "type": "Feature", "properties": { "value": 3.6051 }, "geometry": { "type": "Point", "coordinates": [ 129.344223, 35.489567, 115.0 ] } },
{ "type": "Feature", "properties": { "value": 1.9266 }, "geometry": { "type": "Point", "coordinates": [ 129.345322, 35.489563, 115.0 ] } },
{ "type": "Feature", "properties": { "value": 0.9453 }, "geometry": { "type": "Point", "coordinates": [ 129.34642, 35.489559, 115.0 ] } },
{ "type": "Feature", "properties": { "value": 0.4227 }, "geometry": { "type": "Point", "coordinates": [ 129.347519, 35.489555, 115.0 ] } },
{ "type": "Feature", "properties": { "value": 0.1569 }, "geometry": { "type": "Point", "coordinates": [ 129.348633, 35.489555, 115.0 ] } },
{ "type": "Feature", "properties": { "value": 0.3361 }, "geometry": { "type": "Point", "coordinates": [ 129.335403, 35.490494, 115.0 ] } },
{ "type": "Feature", "properties": { "value": 1.3726 }, "geometry": { "type": "Point", "coordinates": [ 129.336502, 35.49049, 115.0 ] } },
{ "type": "Feature", "properties": { "value": 3.6612 }, "geometry": { "type": "Point", "coordinates": [ 129.337616, 35.490486, 115.0 ] } },
{ "type": "Feature", "properties": { "value": 7.0106 }, "geometry": { "type": "Point", "coordinates": [ 129.338715, 35.490482, 115.0 ] } },
{ "type": "Feature", "properties": { "value": 10.142 }, "geometry": { "type": "Point", "coordinates": [ 129.339813, 35.490479, 115.0 ] } },
{ "type": "Feature", "properties": { "value": 11.559 }, "geometry": { "type": "Point", "coordinates": [ 129.340912, 35.490479, 115.0 ] } },
{ "type": "Feature", "properties": { "value": 10.789 }, "geometry": { "type": "Point", "coordinates": [ 129.34201, 35.490475, 115.0 ] } },
{ "type": "Feature", "properties": { "value": 8.5554 }, "geometry": { "type": "Point", "coordinates": [ 129.343124, 35.490471, 115.0 ] } },
{ "type": "Feature", "properties": { "value": 5.9329 }, "geometry": { "type": "Point", "coordinates": [ 129.344223, 35.490467, 115.0 ] } },
{ "type": "Feature", "properties": { "value": 3.6874 }, "geometry": { "type": "Point", "coordinates": [ 129.345322, 35.490463, 115.0 ] } },
{ "type": "Feature", "properties": { "value": 2.0959 }, "geometry": { "type": "Point", "coordinates": [ 129.34642, 35.490459, 115.0 ] } },
{ "type": "Feature", "properties": { "value": 1.1018 }, "geometry": { "type": "Point", "coordinates": [ 129.347534, 35.490459, 115.0 ] } },
{ "type": "Feature", "properties": { "value": 0.536 }, "geometry": { "type": "Point", "coordinates": [ 129.348633, 35.490456, 115.0 ] } },
{ "type": "Feature", "properties": { "value": 0.2382 }, "geometry": { "type": "Point", "coordinates": [ 129.349731, 35.490452, 115.0 ] } },
{ "type": "Feature", "properties": { "value": 0.0738 }, "geometry": { "type": "Point", "coordinates": [ 129.35083, 35.490448, 115.0 ] } },
{ "type": "Feature", "properties": { "value": 0.0019 }, "geometry": { "type": "Point", "coordinates": [ 129.380585, 35.490356, 115.0 ] } },
{ "type": "Feature", "properties": { "value": 0.003 }, "geometry": { "type": "Point", "coordinates": [ 129.381683, 35.490356, 115.0 ] } },
{ "type": "Feature", "properties": { "value": 0.083 }, "geometry": { "type": "Point", "coordinates": [ 129.335403, 35.491394, 115.0 ] } },
{ "type": "Feature", "properties": { "value": 0.6135 }, "geometry": { "type": "Point", "coordinates": [ 129.336517, 35.49139, 115.0 ] } },
{ "type": "Feature", "properties": { "value": 1.935 }, "geometry": { "type": "Point", "coordinates": [ 129.337616, 35.491386, 115.0 ] } },
{ "type": "Feature", "properties": { "value": 4.3302 }, "geometry": { "type": "Point", "coordinates": [ 129.338715, 35.491383, 115.0 ] } },
{ "type": "Feature", "properties": { "value": 7.3539 }, "geometry": { "type": "Point", "coordinates": [ 129.339813, 35.491383, 115.0 ] } },
{ "type": "Feature", "properties": { "value": 9.8798 }, "geometry": { "type": "Point", "coordinates": [ 129.340927, 35.491379, 115.0 ] } },
{ "type": "Feature", "properties": { "value": 10.868 }, "geometry": { "type": "Point", "coordinates": [ 129.342026, 35.491375, 115.0 ] } },
{ "type": "Feature", "properties": { "value": 10.101 }, "geometry": { "type": "Point", "coordinates": [ 129.343124, 35.491371, 115.0 ] } },
{ "type": "Feature", "properties": { "value": 8.1505 }, "geometry": { "type": "Point", "coordinates": [ 129.344223, 35.491367, 115.0 ] } },
{ "type": "Feature", "properties": { "value": 5.8547 }, "geometry": { "type": "Point", "coordinates": [ 129.345322, 35.491367, 115.0 ] } },
{ "type": "Feature", "properties": { "value": 3.8186 }, "geometry": { "type": "Point", "coordinates": [ 129.346436, 35.491364, 115.0 ] } },
{ "type": "Feature", "properties": { "value": 2.3021 }, "geometry": { "type": "Point", "coordinates": [ 129.347534, 35.49136, 115.0 ] } },
{ "type": "Feature", "properties": { "value": 1.2962 }, "geometry": { "type": "Point", "coordinates": [ 129.348633, 35.491356, 115.0 ] } },
{ "type": "Feature", "properties": { "value": 0.6854 }, "geometry": { "type": "Point", "coordinates": [ 129.349731, 35.491352, 115.0 ] } },
{ "type": "Feature", "properties": { "value": 0.3409 }, "geometry": { "type": "Point", "coordinates": [ 129.350845, 35.491348, 115.0 ] } },
{ "type": "Feature", "properties": { "value": 0.1467 }, "geometry": { "type": "Point", "coordinates": [ 129.351944, 35.491348, 115.0 ] } },
{ "type": "Feature", "properties": { "value": 0.0063 }, "geometry": { "type": "Point", "coordinates": [ 129.377289, 35.491268, 115.0 ] } },
{ "type": "Feature", "properties": { "value": 0.0104 }, "geometry": { "type": "Point", "coordinates": [ 129.378387, 35.491268, 115.0 ] } },
{ "type": "Feature", "properties": { "value": 0.0123 }, "geometry": { "type": "Point", "coordinates": [ 129.379486, 35.491264, 115.0 ] } },
{ "type": "Feature", "properties": { "value": 0.0135 }, "geometry": { "type": "Point", "coordinates": [ 129.3806, 35.491261, 115.0 ] } },
{ "type": "Feature", "properties": { "value": 0.0136 }, "geometry": { "type": "Point", "coordinates": [ 129.381699, 35.491257, 115.0 ] } },
{ "type": "Feature", "properties": { "value": 0.2321 }, "geometry": { "type": "Point", "coordinates": [ 129.336517, 35.49229, 115.0 ] } },
{ "type": "Feature", "properties": { "value": 0.9123 }, "geometry": { "type": "Point", "coordinates": [ 129.337616, 35.49229, 115.0 ] } },
{ "type": "Feature", "properties": { "value": 2.3917 }, "geometry": { "type": "Point", "coordinates": [ 129.338715, 35.492287, 115.0 ] } },
{ "type": "Feature", "properties": { "value": 4.7276 }, "geometry": { "type": "Point", "coordinates": [ 129.339828, 35.492283, 115.0 ] } },
{ "type": "Feature", "properties": { "value": 7.3949 }, "geometry": { "type": "Point", "coordinates": [ 129.340927, 35.492279, 115.0 ] } },
{ "type": "Feature", "properties": { "value": 9.4659 }, "geometry": { "type": "Point", "coordinates": [ 129.342026, 35.492275, 115.0 ] } },
{ "type": "Feature", "properties": { "value": 10.215 }, "geometry": { "type": "Point", "coordinates": [ 129.343124, 35.492271, 115.0 ] } },
{ "type": "Feature", "properties": { "value": 9.5231 }, "geometry": { "type": "Point", "coordinates": [ 129.344223, 35.492271, 115.0 ] } },
{ "type": "Feature", "properties": { "value": 7.8491 }, "geometry": { "type": "Point", "coordinates": [ 129.345337, 35.492268, 115.0 ] } },
{ "type": "Feature", "properties": { "value": 5.8486 }, "geometry": { "type": "Point", "coordinates": [ 129.346436, 35.492264, 115.0 ] } },
{ "type": "Feature", "properties": { "value": 4.008 }, "geometry": { "type": "Point", "coordinates": [ 129.347534, 35.49226, 115.0 ] } },
{ "type": "Feature", "properties": { "value": 2.5634 }, "geometry": { "type": "Point", "coordinates": [ 129.348633, 35.492256, 115.0 ] } },
{ "type": "Feature", "properties": { "value": 1.5464 }, "geometry": { "type": "Point", "coordinates": [ 129.349747, 35.492252, 115.0 ] } },
{ "type": "Feature", "properties": { "value": 0.8918 }, "geometry": { "type": "Point", "coordinates": [ 129.350845, 35.492252, 115.0 ] } },
{ "type": "Feature", "properties": { "value": 0.4935 }, "geometry": { "type": "Point", "coordinates": [ 129.351944, 35.492249, 115.0 ] } },
{ "type": "Feature", "properties": { "value": 0.2603 }, "geometry": { "type": "Point", "coordinates": [ 129.353043, 35.492245, 115.0 ] } },
{ "type": "Feature", "properties": { "value": 0.1249 }, "geometry": { "type": "Point", "coordinates": [ 129.354141, 35.492241, 115.0 ] } },
{ "type": "Feature", "properties": { "value": 0.0216 }, "geometry": { "type": "Point", "coordinates": [ 129.355255, 35.492237, 115.0 ] } },
{ "type": "Feature", "properties": { "value": 0.0122 }, "geometry": { "type": "Point", "coordinates": [ 129.375092, 35.49218, 115.0 ] } },
{ "type": "Feature", "properties": { "value": 0.0181 }, "geometry": { "type": "Point", "coordinates": [ 129.37619, 35.492176, 115.0 ] } },
{ "type": "Feature", "properties": { "value": 0.0235 }, "geometry": { "type": "Point", "coordinates": [ 129.377289, 35.492172, 115.0 ] } },
{ "type": "Feature", "properties": { "value": 0.0284 }, "geometry": { "type": "Point", "coordinates": [ 129.378387, 35.492168, 115.0 ] } },
{ "type": "Feature", "properties": { "value": 0.0321 }, "geometry": { "type": "Point", "coordinates": [ 129.379501, 35.492165, 115.0 ] } },
{ "type": "Feature", "properties": { "value": 0.0337 }, "geometry": { "type": "Point", "coordinates": [ 129.3806, 35.492161, 115.0 ] } },
{ "type": "Feature", "properties": { "value": 0.0322 }, "geometry": { "type": "Point", "coordinates": [ 129.381699, 35.492157, 115.0 ] } },
{ "type": "Feature", "properties": { "value": 0.3836 }, "geometry": { "type": "Point", "coordinates": [ 129.337616, 35.493191, 115.0 ] } },
{ "type": "Feature", "properties": { "value": 1.1995 }, "geometry": { "type": "Point", "coordinates": [ 129.33873, 35.493187, 115.0 ] } },
{ "type": "Feature", "properties": { "value": 2.7283 }, "geometry": { "type": "Point", "coordinates": [ 129.339828, 35.493183, 115.0 ] } },
{ "type": "Feature", "properties": { "value": 4.9245 }, "geometry": { "type": "Point", "coordinates": [ 129.340927, 35.493179, 115.0 ] } },
{ "type": "Feature", "properties": { "value": 7.2662 }, "geometry": { "type": "Point", "coordinates": [ 129.342026, 35.493179, 115.0 ] } },
{ "type": "Feature", "properties": { "value": 9.0159 }, "geometry": { "type": "Point", "coordinates": [ 129.343124, 35.493176, 115.0 ] } },
{ "type": "Feature", "properties": { "value": 9.6305 }, "geometry": { "type": "Point", "coordinates": [ 129.344238, 35.493172, 115.0 ] } },
{ "type": "Feature", "properties": { "value": 9.0561 }, "geometry": { "type": "Point", "coordinates": [ 129.345337, 35.493168, 115.0 ] } },
{ "type": "Feature", "properties": { "value": 7.6676 }, "geometry": { "type": "Point", "coordinates": [ 129.346436, 35.493164, 115.0 ] } },
{ "type": "Feature", "properties": { "value": 5.9547 }, "geometry": { "type": "Point", "coordinates": [ 129.347534, 35.49316, 115.0 ] } },
{ "type": "Feature", "properties": { "value": 4.2978 }, "geometry": { "type": "Point", "coordinates": [ 129.348648, 35.49316, 115.0 ] } },
{ "type": "Feature", "properties": { "value": 2.9191 }, "geometry": { "type": "Point", "coordinates": [ 129.349747, 35.493156, 115.0 ] } },
{ "type": "Feature", "properties": { "value": 1.8928 }, "geometry": { "type": "Point", "coordinates": [ 129.350845, 35.493153, 115.0 ] } },
{ "type": "Feature", "properties": { "value": 1.1838 }, "geometry": { "type": "Point", "coordinates": [ 129.351944, 35.493149, 115.0 ] } },
{ "type": "Feature", "properties": { "value": 0.7246 }, "geometry": { "type": "Point", "coordinates": [ 129.353043, 35.493145, 115.0 ] } },
{ "type": "Feature", "properties": { "value": 0.4401 }, "geometry": { "type": "Point", "coordinates": [ 129.354156, 35.493141, 115.0 ] } },
{ "type": "Feature", "properties": { "value": 0.2647 }, "geometry": { "type": "Point", "coordinates": [ 129.355255, 35.493141, 115.0 ] } },
{ "type": "Feature", "properties": { "value": 0.1584 }, "geometry": { "type": "Point", "coordinates": [ 129.356354, 35.493137, 115.0 ] } },
{ "type": "Feature", "properties": { "value": 0.0911 }, "geometry": { "type": "Point", "coordinates": [ 129.357452, 35.493134, 115.0 ] } },
{ "type": "Feature", "properties": { "value": 0.0301 }, "geometry": { "type": "Point", "coordinates": [ 129.358566, 35.49313, 115.0 ] } },
{ "type": "Feature", "properties": { "value": 0.0073 }, "geometry": { "type": "Point", "coordinates": [ 129.372894, 35.493088, 115.0 ] } },
{ "type": "Feature", "properties": { "value": 0.0181 }, "geometry": { "type": "Point", "coordinates": [ 129.373993, 35.493084, 115.0 ] } },
{ "type": "Feature", "properties": { "value": 0.0266 }, "geometry": { "type": "Point", "coordinates": [ 129.375092, 35.49308, 115.0 ] } },
{ "type": "Feature", "properties": { "value": 0.0365 }, "geometry": { "type": "Point", "coordinates": [ 129.37619, 35.493076, 115.0 ] } },
{ "type": "Feature", "properties": { "value": 0.047 }, "geometry": { "type": "Point", "coordinates": [ 129.377289, 35.493073, 115.0 ] } },
{ "type": "Feature", "properties": { "value": 0.0563 }, "geometry": { "type": "Point", "coordinates": [ 129.378403, 35.493069, 115.0 ] } },
{ "type": "Feature", "properties": { "value": 0.0631 }, "geometry": { "type": "Point", "coordinates": [ 129.379501, 35.493065, 115.0 ] } },
{ "type": "Feature", "properties": { "value": 0.0659 }, "geometry": { "type": "Point", "coordinates": [ 129.3806, 35.493061, 115.0 ] } },
{ "type": "Feature", "properties": { "value": 0.0642 }, "geometry": { "type": "Point", "coordinates": [ 129.381699, 35.493057, 115.0 ] } },
{ "type": "Feature", "properties": { "value": 0.1203 }, "geometry": { "type": "Point", "coordinates": [ 129.337631, 35.494091, 115.0 ] } },
{ "type": "Feature", "properties": { "value": 0.5394 }, "geometry": { "type": "Point", "coordinates": [ 129.33873, 35.494087, 115.0 ] } },
{ "type": "Feature", "properties": { "value": 1.432 }, "geometry": { "type": "Point", "coordinates": [ 129.339828, 35.494083, 115.0 ] } },
{ "type": "Feature", "properties": { "value": 2.9528 }, "geometry": { "type": "Point", "coordinates": [ 129.340927, 35.494083, 115.0 ] } },
{ "type": "Feature", "properties": { "value": 4.9698 }, "geometry": { "type": "Point", "coordinates": [ 129.342026, 35.49408, 115.0 ] } },
{ "type": "Feature", "properties": { "value": 7.0343 }, "geometry": { "type": "Point", "coordinates": [ 129.34314, 35.494076, 115.0 ] } },
{ "type": "Feature", "properties": { "value": 8.5437 }, "geometry": { "type": "Point", "coordinates": [ 129.344238, 35.494072, 115.0 ] } },
{ "type": "Feature", "properties": { "value": 9.1236 }, "geometry": { "type": "Point", "coordinates": [ 129.345337, 35.494068, 115.0 ] } },
{ "type": "Feature", "properties": { "value": 8.7432 }, "geometry": { "type": "Point", "coordinates": [ 129.346436, 35.494068, 115.0 ] } },
{ "type": "Feature", "properties": { "value": 7.6652 }, "geometry": { "type": "Point", "coordinates": [ 129.347549, 35.494064, 115.0 ] } },
{ "type": "Feature", "properties": { "value": 6.2231 }, "geometry": { "type": "Point", "coordinates": [ 129.348648, 35.494061, 115.0 ] } },
{ "type": "Feature", "properties": { "value": 4.7289 }, "geometry": { "type": "Point", "coordinates": [ 129.349747, 35.494057, 115.0 ] } },
{ "type": "Feature", "properties": { "value": 3.4119 }, "geometry": { "type": "Point", "coordinates": [ 129.350845, 35.494053, 115.0 ] } },
{ "type": "Feature", "properties": { "value": 2.3681 }, "geometry": { "type": "Point", "coordinates": [ 129.351959, 35.494049, 115.0 ] } },
{ "type": "Feature", "properties": { "value": 1.6021 }, "geometry": { "type": "Point", "coordinates": [ 129.353058, 35.494049, 115.0 ] } },
{ "type": "Feature", "properties": { "value": 1.0767 }, "geometry": { "type": "Point", "coordinates": [ 129.354156, 35.494045, 115.0 ] } },
{ "type": "Feature", "properties": { "value": 0.7241 }, "geometry": { "type": "Point", "coordinates": [ 129.355255, 35.494041, 115.0 ] } },
{ "type": "Feature", "properties": { "value": 0.4942 }, "geometry": { "type": "Point", "coordinates": [ 129.356354, 35.494038, 115.0 ] } },
{ "type": "Feature", "properties": { "value": 0.3414 }, "geometry": { "type": "Point", "coordinates": [ 129.357468, 35.494034, 115.0 ] } },
{ "type": "Feature", "properties": { "value": 0.2397 }, "geometry": { "type": "Point", "coordinates": [ 129.358566, 35.49403, 115.0 ] } },
{ "type": "Feature", "properties": { "value": 0.1736 }, "geometry": { "type": "Point", "coordinates": [ 129.359665, 35.494026, 115.0 ] } },
{ "type": "Feature", "properties": { "value": 0.1277 }, "geometry": { "type": "Point", "coordinates": [ 129.360764, 35.494026, 115.0 ] } },
{ "type": "Feature", "properties": { "value": 0.0944 }, "geometry": { "type": "Point", "coordinates": [ 129.361877, 35.494022, 115.0 ] } },
{ "type": "Feature", "properties": { "value": 0.077 }, "geometry": { "type": "Point", "coordinates": [ 129.362976, 35.494019, 115.0 ] } },
{ "type": "Feature", "properties": { "value": 0.0595 }, "geometry": { "type": "Point", "coordinates": [ 129.364075, 35.494015, 115.0 ] } },
{ "type": "Feature", "properties": { "value": 0.0428 }, "geometry": { "type": "Point", "coordinates": [ 129.365173, 35.494011, 115.0 ] } },
{ "type": "Feature", "properties": { "value": 0.0256 }, "geometry": { "type": "Point", "coordinates": [ 129.366272, 35.494007, 115.0 ] } },
{ "type": "Feature", "properties": { "value": 0.0143 }, "geometry": { "type": "Point", "coordinates": [ 129.367386, 35.494003, 115.0 ] } },
{ "type": "Feature", "properties": { "value": 0.0045 }, "geometry": { "type": "Point", "coordinates": [ 129.368484, 35.493999, 115.0 ] } },
{ "type": "Feature", "properties": { "value": 0.0023 }, "geometry": { "type": "Point", "coordinates": [ 129.370682, 35.493996, 115.0 ] } },
{ "type": "Feature", "properties": { "value": 0.0099 }, "geometry": { "type": "Point", "coordinates": [ 129.371796, 35.493992, 115.0 ] } },
{ "type": "Feature", "properties": { "value": 0.0219 }, "geometry": { "type": "Point", "coordinates": [ 129.372894, 35.493988, 115.0 ] } },
{ "type": "Feature", "properties": { "value": 0.0343 }, "geometry": { "type": "Point", "coordinates": [ 129.373993, 35.493984, 115.0 ] } },
{ "type": "Feature", "properties": { "value": 0.05 }, "geometry": { "type": "Point", "coordinates": [ 129.375092, 35.49398, 115.0 ] } },
{ "type": "Feature", "properties": { "value": 0.0682 }, "geometry": { "type": "Point", "coordinates": [ 129.37619, 35.493977, 115.0 ] } },
{ "type": "Feature", "properties": { "value": 0.0871 }, "geometry": { "type": "Point", "coordinates": [ 129.377304, 35.493973, 115.0 ] } },
{ "type": "Feature", "properties": { "value": 0.1037 }, "geometry": { "type": "Point", "coordinates": [ 129.378403, 35.493969, 115.0 ] } },
{ "type": "Feature", "properties": { "value": 0.1153 }, "geometry": { "type": "Point", "coordinates": [ 129.379501, 35.493965, 115.0 ] } },
{ "type": "Feature", "properties": { "value": 0.1199 }, "geometry": { "type": "Point", "coordinates": [ 129.3806, 35.493965, 115.0 ] } },
{ "type": "Feature", "properties": { "value": 0.1163 }, "geometry": { "type": "Point", "coordinates": [ 129.381714, 35.493961, 115.0 ] } },
{ "type": "Feature", "properties": { "value": 0.2088 }, "geometry": { "type": "Point", "coordinates": [ 129.33873, 35.494991, 115.0 ] } },
{ "type": "Feature", "properties": { "value": 0.6797 }, "geometry": { "type": "Point", "coordinates": [ 129.339828, 35.494987, 115.0 ] } },
{ "type": "Feature", "properties": { "value": 1.6076 }, "geometry": { "type": "Point", "coordinates": [ 129.340942, 35.494984, 115.0 ] } },
{ "type": "Feature", "properties": { "value": 3.0602 }, "geometry": { "type": "Point", "coordinates": [ 129.342041, 35.49498, 115.0 ] } },
{ "type": "Feature", "properties": { "value": 4.8815 }, "geometry": { "type": "Point", "coordinates": [ 129.34314, 35.494976, 115.0 ] } },
{ "type": "Feature", "properties": { "value": 6.7009 }, "geometry": { "type": "Point", "coordinates": [ 129.344238, 35.494972, 115.0 ] } },
{ "type": "Feature", "properties": { "value": 8.0834 }, "geometry": { "type": "Point", "coordinates": [ 129.345337, 35.494972, 115.0 ] } },
{ "type": "Feature", "properties": { "value": 8.7371 }, "geometry": { "type": "Point", "coordinates": [ 129.346451, 35.494968, 115.0 ] } },
{ "type": "Feature", "properties": { "value": 8.5914 }, "geometry": { "type": "Point", "coordinates": [ 129.347549, 35.494965, 115.0 ] } },
{ "type": "Feature", "properties": { "value": 7.7972 }, "geometry": { "type": "Point", "coordinates": [ 129.348648, 35.494961, 115.0 ] } },
{ "type": "Feature", "properties": { "value": 6.5921 }, "geometry": { "type": "Point", "coordinates": [ 129.349747, 35.494957, 115.0 ] } },
{ "type": "Feature", "properties": { "value": 5.2591 }, "geometry": { "type": "Point", "coordinates": [ 129.350861, 35.494953, 115.0 ] } },
{ "type": "Feature", "properties": { "value": 4.0255 }, "geometry": { "type": "Point", "coordinates": [ 129.351959, 35.494953, 115.0 ] } },
{ "type": "Feature", "properties": { "value": 2.9768 }, "geometry": { "type": "Point", "coordinates": [ 129.353058, 35.494949, 115.0 ] } },
{ "type": "Feature", "properties": { "value": 2.1712 }, "geometry": { "type": "Point", "coordinates": [ 129.354156, 35.494946, 115.0 ] } },
{ "type": "Feature", "properties": { "value": 1.5776 }, "geometry": { "type": "Point", "coordinates": [ 129.355255, 35.494942, 115.0 ] } },
{ "type": "Feature", "properties": { "value": 1.149 }, "geometry": { "type": "Point", "coordinates": [ 129.356369, 35.494938, 115.0 ] } },
{ "type": "Feature", "properties": { "value": 0.8455 }, "geometry": { "type": "Point", "coordinates": [ 129.357468, 35.494934, 115.0 ] } },
{ "type": "Feature", "properties": { "value": 0.6357 }, "geometry": { "type": "Point", "coordinates": [ 129.358566, 35.494934, 115.0 ] } },
{ "type": "Feature", "properties": { "value": 0.4883 }, "geometry": { "type": "Point", "coordinates": [ 129.359665, 35.49493, 115.0 ] } },
{ "type": "Feature", "properties": { "value": 0.3886 }, "geometry": { "type": "Point", "coordinates": [ 129.360779, 35.494926, 115.0 ] } },
{ "type": "Feature", "properties": { "value": 0.3097 }, "geometry": { "type": "Point", "coordinates": [ 129.361877, 35.494923, 115.0 ] } },
{ "type": "Feature", "properties": { "value": 0.2456 }, "geometry": { "type": "Point", "coordinates": [ 129.362976, 35.494919, 115.0 ] } },
{ "type": "Feature", "properties": { "value": 0.1952 }, "geometry": { "type": "Point", "coordinates": [ 129.364075, 35.494915, 115.0 ] } },
{ "type": "Feature", "properties": { "value": 0.1492 }, "geometry": { "type": "Point", "coordinates": [ 129.365173, 35.494911, 115.0 ] } },
{ "type": "Feature", "properties": { "value": 0.1108 }, "geometry": { "type": "Point", "coordinates": [ 129.366287, 35.494907, 115.0 ] } },
{ "type": "Feature", "properties": { "value": 0.0746 }, "geometry": { "type": "Point", "coordinates": [ 129.367386, 35.494907, 115.0 ] } },
{ "type": "Feature", "properties": { "value": 0.0463 }, "geometry": { "type": "Point", "coordinates": [ 129.368484, 35.494904, 115.0 ] } },
{ "type": "Feature", "properties": { "value": 0.027 }, "geometry": { "type": "Point", "coordinates": [ 129.369583, 35.4949, 115.0 ] } },
{ "type": "Feature", "properties": { "value": 0.0192 }, "geometry": { "type": "Point", "coordinates": [ 129.370697, 35.494896, 115.0 ] } },
{ "type": "Feature", "properties": { "value": 0.0236 }, "geometry": { "type": "Point", "coordinates": [ 129.371796, 35.494892, 115.0 ] } },
{ "type": "Feature", "properties": { "value": 0.0386 }, "geometry": { "type": "Point", "coordinates": [ 129.372894, 35.494888, 115.0 ] } },
{ "type": "Feature", "properties": { "value": 0.0601 }, "geometry": { "type": "Point", "coordinates": [ 129.373993, 35.494884, 115.0 ] } },
{ "type": "Feature", "properties": { "value": 0.0873 }, "geometry": { "type": "Point", "coordinates": [ 129.375107, 35.494881, 115.0 ] } },
{ "type": "Feature", "properties": { "value": 0.1183 }, "geometry": { "type": "Point", "coordinates": [ 129.376205, 35.494877, 115.0 ] } },
{ "type": "Feature", "properties": { "value": 0.15 }, "geometry": { "type": "Point", "coordinates": [ 129.377304, 35.494877, 115.0 ] } },
{ "type": "Feature", "properties": { "value": 0.1774 }, "geometry": { "type": "Point", "coordinates": [ 129.378403, 35.494873, 115.0 ] } },
{ "type": "Feature", "properties": { "value": 0.196 }, "geometry": { "type": "Point", "coordinates": [ 129.379501, 35.494869, 115.0 ] } },
{ "type": "Feature", "properties": { "value": 0.2025 }, "geometry": { "type": "Point", "coordinates": [ 129.380615, 35.494865, 115.0 ] } },
{ "type": "Feature", "properties": { "value": 0.1954 }, "geometry": { "type": "Point", "coordinates": [ 129.381714, 35.494862, 115.0 ] } },
{ "type": "Feature", "properties": { "value": 0.2826 }, "geometry": { "type": "Point", "coordinates": [ 129.339844, 35.495888, 115.0 ] } },
{ "type": "Feature", "properties": { "value": 0.7863 }, "geometry": { "type": "Point", "coordinates": [ 129.340942, 35.495884, 115.0 ] } },
{ "type": "Feature", "properties": { "value": 1.6913 }, "geometry": { "type": "Point", "coordinates": [ 129.342041, 35.49588, 115.0 ] } },
{ "type": "Feature", "properties": { "value": 3.0311 }, "geometry": { "type": "Point", "coordinates": [ 129.34314, 35.49588, 115.0 ] } },
{ "type": "Feature", "properties": { "value": 4.6676 }, "geometry": { "type": "Point", "coordinates": [ 129.344238, 35.495876, 115.0 ] } },
{ "type": "Feature", "properties": { "value": 6.3226 }, "geometry": { "type": "Point", "coordinates": [ 129.345352, 35.495872, 115.0 ] } },
{ "type": "Feature", "properties": { "value": 7.6429 }, "geometry": { "type": "Point", "coordinates": [ 129.346451, 35.495869, 115.0 ] } },
{ "type": "Feature", "properties": { "value": 8.3837 }, "geometry": { "type": "Point", "coordinates": [ 129.347549, 35.495865, 115.0 ] } },
{ "type": "Feature", "properties": { "value": 8.4632 }, "geometry": { "type": "Point", "coordinates": [ 129.348648, 35.495861, 115.0 ] } },
{ "type": "Feature", "properties": { "value": 7.9363 }, "geometry": { "type": "Point", "coordinates": [ 129.349762, 35.495861, 115.0 ] } },
{ "type": "Feature", "properties": { "value": 6.9843 }, "geometry": { "type": "Point", "coordinates": [ 129.350861, 35.495857, 115.0 ] } },
{ "type": "Feature", "properties": { "value": 5.8407 }, "geometry": { "type": "Point", "coordinates": [ 129.351959, 35.495853, 115.0 ] } },
{ "type": "Feature", "properties": { "value": 4.7053 }, "geometry": { "type": "Point", "coordinates": [ 129.353058, 35.49585, 115.0 ] } },
{ "type": "Feature", "properties": { "value": 3.7014 }, "geometry": { "type": "Point", "coordinates": [ 129.354156, 35.495846, 115.0 ] } },
{ "type": "Feature", "properties": { "value": 2.879 }, "geometry": { "type": "Point", "coordinates": [ 129.35527, 35.495842, 115.0 ] } },
{ "type": "Feature", "properties": { "value": 2.2265 }, "geometry": { "type": "Point", "coordinates": [ 129.356369, 35.495838, 115.0 ] } },
{ "type": "Feature", "properties": { "value": 1.7314 }, "geometry": { "type": "Point", "coordinates": [ 129.357468, 35.495838, 115.0 ] } },
{ "type": "Feature", "properties": { "value": 1.3592 }, "geometry": { "type": "Point", "coordinates": [ 129.358566, 35.495834, 115.0 ] } },
{ "type": "Feature", "properties": { "value": 1.0835 }, "geometry": { "type": "Point", "coordinates": [ 129.35968, 35.495831, 115.0 ] } },
{ "type": "Feature", "properties": { "value": 0.8727 }, "geometry": { "type": "Point", "coordinates": [ 129.360779, 35.495827, 115.0 ] } },
{ "type": "Feature", "properties": { "value": 0.7116 }, "geometry": { "type": "Point", "coordinates": [ 129.361877, 35.495823, 115.0 ] } },
{ "type": "Feature", "properties": { "value": 0.5773 }, "geometry": { "type": "Point", "coordinates": [ 129.362976, 35.495819, 115.0 ] } },
{ "type": "Feature", "properties": { "value": 0.463 }, "geometry": { "type": "Point", "coordinates": [ 129.36409, 35.495815, 115.0 ] } },
{ "type": "Feature", "properties": { "value": 0.3589 }, "geometry": { "type": "Point", "coordinates": [ 129.365189, 35.495815, 115.0 ] } },
{ "type": "Feature", "properties": { "value": 0.2681 }, "geometry": { "type": "Point", "coordinates": [ 129.366287, 35.495811, 115.0 ] } },
{ "type": "Feature", "properties": { "value": 0.1874 }, "geometry": { "type": "Point", "coordinates": [ 129.367386, 35.495808, 115.0 ] } },
{ "type": "Feature", "properties": { "value": 0.1222 }, "geometry": { "type": "Point", "coordinates": [ 129.368484, 35.495804, 115.0 ] } },
{ "type": "Feature", "properties": { "value": 0.0789 }, "geometry": { "type": "Point", "coordinates": [ 129.369598, 35.4958, 115.0 ] } },
{ "type": "Feature", "properties": { "value": 0.0557 }, "geometry": { "type": "Point", "coordinates": [ 129.370697, 35.495796, 115.0 ] } },
{ "type": "Feature", "properties": { "value": 0.0515 }, "geometry": { "type": "Point", "coordinates": [ 129.371796, 35.495792, 115.0 ] } },
{ "type": "Feature", "properties": { "value": 0.0658 }, "geometry": { "type": "Point", "coordinates": [ 129.372894, 35.495789, 115.0 ] } },
{ "type": "Feature", "properties": { "value": 0.0976 }, "geometry": { "type": "Point", "coordinates": [ 129.374008, 35.495785, 115.0 ] } },
{ "type": "Feature", "properties": { "value": 0.141 }, "geometry": { "type": "Point", "coordinates": [ 129.375107, 35.495785, 115.0 ] } },
{ "type": "Feature", "properties": { "value": 0.1901 }, "geometry": { "type": "Point", "coordinates": [ 129.376205, 35.495781, 115.0 ] } },
{ "type": "Feature", "properties": { "value": 0.2394 }, "geometry": { "type": "Point", "coordinates": [ 129.377304, 35.495777, 115.0 ] } },
{ "type": "Feature", "properties": { "value": 0.2814 }, "geometry": { "type": "Point", "coordinates": [ 129.378403, 35.495773, 115.0 ] } },
{ "type": "Feature", "properties": { "value": 0.3091 }, "geometry": { "type": "Point", "coordinates": [ 129.379517, 35.49577, 115.0 ] } },
{ "type": "Feature", "properties": { "value": 0.3173 }, "geometry": { "type": "Point", "coordinates": [ 129.380615, 35.495766, 115.0 ] } },
{ "type": "Feature", "properties": { "value": 0.3048 }, "geometry": { "type": "Point", "coordinates": [ 129.381714, 35.495762, 115.0 ] } },
{ "type": "Feature", "properties": { "value": 0.0844 }, "geometry": { "type": "Point", "coordinates": [ 129.339844, 35.496788, 115.0 ] } },
{ "type": "Feature", "properties": { "value": 0.3412 }, "geometry": { "type": "Point", "coordinates": [ 129.340942, 35.496784, 115.0 ] } },
{ "type": "Feature", "properties": { "value": 0.8398 }, "geometry": { "type": "Point", "coordinates": [ 129.342041, 35.496784, 115.0 ] } },
{ "type": "Feature", "properties": { "value": 1.6789 }, "geometry": { "type": "Point", "coordinates": [ 129.34314, 35.49678, 115.0 ] } },
{ "type": "Feature", "properties": { "value": 2.8859 }, "geometry": { "type": "Point", "coordinates": [ 129.344254, 35.496777, 115.0 ] } },
{ "type": "Feature", "properties": { "value": 4.3485 }, "geometry": { "type": "Point", "coordinates": [ 129.345352, 35.496773, 115.0 ] } },
{ "type": "Feature", "properties": { "value": 5.8564 }, "geometry": { "type": "Point", "coordinates": [ 129.346451, 35.496769, 115.0 ] } },
{ "type": "Feature", "properties": { "value": 7.1332 }, "geometry": { "type": "Point", "coordinates": [ 129.347549, 35.496765, 115.0 ] } },
{ "type": "Feature", "properties": { "value": 7.9761 }, "geometry": { "type": "Point", "coordinates": [ 129.348663, 35.496765, 115.0 ] } },
{ "type": "Feature", "properties": { "value": 8.2616 }, "geometry": { "type": "Point", "coordinates": [ 129.349762, 35.496761, 115.0 ] } },
{ "type": "Feature", "properties": { "value": 7.9897 }, "geometry": { "type": "Point", "coordinates": [ 129.350861, 35.496758, 115.0 ] } },
{ "type": "Feature", "properties": { "value": 7.2791 }, "geometry": { "type": "Point", "coordinates": [ 129.351959, 35.496754, 115.0 ] } },
{ "type": "Feature", "properties": { "value": 6.3662 }, "geometry": { "type": "Point", "coordinates": [ 129.353073, 35.49675, 115.0 ] } },
{ "type": "Feature", "properties": { "value": 5.4022 }, "geometry": { "type": "Point", "coordinates": [ 129.354172, 35.496746, 115.0 ] } },
{ "type": "Feature", "properties": { "value": 4.4938 }, "geometry": { "type": "Point", "coordinates": [ 129.35527, 35.496746, 115.0 ] } },
{ "type": "Feature", "properties": { "value": 3.6895 }, "geometry": { "type": "Point", "coordinates": [ 129.356369, 35.496742, 115.0 ] } },
{ "type": "Feature", "properties": { "value": 3.0121 }, "geometry": { "type": "Point", "coordinates": [ 129.357468, 35.496738, 115.0 ] } },
{ "type": "Feature", "properties": { "value": 2.4688 }, "geometry": { "type": "Point", "coordinates": [ 129.358582, 35.496735, 115.0 ] } },
{ "type": "Feature", "properties": { "value": 2.0331 }, "geometry": { "type": "Point", "coordinates": [ 129.35968, 35.496731, 115.0 ] } },
{ "type": "Feature", "properties": { "value": 1.6828 }, "geometry": { "type": "Point", "coordinates": [ 129.360779, 35.496727, 115.0 ] } },
{ "type": "Feature", "properties": { "value": 1.3981 }, "geometry": { "type": "Point", "coordinates": [ 129.361877, 35.496723, 115.0 ] } },
{ "type": "Feature", "properties": { "value": 1.1518 }, "geometry": { "type": "Point", "coordinates": [ 129.362991, 35.496723, 115.0 ] } },
{ "type": "Feature", "properties": { "value": 0.9329 }, "geometry": { "type": "Point", "coordinates": [ 129.36409, 35.496719, 115.0 ] } },
{ "type": "Feature", "properties": { "value": 0.7328 }, "geometry": { "type": "Point", "coordinates": [ 129.365189, 35.496716, 115.0 ] } },
{ "type": "Feature", "properties": { "value": 0.5495 }, "geometry": { "type": "Point", "coordinates": [ 129.366287, 35.496712, 115.0 ] } },
{ "type": "Feature", "properties": { "value": 0.3867 }, "geometry": { "type": "Point", "coordinates": [ 129.367386, 35.496708, 115.0 ] } },
{ "type": "Feature", "properties": { "value": 0.2572 }, "geometry": { "type": "Point", "coordinates": [ 129.3685, 35.496704, 115.0 ] } },
{ "type": "Feature", "properties": { "value": 0.1648 }, "geometry": { "type": "Point", "coordinates": [ 129.369598, 35.4967, 115.0 ] } },
{ "type": "Feature", "properties": { "value": 0.112 }, "geometry": { "type": "Point", "coordinates": [ 129.370697, 35.496696, 115.0 ] } },
{ "type": "Feature", "properties": { "value": 0.0944 }, "geometry": { "type": "Point", "coordinates": [ 129.371796, 35.496696, 115.0 ] } },
{ "type": "Feature", "properties": { "value": 0.1077 }, "geometry": { "type": "Point", "coordinates": [ 129.37291, 35.496693, 115.0 ] } },
{ "type": "Feature", "properties": { "value": 0.1494 }, "geometry": { "type": "Point", "coordinates": [ 129.374008, 35.496689, 115.0 ] } },
{ "type": "Feature", "properties": { "value": 0.2109 }, "geometry": { "type": "Point", "coordinates": [ 129.375107, 35.496685, 115.0 ] } },
{ "type": "Feature", "properties": { "value": 0.283 }, "geometry": { "type": "Point", "coordinates": [ 129.376205, 35.496681, 115.0 ] } },
{ "type": "Feature", "properties": { "value": 0.3542 }, "geometry": { "type": "Point", "coordinates": [ 129.377319, 35.496677, 115.0 ] } },
{ "type": "Feature", "properties": { "value": 0.4141 }, "geometry": { "type": "Point", "coordinates": [ 129.378418, 35.496674, 115.0 ] } },
{ "type": "Feature", "properties": { "value": 0.4522 }, "geometry": { "type": "Point", "coordinates": [ 129.379517, 35.49667, 115.0 ] } },
{ "type": "Feature", "properties": { "value": 0.4618 }, "geometry": { "type": "Point", "coordinates": [ 129.380615, 35.496666, 115.0 ] } },
{ "type": "Feature", "properties": { "value": 0.4412 }, "geometry": { "type": "Point", "coordinates": [ 129.381714, 35.496662, 115.0 ] } },
{ "type": "Feature", "properties": { "value": 0.1128 }, "geometry": { "type": "Point", "coordinates": [ 129.340942, 35.497688, 115.0 ] } },
{ "type": "Feature", "properties": { "value": 0.3617 }, "geometry": { "type": "Point", "coordinates": [ 129.342041, 35.497684, 115.0 ] } },
{ "type": "Feature", "properties": { "value": 0.8215 }, "geometry": { "type": "Point", "coordinates": [ 129.343155, 35.497681, 115.0 ] } },
{ "type": "Feature", "properties": { "value": 1.5711 }, "geometry": { "type": "Point", "coordinates": [ 129.344254, 35.497677, 115.0 ] } },
{ "type": "Feature", "properties": { "value": 2.6342 }, "geometry": { "type": "Point", "coordinates": [ 129.345352, 35.497673, 115.0 ] } },
{ "type": "Feature", "properties": { "value": 3.9278 }, "geometry": { "type": "Point", "coordinates": [ 129.346451, 35.497673, 115.0 ] } },
{ "type": "Feature", "properties": { "value": 5.2981 }, "geometry": { "type": "Point", "coordinates": [ 129.347565, 35.497669, 115.0 ] } },
{ "type": "Feature", "properties": { "value": 6.5309 }, "geometry": { "type": "Point", "coordinates": [ 129.348663, 35.497665, 115.0 ] } },
{ "type": "Feature", "properties": { "value": 7.4365 }, "geometry": { "type": "Point", "coordinates": [ 129.349762, 35.497662, 115.0 ] } },
{ "type": "Feature", "properties": { "value": 7.8683 }, "geometry": { "type": "Point", "coordinates": [ 129.350861, 35.497658, 115.0 ] } },
{ "type": "Feature", "properties": { "value": 7.8213 }, "geometry": { "type": "Point", "coordinates": [ 129.351974, 35.497654, 115.0 ] } },
{ "type": "Feature", "properties": { "value": 7.4221 }, "geometry": { "type": "Point", "coordinates": [ 129.353073, 35.497654, 115.0 ] } },
{ "type": "Feature", "properties": { "value": 6.7881 }, "geometry": { "type": "Point", "coordinates": [ 129.354172, 35.49765, 115.0 ] } },
{ "type": "Feature", "properties": { "value": 6.0363 }, "geometry": { "type": "Point", "coordinates": [ 129.35527, 35.497646, 115.0 ] } },
{ "type": "Feature", "properties": { "value": 5.2553 }, "geometry": { "type": "Point", "coordinates": [ 129.356369, 35.497643, 115.0 ] } },
{ "type": "Feature", "properties": { "value": 4.5174 }, "geometry": { "type": "Point", "coordinates": [ 129.357483, 35.497639, 115.0 ] } },
{ "type": "Feature", "properties": { "value": 3.8613 }, "geometry": { "type": "Point", "coordinates": [ 129.358582, 35.497635, 115.0 ] } },
{ "type": "Feature", "properties": { "value": 3.2948 }, "geometry": { "type": "Point", "coordinates": [ 129.35968, 35.497631, 115.0 ] } },
{ "type": "Feature", "properties": { "value": 2.8098 }, "geometry": { "type": "Point", "coordinates": [ 129.360779, 35.497631, 115.0 ] } },
{ "type": "Feature", "properties": { "value": 2.3867 }, "geometry": { "type": "Point", "coordinates": [ 129.361893, 35.497627, 115.0 ] } },
{ "type": "Feature", "properties": { "value": 2.0038 }, "geometry": { "type": "Point", "coordinates": [ 129.362991, 35.497623, 115.0 ] } },
{ "type": "Feature", "properties": { "value": 1.6429 }, "geometry": { "type": "Point", "coordinates": [ 129.36409, 35.49762, 115.0 ] } },
{ "type": "Feature", "properties": { "value": 1.3004 }, "geometry": { "type": "Point", "coordinates": [ 129.365189, 35.497616, 115.0 ] } },
{ "type": "Feature", "properties": { "value": 0.9799 }, "geometry": { "type": "Point", "coordinates": [ 129.366302, 35.497612, 115.0 ] } },
{ "type": "Feature", "properties": { "value": 0.6965 }, "geometry": { "type": "Point", "coordinates": [ 129.367401, 35.497608, 115.0 ] } },
{ "type": "Feature", "properties": { "value": 0.4646 }, "geometry": { "type": "Point", "coordinates": [ 129.3685, 35.497604, 115.0 ] } },
{ "type": "Feature", "properties": { "value": 0.297 }, "geometry": { "type": "Point", "coordinates": [ 129.369598, 35.497604, 115.0 ] } },
{ "type": "Feature", "properties": { "value": 0.1976 }, "geometry": { "type": "Point", "coordinates": [ 129.370697, 35.497601, 115.0 ] } },
{ "type": "Feature", "properties": { "value": 0.1551 }, "geometry": { "type": "Point", "coordinates": [ 129.371811, 35.497597, 115.0 ] } },
{ "type": "Feature", "properties": { "value": 0.1638 }, "geometry": { "type": "Point", "coordinates": [ 129.37291, 35.497593, 115.0 ] } },
{ "type": "Feature", "properties": { "value": 0.2131 }, "geometry": { "type": "Point", "coordinates": [ 129.374008, 35.497589, 115.0 ] } },
{ "type": "Feature", "properties": { "value": 0.2931 }, "geometry": { "type": "Point", "coordinates": [ 129.375107, 35.497585, 115.0 ] } },
{ "type": "Feature", "properties": { "value": 0.3899 }, "geometry": { "type": "Point", "coordinates": [ 129.376221, 35.497581, 115.0 ] } },
{ "type": "Feature", "properties": { "value": 0.4856 }, "geometry": { "type": "Point", "coordinates": [ 129.377319, 35.497578, 115.0 ] } },
{ "type": "Feature", "properties": { "value": 0.5645 }, "geometry": { "type": "Point", "coordinates": [ 129.378418, 35.497574, 115.0 ] } },
{ "type": "Feature", "properties": { "value": 0.6136 }, "geometry": { "type": "Point", "coordinates": [ 129.379517, 35.497574, 115.0 ] } },
{ "type": "Feature", "properties": { "value": 0.6235 }, "geometry": { "type": "Point", "coordinates": [ 129.380615, 35.49757, 115.0 ] } },
{ "type": "Feature", "properties": { "value": 0.5924 }, "geometry": { "type": "Point", "coordinates": [ 129.381729, 35.497566, 115.0 ] } },
{ "type": "Feature", "properties": { "value": 0.1192 }, "geometry": { "type": "Point", "coordinates": [ 129.342056, 35.498585, 115.0 ] } },
{ "type": "Feature", "properties": { "value": 0.3377 }, "geometry": { "type": "Point", "coordinates": [ 129.343155, 35.498581, 115.0 ] } },
{ "type": "Feature", "properties": { "value": 0.7474 }, "geometry": { "type": "Point", "coordinates": [ 129.344254, 35.498581, 115.0 ] } },
{ "type": "Feature", "properties": { "value": 1.3959 }, "geometry": { "type": "Point", "coordinates": [ 129.345352, 35.498577, 115.0 ] } },
{ "type": "Feature", "properties": { "value": 2.3064 }, "geometry": { "type": "Point", "coordinates": [ 129.346466, 35.498573, 115.0 ] } },
{ "type": "Feature", "properties": { "value": 3.436 }, "geometry": { "type": "Point", "coordinates": [ 129.347565, 35.498569, 115.0 ] } },
{ "type": "Feature", "properties": { "value": 4.6569 }, "geometry": { "type": "Point", "coordinates": [ 129.348663, 35.498566, 115.0 ] } },
{ "type": "Feature", "properties": { "value": 5.8052 }, "geometry": { "type": "Point", "coordinates": [ 129.349762, 35.498562, 115.0 ] } },
{ "type": "Feature", "properties": { "value": 6.7103 }, "geometry": { "type": "Point", "coordinates": [ 129.350876, 35.498562, 115.0 ] } },
{ "type": "Feature", "properties": { "value": 7.2742 }, "geometry": { "type": "Point", "coordinates": [ 129.351974, 35.498558, 115.0 ] } },
{ "type": "Feature", "properties": { "value": 7.4911 }, "geometry": { "type": "Point", "coordinates": [ 129.353073, 35.498554, 115.0 ] } },
{ "type": "Feature", "properties": { "value": 7.3768 }, "geometry": { "type": "Point", "coordinates": [ 129.354172, 35.49855, 115.0 ] } },
{ "type": "Feature", "properties": { "value": 7.0027 }, "geometry": { "type": "Point", "coordinates": [ 129.35527, 35.498547, 115.0 ] } },
{ "type": "Feature", "properties": { "value": 6.4706 }, "geometry": { "type": "Point", "coordinates": [ 129.356384, 35.498543, 115.0 ] } },
{ "type": "Feature", "properties": { "value": 5.8576 }, "geometry": { "type": "Point", "coordinates": [ 129.357483, 35.498539, 115.0 ] } },
{ "type": "Feature", "properties": { "value": 5.2358 }, "geometry": { "type": "Point", "coordinates": [ 129.358582, 35.498539, 115.0 ] } },
{ "type": "Feature", "properties": { "value": 4.6448 }, "geometry": { "type": "Point", "coordinates": [ 129.35968, 35.498535, 115.0 ] } },
{ "type": "Feature", "properties": { "value": 4.0871 }, "geometry": { "type": "Point", "coordinates": [ 129.360794, 35.498531, 115.0 ] } },
{ "type": "Feature", "properties": { "value": 3.5587 }, "geometry": { "type": "Point", "coordinates": [ 129.361893, 35.498528, 115.0 ] } },
{ "type": "Feature", "properties": { "value": 3.0446 }, "geometry": { "type": "Point", "coordinates": [ 129.362991, 35.498524, 115.0 ] } },
{ "type": "Feature", "properties": { "value": 2.5328 }, "geometry": { "type": "Point", "coordinates": [ 129.36409, 35.49852, 115.0 ] } },
{ "type": "Feature", "properties": { "value": 2.0242 }, "geometry": { "type": "Point", "coordinates": [ 129.365204, 35.498516, 115.0 ] } },
{ "type": "Feature", "properties": { "value": 1.5347 }, "geometry": { "type": "Point", "coordinates": [ 129.366302, 35.498512, 115.0 ] } },
{ "type": "Feature", "properties": { "value": 1.096 }, "geometry": { "type": "Point", "coordinates": [ 129.367401, 35.498512, 115.0 ] } },
{ "type": "Feature", "properties": { "value": 0.7347 }, "geometry": { "type": "Point", "coordinates": [ 129.3685, 35.498508, 115.0 ] } },
{ "type": "Feature", "properties": { "value": 0.4682 }, "geometry": { "type": "Point", "coordinates": [ 129.369598, 35.498505, 115.0 ] } },
{ "type": "Feature", "properties": { "value": 0.3031 }, "geometry": { "type": "Point", "coordinates": [ 129.370712, 35.498501, 115.0 ] } },
{ "type": "Feature", "properties": { "value": 0.2268 }, "geometry": { "type": "Point", "coordinates": [ 129.371811, 35.498497, 115.0 ] } },
{ "type": "Feature", "properties": { "value": 0.2249 }, "geometry": { "type": "Point", "coordinates": [ 129.37291, 35.498493, 115.0 ] } },
{ "type": "Feature", "properties": { "value": 0.281 }, "geometry": { "type": "Point", "coordinates": [ 129.374008, 35.498489, 115.0 ] } },
{ "type": "Feature", "properties": { "value": 0.3769 }, "geometry": { "type": "Point", "coordinates": [ 129.375122, 35.498486, 115.0 ] } },
{ "type": "Feature", "properties": { "value": 0.497 }, "geometry": { "type": "Point", "coordinates": [ 129.376221, 35.498482, 115.0 ] } },
{ "type": "Feature", "properties": { "value": 0.6163 }, "geometry": { "type": "Point", "coordinates": [ 129.377319, 35.498482, 115.0 ] } },
{ "type": "Feature", "properties": { "value": 0.7131 }, "geometry": { "type": "Point", "coordinates": [ 129.378418, 35.498478, 115.0 ] } },
{ "type": "Feature", "properties": { "value": 0.7714 }, "geometry": { "type": "Point", "coordinates": [ 129.379532, 35.498474, 115.0 ] } },
{ "type": "Feature", "properties": { "value": 0.7805 }, "geometry": { "type": "Point", "coordinates": [ 129.38063, 35.49847, 115.0 ] } },
{ "type": "Feature", "properties": { "value": 0.7382 }, "geometry": { "type": "Point", "coordinates": [ 129.381729, 35.498466, 115.0 ] } },
{ "type": "Feature", "properties": { "value": 0.1073 }, "geometry": { "type": "Point", "coordinates": [ 129.343155, 35.499485, 115.0 ] } },
{ "type": "Feature", "properties": { "value": 0.3005 }, "geometry": { "type": "Point", "coordinates": [ 129.344254, 35.499481, 115.0 ] } },
{ "type": "Feature", "properties": { "value": 0.6414 }, "geometry": { "type": "Point", "coordinates": [ 129.345367, 35.499477, 115.0 ] } },
{ "type": "Feature", "properties": { "value": 1.1803 }, "geometry": { "type": "Point", "coordinates": [ 129.346466, 35.499474, 115.0 ] } },
{ "type": "Feature", "properties": { "value": 1.9461 }, "geometry": { "type": "Point", "coordinates": [ 129.347565, 35.49947, 115.0 ] } },
{ "type": "Feature", "properties": { "value": 2.9022 }, "geometry": { "type": "Point", "coordinates": [ 129.348663, 35.499466, 115.0 ] } },
{ "type": "Feature", "properties": { "value": 3.9573 }, "geometry": { "type": "Point", "coordinates": [ 129.349777, 35.499466, 115.0 ] } },
{ "type": "Feature", "properties": { "value": 4.9953 }, "geometry": { "type": "Point", "coordinates": [ 129.350876, 35.499462, 115.0 ] } },
{ "type": "Feature", "properties": { "value": 5.8936 }, "geometry": { "type": "Point", "coordinates": [ 129.351974, 35.499458, 115.0 ] } },
{ "type": "Feature", "properties": { "value": 6.5639 }, "geometry": { "type": "Point", "coordinates": [ 129.353073, 35.499454, 115.0 ] } },
{ "type": "Feature", "properties": { "value": 6.945 }, "geometry": { "type": "Point", "coordinates": [ 129.354187, 35.499451, 115.0 ] } },
{ "type": "Feature", "properties": { "value": 7.0458 }, "geometry": { "type": "Point", "coordinates": [ 129.355286, 35.499447, 115.0 ] } },
{ "type": "Feature", "properties": { "value": 6.9063 }, "geometry": { "type": "Point", "coordinates": [ 129.356384, 35.499447, 115.0 ] } },
{ "type": "Feature", "properties": { "value": 6.5976 }, "geometry": { "type": "Point", "coordinates": [ 129.357483, 35.499443, 115.0 ] } },
{ "type": "Feature", "properties": { "value": 6.1863 }, "geometry": { "type": "Point", "coordinates": [ 129.358582, 35.499439, 115.0 ] } },
{ "type": "Feature", "properties": { "value": 5.711 }, "geometry": { "type": "Point", "coordinates": [ 129.359695, 35.499435, 115.0 ] } },
{ "type": "Feature", "properties": { "value": 5.1975 }, "geometry": { "type": "Point", "coordinates": [ 129.360794, 35.499432, 115.0 ] } },
{ "type": "Feature", "properties": { "value": 4.6491 }, "geometry": { "type": "Point", "coordinates": [ 129.361893, 35.499428, 115.0 ] } },
{ "type": "Feature", "properties": { "value": 4.0619 }, "geometry": { "type": "Point", "coordinates": [ 129.362991, 35.499424, 115.0 ] } },
{ "type": "Feature", "properties": { "value": 3.4361 }, "geometry": { "type": "Point", "coordinates": [ 129.364105, 35.499424, 115.0 ] } },
{ "type": "Feature", "properties": { "value": 2.7784 }, "geometry": { "type": "Point", "coordinates": [ 129.365204, 35.49942, 115.0 ] } },
{ "type": "Feature", "properties": { "value": 2.1249 }, "geometry": { "type": "Point", "coordinates": [ 129.366302, 35.499416, 115.0 ] } },
{ "type": "Feature", "properties": { "value": 1.5269 }, "geometry": { "type": "Point", "coordinates": [ 129.367401, 35.499413, 115.0 ] } },
{ "type": "Feature", "properties": { "value": 1.027 }, "geometry": { "type": "Point", "coordinates": [ 129.368515, 35.499409, 115.0 ] } },
{ "type": "Feature", "properties": { "value": 0.6539 }, "geometry": { "type": "Point", "coordinates": [ 129.369614, 35.499405, 115.0 ] } },
{ "type": "Feature", "properties": { "value": 0.4167 }, "geometry": { "type": "Point", "coordinates": [ 129.370712, 35.499401, 115.0 ] } },
{ "type": "Feature", "properties": { "value": 0.2986 }, "geometry": { "type": "Point", "coordinates": [ 129.371811, 35.499397, 115.0 ] } },
{ "type": "Feature", "properties": { "value": 0.2813 }, "geometry": { "type": "Point", "coordinates": [ 129.37291, 35.499393, 115.0 ] } },
{ "type": "Feature", "properties": { "value": 0.3395 }, "geometry": { "type": "Point", "coordinates": [ 129.374023, 35.499393, 115.0 ] } },
{ "type": "Feature", "properties": { "value": 0.4508 }, "geometry": { "type": "Point", "coordinates": [ 129.375122, 35.49939, 115.0 ] } },
{ "type": "Feature", "properties": { "value": 0.586 }, "geometry": { "type": "Point", "coordinates": [ 129.376221, 35.499386, 115.0 ] } },
{ "type": "Feature", "properties": { "value": 0.724 }, "geometry": { "type": "Point", "coordinates": [ 129.377319, 35.499382, 115.0 ] } },
{ "type": "Feature", "properties": { "value": 0.834 }, "geometry": { "type": "Point", "coordinates": [ 129.378433, 35.499378, 115.0 ] } },
{ "type": "Feature", "properties": { "value": 0.8984 }, "geometry": { "type": "Point", "coordinates": [ 129.379532, 35.499374, 115.0 ] } },
{ "type": "Feature", "properties": { "value": 0.9054 }, "geometry": { "type": "Point", "coordinates": [ 129.38063, 35.499371, 115.0 ] } },
{ "type": "Feature", "properties": { "value": 0.8532 }, "geometry": { "type": "Point", "coordinates": [ 129.381729, 35.499367, 115.0 ] } },
{ "type": "Feature", "properties": { "value": 0.0826 }, "geometry": { "type": "Point", "coordinates": [ 129.344269, 35.500381, 115.0 ] } },
{ "type": "Feature", "properties": { "value": 0.2465 }, "geometry": { "type": "Point", "coordinates": [ 129.345367, 35.500378, 115.0 ] } },
{ "type": "Feature", "properties": { "value": 0.5257 }, "geometry": { "type": "Point", "coordinates": [ 129.346466, 35.500374, 115.0 ] } },
{ "type": "Feature", "properties": { "value": 0.9663 }, "geometry": { "type": "Point", "coordinates": [ 129.347565, 35.500374, 115.0 ] } },
{ "type": "Feature", "properties": { "value": 1.5886 }, "geometry": { "type": "Point", "coordinates": [ 129.348679, 35.50037, 115.0 ] } },
{ "type": "Feature", "properties": { "value": 2.3712 }, "geometry": { "type": "Point", "coordinates": [ 129.349777, 35.500366, 115.0 ] } },
{ "type": "Feature", "properties": { "value": 3.263 }, "geometry": { "type": "Point", "coordinates": [ 129.350876, 35.500362, 115.0 ] } },
{ "type": "Feature", "properties": { "value": 4.1763 }, "geometry": { "type": "Point", "coordinates": [ 129.351974, 35.500359, 115.0 ] } },
{ "type": "Feature", "properties": { "value": 5.0217 }, "geometry": { "type": "Point", "coordinates": [ 129.353088, 35.500355, 115.0 ] } },
{ "type": "Feature", "properties": { "value": 5.7062 }, "geometry": { "type": "Point", "coordinates": [ 129.354187, 35.500355, 115.0 ] } },
{ "type": "Feature", "properties": { "value": 6.1822 }, "geometry": { "type": "Point", "coordinates": [ 129.355286, 35.500351, 115.0 ] } },
{ "type": "Feature", "properties": { "value": 6.4322 }, "geometry": { "type": "Point", "coordinates": [ 129.356384, 35.500347, 115.0 ] } },
{ "type": "Feature", "properties": { "value": 6.4926 }, "geometry": { "type": "Point", "coordinates": [ 129.357483, 35.500343, 115.0 ] } },
{ "type": "Feature", "properties": { "value": 6.3843 }, "geometry": { "type": "Point", "coordinates": [ 129.358597, 35.50034, 115.0 ] } },
{ "type": "Feature", "properties": { "value": 6.144 }, "geometry": { "type": "Point", "coordinates": [ 129.359695, 35.500336, 115.0 ] } },
{ "type": "Feature", "properties": { "value": 5.7937 }, "geometry": { "type": "Point", "coordinates": [ 129.360794, 35.500332, 115.0 ] } },
{ "type": "Feature", "properties": { "value": 5.3321 }, "geometry": { "type": "Point", "coordinates": [ 129.361893, 35.500332, 115.0 ] } },
{ "type": "Feature", "properties": { "value": 4.7659 }, "geometry": { "type": "Point", "coordinates": [ 129.363007, 35.500328, 115.0 ] } },
{ "type": "Feature", "properties": { "value": 4.0993 }, "geometry": { "type": "Point", "coordinates": [ 129.364105, 35.500324, 115.0 ] } },
{ "type": "Feature", "properties": { "value": 3.3606 }, "geometry": { "type": "Point", "coordinates": [ 129.365204, 35.50032, 115.0 ] } },
{ "type": "Feature", "properties": { "value": 2.5946 }, "geometry": { "type": "Point", "coordinates": [ 129.366302, 35.500317, 115.0 ] } },
{ "type": "Feature", "properties": { "value": 1.8783 }, "geometry": { "type": "Point", "coordinates": [ 129.367416, 35.500313, 115.0 ] } },
{ "type": "Feature", "properties": { "value": 1.2693 }, "geometry": { "type": "Point", "coordinates": [ 129.368515, 35.500309, 115.0 ] } },
{ "type": "Feature", "properties": { "value": 0.8084 }, "geometry": { "type": "Point", "coordinates": [ 129.369614, 35.500305, 115.0 ] } },
{ "type": "Feature", "properties": { "value": 0.5099 }, "geometry": { "type": "Point", "coordinates": [ 129.370712, 35.500301, 115.0 ] } },
{ "type": "Feature", "properties": { "value": 0.3566 }, "geometry": { "type": "Point", "coordinates": [ 129.371811, 35.500301, 115.0 ] } },
{ "type": "Feature", "properties": { "value": 0.3242 }, "geometry": { "type": "Point", "coordinates": [ 129.372925, 35.500298, 115.0 ] } },
{ "type": "Feature", "properties": { "value": 0.3799 }, "geometry": { "type": "Point", "coordinates": [ 129.374023, 35.500294, 115.0 ] } },
{ "type": "Feature", "properties": { "value": 0.4956 }, "geometry": { "type": "Point", "coordinates": [ 129.375122, 35.50029, 115.0 ] } },
{ "type": "Feature", "properties": { "value": 0.6401 }, "geometry": { "type": "Point", "coordinates": [ 129.376221, 35.500286, 115.0 ] } },
{ "type": "Feature", "properties": { "value": 0.7868 }, "geometry": { "type": "Point", "coordinates": [ 129.377335, 35.500282, 115.0 ] } },
{ "type": "Feature", "properties": { "value": 0.9028 }, "geometry": { "type": "Point", "coordinates": [ 129.378433, 35.500278, 115.0 ] } },
{ "type": "Feature", "properties": { "value": 0.9688 }, "geometry": { "type": "Point", "coordinates": [ 129.379532, 35.500275, 115.0 ] } },
{ "type": "Feature", "properties": { "value": 0.9728 }, "geometry": { "type": "Point", "coordinates": [ 129.38063, 35.500271, 115.0 ] } },
{ "type": "Feature", "properties": { "value": 0.9141 }, "geometry": { "type": "Point", "coordinates": [ 129.381744, 35.500267, 115.0 ] } },
{ "type": "Feature", "properties": { "value": 0.0474 }, "geometry": { "type": "Point", "coordinates": [ 129.345367, 35.501278, 115.0 ] } },
{ "type": "Feature", "properties": { "value": 0.1916 }, "geometry": { "type": "Point", "coordinates": [ 129.346466, 35.501278, 115.0 ] } },
{ "type": "Feature", "properties": { "value": 0.4128 }, "geometry": { "type": "Point", "coordinates": [ 129.34758, 35.501274, 115.0 ] } },
{ "type": "Feature", "properties": { "value": 0.7603 }, "geometry": { "type": "Point", "coordinates": [ 129.348679, 35.50127, 115.0 ] } },
{ "type": "Feature", "properties": { "value": 1.2492 }, "geometry": { "type": "Point", "coordinates": [ 129.349777, 35.501266, 115.0 ] } },
{ "type": "Feature", "properties": { "value": 1.8774 }, "geometry": { "type": "Point", "coordinates": [ 129.350876, 35.501263, 115.0 ] } },
{ "type": "Feature", "properties": { "value": 2.6038 }, "geometry": { "type": "Point", "coordinates": [ 129.35199, 35.501259, 115.0 ] } },
{ "type": "Feature", "properties": { "value": 3.3751 }, "geometry": { "type": "Point", "coordinates": [ 129.353088, 35.501259, 115.0 ] } },
{ "type": "Feature", "properties": { "value": 4.1147 }, "geometry": { "type": "Point", "coordinates": [ 129.354187, 35.501255, 115.0 ] } },
{ "type": "Feature", "properties": { "value": 4.76 }, "geometry": { "type": "Point", "coordinates": [ 129.355286, 35.501251, 115.0 ] } },
{ "type": "Feature", "properties": { "value": 5.2633 }, "geometry": { "type": "Point", "coordinates": [ 129.3564, 35.501247, 115.0 ] } },
{ "type": "Feature", "properties": { "value": 5.6112 }, "geometry": { "type": "Point", "coordinates": [ 129.357498, 35.501244, 115.0 ] } },
{ "type": "Feature", "properties": { "value": 5.7984 }, "geometry": { "type": "Point", "coordinates": [ 129.358597, 35.50124, 115.0 ] } },
{ "type": "Feature", "properties": { "value": 5.826 }, "geometry": { "type": "Point", "coordinates": [ 129.359695, 35.50124, 115.0 ] } },
{ "type": "Feature", "properties": { "value": 5.6874 }, "geometry": { "type": "Point", "coordinates": [ 129.360794, 35.501236, 115.0 ] } },
{ "type": "Feature", "properties": { "value": 5.3875 }, "geometry": { "type": "Point", "coordinates": [ 129.361908, 35.501232, 115.0 ] } },
{ "type": "Feature", "properties": { "value": 4.9278 }, "geometry": { "type": "Point", "coordinates": [ 129.363007, 35.501228, 115.0 ] } },
{ "type": "Feature", "properties": { "value": 4.3174 }, "geometry": { "type": "Point", "coordinates": [ 129.364105, 35.501225, 115.0 ] } },
{ "type": "Feature", "properties": { "value": 3.5888 }, "geometry": { "type": "Point", "coordinates": [ 129.365204, 35.501221, 115.0 ] } },
{ "type": "Feature", "properties": { "value": 2.8037 }, "geometry": { "type": "Point", "coordinates": [ 129.366318, 35.501217, 115.0 ] } },
{ "type": "Feature", "properties": { "value": 2.0474 }, "geometry": { "type": "Point", "coordinates": [ 129.367416, 35.501213, 115.0 ] } },
{ "type": "Feature", "properties": { "value": 1.3919 }, "geometry": { "type": "Point", "coordinates": [ 129.368515, 35.501213, 115.0 ] } },
{ "type": "Feature", "properties": { "value": 0.8901 }, "geometry": { "type": "Point", "coordinates": [ 129.369614, 35.501209, 115.0 ] } },
{ "type": "Feature", "properties": { "value": 0.558 }, "geometry": { "type": "Point", "coordinates": [ 129.370728, 35.501205, 115.0 ] } },
{ "type": "Feature", "properties": { "value": 0.3849 }, "geometry": { "type": "Point", "coordinates": [ 129.371826, 35.501202, 115.0 ] } },
{ "type": "Feature", "properties": { "value": 0.3392 }, "geometry": { "type": "Point", "coordinates": [ 129.372925, 35.501198, 115.0 ] } },
{ "type": "Feature", "properties": { "value": 0.3902 }, "geometry": { "type": "Point", "coordinates": [ 129.374023, 35.501194, 115.0 ] } },
{ "type": "Feature", "properties": { "value": 0.502 }, "geometry": { "type": "Point", "coordinates": [ 129.375122, 35.50119, 115.0 ] } },
{ "type": "Feature", "properties": { "value": 0.645 }, "geometry": { "type": "Point", "coordinates": [ 129.376236, 35.501186, 115.0 ] } },
{ "type": "Feature", "properties": { "value": 0.7906 }, "geometry": { "type": "Point", "coordinates": [ 129.377335, 35.501183, 115.0 ] } },
{ "type": "Feature", "properties": { "value": 0.9041 }, "geometry": { "type": "Point", "coordinates": [ 129.378433, 35.501179, 115.0 ] } },
{ "type": "Feature", "properties": { "value": 0.967 }, "geometry": { "type": "Point", "coordinates": [ 129.379532, 35.501179, 115.0 ] } },
{ "type": "Feature", "properties": { "value": 0.9678 }, "geometry": { "type": "Point", "coordinates": [ 129.380646, 35.501175, 115.0 ] } },
{ "type": "Feature", "properties": { "value": 0.9066 }, "geometry": { "type": "Point", "coordinates": [ 129.381744, 35.501171, 115.0 ] } }
]
}
