{
"type": "FeatureCollection",
"features": [
{ "type": "Feature", "properties": { "value": 0.0004 }, "geometry": { "type": "Point", "coordinates": [ 129.311127, 35.483349, 1750.0 ] } },
{ "type": "Feature", "properties": { "value": 0.0009 }, "geometry": { "type": "Point", "coordinates": [ 129.312241, 35.483345, 1750.0 ] } },
{ "type": "Feature", "properties": { "value": 0.0014 }, "geometry": { "type": "Point", "coordinates": [ 129.313339, 35.483341, 1750.0 ] } },
{ "type": "Feature", "properties": { "value": 0.0014 }, "geometry": { "type": "Point", "coordinates": [ 129.314438, 35.483337, 1750.0 ] } },
{ "type": "Feature", "properties": { "value": 0.0017 }, "geometry": { "type": "Point", "coordinates": [ 129.315536, 35.483337, 1750.0 ] } },
{ "type": "Feature", "properties": { "value": 0.0015 }, "geometry": { "type": "Point", "coordinates": [ 129.31665, 35.483334, 1750.0 ] } },
{ "type": "Feature", "properties": { "value": 0.0014 }, "geometry": { "type": "Point", "coordinates": [ 129.317749, 35.48333, 1750.0 ] } },
{ "type": "Feature", "properties": { "value": 0.0014 }, "geometry": { "type": "Point", "coordinates": [ 129.318848, 35.483326, 1750.0 ] } },
{ "type": "Feature", "properties": { "value": 0.0009 }, "geometry": { "type": "Point", "coordinates": [ 129.319946, 35.483322, 1750.0 ] } },
{ "type": "Feature", "properties": { "value": 0.0008 }, "geometry": { "type": "Point", "coordinates": [ 129.321045, 35.483322, 1750.0 ] } },
{ "type": "Feature", "properties": { "value": 0.0004 }, "geometry": { "type": "Point", "coordinates": [ 129.322159, 35.483318, 1750.0 ] } },
{ "type": "Feature", "properties": { "value": 0.0008 }, "geometry": { "type": "Point", "coordinates": [ 129.307831, 35.484257, 1750.0 ] } },
{ "type": "Feature", "properties": { "value": 0.0018 }, "geometry": { "type": "Point", "coordinates": [ 129.308929, 35.484253, 1750.0 ] } },
{ "type": "Feature", "properties": { "value": 0.0025 }, "geometry": { "type": "Point", "coordinates": [ 129.310028, 35.484253, 1750.0 ] } },
{ "type": "Feature", "properties": { "value": 0.0028 }, "geometry": { "type": "Point", "coordinates": [ 129.311142, 35.484249, 1750.0 ] } },
{ "type": "Feature", "properties": { "value": 0.0031 }, "geometry": { "type": "Point", "coordinates": [ 129.312241, 35.484245, 1750.0 ] } },
{ "type": "Feature", "properties": { "value": 0.0032 }, "geometry": { "type": "Point", "coordinates": [ 129.313339, 35.484241, 1750.0 ] } },
{ "type": "Feature", "properties": { "value": 0.0034 }, "geometry": { "type": "Point", "coordinates": [ 129.314438, 35.484241, 1750.0 ] } },
{ "type": "Feature", "properties": { "value": 0.0034 }, "geometry": { "type": "Point", "coordinates": [ 129.315552, 35.484238, 1750.0 ] } },
{ "type": "Feature", "properties": { "value": 0.0034 }, "geometry": { "type": "Point", "coordinates": [ 129.31665, 35.484234, 1750.0 ] } },
{ "type": "Feature", "properties": { "value": 0.0033 }, "geometry": { "type": "Point", "coordinates": [ 129.317749, 35.48423, 1750.0 ] } },
{ "type": "Feature", "properties": { "value": 0.0031 }, "geometry": { "type": "Point", "coordinates": [ 129.318848, 35.48423, 1750.0 ] } },
{ "type": "Feature", "properties": { "value": 0.0029 }, "geometry": { "type": "Point", "coordinates": [ 129.319946, 35.484226, 1750.0 ] } },
{ "type": "Feature", "properties": { "value": 0.0027 }, "geometry": { "type": "Point", "coordinates": [ 129.32106, 35.484222, 1750.0 ] } },
{ "type": "Feature", "properties": { "value": 0.002 }, "geometry": { "type": "Point", "coordinates": [ 129.322159, 35.484219, 1750.0 ] } },
{ "type": "Feature", "properties": { "value": 0.0014 }, "geometry": { "type": "Point", "coordinates": [ 129.323257, 35.484215, 1750.0 ] } },
{ "type": "Feature", "properties": { "value": 0.0008 }, "geometry": { "type": "Point", "coordinates": [ 129.324356, 35.484215, 1750.0 ] } },
{ "type": "Feature", "properties": { "value": 0.0008 }, "geometry": { "type": "Point", "coordinates": [ 129.305634, 35.485165, 1750.0 ] } },
{ "type": "Feature", "properties": { "value": 0.0024 }, "geometry": { "type": "Point", "coordinates": [ 129.306732, 35.485161, 1750.0 ] } },
{ "type": "Feature", "properties": { "value": 0.0029 }, "geometry": { "type": "Point", "coordinates": [ 129.307831, 35.485157, 1750.0 ] } },
{ "type": "Feature", "properties": { "value": 0.0034 }, "geometry": { "type": "Point", "coordinates": [ 129.308929, 35.485157, 1750.0 ] } },
{ "type": "Feature", "properties": { "value": 0.0038 }, "geometry": { "type": "Point", "coordinates": [ 129.310043, 35.485153, 1750.0 ] } },
{ "type": "Feature", "properties": { "value": 0.0042 }, "geometry": { "type": "Point", "coordinates": [ 129.311142, 35.485149, 1750.0 ] } },
{ "type": "Feature", "properties": { "value": 0.0046 }, "geometry": { "type": "Point", "coordinates": [ 129.312241, 35.485146, 1750.0 ] } },
{ "type": "Feature", "properties": { "value": 0.0049 }, "geometry": { "type": "Point", "coordinates": [ 129.313339, 35.485146, 1750.0 ] } },
{ "type": "Feature", "properties": { "value": 0.0051 }, "geometry": { "type": "Point", "coordinates": [ 129.314453, 35.485142, 1750.0 ] } },
{ "type": "Feature", "properties": { "value": 0.0052 }, "geometry": { "type": "Point", "coordinates": [ 129.315552, 35.485138, 1750.0 ] } },
{ "type": "Feature", "properties": { "value": 0.0052 }, "geometry": { "type": "Point", "coordinates": [ 129.31665, 35.485134, 1750.0 ] } },
{ "type": "Feature", "properties": { "value": 0.005 }, "geometry": { "type": "Point", "coordinates": [ 129.317749, 35.485134, 1750.0 ] } },
{ "type": "Feature", "properties": { "value": 0.0048 }, "geometry": { "type": "Point", "coordinates": [ 129.318848, 35.48513, 1750.0 ] } },
{ "type": "Feature", "properties": { "value": 0.0044 }, "geometry": { "type": "Point", "coordinates": [ 129.319962, 35.485126, 1750.0 ] } },
{ "type": "Feature", "properties": { "value": 0.004 }, "geometry": { "type": "Point", "coordinates": [ 129.32106, 35.485123, 1750.0 ] } },
{ "type": "Feature", "properties": { "value": 0.0036 }, "geometry": { "type": "Point", "coordinates": [ 129.322159, 35.485119, 1750.0 ] } },
{ "type": "Feature", "properties": { "value": 0.0031 }, "geometry": { "type": "Point", "coordinates": [ 129.323257, 35.485119, 1750.0 ] } },
{ "type": "Feature", "properties": { "value": 0.0024 }, "geometry": { "type": "Point", "coordinates": [ 129.324371, 35.485115, 1750.0 ] } },
{ "type": "Feature", "properties": { "value": 0.0015 }, "geometry": { "type": "Point", "coordinates": [ 129.32547, 35.485111, 1750.0 ] } },
{ "type": "Feature", "properties": { "value": 0.0009 }, "geometry": { "type": "Point", "coordinates": [ 129.326569, 35.485107, 1750.0 ] } },
{ "type": "Feature", "properties": { "value": 0.0024 }, "geometry": { "type": "Point", "coordinates": [ 129.304535, 35.486069, 1750.0 ] } },
{ "type": "Feature", "properties": { "value": 0.0029 }, "geometry": { "type": "Point", "coordinates": [ 129.305634, 35.486065, 1750.0 ] } },
{ "type": "Feature", "properties": { "value": 0.0036 }, "geometry": { "type": "Point", "coordinates": [ 129.306732, 35.486061, 1750.0 ] } },
{ "type": "Feature", "properties": { "value": 0.0043 }, "geometry": { "type": "Point", "coordinates": [ 129.307831, 35.486061, 1750.0 ] } },
{ "type": "Feature", "properties": { "value": 0.005 }, "geometry": { "type": "Point", "coordinates": [ 129.308945, 35.486057, 1750.0 ] } },
{ "type": "Feature", "properties": { "value": 0.0056 }, "geometry": { "type": "Point", "coordinates": [ 129.310043, 35.486053, 1750.0 ] } },
{ "type": "Feature", "properties": { "value": 0.0063 }, "geometry": { "type": "Point", "coordinates": [ 129.311142, 35.48605, 1750.0 ] } },
{ "type": "Feature", "properties": { "value": 0.0068 }, "geometry": { "type": "Point", "coordinates": [ 129.312241, 35.48605, 1750.0 ] } },
{ "type": "Feature", "properties": { "value": 0.0073 }, "geometry": { "type": "Point", "coordinates": [ 129.313354, 35.486046, 1750.0 ] } },
{ "type": "Feature", "properties": { "value": 0.0076 }, "geometry": { "type": "Point", "coordinates": [ 129.314453, 35.486042, 1750.0 ] } },
{ "type": "Feature", "properties": { "value": 0.0077 }, "geometry": { "type": "Point", "coordinates": [ 129.315552, 35.486038, 1750.0 ] } },
{ "type": "Feature", "properties": { "value": 0.0076 }, "geometry": { "type": "Point", "coordinates": [ 129.31665, 35.486038, 1750.0 ] } },
{ "type": "Feature", "properties": { "value": 0.0074 }, "geometry": { "type": "Point", "coordinates": [ 129.317749, 35.486034, 1750.0 ] } },
{ "type": "Feature", "properties": { "value": 0.007 }, "geometry": { "type": "Point", "coordinates": [ 129.318863, 35.486031, 1750.0 ] } },
{ "type": "Feature", "properties": { "value": 0.0065 }, "geometry": { "type": "Point", "coordinates": [ 129.319962, 35.486027, 1750.0 ] } },
{ "type": "Feature", "properties": { "value": 0.0059 }, "geometry": { "type": "Point", "coordinates": [ 129.32106, 35.486027, 1750.0 ] } },
{ "type": "Feature", "properties": { "value": 0.0053 }, "geometry": { "type": "Point", "coordinates": [ 129.322159, 35.486023, 1750.0 ] } },
{ "type": "Feature", "properties": { "value": 0.0046 }, "geometry": { "type": "Point", "coordinates": [ 129.323273, 35.486019, 1750.0 ] } },
{ "type": "Feature", "properties": { "value": 0.0039 }, "geometry": { "type": "Point", "coordinates": [ 129.324371, 35.486015, 1750.0 ] } },
{ "type": "Feature", "properties": { "value": 0.0032 }, "geometry": { "type": "Point", "coordinates": [ 129.32547, 35.486012, 1750.0 ] } },
{ "type": "Feature", "properties": { "value": 0.0024 }, "geometry": { "type": "Point", "coordinates": [ 129.326569, 35.486012, 1750.0 ] } },
{ "type": "Feature", "properties": { "value": 0.0014 }, "geometry": { "type": "Point", "coordinates": [ 129.327667, 35.486008, 1750.0 ] } },
{ "type": "Feature", "properties": { "value": 0.0004 }, "geometry": { "type": "Point", "coordinates": [ 129.328781, 35.486004, 1750.0 ] } },
{ "type": "Feature", "properties": { "value": 0.0012 }, "geometry": { "type": "Point", "coordinates": [ 129.302338, 35.486973, 1750.0 ] } },
{ "type": "Feature", "properties": { "value": 0.0027 }, "geometry": { "type": "Point", "coordinates": [ 129.303436, 35.486973, 1750.0 ] } },
{ "type": "Feature", "properties": { "value": 0.0034 }, "geometry": { "type": "Point", "coordinates": [ 129.304535, 35.486969, 1750.0 ] } },
{ "type": "Feature", "properties": { "value": 0.0043 }, "geometry": { "type": "Point", "coordinates": [ 129.305634, 35.486965, 1750.0 ] } },
{ "type": "Feature", "properties": { "value": 0.0052 }, "geometry": { "type": "Point", "coordinates": [ 129.306732, 35.486965, 1750.0 ] } },
{ "type": "Feature", "properties": { "value": 0.0062 }, "geometry": { "type": "Point", "coordinates": [ 129.307846, 35.486961, 1750.0 ] } },
{ "type": "Feature", "properties": { "value": 0.0072 }, "geometry": { "type": "Point", "coordinates": [ 129.308945, 35.486958, 1750.0 ] } },
{ "type": "Feature", "properties": { "value": 0.0082 }, "geometry": { "type": "Point", "coordinates": [ 129.310043, 35.486954, 1750.0 ] } },
{ "type": "Feature", "properties": { "value": 0.0091 }, "geometry": { "type": "Point", "coordinates": [ 129.311142, 35.486954, 1750.0 ] } },
{ "type": "Feature", "properties": { "value": 0.0099 }, "geometry": { "type": "Point", "coordinates": [ 129.312256, 35.48695, 1750.0 ] } },
{ "type": "Feature", "properties": { "value": 0.0105 }, "geometry": { "type": "Point", "coordinates": [ 129.313354, 35.486946, 1750.0 ] } },
{ "type": "Feature", "properties": { "value": 0.0109 }, "geometry": { "type": "Point", "coordinates": [ 129.314453, 35.486942, 1750.0 ] } },
{ "type": "Feature", "properties": { "value": 0.0111 }, "geometry": { "type": "Point", "coordinates": [ 129.315552, 35.486942, 1750.0 ] } },
{ "type": "Feature", "properties": { "value": 0.011 }, "geometry": { "type": "Point", "coordinates": [ 129.31665, 35.486938, 1750.0 ] } },
{ "type": "Feature", "properties": { "value": 0.0107 }, "geometry": { "type": "Point", "coordinates": [ 129.317764, 35.486935, 1750.0 ] } },
{ "type": "Feature", "properties": { "value": 0.0102 }, "geometry": { "type": "Point", "coordinates": [ 129.318863, 35.486931, 1750.0 ] } },
{ "type": "Feature", "properties": { "value": 0.0095 }, "geometry": { "type": "Point", "coordinates": [ 129.319962, 35.486931, 1750.0 ] } },
{ "type": "Feature", "properties": { "value": 0.0086 }, "geometry": { "type": "Point", "coordinates": [ 129.32106, 35.486927, 1750.0 ] } },
{ "type": "Feature", "properties": { "value": 0.0076 }, "geometry": { "type": "Point", "coordinates": [ 129.322174, 35.486923, 1750.0 ] } },
{ "type": "Feature", "properties": { "value": 0.0066 }, "geometry": { "type": "Point", "coordinates": [ 129.323273, 35.486919, 1750.0 ] } },
{ "type": "Feature", "properties": { "value": 0.0056 }, "geometry": { "type": "Point", "coordinates": [ 129.324371, 35.486916, 1750.0 ] } },
{ "type": "Feature", "properties": { "value": 0.0046 }, "geometry": { "type": "Point", "coordinates": [ 129.32547, 35.486916, 1750.0 ] } },
{ "type": "Feature", "properties": { "value": 0.0038 }, "geometry": { "type": "Point", "coordinates": [ 129.326569, 35.486912, 1750.0 ] } },
{ "type": "Feature", "properties": { "value": 0.003 }, "geometry": { "type": "Point", "coordinates": [ 129.327682, 35.486908, 1750.0 ] } },
{ "type": "Feature", "properties": { "value": 0.002 }, "geometry": { "type": "Point", "coordinates": [ 129.328781, 35.486904, 1750.0 ] } },
{ "type": "Feature", "properties": { "value": 0.0009 }, "geometry": { "type": "Point", "coordinates": [ 129.32988, 35.486904, 1750.0 ] } },
{ "type": "Feature", "properties": { "value": 0.0022 }, "geometry": { "type": "Point", "coordinates": [ 129.301239, 35.487877, 1750.0 ] } },
{ "type": "Feature", "properties": { "value": 0.0029 }, "geometry": { "type": "Point", "coordinates": [ 129.302338, 35.487877, 1750.0 ] } },
{ "type": "Feature", "properties": { "value": 0.0038 }, "geometry": { "type": "Point", "coordinates": [ 129.303436, 35.487873, 1750.0 ] } },
{ "type": "Feature", "properties": { "value": 0.0048 }, "geometry": { "type": "Point", "coordinates": [ 129.304535, 35.487869, 1750.0 ] } },
{ "type": "Feature", "properties": { "value": 0.006 }, "geometry": { "type": "Point", "coordinates": [ 129.305634, 35.487869, 1750.0 ] } },
{ "type": "Feature", "properties": { "value": 0.0073 }, "geometry": { "type": "Point", "coordinates": [ 129.306747, 35.487865, 1750.0 ] } },
{ "type": "Feature", "properties": { "value": 0.0087 }, "geometry": { "type": "Point", "coordinates": [ 129.307846, 35.487862, 1750.0 ] } },
{ "type": "Feature", "properties": { "value": 0.0102 }, "geometry": { "type": "Point", "coordinates": [ 129.308945, 35.487858, 1750.0 ] } },
{ "type": "Feature", "properties": { "value": 0.0116 }, "geometry": { "type": "Point", "coordinates": [ 129.310043, 35.487858, 1750.0 ] } },
{ "type": "Feature", "properties": { "value": 0.0128 }, "geometry": { "type": "Point", "coordinates": [ 129.311157, 35.487854, 1750.0 ] } },
{ "type": "Feature", "properties": { "value": 0.014 }, "geometry": { "type": "Point", "coordinates": [ 129.312256, 35.48785, 1750.0 ] } },
{ "type": "Feature", "properties": { "value": 0.0149 }, "geometry": { "type": "Point", "coordinates": [ 129.313354, 35.487846, 1750.0 ] } },
{ "type": "Feature", "properties": { "value": 0.0154 }, "geometry": { "type": "Point", "coordinates": [ 129.314453, 35.487846, 1750.0 ] } },
{ "type": "Feature", "properties": { "value": 0.0157 }, "geometry": { "type": "Point", "coordinates": [ 129.315552, 35.487843, 1750.0 ] } },
{ "type": "Feature", "properties": { "value": 0.0156 }, "geometry": { "type": "Point", "coordinates": [ 129.316666, 35.487839, 1750.0 ] } },
{ "type": "Feature", "properties": { "value": 0.0152 }, "geometry": { "type": "Point", "coordinates": [ 129.317764, 35.487835, 1750.0 ] } },
{ "type": "Feature", "properties": { "value": 0.0144 }, "geometry": { "type": "Point", "coordinates": [ 129.318863, 35.487835, 1750.0 ] } },
{ "type": "Feature", "properties": { "value": 0.0134 }, "geometry": { "type": "Point", "coordinates": [ 129.319962, 35.487831, 1750.0 ] } },
{ "type": "Feature", "properties": { "value": 0.0121 }, "geometry": { "type": "Point", "coordinates": [ 129.321075, 35.487827, 1750.0 ] } },
{ "type": "Feature", "properties": { "value": 0.0108 }, "geometry": { "type": "Point", "coordinates": [ 129.322174, 35.487823, 1750.0 ] } },
{ "type": "Feature", "properties": { "value": 0.0093 }, "geometry": { "type": "Point", "coordinates": [ 129.323273, 35.48782, 1750.0 ] } },
{ "type": "Feature", "properties": { "value": 0.0079 }, "geometry": { "type": "Point", "coordinates": [ 129.324371, 35.48782, 1750.0 ] } },
{ "type": "Feature", "properties": { "value": 0.0066 }, "geometry": { "type": "Point", "coordinates": [ 129.32547, 35.487816, 1750.0 ] } },
{ "type": "Feature", "properties": { "value": 0.0053 }, "geometry": { "type": "Point", "coordinates": [ 129.326584, 35.487812, 1750.0 ] } },
{ "type": "Feature", "properties": { "value": 0.0042 }, "geometry": { "type": "Point", "coordinates": [ 129.327682, 35.487808, 1750.0 ] } },
{ "type": "Feature", "properties": { "value": 0.0033 }, "geometry": { "type": "Point", "coordinates": [ 129.328781, 35.487808, 1750.0 ] } },
{ "type": "Feature", "properties": { "value": 0.0021 }, "geometry": { "type": "Point", "coordinates": [ 129.32988, 35.487804, 1750.0 ] } },
{ "type": "Feature", "properties": { "value": 0.0009 }, "geometry": { "type": "Point", "coordinates": [ 129.330994, 35.487801, 1750.0 ] } },
{ "type": "Feature", "properties": { "value": 0.0022 }, "geometry": { "type": "Point", "coordinates": [ 129.30014, 35.488781, 1750.0 ] } },
{ "type": "Feature", "properties": { "value": 0.003 }, "geometry": { "type": "Point", "coordinates": [ 129.301239, 35.488781, 1750.0 ] } },
{ "type": "Feature", "properties": { "value": 0.004 }, "geometry": { "type": "Point", "coordinates": [ 129.302338, 35.488777, 1750.0 ] } },
{ "type": "Feature", "properties": { "value": 0.0053 }, "geometry": { "type": "Point", "coordinates": [ 129.303436, 35.488773, 1750.0 ] } },
{ "type": "Feature", "properties": { "value": 0.0067 }, "geometry": { "type": "Point", "coordinates": [ 129.30455, 35.488773, 1750.0 ] } },
{ "type": "Feature", "properties": { "value": 0.0083 }, "geometry": { "type": "Point", "coordinates": [ 129.305649, 35.48877, 1750.0 ] } },
{ "type": "Feature", "properties": { "value": 0.0101 }, "geometry": { "type": "Point", "coordinates": [ 129.306747, 35.488766, 1750.0 ] } },
{ "type": "Feature", "properties": { "value": 0.0121 }, "geometry": { "type": "Point", "coordinates": [ 129.307846, 35.488762, 1750.0 ] } },
{ "type": "Feature", "properties": { "value": 0.014 }, "geometry": { "type": "Point", "coordinates": [ 129.308945, 35.488762, 1750.0 ] } },
{ "type": "Feature", "properties": { "value": 0.016 }, "geometry": { "type": "Point", "coordinates": [ 129.310059, 35.488758, 1750.0 ] } },
{ "type": "Feature", "properties": { "value": 0.0178 }, "geometry": { "type": "Point", "coordinates": [ 129.311157, 35.488754, 1750.0 ] } },
{ "type": "Feature", "properties": { "value": 0.0193 }, "geometry": { "type": "Point", "coordinates": [ 129.312256, 35.48875, 1750.0 ] } },
{ "type": "Feature", "properties": { "value": 0.0205 }, "geometry": { "type": "Point", "coordinates": [ 129.313354, 35.48875, 1750.0 ] } },
{ "type": "Feature", "properties": { "value": 0.0213 }, "geometry": { "type": "Point", "coordinates": [ 129.314453, 35.488747, 1750.0 ] } },
{ "type": "Feature", "properties": { "value": 0.0217 }, "geometry": { "type": "Point", "coordinates": [ 129.315567, 35.488743, 1750.0 ] } },
{ "type": "Feature", "properties": { "value": 0.0216 }, "geometry": { "type": "Point", "coordinates": [ 129.316666, 35.488739, 1750.0 ] } },
{ "type": "Feature", "properties": { "value": 0.0209 }, "geometry": { "type": "Point", "coordinates": [ 129.317764, 35.488739, 1750.0 ] } },
{ "type": "Feature", "properties": { "value": 0.0199 }, "geometry": { "type": "Point", "coordinates": [ 129.318863, 35.488735, 1750.0 ] } },
{ "type": "Feature", "properties": { "value": 0.0185 }, "geometry": { "type": "Point", "coordinates": [ 129.319977, 35.488731, 1750.0 ] } },
{ "type": "Feature", "properties": { "value": 0.0168 }, "geometry": { "type": "Point", "coordinates": [ 129.321075, 35.488728, 1750.0 ] } },
{ "type": "Feature", "properties": { "value": 0.0149 }, "geometry": { "type": "Point", "coordinates": [ 129.322174, 35.488728, 1750.0 ] } },
{ "type": "Feature", "properties": { "value": 0.0129 }, "geometry": { "type": "Point", "coordinates": [ 129.323273, 35.488724, 1750.0 ] } },
{ "type": "Feature", "properties": { "value": 0.0109 }, "geometry": { "type": "Point", "coordinates": [ 129.324371, 35.48872, 1750.0 ] } },
{ "type": "Feature", "properties": { "value": 0.0091 }, "geometry": { "type": "Point", "coordinates": [ 129.325485, 35.488716, 1750.0 ] } },
{ "type": "Feature", "properties": { "value": 0.0074 }, "geometry": { "type": "Point", "coordinates": [ 129.326584, 35.488712, 1750.0 ] } },
{ "type": "Feature", "properties": { "value": 0.0058 }, "geometry": { "type": "Point", "coordinates": [ 129.327682, 35.488712, 1750.0 ] } },
{ "type": "Feature", "properties": { "value": 0.0045 }, "geometry": { "type": "Point", "coordinates": [ 129.328781, 35.488708, 1750.0 ] } },
{ "type": "Feature", "properties": { "value": 0.0034 }, "geometry": { "type": "Point", "coordinates": [ 129.329895, 35.488705, 1750.0 ] } },
{ "type": "Feature", "properties": { "value": 0.0022 }, "geometry": { "type": "Point", "coordinates": [ 129.330994, 35.488701, 1750.0 ] } },
{ "type": "Feature", "properties": { "value": 0.0009 }, "geometry": { "type": "Point", "coordinates": [ 129.332092, 35.488697, 1750.0 ] } },
{ "type": "Feature", "properties": { "value": 0.0022 }, "geometry": { "type": "Point", "coordinates": [ 129.299042, 35.489685, 1750.0 ] } },
{ "type": "Feature", "properties": { "value": 0.0031 }, "geometry": { "type": "Point", "coordinates": [ 129.30014, 35.489685, 1750.0 ] } },
{ "type": "Feature", "properties": { "value": 0.0041 }, "geometry": { "type": "Point", "coordinates": [ 129.301239, 35.489681, 1750.0 ] } },
{ "type": "Feature", "properties": { "value": 0.0055 }, "geometry": { "type": "Point", "coordinates": [ 129.302338, 35.489677, 1750.0 ] } },
{ "type": "Feature", "properties": { "value": 0.0071 }, "geometry": { "type": "Point", "coordinates": [ 129.303452, 35.489677, 1750.0 ] } },
{ "type": "Feature", "properties": { "value": 0.009 }, "geometry": { "type": "Point", "coordinates": [ 129.30455, 35.489674, 1750.0 ] } },
{ "type": "Feature", "properties": { "value": 0.0113 }, "geometry": { "type": "Point", "coordinates": [ 129.305649, 35.48967, 1750.0 ] } },
{ "type": "Feature", "properties": { "value": 0.0137 }, "geometry": { "type": "Point", "coordinates": [ 129.306747, 35.489666, 1750.0 ] } },
{ "type": "Feature", "properties": { "value": 0.0163 }, "geometry": { "type": "Point", "coordinates": [ 129.307846, 35.489666, 1750.0 ] } },
{ "type": "Feature", "properties": { "value": 0.019 }, "geometry": { "type": "Point", "coordinates": [ 129.30896, 35.489662, 1750.0 ] } },
{ "type": "Feature", "properties": { "value": 0.0216 }, "geometry": { "type": "Point", "coordinates": [ 129.310059, 35.489658, 1750.0 ] } },
{ "type": "Feature", "properties": { "value": 0.024 }, "geometry": { "type": "Point", "coordinates": [ 129.311157, 35.489655, 1750.0 ] } },
{ "type": "Feature", "properties": { "value": 0.0261 }, "geometry": { "type": "Point", "coordinates": [ 129.312256, 35.489655, 1750.0 ] } },
{ "type": "Feature", "properties": { "value": 0.0278 }, "geometry": { "type": "Point", "coordinates": [ 129.313354, 35.489651, 1750.0 ] } },
{ "type": "Feature", "properties": { "value": 0.0288 }, "geometry": { "type": "Point", "coordinates": [ 129.314468, 35.489647, 1750.0 ] } },
{ "type": "Feature", "properties": { "value": 0.0293 }, "geometry": { "type": "Point", "coordinates": [ 129.315567, 35.489643, 1750.0 ] } },
{ "type": "Feature", "properties": { "value": 0.0291 }, "geometry": { "type": "Point", "coordinates": [ 129.316666, 35.489643, 1750.0 ] } },
{ "type": "Feature", "properties": { "value": 0.0283 }, "geometry": { "type": "Point", "coordinates": [ 129.317764, 35.489639, 1750.0 ] } },
{ "type": "Feature", "properties": { "value": 0.0269 }, "geometry": { "type": "Point", "coordinates": [ 129.318878, 35.489635, 1750.0 ] } },
{ "type": "Feature", "properties": { "value": 0.0249 }, "geometry": { "type": "Point", "coordinates": [ 129.319977, 35.489632, 1750.0 ] } },
{ "type": "Feature", "properties": { "value": 0.0226 }, "geometry": { "type": "Point", "coordinates": [ 129.321075, 35.489632, 1750.0 ] } },
{ "type": "Feature", "properties": { "value": 0.0201 }, "geometry": { "type": "Point", "coordinates": [ 129.322174, 35.489628, 1750.0 ] } },
{ "type": "Feature", "properties": { "value": 0.0174 }, "geometry": { "type": "Point", "coordinates": [ 129.323273, 35.489624, 1750.0 ] } },
{ "type": "Feature", "properties": { "value": 0.0148 }, "geometry": { "type": "Point", "coordinates": [ 129.324387, 35.48962, 1750.0 ] } },
{ "type": "Feature", "properties": { "value": 0.0122 }, "geometry": { "type": "Point", "coordinates": [ 129.325485, 35.489616, 1750.0 ] } },
{ "type": "Feature", "properties": { "value": 0.0099 }, "geometry": { "type": "Point", "coordinates": [ 129.326584, 35.489616, 1750.0 ] } },
{ "type": "Feature", "properties": { "value": 0.0079 }, "geometry": { "type": "Point", "coordinates": [ 129.327682, 35.489613, 1750.0 ] } },
{ "type": "Feature", "properties": { "value": 0.0061 }, "geometry": { "type": "Point", "coordinates": [ 129.328796, 35.489609, 1750.0 ] } },
{ "type": "Feature", "properties": { "value": 0.0046 }, "geometry": { "type": "Point", "coordinates": [ 129.329895, 35.489605, 1750.0 ] } },
{ "type": "Feature", "properties": { "value": 0.0034 }, "geometry": { "type": "Point", "coordinates": [ 129.330994, 35.489605, 1750.0 ] } },
{ "type": "Feature", "properties": { "value": 0.0021 }, "geometry": { "type": "Point", "coordinates": [ 129.332092, 35.489601, 1750.0 ] } },
{ "type": "Feature", "properties": { "value": 0.0009 }, "geometry": { "type": "Point", "coordinates": [ 129.333191, 35.489597, 1750.0 ] } },
{ "type": "Feature", "properties": { "value": 0.0011 }, "geometry": { "type": "Point", "coordinates": [ 129.297943, 35.490589, 1750.0 ] } },
{ "type": "Feature", "properties": { "value": 0.0029 }, "geometry": { "type": "Point", "coordinates": [ 129.299042, 35.490589, 1750.0 ] } },
{ "type": "Feature", "properties": { "value": 0.0041 }, "geometry": { "type": "Point", "coordinates": [ 129.30014, 35.490585, 1750.0 ] } },
{ "type": "Feature", "properties": { "value": 0.0055 }, "geometry": { "type": "Point", "coordinates": [ 129.301239, 35.490582, 1750.0 ] } },
{ "type": "Feature", "properties": { "value": 0.0072 }, "geometry": { "type": "Point", "coordinates": [ 129.302353, 35.490582, 1750.0 ] } },
{ "type": "Feature", "properties": { "value": 0.0094 }, "geometry": { "type": "Point", "coordinates": [ 129.303452, 35.490578, 1750.0 ] } },
{ "type": "Feature", "properties": { "value": 0.012 }, "geometry": { "type": "Point", "coordinates": [ 129.30455, 35.490574, 1750.0 ] } },
{ "type": "Feature", "properties": { "value": 0.0149 }, "geometry": { "type": "Point", "coordinates": [ 129.305649, 35.49057, 1750.0 ] } },
{ "type": "Feature", "properties": { "value": 0.0181 }, "geometry": { "type": "Point", "coordinates": [ 129.306747, 35.49057, 1750.0 ] } },
{ "type": "Feature", "properties": { "value": 0.0216 }, "geometry": { "type": "Point", "coordinates": [ 129.307861, 35.490566, 1750.0 ] } },
{ "type": "Feature", "properties": { "value": 0.0251 }, "geometry": { "type": "Point", "coordinates": [ 129.30896, 35.490562, 1750.0 ] } },
{ "type": "Feature", "properties": { "value": 0.0285 }, "geometry": { "type": "Point", "coordinates": [ 129.310059, 35.490559, 1750.0 ] } },
{ "type": "Feature", "properties": { "value": 0.0317 }, "geometry": { "type": "Point", "coordinates": [ 129.311157, 35.490559, 1750.0 ] } },
{ "type": "Feature", "properties": { "value": 0.0345 }, "geometry": { "type": "Point", "coordinates": [ 129.312271, 35.490555, 1750.0 ] } },
{ "type": "Feature", "properties": { "value": 0.0367 }, "geometry": { "type": "Point", "coordinates": [ 129.31337, 35.490551, 1750.0 ] } },
{ "type": "Feature", "properties": { "value": 0.0381 }, "geometry": { "type": "Point", "coordinates": [ 129.314468, 35.490547, 1750.0 ] } },
{ "type": "Feature", "properties": { "value": 0.0387 }, "geometry": { "type": "Point", "coordinates": [ 129.315567, 35.490547, 1750.0 ] } },
{ "type": "Feature", "properties": { "value": 0.0385 }, "geometry": { "type": "Point", "coordinates": [ 129.316666, 35.490543, 1750.0 ] } },
{ "type": "Feature", "properties": { "value": 0.0374 }, "geometry": { "type": "Point", "coordinates": [ 129.31778, 35.49054, 1750.0 ] } },
{ "type": "Feature", "properties": { "value": 0.0355 }, "geometry": { "type": "Point", "coordinates": [ 129.318878, 35.490536, 1750.0 ] } },
{ "type": "Feature", "properties": { "value": 0.0329 }, "geometry": { "type": "Point", "coordinates": [ 129.319977, 35.490536, 1750.0 ] } },
{ "type": "Feature", "properties": { "value": 0.0299 }, "geometry": { "type": "Point", "coordinates": [ 129.321075, 35.490532, 1750.0 ] } },
{ "type": "Feature", "properties": { "value": 0.0265 }, "geometry": { "type": "Point", "coordinates": [ 129.322174, 35.490528, 1750.0 ] } },
{ "type": "Feature", "properties": { "value": 0.023 }, "geometry": { "type": "Point", "coordinates": [ 129.323288, 35.490524, 1750.0 ] } },
{ "type": "Feature", "properties": { "value": 0.0195 }, "geometry": { "type": "Point", "coordinates": [ 129.324387, 35.490524, 1750.0 ] } },
{ "type": "Feature", "properties": { "value": 0.0162 }, "geometry": { "type": "Point", "coordinates": [ 129.325485, 35.49052, 1750.0 ] } },
{ "type": "Feature", "properties": { "value": 0.0131 }, "geometry": { "type": "Point", "coordinates": [ 129.326584, 35.490517, 1750.0 ] } },
{ "type": "Feature", "properties": { "value": 0.0104 }, "geometry": { "type": "Point", "coordinates": [ 129.327698, 35.490513, 1750.0 ] } },
{ "type": "Feature", "properties": { "value": 0.008 }, "geometry": { "type": "Point", "coordinates": [ 129.328796, 35.490509, 1750.0 ] } },
{ "type": "Feature", "properties": { "value": 0.0061 }, "geometry": { "type": "Point", "coordinates": [ 129.329895, 35.490509, 1750.0 ] } },
{ "type": "Feature", "properties": { "value": 0.0045 }, "geometry": { "type": "Point", "coordinates": [ 129.330994, 35.490505, 1750.0 ] } },
{ "type": "Feature", "properties": { "value": 0.0033 }, "geometry": { "type": "Point", "coordinates": [ 129.332092, 35.490501, 1750.0 ] } },
{ "type": "Feature", "properties": { "value": 0.002 }, "geometry": { "type": "Point", "coordinates": [ 129.333206, 35.490498, 1750.0 ] } },
{ "type": "Feature", "properties": { "value": 0.0004 }, "geometry": { "type": "Point", "coordinates": [ 129.334305, 35.490494, 1750.0 ] } },
{ "type": "Feature", "properties": { "value": 0.0002 }, "geometry": { "type": "Point", "coordinates": [ 129.296844, 35.491493, 1750.0 ] } },
{ "type": "Feature", "properties": { "value": 0.0027 }, "geometry": { "type": "Point", "coordinates": [ 129.297943, 35.491493, 1750.0 ] } },
{ "type": "Feature", "properties": { "value": 0.0038 }, "geometry": { "type": "Point", "coordinates": [ 129.299042, 35.491489, 1750.0 ] } },
{ "type": "Feature", "properties": { "value": 0.0052 }, "geometry": { "type": "Point", "coordinates": [ 129.30014, 35.491486, 1750.0 ] } },
{ "type": "Feature", "properties": { "value": 0.0071 }, "geometry": { "type": "Point", "coordinates": [ 129.301254, 35.491486, 1750.0 ] } },
{ "type": "Feature", "properties": { "value": 0.0094 }, "geometry": { "type": "Point", "coordinates": [ 129.302353, 35.491482, 1750.0 ] } },
{ "type": "Feature", "properties": { "value": 0.0122 }, "geometry": { "type": "Point", "coordinates": [ 129.303452, 35.491478, 1750.0 ] } },
{ "type": "Feature", "properties": { "value": 0.0154 }, "geometry": { "type": "Point", "coordinates": [ 129.30455, 35.491474, 1750.0 ] } },
{ "type": "Feature", "properties": { "value": 0.0192 }, "geometry": { "type": "Point", "coordinates": [ 129.305649, 35.491474, 1750.0 ] } },
{ "type": "Feature", "properties": { "value": 0.0234 }, "geometry": { "type": "Point", "coordinates": [ 129.306763, 35.49147, 1750.0 ] } },
{ "type": "Feature", "properties": { "value": 0.0278 }, "geometry": { "type": "Point", "coordinates": [ 129.307861, 35.491467, 1750.0 ] } },
{ "type": "Feature", "properties": { "value": 0.0324 }, "geometry": { "type": "Point", "coordinates": [ 129.30896, 35.491463, 1750.0 ] } },
{ "type": "Feature", "properties": { "value": 0.0368 }, "geometry": { "type": "Point", "coordinates": [ 129.310059, 35.491463, 1750.0 ] } },
{ "type": "Feature", "properties": { "value": 0.041 }, "geometry": { "type": "Point", "coordinates": [ 129.311172, 35.491459, 1750.0 ] } },
{ "type": "Feature", "properties": { "value": 0.0446 }, "geometry": { "type": "Point", "coordinates": [ 129.312271, 35.491455, 1750.0 ] } },
{ "type": "Feature", "properties": { "value": 0.0474 }, "geometry": { "type": "Point", "coordinates": [ 129.31337, 35.491451, 1750.0 ] } },
{ "type": "Feature", "properties": { "value": 0.0492 }, "geometry": { "type": "Point", "coordinates": [ 129.314468, 35.491451, 1750.0 ] } },
{ "type": "Feature", "properties": { "value": 0.05 }, "geometry": { "type": "Point", "coordinates": [ 129.315567, 35.491447, 1750.0 ] } },
{ "type": "Feature", "properties": { "value": 0.0497 }, "geometry": { "type": "Point", "coordinates": [ 129.316681, 35.491444, 1750.0 ] } },
{ "type": "Feature", "properties": { "value": 0.0482 }, "geometry": { "type": "Point", "coordinates": [ 129.31778, 35.49144, 1750.0 ] } },
{ "type": "Feature", "properties": { "value": 0.0458 }, "geometry": { "type": "Point", "coordinates": [ 129.318878, 35.49144, 1750.0 ] } },
{ "type": "Feature", "properties": { "value": 0.0425 }, "geometry": { "type": "Point", "coordinates": [ 129.319977, 35.491436, 1750.0 ] } },
{ "type": "Feature", "properties": { "value": 0.0386 }, "geometry": { "type": "Point", "coordinates": [ 129.321091, 35.491432, 1750.0 ] } },
{ "type": "Feature", "properties": { "value": 0.0342 }, "geometry": { "type": "Point", "coordinates": [ 129.322189, 35.491428, 1750.0 ] } },
{ "type": "Feature", "properties": { "value": 0.0297 }, "geometry": { "type": "Point", "coordinates": [ 129.323288, 35.491428, 1750.0 ] } },
{ "type": "Feature", "properties": { "value": 0.0252 }, "geometry": { "type": "Point", "coordinates": [ 129.324387, 35.491425, 1750.0 ] } },
{ "type": "Feature", "properties": { "value": 0.0209 }, "geometry": { "type": "Point", "coordinates": [ 129.325485, 35.491421, 1750.0 ] } },
{ "type": "Feature", "properties": { "value": 0.0169 }, "geometry": { "type": "Point", "coordinates": [ 129.326599, 35.491417, 1750.0 ] } },
{ "type": "Feature", "properties": { "value": 0.0134 }, "geometry": { "type": "Point", "coordinates": [ 129.327698, 35.491413, 1750.0 ] } },
{ "type": "Feature", "properties": { "value": 0.0104 }, "geometry": { "type": "Point", "coordinates": [ 129.328796, 35.491413, 1750.0 ] } },
{ "type": "Feature", "properties": { "value": 0.0079 }, "geometry": { "type": "Point", "coordinates": [ 129.329895, 35.491409, 1750.0 ] } },
{ "type": "Feature", "properties": { "value": 0.0058 }, "geometry": { "type": "Point", "coordinates": [ 129.331009, 35.491405, 1750.0 ] } },
{ "type": "Feature", "properties": { "value": 0.0042 }, "geometry": { "type": "Point", "coordinates": [ 129.332108, 35.491402, 1750.0 ] } },
{ "type": "Feature", "properties": { "value": 0.003 }, "geometry": { "type": "Point", "coordinates": [ 129.333206, 35.491398, 1750.0 ] } },
{ "type": "Feature", "properties": { "value": 0.0014 }, "geometry": { "type": "Point", "coordinates": [ 129.334305, 35.491398, 1750.0 ] } },
{ "type": "Feature", "properties": { "value": 0.0021 }, "geometry": { "type": "Point", "coordinates": [ 129.296844, 35.492397, 1750.0 ] } },
{ "type": "Feature", "properties": { "value": 0.0034 }, "geometry": { "type": "Point", "coordinates": [ 129.297943, 35.492393, 1750.0 ] } },
{ "type": "Feature", "properties": { "value": 0.0048 }, "geometry": { "type": "Point", "coordinates": [ 129.299042, 35.49239, 1750.0 ] } },
{ "type": "Feature", "properties": { "value": 0.0066 }, "geometry": { "type": "Point", "coordinates": [ 129.30014, 35.49239, 1750.0 ] } },
{ "type": "Feature", "properties": { "value": 0.009 }, "geometry": { "type": "Point", "coordinates": [ 129.301254, 35.492386, 1750.0 ] } },
{ "type": "Feature", "properties": { "value": 0.0119 }, "geometry": { "type": "Point", "coordinates": [ 129.302353, 35.492382, 1750.0 ] } },
{ "type": "Feature", "properties": { "value": 0.0155 }, "geometry": { "type": "Point", "coordinates": [ 129.303452, 35.492378, 1750.0 ] } },
{ "type": "Feature", "properties": { "value": 0.0196 }, "geometry": { "type": "Point", "coordinates": [ 129.30455, 35.492378, 1750.0 ] } },
{ "type": "Feature", "properties": { "value": 0.0243 }, "geometry": { "type": "Point", "coordinates": [ 129.305664, 35.492374, 1750.0 ] } },
{ "type": "Feature", "properties": { "value": 0.0296 }, "geometry": { "type": "Point", "coordinates": [ 129.306763, 35.492371, 1750.0 ] } },
{ "type": "Feature", "properties": { "value": 0.0352 }, "geometry": { "type": "Point", "coordinates": [ 129.307861, 35.492367, 1750.0 ] } },
{ "type": "Feature", "properties": { "value": 0.0409 }, "geometry": { "type": "Point", "coordinates": [ 129.30896, 35.492367, 1750.0 ] } },
{ "type": "Feature", "properties": { "value": 0.0465 }, "geometry": { "type": "Point", "coordinates": [ 129.310074, 35.492363, 1750.0 ] } },
{ "type": "Feature", "properties": { "value": 0.0518 }, "geometry": { "type": "Point", "coordinates": [ 129.311172, 35.492359, 1750.0 ] } },
{ "type": "Feature", "properties": { "value": 0.0563 }, "geometry": { "type": "Point", "coordinates": [ 129.312271, 35.492355, 1750.0 ] } },
{ "type": "Feature", "properties": { "value": 0.0598 }, "geometry": { "type": "Point", "coordinates": [ 129.31337, 35.492355, 1750.0 ] } },
{ "type": "Feature", "properties": { "value": 0.0622 }, "geometry": { "type": "Point", "coordinates": [ 129.314468, 35.492352, 1750.0 ] } },
{ "type": "Feature", "properties": { "value": 0.0631 }, "geometry": { "type": "Point", "coordinates": [ 129.315582, 35.492348, 1750.0 ] } },
{ "type": "Feature", "properties": { "value": 0.0627 }, "geometry": { "type": "Point", "coordinates": [ 129.316681, 35.492344, 1750.0 ] } },
{ "type": "Feature", "properties": { "value": 0.0609 }, "geometry": { "type": "Point", "coordinates": [ 129.31778, 35.492344, 1750.0 ] } },
{ "type": "Feature", "properties": { "value": 0.0578 }, "geometry": { "type": "Point", "coordinates": [ 129.318878, 35.49234, 1750.0 ] } },
{ "type": "Feature", "properties": { "value": 0.0537 }, "geometry": { "type": "Point", "coordinates": [ 129.319992, 35.492336, 1750.0 ] } },
{ "type": "Feature", "properties": { "value": 0.0487 }, "geometry": { "type": "Point", "coordinates": [ 129.321091, 35.492332, 1750.0 ] } },
{ "type": "Feature", "properties": { "value": 0.0432 }, "geometry": { "type": "Point", "coordinates": [ 129.322189, 35.492332, 1750.0 ] } },
{ "type": "Feature", "properties": { "value": 0.0375 }, "geometry": { "type": "Point", "coordinates": [ 129.323288, 35.492329, 1750.0 ] } },
{ "type": "Feature", "properties": { "value": 0.0318 }, "geometry": { "type": "Point", "coordinates": [ 129.324387, 35.492325, 1750.0 ] } },
{ "type": "Feature", "properties": { "value": 0.0263 }, "geometry": { "type": "Point", "coordinates": [ 129.3255, 35.492321, 1750.0 ] } },
{ "type": "Feature", "properties": { "value": 0.0214 }, "geometry": { "type": "Point", "coordinates": [ 129.326599, 35.492317, 1750.0 ] } },
{ "type": "Feature", "properties": { "value": 0.0169 }, "geometry": { "type": "Point", "coordinates": [ 129.327698, 35.492317, 1750.0 ] } },
{ "type": "Feature", "properties": { "value": 0.0131 }, "geometry": { "type": "Point", "coordinates": [ 129.328796, 35.492313, 1750.0 ] } },
{ "type": "Feature", "properties": { "value": 0.0099 }, "geometry": { "type": "Point", "coordinates": [ 129.32991, 35.49231, 1750.0 ] } },
{ "type": "Feature", "properties": { "value": 0.0073 }, "geometry": { "type": "Point", "coordinates": [ 129.331009, 35.492306, 1750.0 ] } },
{ "type": "Feature", "properties": { "value": 0.0053 }, "geometry": { "type": "Point", "coordinates": [ 129.332108, 35.492306, 1750.0 ] } },
{ "type": "Feature", "properties": { "value": 0.0038 }, "geometry": { "type": "Point", "coordinates": [ 129.333206, 35.492302, 1750.0 ] } },
{ "type": "Feature", "properties": { "value": 0.0024 }, "geometry": { "type": "Point", "coordinates": [ 129.334305, 35.492298, 1750.0 ] } },
{ "type": "Feature", "properties": { "value": 0.0009 }, "geometry": { "type": "Point", "coordinates": [ 129.335419, 35.492294, 1750.0 ] } },
{ "type": "Feature", "properties": { "value": 0.0006 }, "geometry": { "type": "Point", "coordinates": [ 129.295746, 35.493301, 1750.0 ] } },
{ "type": "Feature", "properties": { "value": 0.0028 }, "geometry": { "type": "Point", "coordinates": [ 129.296844, 35.493298, 1750.0 ] } },
{ "type": "Feature", "properties": { "value": 0.0041 }, "geometry": { "type": "Point", "coordinates": [ 129.297943, 35.493294, 1750.0 ] } },
{ "type": "Feature", "properties": { "value": 0.0059 }, "geometry": { "type": "Point", "coordinates": [ 129.299042, 35.49329, 1750.0 ] } },
{ "type": "Feature", "properties": { "value": 0.0082 }, "geometry": { "type": "Point", "coordinates": [ 129.300156, 35.49329, 1750.0 ] } },
{ "type": "Feature", "properties": { "value": 0.0111 }, "geometry": { "type": "Point", "coordinates": [ 129.301254, 35.493286, 1750.0 ] } },
{ "type": "Feature", "properties": { "value": 0.0147 }, "geometry": { "type": "Point", "coordinates": [ 129.302353, 35.493282, 1750.0 ] } },
{ "type": "Feature", "properties": { "value": 0.0191 }, "geometry": { "type": "Point", "coordinates": [ 129.303452, 35.493282, 1750.0 ] } },
{ "type": "Feature", "properties": { "value": 0.0243 }, "geometry": { "type": "Point", "coordinates": [ 129.304565, 35.493279, 1750.0 ] } },
{ "type": "Feature", "properties": { "value": 0.0301 }, "geometry": { "type": "Point", "coordinates": [ 129.305664, 35.493275, 1750.0 ] } },
{ "type": "Feature", "properties": { "value": 0.0365 }, "geometry": { "type": "Point", "coordinates": [ 129.306763, 35.493271, 1750.0 ] } },
{ "type": "Feature", "properties": { "value": 0.0434 }, "geometry": { "type": "Point", "coordinates": [ 129.307861, 35.493271, 1750.0 ] } },
{ "type": "Feature", "properties": { "value": 0.0505 }, "geometry": { "type": "Point", "coordinates": [ 129.308975, 35.493267, 1750.0 ] } },
{ "type": "Feature", "properties": { "value": 0.0575 }, "geometry": { "type": "Point", "coordinates": [ 129.310074, 35.493263, 1750.0 ] } },
{ "type": "Feature", "properties": { "value": 0.0639 }, "geometry": { "type": "Point", "coordinates": [ 129.311172, 35.493259, 1750.0 ] } },
{ "type": "Feature", "properties": { "value": 0.0695 }, "geometry": { "type": "Point", "coordinates": [ 129.312271, 35.493259, 1750.0 ] } },
{ "type": "Feature", "properties": { "value": 0.0738 }, "geometry": { "type": "Point", "coordinates": [ 129.31337, 35.493256, 1750.0 ] } },
{ "type": "Feature", "properties": { "value": 0.0767 }, "geometry": { "type": "Point", "coordinates": [ 129.314484, 35.493252, 1750.0 ] } },
{ "type": "Feature", "properties": { "value": 0.0779 }, "geometry": { "type": "Point", "coordinates": [ 129.315582, 35.493248, 1750.0 ] } },
{ "type": "Feature", "properties": { "value": 0.0774 }, "geometry": { "type": "Point", "coordinates": [ 129.316681, 35.493248, 1750.0 ] } },
{ "type": "Feature", "properties": { "value": 0.0752 }, "geometry": { "type": "Point", "coordinates": [ 129.31778, 35.493244, 1750.0 ] } },
{ "type": "Feature", "properties": { "value": 0.0714 }, "geometry": { "type": "Point", "coordinates": [ 129.318893, 35.49324, 1750.0 ] } },
{ "type": "Feature", "properties": { "value": 0.0662 }, "geometry": { "type": "Point", "coordinates": [ 129.319992, 35.493237, 1750.0 ] } },
{ "type": "Feature", "properties": { "value": 0.0601 }, "geometry": { "type": "Point", "coordinates": [ 129.321091, 35.493237, 1750.0 ] } },
{ "type": "Feature", "properties": { "value": 0.0533 }, "geometry": { "type": "Point", "coordinates": [ 129.322189, 35.493233, 1750.0 ] } },
{ "type": "Feature", "properties": { "value": 0.0462 }, "geometry": { "type": "Point", "coordinates": [ 129.323288, 35.493229, 1750.0 ] } },
{ "type": "Feature", "properties": { "value": 0.0392 }, "geometry": { "type": "Point", "coordinates": [ 129.324402, 35.493225, 1750.0 ] } },
{ "type": "Feature", "properties": { "value": 0.0325 }, "geometry": { "type": "Point", "coordinates": [ 129.3255, 35.493225, 1750.0 ] } },
{ "type": "Feature", "properties": { "value": 0.0263 }, "geometry": { "type": "Point", "coordinates": [ 129.326599, 35.493221, 1750.0 ] } },
{ "type": "Feature", "properties": { "value": 0.0209 }, "geometry": { "type": "Point", "coordinates": [ 129.327698, 35.493217, 1750.0 ] } },
{ "type": "Feature", "properties": { "value": 0.0162 }, "geometry": { "type": "Point", "coordinates": [ 129.328812, 35.493214, 1750.0 ] } },
{ "type": "Feature", "properties": { "value": 0.0122 }, "geometry": { "type": "Point", "coordinates": [ 129.32991, 35.49321, 1750.0 ] } },
{ "type": "Feature", "properties": { "value": 0.0091 }, "geometry": { "type": "Point", "coordinates": [ 129.331009, 35.49321, 1750.0 ] } },
{ "type": "Feature", "properties": { "value": 0.0066 }, "geometry": { "type": "Point", "coordinates": [ 129.332108, 35.493206, 1750.0 ] } },
{ "type": "Feature", "properties": { "value": 0.0046 }, "geometry": { "type": "Point", "coordinates": [ 129.333206, 35.493202, 1750.0 ] } },
{ "type": "Feature", "properties": { "value": 0.0032 }, "geometry": { "type": "Point", "coordinates": [ 129.33432, 35.493198, 1750.0 ] } },
{ "type": "Feature", "properties": { "value": 0.0015 }, "geometry": { "type": "Point", "coordinates": [ 129.335419, 35.493195, 1750.0 ] } },
{ "type": "Feature", "properties": { "value": 0.0019 }, "geometry": { "type": "Point", "coordinates": [ 129.295746, 35.494202, 1750.0 ] } },
{ "type": "Feature", "properties": { "value": 0.0034 }, "geometry": { "type": "Point", "coordinates": [ 129.296844, 35.494198, 1750.0 ] } },
{ "type": "Feature", "properties": { "value": 0.005 }, "geometry": { "type": "Point", "coordinates": [ 129.297943, 35.494194, 1750.0 ] } },
{ "type": "Feature", "properties": { "value": 0.0071 }, "geometry": { "type": "Point", "coordinates": [ 129.299057, 35.494194, 1750.0 ] } },
{ "type": "Feature", "properties": { "value": 0.0098 }, "geometry": { "type": "Point", "coordinates": [ 129.300156, 35.49419, 1750.0 ] } },
{ "type": "Feature", "properties": { "value": 0.0134 }, "geometry": { "type": "Point", "coordinates": [ 129.301254, 35.494186, 1750.0 ] } },
{ "type": "Feature", "properties": { "value": 0.0178 }, "geometry": { "type": "Point", "coordinates": [ 129.302353, 35.494186, 1750.0 ] } },
{ "type": "Feature", "properties": { "value": 0.0231 }, "geometry": { "type": "Point", "coordinates": [ 129.303467, 35.494183, 1750.0 ] } },
{ "type": "Feature", "properties": { "value": 0.0293 }, "geometry": { "type": "Point", "coordinates": [ 129.304565, 35.494179, 1750.0 ] } },
{ "type": "Feature", "properties": { "value": 0.0364 }, "geometry": { "type": "Point", "coordinates": [ 129.305664, 35.494175, 1750.0 ] } },
{ "type": "Feature", "properties": { "value": 0.0442 }, "geometry": { "type": "Point", "coordinates": [ 129.306763, 35.494175, 1750.0 ] } },
{ "type": "Feature", "properties": { "value": 0.0525 }, "geometry": { "type": "Point", "coordinates": [ 129.307877, 35.494171, 1750.0 ] } },
{ "type": "Feature", "properties": { "value": 0.061 }, "geometry": { "type": "Point", "coordinates": [ 129.308975, 35.494167, 1750.0 ] } },
{ "type": "Feature", "properties": { "value": 0.0694 }, "geometry": { "type": "Point", "coordinates": [ 129.310074, 35.494164, 1750.0 ] } },
{ "type": "Feature", "properties": { "value": 0.0771 }, "geometry": { "type": "Point", "coordinates": [ 129.311172, 35.494164, 1750.0 ] } },
{ "type": "Feature", "properties": { "value": 0.0838 }, "geometry": { "type": "Point", "coordinates": [ 129.312271, 35.49416, 1750.0 ] } },
{ "type": "Feature", "properties": { "value": 0.0891 }, "geometry": { "type": "Point", "coordinates": [ 129.313385, 35.494156, 1750.0 ] } },
{ "type": "Feature", "properties": { "value": 0.0926 }, "geometry": { "type": "Point", "coordinates": [ 129.314484, 35.494152, 1750.0 ] } },
{ "type": "Feature", "properties": { "value": 0.0941 }, "geometry": { "type": "Point", "coordinates": [ 129.315582, 35.494152, 1750.0 ] } },
{ "type": "Feature", "properties": { "value": 0.0934 }, "geometry": { "type": "Point", "coordinates": [ 129.316681, 35.494148, 1750.0 ] } },
{ "type": "Feature", "properties": { "value": 0.0907 }, "geometry": { "type": "Point", "coordinates": [ 129.317795, 35.494144, 1750.0 ] } },
{ "type": "Feature", "properties": { "value": 0.0861 }, "geometry": { "type": "Point", "coordinates": [ 129.318893, 35.494141, 1750.0 ] } },
{ "type": "Feature", "properties": { "value": 0.0799 }, "geometry": { "type": "Point", "coordinates": [ 129.319992, 35.494141, 1750.0 ] } },
{ "type": "Feature", "properties": { "value": 0.0725 }, "geometry": { "type": "Point", "coordinates": [ 129.321091, 35.494137, 1750.0 ] } },
{ "type": "Feature", "properties": { "value": 0.0643 }, "geometry": { "type": "Point", "coordinates": [ 129.322189, 35.494133, 1750.0 ] } },
{ "type": "Feature", "properties": { "value": 0.0558 }, "geometry": { "type": "Point", "coordinates": [ 129.323303, 35.494129, 1750.0 ] } },
{ "type": "Feature", "properties": { "value": 0.0473 }, "geometry": { "type": "Point", "coordinates": [ 129.324402, 35.494129, 1750.0 ] } },
{ "type": "Feature", "properties": { "value": 0.0392 }, "geometry": { "type": "Point", "coordinates": [ 129.3255, 35.494125, 1750.0 ] } },
{ "type": "Feature", "properties": { "value": 0.0318 }, "geometry": { "type": "Point", "coordinates": [ 129.326599, 35.494122, 1750.0 ] } },
{ "type": "Feature", "properties": { "value": 0.0252 }, "geometry": { "type": "Point", "coordinates": [ 129.327713, 35.494118, 1750.0 ] } },
{ "type": "Feature", "properties": { "value": 0.0195 }, "geometry": { "type": "Point", "coordinates": [ 129.328812, 35.494114, 1750.0 ] } },
{ "type": "Feature", "properties": { "value": 0.0148 }, "geometry": { "type": "Point", "coordinates": [ 129.32991, 35.494114, 1750.0 ] } },
{ "type": "Feature", "properties": { "value": 0.0109 }, "geometry": { "type": "Point", "coordinates": [ 129.331009, 35.49411, 1750.0 ] } },
{ "type": "Feature", "properties": { "value": 0.0079 }, "geometry": { "type": "Point", "coordinates": [ 129.332108, 35.494106, 1750.0 ] } },
{ "type": "Feature", "properties": { "value": 0.0056 }, "geometry": { "type": "Point", "coordinates": [ 129.333221, 35.494102, 1750.0 ] } },
{ "type": "Feature", "properties": { "value": 0.0039 }, "geometry": { "type": "Point", "coordinates": [ 129.33432, 35.494099, 1750.0 ] } },
{ "type": "Feature", "properties": { "value": 0.0026 }, "geometry": { "type": "Point", "coordinates": [ 129.335419, 35.494099, 1750.0 ] } },
{ "type": "Feature", "properties": { "value": 0.0008 }, "geometry": { "type": "Point", "coordinates": [ 129.336517, 35.494095, 1750.0 ] } },
{ "type": "Feature", "properties": { "value": 0.0004 }, "geometry": { "type": "Point", "coordinates": [ 129.294647, 35.495106, 1750.0 ] } },
{ "type": "Feature", "properties": { "value": 0.0027 }, "geometry": { "type": "Point", "coordinates": [ 129.295746, 35.495102, 1750.0 ] } },
{ "type": "Feature", "properties": { "value": 0.0041 }, "geometry": { "type": "Point", "coordinates": [ 129.296844, 35.495098, 1750.0 ] } },
{ "type": "Feature", "properties": { "value": 0.0059 }, "geometry": { "type": "Point", "coordinates": [ 129.297958, 35.495098, 1750.0 ] } },
{ "type": "Feature", "properties": { "value": 0.0084 }, "geometry": { "type": "Point", "coordinates": [ 129.299057, 35.495094, 1750.0 ] } },
{ "type": "Feature", "properties": { "value": 0.0116 }, "geometry": { "type": "Point", "coordinates": [ 129.300156, 35.49509, 1750.0 ] } },
{ "type": "Feature", "properties": { "value": 0.0158 }, "geometry": { "type": "Point", "coordinates": [ 129.301254, 35.49509, 1750.0 ] } },
{ "type": "Feature", "properties": { "value": 0.021 }, "geometry": { "type": "Point", "coordinates": [ 129.302368, 35.495087, 1750.0 ] } },
{ "type": "Feature", "properties": { "value": 0.0272 }, "geometry": { "type": "Point", "coordinates": [ 129.303467, 35.495083, 1750.0 ] } },
{ "type": "Feature", "properties": { "value": 0.0346 }, "geometry": { "type": "Point", "coordinates": [ 129.304565, 35.495079, 1750.0 ] } },
{ "type": "Feature", "properties": { "value": 0.043 }, "geometry": { "type": "Point", "coordinates": [ 129.305664, 35.495079, 1750.0 ] } },
{ "type": "Feature", "properties": { "value": 0.0522 }, "geometry": { "type": "Point", "coordinates": [ 129.306778, 35.495075, 1750.0 ] } },
{ "type": "Feature", "properties": { "value": 0.062 }, "geometry": { "type": "Point", "coordinates": [ 129.307877, 35.495071, 1750.0 ] } },
{ "type": "Feature", "properties": { "value": 0.072 }, "geometry": { "type": "Point", "coordinates": [ 129.308975, 35.495068, 1750.0 ] } },
{ "type": "Feature", "properties": { "value": 0.0819 }, "geometry": { "type": "Point", "coordinates": [ 129.310074, 35.495068, 1750.0 ] } },
{ "type": "Feature", "properties": { "value": 0.091 }, "geometry": { "type": "Point", "coordinates": [ 129.311172, 35.495064, 1750.0 ] } },
{ "type": "Feature", "properties": { "value": 0.099 }, "geometry": { "type": "Point", "coordinates": [ 129.312286, 35.49506, 1750.0 ] } },
{ "type": "Feature", "properties": { "value": 0.1052 }, "geometry": { "type": "Point", "coordinates": [ 129.313385, 35.495056, 1750.0 ] } },
{ "type": "Feature", "properties": { "value": 0.1093 }, "geometry": { "type": "Point", "coordinates": [ 129.314484, 35.495056, 1750.0 ] } },
{ "type": "Feature", "properties": { "value": 0.111 }, "geometry": { "type": "Point", "coordinates": [ 129.315582, 35.495052, 1750.0 ] } },
{ "type": "Feature", "properties": { "value": 0.1102 }, "geometry": { "type": "Point", "coordinates": [ 129.316696, 35.495049, 1750.0 ] } },
{ "type": "Feature", "properties": { "value": 0.107 }, "geometry": { "type": "Point", "coordinates": [ 129.317795, 35.495045, 1750.0 ] } },
{ "type": "Feature", "properties": { "value": 0.1016 }, "geometry": { "type": "Point", "coordinates": [ 129.318893, 35.495045, 1750.0 ] } },
{ "type": "Feature", "properties": { "value": 0.0943 }, "geometry": { "type": "Point", "coordinates": [ 129.319992, 35.495041, 1750.0 ] } },
{ "type": "Feature", "properties": { "value": 0.0855 }, "geometry": { "type": "Point", "coordinates": [ 129.321091, 35.495037, 1750.0 ] } },
{ "type": "Feature", "properties": { "value": 0.0759 }, "geometry": { "type": "Point", "coordinates": [ 129.322205, 35.495033, 1750.0 ] } },
{ "type": "Feature", "properties": { "value": 0.0658 }, "geometry": { "type": "Point", "coordinates": [ 129.323303, 35.495033, 1750.0 ] } },
{ "type": "Feature", "properties": { "value": 0.0558 }, "geometry": { "type": "Point", "coordinates": [ 129.324402, 35.495029, 1750.0 ] } },
{ "type": "Feature", "properties": { "value": 0.0462 }, "geometry": { "type": "Point", "coordinates": [ 129.3255, 35.495026, 1750.0 ] } },
{ "type": "Feature", "properties": { "value": 0.0375 }, "geometry": { "type": "Point", "coordinates": [ 129.326614, 35.495022, 1750.0 ] } },
{ "type": "Feature", "properties": { "value": 0.0297 }, "geometry": { "type": "Point", "coordinates": [ 129.327713, 35.495022, 1750.0 ] } },
{ "type": "Feature", "properties": { "value": 0.023 }, "geometry": { "type": "Point", "coordinates": [ 129.328812, 35.495018, 1750.0 ] } },
{ "type": "Feature", "properties": { "value": 0.0174 }, "geometry": { "type": "Point", "coordinates": [ 129.32991, 35.495014, 1750.0 ] } },
{ "type": "Feature", "properties": { "value": 0.0129 }, "geometry": { "type": "Point", "coordinates": [ 129.331009, 35.49501, 1750.0 ] } },
{ "type": "Feature", "properties": { "value": 0.0093 }, "geometry": { "type": "Point", "coordinates": [ 129.332123, 35.495007, 1750.0 ] } },
{ "type": "Feature", "properties": { "value": 0.0066 }, "geometry": { "type": "Point", "coordinates": [ 129.333221, 35.495007, 1750.0 ] } },
{ "type": "Feature", "properties": { "value": 0.0046 }, "geometry": { "type": "Point", "coordinates": [ 129.33432, 35.495003, 1750.0 ] } },
{ "type": "Feature", "properties": { "value": 0.0031 }, "geometry": { "type": "Point", "coordinates": [ 129.335419, 35.494999, 1750.0 ] } },
{ "type": "Feature", "properties": { "value": 0.0014 }, "geometry": { "type": "Point", "coordinates": [ 129.336533, 35.494995, 1750.0 ] } },
{ "type": "Feature", "properties": { "value": 0.0014 }, "geometry": { "type": "Point", "coordinates": [ 129.294647, 35.496006, 1750.0 ] } },
{ "type": "Feature", "properties": { "value": 0.0032 }, "geometry": { "type": "Point", "coordinates": [ 129.295746, 35.496002, 1750.0 ] } },
{ "type": "Feature", "properties": { "value": 0.0047 }, "geometry": { "type": "Point", "coordinates": [ 129.29686, 35.496002, 1750.0 ] } },
{ "type": "Feature", "properties": { "value": 0.0068 }, "geometry": { "type": "Point", "coordinates": [ 129.297958, 35.495998, 1750.0 ] } },
{ "type": "Feature", "properties": { "value": 0.0096 }, "geometry": { "type": "Point", "coordinates": [ 129.299057, 35.495995, 1750.0 ] } },
{ "type": "Feature", "properties": { "value": 0.0134 }, "geometry": { "type": "Point", "coordinates": [ 129.300156, 35.495995, 1750.0 ] } },
{ "type": "Feature", "properties": { "value": 0.0182 }, "geometry": { "type": "Point", "coordinates": [ 129.30127, 35.495991, 1750.0 ] } },
{ "type": "Feature", "properties": { "value": 0.0242 }, "geometry": { "type": "Point", "coordinates": [ 129.302368, 35.495987, 1750.0 ] } },
{ "type": "Feature", "properties": { "value": 0.0314 }, "geometry": { "type": "Point", "coordinates": [ 129.303467, 35.495983, 1750.0 ] } },
{ "type": "Feature", "properties": { "value": 0.0399 }, "geometry": { "type": "Point", "coordinates": [ 129.304565, 35.495983, 1750.0 ] } },
{ "type": "Feature", "properties": { "value": 0.0495 }, "geometry": { "type": "Point", "coordinates": [ 129.305679, 35.495979, 1750.0 ] } },
{ "type": "Feature", "properties": { "value": 0.0602 }, "geometry": { "type": "Point", "coordinates": [ 129.306778, 35.495975, 1750.0 ] } },
{ "type": "Feature", "properties": { "value": 0.0715 }, "geometry": { "type": "Point", "coordinates": [ 129.307877, 35.495972, 1750.0 ] } },
{ "type": "Feature", "properties": { "value": 0.0831 }, "geometry": { "type": "Point", "coordinates": [ 129.308975, 35.495972, 1750.0 ] } },
{ "type": "Feature", "properties": { "value": 0.0945 }, "geometry": { "type": "Point", "coordinates": [ 129.310074, 35.495968, 1750.0 ] } },
{ "type": "Feature", "properties": { "value": 0.105 }, "geometry": { "type": "Point", "coordinates": [ 129.311188, 35.495964, 1750.0 ] } },
{ "type": "Feature", "properties": { "value": 0.1142 }, "geometry": { "type": "Point", "coordinates": [ 129.312286, 35.495964, 1750.0 ] } },
{ "type": "Feature", "properties": { "value": 0.1213 }, "geometry": { "type": "Point", "coordinates": [ 129.313385, 35.49596, 1750.0 ] } },
{ "type": "Feature", "properties": { "value": 0.126 }, "geometry": { "type": "Point", "coordinates": [ 129.314484, 35.495956, 1750.0 ] } },
{ "type": "Feature", "properties": { "value": 0.128 }, "geometry": { "type": "Point", "coordinates": [ 129.315598, 35.495953, 1750.0 ] } },
{ "type": "Feature", "properties": { "value": 0.1271 }, "geometry": { "type": "Point", "coordinates": [ 129.316696, 35.495949, 1750.0 ] } },
{ "type": "Feature", "properties": { "value": 0.1234 }, "geometry": { "type": "Point", "coordinates": [ 129.317795, 35.495949, 1750.0 ] } },
{ "type": "Feature", "properties": { "value": 0.1172 }, "geometry": { "type": "Point", "coordinates": [ 129.318893, 35.495945, 1750.0 ] } },
{ "type": "Feature", "properties": { "value": 0.1087 }, "geometry": { "type": "Point", "coordinates": [ 129.319992, 35.495941, 1750.0 ] } },
{ "type": "Feature", "properties": { "value": 0.0986 }, "geometry": { "type": "Point", "coordinates": [ 129.321106, 35.495937, 1750.0 ] } },
{ "type": "Feature", "properties": { "value": 0.0875 }, "geometry": { "type": "Point", "coordinates": [ 129.322205, 35.495937, 1750.0 ] } },
{ "type": "Feature", "properties": { "value": 0.0759 }, "geometry": { "type": "Point", "coordinates": [ 129.323303, 35.495934, 1750.0 ] } },
{ "type": "Feature", "properties": { "value": 0.0643 }, "geometry": { "type": "Point", "coordinates": [ 129.324402, 35.49593, 1750.0 ] } },
{ "type": "Feature", "properties": { "value": 0.0533 }, "geometry": { "type": "Point", "coordinates": [ 129.325516, 35.495926, 1750.0 ] } },
{ "type": "Feature", "properties": { "value": 0.0432 }, "geometry": { "type": "Point", "coordinates": [ 129.326614, 35.495926, 1750.0 ] } },
{ "type": "Feature", "properties": { "value": 0.0342 }, "geometry": { "type": "Point", "coordinates": [ 129.327713, 35.495922, 1750.0 ] } },
{ "type": "Feature", "properties": { "value": 0.0265 }, "geometry": { "type": "Point", "coordinates": [ 129.328812, 35.495918, 1750.0 ] } },
{ "type": "Feature", "properties": { "value": 0.0201 }, "geometry": { "type": "Point", "coordinates": [ 129.329926, 35.495914, 1750.0 ] } },
{ "type": "Feature", "properties": { "value": 0.0148 }, "geometry": { "type": "Point", "coordinates": [ 129.331024, 35.495911, 1750.0 ] } },
{ "type": "Feature", "properties": { "value": 0.0107 }, "geometry": { "type": "Point", "coordinates": [ 129.332123, 35.495911, 1750.0 ] } },
{ "type": "Feature", "properties": { "value": 0.0076 }, "geometry": { "type": "Point", "coordinates": [ 129.333221, 35.495907, 1750.0 ] } },
{ "type": "Feature", "properties": { "value": 0.0053 }, "geometry": { "type": "Point", "coordinates": [ 129.33432, 35.495903, 1750.0 ] } },
{ "type": "Feature", "properties": { "value": 0.0035 }, "geometry": { "type": "Point", "coordinates": [ 129.335434, 35.495899, 1750.0 ] } },
{ "type": "Feature", "properties": { "value": 0.002 }, "geometry": { "type": "Point", "coordinates": [ 129.336533, 35.495895, 1750.0 ] } },
{ "type": "Feature", "properties": { "value": 0.002 }, "geometry": { "type": "Point", "coordinates": [ 129.294647, 35.496906, 1750.0 ] } },
{ "type": "Feature", "properties": { "value": 0.0036 }, "geometry": { "type": "Point", "coordinates": [ 129.295761, 35.496906, 1750.0 ] } },
{ "type": "Feature", "properties": { "value": 0.0053 }, "geometry": { "type": "Point", "coordinates": [ 129.29686, 35.496902, 1750.0 ] } },
{ "type": "Feature", "properties": { "value": 0.0077 }, "geometry": { "type": "Point", "coordinates": [ 129.297958, 35.496899, 1750.0 ] } },
{ "type": "Feature", "properties": { "value": 0.0109 }, "geometry": { "type": "Point", "coordinates": [ 129.299057, 35.496899, 1750.0 ] } },
{ "type": "Feature", "properties": { "value": 0.0151 }, "geometry": { "type": "Point", "coordinates": [ 129.300171, 35.496895, 1750.0 ] } },
{ "type": "Feature", "properties": { "value": 0.0205 }, "geometry": { "type": "Point", "coordinates": [ 129.30127, 35.496891, 1750.0 ] } },
{ "type": "Feature", "properties": { "value": 0.0273 }, "geometry": { "type": "Point", "coordinates": [ 129.302368, 35.496887, 1750.0 ] } },
{ "type": "Feature", "properties": { "value": 0.0354 }, "geometry": { "type": "Point", "coordinates": [ 129.303467, 35.496887, 1750.0 ] } },
{ "type": "Feature", "properties": { "value": 0.045 }, "geometry": { "type": "Point", "coordinates": [ 129.304581, 35.496883, 1750.0 ] } },
{ "type": "Feature", "properties": { "value": 0.0559 }, "geometry": { "type": "Point", "coordinates": [ 129.305679, 35.49688, 1750.0 ] } },
{ "type": "Feature", "properties": { "value": 0.0678 }, "geometry": { "type": "Point", "coordinates": [ 129.306778, 35.496876, 1750.0 ] } },
{ "type": "Feature", "properties": { "value": 0.0806 }, "geometry": { "type": "Point", "coordinates": [ 129.307877, 35.496876, 1750.0 ] } },
{ "type": "Feature", "properties": { "value": 0.0936 }, "geometry": { "type": "Point", "coordinates": [ 129.308975, 35.496872, 1750.0 ] } },
{ "type": "Feature", "properties": { "value": 0.1064 }, "geometry": { "type": "Point", "coordinates": [ 129.310089, 35.496868, 1750.0 ] } },
{ "type": "Feature", "properties": { "value": 0.1184 }, "geometry": { "type": "Point", "coordinates": [ 129.311188, 35.496868, 1750.0 ] } },
{ "type": "Feature", "properties": { "value": 0.1288 }, "geometry": { "type": "Point", "coordinates": [ 129.312286, 35.496864, 1750.0 ] } },
{ "type": "Feature", "properties": { "value": 0.1368 }, "geometry": { "type": "Point", "coordinates": [ 129.313385, 35.496861, 1750.0 ] } },
{ "type": "Feature", "properties": { "value": 0.1422 }, "geometry": { "type": "Point", "coordinates": [ 129.314499, 35.496857, 1750.0 ] } },
{ "type": "Feature", "properties": { "value": 0.1444 }, "geometry": { "type": "Point", "coordinates": [ 129.315598, 35.496857, 1750.0 ] } },
{ "type": "Feature", "properties": { "value": 0.1434 }, "geometry": { "type": "Point", "coordinates": [ 129.316696, 35.496853, 1750.0 ] } },
{ "type": "Feature", "properties": { "value": 0.1392 }, "geometry": { "type": "Point", "coordinates": [ 129.317795, 35.496849, 1750.0 ] } },
{ "type": "Feature", "properties": { "value": 0.1321 }, "geometry": { "type": "Point", "coordinates": [ 129.318893, 35.496845, 1750.0 ] } },
{ "type": "Feature", "properties": { "value": 0.1226 }, "geometry": { "type": "Point", "coordinates": [ 129.320007, 35.496841, 1750.0 ] } },
{ "type": "Feature", "properties": { "value": 0.1112 }, "geometry": { "type": "Point", "coordinates": [ 129.321106, 35.496841, 1750.0 ] } },
{ "type": "Feature", "properties": { "value": 0.0986 }, "geometry": { "type": "Point", "coordinates": [ 129.322205, 35.496838, 1750.0 ] } },
{ "type": "Feature", "properties": { "value": 0.0855 }, "geometry": { "type": "Point", "coordinates": [ 129.323303, 35.496834, 1750.0 ] } },
{ "type": "Feature", "properties": { "value": 0.0725 }, "geometry": { "type": "Point", "coordinates": [ 129.324417, 35.49683, 1750.0 ] } },
{ "type": "Feature", "properties": { "value": 0.0601 }, "geometry": { "type": "Point", "coordinates": [ 129.325516, 35.49683, 1750.0 ] } },
{ "type": "Feature", "properties": { "value": 0.0487 }, "geometry": { "type": "Point", "coordinates": [ 129.326614, 35.496826, 1750.0 ] } },
{ "type": "Feature", "properties": { "value": 0.0385 }, "geometry": { "type": "Point", "coordinates": [ 129.327713, 35.496822, 1750.0 ] } },
{ "type": "Feature", "properties": { "value": 0.0298 }, "geometry": { "type": "Point", "coordinates": [ 129.328827, 35.496819, 1750.0 ] } },
{ "type": "Feature", "properties": { "value": 0.0226 }, "geometry": { "type": "Point", "coordinates": [ 129.329926, 35.496815, 1750.0 ] } },
{ "type": "Feature", "properties": { "value": 0.0167 }, "geometry": { "type": "Point", "coordinates": [ 129.331024, 35.496815, 1750.0 ] } },
{ "type": "Feature", "properties": { "value": 0.0121 }, "geometry": { "type": "Point", "coordinates": [ 129.332123, 35.496811, 1750.0 ] } },
{ "type": "Feature", "properties": { "value": 0.0086 }, "geometry": { "type": "Point", "coordinates": [ 129.333221, 35.496807, 1750.0 ] } },
{ "type": "Feature", "properties": { "value": 0.0059 }, "geometry": { "type": "Point", "coordinates": [ 129.334335, 35.496803, 1750.0 ] } },
{ "type": "Feature", "properties": { "value": 0.004 }, "geometry": { "type": "Point", "coordinates": [ 129.335434, 35.496799, 1750.0 ] } },
{ "type": "Feature", "properties": { "value": 0.0026 }, "geometry": { "type": "Point", "coordinates": [ 129.336533, 35.496799, 1750.0 ] } },
{ "type": "Feature", "properties": { "value": 0.0004 }, "geometry": { "type": "Point", "coordinates": [ 129.337631, 35.496796, 1750.0 ] } },
{ "type": "Feature", "properties": { "value": 0.0004 }, "geometry": { "type": "Point", "coordinates": [ 129.293549, 35.49781, 1750.0 ] } },
{ "type": "Feature", "properties": { "value": 0.0026 }, "geometry": { "type": "Point", "coordinates": [ 129.294662, 35.49781, 1750.0 ] } },
{ "type": "Feature", "properties": { "value": 0.0039 }, "geometry": { "type": "Point", "coordinates": [ 129.295761, 35.497807, 1750.0 ] } },
{ "type": "Feature", "properties": { "value": 0.0058 }, "geometry": { "type": "Point", "coordinates": [ 129.29686, 35.497803, 1750.0 ] } },
{ "type": "Feature", "properties": { "value": 0.0085 }, "geometry": { "type": "Point", "coordinates": [ 129.297958, 35.497803, 1750.0 ] } },
{ "type": "Feature", "properties": { "value": 0.012 }, "geometry": { "type": "Point", "coordinates": [ 129.299072, 35.497799, 1750.0 ] } },
{ "type": "Feature", "properties": { "value": 0.0167 }, "geometry": { "type": "Point", "coordinates": [ 129.300171, 35.497795, 1750.0 ] } },
{ "type": "Feature", "properties": { "value": 0.0226 }, "geometry": { "type": "Point", "coordinates": [ 129.30127, 35.497791, 1750.0 ] } },
{ "type": "Feature", "properties": { "value": 0.0301 }, "geometry": { "type": "Point", "coordinates": [ 129.302368, 35.497791, 1750.0 ] } },
{ "type": "Feature", "properties": { "value": 0.0391 }, "geometry": { "type": "Point", "coordinates": [ 129.303482, 35.497787, 1750.0 ] } },
{ "type": "Feature", "properties": { "value": 0.0496 }, "geometry": { "type": "Point", "coordinates": [ 129.304581, 35.497784, 1750.0 ] } },
{ "type": "Feature", "properties": { "value": 0.0616 }, "geometry": { "type": "Point", "coordinates": [ 129.305679, 35.49778, 1750.0 ] } },
{ "type": "Feature", "properties": { "value": 0.0748 }, "geometry": { "type": "Point", "coordinates": [ 129.306778, 35.49778, 1750.0 ] } },
{ "type": "Feature", "properties": { "value": 0.0888 }, "geometry": { "type": "Point", "coordinates": [ 129.307877, 35.497776, 1750.0 ] } },
{ "type": "Feature", "properties": { "value": 0.1032 }, "geometry": { "type": "Point", "coordinates": [ 129.30899, 35.497772, 1750.0 ] } },
{ "type": "Feature", "properties": { "value": 0.1172 }, "geometry": { "type": "Point", "coordinates": [ 129.310089, 35.497772, 1750.0 ] } },
{ "type": "Feature", "properties": { "value": 0.1303 }, "geometry": { "type": "Point", "coordinates": [ 129.311188, 35.497768, 1750.0 ] } },
{ "type": "Feature", "properties": { "value": 0.1418 }, "geometry": { "type": "Point", "coordinates": [ 129.312286, 35.497765, 1750.0 ] } },
{ "type": "Feature", "properties": { "value": 0.1509 }, "geometry": { "type": "Point", "coordinates": [ 129.3134, 35.497761, 1750.0 ] } },
{ "type": "Feature", "properties": { "value": 0.1567 }, "geometry": { "type": "Point", "coordinates": [ 129.314499, 35.497761, 1750.0 ] } },
{ "type": "Feature", "properties": { "value": 0.1592 }, "geometry": { "type": "Point", "coordinates": [ 129.315598, 35.497757, 1750.0 ] } },
{ "type": "Feature", "properties": { "value": 0.158 }, "geometry": { "type": "Point", "coordinates": [ 129.316696, 35.497753, 1750.0 ] } },
{ "type": "Feature", "properties": { "value": 0.1534 }, "geometry": { "type": "Point", "coordinates": [ 129.317795, 35.497749, 1750.0 ] } },
{ "type": "Feature", "properties": { "value": 0.1456 }, "geometry": { "type": "Point", "coordinates": [ 129.318909, 35.497749, 1750.0 ] } },
{ "type": "Feature", "properties": { "value": 0.1351 }, "geometry": { "type": "Point", "coordinates": [ 129.320007, 35.497746, 1750.0 ] } },
{ "type": "Feature", "properties": { "value": 0.1226 }, "geometry": { "type": "Point", "coordinates": [ 129.321106, 35.497742, 1750.0 ] } },
{ "type": "Feature", "properties": { "value": 0.1087 }, "geometry": { "type": "Point", "coordinates": [ 129.322205, 35.497738, 1750.0 ] } },
{ "type": "Feature", "properties": { "value": 0.0942 }, "geometry": { "type": "Point", "coordinates": [ 129.323318, 35.497734, 1750.0 ] } },
{ "type": "Feature", "properties": { "value": 0.0799 }, "geometry": { "type": "Point", "coordinates": [ 129.324417, 35.497734, 1750.0 ] } },
{ "type": "Feature", "properties": { "value": 0.0662 }, "geometry": { "type": "Point", "coordinates": [ 129.325516, 35.49773, 1750.0 ] } },
{ "type": "Feature", "properties": { "value": 0.0536 }, "geometry": { "type": "Point", "coordinates": [ 129.326614, 35.497726, 1750.0 ] } },
{ "type": "Feature", "properties": { "value": 0.0425 }, "geometry": { "type": "Point", "coordinates": [ 129.327728, 35.497723, 1750.0 ] } },
{ "type": "Feature", "properties": { "value": 0.0329 }, "geometry": { "type": "Point", "coordinates": [ 129.328827, 35.497723, 1750.0 ] } },
{ "type": "Feature", "properties": { "value": 0.0249 }, "geometry": { "type": "Point", "coordinates": [ 129.329926, 35.497719, 1750.0 ] } },
{ "type": "Feature", "properties": { "value": 0.0184 }, "geometry": { "type": "Point", "coordinates": [ 129.331024, 35.497715, 1750.0 ] } },
{ "type": "Feature", "properties": { "value": 0.0133 }, "geometry": { "type": "Point", "coordinates": [ 129.332123, 35.497711, 1750.0 ] } },
{ "type": "Feature", "properties": { "value": 0.0094 }, "geometry": { "type": "Point", "coordinates": [ 129.333237, 35.497707, 1750.0 ] } },
{ "type": "Feature", "properties": { "value": 0.0065 }, "geometry": { "type": "Point", "coordinates": [ 129.334335, 35.497707, 1750.0 ] } },
{ "type": "Feature", "properties": { "value": 0.0044 }, "geometry": { "type": "Point", "coordinates": [ 129.335434, 35.497704, 1750.0 ] } },
{ "type": "Feature", "properties": { "value": 0.0029 }, "geometry": { "type": "Point", "coordinates": [ 129.336533, 35.4977, 1750.0 ] } },
{ "type": "Feature", "properties": { "value": 0.0009 }, "geometry": { "type": "Point", "coordinates": [ 129.337646, 35.497696, 1750.0 ] } },
{ "type": "Feature", "properties": { "value": 0.0009 }, "geometry": { "type": "Point", "coordinates": [ 129.293564, 35.498714, 1750.0 ] } },
{ "type": "Feature", "properties": { "value": 0.0028 }, "geometry": { "type": "Point", "coordinates": [ 129.294662, 35.498711, 1750.0 ] } },
{ "type": "Feature", "properties": { "value": 0.0042 }, "geometry": { "type": "Point", "coordinates": [ 129.295761, 35.498707, 1750.0 ] } },
{ "type": "Feature", "properties": { "value": 0.0063 }, "geometry": { "type": "Point", "coordinates": [ 129.29686, 35.498707, 1750.0 ] } },
{ "type": "Feature", "properties": { "value": 0.0091 }, "geometry": { "type": "Point", "coordinates": [ 129.297974, 35.498703, 1750.0 ] } },
{ "type": "Feature", "properties": { "value": 0.013 }, "geometry": { "type": "Point", "coordinates": [ 129.299072, 35.498699, 1750.0 ] } },
{ "type": "Feature", "properties": { "value": 0.018 }, "geometry": { "type": "Point", "coordinates": [ 129.300171, 35.498695, 1750.0 ] } },
{ "type": "Feature", "properties": { "value": 0.0244 }, "geometry": { "type": "Point", "coordinates": [ 129.30127, 35.498695, 1750.0 ] } },
{ "type": "Feature", "properties": { "value": 0.0324 }, "geometry": { "type": "Point", "coordinates": [ 129.302368, 35.498692, 1750.0 ] } },
{ "type": "Feature", "properties": { "value": 0.0421 }, "geometry": { "type": "Point", "coordinates": [ 129.303482, 35.498688, 1750.0 ] } },
{ "type": "Feature", "properties": { "value": 0.0535 }, "geometry": { "type": "Point", "coordinates": [ 129.304581, 35.498684, 1750.0 ] } },
{ "type": "Feature", "properties": { "value": 0.0664 }, "geometry": { "type": "Point", "coordinates": [ 129.305679, 35.498684, 1750.0 ] } },
{ "type": "Feature", "properties": { "value": 0.0806 }, "geometry": { "type": "Point", "coordinates": [ 129.306778, 35.49868, 1750.0 ] } },
{ "type": "Feature", "properties": { "value": 0.0958 }, "geometry": { "type": "Point", "coordinates": [ 129.307892, 35.498676, 1750.0 ] } },
{ "type": "Feature", "properties": { "value": 0.1112 }, "geometry": { "type": "Point", "coordinates": [ 129.30899, 35.498676, 1750.0 ] } },
{ "type": "Feature", "properties": { "value": 0.1263 }, "geometry": { "type": "Point", "coordinates": [ 129.310089, 35.498672, 1750.0 ] } },
{ "type": "Feature", "properties": { "value": 0.1403 }, "geometry": { "type": "Point", "coordinates": [ 129.311188, 35.498669, 1750.0 ] } },
{ "type": "Feature", "properties": { "value": 0.1525 }, "geometry": { "type": "Point", "coordinates": [ 129.312302, 35.498665, 1750.0 ] } },
{ "type": "Feature", "properties": { "value": 0.1624 }, "geometry": { "type": "Point", "coordinates": [ 129.3134, 35.498665, 1750.0 ] } },
{ "type": "Feature", "properties": { "value": 0.169 }, "geometry": { "type": "Point", "coordinates": [ 129.314499, 35.498661, 1750.0 ] } },
{ "type": "Feature", "properties": { "value": 0.1716 }, "geometry": { "type": "Point", "coordinates": [ 129.315598, 35.498657, 1750.0 ] } },
{ "type": "Feature", "properties": { "value": 0.1704 }, "geometry": { "type": "Point", "coordinates": [ 129.316696, 35.498653, 1750.0 ] } },
{ "type": "Feature", "properties": { "value": 0.1654 }, "geometry": { "type": "Point", "coordinates": [ 129.31781, 35.498653, 1750.0 ] } },
{ "type": "Feature", "properties": { "value": 0.1569 }, "geometry": { "type": "Point", "coordinates": [ 129.318909, 35.49865, 1750.0 ] } },
{ "type": "Feature", "properties": { "value": 0.1456 }, "geometry": { "type": "Point", "coordinates": [ 129.320007, 35.498646, 1750.0 ] } },
{ "type": "Feature", "properties": { "value": 0.1321 }, "geometry": { "type": "Point", "coordinates": [ 129.321106, 35.498642, 1750.0 ] } },
{ "type": "Feature", "properties": { "value": 0.1171 }, "geometry": { "type": "Point", "coordinates": [ 129.32222, 35.498638, 1750.0 ] } },
{ "type": "Feature", "properties": { "value": 0.1015 }, "geometry": { "type": "Point", "coordinates": [ 129.323318, 35.498638, 1750.0 ] } },
{ "type": "Feature", "properties": { "value": 0.0861 }, "geometry": { "type": "Point", "coordinates": [ 129.324417, 35.498634, 1750.0 ] } },
{ "type": "Feature", "properties": { "value": 0.0713 }, "geometry": { "type": "Point", "coordinates": [ 129.325516, 35.498631, 1750.0 ] } },
{ "type": "Feature", "properties": { "value": 0.0578 }, "geometry": { "type": "Point", "coordinates": [ 129.32663, 35.498627, 1750.0 ] } },
{ "type": "Feature", "properties": { "value": 0.0458 }, "geometry": { "type": "Point", "coordinates": [ 129.327728, 35.498627, 1750.0 ] } },
{ "type": "Feature", "properties": { "value": 0.0354 }, "geometry": { "type": "Point", "coordinates": [ 129.328827, 35.498623, 1750.0 ] } },
{ "type": "Feature", "properties": { "value": 0.0268 }, "geometry": { "type": "Point", "coordinates": [ 129.329926, 35.498619, 1750.0 ] } },
{ "type": "Feature", "properties": { "value": 0.0198 }, "geometry": { "type": "Point", "coordinates": [ 129.331024, 35.498615, 1750.0 ] } },
{ "type": "Feature", "properties": { "value": 0.0144 }, "geometry": { "type": "Point", "coordinates": [ 129.332138, 35.498611, 1750.0 ] } },
{ "type": "Feature", "properties": { "value": 0.0102 }, "geometry": { "type": "Point", "coordinates": [ 129.333237, 35.498611, 1750.0 ] } },
{ "type": "Feature", "properties": { "value": 0.007 }, "geometry": { "type": "Point", "coordinates": [ 129.334335, 35.498608, 1750.0 ] } },
{ "type": "Feature", "properties": { "value": 0.0047 }, "geometry": { "type": "Point", "coordinates": [ 129.335434, 35.498604, 1750.0 ] } },
{ "type": "Feature", "properties": { "value": 0.0031 }, "geometry": { "type": "Point", "coordinates": [ 129.336548, 35.4986, 1750.0 ] } },
{ "type": "Feature", "properties": { "value": 0.0013 }, "geometry": { "type": "Point", "coordinates": [ 129.337646, 35.498596, 1750.0 ] } },
{ "type": "Feature", "properties": { "value": 0.0009 }, "geometry": { "type": "Point", "coordinates": [ 129.293564, 35.499615, 1750.0 ] } },
{ "type": "Feature", "properties": { "value": 0.0029 }, "geometry": { "type": "Point", "coordinates": [ 129.294662, 35.499611, 1750.0 ] } },
{ "type": "Feature", "properties": { "value": 0.0045 }, "geometry": { "type": "Point", "coordinates": [ 129.295761, 35.499607, 1750.0 ] } },
{ "type": "Feature", "properties": { "value": 0.0066 }, "geometry": { "type": "Point", "coordinates": [ 129.296875, 35.499607, 1750.0 ] } },
{ "type": "Feature", "properties": { "value": 0.0096 }, "geometry": { "type": "Point", "coordinates": [ 129.297974, 35.499603, 1750.0 ] } },
{ "type": "Feature", "properties": { "value": 0.0137 }, "geometry": { "type": "Point", "coordinates": [ 129.299072, 35.499599, 1750.0 ] } },
{ "type": "Feature", "properties": { "value": 0.019 }, "geometry": { "type": "Point", "coordinates": [ 129.300171, 35.499599, 1750.0 ] } },
{ "type": "Feature", "properties": { "value": 0.0258 }, "geometry": { "type": "Point", "coordinates": [ 129.30127, 35.499596, 1750.0 ] } },
{ "type": "Feature", "properties": { "value": 0.0342 }, "geometry": { "type": "Point", "coordinates": [ 129.302383, 35.499592, 1750.0 ] } },
{ "type": "Feature", "properties": { "value": 0.0444 }, "geometry": { "type": "Point", "coordinates": [ 129.303482, 35.499588, 1750.0 ] } },
{ "type": "Feature", "properties": { "value": 0.0564 }, "geometry": { "type": "Point", "coordinates": [ 129.304581, 35.499588, 1750.0 ] } },
{ "type": "Feature", "properties": { "value": 0.07 }, "geometry": { "type": "Point", "coordinates": [ 129.305679, 35.499584, 1750.0 ] } },
{ "type": "Feature", "properties": { "value": 0.085 }, "geometry": { "type": "Point", "coordinates": [ 129.306793, 35.49958, 1750.0 ] } },
{ "type": "Feature", "properties": { "value": 0.101 }, "geometry": { "type": "Point", "coordinates": [ 129.307892, 35.49958, 1750.0 ] } },
{ "type": "Feature", "properties": { "value": 0.1172 }, "geometry": { "type": "Point", "coordinates": [ 129.30899, 35.499577, 1750.0 ] } },
{ "type": "Feature", "properties": { "value": 0.1331 }, "geometry": { "type": "Point", "coordinates": [ 129.310089, 35.499573, 1750.0 ] } },
{ "type": "Feature", "properties": { "value": 0.1478 }, "geometry": { "type": "Point", "coordinates": [ 129.311203, 35.499569, 1750.0 ] } },
{ "type": "Feature", "properties": { "value": 0.1605 }, "geometry": { "type": "Point", "coordinates": [ 129.312302, 35.499569, 1750.0 ] } },
{ "type": "Feature", "properties": { "value": 0.1707 }, "geometry": { "type": "Point", "coordinates": [ 129.3134, 35.499565, 1750.0 ] } },
{ "type": "Feature", "properties": { "value": 0.1776 }, "geometry": { "type": "Point", "coordinates": [ 129.314499, 35.499561, 1750.0 ] } },
{ "type": "Feature", "properties": { "value": 0.1809 }, "geometry": { "type": "Point", "coordinates": [ 129.315598, 35.499557, 1750.0 ] } },
{ "type": "Feature", "properties": { "value": 0.1796 }, "geometry": { "type": "Point", "coordinates": [ 129.316711, 35.499557, 1750.0 ] } },
{ "type": "Feature", "properties": { "value": 0.1743 }, "geometry": { "type": "Point", "coordinates": [ 129.31781, 35.499554, 1750.0 ] } },
{ "type": "Feature", "properties": { "value": 0.1654 }, "geometry": { "type": "Point", "coordinates": [ 129.318909, 35.49955, 1750.0 ] } },
{ "type": "Feature", "properties": { "value": 0.1534 }, "geometry": { "type": "Point", "coordinates": [ 129.320007, 35.499546, 1750.0 ] } },
{ "type": "Feature", "properties": { "value": 0.1391 }, "geometry": { "type": "Point", "coordinates": [ 129.321121, 35.499546, 1750.0 ] } },
{ "type": "Feature", "properties": { "value": 0.1234 }, "geometry": { "type": "Point", "coordinates": [ 129.32222, 35.499542, 1750.0 ] } },
{ "type": "Feature", "properties": { "value": 0.107 }, "geometry": { "type": "Point", "coordinates": [ 129.323318, 35.499538, 1750.0 ] } },
{ "type": "Feature", "properties": { "value": 0.0906 }, "geometry": { "type": "Point", "coordinates": [ 129.324417, 35.499535, 1750.0 ] } },
{ "type": "Feature", "properties": { "value": 0.0751 }, "geometry": { "type": "Point", "coordinates": [ 129.325531, 35.499531, 1750.0 ] } },
{ "type": "Feature", "properties": { "value": 0.0608 }, "geometry": { "type": "Point", "coordinates": [ 129.32663, 35.499531, 1750.0 ] } },
{ "type": "Feature", "properties": { "value": 0.0482 }, "geometry": { "type": "Point", "coordinates": [ 129.327728, 35.499527, 1750.0 ] } },
{ "type": "Feature", "properties": { "value": 0.0373 }, "geometry": { "type": "Point", "coordinates": [ 129.328827, 35.499523, 1750.0 ] } },
{ "type": "Feature", "properties": { "value": 0.0282 }, "geometry": { "type": "Point", "coordinates": [ 129.329926, 35.499519, 1750.0 ] } },
{ "type": "Feature", "properties": { "value": 0.0209 }, "geometry": { "type": "Point", "coordinates": [ 129.331039, 35.499516, 1750.0 ] } },
{ "type": "Feature", "properties": { "value": 0.0151 }, "geometry": { "type": "Point", "coordinates": [ 129.332138, 35.499516, 1750.0 ] } },
{ "type": "Feature", "properties": { "value": 0.0107 }, "geometry": { "type": "Point", "coordinates": [ 129.333237, 35.499512, 1750.0 ] } },
{ "type": "Feature", "properties": { "value": 0.0074 }, "geometry": { "type": "Point", "coordinates": [ 129.334335, 35.499508, 1750.0 ] } },
{ "type": "Feature", "properties": { "value": 0.005 }, "geometry": { "type": "Point", "coordinates": [ 129.335449, 35.499504, 1750.0 ] } },
{ "type": "Feature", "properties": { "value": 0.0033 }, "geometry": { "type": "Point", "coordinates": [ 129.336548, 35.4995, 1750.0 ] } },
{ "type": "Feature", "properties": { "value": 0.0014 }, "geometry": { "type": "Point", "coordinates": [ 129.337646, 35.4995, 1750.0 ] } },
{ "type": "Feature", "properties": { "value": 0.0009 }, "geometry": { "type": "Point", "coordinates": [ 129.293564, 35.500515, 1750.0 ] } },
{ "type": "Feature", "properties": { "value": 0.003 }, "geometry": { "type": "Point", "coordinates": [ 129.294662, 35.500511, 1750.0 ] } },
{ "type": "Feature", "properties": { "value": 0.0046 }, "geometry": { "type": "Point", "coordinates": [ 129.295776, 35.500511, 1750.0 ] } },
{ "type": "Feature", "properties": { "value": 0.0068 }, "geometry": { "type": "Point", "coordinates": [ 129.296875, 35.500507, 1750.0 ] } },
{ "type": "Feature", "properties": { "value": 0.0099 }, "geometry": { "type": "Point", "coordinates": [ 129.297974, 35.500504, 1750.0 ] } },
{ "type": "Feature", "properties": { "value": 0.0141 }, "geometry": { "type": "Point", "coordinates": [ 129.299072, 35.500504, 1750.0 ] } },
{ "type": "Feature", "properties": { "value": 0.0196 }, "geometry": { "type": "Point", "coordinates": [ 129.300171, 35.5005, 1750.0 ] } },
{ "type": "Feature", "properties": { "value": 0.0266 }, "geometry": { "type": "Point", "coordinates": [ 129.301285, 35.500496, 1750.0 ] } },
{ "type": "Feature", "properties": { "value": 0.0353 }, "geometry": { "type": "Point", "coordinates": [ 129.302383, 35.500492, 1750.0 ] } },
{ "type": "Feature", "properties": { "value": 0.0458 }, "geometry": { "type": "Point", "coordinates": [ 129.303482, 35.500492, 1750.0 ] } },
{ "type": "Feature", "properties": { "value": 0.0582 }, "geometry": { "type": "Point", "coordinates": [ 129.304581, 35.500488, 1750.0 ] } },
{ "type": "Feature", "properties": { "value": 0.0722 }, "geometry": { "type": "Point", "coordinates": [ 129.305695, 35.500484, 1750.0 ] } },
{ "type": "Feature", "properties": { "value": 0.0877 }, "geometry": { "type": "Point", "coordinates": [ 129.306793, 35.500484, 1750.0 ] } },
{ "type": "Feature", "properties": { "value": 0.1041 }, "geometry": { "type": "Point", "coordinates": [ 129.307892, 35.500481, 1750.0 ] } },
{ "type": "Feature", "properties": { "value": 0.1208 }, "geometry": { "type": "Point", "coordinates": [ 129.30899, 35.500477, 1750.0 ] } },
{ "type": "Feature", "properties": { "value": 0.1372 }, "geometry": { "type": "Point", "coordinates": [ 129.310104, 35.500473, 1750.0 ] } },
{ "type": "Feature", "properties": { "value": 0.1523 }, "geometry": { "type": "Point", "coordinates": [ 129.311203, 35.500473, 1750.0 ] } },
{ "type": "Feature", "properties": { "value": 0.1654 }, "geometry": { "type": "Point", "coordinates": [ 129.312302, 35.500469, 1750.0 ] } },
{ "type": "Feature", "properties": { "value": 0.1756 }, "geometry": { "type": "Point", "coordinates": [ 129.3134, 35.500465, 1750.0 ] } },
{ "type": "Feature", "properties": { "value": 0.1826 }, "geometry": { "type": "Point", "coordinates": [ 129.314499, 35.500462, 1750.0 ] } },
{ "type": "Feature", "properties": { "value": 0.1858 }, "geometry": { "type": "Point", "coordinates": [ 129.315613, 35.500462, 1750.0 ] } },
{ "type": "Feature", "properties": { "value": 0.185 }, "geometry": { "type": "Point", "coordinates": [ 129.316711, 35.500458, 1750.0 ] } },
{ "type": "Feature", "properties": { "value": 0.1795 }, "geometry": { "type": "Point", "coordinates": [ 129.31781, 35.500454, 1750.0 ] } },
{ "type": "Feature", "properties": { "value": 0.1704 }, "geometry": { "type": "Point", "coordinates": [ 129.318909, 35.50045, 1750.0 ] } },
{ "type": "Feature", "properties": { "value": 0.158 }, "geometry": { "type": "Point", "coordinates": [ 129.320023, 35.50045, 1750.0 ] } },
{ "type": "Feature", "properties": { "value": 0.1433 }, "geometry": { "type": "Point", "coordinates": [ 129.321121, 35.500446, 1750.0 ] } },
{ "type": "Feature", "properties": { "value": 0.1271 }, "geometry": { "type": "Point", "coordinates": [ 129.32222, 35.500443, 1750.0 ] } },
{ "type": "Feature", "properties": { "value": 0.1102 }, "geometry": { "type": "Point", "coordinates": [ 129.323318, 35.500439, 1750.0 ] } },
{ "type": "Feature", "properties": { "value": 0.0934 }, "geometry": { "type": "Point", "coordinates": [ 129.324432, 35.500435, 1750.0 ] } },
{ "type": "Feature", "properties": { "value": 0.0773 }, "geometry": { "type": "Point", "coordinates": [ 129.325531, 35.500435, 1750.0 ] } },
{ "type": "Feature", "properties": { "value": 0.0627 }, "geometry": { "type": "Point", "coordinates": [ 129.32663, 35.500431, 1750.0 ] } },
{ "type": "Feature", "properties": { "value": 0.0496 }, "geometry": { "type": "Point", "coordinates": [ 129.327728, 35.500427, 1750.0 ] } },
{ "type": "Feature", "properties": { "value": 0.0384 }, "geometry": { "type": "Point", "coordinates": [ 129.328827, 35.500423, 1750.0 ] } },
{ "type": "Feature", "properties": { "value": 0.0291 }, "geometry": { "type": "Point", "coordinates": [ 129.329941, 35.500423, 1750.0 ] } },
{ "type": "Feature", "properties": { "value": 0.0215 }, "geometry": { "type": "Point", "coordinates": [ 129.331039, 35.50042, 1750.0 ] } },
{ "type": "Feature", "properties": { "value": 0.0156 }, "geometry": { "type": "Point", "coordinates": [ 129.332138, 35.500416, 1750.0 ] } },
{ "type": "Feature", "properties": { "value": 0.011 }, "geometry": { "type": "Point", "coordinates": [ 129.333237, 35.500412, 1750.0 ] } },
{ "type": "Feature", "properties": { "value": 0.0076 }, "geometry": { "type": "Point", "coordinates": [ 129.334351, 35.500408, 1750.0 ] } },
{ "type": "Feature", "properties": { "value": 0.0051 }, "geometry": { "type": "Point", "coordinates": [ 129.335449, 35.500408, 1750.0 ] } },
{ "type": "Feature", "properties": { "value": 0.0034 }, "geometry": { "type": "Point", "coordinates": [ 129.336548, 35.500404, 1750.0 ] } },
{ "type": "Feature", "properties": { "value": 0.0018 }, "geometry": { "type": "Point", "coordinates": [ 129.337646, 35.500401, 1750.0 ] } },
{ "type": "Feature", "properties": { "value": 0.001 }, "geometry": { "type": "Point", "coordinates": [ 129.293564, 35.501415, 1750.0 ] } },
{ "type": "Feature", "properties": { "value": 0.0031 }, "geometry": { "type": "Point", "coordinates": [ 129.294678, 35.501415, 1750.0 ] } },
{ "type": "Feature", "properties": { "value": 0.0047 }, "geometry": { "type": "Point", "coordinates": [ 129.295776, 35.501411, 1750.0 ] } },
{ "type": "Feature", "properties": { "value": 0.0069 }, "geometry": { "type": "Point", "coordinates": [ 129.296875, 35.501408, 1750.0 ] } },
{ "type": "Feature", "properties": { "value": 0.01 }, "geometry": { "type": "Point", "coordinates": [ 129.297974, 35.501408, 1750.0 ] } },
{ "type": "Feature", "properties": { "value": 0.0142 }, "geometry": { "type": "Point", "coordinates": [ 129.299072, 35.501404, 1750.0 ] } },
{ "type": "Feature", "properties": { "value": 0.0198 }, "geometry": { "type": "Point", "coordinates": [ 129.300186, 35.5014, 1750.0 ] } },
{ "type": "Feature", "properties": { "value": 0.0268 }, "geometry": { "type": "Point", "coordinates": [ 129.301285, 35.501396, 1750.0 ] } },
{ "type": "Feature", "properties": { "value": 0.0356 }, "geometry": { "type": "Point", "coordinates": [ 129.302383, 35.501396, 1750.0 ] } },
{ "type": "Feature", "properties": { "value": 0.0462 }, "geometry": { "type": "Point", "coordinates": [ 129.303482, 35.501392, 1750.0 ] } },
{ "type": "Feature", "properties": { "value": 0.0587 }, "geometry": { "type": "Point", "coordinates": [ 129.304596, 35.501389, 1750.0 ] } },
{ "type": "Feature", "properties": { "value": 0.0728 }, "geometry": { "type": "Point", "coordinates": [ 129.305695, 35.501389, 1750.0 ] } },
{ "type": "Feature", "properties": { "value": 0.0884 }, "geometry": { "type": "Point", "coordinates": [ 129.306793, 35.501385, 1750.0 ] } },
{ "type": "Feature", "properties": { "value": 0.1049 }, "geometry": { "type": "Point", "coordinates": [ 129.307892, 35.501381, 1750.0 ] } },
{ "type": "Feature", "properties": { "value": 0.1218 }, "geometry": { "type": "Point", "coordinates": [ 129.309006, 35.501377, 1750.0 ] } },
{ "type": "Feature", "properties": { "value": 0.1383 }, "geometry": { "type": "Point", "coordinates": [ 129.310104, 35.501377, 1750.0 ] } },
{ "type": "Feature", "properties": { "value": 0.1535 }, "geometry": { "type": "Point", "coordinates": [ 129.311203, 35.501373, 1750.0 ] } },
{ "type": "Feature", "properties": { "value": 0.1666 }, "geometry": { "type": "Point", "coordinates": [ 129.312302, 35.501369, 1750.0 ] } },
{ "type": "Feature", "properties": { "value": 0.1769 }, "geometry": { "type": "Point", "coordinates": [ 129.3134, 35.501366, 1750.0 ] } },
{ "type": "Feature", "properties": { "value": 0.1837 }, "geometry": { "type": "Point", "coordinates": [ 129.314514, 35.501366, 1750.0 ] } },
{ "type": "Feature", "properties": { "value": 0.1868 }, "geometry": { "type": "Point", "coordinates": [ 129.315613, 35.501362, 1750.0 ] } },
{ "type": "Feature", "properties": { "value": 0.1857 }, "geometry": { "type": "Point", "coordinates": [ 129.316711, 35.501358, 1750.0 ] } },
{ "type": "Feature", "properties": { "value": 0.1809 }, "geometry": { "type": "Point", "coordinates": [ 129.31781, 35.501354, 1750.0 ] } },
{ "type": "Feature", "properties": { "value": 0.1716 }, "geometry": { "type": "Point", "coordinates": [ 129.318924, 35.501354, 1750.0 ] } },
{ "type": "Feature", "properties": { "value": 0.1592 }, "geometry": { "type": "Point", "coordinates": [ 129.320023, 35.50135, 1750.0 ] } },
{ "type": "Feature", "properties": { "value": 0.1443 }, "geometry": { "type": "Point", "coordinates": [ 129.321121, 35.501347, 1750.0 ] } },
{ "type": "Feature", "properties": { "value": 0.128 }, "geometry": { "type": "Point", "coordinates": [ 129.32222, 35.501343, 1750.0 ] } },
{ "type": "Feature", "properties": { "value": 0.1109 }, "geometry": { "type": "Point", "coordinates": [ 129.323334, 35.501339, 1750.0 ] } },
{ "type": "Feature", "properties": { "value": 0.094 }, "geometry": { "type": "Point", "coordinates": [ 129.324432, 35.501339, 1750.0 ] } },
{ "type": "Feature", "properties": { "value": 0.0779 }, "geometry": { "type": "Point", "coordinates": [ 129.325531, 35.501335, 1750.0 ] } },
{ "type": "Feature", "properties": { "value": 0.0631 }, "geometry": { "type": "Point", "coordinates": [ 129.32663, 35.501331, 1750.0 ] } },
{ "type": "Feature", "properties": { "value": 0.0499 }, "geometry": { "type": "Point", "coordinates": [ 129.327728, 35.501328, 1750.0 ] } },
{ "type": "Feature", "properties": { "value": 0.0387 }, "geometry": { "type": "Point", "coordinates": [ 129.328842, 35.501328, 1750.0 ] } },
{ "type": "Feature", "properties": { "value": 0.0293 }, "geometry": { "type": "Point", "coordinates": [ 129.329941, 35.501324, 1750.0 ] } },
{ "type": "Feature", "properties": { "value": 0.0216 }, "geometry": { "type": "Point", "coordinates": [ 129.331039, 35.50132, 1750.0 ] } },
{ "type": "Feature", "properties": { "value": 0.0157 }, "geometry": { "type": "Point", "coordinates": [ 129.332138, 35.501316, 1750.0 ] } },
{ "type": "Feature", "properties": { "value": 0.0111 }, "geometry": { "type": "Point", "coordinates": [ 129.333252, 35.501312, 1750.0 ] } },
{ "type": "Feature", "properties": { "value": 0.0077 }, "geometry": { "type": "Point", "coordinates": [ 129.334351, 35.501312, 1750.0 ] } },
{ "type": "Feature", "properties": { "value": 0.0052 }, "geometry": { "type": "Point", "coordinates": [ 129.335449, 35.501308, 1750.0 ] } },
{ "type": "Feature", "properties": { "value": 0.0034 }, "geometry": { "type": "Point", "coordinates": [ 129.336548, 35.501305, 1750.0 ] } },
{ "type": "Feature", "properties": { "value": 0.0018 }, "geometry": { "type": "Point", "coordinates": [ 129.337662, 35.501301, 1750.0 ] } }
]
}
