{
"type": "FeatureCollection",
"features": [
{ "type": "Feature", "properties": { "value": 0.0 }, "geometry": { "type": "Point", "coordinates": [ 129.293335, 35.439228, 450.0 ] } },
{ "type": "Feature", "properties": { "value": 0.0 }, "geometry": { "type": "Point", "coordinates": [ 129.294449, 35.439224, 450.0 ] } },
{ "type": "Feature", "properties": { "value": 0.0 }, "geometry": { "type": "Point", "coordinates": [ 129.295547, 35.439224, 450.0 ] } },
{ "type": "Feature", "properties": { "value": 0.0 }, "geometry": { "type": "Point", "coordinates": [ 129.291138, 35.440136, 450.0 ] } },
{ "type": "Feature", "properties": { "value": 0.0004 }, "geometry": { "type": "Point", "coordinates": [ 129.292252, 35.440132, 450.0 ] } },
{ "type": "Feature", "properties": { "value": 0.0005 }, "geometry": { "type": "Point", "coordinates": [ 129.29335, 35.440128, 450.0 ] } },
{ "type": "Feature", "properties": { "value": 0.0005 }, "geometry": { "type": "Point", "coordinates": [ 129.294449, 35.440128, 450.0 ] } },
{ "type": "Feature", "properties": { "value": 0.0002 }, "geometry": { "type": "Point", "coordinates": [ 129.295547, 35.440125, 450.0 ] } },
{ "type": "Feature", "properties": { "value": 0.0 }, "geometry": { "type": "Point", "coordinates": [ 129.296646, 35.440121, 450.0 ] } },
{ "type": "Feature", "properties": { "value": 0.0003 }, "geometry": { "type": "Point", "coordinates": [ 129.290039, 35.44104, 450.0 ] } },
{ "type": "Feature", "properties": { "value": 0.0016 }, "geometry": { "type": "Point", "coordinates": [ 129.291153, 35.441036, 450.0 ] } },
{ "type": "Feature", "properties": { "value": 0.0029 }, "geometry": { "type": "Point", "coordinates": [ 129.292252, 35.441032, 450.0 ] } },
{ "type": "Feature", "properties": { "value": 0.0038 }, "geometry": { "type": "Point", "coordinates": [ 129.29335, 35.441029, 450.0 ] } },
{ "type": "Feature", "properties": { "value": 0.0034 }, "geometry": { "type": "Point", "coordinates": [ 129.294449, 35.441029, 450.0 ] } },
{ "type": "Feature", "properties": { "value": 0.0021 }, "geometry": { "type": "Point", "coordinates": [ 129.295547, 35.441025, 450.0 ] } },
{ "type": "Feature", "properties": { "value": 0.0006 }, "geometry": { "type": "Point", "coordinates": [ 129.296646, 35.441021, 450.0 ] } },
{ "type": "Feature", "properties": { "value": 0.0 }, "geometry": { "type": "Point", "coordinates": [ 129.29776, 35.441021, 450.0 ] } },
{ "type": "Feature", "properties": { "value": 0.0007 }, "geometry": { "type": "Point", "coordinates": [ 129.28894, 35.441944, 450.0 ] } },
{ "type": "Feature", "properties": { "value": 0.0025 }, "geometry": { "type": "Point", "coordinates": [ 129.290054, 35.44194, 450.0 ] } },
{ "type": "Feature", "properties": { "value": 0.0069 }, "geometry": { "type": "Point", "coordinates": [ 129.291153, 35.441936, 450.0 ] } },
{ "type": "Feature", "properties": { "value": 0.0117 }, "geometry": { "type": "Point", "coordinates": [ 129.292252, 35.441933, 450.0 ] } },
{ "type": "Feature", "properties": { "value": 0.0144 }, "geometry": { "type": "Point", "coordinates": [ 129.29335, 35.441933, 450.0 ] } },
{ "type": "Feature", "properties": { "value": 0.0122 }, "geometry": { "type": "Point", "coordinates": [ 129.294449, 35.441929, 450.0 ] } },
{ "type": "Feature", "properties": { "value": 0.0072 }, "geometry": { "type": "Point", "coordinates": [ 129.295547, 35.441925, 450.0 ] } },
{ "type": "Feature", "properties": { "value": 0.003 }, "geometry": { "type": "Point", "coordinates": [ 129.296661, 35.441925, 450.0 ] } },
{ "type": "Feature", "properties": { "value": 0.0007 }, "geometry": { "type": "Point", "coordinates": [ 129.29776, 35.441921, 450.0 ] } },
{ "type": "Feature", "properties": { "value": 0.0038 }, "geometry": { "type": "Point", "coordinates": [ 129.288956, 35.442844, 450.0 ] } },
{ "type": "Feature", "properties": { "value": 0.0114 }, "geometry": { "type": "Point", "coordinates": [ 129.290054, 35.442841, 450.0 ] } },
{ "type": "Feature", "properties": { "value": 0.0233 }, "geometry": { "type": "Point", "coordinates": [ 129.291153, 35.442837, 450.0 ] } },
{ "type": "Feature", "properties": { "value": 0.0361 }, "geometry": { "type": "Point", "coordinates": [ 129.292252, 35.442837, 450.0 ] } },
{ "type": "Feature", "properties": { "value": 0.0419 }, "geometry": { "type": "Point", "coordinates": [ 129.29335, 35.442833, 450.0 ] } },
{ "type": "Feature", "properties": { "value": 0.0346 }, "geometry": { "type": "Point", "coordinates": [ 129.294464, 35.442829, 450.0 ] } },
{ "type": "Feature", "properties": { "value": 0.0201 }, "geometry": { "type": "Point", "coordinates": [ 129.295563, 35.442829, 450.0 ] } },
{ "type": "Feature", "properties": { "value": 0.0079 }, "geometry": { "type": "Point", "coordinates": [ 129.296661, 35.442825, 450.0 ] } },
{ "type": "Feature", "properties": { "value": 0.0023 }, "geometry": { "type": "Point", "coordinates": [ 129.29776, 35.442822, 450.0 ] } },
{ "type": "Feature", "properties": { "value": 0.0001 }, "geometry": { "type": "Point", "coordinates": [ 129.298859, 35.442818, 450.0 ] } },
{ "type": "Feature", "properties": { "value": 0.0052 }, "geometry": { "type": "Point", "coordinates": [ 129.287857, 35.443748, 450.0 ] } },
{ "type": "Feature", "properties": { "value": 0.0144 }, "geometry": { "type": "Point", "coordinates": [ 129.288956, 35.443745, 450.0 ] } },
{ "type": "Feature", "properties": { "value": 0.0312 }, "geometry": { "type": "Point", "coordinates": [ 129.290054, 35.443741, 450.0 ] } },
{ "type": "Feature", "properties": { "value": 0.0558 }, "geometry": { "type": "Point", "coordinates": [ 129.291153, 35.443741, 450.0 ] } },
{ "type": "Feature", "properties": { "value": 0.0805 }, "geometry": { "type": "Point", "coordinates": [ 129.292252, 35.443737, 450.0 ] } },
{ "type": "Feature", "properties": { "value": 0.0886 }, "geometry": { "type": "Point", "coordinates": [ 129.293365, 35.443733, 450.0 ] } },
{ "type": "Feature", "properties": { "value": 0.0724 }, "geometry": { "type": "Point", "coordinates": [ 129.294464, 35.443733, 450.0 ] } },
{ "type": "Feature", "properties": { "value": 0.0431 }, "geometry": { "type": "Point", "coordinates": [ 129.295563, 35.443729, 450.0 ] } },
{ "type": "Feature", "properties": { "value": 0.0175 }, "geometry": { "type": "Point", "coordinates": [ 129.296661, 35.443726, 450.0 ] } },
{ "type": "Feature", "properties": { "value": 0.0045 }, "geometry": { "type": "Point", "coordinates": [ 129.29776, 35.443722, 450.0 ] } },
{ "type": "Feature", "properties": { "value": 0.0009 }, "geometry": { "type": "Point", "coordinates": [ 129.298859, 35.443722, 450.0 ] } },
{ "type": "Feature", "properties": { "value": 0.0046 }, "geometry": { "type": "Point", "coordinates": [ 129.286758, 35.444653, 450.0 ] } },
{ "type": "Feature", "properties": { "value": 0.0142 }, "geometry": { "type": "Point", "coordinates": [ 129.287857, 35.444649, 450.0 ] } },
{ "type": "Feature", "properties": { "value": 0.0336 }, "geometry": { "type": "Point", "coordinates": [ 129.288956, 35.444645, 450.0 ] } },
{ "type": "Feature", "properties": { "value": 0.0669 }, "geometry": { "type": "Point", "coordinates": [ 129.290054, 35.444645, 450.0 ] } },
{ "type": "Feature", "properties": { "value": 0.11 }, "geometry": { "type": "Point", "coordinates": [ 129.291153, 35.444641, 450.0 ] } },
{ "type": "Feature", "properties": { "value": 0.1464 }, "geometry": { "type": "Point", "coordinates": [ 129.292267, 35.444637, 450.0 ] } },
{ "type": "Feature", "properties": { "value": 0.1516 }, "geometry": { "type": "Point", "coordinates": [ 129.293365, 35.444637, 450.0 ] } },
{ "type": "Feature", "properties": { "value": 0.1192 }, "geometry": { "type": "Point", "coordinates": [ 129.294464, 35.444633, 450.0 ] } },
{ "type": "Feature", "properties": { "value": 0.0704 }, "geometry": { "type": "Point", "coordinates": [ 129.295563, 35.44463, 450.0 ] } },
{ "type": "Feature", "properties": { "value": 0.0308 }, "geometry": { "type": "Point", "coordinates": [ 129.296661, 35.444626, 450.0 ] } },
{ "type": "Feature", "properties": { "value": 0.0094 }, "geometry": { "type": "Point", "coordinates": [ 129.297775, 35.444626, 450.0 ] } },
{ "type": "Feature", "properties": { "value": 0.0012 }, "geometry": { "type": "Point", "coordinates": [ 129.298874, 35.444622, 450.0 ] } },
{ "type": "Feature", "properties": { "value": 0.0018 }, "geometry": { "type": "Point", "coordinates": [ 129.28566, 35.445557, 450.0 ] } },
{ "type": "Feature", "properties": { "value": 0.0102 }, "geometry": { "type": "Point", "coordinates": [ 129.286758, 35.445553, 450.0 ] } },
{ "type": "Feature", "properties": { "value": 0.0281 }, "geometry": { "type": "Point", "coordinates": [ 129.287857, 35.445549, 450.0 ] } },
{ "type": "Feature", "properties": { "value": 0.0635 }, "geometry": { "type": "Point", "coordinates": [ 129.288956, 35.445549, 450.0 ] } },
{ "type": "Feature", "properties": { "value": 0.1194 }, "geometry": { "type": "Point", "coordinates": [ 129.290054, 35.445545, 450.0 ] } },
{ "type": "Feature", "properties": { "value": 0.1848 }, "geometry": { "type": "Point", "coordinates": [ 129.291168, 35.445541, 450.0 ] } },
{ "type": "Feature", "properties": { "value": 0.2297 }, "geometry": { "type": "Point", "coordinates": [ 129.292267, 35.445541, 450.0 ] } },
{ "type": "Feature", "properties": { "value": 0.2255 }, "geometry": { "type": "Point", "coordinates": [ 129.293365, 35.445538, 450.0 ] } },
{ "type": "Feature", "properties": { "value": 0.1719 }, "geometry": { "type": "Point", "coordinates": [ 129.294464, 35.445534, 450.0 ] } },
{ "type": "Feature", "properties": { "value": 0.1004 }, "geometry": { "type": "Point", "coordinates": [ 129.295563, 35.44553, 450.0 ] } },
{ "type": "Feature", "properties": { "value": 0.0444 }, "geometry": { "type": "Point", "coordinates": [ 129.296677, 35.44553, 450.0 ] } },
{ "type": "Feature", "properties": { "value": 0.015 }, "geometry": { "type": "Point", "coordinates": [ 129.297775, 35.445526, 450.0 ] } },
{ "type": "Feature", "properties": { "value": 0.0026 }, "geometry": { "type": "Point", "coordinates": [ 129.298874, 35.445522, 450.0 ] } },
{ "type": "Feature", "properties": { "value": 0.0059 }, "geometry": { "type": "Point", "coordinates": [ 129.28566, 35.446457, 450.0 ] } },
{ "type": "Feature", "properties": { "value": 0.0189 }, "geometry": { "type": "Point", "coordinates": [ 129.286758, 35.446453, 450.0 ] } },
{ "type": "Feature", "properties": { "value": 0.0482 }, "geometry": { "type": "Point", "coordinates": [ 129.287857, 35.446453, 450.0 ] } },
{ "type": "Feature", "properties": { "value": 0.1029 }, "geometry": { "type": "Point", "coordinates": [ 129.288956, 35.446449, 450.0 ] } },
{ "type": "Feature", "properties": { "value": 0.1807 }, "geometry": { "type": "Point", "coordinates": [ 129.29007, 35.446445, 450.0 ] } },
{ "type": "Feature", "properties": { "value": 0.2632 }, "geometry": { "type": "Point", "coordinates": [ 129.291168, 35.446442, 450.0 ] } },
{ "type": "Feature", "properties": { "value": 0.3115 }, "geometry": { "type": "Point", "coordinates": [ 129.292267, 35.446442, 450.0 ] } },
{ "type": "Feature", "properties": { "value": 0.295 }, "geometry": { "type": "Point", "coordinates": [ 129.293365, 35.446438, 450.0 ] } },
{ "type": "Feature", "properties": { "value": 0.221 }, "geometry": { "type": "Point", "coordinates": [ 129.294464, 35.446434, 450.0 ] } },
{ "type": "Feature", "properties": { "value": 0.1294 }, "geometry": { "type": "Point", "coordinates": [ 129.295578, 35.446434, 450.0 ] } },
{ "type": "Feature", "properties": { "value": 0.0585 }, "geometry": { "type": "Point", "coordinates": [ 129.296677, 35.44643, 450.0 ] } },
{ "type": "Feature", "properties": { "value": 0.0205 }, "geometry": { "type": "Point", "coordinates": [ 129.297775, 35.446426, 450.0 ] } },
{ "type": "Feature", "properties": { "value": 0.0052 }, "geometry": { "type": "Point", "coordinates": [ 129.298874, 35.446426, 450.0 ] } },
{ "type": "Feature", "properties": { "value": 0.0007 }, "geometry": { "type": "Point", "coordinates": [ 129.284561, 35.447361, 450.0 ] } },
{ "type": "Feature", "properties": { "value": 0.0095 }, "geometry": { "type": "Point", "coordinates": [ 129.28566, 35.447357, 450.0 ] } },
{ "type": "Feature", "properties": { "value": 0.0287 }, "geometry": { "type": "Point", "coordinates": [ 129.286758, 35.447357, 450.0 ] } },
{ "type": "Feature", "properties": { "value": 0.0705 }, "geometry": { "type": "Point", "coordinates": [ 129.287872, 35.447353, 450.0 ] } },
{ "type": "Feature", "properties": { "value": 0.1443 }, "geometry": { "type": "Point", "coordinates": [ 129.288971, 35.44735, 450.0 ] } },
{ "type": "Feature", "properties": { "value": 0.2432 }, "geometry": { "type": "Point", "coordinates": [ 129.29007, 35.447346, 450.0 ] } },
{ "type": "Feature", "properties": { "value": 0.3367 }, "geometry": { "type": "Point", "coordinates": [ 129.291168, 35.447346, 450.0 ] } },
{ "type": "Feature", "properties": { "value": 0.3796 }, "geometry": { "type": "Point", "coordinates": [ 129.292267, 35.447342, 450.0 ] } },
{ "type": "Feature", "properties": { "value": 0.3447 }, "geometry": { "type": "Point", "coordinates": [ 129.293365, 35.447338, 450.0 ] } },
{ "type": "Feature", "properties": { "value": 0.251 }, "geometry": { "type": "Point", "coordinates": [ 129.294479, 35.447338, 450.0 ] } },
{ "type": "Feature", "properties": { "value": 0.1457 }, "geometry": { "type": "Point", "coordinates": [ 129.295578, 35.447334, 450.0 ] } },
{ "type": "Feature", "properties": { "value": 0.0673 }, "geometry": { "type": "Point", "coordinates": [ 129.296677, 35.44733, 450.0 ] } },
{ "type": "Feature", "properties": { "value": 0.0247 }, "geometry": { "type": "Point", "coordinates": [ 129.297775, 35.44733, 450.0 ] } },
{ "type": "Feature", "properties": { "value": 0.0071 }, "geometry": { "type": "Point", "coordinates": [ 129.298874, 35.447327, 450.0 ] } },
{ "type": "Feature", "properties": { "value": 0.003 }, "geometry": { "type": "Point", "coordinates": [ 129.284561, 35.448261, 450.0 ] } },
{ "type": "Feature", "properties": { "value": 0.0129 }, "geometry": { "type": "Point", "coordinates": [ 129.28566, 35.448257, 450.0 ] } },
{ "type": "Feature", "properties": { "value": 0.0367 }, "geometry": { "type": "Point", "coordinates": [ 129.286774, 35.448257, 450.0 ] } },
{ "type": "Feature", "properties": { "value": 0.0862 }, "geometry": { "type": "Point", "coordinates": [ 129.287872, 35.448254, 450.0 ] } },
{ "type": "Feature", "properties": { "value": 0.1702 }, "geometry": { "type": "Point", "coordinates": [ 129.288971, 35.44825, 450.0 ] } },
{ "type": "Feature", "properties": { "value": 0.2775 }, "geometry": { "type": "Point", "coordinates": [ 129.29007, 35.44825, 450.0 ] } },
{ "type": "Feature", "properties": { "value": 0.3727 }, "geometry": { "type": "Point", "coordinates": [ 129.291168, 35.448246, 450.0 ] } },
{ "type": "Feature", "properties": { "value": 0.4094 }, "geometry": { "type": "Point", "coordinates": [ 129.292267, 35.448242, 450.0 ] } },
{ "type": "Feature", "properties": { "value": 0.3658 }, "geometry": { "type": "Point", "coordinates": [ 129.293381, 35.448242, 450.0 ] } },
{ "type": "Feature", "properties": { "value": 0.2629 }, "geometry": { "type": "Point", "coordinates": [ 129.294479, 35.448238, 450.0 ] } },
{ "type": "Feature", "properties": { "value": 0.1508 }, "geometry": { "type": "Point", "coordinates": [ 129.295578, 35.448235, 450.0 ] } },
{ "type": "Feature", "properties": { "value": 0.0694 }, "geometry": { "type": "Point", "coordinates": [ 129.296677, 35.448235, 450.0 ] } },
{ "type": "Feature", "properties": { "value": 0.0256 }, "geometry": { "type": "Point", "coordinates": [ 129.297775, 35.448231, 450.0 ] } },
{ "type": "Feature", "properties": { "value": 0.0073 }, "geometry": { "type": "Point", "coordinates": [ 129.298889, 35.448227, 450.0 ] } },
{ "type": "Feature", "properties": { "value": 0.0034 }, "geometry": { "type": "Point", "coordinates": [ 129.284561, 35.449162, 450.0 ] } },
{ "type": "Feature", "properties": { "value": 0.0137 }, "geometry": { "type": "Point", "coordinates": [ 129.285675, 35.449162, 450.0 ] } },
{ "type": "Feature", "properties": { "value": 0.0384 }, "geometry": { "type": "Point", "coordinates": [ 129.286774, 35.449158, 450.0 ] } },
{ "type": "Feature", "properties": { "value": 0.0882 }, "geometry": { "type": "Point", "coordinates": [ 129.287872, 35.449154, 450.0 ] } },
{ "type": "Feature", "properties": { "value": 0.1698 }, "geometry": { "type": "Point", "coordinates": [ 129.288971, 35.449154, 450.0 ] } },
{ "type": "Feature", "properties": { "value": 0.269 }, "geometry": { "type": "Point", "coordinates": [ 129.29007, 35.44915, 450.0 ] } },
{ "type": "Feature", "properties": { "value": 0.3528 }, "geometry": { "type": "Point", "coordinates": [ 129.291168, 35.449146, 450.0 ] } },
{ "type": "Feature", "properties": { "value": 0.3808 }, "geometry": { "type": "Point", "coordinates": [ 129.292282, 35.449146, 450.0 ] } },
{ "type": "Feature", "properties": { "value": 0.3366 }, "geometry": { "type": "Point", "coordinates": [ 129.293381, 35.449142, 450.0 ] } },
{ "type": "Feature", "properties": { "value": 0.2415 }, "geometry": { "type": "Point", "coordinates": [ 129.294479, 35.449139, 450.0 ] } },
{ "type": "Feature", "properties": { "value": 0.1399 }, "geometry": { "type": "Point", "coordinates": [ 129.295578, 35.449135, 450.0 ] } },
{ "type": "Feature", "properties": { "value": 0.0653 }, "geometry": { "type": "Point", "coordinates": [ 129.296677, 35.449135, 450.0 ] } },
{ "type": "Feature", "properties": { "value": 0.0244 }, "geometry": { "type": "Point", "coordinates": [ 129.297791, 35.449131, 450.0 ] } },
{ "type": "Feature", "properties": { "value": 0.0073 }, "geometry": { "type": "Point", "coordinates": [ 129.298889, 35.449127, 450.0 ] } },
{ "type": "Feature", "properties": { "value": 0.0031 }, "geometry": { "type": "Point", "coordinates": [ 129.284576, 35.450066, 450.0 ] } },
{ "type": "Feature", "properties": { "value": 0.0116 }, "geometry": { "type": "Point", "coordinates": [ 129.285675, 35.450062, 450.0 ] } },
{ "type": "Feature", "properties": { "value": 0.0327 }, "geometry": { "type": "Point", "coordinates": [ 129.286774, 35.450058, 450.0 ] } },
{ "type": "Feature", "properties": { "value": 0.0739 }, "geometry": { "type": "Point", "coordinates": [ 129.287872, 35.450058, 450.0 ] } },
{ "type": "Feature", "properties": { "value": 0.1394 }, "geometry": { "type": "Point", "coordinates": [ 129.288971, 35.450054, 450.0 ] } },
{ "type": "Feature", "properties": { "value": 0.2186 }, "geometry": { "type": "Point", "coordinates": [ 129.290085, 35.45005, 450.0 ] } },
{ "type": "Feature", "properties": { "value": 0.2837 }, "geometry": { "type": "Point", "coordinates": [ 129.291183, 35.45005, 450.0 ] } },
{ "type": "Feature", "properties": { "value": 0.3038 }, "geometry": { "type": "Point", "coordinates": [ 129.292282, 35.450047, 450.0 ] } },
{ "type": "Feature", "properties": { "value": 0.2676 }, "geometry": { "type": "Point", "coordinates": [ 129.293381, 35.450043, 450.0 ] } },
{ "type": "Feature", "properties": { "value": 0.192 }, "geometry": { "type": "Point", "coordinates": [ 129.294479, 35.450039, 450.0 ] } },
{ "type": "Feature", "properties": { "value": 0.1122 }, "geometry": { "type": "Point", "coordinates": [ 129.295578, 35.450039, 450.0 ] } },
{ "type": "Feature", "properties": { "value": 0.0531 }, "geometry": { "type": "Point", "coordinates": [ 129.296692, 35.450035, 450.0 ] } },
{ "type": "Feature", "properties": { "value": 0.0204 }, "geometry": { "type": "Point", "coordinates": [ 129.297791, 35.450031, 450.0 ] } },
{ "type": "Feature", "properties": { "value": 0.0061 }, "geometry": { "type": "Point", "coordinates": [ 129.298889, 35.450031, 450.0 ] } },
{ "type": "Feature", "properties": { "value": 0.002 }, "geometry": { "type": "Point", "coordinates": [ 129.284576, 35.450966, 450.0 ] } },
{ "type": "Feature", "properties": { "value": 0.0083 }, "geometry": { "type": "Point", "coordinates": [ 129.285675, 35.450962, 450.0 ] } },
{ "type": "Feature", "properties": { "value": 0.0235 }, "geometry": { "type": "Point", "coordinates": [ 129.286774, 35.450962, 450.0 ] } },
{ "type": "Feature", "properties": { "value": 0.0527 }, "geometry": { "type": "Point", "coordinates": [ 129.287872, 35.450958, 450.0 ] } },
{ "type": "Feature", "properties": { "value": 0.0978 }, "geometry": { "type": "Point", "coordinates": [ 129.288986, 35.450954, 450.0 ] } },
{ "type": "Feature", "properties": { "value": 0.151 }, "geometry": { "type": "Point", "coordinates": [ 129.290085, 35.450954, 450.0 ] } },
{ "type": "Feature", "properties": { "value": 0.1933 }, "geometry": { "type": "Point", "coordinates": [ 129.291183, 35.450951, 450.0 ] } },
{ "type": "Feature", "properties": { "value": 0.2051 }, "geometry": { "type": "Point", "coordinates": [ 129.292282, 35.450947, 450.0 ] } },
{ "type": "Feature", "properties": { "value": 0.1795 }, "geometry": { "type": "Point", "coordinates": [ 129.293381, 35.450943, 450.0 ] } },
{ "type": "Feature", "properties": { "value": 0.1296 }, "geometry": { "type": "Point", "coordinates": [ 129.294479, 35.450943, 450.0 ] } },
{ "type": "Feature", "properties": { "value": 0.0769 }, "geometry": { "type": "Point", "coordinates": [ 129.295593, 35.450939, 450.0 ] } },
{ "type": "Feature", "properties": { "value": 0.0376 }, "geometry": { "type": "Point", "coordinates": [ 129.296692, 35.450935, 450.0 ] } },
{ "type": "Feature", "properties": { "value": 0.0147 }, "geometry": { "type": "Point", "coordinates": [ 129.297791, 35.450935, 450.0 ] } },
{ "type": "Feature", "properties": { "value": 0.004 }, "geometry": { "type": "Point", "coordinates": [ 129.298889, 35.450932, 450.0 ] } },
{ "type": "Feature", "properties": { "value": 0.0009 }, "geometry": { "type": "Point", "coordinates": [ 129.284576, 35.451866, 450.0 ] } },
{ "type": "Feature", "properties": { "value": 0.0049 }, "geometry": { "type": "Point", "coordinates": [ 129.285675, 35.451866, 450.0 ] } },
{ "type": "Feature", "properties": { "value": 0.0142 }, "geometry": { "type": "Point", "coordinates": [ 129.286774, 35.451862, 450.0 ] } },
{ "type": "Feature", "properties": { "value": 0.0318 }, "geometry": { "type": "Point", "coordinates": [ 129.287888, 35.451859, 450.0 ] } },
{ "type": "Feature", "properties": { "value": 0.0585 }, "geometry": { "type": "Point", "coordinates": [ 129.288986, 35.451855, 450.0 ] } },
{ "type": "Feature", "properties": { "value": 0.0892 }, "geometry": { "type": "Point", "coordinates": [ 129.290085, 35.451855, 450.0 ] } },
{ "type": "Feature", "properties": { "value": 0.1129 }, "geometry": { "type": "Point", "coordinates": [ 129.291183, 35.451851, 450.0 ] } },
{ "type": "Feature", "properties": { "value": 0.1187 }, "geometry": { "type": "Point", "coordinates": [ 129.292282, 35.451847, 450.0 ] } },
{ "type": "Feature", "properties": { "value": 0.1034 }, "geometry": { "type": "Point", "coordinates": [ 129.293381, 35.451847, 450.0 ] } },
{ "type": "Feature", "properties": { "value": 0.0745 }, "geometry": { "type": "Point", "coordinates": [ 129.294495, 35.451843, 450.0 ] } },
{ "type": "Feature", "properties": { "value": 0.0443 }, "geometry": { "type": "Point", "coordinates": [ 129.295593, 35.451839, 450.0 ] } },
{ "type": "Feature", "properties": { "value": 0.0214 }, "geometry": { "type": "Point", "coordinates": [ 129.296692, 35.451839, 450.0 ] } },
{ "type": "Feature", "properties": { "value": 0.0084 }, "geometry": { "type": "Point", "coordinates": [ 129.297791, 35.451836, 450.0 ] } },
{ "type": "Feature", "properties": { "value": 0.0018 }, "geometry": { "type": "Point", "coordinates": [ 129.298889, 35.451832, 450.0 ] } },
{ "type": "Feature", "properties": { "value": 0.0023 }, "geometry": { "type": "Point", "coordinates": [ 129.285675, 35.452766, 450.0 ] } },
{ "type": "Feature", "properties": { "value": 0.0073 }, "geometry": { "type": "Point", "coordinates": [ 129.286789, 35.452763, 450.0 ] } },
{ "type": "Feature", "properties": { "value": 0.0162 }, "geometry": { "type": "Point", "coordinates": [ 129.287888, 35.452759, 450.0 ] } },
{ "type": "Feature", "properties": { "value": 0.0297 }, "geometry": { "type": "Point", "coordinates": [ 129.288986, 35.452759, 450.0 ] } },
{ "type": "Feature", "properties": { "value": 0.0448 }, "geometry": { "type": "Point", "coordinates": [ 129.290085, 35.452755, 450.0 ] } },
{ "type": "Feature", "properties": { "value": 0.0566 }, "geometry": { "type": "Point", "coordinates": [ 129.291183, 35.452751, 450.0 ] } },
{ "type": "Feature", "properties": { "value": 0.0591 }, "geometry": { "type": "Point", "coordinates": [ 129.292297, 35.452751, 450.0 ] } },
{ "type": "Feature", "properties": { "value": 0.0512 }, "geometry": { "type": "Point", "coordinates": [ 129.293396, 35.452747, 450.0 ] } },
{ "type": "Feature", "properties": { "value": 0.0365 }, "geometry": { "type": "Point", "coordinates": [ 129.294495, 35.452744, 450.0 ] } },
{ "type": "Feature", "properties": { "value": 0.0218 }, "geometry": { "type": "Point", "coordinates": [ 129.295593, 35.452744, 450.0 ] } },
{ "type": "Feature", "properties": { "value": 0.0104 }, "geometry": { "type": "Point", "coordinates": [ 129.296692, 35.45274, 450.0 ] } },
{ "type": "Feature", "properties": { "value": 0.0036 }, "geometry": { "type": "Point", "coordinates": [ 129.297791, 35.452736, 450.0 ] } },
{ "type": "Feature", "properties": { "value": 0.0007 }, "geometry": { "type": "Point", "coordinates": [ 129.28569, 35.453667, 450.0 ] } },
{ "type": "Feature", "properties": { "value": 0.0027 }, "geometry": { "type": "Point", "coordinates": [ 129.286789, 35.453663, 450.0 ] } },
{ "type": "Feature", "properties": { "value": 0.0066 }, "geometry": { "type": "Point", "coordinates": [ 129.287888, 35.453663, 450.0 ] } },
{ "type": "Feature", "properties": { "value": 0.0125 }, "geometry": { "type": "Point", "coordinates": [ 129.288986, 35.453659, 450.0 ] } },
{ "type": "Feature", "properties": { "value": 0.0192 }, "geometry": { "type": "Point", "coordinates": [ 129.290085, 35.453655, 450.0 ] } },
{ "type": "Feature", "properties": { "value": 0.0239 }, "geometry": { "type": "Point", "coordinates": [ 129.291199, 35.453655, 450.0 ] } },
{ "type": "Feature", "properties": { "value": 0.0247 }, "geometry": { "type": "Point", "coordinates": [ 129.292297, 35.453651, 450.0 ] } },
{ "type": "Feature", "properties": { "value": 0.0213 }, "geometry": { "type": "Point", "coordinates": [ 129.293396, 35.453648, 450.0 ] } },
{ "type": "Feature", "properties": { "value": 0.0153 }, "geometry": { "type": "Point", "coordinates": [ 129.294495, 35.453648, 450.0 ] } },
{ "type": "Feature", "properties": { "value": 0.0088 }, "geometry": { "type": "Point", "coordinates": [ 129.295593, 35.453644, 450.0 ] } },
{ "type": "Feature", "properties": { "value": 0.004 }, "geometry": { "type": "Point", "coordinates": [ 129.296692, 35.45364, 450.0 ] } },
{ "type": "Feature", "properties": { "value": 0.0009 }, "geometry": { "type": "Point", "coordinates": [ 129.297806, 35.453636, 450.0 ] } },
{ "type": "Feature", "properties": { "value": 0.0007 }, "geometry": { "type": "Point", "coordinates": [ 129.286789, 35.454567, 450.0 ] } },
{ "type": "Feature", "properties": { "value": 0.0023 }, "geometry": { "type": "Point", "coordinates": [ 129.287888, 35.454563, 450.0 ] } },
{ "type": "Feature", "properties": { "value": 0.0045 }, "geometry": { "type": "Point", "coordinates": [ 129.288986, 35.454559, 450.0 ] } },
{ "type": "Feature", "properties": { "value": 0.0066 }, "geometry": { "type": "Point", "coordinates": [ 129.2901, 35.454559, 450.0 ] } },
{ "type": "Feature", "properties": { "value": 0.0086 }, "geometry": { "type": "Point", "coordinates": [ 129.291199, 35.454556, 450.0 ] } },
{ "type": "Feature", "properties": { "value": 0.0089 }, "geometry": { "type": "Point", "coordinates": [ 129.292297, 35.454552, 450.0 ] } },
{ "type": "Feature", "properties": { "value": 0.0076 }, "geometry": { "type": "Point", "coordinates": [ 129.293396, 35.454552, 450.0 ] } },
{ "type": "Feature", "properties": { "value": 0.0051 }, "geometry": { "type": "Point", "coordinates": [ 129.294495, 35.454548, 450.0 ] } },
{ "type": "Feature", "properties": { "value": 0.0026 }, "geometry": { "type": "Point", "coordinates": [ 129.295609, 35.454544, 450.0 ] } },
{ "type": "Feature", "properties": { "value": 0.0008 }, "geometry": { "type": "Point", "coordinates": [ 129.296707, 35.45454, 450.0 ] } },
{ "type": "Feature", "properties": { "value": 0.0009 }, "geometry": { "type": "Point", "coordinates": [ 129.289001, 35.455463, 450.0 ] } },
{ "type": "Feature", "properties": { "value": 0.0019 }, "geometry": { "type": "Point", "coordinates": [ 129.2901, 35.45546, 450.0 ] } },
{ "type": "Feature", "properties": { "value": 0.0023 }, "geometry": { "type": "Point", "coordinates": [ 129.291199, 35.455456, 450.0 ] } },
{ "type": "Feature", "properties": { "value": 0.0024 }, "geometry": { "type": "Point", "coordinates": [ 129.292297, 35.455452, 450.0 ] } },
{ "type": "Feature", "properties": { "value": 0.002 }, "geometry": { "type": "Point", "coordinates": [ 129.293396, 35.455452, 450.0 ] } },
{ "type": "Feature", "properties": { "value": 0.001 }, "geometry": { "type": "Point", "coordinates": [ 129.29451, 35.455448, 450.0 ] } },
{ "type": "Feature", "properties": { "value": 0.0006 }, "geometry": { "type": "Point", "coordinates": [ 129.295609, 35.455444, 450.0 ] } },
{ "type": "Feature", "properties": { "value": 0.0 }, "geometry": { "type": "Point", "coordinates": [ 129.324265, 35.460781, 450.0 ] } },
{ "type": "Feature", "properties": { "value": 0.0 }, "geometry": { "type": "Point", "coordinates": [ 129.325363, 35.460777, 450.0 ] } },
{ "type": "Feature", "properties": { "value": 0.0 }, "geometry": { "type": "Point", "coordinates": [ 129.326477, 35.460773, 450.0 ] } },
{ "type": "Feature", "properties": { "value": 0.0 }, "geometry": { "type": "Point", "coordinates": [ 129.327576, 35.46077, 450.0 ] } },
{ "type": "Feature", "properties": { "value": 0.0 }, "geometry": { "type": "Point", "coordinates": [ 129.328674, 35.46077, 450.0 ] } },
{ "type": "Feature", "properties": { "value": 0.0 }, "geometry": { "type": "Point", "coordinates": [ 129.324265, 35.461681, 450.0 ] } },
{ "type": "Feature", "properties": { "value": 0.0001 }, "geometry": { "type": "Point", "coordinates": [ 129.325378, 35.461678, 450.0 ] } },
{ "type": "Feature", "properties": { "value": 0.0001 }, "geometry": { "type": "Point", "coordinates": [ 129.326477, 35.461674, 450.0 ] } },
{ "type": "Feature", "properties": { "value": 0.0001 }, "geometry": { "type": "Point", "coordinates": [ 129.327576, 35.461674, 450.0 ] } },
{ "type": "Feature", "properties": { "value": 0.0 }, "geometry": { "type": "Point", "coordinates": [ 129.328674, 35.46167, 450.0 ] } },
{ "type": "Feature", "properties": { "value": 0.0 }, "geometry": { "type": "Point", "coordinates": [ 129.329773, 35.461666, 450.0 ] } },
{ "type": "Feature", "properties": { "value": 0.0 }, "geometry": { "type": "Point", "coordinates": [ 129.323166, 35.462585, 450.0 ] } },
{ "type": "Feature", "properties": { "value": 0.0003 }, "geometry": { "type": "Point", "coordinates": [ 129.32428, 35.462582, 450.0 ] } },
{ "type": "Feature", "properties": { "value": 0.0009 }, "geometry": { "type": "Point", "coordinates": [ 129.325378, 35.462578, 450.0 ] } },
{ "type": "Feature", "properties": { "value": 0.0013 }, "geometry": { "type": "Point", "coordinates": [ 129.326477, 35.462578, 450.0 ] } },
{ "type": "Feature", "properties": { "value": 0.0009 }, "geometry": { "type": "Point", "coordinates": [ 129.327576, 35.462574, 450.0 ] } },
{ "type": "Feature", "properties": { "value": 0.0005 }, "geometry": { "type": "Point", "coordinates": [ 129.328674, 35.46257, 450.0 ] } },
{ "type": "Feature", "properties": { "value": 0.0001 }, "geometry": { "type": "Point", "coordinates": [ 129.329788, 35.462566, 450.0 ] } },
{ "type": "Feature", "properties": { "value": 0.0009 }, "geometry": { "type": "Point", "coordinates": [ 129.323181, 35.463486, 450.0 ] } },
{ "type": "Feature", "properties": { "value": 0.0027 }, "geometry": { "type": "Point", "coordinates": [ 129.32428, 35.463486, 450.0 ] } },
{ "type": "Feature", "properties": { "value": 0.0055 }, "geometry": { "type": "Point", "coordinates": [ 129.325378, 35.463482, 450.0 ] } },
{ "type": "Feature", "properties": { "value": 0.0069 }, "geometry": { "type": "Point", "coordinates": [ 129.326477, 35.463478, 450.0 ] } },
{ "type": "Feature", "properties": { "value": 0.0053 }, "geometry": { "type": "Point", "coordinates": [ 129.327576, 35.463474, 450.0 ] } },
{ "type": "Feature", "properties": { "value": 0.003 }, "geometry": { "type": "Point", "coordinates": [ 129.32869, 35.46347, 450.0 ] } },
{ "type": "Feature", "properties": { "value": 0.0009 }, "geometry": { "type": "Point", "coordinates": [ 129.329788, 35.46347, 450.0 ] } },
{ "type": "Feature", "properties": { "value": 0.0 }, "geometry": { "type": "Point", "coordinates": [ 129.330887, 35.463467, 450.0 ] } },
{ "type": "Feature", "properties": { "value": 0.0012 }, "geometry": { "type": "Point", "coordinates": [ 129.322083, 35.46439, 450.0 ] } },
{ "type": "Feature", "properties": { "value": 0.005 }, "geometry": { "type": "Point", "coordinates": [ 129.323181, 35.46439, 450.0 ] } },
{ "type": "Feature", "properties": { "value": 0.0121 }, "geometry": { "type": "Point", "coordinates": [ 129.32428, 35.464386, 450.0 ] } },
{ "type": "Feature", "properties": { "value": 0.0206 }, "geometry": { "type": "Point", "coordinates": [ 129.325378, 35.464382, 450.0 ] } },
{ "type": "Feature", "properties": { "value": 0.0238 }, "geometry": { "type": "Point", "coordinates": [ 129.326477, 35.464378, 450.0 ] } },
{ "type": "Feature", "properties": { "value": 0.0195 }, "geometry": { "type": "Point", "coordinates": [ 129.327591, 35.464375, 450.0 ] } },
{ "type": "Feature", "properties": { "value": 0.0114 }, "geometry": { "type": "Point", "coordinates": [ 129.32869, 35.464375, 450.0 ] } },
{ "type": "Feature", "properties": { "value": 0.0049 }, "geometry": { "type": "Point", "coordinates": [ 129.329788, 35.464371, 450.0 ] } },
{ "type": "Feature", "properties": { "value": 0.001 }, "geometry": { "type": "Point", "coordinates": [ 129.330887, 35.464367, 450.0 ] } },
{ "type": "Feature", "properties": { "value": 0.0064 }, "geometry": { "type": "Point", "coordinates": [ 129.322083, 35.465294, 450.0 ] } },
{ "type": "Feature", "properties": { "value": 0.0175 }, "geometry": { "type": "Point", "coordinates": [ 129.323181, 35.46529, 450.0 ] } },
{ "type": "Feature", "properties": { "value": 0.0373 }, "geometry": { "type": "Point", "coordinates": [ 129.32428, 35.465286, 450.0 ] } },
{ "type": "Feature", "properties": { "value": 0.0595 }, "geometry": { "type": "Point", "coordinates": [ 129.325394, 35.465282, 450.0 ] } },
{ "type": "Feature", "properties": { "value": 0.0676 }, "geometry": { "type": "Point", "coordinates": [ 129.326492, 35.465279, 450.0 ] } },
{ "type": "Feature", "properties": { "value": 0.0546 }, "geometry": { "type": "Point", "coordinates": [ 129.327591, 35.465279, 450.0 ] } },
{ "type": "Feature", "properties": { "value": 0.0341 }, "geometry": { "type": "Point", "coordinates": [ 129.32869, 35.465275, 450.0 ] } },
{ "type": "Feature", "properties": { "value": 0.0151 }, "geometry": { "type": "Point", "coordinates": [ 129.329788, 35.465271, 450.0 ] } },
{ "type": "Feature", "properties": { "value": 0.0046 }, "geometry": { "type": "Point", "coordinates": [ 129.330887, 35.465267, 450.0 ] } },
{ "type": "Feature", "properties": { "value": 0.0048 }, "geometry": { "type": "Point", "coordinates": [ 129.320984, 35.466198, 450.0 ] } },
{ "type": "Feature", "properties": { "value": 0.0189 }, "geometry": { "type": "Point", "coordinates": [ 129.322083, 35.466194, 450.0 ] } },
{ "type": "Feature", "properties": { "value": 0.046 }, "geometry": { "type": "Point", "coordinates": [ 129.323181, 35.46619, 450.0 ] } },
{ "type": "Feature", "properties": { "value": 0.0893 }, "geometry": { "type": "Point", "coordinates": [ 129.324295, 35.466187, 450.0 ] } },
{ "type": "Feature", "properties": { "value": 0.1352 }, "geometry": { "type": "Point", "coordinates": [ 129.325394, 35.466187, 450.0 ] } },
{ "type": "Feature", "properties": { "value": 0.1534 }, "geometry": { "type": "Point", "coordinates": [ 129.326492, 35.466183, 450.0 ] } },
{ "type": "Feature", "properties": { "value": 0.1246 }, "geometry": { "type": "Point", "coordinates": [ 129.327591, 35.466179, 450.0 ] } },
{ "type": "Feature", "properties": { "value": 0.0807 }, "geometry": { "type": "Point", "coordinates": [ 129.32869, 35.466175, 450.0 ] } },
{ "type": "Feature", "properties": { "value": 0.0391 }, "geometry": { "type": "Point", "coordinates": [ 129.329803, 35.466171, 450.0 ] } },
{ "type": "Feature", "properties": { "value": 0.0137 }, "geometry": { "type": "Point", "coordinates": [ 129.330902, 35.466171, 450.0 ] } },
{ "type": "Feature", "properties": { "value": 0.0023 }, "geometry": { "type": "Point", "coordinates": [ 129.332001, 35.466167, 450.0 ] } },
{ "type": "Feature", "properties": { "value": 0.0161 }, "geometry": { "type": "Point", "coordinates": [ 129.320984, 35.467098, 450.0 ] } },
{ "type": "Feature", "properties": { "value": 0.0436 }, "geometry": { "type": "Point", "coordinates": [ 129.322083, 35.467094, 450.0 ] } },
{ "type": "Feature", "properties": { "value": 0.0959 }, "geometry": { "type": "Point", "coordinates": [ 129.323196, 35.467091, 450.0 ] } },
{ "type": "Feature", "properties": { "value": 0.1736 }, "geometry": { "type": "Point", "coordinates": [ 129.324295, 35.467091, 450.0 ] } },
{ "type": "Feature", "properties": { "value": 0.2488 }, "geometry": { "type": "Point", "coordinates": [ 129.325394, 35.467087, 450.0 ] } },
{ "type": "Feature", "properties": { "value": 0.277 }, "geometry": { "type": "Point", "coordinates": [ 129.326492, 35.467083, 450.0 ] } },
{ "type": "Feature", "properties": { "value": 0.2271 }, "geometry": { "type": "Point", "coordinates": [ 129.327591, 35.467079, 450.0 ] } },
{ "type": "Feature", "properties": { "value": 0.1516 }, "geometry": { "type": "Point", "coordinates": [ 129.328705, 35.467075, 450.0 ] } },
{ "type": "Feature", "properties": { "value": 0.0786 }, "geometry": { "type": "Point", "coordinates": [ 129.329803, 35.467075, 450.0 ] } },
{ "type": "Feature", "properties": { "value": 0.0318 }, "geometry": { "type": "Point", "coordinates": [ 129.330902, 35.467072, 450.0 ] } },
{ "type": "Feature", "properties": { "value": 0.009 }, "geometry": { "type": "Point", "coordinates": [ 129.332001, 35.467068, 450.0 ] } },
{ "type": "Feature", "properties": { "value": 0.0102 }, "geometry": { "type": "Point", "coordinates": [ 129.319885, 35.468002, 450.0 ] } },
{ "type": "Feature", "properties": { "value": 0.0325 }, "geometry": { "type": "Point", "coordinates": [ 129.320984, 35.467999, 450.0 ] } },
{ "type": "Feature", "properties": { "value": 0.0813 }, "geometry": { "type": "Point", "coordinates": [ 129.322098, 35.467995, 450.0 ] } },
{ "type": "Feature", "properties": { "value": 0.1678 }, "geometry": { "type": "Point", "coordinates": [ 129.323196, 35.467995, 450.0 ] } },
{ "type": "Feature", "properties": { "value": 0.2857 }, "geometry": { "type": "Point", "coordinates": [ 129.324295, 35.467991, 450.0 ] } },
{ "type": "Feature", "properties": { "value": 0.3779 }, "geometry": { "type": "Point", "coordinates": [ 129.325394, 35.467987, 450.0 ] } },
{ "type": "Feature", "properties": { "value": 0.4115 }, "geometry": { "type": "Point", "coordinates": [ 129.326492, 35.467983, 450.0 ] } },
{ "type": "Feature", "properties": { "value": 0.3524 }, "geometry": { "type": "Point", "coordinates": [ 129.327606, 35.467983, 450.0 ] } },
{ "type": "Feature", "properties": { "value": 0.2397 }, "geometry": { "type": "Point", "coordinates": [ 129.328705, 35.467979, 450.0 ] } },
{ "type": "Feature", "properties": { "value": 0.1302 }, "geometry": { "type": "Point", "coordinates": [ 129.329803, 35.467976, 450.0 ] } },
{ "type": "Feature", "properties": { "value": 0.0565 }, "geometry": { "type": "Point", "coordinates": [ 129.330902, 35.467972, 450.0 ] } },
{ "type": "Feature", "properties": { "value": 0.0199 }, "geometry": { "type": "Point", "coordinates": [ 129.332001, 35.467968, 450.0 ] } },
{ "type": "Feature", "properties": { "value": 0.0191 }, "geometry": { "type": "Point", "coordinates": [ 129.319885, 35.468903, 450.0 ] } },
{ "type": "Feature", "properties": { "value": 0.0538 }, "geometry": { "type": "Point", "coordinates": [ 129.320999, 35.468899, 450.0 ] } },
{ "type": "Feature", "properties": { "value": 0.1263 }, "geometry": { "type": "Point", "coordinates": [ 129.322098, 35.468899, 450.0 ] } },
{ "type": "Feature", "properties": { "value": 0.2468 }, "geometry": { "type": "Point", "coordinates": [ 129.323196, 35.468895, 450.0 ] } },
{ "type": "Feature", "properties": { "value": 0.4003 }, "geometry": { "type": "Point", "coordinates": [ 129.324295, 35.468891, 450.0 ] } },
{ "type": "Feature", "properties": { "value": 0.5176 }, "geometry": { "type": "Point", "coordinates": [ 129.325394, 35.468887, 450.0 ] } },
{ "type": "Feature", "properties": { "value": 0.5534 }, "geometry": { "type": "Point", "coordinates": [ 129.326508, 35.468887, 450.0 ] } },
{ "type": "Feature", "properties": { "value": 0.4756 }, "geometry": { "type": "Point", "coordinates": [ 129.327606, 35.468884, 450.0 ] } },
{ "type": "Feature", "properties": { "value": 0.3299 }, "geometry": { "type": "Point", "coordinates": [ 129.328705, 35.46888, 450.0 ] } },
{ "type": "Feature", "properties": { "value": 0.1849 }, "geometry": { "type": "Point", "coordinates": [ 129.329803, 35.468876, 450.0 ] } },
{ "type": "Feature", "properties": { "value": 0.0835 }, "geometry": { "type": "Point", "coordinates": [ 129.330902, 35.468872, 450.0 ] } },
{ "type": "Feature", "properties": { "value": 0.0306 }, "geometry": { "type": "Point", "coordinates": [ 129.332016, 35.468872, 450.0 ] } },
{ "type": "Feature", "properties": { "value": 0.0072 }, "geometry": { "type": "Point", "coordinates": [ 129.333115, 35.468868, 450.0 ] } },
{ "type": "Feature", "properties": { "value": 0.0071 }, "geometry": { "type": "Point", "coordinates": [ 129.318787, 35.469807, 450.0 ] } },
{ "type": "Feature", "properties": { "value": 0.0283 }, "geometry": { "type": "Point", "coordinates": [ 129.319901, 35.469803, 450.0 ] } },
{ "type": "Feature", "properties": { "value": 0.0756 }, "geometry": { "type": "Point", "coordinates": [ 129.320999, 35.469803, 450.0 ] } },
{ "type": "Feature", "properties": { "value": 0.1681 }, "geometry": { "type": "Point", "coordinates": [ 129.322098, 35.469799, 450.0 ] } },
{ "type": "Feature", "properties": { "value": 0.3139 }, "geometry": { "type": "Point", "coordinates": [ 129.323196, 35.469795, 450.0 ] } },
{ "type": "Feature", "properties": { "value": 0.4897 }, "geometry": { "type": "Point", "coordinates": [ 129.324295, 35.469791, 450.0 ] } },
{ "type": "Feature", "properties": { "value": 0.6192 }, "geometry": { "type": "Point", "coordinates": [ 129.325409, 35.469791, 450.0 ] } },
{ "type": "Feature", "properties": { "value": 0.6536 }, "geometry": { "type": "Point", "coordinates": [ 129.326508, 35.469788, 450.0 ] } },
{ "type": "Feature", "properties": { "value": 0.5666 }, "geometry": { "type": "Point", "coordinates": [ 129.327606, 35.469784, 450.0 ] } },
{ "type": "Feature", "properties": { "value": 0.4008 }, "geometry": { "type": "Point", "coordinates": [ 129.328705, 35.46978, 450.0 ] } },
{ "type": "Feature", "properties": { "value": 0.2288 }, "geometry": { "type": "Point", "coordinates": [ 129.329819, 35.469776, 450.0 ] } },
{ "type": "Feature", "properties": { "value": 0.1056 }, "geometry": { "type": "Point", "coordinates": [ 129.330917, 35.469776, 450.0 ] } },
{ "type": "Feature", "properties": { "value": 0.0403 }, "geometry": { "type": "Point", "coordinates": [ 129.332016, 35.469772, 450.0 ] } },
{ "type": "Feature", "properties": { "value": 0.0122 }, "geometry": { "type": "Point", "coordinates": [ 129.333115, 35.469769, 450.0 ] } },
{ "type": "Feature", "properties": { "value": 0.0113 }, "geometry": { "type": "Point", "coordinates": [ 129.318802, 35.470707, 450.0 ] } },
{ "type": "Feature", "properties": { "value": 0.0365 }, "geometry": { "type": "Point", "coordinates": [ 129.319901, 35.470707, 450.0 ] } },
{ "type": "Feature", "properties": { "value": 0.092 }, "geometry": { "type": "Point", "coordinates": [ 129.320999, 35.470703, 450.0 ] } },
{ "type": "Feature", "properties": { "value": 0.1977 }, "geometry": { "type": "Point", "coordinates": [ 129.322098, 35.470699, 450.0 ] } },
{ "type": "Feature", "properties": { "value": 0.3568 }, "geometry": { "type": "Point", "coordinates": [ 129.323212, 35.470695, 450.0 ] } },
{ "type": "Feature", "properties": { "value": 0.5396 }, "geometry": { "type": "Point", "coordinates": [ 129.32431, 35.470695, 450.0 ] } },
{ "type": "Feature", "properties": { "value": 0.6694 }, "geometry": { "type": "Point", "coordinates": [ 129.325409, 35.470692, 450.0 ] } },
{ "type": "Feature", "properties": { "value": 0.6998 }, "geometry": { "type": "Point", "coordinates": [ 129.326508, 35.470688, 450.0 ] } },
{ "type": "Feature", "properties": { "value": 0.6084 }, "geometry": { "type": "Point", "coordinates": [ 129.327606, 35.470684, 450.0 ] } },
{ "type": "Feature", "properties": { "value": 0.433 }, "geometry": { "type": "Point", "coordinates": [ 129.32872, 35.470684, 450.0 ] } },
{ "type": "Feature", "properties": { "value": 0.25 }, "geometry": { "type": "Point", "coordinates": [ 129.329819, 35.47068, 450.0 ] } },
{ "type": "Feature", "properties": { "value": 0.1192 }, "geometry": { "type": "Point", "coordinates": [ 129.330917, 35.470676, 450.0 ] } },
{ "type": "Feature", "properties": { "value": 0.0483 }, "geometry": { "type": "Point", "coordinates": [ 129.332016, 35.470673, 450.0 ] } },
{ "type": "Feature", "properties": { "value": 0.0164 }, "geometry": { "type": "Point", "coordinates": [ 129.333115, 35.470669, 450.0 ] } },
{ "type": "Feature", "properties": { "value": 0.0008 }, "geometry": { "type": "Point", "coordinates": [ 129.317703, 35.471615, 450.0 ] } },
{ "type": "Feature", "properties": { "value": 0.0142 }, "geometry": { "type": "Point", "coordinates": [ 129.318802, 35.471611, 450.0 ] } },
{ "type": "Feature", "properties": { "value": 0.0417 }, "geometry": { "type": "Point", "coordinates": [ 129.319901, 35.471607, 450.0 ] } },
{ "type": "Feature", "properties": { "value": 0.1008 }, "geometry": { "type": "Point", "coordinates": [ 129.320999, 35.471603, 450.0 ] } },
{ "type": "Feature", "properties": { "value": 0.2074 }, "geometry": { "type": "Point", "coordinates": [ 129.322113, 35.4716, 450.0 ] } },
{ "type": "Feature", "properties": { "value": 0.3634 }, "geometry": { "type": "Point", "coordinates": [ 129.323212, 35.4716, 450.0 ] } },
{ "type": "Feature", "properties": { "value": 0.5377 }, "geometry": { "type": "Point", "coordinates": [ 129.32431, 35.471596, 450.0 ] } },
{ "type": "Feature", "properties": { "value": 0.6538 }, "geometry": { "type": "Point", "coordinates": [ 129.325409, 35.471592, 450.0 ] } },
{ "type": "Feature", "properties": { "value": 0.6815 }, "geometry": { "type": "Point", "coordinates": [ 129.326508, 35.471588, 450.0 ] } },
{ "type": "Feature", "properties": { "value": 0.5888 }, "geometry": { "type": "Point", "coordinates": [ 129.327621, 35.471588, 450.0 ] } },
{ "type": "Feature", "properties": { "value": 0.4185 }, "geometry": { "type": "Point", "coordinates": [ 129.32872, 35.471584, 450.0 ] } },
{ "type": "Feature", "properties": { "value": 0.2478 }, "geometry": { "type": "Point", "coordinates": [ 129.329819, 35.471581, 450.0 ] } },
{ "type": "Feature", "properties": { "value": 0.1256 }, "geometry": { "type": "Point", "coordinates": [ 129.330917, 35.471577, 450.0 ] } },
{ "type": "Feature", "properties": { "value": 0.0534 }, "geometry": { "type": "Point", "coordinates": [ 129.332016, 35.471573, 450.0 ] } },
{ "type": "Feature", "properties": { "value": 0.0187 }, "geometry": { "type": "Point", "coordinates": [ 129.33313, 35.471573, 450.0 ] } },
{ "type": "Feature", "properties": { "value": 0.0023 }, "geometry": { "type": "Point", "coordinates": [ 129.334229, 35.471569, 450.0 ] } },
{ "type": "Feature", "properties": { "value": 0.0026 }, "geometry": { "type": "Point", "coordinates": [ 129.317703, 35.472515, 450.0 ] } },
{ "type": "Feature", "properties": { "value": 0.0153 }, "geometry": { "type": "Point", "coordinates": [ 129.318802, 35.472511, 450.0 ] } },
{ "type": "Feature", "properties": { "value": 0.0433 }, "geometry": { "type": "Point", "coordinates": [ 129.319901, 35.472507, 450.0 ] } },
{ "type": "Feature", "properties": { "value": 0.1004 }, "geometry": { "type": "Point", "coordinates": [ 129.321014, 35.472507, 450.0 ] } },
{ "type": "Feature", "properties": { "value": 0.1977 }, "geometry": { "type": "Point", "coordinates": [ 129.322113, 35.472504, 450.0 ] } },
{ "type": "Feature", "properties": { "value": 0.3323 }, "geometry": { "type": "Point", "coordinates": [ 129.323212, 35.4725, 450.0 ] } },
{ "type": "Feature", "properties": { "value": 0.4825 }, "geometry": { "type": "Point", "coordinates": [ 129.32431, 35.472496, 450.0 ] } },
{ "type": "Feature", "properties": { "value": 0.5758 }, "geometry": { "type": "Point", "coordinates": [ 129.325409, 35.472492, 450.0 ] } },
{ "type": "Feature", "properties": { "value": 0.5999 }, "geometry": { "type": "Point", "coordinates": [ 129.326523, 35.472492, 450.0 ] } },
{ "type": "Feature", "properties": { "value": 0.5166 }, "geometry": { "type": "Point", "coordinates": [ 129.327621, 35.472488, 450.0 ] } },
{ "type": "Feature", "properties": { "value": 0.3734 }, "geometry": { "type": "Point", "coordinates": [ 129.32872, 35.472485, 450.0 ] } },
{ "type": "Feature", "properties": { "value": 0.2305 }, "geometry": { "type": "Point", "coordinates": [ 129.329819, 35.472481, 450.0 ] } },
{ "type": "Feature", "properties": { "value": 0.1202 }, "geometry": { "type": "Point", "coordinates": [ 129.330917, 35.472477, 450.0 ] } },
{ "type": "Feature", "properties": { "value": 0.0531 }, "geometry": { "type": "Point", "coordinates": [ 129.332031, 35.472477, 450.0 ] } },
{ "type": "Feature", "properties": { "value": 0.0193 }, "geometry": { "type": "Point", "coordinates": [ 129.33313, 35.472473, 450.0 ] } },
{ "type": "Feature", "properties": { "value": 0.0042 }, "geometry": { "type": "Point", "coordinates": [ 129.334229, 35.472469, 450.0 ] } },
{ "type": "Feature", "properties": { "value": 0.0036 }, "geometry": { "type": "Point", "coordinates": [ 129.317703, 35.473415, 450.0 ] } },
{ "type": "Feature", "properties": { "value": 0.0159 }, "geometry": { "type": "Point", "coordinates": [ 129.318802, 35.473412, 450.0 ] } },
{ "type": "Feature", "properties": { "value": 0.0409 }, "geometry": { "type": "Point", "coordinates": [ 129.319916, 35.473412, 450.0 ] } },
{ "type": "Feature", "properties": { "value": 0.0916 }, "geometry": { "type": "Point", "coordinates": [ 129.321014, 35.473408, 450.0 ] } },
{ "type": "Feature", "properties": { "value": 0.174 }, "geometry": { "type": "Point", "coordinates": [ 129.322113, 35.473404, 450.0 ] } },
{ "type": "Feature", "properties": { "value": 0.2841 }, "geometry": { "type": "Point", "coordinates": [ 129.323212, 35.4734, 450.0 ] } },
{ "type": "Feature", "properties": { "value": 0.3995 }, "geometry": { "type": "Point", "coordinates": [ 129.32431, 35.473396, 450.0 ] } },
{ "type": "Feature", "properties": { "value": 0.4752 }, "geometry": { "type": "Point", "coordinates": [ 129.325424, 35.473396, 450.0 ] } },
{ "type": "Feature", "properties": { "value": 0.487 }, "geometry": { "type": "Point", "coordinates": [ 129.326523, 35.473392, 450.0 ] } },
{ "type": "Feature", "properties": { "value": 0.4211 }, "geometry": { "type": "Point", "coordinates": [ 129.327621, 35.473389, 450.0 ] } },
{ "type": "Feature", "properties": { "value": 0.3116 }, "geometry": { "type": "Point", "coordinates": [ 129.32872, 35.473385, 450.0 ] } },
{ "type": "Feature", "properties": { "value": 0.1963 }, "geometry": { "type": "Point", "coordinates": [ 129.329819, 35.473385, 450.0 ] } },
{ "type": "Feature", "properties": { "value": 0.1054 }, "geometry": { "type": "Point", "coordinates": [ 129.330933, 35.473381, 450.0 ] } },
{ "type": "Feature", "properties": { "value": 0.0488 }, "geometry": { "type": "Point", "coordinates": [ 129.332031, 35.473377, 450.0 ] } },
{ "type": "Feature", "properties": { "value": 0.0185 }, "geometry": { "type": "Point", "coordinates": [ 129.33313, 35.473373, 450.0 ] } },
{ "type": "Feature", "properties": { "value": 0.005 }, "geometry": { "type": "Point", "coordinates": [ 129.334229, 35.47337, 450.0 ] } },
{ "type": "Feature", "properties": { "value": 0.0031 }, "geometry": { "type": "Point", "coordinates": [ 129.317703, 35.474316, 450.0 ] } },
{ "type": "Feature", "properties": { "value": 0.012 }, "geometry": { "type": "Point", "coordinates": [ 129.318817, 35.474316, 450.0 ] } },
{ "type": "Feature", "properties": { "value": 0.0311 }, "geometry": { "type": "Point", "coordinates": [ 129.319916, 35.474312, 450.0 ] } },
{ "type": "Feature", "properties": { "value": 0.069 }, "geometry": { "type": "Point", "coordinates": [ 129.321014, 35.474308, 450.0 ] } },
{ "type": "Feature", "properties": { "value": 0.1292 }, "geometry": { "type": "Point", "coordinates": [ 129.322113, 35.474304, 450.0 ] } },
{ "type": "Feature", "properties": { "value": 0.2081 }, "geometry": { "type": "Point", "coordinates": [ 129.323212, 35.4743, 450.0 ] } },
{ "type": "Feature", "properties": { "value": 0.2888 }, "geometry": { "type": "Point", "coordinates": [ 129.324326, 35.4743, 450.0 ] } },
{ "type": "Feature", "properties": { "value": 0.3435 }, "geometry": { "type": "Point", "coordinates": [ 129.325424, 35.474297, 450.0 ] } },
{ "type": "Feature", "properties": { "value": 0.35 }, "geometry": { "type": "Point", "coordinates": [ 129.326523, 35.474293, 450.0 ] } },
{ "type": "Feature", "properties": { "value": 0.3055 }, "geometry": { "type": "Point", "coordinates": [ 129.327621, 35.474289, 450.0 ] } },
{ "type": "Feature", "properties": { "value": 0.2284 }, "geometry": { "type": "Point", "coordinates": [ 129.328735, 35.474289, 450.0 ] } },
{ "type": "Feature", "properties": { "value": 0.1463 }, "geometry": { "type": "Point", "coordinates": [ 129.329834, 35.474285, 450.0 ] } },
{ "type": "Feature", "properties": { "value": 0.0811 }, "geometry": { "type": "Point", "coordinates": [ 129.330933, 35.474281, 450.0 ] } },
{ "type": "Feature", "properties": { "value": 0.0388 }, "geometry": { "type": "Point", "coordinates": [ 129.332031, 35.474277, 450.0 ] } },
{ "type": "Feature", "properties": { "value": 0.0149 }, "geometry": { "type": "Point", "coordinates": [ 129.33313, 35.474274, 450.0 ] } },
{ "type": "Feature", "properties": { "value": 0.0037 }, "geometry": { "type": "Point", "coordinates": [ 129.334244, 35.474274, 450.0 ] } },
{ "type": "Feature", "properties": { "value": 0.0013 }, "geometry": { "type": "Point", "coordinates": [ 129.317719, 35.47522, 450.0 ] } },
{ "type": "Feature", "properties": { "value": 0.0078 }, "geometry": { "type": "Point", "coordinates": [ 129.318817, 35.475216, 450.0 ] } },
{ "type": "Feature", "properties": { "value": 0.0207 }, "geometry": { "type": "Point", "coordinates": [ 129.319916, 35.475212, 450.0 ] } },
{ "type": "Feature", "properties": { "value": 0.0462 }, "geometry": { "type": "Point", "coordinates": [ 129.321014, 35.475208, 450.0 ] } },
{ "type": "Feature", "properties": { "value": 0.085 }, "geometry": { "type": "Point", "coordinates": [ 129.322113, 35.475208, 450.0 ] } },
{ "type": "Feature", "properties": { "value": 0.1362 }, "geometry": { "type": "Point", "coordinates": [ 129.323227, 35.475204, 450.0 ] } },
{ "type": "Feature", "properties": { "value": 0.1875 }, "geometry": { "type": "Point", "coordinates": [ 129.324326, 35.475201, 450.0 ] } },
{ "type": "Feature", "properties": { "value": 0.2218 }, "geometry": { "type": "Point", "coordinates": [ 129.325424, 35.475197, 450.0 ] } },
{ "type": "Feature", "properties": { "value": 0.2255 }, "geometry": { "type": "Point", "coordinates": [ 129.326523, 35.475193, 450.0 ] } },
{ "type": "Feature", "properties": { "value": 0.1971 }, "geometry": { "type": "Point", "coordinates": [ 129.327637, 35.475193, 450.0 ] } },
{ "type": "Feature", "properties": { "value": 0.1477 }, "geometry": { "type": "Point", "coordinates": [ 129.328735, 35.475189, 450.0 ] } },
{ "type": "Feature", "properties": { "value": 0.0961 }, "geometry": { "type": "Point", "coordinates": [ 129.329834, 35.475185, 450.0 ] } },
{ "type": "Feature", "properties": { "value": 0.0542 }, "geometry": { "type": "Point", "coordinates": [ 129.330933, 35.475182, 450.0 ] } },
{ "type": "Feature", "properties": { "value": 0.026 }, "geometry": { "type": "Point", "coordinates": [ 129.332031, 35.475178, 450.0 ] } },
{ "type": "Feature", "properties": { "value": 0.0095 }, "geometry": { "type": "Point", "coordinates": [ 129.333145, 35.475178, 450.0 ] } },
{ "type": "Feature", "properties": { "value": 0.0015 }, "geometry": { "type": "Point", "coordinates": [ 129.334244, 35.475174, 450.0 ] } },
{ "type": "Feature", "properties": { "value": 0.0009 }, "geometry": { "type": "Point", "coordinates": [ 129.317719, 35.47612, 450.0 ] } },
{ "type": "Feature", "properties": { "value": 0.0042 }, "geometry": { "type": "Point", "coordinates": [ 129.318817, 35.476116, 450.0 ] } },
{ "type": "Feature", "properties": { "value": 0.0118 }, "geometry": { "type": "Point", "coordinates": [ 129.319916, 35.476112, 450.0 ] } },
{ "type": "Feature", "properties": { "value": 0.0275 }, "geometry": { "type": "Point", "coordinates": [ 129.32103, 35.476112, 450.0 ] } },
{ "type": "Feature", "properties": { "value": 0.0498 }, "geometry": { "type": "Point", "coordinates": [ 129.322128, 35.476109, 450.0 ] } },
{ "type": "Feature", "properties": { "value": 0.0795 }, "geometry": { "type": "Point", "coordinates": [ 129.323227, 35.476105, 450.0 ] } },
{ "type": "Feature", "properties": { "value": 0.1083 }, "geometry": { "type": "Point", "coordinates": [ 129.324326, 35.476101, 450.0 ] } },
{ "type": "Feature", "properties": { "value": 0.1281 }, "geometry": { "type": "Point", "coordinates": [ 129.325424, 35.476097, 450.0 ] } },
{ "type": "Feature", "properties": { "value": 0.13 }, "geometry": { "type": "Point", "coordinates": [ 129.326538, 35.476097, 450.0 ] } },
{ "type": "Feature", "properties": { "value": 0.1132 }, "geometry": { "type": "Point", "coordinates": [ 129.327637, 35.476093, 450.0 ] } },
{ "type": "Feature", "properties": { "value": 0.0855 }, "geometry": { "type": "Point", "coordinates": [ 129.328735, 35.476089, 450.0 ] } },
{ "type": "Feature", "properties": { "value": 0.0566 }, "geometry": { "type": "Point", "coordinates": [ 129.329834, 35.476086, 450.0 ] } },
{ "type": "Feature", "properties": { "value": 0.0321 }, "geometry": { "type": "Point", "coordinates": [ 129.330933, 35.476086, 450.0 ] } },
{ "type": "Feature", "properties": { "value": 0.0153 }, "geometry": { "type": "Point", "coordinates": [ 129.332047, 35.476082, 450.0 ] } },
{ "type": "Feature", "properties": { "value": 0.0049 }, "geometry": { "type": "Point", "coordinates": [ 129.333145, 35.476078, 450.0 ] } },
{ "type": "Feature", "properties": { "value": 0.0011 }, "geometry": { "type": "Point", "coordinates": [ 129.334244, 35.476074, 450.0 ] } },
{ "type": "Feature", "properties": { "value": 0.0014 }, "geometry": { "type": "Point", "coordinates": [ 129.318817, 35.477016, 450.0 ] } },
{ "type": "Feature", "properties": { "value": 0.0061 }, "geometry": { "type": "Point", "coordinates": [ 129.319931, 35.477016, 450.0 ] } },
{ "type": "Feature", "properties": { "value": 0.0135 }, "geometry": { "type": "Point", "coordinates": [ 129.32103, 35.477013, 450.0 ] } },
{ "type": "Feature", "properties": { "value": 0.0258 }, "geometry": { "type": "Point", "coordinates": [ 129.322128, 35.477009, 450.0 ] } },
{ "type": "Feature", "properties": { "value": 0.0413 }, "geometry": { "type": "Point", "coordinates": [ 129.323227, 35.477005, 450.0 ] } },
{ "type": "Feature", "properties": { "value": 0.0559 }, "geometry": { "type": "Point", "coordinates": [ 129.324326, 35.477005, 450.0 ] } },
{ "type": "Feature", "properties": { "value": 0.0655 }, "geometry": { "type": "Point", "coordinates": [ 129.325439, 35.477001, 450.0 ] } },
{ "type": "Feature", "properties": { "value": 0.0664 }, "geometry": { "type": "Point", "coordinates": [ 129.326538, 35.476997, 450.0 ] } },
{ "type": "Feature", "properties": { "value": 0.0587 }, "geometry": { "type": "Point", "coordinates": [ 129.327637, 35.476994, 450.0 ] } },
{ "type": "Feature", "properties": { "value": 0.0447 }, "geometry": { "type": "Point", "coordinates": [ 129.328735, 35.47699, 450.0 ] } },
{ "type": "Feature", "properties": { "value": 0.0289 }, "geometry": { "type": "Point", "coordinates": [ 129.329834, 35.47699, 450.0 ] } },
{ "type": "Feature", "properties": { "value": 0.0167 }, "geometry": { "type": "Point", "coordinates": [ 129.330948, 35.476986, 450.0 ] } },
{ "type": "Feature", "properties": { "value": 0.0078 }, "geometry": { "type": "Point", "coordinates": [ 129.332047, 35.476982, 450.0 ] } },
{ "type": "Feature", "properties": { "value": 0.0016 }, "geometry": { "type": "Point", "coordinates": [ 129.333145, 35.476978, 450.0 ] } },
{ "type": "Feature", "properties": { "value": 0.0008 }, "geometry": { "type": "Point", "coordinates": [ 129.318832, 35.477921, 450.0 ] } },
{ "type": "Feature", "properties": { "value": 0.0023 }, "geometry": { "type": "Point", "coordinates": [ 129.319931, 35.477917, 450.0 ] } },
{ "type": "Feature", "properties": { "value": 0.0057 }, "geometry": { "type": "Point", "coordinates": [ 129.32103, 35.477913, 450.0 ] } },
{ "type": "Feature", "properties": { "value": 0.0117 }, "geometry": { "type": "Point", "coordinates": [ 129.322128, 35.477909, 450.0 ] } },
{ "type": "Feature", "properties": { "value": 0.019 }, "geometry": { "type": "Point", "coordinates": [ 129.323227, 35.477909, 450.0 ] } },
{ "type": "Feature", "properties": { "value": 0.0256 }, "geometry": { "type": "Point", "coordinates": [ 129.324341, 35.477905, 450.0 ] } },
{ "type": "Feature", "properties": { "value": 0.0299 }, "geometry": { "type": "Point", "coordinates": [ 129.325439, 35.477901, 450.0 ] } },
{ "type": "Feature", "properties": { "value": 0.0306 }, "geometry": { "type": "Point", "coordinates": [ 129.326538, 35.477898, 450.0 ] } },
{ "type": "Feature", "properties": { "value": 0.0272 }, "geometry": { "type": "Point", "coordinates": [ 129.327637, 35.477894, 450.0 ] } },
{ "type": "Feature", "properties": { "value": 0.0208 }, "geometry": { "type": "Point", "coordinates": [ 129.328735, 35.477894, 450.0 ] } },
{ "type": "Feature", "properties": { "value": 0.013 }, "geometry": { "type": "Point", "coordinates": [ 129.329849, 35.47789, 450.0 ] } },
{ "type": "Feature", "properties": { "value": 0.0075 }, "geometry": { "type": "Point", "coordinates": [ 129.330948, 35.477886, 450.0 ] } },
{ "type": "Feature", "properties": { "value": 0.0033 }, "geometry": { "type": "Point", "coordinates": [ 129.332047, 35.477882, 450.0 ] } },
{ "type": "Feature", "properties": { "value": 0.0009 }, "geometry": { "type": "Point", "coordinates": [ 129.333145, 35.477879, 450.0 ] } },
{ "type": "Feature", "properties": { "value": 0.0008 }, "geometry": { "type": "Point", "coordinates": [ 129.319931, 35.478817, 450.0 ] } },
{ "type": "Feature", "properties": { "value": 0.0016 }, "geometry": { "type": "Point", "coordinates": [ 129.32103, 35.478813, 450.0 ] } },
{ "type": "Feature", "properties": { "value": 0.0044 }, "geometry": { "type": "Point", "coordinates": [ 129.322128, 35.478813, 450.0 ] } },
{ "type": "Feature", "properties": { "value": 0.0078 }, "geometry": { "type": "Point", "coordinates": [ 129.323242, 35.478809, 450.0 ] } },
{ "type": "Feature", "properties": { "value": 0.0103 }, "geometry": { "type": "Point", "coordinates": [ 129.324341, 35.478806, 450.0 ] } },
{ "type": "Feature", "properties": { "value": 0.0121 }, "geometry": { "type": "Point", "coordinates": [ 129.325439, 35.478802, 450.0 ] } },
{ "type": "Feature", "properties": { "value": 0.0124 }, "geometry": { "type": "Point", "coordinates": [ 129.326538, 35.478798, 450.0 ] } },
{ "type": "Feature", "properties": { "value": 0.0109 }, "geometry": { "type": "Point", "coordinates": [ 129.327637, 35.478798, 450.0 ] } },
{ "type": "Feature", "properties": { "value": 0.0084 }, "geometry": { "type": "Point", "coordinates": [ 129.328751, 35.478794, 450.0 ] } },
{ "type": "Feature", "properties": { "value": 0.0049 }, "geometry": { "type": "Point", "coordinates": [ 129.329849, 35.47879, 450.0 ] } },
{ "type": "Feature", "properties": { "value": 0.0018 }, "geometry": { "type": "Point", "coordinates": [ 129.330948, 35.478786, 450.0 ] } },
{ "type": "Feature", "properties": { "value": 0.0009 }, "geometry": { "type": "Point", "coordinates": [ 129.332047, 35.478786, 450.0 ] } },
{ "type": "Feature", "properties": { "value": 0.0007 }, "geometry": { "type": "Point", "coordinates": [ 129.32103, 35.479717, 450.0 ] } },
{ "type": "Feature", "properties": { "value": 0.0012 }, "geometry": { "type": "Point", "coordinates": [ 129.322144, 35.479713, 450.0 ] } },
{ "type": "Feature", "properties": { "value": 0.0017 }, "geometry": { "type": "Point", "coordinates": [ 129.323242, 35.47971, 450.0 ] } },
{ "type": "Feature", "properties": { "value": 0.0035 }, "geometry": { "type": "Point", "coordinates": [ 129.324341, 35.479706, 450.0 ] } },
{ "type": "Feature", "properties": { "value": 0.0041 }, "geometry": { "type": "Point", "coordinates": [ 129.325439, 35.479706, 450.0 ] } },
{ "type": "Feature", "properties": { "value": 0.0041 }, "geometry": { "type": "Point", "coordinates": [ 129.326553, 35.479702, 450.0 ] } },
{ "type": "Feature", "properties": { "value": 0.0036 }, "geometry": { "type": "Point", "coordinates": [ 129.327652, 35.479698, 450.0 ] } },
{ "type": "Feature", "properties": { "value": 0.0018 }, "geometry": { "type": "Point", "coordinates": [ 129.328751, 35.479694, 450.0 ] } },
{ "type": "Feature", "properties": { "value": 0.0012 }, "geometry": { "type": "Point", "coordinates": [ 129.329849, 35.479691, 450.0 ] } },
{ "type": "Feature", "properties": { "value": 0.0007 }, "geometry": { "type": "Point", "coordinates": [ 129.330948, 35.479691, 450.0 ] } },
{ "type": "Feature", "properties": { "value": 0.0008 }, "geometry": { "type": "Point", "coordinates": [ 129.324341, 35.48061, 450.0 ] } },
{ "type": "Feature", "properties": { "value": 0.0009 }, "geometry": { "type": "Point", "coordinates": [ 129.325455, 35.480606, 450.0 ] } },
{ "type": "Feature", "properties": { "value": 0.001 }, "geometry": { "type": "Point", "coordinates": [ 129.326553, 35.480602, 450.0 ] } },
{ "type": "Feature", "properties": { "value": 0.0008 }, "geometry": { "type": "Point", "coordinates": [ 129.327652, 35.480598, 450.0 ] } },
{ "type": "Feature", "properties": { "value": 0.0007 }, "geometry": { "type": "Point", "coordinates": [ 129.328751, 35.480595, 450.0 ] } },
{ "type": "Feature", "properties": { "value": 0.0 }, "geometry": { "type": "Point", "coordinates": [ 129.315552, 35.484238, 450.0 ] } },
{ "type": "Feature", "properties": { "value": 0.0 }, "geometry": { "type": "Point", "coordinates": [ 129.31665, 35.484234, 450.0 ] } },
{ "type": "Feature", "properties": { "value": 0.0 }, "geometry": { "type": "Point", "coordinates": [ 129.317749, 35.48423, 450.0 ] } },
{ "type": "Feature", "properties": { "value": 0.0 }, "geometry": { "type": "Point", "coordinates": [ 129.318848, 35.48423, 450.0 ] } },
{ "type": "Feature", "properties": { "value": 0.0 }, "geometry": { "type": "Point", "coordinates": [ 129.319946, 35.484226, 450.0 ] } },
{ "type": "Feature", "properties": { "value": 0.0 }, "geometry": { "type": "Point", "coordinates": [ 129.314453, 35.485142, 450.0 ] } },
{ "type": "Feature", "properties": { "value": 0.0 }, "geometry": { "type": "Point", "coordinates": [ 129.315552, 35.485138, 450.0 ] } },
{ "type": "Feature", "properties": { "value": 0.0 }, "geometry": { "type": "Point", "coordinates": [ 129.31665, 35.485134, 450.0 ] } },
{ "type": "Feature", "properties": { "value": 0.0 }, "geometry": { "type": "Point", "coordinates": [ 129.317749, 35.485134, 450.0 ] } },
{ "type": "Feature", "properties": { "value": 0.0 }, "geometry": { "type": "Point", "coordinates": [ 129.318848, 35.48513, 450.0 ] } },
{ "type": "Feature", "properties": { "value": 0.0 }, "geometry": { "type": "Point", "coordinates": [ 129.319962, 35.485126, 450.0 ] } },
{ "type": "Feature", "properties": { "value": 0.0 }, "geometry": { "type": "Point", "coordinates": [ 129.32106, 35.485123, 450.0 ] } },
{ "type": "Feature", "properties": { "value": 0.0 }, "geometry": { "type": "Point", "coordinates": [ 129.313354, 35.486046, 450.0 ] } },
{ "type": "Feature", "properties": { "value": 0.0 }, "geometry": { "type": "Point", "coordinates": [ 129.314453, 35.486042, 450.0 ] } },
{ "type": "Feature", "properties": { "value": 0.0 }, "geometry": { "type": "Point", "coordinates": [ 129.315552, 35.486038, 450.0 ] } },
{ "type": "Feature", "properties": { "value": 0.0 }, "geometry": { "type": "Point", "coordinates": [ 129.31665, 35.486038, 450.0 ] } },
{ "type": "Feature", "properties": { "value": 0.0 }, "geometry": { "type": "Point", "coordinates": [ 129.317749, 35.486034, 450.0 ] } },
{ "type": "Feature", "properties": { "value": 0.0 }, "geometry": { "type": "Point", "coordinates": [ 129.318863, 35.486031, 450.0 ] } },
{ "type": "Feature", "properties": { "value": 0.0 }, "geometry": { "type": "Point", "coordinates": [ 129.319962, 35.486027, 450.0 ] } },
{ "type": "Feature", "properties": { "value": 0.0 }, "geometry": { "type": "Point", "coordinates": [ 129.32106, 35.486027, 450.0 ] } },
{ "type": "Feature", "properties": { "value": 0.0001 }, "geometry": { "type": "Point", "coordinates": [ 129.311142, 35.486954, 450.0 ] } },
{ "type": "Feature", "properties": { "value": 0.0003 }, "geometry": { "type": "Point", "coordinates": [ 129.312256, 35.48695, 450.0 ] } },
{ "type": "Feature", "properties": { "value": 0.0004 }, "geometry": { "type": "Point", "coordinates": [ 129.313354, 35.486946, 450.0 ] } },
{ "type": "Feature", "properties": { "value": 0.0005 }, "geometry": { "type": "Point", "coordinates": [ 129.314453, 35.486942, 450.0 ] } },
{ "type": "Feature", "properties": { "value": 0.0004 }, "geometry": { "type": "Point", "coordinates": [ 129.315552, 35.486942, 450.0 ] } },
{ "type": "Feature", "properties": { "value": 0.0002 }, "geometry": { "type": "Point", "coordinates": [ 129.31665, 35.486938, 450.0 ] } },
{ "type": "Feature", "properties": { "value": 0.0001 }, "geometry": { "type": "Point", "coordinates": [ 129.317764, 35.486935, 450.0 ] } },
{ "type": "Feature", "properties": { "value": 0.0 }, "geometry": { "type": "Point", "coordinates": [ 129.318863, 35.486931, 450.0 ] } },
{ "type": "Feature", "properties": { "value": 0.0 }, "geometry": { "type": "Point", "coordinates": [ 129.319962, 35.486931, 450.0 ] } },
{ "type": "Feature", "properties": { "value": 0.0 }, "geometry": { "type": "Point", "coordinates": [ 129.32106, 35.486927, 450.0 ] } },
{ "type": "Feature", "properties": { "value": 0.0002 }, "geometry": { "type": "Point", "coordinates": [ 129.310043, 35.487858, 450.0 ] } },
{ "type": "Feature", "properties": { "value": 0.0006 }, "geometry": { "type": "Point", "coordinates": [ 129.311157, 35.487854, 450.0 ] } },
{ "type": "Feature", "properties": { "value": 0.0012 }, "geometry": { "type": "Point", "coordinates": [ 129.312256, 35.48785, 450.0 ] } },
{ "type": "Feature", "properties": { "value": 0.0017 }, "geometry": { "type": "Point", "coordinates": [ 129.313354, 35.487846, 450.0 ] } },
{ "type": "Feature", "properties": { "value": 0.0018 }, "geometry": { "type": "Point", "coordinates": [ 129.314453, 35.487846, 450.0 ] } },
{ "type": "Feature", "properties": { "value": 0.0015 }, "geometry": { "type": "Point", "coordinates": [ 129.315552, 35.487843, 450.0 ] } },
{ "type": "Feature", "properties": { "value": 0.0009 }, "geometry": { "type": "Point", "coordinates": [ 129.316666, 35.487839, 450.0 ] } },
{ "type": "Feature", "properties": { "value": 0.0004 }, "geometry": { "type": "Point", "coordinates": [ 129.317764, 35.487835, 450.0 ] } },
{ "type": "Feature", "properties": { "value": 0.0001 }, "geometry": { "type": "Point", "coordinates": [ 129.318863, 35.487835, 450.0 ] } },
{ "type": "Feature", "properties": { "value": 0.0 }, "geometry": { "type": "Point", "coordinates": [ 129.319962, 35.487831, 450.0 ] } },
{ "type": "Feature", "properties": { "value": 0.0 }, "geometry": { "type": "Point", "coordinates": [ 129.321075, 35.487827, 450.0 ] } },
{ "type": "Feature", "properties": { "value": 0.0003 }, "geometry": { "type": "Point", "coordinates": [ 129.308945, 35.488762, 450.0 ] } },
{ "type": "Feature", "properties": { "value": 0.0009 }, "geometry": { "type": "Point", "coordinates": [ 129.310059, 35.488758, 450.0 ] } },
{ "type": "Feature", "properties": { "value": 0.002 }, "geometry": { "type": "Point", "coordinates": [ 129.311157, 35.488754, 450.0 ] } },
{ "type": "Feature", "properties": { "value": 0.0036 }, "geometry": { "type": "Point", "coordinates": [ 129.312256, 35.48875, 450.0 ] } },
{ "type": "Feature", "properties": { "value": 0.0051 }, "geometry": { "type": "Point", "coordinates": [ 129.313354, 35.48875, 450.0 ] } },
{ "type": "Feature", "properties": { "value": 0.0054 }, "geometry": { "type": "Point", "coordinates": [ 129.314453, 35.488747, 450.0 ] } },
{ "type": "Feature", "properties": { "value": 0.0042 }, "geometry": { "type": "Point", "coordinates": [ 129.315567, 35.488743, 450.0 ] } },
{ "type": "Feature", "properties": { "value": 0.0023 }, "geometry": { "type": "Point", "coordinates": [ 129.316666, 35.488739, 450.0 ] } },
{ "type": "Feature", "properties": { "value": 0.0009 }, "geometry": { "type": "Point", "coordinates": [ 129.317764, 35.488739, 450.0 ] } },
{ "type": "Feature", "properties": { "value": 0.0002 }, "geometry": { "type": "Point", "coordinates": [ 129.318863, 35.488735, 450.0 ] } },
{ "type": "Feature", "properties": { "value": 0.0 }, "geometry": { "type": "Point", "coordinates": [ 129.319977, 35.488731, 450.0 ] } },
{ "type": "Feature", "properties": { "value": 0.0 }, "geometry": { "type": "Point", "coordinates": [ 129.321075, 35.488728, 450.0 ] } },
{ "type": "Feature", "properties": { "value": 0.0001 }, "geometry": { "type": "Point", "coordinates": [ 129.307846, 35.489666, 450.0 ] } },
{ "type": "Feature", "properties": { "value": 0.0008 }, "geometry": { "type": "Point", "coordinates": [ 129.30896, 35.489662, 450.0 ] } },
{ "type": "Feature", "properties": { "value": 0.0027 }, "geometry": { "type": "Point", "coordinates": [ 129.310059, 35.489658, 450.0 ] } },
{ "type": "Feature", "properties": { "value": 0.0053 }, "geometry": { "type": "Point", "coordinates": [ 129.311157, 35.489655, 450.0 ] } },
{ "type": "Feature", "properties": { "value": 0.0087 }, "geometry": { "type": "Point", "coordinates": [ 129.312256, 35.489655, 450.0 ] } },
{ "type": "Feature", "properties": { "value": 0.0115 }, "geometry": { "type": "Point", "coordinates": [ 129.313354, 35.489651, 450.0 ] } },
{ "type": "Feature", "properties": { "value": 0.0114 }, "geometry": { "type": "Point", "coordinates": [ 129.314468, 35.489647, 450.0 ] } },
{ "type": "Feature", "properties": { "value": 0.0086 }, "geometry": { "type": "Point", "coordinates": [ 129.315567, 35.489643, 450.0 ] } },
{ "type": "Feature", "properties": { "value": 0.0047 }, "geometry": { "type": "Point", "coordinates": [ 129.316666, 35.489643, 450.0 ] } },
{ "type": "Feature", "properties": { "value": 0.0018 }, "geometry": { "type": "Point", "coordinates": [ 129.317764, 35.489639, 450.0 ] } },
{ "type": "Feature", "properties": { "value": 0.0005 }, "geometry": { "type": "Point", "coordinates": [ 129.318878, 35.489635, 450.0 ] } },
{ "type": "Feature", "properties": { "value": 0.0 }, "geometry": { "type": "Point", "coordinates": [ 129.319977, 35.489632, 450.0 ] } },
{ "type": "Feature", "properties": { "value": 0.0003 }, "geometry": { "type": "Point", "coordinates": [ 129.307861, 35.490566, 450.0 ] } },
{ "type": "Feature", "properties": { "value": 0.0013 }, "geometry": { "type": "Point", "coordinates": [ 129.30896, 35.490562, 450.0 ] } },
{ "type": "Feature", "properties": { "value": 0.0044 }, "geometry": { "type": "Point", "coordinates": [ 129.310059, 35.490559, 450.0 ] } },
{ "type": "Feature", "properties": { "value": 0.0104 }, "geometry": { "type": "Point", "coordinates": [ 129.311157, 35.490559, 450.0 ] } },
{ "type": "Feature", "properties": { "value": 0.0162 }, "geometry": { "type": "Point", "coordinates": [ 129.312271, 35.490555, 450.0 ] } },
{ "type": "Feature", "properties": { "value": 0.02 }, "geometry": { "type": "Point", "coordinates": [ 129.31337, 35.490551, 450.0 ] } },
{ "type": "Feature", "properties": { "value": 0.0188 }, "geometry": { "type": "Point", "coordinates": [ 129.314468, 35.490547, 450.0 ] } },
{ "type": "Feature", "properties": { "value": 0.0132 }, "geometry": { "type": "Point", "coordinates": [ 129.315567, 35.490547, 450.0 ] } },
{ "type": "Feature", "properties": { "value": 0.0069 }, "geometry": { "type": "Point", "coordinates": [ 129.316666, 35.490543, 450.0 ] } },
{ "type": "Feature", "properties": { "value": 0.0026 }, "geometry": { "type": "Point", "coordinates": [ 129.31778, 35.49054, 450.0 ] } },
{ "type": "Feature", "properties": { "value": 0.0007 }, "geometry": { "type": "Point", "coordinates": [ 129.318878, 35.490536, 450.0 ] } },
{ "type": "Feature", "properties": { "value": 0.0001 }, "geometry": { "type": "Point", "coordinates": [ 129.319977, 35.490536, 450.0 ] } },
{ "type": "Feature", "properties": { "value": 0.0003 }, "geometry": { "type": "Point", "coordinates": [ 129.307861, 35.491467, 450.0 ] } },
{ "type": "Feature", "properties": { "value": 0.0016 }, "geometry": { "type": "Point", "coordinates": [ 129.30896, 35.491463, 450.0 ] } },
{ "type": "Feature", "properties": { "value": 0.0052 }, "geometry": { "type": "Point", "coordinates": [ 129.310059, 35.491463, 450.0 ] } },
{ "type": "Feature", "properties": { "value": 0.0122 }, "geometry": { "type": "Point", "coordinates": [ 129.311172, 35.491459, 450.0 ] } },
{ "type": "Feature", "properties": { "value": 0.0219 }, "geometry": { "type": "Point", "coordinates": [ 129.312271, 35.491455, 450.0 ] } },
{ "type": "Feature", "properties": { "value": 0.0265 }, "geometry": { "type": "Point", "coordinates": [ 129.31337, 35.491451, 450.0 ] } },
{ "type": "Feature", "properties": { "value": 0.0236 }, "geometry": { "type": "Point", "coordinates": [ 129.314468, 35.491451, 450.0 ] } },
{ "type": "Feature", "properties": { "value": 0.0157 }, "geometry": { "type": "Point", "coordinates": [ 129.315567, 35.491447, 450.0 ] } },
{ "type": "Feature", "properties": { "value": 0.0078 }, "geometry": { "type": "Point", "coordinates": [ 129.316681, 35.491444, 450.0 ] } },
{ "type": "Feature", "properties": { "value": 0.0029 }, "geometry": { "type": "Point", "coordinates": [ 129.31778, 35.49144, 450.0 ] } },
{ "type": "Feature", "properties": { "value": 0.0008 }, "geometry": { "type": "Point", "coordinates": [ 129.318878, 35.49144, 450.0 ] } },
{ "type": "Feature", "properties": { "value": 0.0001 }, "geometry": { "type": "Point", "coordinates": [ 129.319977, 35.491436, 450.0 ] } },
{ "type": "Feature", "properties": { "value": 0.0003 }, "geometry": { "type": "Point", "coordinates": [ 129.307861, 35.492367, 450.0 ] } },
{ "type": "Feature", "properties": { "value": 0.0015 }, "geometry": { "type": "Point", "coordinates": [ 129.30896, 35.492367, 450.0 ] } },
{ "type": "Feature", "properties": { "value": 0.0046 }, "geometry": { "type": "Point", "coordinates": [ 129.310074, 35.492363, 450.0 ] } },
{ "type": "Feature", "properties": { "value": 0.0108 }, "geometry": { "type": "Point", "coordinates": [ 129.311172, 35.492359, 450.0 ] } },
{ "type": "Feature", "properties": { "value": 0.0191 }, "geometry": { "type": "Point", "coordinates": [ 129.312271, 35.492355, 450.0 ] } },
{ "type": "Feature", "properties": { "value": 0.0252 }, "geometry": { "type": "Point", "coordinates": [ 129.31337, 35.492355, 450.0 ] } },
{ "type": "Feature", "properties": { "value": 0.023 }, "geometry": { "type": "Point", "coordinates": [ 129.314468, 35.492352, 450.0 ] } },
{ "type": "Feature", "properties": { "value": 0.0145 }, "geometry": { "type": "Point", "coordinates": [ 129.315582, 35.492348, 450.0 ] } },
{ "type": "Feature", "properties": { "value": 0.0069 }, "geometry": { "type": "Point", "coordinates": [ 129.316681, 35.492344, 450.0 ] } },
{ "type": "Feature", "properties": { "value": 0.0024 }, "geometry": { "type": "Point", "coordinates": [ 129.31778, 35.492344, 450.0 ] } },
{ "type": "Feature", "properties": { "value": 0.0006 }, "geometry": { "type": "Point", "coordinates": [ 129.318878, 35.49234, 450.0 ] } },
{ "type": "Feature", "properties": { "value": 0.0002 }, "geometry": { "type": "Point", "coordinates": [ 129.307861, 35.493271, 450.0 ] } },
{ "type": "Feature", "properties": { "value": 0.001 }, "geometry": { "type": "Point", "coordinates": [ 129.308975, 35.493267, 450.0 ] } },
{ "type": "Feature", "properties": { "value": 0.0031 }, "geometry": { "type": "Point", "coordinates": [ 129.310074, 35.493263, 450.0 ] } },
{ "type": "Feature", "properties": { "value": 0.0072 }, "geometry": { "type": "Point", "coordinates": [ 129.311172, 35.493259, 450.0 ] } },
{ "type": "Feature", "properties": { "value": 0.0125 }, "geometry": { "type": "Point", "coordinates": [ 129.312271, 35.493259, 450.0 ] } },
{ "type": "Feature", "properties": { "value": 0.0162 }, "geometry": { "type": "Point", "coordinates": [ 129.31337, 35.493256, 450.0 ] } },
{ "type": "Feature", "properties": { "value": 0.0157 }, "geometry": { "type": "Point", "coordinates": [ 129.314484, 35.493252, 450.0 ] } },
{ "type": "Feature", "properties": { "value": 0.0109 }, "geometry": { "type": "Point", "coordinates": [ 129.315582, 35.493248, 450.0 ] } },
{ "type": "Feature", "properties": { "value": 0.0047 }, "geometry": { "type": "Point", "coordinates": [ 129.316681, 35.493248, 450.0 ] } },
{ "type": "Feature", "properties": { "value": 0.0016 }, "geometry": { "type": "Point", "coordinates": [ 129.31778, 35.493244, 450.0 ] } },
{ "type": "Feature", "properties": { "value": 0.0004 }, "geometry": { "type": "Point", "coordinates": [ 129.318893, 35.49324, 450.0 ] } },
{ "type": "Feature", "properties": { "value": 0.0001 }, "geometry": { "type": "Point", "coordinates": [ 129.307877, 35.494171, 450.0 ] } },
{ "type": "Feature", "properties": { "value": 0.0005 }, "geometry": { "type": "Point", "coordinates": [ 129.308975, 35.494167, 450.0 ] } },
{ "type": "Feature", "properties": { "value": 0.0016 }, "geometry": { "type": "Point", "coordinates": [ 129.310074, 35.494164, 450.0 ] } },
{ "type": "Feature", "properties": { "value": 0.0036 }, "geometry": { "type": "Point", "coordinates": [ 129.311172, 35.494164, 450.0 ] } },
{ "type": "Feature", "properties": { "value": 0.0062 }, "geometry": { "type": "Point", "coordinates": [ 129.312271, 35.49416, 450.0 ] } },
{ "type": "Feature", "properties": { "value": 0.0079 }, "geometry": { "type": "Point", "coordinates": [ 129.313385, 35.494156, 450.0 ] } },
{ "type": "Feature", "properties": { "value": 0.0075 }, "geometry": { "type": "Point", "coordinates": [ 129.314484, 35.494152, 450.0 ] } },
{ "type": "Feature", "properties": { "value": 0.0054 }, "geometry": { "type": "Point", "coordinates": [ 129.315582, 35.494152, 450.0 ] } },
{ "type": "Feature", "properties": { "value": 0.0028 }, "geometry": { "type": "Point", "coordinates": [ 129.316681, 35.494148, 450.0 ] } },
{ "type": "Feature", "properties": { "value": 0.0008 }, "geometry": { "type": "Point", "coordinates": [ 129.317795, 35.494144, 450.0 ] } },
{ "type": "Feature", "properties": { "value": 0.0001 }, "geometry": { "type": "Point", "coordinates": [ 129.318893, 35.494141, 450.0 ] } },
{ "type": "Feature", "properties": { "value": 0.0002 }, "geometry": { "type": "Point", "coordinates": [ 129.308975, 35.495068, 450.0 ] } },
{ "type": "Feature", "properties": { "value": 0.0006 }, "geometry": { "type": "Point", "coordinates": [ 129.310074, 35.495068, 450.0 ] } },
{ "type": "Feature", "properties": { "value": 0.0014 }, "geometry": { "type": "Point", "coordinates": [ 129.311172, 35.495064, 450.0 ] } },
{ "type": "Feature", "properties": { "value": 0.0023 }, "geometry": { "type": "Point", "coordinates": [ 129.312286, 35.49506, 450.0 ] } },
{ "type": "Feature", "properties": { "value": 0.0029 }, "geometry": { "type": "Point", "coordinates": [ 129.313385, 35.495056, 450.0 ] } },
{ "type": "Feature", "properties": { "value": 0.0027 }, "geometry": { "type": "Point", "coordinates": [ 129.314484, 35.495056, 450.0 ] } },
{ "type": "Feature", "properties": { "value": 0.0019 }, "geometry": { "type": "Point", "coordinates": [ 129.315582, 35.495052, 450.0 ] } },
{ "type": "Feature", "properties": { "value": 0.001 }, "geometry": { "type": "Point", "coordinates": [ 129.316696, 35.495049, 450.0 ] } },
{ "type": "Feature", "properties": { "value": 0.0004 }, "geometry": { "type": "Point", "coordinates": [ 129.317795, 35.495045, 450.0 ] } },
{ "type": "Feature", "properties": { "value": 0.0001 }, "geometry": { "type": "Point", "coordinates": [ 129.310074, 35.495968, 450.0 ] } },
{ "type": "Feature", "properties": { "value": 0.0004 }, "geometry": { "type": "Point", "coordinates": [ 129.311188, 35.495964, 450.0 ] } },
{ "type": "Feature", "properties": { "value": 0.0006 }, "geometry": { "type": "Point", "coordinates": [ 129.312286, 35.495964, 450.0 ] } },
{ "type": "Feature", "properties": { "value": 0.0008 }, "geometry": { "type": "Point", "coordinates": [ 129.313385, 35.49596, 450.0 ] } },
{ "type": "Feature", "properties": { "value": 0.0007 }, "geometry": { "type": "Point", "coordinates": [ 129.314484, 35.495956, 450.0 ] } },
{ "type": "Feature", "properties": { "value": 0.0005 }, "geometry": { "type": "Point", "coordinates": [ 129.315598, 35.495953, 450.0 ] } },
{ "type": "Feature", "properties": { "value": 0.0002 }, "geometry": { "type": "Point", "coordinates": [ 129.316696, 35.495949, 450.0 ] } },
{ "type": "Feature", "properties": { "value": 0.0001 }, "geometry": { "type": "Point", "coordinates": [ 129.312286, 35.496864, 450.0 ] } },
{ "type": "Feature", "properties": { "value": 0.0001 }, "geometry": { "type": "Point", "coordinates": [ 129.313385, 35.496861, 450.0 ] } },
{ "type": "Feature", "properties": { "value": 0.0001 }, "geometry": { "type": "Point", "coordinates": [ 129.314499, 35.496857, 450.0 ] } }
]
}
