{
"type": "FeatureCollection",
"features": [
{ "type": "Feature", "properties": { "value": 0.0 }, "geometry": { "type": "Point", "coordinates": [ 129.29335, 35.440128, 60.0 ] } },
{ "type": "Feature", "properties": { "value": 0.0001 }, "geometry": { "type": "Point", "coordinates": [ 129.294449, 35.440128, 60.0 ] } },
{ "type": "Feature", "properties": { "value": 0.0 }, "geometry": { "type": "Point", "coordinates": [ 129.295547, 35.440125, 60.0 ] } },
{ "type": "Feature", "properties": { "value": 0.0001 }, "geometry": { "type": "Point", "coordinates": [ 129.292252, 35.441032, 60.0 ] } },
{ "type": "Feature", "properties": { "value": 0.1153 }, "geometry": { "type": "Point", "coordinates": [ 129.29335, 35.441029, 60.0 ] } },
{ "type": "Feature", "properties": { "value": 0.1371 }, "geometry": { "type": "Point", "coordinates": [ 129.294449, 35.441029, 60.0 ] } },
{ "type": "Feature", "properties": { "value": 0.0005 }, "geometry": { "type": "Point", "coordinates": [ 129.295547, 35.441025, 60.0 ] } },
{ "type": "Feature", "properties": { "value": 0.0104 }, "geometry": { "type": "Point", "coordinates": [ 129.292252, 35.441933, 60.0 ] } },
{ "type": "Feature", "properties": { "value": 1.1565 }, "geometry": { "type": "Point", "coordinates": [ 129.29335, 35.441933, 60.0 ] } },
{ "type": "Feature", "properties": { "value": 1.0175 }, "geometry": { "type": "Point", "coordinates": [ 129.294449, 35.441929, 60.0 ] } },
{ "type": "Feature", "properties": { "value": 0.0019 }, "geometry": { "type": "Point", "coordinates": [ 129.295547, 35.441925, 60.0 ] } },
{ "type": "Feature", "properties": { "value": 0.0013 }, "geometry": { "type": "Point", "coordinates": [ 129.292252, 35.442837, 60.0 ] } },
{ "type": "Feature", "properties": { "value": 0.2067 }, "geometry": { "type": "Point", "coordinates": [ 129.29335, 35.442833, 60.0 ] } },
{ "type": "Feature", "properties": { "value": 0.1648 }, "geometry": { "type": "Point", "coordinates": [ 129.294464, 35.442829, 60.0 ] } },
{ "type": "Feature", "properties": { "value": 0.0004 }, "geometry": { "type": "Point", "coordinates": [ 129.295563, 35.442829, 60.0 ] } },
{ "type": "Feature", "properties": { "value": 0.0001 }, "geometry": { "type": "Point", "coordinates": [ 129.293365, 35.443733, 60.0 ] } },
{ "type": "Feature", "properties": { "value": 0.0052 }, "geometry": { "type": "Point", "coordinates": [ 129.32756, 35.458969, 60.0 ] } },
{ "type": "Feature", "properties": { "value": 5.7769 }, "geometry": { "type": "Point", "coordinates": [ 129.32756, 35.459869, 60.0 ] } },
{ "type": "Feature", "properties": { "value": 145.08 }, "geometry": { "type": "Point", "coordinates": [ 129.327576, 35.46077, 60.0 ] } },
{ "type": "Feature", "properties": { "value": 257.18 }, "geometry": { "type": "Point", "coordinates": [ 129.327576, 35.461674, 60.0 ] } },
{ "type": "Feature", "properties": { "value": 221.37 }, "geometry": { "type": "Point", "coordinates": [ 129.327576, 35.462574, 60.0 ] } },
{ "type": "Feature", "properties": { "value": 171.46 }, "geometry": { "type": "Point", "coordinates": [ 129.327576, 35.463474, 60.0 ] } },
{ "type": "Feature", "properties": { "value": 6.0071 }, "geometry": { "type": "Point", "coordinates": [ 129.32869, 35.46347, 60.0 ] } },
{ "type": "Feature", "properties": { "value": 142.3 }, "geometry": { "type": "Point", "coordinates": [ 129.327591, 35.464375, 60.0 ] } },
{ "type": "Feature", "properties": { "value": 18.289 }, "geometry": { "type": "Point", "coordinates": [ 129.32869, 35.464375, 60.0 ] } },
{ "type": "Feature", "properties": { "value": 135.11 }, "geometry": { "type": "Point", "coordinates": [ 129.327591, 35.465279, 60.0 ] } },
{ "type": "Feature", "properties": { "value": 45.72 }, "geometry": { "type": "Point", "coordinates": [ 129.32869, 35.465275, 60.0 ] } },
{ "type": "Feature", "properties": { "value": 123.96 }, "geometry": { "type": "Point", "coordinates": [ 129.327591, 35.466179, 60.0 ] } },
{ "type": "Feature", "properties": { "value": 83.154 }, "geometry": { "type": "Point", "coordinates": [ 129.32869, 35.466175, 60.0 ] } },
{ "type": "Feature", "properties": { "value": 113.96 }, "geometry": { "type": "Point", "coordinates": [ 129.327591, 35.467079, 60.0 ] } },
{ "type": "Feature", "properties": { "value": 113.87 }, "geometry": { "type": "Point", "coordinates": [ 129.328705, 35.467075, 60.0 ] } },
{ "type": "Feature", "properties": { "value": 104.53 }, "geometry": { "type": "Point", "coordinates": [ 129.327606, 35.467983, 60.0 ] } },
{ "type": "Feature", "properties": { "value": 131.31 }, "geometry": { "type": "Point", "coordinates": [ 129.328705, 35.467979, 60.0 ] } },
{ "type": "Feature", "properties": { "value": 97.077 }, "geometry": { "type": "Point", "coordinates": [ 129.327606, 35.468884, 60.0 ] } },
{ "type": "Feature", "properties": { "value": 139.4 }, "geometry": { "type": "Point", "coordinates": [ 129.328705, 35.46888, 60.0 ] } },
{ "type": "Feature", "properties": { "value": 0.5138 }, "geometry": { "type": "Point", "coordinates": [ 129.329803, 35.468876, 60.0 ] } },
{ "type": "Feature", "properties": { "value": 90.341 }, "geometry": { "type": "Point", "coordinates": [ 129.327606, 35.469784, 60.0 ] } },
{ "type": "Feature", "properties": { "value": 141.88 }, "geometry": { "type": "Point", "coordinates": [ 129.328705, 35.46978, 60.0 ] } },
{ "type": "Feature", "properties": { "value": 3.7629 }, "geometry": { "type": "Point", "coordinates": [ 129.329819, 35.469776, 60.0 ] } },
{ "type": "Feature", "properties": { "value": 83.817 }, "geometry": { "type": "Point", "coordinates": [ 129.327606, 35.470684, 60.0 ] } },
{ "type": "Feature", "properties": { "value": 137.56 }, "geometry": { "type": "Point", "coordinates": [ 129.32872, 35.470684, 60.0 ] } },
{ "type": "Feature", "properties": { "value": 5.8119 }, "geometry": { "type": "Point", "coordinates": [ 129.329819, 35.47068, 60.0 ] } },
{ "type": "Feature", "properties": { "value": 0.6853 }, "geometry": { "type": "Point", "coordinates": [ 129.326508, 35.471588, 60.0 ] } },
{ "type": "Feature", "properties": { "value": 71.926 }, "geometry": { "type": "Point", "coordinates": [ 129.327621, 35.471588, 60.0 ] } },
{ "type": "Feature", "properties": { "value": 111.68 }, "geometry": { "type": "Point", "coordinates": [ 129.32872, 35.471584, 60.0 ] } },
{ "type": "Feature", "properties": { "value": 6.0417 }, "geometry": { "type": "Point", "coordinates": [ 129.329819, 35.471581, 60.0 ] } },
{ "type": "Feature", "properties": { "value": 1.3911 }, "geometry": { "type": "Point", "coordinates": [ 129.326523, 35.472492, 60.0 ] } },
{ "type": "Feature", "properties": { "value": 54.667 }, "geometry": { "type": "Point", "coordinates": [ 129.327621, 35.472488, 60.0 ] } },
{ "type": "Feature", "properties": { "value": 77.049 }, "geometry": { "type": "Point", "coordinates": [ 129.32872, 35.472485, 60.0 ] } },
{ "type": "Feature", "properties": { "value": 6.3149 }, "geometry": { "type": "Point", "coordinates": [ 129.329819, 35.472481, 60.0 ] } },
{ "type": "Feature", "properties": { "value": 1.4607 }, "geometry": { "type": "Point", "coordinates": [ 129.326523, 35.473392, 60.0 ] } },
{ "type": "Feature", "properties": { "value": 40.181 }, "geometry": { "type": "Point", "coordinates": [ 129.327621, 35.473389, 60.0 ] } },
{ "type": "Feature", "properties": { "value": 61.083 }, "geometry": { "type": "Point", "coordinates": [ 129.32872, 35.473385, 60.0 ] } },
{ "type": "Feature", "properties": { "value": 8.5075 }, "geometry": { "type": "Point", "coordinates": [ 129.329819, 35.473385, 60.0 ] } },
{ "type": "Feature", "properties": { "value": 0.9563 }, "geometry": { "type": "Point", "coordinates": [ 129.326523, 35.474293, 60.0 ] } },
{ "type": "Feature", "properties": { "value": 21.461 }, "geometry": { "type": "Point", "coordinates": [ 129.327621, 35.474289, 60.0 ] } },
{ "type": "Feature", "properties": { "value": 39.32 }, "geometry": { "type": "Point", "coordinates": [ 129.328735, 35.474289, 60.0 ] } },
{ "type": "Feature", "properties": { "value": 8.2878 }, "geometry": { "type": "Point", "coordinates": [ 129.329834, 35.474285, 60.0 ] } },
{ "type": "Feature", "properties": { "value": 0.1517 }, "geometry": { "type": "Point", "coordinates": [ 129.326523, 35.475193, 60.0 ] } },
{ "type": "Feature", "properties": { "value": 4.9152 }, "geometry": { "type": "Point", "coordinates": [ 129.327637, 35.475193, 60.0 ] } },
{ "type": "Feature", "properties": { "value": 10.485 }, "geometry": { "type": "Point", "coordinates": [ 129.328735, 35.475189, 60.0 ] } },
{ "type": "Feature", "properties": { "value": 2.7625 }, "geometry": { "type": "Point", "coordinates": [ 129.329834, 35.475185, 60.0 ] } },
{ "type": "Feature", "properties": { "value": 0.2786 }, "geometry": { "type": "Point", "coordinates": [ 129.327637, 35.476093, 60.0 ] } },
{ "type": "Feature", "properties": { "value": 0.7136 }, "geometry": { "type": "Point", "coordinates": [ 129.328735, 35.476089, 60.0 ] } },
{ "type": "Feature", "properties": { "value": 0.1727 }, "geometry": { "type": "Point", "coordinates": [ 129.329834, 35.476086, 60.0 ] } },
{ "type": "Feature", "properties": { "value": 0.2395 }, "geometry": { "type": "Point", "coordinates": [ 129.319946, 35.482422, 60.0 ] } },
{ "type": "Feature", "properties": { "value": 0.0134 }, "geometry": { "type": "Point", "coordinates": [ 129.321045, 35.482418, 60.0 ] } },
{ "type": "Feature", "properties": { "value": 0.0195 }, "geometry": { "type": "Point", "coordinates": [ 129.318848, 35.483326, 60.0 ] } },
{ "type": "Feature", "properties": { "value": 11.009 }, "geometry": { "type": "Point", "coordinates": [ 129.319946, 35.483322, 60.0 ] } },
{ "type": "Feature", "properties": { "value": 0.2442 }, "geometry": { "type": "Point", "coordinates": [ 129.321045, 35.483322, 60.0 ] } },
{ "type": "Feature", "properties": { "value": 4.2093 }, "geometry": { "type": "Point", "coordinates": [ 129.318848, 35.48423, 60.0 ] } },
{ "type": "Feature", "properties": { "value": 17.751 }, "geometry": { "type": "Point", "coordinates": [ 129.319946, 35.484226, 60.0 ] } },
{ "type": "Feature", "properties": { "value": 0.0002 }, "geometry": { "type": "Point", "coordinates": [ 129.32106, 35.484222, 60.0 ] } },
{ "type": "Feature", "properties": { "value": 0.0011 }, "geometry": { "type": "Point", "coordinates": [ 129.317749, 35.485134, 60.0 ] } },
{ "type": "Feature", "properties": { "value": 13.955 }, "geometry": { "type": "Point", "coordinates": [ 129.318848, 35.48513, 60.0 ] } },
{ "type": "Feature", "properties": { "value": 9.8758 }, "geometry": { "type": "Point", "coordinates": [ 129.319962, 35.485126, 60.0 ] } },
{ "type": "Feature", "properties": { "value": 0.0279 }, "geometry": { "type": "Point", "coordinates": [ 129.317749, 35.486034, 60.0 ] } },
{ "type": "Feature", "properties": { "value": 10.734 }, "geometry": { "type": "Point", "coordinates": [ 129.318863, 35.486031, 60.0 ] } },
{ "type": "Feature", "properties": { "value": 2.5439 }, "geometry": { "type": "Point", "coordinates": [ 129.319962, 35.486027, 60.0 ] } },
{ "type": "Feature", "properties": { "value": 0.1437 }, "geometry": { "type": "Point", "coordinates": [ 129.318863, 35.486931, 60.0 ] } },
{ "type": "Feature", "properties": { "value": 0.0082 }, "geometry": { "type": "Point", "coordinates": [ 129.319962, 35.486931, 60.0 ] } }
]
}
