{
"type": "FeatureCollection",
"features": [
{ "type": "Feature", "properties": { "value": 0.0 }, "geometry": { "type": "Point", "coordinates": [ 129.328705, 35.467979, 225.0 ] } },
{ "type": "Feature", "properties": { "value": 0.0 }, "geometry": { "type": "Point", "coordinates": [ 129.329803, 35.467976, 225.0 ] } },
{ "type": "Feature", "properties": { "value": 0.0 }, "geometry": { "type": "Point", "coordinates": [ 129.328705, 35.46888, 225.0 ] } },
{ "type": "Feature", "properties": { "value": 0.0 }, "geometry": { "type": "Point", "coordinates": [ 129.329803, 35.468876, 225.0 ] } },
{ "type": "Feature", "properties": { "value": 0.0 }, "geometry": { "type": "Point", "coordinates": [ 129.328705, 35.46978, 225.0 ] } },
{ "type": "Feature", "properties": { "value": 0.0 }, "geometry": { "type": "Point", "coordinates": [ 129.329819, 35.469776, 225.0 ] } },
{ "type": "Feature", "properties": { "value": 0.0 }, "geometry": { "type": "Point", "coordinates": [ 129.330917, 35.469776, 225.0 ] } },
{ "type": "Feature", "properties": { "value": 0.0 }, "geometry": { "type": "Point", "coordinates": [ 129.32872, 35.470684, 225.0 ] } },
{ "type": "Feature", "properties": { "value": 0.0 }, "geometry": { "type": "Point", "coordinates": [ 129.329819, 35.47068, 225.0 ] } },
{ "type": "Feature", "properties": { "value": 0.0 }, "geometry": { "type": "Point", "coordinates": [ 129.32872, 35.471584, 225.0 ] } },
{ "type": "Feature", "properties": { "value": 0.0 }, "geometry": { "type": "Point", "coordinates": [ 129.329819, 35.471581, 225.0 ] } },
{ "type": "Feature", "properties": { "value": 0.0 }, "geometry": { "type": "Point", "coordinates": [ 129.329819, 35.472481, 225.0 ] } },
{ "type": "Feature", "properties": { "value": 0.0 }, "geometry": { "type": "Point", "coordinates": [ 129.330917, 35.472477, 225.0 ] } },
{ "type": "Feature", "properties": { "value": 0.0 }, "geometry": { "type": "Point", "coordinates": [ 129.332031, 35.472477, 225.0 ] } },
{ "type": "Feature", "properties": { "value": 0.0 }, "geometry": { "type": "Point", "coordinates": [ 129.32872, 35.473385, 225.0 ] } },
{ "type": "Feature", "properties": { "value": 0.0 }, "geometry": { "type": "Point", "coordinates": [ 129.329819, 35.473385, 225.0 ] } },
{ "type": "Feature", "properties": { "value": 0.0 }, "geometry": { "type": "Point", "coordinates": [ 129.330933, 35.473381, 225.0 ] } },
{ "type": "Feature", "properties": { "value": 0.0 }, "geometry": { "type": "Point", "coordinates": [ 129.332031, 35.473377, 225.0 ] } },
{ "type": "Feature", "properties": { "value": 0.0 }, "geometry": { "type": "Point", "coordinates": [ 129.328735, 35.474289, 225.0 ] } },
{ "type": "Feature", "properties": { "value": 0.0 }, "geometry": { "type": "Point", "coordinates": [ 129.329834, 35.474285, 225.0 ] } },
{ "type": "Feature", "properties": { "value": 0.0002 }, "geometry": { "type": "Point", "coordinates": [ 129.330933, 35.474281, 225.0 ] } },
{ "type": "Feature", "properties": { "value": 0.0003 }, "geometry": { "type": "Point", "coordinates": [ 129.332031, 35.474277, 225.0 ] } },
{ "type": "Feature", "properties": { "value": 0.0 }, "geometry": { "type": "Point", "coordinates": [ 129.33313, 35.474274, 225.0 ] } },
{ "type": "Feature", "properties": { "value": 0.0001 }, "geometry": { "type": "Point", "coordinates": [ 129.329834, 35.475185, 225.0 ] } },
{ "type": "Feature", "properties": { "value": 0.0014 }, "geometry": { "type": "Point", "coordinates": [ 129.330933, 35.475182, 225.0 ] } },
{ "type": "Feature", "properties": { "value": 0.0026 }, "geometry": { "type": "Point", "coordinates": [ 129.332031, 35.475178, 225.0 ] } },
{ "type": "Feature", "properties": { "value": 0.0007 }, "geometry": { "type": "Point", "coordinates": [ 129.333145, 35.475178, 225.0 ] } },
{ "type": "Feature", "properties": { "value": 0.0002 }, "geometry": { "type": "Point", "coordinates": [ 129.329834, 35.476086, 225.0 ] } },
{ "type": "Feature", "properties": { "value": 0.0047 }, "geometry": { "type": "Point", "coordinates": [ 129.330933, 35.476086, 225.0 ] } },
{ "type": "Feature", "properties": { "value": 0.011 }, "geometry": { "type": "Point", "coordinates": [ 129.332047, 35.476082, 225.0 ] } },
{ "type": "Feature", "properties": { "value": 0.0043 }, "geometry": { "type": "Point", "coordinates": [ 129.333145, 35.476078, 225.0 ] } },
{ "type": "Feature", "properties": { "value": 0.0003 }, "geometry": { "type": "Point", "coordinates": [ 129.334244, 35.476074, 225.0 ] } },
{ "type": "Feature", "properties": { "value": 0.0003 }, "geometry": { "type": "Point", "coordinates": [ 129.329834, 35.47699, 225.0 ] } },
{ "type": "Feature", "properties": { "value": 0.008 }, "geometry": { "type": "Point", "coordinates": [ 129.330948, 35.476986, 225.0 ] } },
{ "type": "Feature", "properties": { "value": 0.0254 }, "geometry": { "type": "Point", "coordinates": [ 129.332047, 35.476982, 225.0 ] } },
{ "type": "Feature", "properties": { "value": 0.0169 }, "geometry": { "type": "Point", "coordinates": [ 129.333145, 35.476978, 225.0 ] } },
{ "type": "Feature", "properties": { "value": 0.003 }, "geometry": { "type": "Point", "coordinates": [ 129.334244, 35.476974, 225.0 ] } },
{ "type": "Feature", "properties": { "value": 0.0003 }, "geometry": { "type": "Point", "coordinates": [ 129.329849, 35.47789, 225.0 ] } },
{ "type": "Feature", "properties": { "value": 0.0088 }, "geometry": { "type": "Point", "coordinates": [ 129.330948, 35.477886, 225.0 ] } },
{ "type": "Feature", "properties": { "value": 0.0389 }, "geometry": { "type": "Point", "coordinates": [ 129.332047, 35.477882, 225.0 ] } },
{ "type": "Feature", "properties": { "value": 0.0442 }, "geometry": { "type": "Point", "coordinates": [ 129.333145, 35.477879, 225.0 ] } },
{ "type": "Feature", "properties": { "value": 0.0148 }, "geometry": { "type": "Point", "coordinates": [ 129.334259, 35.477879, 225.0 ] } },
{ "type": "Feature", "properties": { "value": 0.0011 }, "geometry": { "type": "Point", "coordinates": [ 129.335358, 35.477875, 225.0 ] } },
{ "type": "Feature", "properties": { "value": 0.0074 }, "geometry": { "type": "Point", "coordinates": [ 129.330948, 35.478786, 225.0 ] } },
{ "type": "Feature", "properties": { "value": 0.0481 }, "geometry": { "type": "Point", "coordinates": [ 129.332047, 35.478786, 225.0 ] } },
{ "type": "Feature", "properties": { "value": 0.0887 }, "geometry": { "type": "Point", "coordinates": [ 129.33316, 35.478783, 225.0 ] } },
{ "type": "Feature", "properties": { "value": 0.051 }, "geometry": { "type": "Point", "coordinates": [ 129.334259, 35.478779, 225.0 ] } },
{ "type": "Feature", "properties": { "value": 0.0091 }, "geometry": { "type": "Point", "coordinates": [ 129.335358, 35.478775, 225.0 ] } },
{ "type": "Feature", "properties": { "value": 0.0047 }, "geometry": { "type": "Point", "coordinates": [ 129.330948, 35.479691, 225.0 ] } },
{ "type": "Feature", "properties": { "value": 0.0453 }, "geometry": { "type": "Point", "coordinates": [ 129.332062, 35.479687, 225.0 ] } },
{ "type": "Feature", "properties": { "value": 0.1336 }, "geometry": { "type": "Point", "coordinates": [ 129.33316, 35.479683, 225.0 ] } },
{ "type": "Feature", "properties": { "value": 0.13 }, "geometry": { "type": "Point", "coordinates": [ 129.334259, 35.479679, 225.0 ] } },
{ "type": "Feature", "properties": { "value": 0.045 }, "geometry": { "type": "Point", "coordinates": [ 129.335358, 35.479675, 225.0 ] } },
{ "type": "Feature", "properties": { "value": 0.0056 }, "geometry": { "type": "Point", "coordinates": [ 129.336456, 35.479675, 225.0 ] } },
{ "type": "Feature", "properties": { "value": 0.0018 }, "geometry": { "type": "Point", "coordinates": [ 129.330963, 35.480591, 225.0 ] } },
{ "type": "Feature", "properties": { "value": 0.0339 }, "geometry": { "type": "Point", "coordinates": [ 129.332062, 35.480587, 225.0 ] } },
{ "type": "Feature", "properties": { "value": 0.1622 }, "geometry": { "type": "Point", "coordinates": [ 129.33316, 35.480583, 225.0 ] } },
{ "type": "Feature", "properties": { "value": 0.2688 }, "geometry": { "type": "Point", "coordinates": [ 129.334259, 35.480579, 225.0 ] } },
{ "type": "Feature", "properties": { "value": 0.1778 }, "geometry": { "type": "Point", "coordinates": [ 129.335358, 35.480579, 225.0 ] } },
{ "type": "Feature", "properties": { "value": 0.0604 }, "geometry": { "type": "Point", "coordinates": [ 129.336472, 35.480576, 225.0 ] } },
{ "type": "Feature", "properties": { "value": 0.0111 }, "geometry": { "type": "Point", "coordinates": [ 129.33757, 35.480572, 225.0 ] } },
{ "type": "Feature", "properties": { "value": 0.0242 }, "geometry": { "type": "Point", "coordinates": [ 129.332062, 35.481487, 225.0 ] } },
{ "type": "Feature", "properties": { "value": 0.1734 }, "geometry": { "type": "Point", "coordinates": [ 129.33316, 35.481487, 225.0 ] } },
{ "type": "Feature", "properties": { "value": 0.4673 }, "geometry": { "type": "Point", "coordinates": [ 129.334259, 35.481483, 225.0 ] } },
{ "type": "Feature", "properties": { "value": 0.521 }, "geometry": { "type": "Point", "coordinates": [ 129.335373, 35.48148, 225.0 ] } },
{ "type": "Feature", "properties": { "value": 0.2955 }, "geometry": { "type": "Point", "coordinates": [ 129.336472, 35.481476, 225.0 ] } },
{ "type": "Feature", "properties": { "value": 0.1015 }, "geometry": { "type": "Point", "coordinates": [ 129.33757, 35.481472, 225.0 ] } },
{ "type": "Feature", "properties": { "value": 0.0171 }, "geometry": { "type": "Point", "coordinates": [ 129.338669, 35.481472, 225.0 ] } },
{ "type": "Feature", "properties": { "value": 0.0178 }, "geometry": { "type": "Point", "coordinates": [ 129.332062, 35.482391, 225.0 ] } },
{ "type": "Feature", "properties": { "value": 0.1732 }, "geometry": { "type": "Point", "coordinates": [ 129.333176, 35.482388, 225.0 ] } },
{ "type": "Feature", "properties": { "value": 0.6243 }, "geometry": { "type": "Point", "coordinates": [ 129.334274, 35.482384, 225.0 ] } },
{ "type": "Feature", "properties": { "value": 0.9768 }, "geometry": { "type": "Point", "coordinates": [ 129.335373, 35.48238, 225.0 ] } },
{ "type": "Feature", "properties": { "value": 0.7817 }, "geometry": { "type": "Point", "coordinates": [ 129.336472, 35.482376, 225.0 ] } },
{ "type": "Feature", "properties": { "value": 0.3901 }, "geometry": { "type": "Point", "coordinates": [ 129.33757, 35.482376, 225.0 ] } },
{ "type": "Feature", "properties": { "value": 0.1365 }, "geometry": { "type": "Point", "coordinates": [ 129.338684, 35.482372, 225.0 ] } },
{ "type": "Feature", "properties": { "value": 0.0276 }, "geometry": { "type": "Point", "coordinates": [ 129.339783, 35.482368, 225.0 ] } },
{ "type": "Feature", "properties": { "value": 0.0107 }, "geometry": { "type": "Point", "coordinates": [ 129.332077, 35.483292, 225.0 ] } },
{ "type": "Feature", "properties": { "value": 0.1437 }, "geometry": { "type": "Point", "coordinates": [ 129.333176, 35.483288, 225.0 ] } },
{ "type": "Feature", "properties": { "value": 0.627 }, "geometry": { "type": "Point", "coordinates": [ 129.334274, 35.483284, 225.0 ] } },
{ "type": "Feature", "properties": { "value": 1.2895 }, "geometry": { "type": "Point", "coordinates": [ 129.335373, 35.48328, 225.0 ] } },
{ "type": "Feature", "properties": { "value": 1.4006 }, "geometry": { "type": "Point", "coordinates": [ 129.336472, 35.48328, 225.0 ] } },
{ "type": "Feature", "properties": { "value": 0.962 }, "geometry": { "type": "Point", "coordinates": [ 129.337585, 35.483276, 225.0 ] } },
{ "type": "Feature", "properties": { "value": 0.4725 }, "geometry": { "type": "Point", "coordinates": [ 129.338684, 35.483273, 225.0 ] } },
{ "type": "Feature", "properties": { "value": 0.1702 }, "geometry": { "type": "Point", "coordinates": [ 129.339783, 35.483269, 225.0 ] } },
{ "type": "Feature", "properties": { "value": 0.0412 }, "geometry": { "type": "Point", "coordinates": [ 129.340881, 35.483265, 225.0 ] } },
{ "type": "Feature", "properties": { "value": 0.0935 }, "geometry": { "type": "Point", "coordinates": [ 129.333176, 35.484188, 225.0 ] } },
{ "type": "Feature", "properties": { "value": 0.4904 }, "geometry": { "type": "Point", "coordinates": [ 129.334274, 35.484188, 225.0 ] } },
{ "type": "Feature", "properties": { "value": 1.2803 }, "geometry": { "type": "Point", "coordinates": [ 129.335373, 35.484184, 225.0 ] } },
{ "type": "Feature", "properties": { "value": 1.8578 }, "geometry": { "type": "Point", "coordinates": [ 129.336487, 35.48418, 225.0 ] } },
{ "type": "Feature", "properties": { "value": 1.7215 }, "geometry": { "type": "Point", "coordinates": [ 129.337585, 35.484177, 225.0 ] } },
{ "type": "Feature", "properties": { "value": 1.1238 }, "geometry": { "type": "Point", "coordinates": [ 129.338684, 35.484173, 225.0 ] } },
{ "type": "Feature", "properties": { "value": 0.5409 }, "geometry": { "type": "Point", "coordinates": [ 129.339783, 35.484173, 225.0 ] } },
{ "type": "Feature", "properties": { "value": 0.2056 }, "geometry": { "type": "Point", "coordinates": [ 129.340897, 35.484169, 225.0 ] } },
{ "type": "Feature", "properties": { "value": 0.0608 }, "geometry": { "type": "Point", "coordinates": [ 129.341995, 35.484165, 225.0 ] } },
{ "type": "Feature", "properties": { "value": 0.0479 }, "geometry": { "type": "Point", "coordinates": [ 129.333176, 35.485092, 225.0 ] } },
{ "type": "Feature", "properties": { "value": 0.3059 }, "geometry": { "type": "Point", "coordinates": [ 129.334274, 35.485088, 225.0 ] } },
{ "type": "Feature", "properties": { "value": 0.9882 }, "geometry": { "type": "Point", "coordinates": [ 129.335388, 35.485085, 225.0 ] } },
{ "type": "Feature", "properties": { "value": 1.8774 }, "geometry": { "type": "Point", "coordinates": [ 129.336487, 35.485081, 225.0 ] } },
{ "type": "Feature", "properties": { "value": 2.3058 }, "geometry": { "type": "Point", "coordinates": [ 129.337585, 35.485077, 225.0 ] } },
{ "type": "Feature", "properties": { "value": 1.9686 }, "geometry": { "type": "Point", "coordinates": [ 129.338684, 35.485077, 225.0 ] } },
{ "type": "Feature", "properties": { "value": 1.2316 }, "geometry": { "type": "Point", "coordinates": [ 129.339798, 35.485073, 225.0 ] } },
{ "type": "Feature", "properties": { "value": 0.6093 }, "geometry": { "type": "Point", "coordinates": [ 129.340897, 35.485069, 225.0 ] } },
{ "type": "Feature", "properties": { "value": 0.258 }, "geometry": { "type": "Point", "coordinates": [ 129.341995, 35.485065, 225.0 ] } },
{ "type": "Feature", "properties": { "value": 0.0922 }, "geometry": { "type": "Point", "coordinates": [ 129.343094, 35.485062, 225.0 ] } },
{ "type": "Feature", "properties": { "value": 0.0046 }, "geometry": { "type": "Point", "coordinates": [ 129.344193, 35.485062, 225.0 ] } },
{ "type": "Feature", "properties": { "value": 0.0161 }, "geometry": { "type": "Point", "coordinates": [ 129.333176, 35.485992, 225.0 ] } },
{ "type": "Feature", "properties": { "value": 0.1643 }, "geometry": { "type": "Point", "coordinates": [ 129.33429, 35.485989, 225.0 ] } },
{ "type": "Feature", "properties": { "value": 0.645 }, "geometry": { "type": "Point", "coordinates": [ 129.335388, 35.485985, 225.0 ] } },
{ "type": "Feature", "properties": { "value": 1.5456 }, "geometry": { "type": "Point", "coordinates": [ 129.336487, 35.485981, 225.0 ] } },
{ "type": "Feature", "properties": { "value": 2.4157 }, "geometry": { "type": "Point", "coordinates": [ 129.337585, 35.485981, 225.0 ] } },
{ "type": "Feature", "properties": { "value": 2.6334 }, "geometry": { "type": "Point", "coordinates": [ 129.338699, 35.485977, 225.0 ] } },
{ "type": "Feature", "properties": { "value": 2.1097 }, "geometry": { "type": "Point", "coordinates": [ 129.339798, 35.485973, 225.0 ] } },
{ "type": "Feature", "properties": { "value": 1.333 }, "geometry": { "type": "Point", "coordinates": [ 129.340897, 35.48597, 225.0 ] } },
{ "type": "Feature", "properties": { "value": 0.7127 }, "geometry": { "type": "Point", "coordinates": [ 129.341995, 35.485966, 225.0 ] } },
{ "type": "Feature", "properties": { "value": 0.336 }, "geometry": { "type": "Point", "coordinates": [ 129.343094, 35.485966, 225.0 ] } },
{ "type": "Feature", "properties": { "value": 0.1448 }, "geometry": { "type": "Point", "coordinates": [ 129.344208, 35.485962, 225.0 ] } },
{ "type": "Feature", "properties": { "value": 0.0484 }, "geometry": { "type": "Point", "coordinates": [ 129.345306, 35.485958, 225.0 ] } },
{ "type": "Feature", "properties": { "value": 0.0776 }, "geometry": { "type": "Point", "coordinates": [ 129.33429, 35.486889, 225.0 ] } },
{ "type": "Feature", "properties": { "value": 0.3763 }, "geometry": { "type": "Point", "coordinates": [ 129.335388, 35.486889, 225.0 ] } },
{ "type": "Feature", "properties": { "value": 1.0938 }, "geometry": { "type": "Point", "coordinates": [ 129.336487, 35.486885, 225.0 ] } },
{ "type": "Feature", "properties": { "value": 2.0962 }, "geometry": { "type": "Point", "coordinates": [ 129.337601, 35.486881, 225.0 ] } },
{ "type": "Feature", "properties": { "value": 2.8571 }, "geometry": { "type": "Point", "coordinates": [ 129.338699, 35.486877, 225.0 ] } },
{ "type": "Feature", "properties": { "value": 2.8943 }, "geometry": { "type": "Point", "coordinates": [ 129.339798, 35.486874, 225.0 ] } },
{ "type": "Feature", "properties": { "value": 2.2842 }, "geometry": { "type": "Point", "coordinates": [ 129.340897, 35.486874, 225.0 ] } },
{ "type": "Feature", "properties": { "value": 1.4935 }, "geometry": { "type": "Point", "coordinates": [ 129.341995, 35.48687, 225.0 ] } },
{ "type": "Feature", "properties": { "value": 0.8547 }, "geometry": { "type": "Point", "coordinates": [ 129.343109, 35.486866, 225.0 ] } },
{ "type": "Feature", "properties": { "value": 0.4529 }, "geometry": { "type": "Point", "coordinates": [ 129.344208, 35.486862, 225.0 ] } },
{ "type": "Feature", "properties": { "value": 0.2256 }, "geometry": { "type": "Point", "coordinates": [ 129.345306, 35.486858, 225.0 ] } },
{ "type": "Feature", "properties": { "value": 0.0973 }, "geometry": { "type": "Point", "coordinates": [ 129.346405, 35.486855, 225.0 ] } },
{ "type": "Feature", "properties": { "value": 0.0259 }, "geometry": { "type": "Point", "coordinates": [ 129.347519, 35.486855, 225.0 ] } },
{ "type": "Feature", "properties": { "value": 0.0007 }, "geometry": { "type": "Point", "coordinates": [ 129.381668, 35.486752, 225.0 ] } },
{ "type": "Feature", "properties": { "value": 0.0274 }, "geometry": { "type": "Point", "coordinates": [ 129.33429, 35.487793, 225.0 ] } },
{ "type": "Feature", "properties": { "value": 0.1962 }, "geometry": { "type": "Point", "coordinates": [ 129.335388, 35.487789, 225.0 ] } },
{ "type": "Feature", "properties": { "value": 0.6785 }, "geometry": { "type": "Point", "coordinates": [ 129.336502, 35.487785, 225.0 ] } },
{ "type": "Feature", "properties": { "value": 1.5724 }, "geometry": { "type": "Point", "coordinates": [ 129.337601, 35.487782, 225.0 ] } },
{ "type": "Feature", "properties": { "value": 2.6379 }, "geometry": { "type": "Point", "coordinates": [ 129.338699, 35.487778, 225.0 ] } },
{ "type": "Feature", "properties": { "value": 3.294 }, "geometry": { "type": "Point", "coordinates": [ 129.339798, 35.487778, 225.0 ] } },
{ "type": "Feature", "properties": { "value": 3.1745 }, "geometry": { "type": "Point", "coordinates": [ 129.340912, 35.487774, 225.0 ] } },
{ "type": "Feature", "properties": { "value": 2.5216 }, "geometry": { "type": "Point", "coordinates": [ 129.34201, 35.48777, 225.0 ] } },
{ "type": "Feature", "properties": { "value": 1.7343 }, "geometry": { "type": "Point", "coordinates": [ 129.343109, 35.487766, 225.0 ] } },
{ "type": "Feature", "properties": { "value": 1.0829 }, "geometry": { "type": "Point", "coordinates": [ 129.344208, 35.487762, 225.0 ] } },
{ "type": "Feature", "properties": { "value": 0.6253 }, "geometry": { "type": "Point", "coordinates": [ 129.345306, 35.487759, 225.0 ] } },
{ "type": "Feature", "properties": { "value": 0.3327 }, "geometry": { "type": "Point", "coordinates": [ 129.34642, 35.487759, 225.0 ] } },
{ "type": "Feature", "properties": { "value": 0.1634 }, "geometry": { "type": "Point", "coordinates": [ 129.347519, 35.487755, 225.0 ] } },
{ "type": "Feature", "properties": { "value": 0.0722 }, "geometry": { "type": "Point", "coordinates": [ 129.348618, 35.487751, 225.0 ] } },
{ "type": "Feature", "properties": { "value": 0.008 }, "geometry": { "type": "Point", "coordinates": [ 129.349716, 35.487747, 225.0 ] } },
{ "type": "Feature", "properties": { "value": 0.0107 }, "geometry": { "type": "Point", "coordinates": [ 129.378372, 35.487663, 225.0 ] } },
{ "type": "Feature", "properties": { "value": 0.0145 }, "geometry": { "type": "Point", "coordinates": [ 129.379471, 35.487659, 225.0 ] } },
{ "type": "Feature", "properties": { "value": 0.0158 }, "geometry": { "type": "Point", "coordinates": [ 129.380569, 35.487656, 225.0 ] } },
{ "type": "Feature", "properties": { "value": 0.0153 }, "geometry": { "type": "Point", "coordinates": [ 129.381683, 35.487652, 225.0 ] } },
{ "type": "Feature", "properties": { "value": 0.0888 }, "geometry": { "type": "Point", "coordinates": [ 129.335403, 35.488689, 225.0 ] } },
{ "type": "Feature", "properties": { "value": 0.3725 }, "geometry": { "type": "Point", "coordinates": [ 129.336502, 35.488686, 225.0 ] } },
{ "type": "Feature", "properties": { "value": 1.0265 }, "geometry": { "type": "Point", "coordinates": [ 129.337601, 35.488682, 225.0 ] } },
{ "type": "Feature", "properties": { "value": 2.062 }, "geometry": { "type": "Point", "coordinates": [ 129.338699, 35.488682, 225.0 ] } },
{ "type": "Feature", "properties": { "value": 3.105 }, "geometry": { "type": "Point", "coordinates": [ 129.339813, 35.488678, 225.0 ] } },
{ "type": "Feature", "properties": { "value": 3.61 }, "geometry": { "type": "Point", "coordinates": [ 129.340912, 35.488674, 225.0 ] } },
{ "type": "Feature", "properties": { "value": 3.444 }, "geometry": { "type": "Point", "coordinates": [ 129.34201, 35.48867, 225.0 ] } },
{ "type": "Feature", "properties": { "value": 2.8151 }, "geometry": { "type": "Point", "coordinates": [ 129.343109, 35.488667, 225.0 ] } },
{ "type": "Feature", "properties": { "value": 2.0448 }, "geometry": { "type": "Point", "coordinates": [ 129.344208, 35.488667, 225.0 ] } },
{ "type": "Feature", "properties": { "value": 1.3442 }, "geometry": { "type": "Point", "coordinates": [ 129.345322, 35.488663, 225.0 ] } },
{ "type": "Feature", "properties": { "value": 0.8143 }, "geometry": { "type": "Point", "coordinates": [ 129.34642, 35.488659, 225.0 ] } },
{ "type": "Feature", "properties": { "value": 0.4666 }, "geometry": { "type": "Point", "coordinates": [ 129.347519, 35.488655, 225.0 ] } },
{ "type": "Feature", "properties": { "value": 0.2551 }, "geometry": { "type": "Point", "coordinates": [ 129.348618, 35.488651, 225.0 ] } },
{ "type": "Feature", "properties": { "value": 0.1331 }, "geometry": { "type": "Point", "coordinates": [ 129.349731, 35.488647, 225.0 ] } },
{ "type": "Feature", "properties": { "value": 0.0627 }, "geometry": { "type": "Point", "coordinates": [ 129.35083, 35.488647, 225.0 ] } },
{ "type": "Feature", "properties": { "value": 0.0116 }, "geometry": { "type": "Point", "coordinates": [ 129.351929, 35.488644, 225.0 ] } },
{ "type": "Feature", "properties": { "value": 0.0041 }, "geometry": { "type": "Point", "coordinates": [ 129.375076, 35.488571, 225.0 ] } },
{ "type": "Feature", "properties": { "value": 0.0274 }, "geometry": { "type": "Point", "coordinates": [ 129.376175, 35.488571, 225.0 ] } },
{ "type": "Feature", "properties": { "value": 0.0366 }, "geometry": { "type": "Point", "coordinates": [ 129.377274, 35.488567, 225.0 ] } },
{ "type": "Feature", "properties": { "value": 0.0431 }, "geometry": { "type": "Point", "coordinates": [ 129.378372, 35.488564, 225.0 ] } },
{ "type": "Feature", "properties": { "value": 0.0451 }, "geometry": { "type": "Point", "coordinates": [ 129.379471, 35.48856, 225.0 ] } },
{ "type": "Feature", "properties": { "value": 0.0452 }, "geometry": { "type": "Point", "coordinates": [ 129.380585, 35.488556, 225.0 ] } },
{ "type": "Feature", "properties": { "value": 0.0432 }, "geometry": { "type": "Point", "coordinates": [ 129.381683, 35.488552, 225.0 ] } },
{ "type": "Feature", "properties": { "value": 0.0285 }, "geometry": { "type": "Point", "coordinates": [ 129.335403, 35.48959, 225.0 ] } },
{ "type": "Feature", "properties": { "value": 0.1789 }, "geometry": { "type": "Point", "coordinates": [ 129.336502, 35.48959, 225.0 ] } },
{ "type": "Feature", "properties": { "value": 0.5809 }, "geometry": { "type": "Point", "coordinates": [ 129.337601, 35.489586, 225.0 ] } },
{ "type": "Feature", "properties": { "value": 1.3654 }, "geometry": { "type": "Point", "coordinates": [ 129.338715, 35.489582, 225.0 ] } },
{ "type": "Feature", "properties": { "value": 2.4335 }, "geometry": { "type": "Point", "coordinates": [ 129.339813, 35.489578, 225.0 ] } },
{ "type": "Feature", "properties": { "value": 3.3622 }, "geometry": { "type": "Point", "coordinates": [ 129.340912, 35.489574, 225.0 ] } },
{ "type": "Feature", "properties": { "value": 3.7763 }, "geometry": { "type": "Point", "coordinates": [ 129.34201, 35.489571, 225.0 ] } },
{ "type": "Feature", "properties": { "value": 3.6277 }, "geometry": { "type": "Point", "coordinates": [ 129.343109, 35.489571, 225.0 ] } },
{ "type": "Feature", "properties": { "value": 3.0584 }, "geometry": { "type": "Point", "coordinates": [ 129.344223, 35.489567, 225.0 ] } },
{ "type": "Feature", "properties": { "value": 2.2947 }, "geometry": { "type": "Point", "coordinates": [ 129.345322, 35.489563, 225.0 ] } },
{ "type": "Feature", "properties": { "value": 1.5771 }, "geometry": { "type": "Point", "coordinates": [ 129.34642, 35.489559, 225.0 ] } },
{ "type": "Feature", "properties": { "value": 1.0162 }, "geometry": { "type": "Point", "coordinates": [ 129.347519, 35.489555, 225.0 ] } },
{ "type": "Feature", "properties": { "value": 0.6275 }, "geometry": { "type": "Point", "coordinates": [ 129.348633, 35.489555, 225.0 ] } },
{ "type": "Feature", "properties": { "value": 0.3768 }, "geometry": { "type": "Point", "coordinates": [ 129.349731, 35.489552, 225.0 ] } },
{ "type": "Feature", "properties": { "value": 0.2223 }, "geometry": { "type": "Point", "coordinates": [ 129.35083, 35.489548, 225.0 ] } },
{ "type": "Feature", "properties": { "value": 0.1266 }, "geometry": { "type": "Point", "coordinates": [ 129.351929, 35.489544, 225.0 ] } },
{ "type": "Feature", "properties": { "value": 0.0717 }, "geometry": { "type": "Point", "coordinates": [ 129.353027, 35.48954, 225.0 ] } },
{ "type": "Feature", "properties": { "value": 0.0314 }, "geometry": { "type": "Point", "coordinates": [ 129.354141, 35.489536, 225.0 ] } },
{ "type": "Feature", "properties": { "value": 0.024 }, "geometry": { "type": "Point", "coordinates": [ 129.372864, 35.489483, 225.0 ] } },
{ "type": "Feature", "properties": { "value": 0.0507 }, "geometry": { "type": "Point", "coordinates": [ 129.373978, 35.489479, 225.0 ] } },
{ "type": "Feature", "properties": { "value": 0.0667 }, "geometry": { "type": "Point", "coordinates": [ 129.375076, 35.489475, 225.0 ] } },
{ "type": "Feature", "properties": { "value": 0.08 }, "geometry": { "type": "Point", "coordinates": [ 129.376175, 35.489471, 225.0 ] } },
{ "type": "Feature", "properties": { "value": 0.0911 }, "geometry": { "type": "Point", "coordinates": [ 129.377274, 35.489468, 225.0 ] } },
{ "type": "Feature", "properties": { "value": 0.0992 }, "geometry": { "type": "Point", "coordinates": [ 129.378387, 35.489464, 225.0 ] } },
{ "type": "Feature", "properties": { "value": 0.1027 }, "geometry": { "type": "Point", "coordinates": [ 129.379486, 35.48946, 225.0 ] } },
{ "type": "Feature", "properties": { "value": 0.1006 }, "geometry": { "type": "Point", "coordinates": [ 129.380585, 35.489456, 225.0 ] } },
{ "type": "Feature", "properties": { "value": 0.0929 }, "geometry": { "type": "Point", "coordinates": [ 129.381683, 35.489452, 225.0 ] } },
{ "type": "Feature", "properties": { "value": 0.0732 }, "geometry": { "type": "Point", "coordinates": [ 129.336502, 35.49049, 225.0 ] } },
{ "type": "Feature", "properties": { "value": 0.2881 }, "geometry": { "type": "Point", "coordinates": [ 129.337616, 35.490486, 225.0 ] } },
{ "type": "Feature", "properties": { "value": 0.79 }, "geometry": { "type": "Point", "coordinates": [ 129.338715, 35.490482, 225.0 ] } },
{ "type": "Feature", "properties": { "value": 1.6358 }, "geometry": { "type": "Point", "coordinates": [ 129.339813, 35.490479, 225.0 ] } },
{ "type": "Feature", "properties": { "value": 2.621 }, "geometry": { "type": "Point", "coordinates": [ 129.340912, 35.490479, 225.0 ] } },
{ "type": "Feature", "properties": { "value": 3.4326 }, "geometry": { "type": "Point", "coordinates": [ 129.34201, 35.490475, 225.0 ] } },
{ "type": "Feature", "properties": { "value": 3.8349 }, "geometry": { "type": "Point", "coordinates": [ 129.343124, 35.490471, 225.0 ] } },
{ "type": "Feature", "properties": { "value": 3.7101 }, "geometry": { "type": "Point", "coordinates": [ 129.344223, 35.490467, 225.0 ] } },
{ "type": "Feature", "properties": { "value": 3.167 }, "geometry": { "type": "Point", "coordinates": [ 129.345322, 35.490463, 225.0 ] } },
{ "type": "Feature", "properties": { "value": 2.4477 }, "geometry": { "type": "Point", "coordinates": [ 129.34642, 35.490459, 225.0 ] } },
{ "type": "Feature", "properties": { "value": 1.7628 }, "geometry": { "type": "Point", "coordinates": [ 129.347534, 35.490459, 225.0 ] } },
{ "type": "Feature", "properties": { "value": 1.2237 }, "geometry": { "type": "Point", "coordinates": [ 129.348633, 35.490456, 225.0 ] } },
{ "type": "Feature", "properties": { "value": 0.83 }, "geometry": { "type": "Point", "coordinates": [ 129.349731, 35.490452, 225.0 ] } },
{ "type": "Feature", "properties": { "value": 0.5486 }, "geometry": { "type": "Point", "coordinates": [ 129.35083, 35.490448, 225.0 ] } },
{ "type": "Feature", "properties": { "value": 0.3587 }, "geometry": { "type": "Point", "coordinates": [ 129.351929, 35.490444, 225.0 ] } },
{ "type": "Feature", "properties": { "value": 0.2379 }, "geometry": { "type": "Point", "coordinates": [ 129.353043, 35.49044, 225.0 ] } },
{ "type": "Feature", "properties": { "value": 0.1575 }, "geometry": { "type": "Point", "coordinates": [ 129.354141, 35.49044, 225.0 ] } },
{ "type": "Feature", "properties": { "value": 0.105 }, "geometry": { "type": "Point", "coordinates": [ 129.35524, 35.490437, 225.0 ] } },
{ "type": "Feature", "properties": { "value": 0.0699 }, "geometry": { "type": "Point", "coordinates": [ 129.356339, 35.490433, 225.0 ] } },
{ "type": "Feature", "properties": { "value": 0.0459 }, "geometry": { "type": "Point", "coordinates": [ 129.357452, 35.490429, 225.0 ] } },
{ "type": "Feature", "properties": { "value": 0.026 }, "geometry": { "type": "Point", "coordinates": [ 129.358551, 35.490425, 225.0 ] } },
{ "type": "Feature", "properties": { "value": 0.0139 }, "geometry": { "type": "Point", "coordinates": [ 129.35965, 35.490421, 225.0 ] } },
{ "type": "Feature", "properties": { "value": 0.0029 }, "geometry": { "type": "Point", "coordinates": [ 129.360748, 35.490417, 225.0 ] } },
{ "type": "Feature", "properties": { "value": 0.0065 }, "geometry": { "type": "Point", "coordinates": [ 129.367371, 35.490398, 225.0 ] } },
{ "type": "Feature", "properties": { "value": 0.0177 }, "geometry": { "type": "Point", "coordinates": [ 129.368469, 35.490395, 225.0 ] } },
{ "type": "Feature", "properties": { "value": 0.0348 }, "geometry": { "type": "Point", "coordinates": [ 129.369568, 35.490391, 225.0 ] } },
{ "type": "Feature", "properties": { "value": 0.0538 }, "geometry": { "type": "Point", "coordinates": [ 129.370667, 35.490391, 225.0 ] } },
{ "type": "Feature", "properties": { "value": 0.0758 }, "geometry": { "type": "Point", "coordinates": [ 129.371765, 35.490387, 225.0 ] } },
{ "type": "Feature", "properties": { "value": 0.1028 }, "geometry": { "type": "Point", "coordinates": [ 129.372879, 35.490383, 225.0 ] } },
{ "type": "Feature", "properties": { "value": 0.127 }, "geometry": { "type": "Point", "coordinates": [ 129.373978, 35.490379, 225.0 ] } },
{ "type": "Feature", "properties": { "value": 0.1505 }, "geometry": { "type": "Point", "coordinates": [ 129.375076, 35.490376, 225.0 ] } },
{ "type": "Feature", "properties": { "value": 0.1728 }, "geometry": { "type": "Point", "coordinates": [ 129.376175, 35.490372, 225.0 ] } },
{ "type": "Feature", "properties": { "value": 0.1913 }, "geometry": { "type": "Point", "coordinates": [ 129.377289, 35.490368, 225.0 ] } },
{ "type": "Feature", "properties": { "value": 0.2034 }, "geometry": { "type": "Point", "coordinates": [ 129.378387, 35.490364, 225.0 ] } },
{ "type": "Feature", "properties": { "value": 0.2067 }, "geometry": { "type": "Point", "coordinates": [ 129.379486, 35.49036, 225.0 ] } },
{ "type": "Feature", "properties": { "value": 0.1992 }, "geometry": { "type": "Point", "coordinates": [ 129.380585, 35.490356, 225.0 ] } },
{ "type": "Feature", "properties": { "value": 0.1816 }, "geometry": { "type": "Point", "coordinates": [ 129.381683, 35.490356, 225.0 ] } },
{ "type": "Feature", "properties": { "value": 0.0029 }, "geometry": { "type": "Point", "coordinates": [ 129.336517, 35.49139, 225.0 ] } },
{ "type": "Feature", "properties": { "value": 0.1223 }, "geometry": { "type": "Point", "coordinates": [ 129.337616, 35.491386, 225.0 ] } },
{ "type": "Feature", "properties": { "value": 0.402 }, "geometry": { "type": "Point", "coordinates": [ 129.338715, 35.491383, 225.0 ] } },
{ "type": "Feature", "properties": { "value": 0.9591 }, "geometry": { "type": "Point", "coordinates": [ 129.339813, 35.491383, 225.0 ] } },
{ "type": "Feature", "properties": { "value": 1.7729 }, "geometry": { "type": "Point", "coordinates": [ 129.340927, 35.491379, 225.0 ] } },
{ "type": "Feature", "properties": { "value": 2.687 }, "geometry": { "type": "Point", "coordinates": [ 129.342026, 35.491375, 225.0 ] } },
{ "type": "Feature", "properties": { "value": 3.4462 }, "geometry": { "type": "Point", "coordinates": [ 129.343124, 35.491371, 225.0 ] } },
{ "type": "Feature", "properties": { "value": 3.8007 }, "geometry": { "type": "Point", "coordinates": [ 129.344223, 35.491367, 225.0 ] } },
{ "type": "Feature", "properties": { "value": 3.6735 }, "geometry": { "type": "Point", "coordinates": [ 129.345322, 35.491367, 225.0 ] } },
{ "type": "Feature", "properties": { "value": 3.1815 }, "geometry": { "type": "Point", "coordinates": [ 129.346436, 35.491364, 225.0 ] } },
{ "type": "Feature", "properties": { "value": 2.5595 }, "geometry": { "type": "Point", "coordinates": [ 129.347534, 35.49136, 225.0 ] } },
{ "type": "Feature", "properties": { "value": 1.9891 }, "geometry": { "type": "Point", "coordinates": [ 129.348633, 35.491356, 225.0 ] } },
{ "type": "Feature", "properties": { "value": 1.5078 }, "geometry": { "type": "Point", "coordinates": [ 129.349731, 35.491352, 225.0 ] } },
{ "type": "Feature", "properties": { "value": 1.1099 }, "geometry": { "type": "Point", "coordinates": [ 129.350845, 35.491348, 225.0 ] } },
{ "type": "Feature", "properties": { "value": 0.8004 }, "geometry": { "type": "Point", "coordinates": [ 129.351944, 35.491348, 225.0 ] } },
{ "type": "Feature", "properties": { "value": 0.5766 }, "geometry": { "type": "Point", "coordinates": [ 129.353043, 35.491344, 225.0 ] } },
{ "type": "Feature", "properties": { "value": 0.4141 }, "geometry": { "type": "Point", "coordinates": [ 129.354141, 35.491341, 225.0 ] } },
{ "type": "Feature", "properties": { "value": 0.3033 }, "geometry": { "type": "Point", "coordinates": [ 129.35524, 35.491337, 225.0 ] } },
{ "type": "Feature", "properties": { "value": 0.2249 }, "geometry": { "type": "Point", "coordinates": [ 129.356354, 35.491333, 225.0 ] } },
{ "type": "Feature", "properties": { "value": 0.1722 }, "geometry": { "type": "Point", "coordinates": [ 129.357452, 35.491329, 225.0 ] } },
{ "type": "Feature", "properties": { "value": 0.1352 }, "geometry": { "type": "Point", "coordinates": [ 129.358551, 35.491325, 225.0 ] } },
{ "type": "Feature", "properties": { "value": 0.1095 }, "geometry": { "type": "Point", "coordinates": [ 129.35965, 35.491325, 225.0 ] } },
{ "type": "Feature", "properties": { "value": 0.0918 }, "geometry": { "type": "Point", "coordinates": [ 129.360764, 35.491322, 225.0 ] } },
{ "type": "Feature", "properties": { "value": 0.0795 }, "geometry": { "type": "Point", "coordinates": [ 129.361862, 35.491318, 225.0 ] } },
{ "type": "Feature", "properties": { "value": 0.071 }, "geometry": { "type": "Point", "coordinates": [ 129.362961, 35.491314, 225.0 ] } },
{ "type": "Feature", "properties": { "value": 0.0667 }, "geometry": { "type": "Point", "coordinates": [ 129.364059, 35.49131, 225.0 ] } },
{ "type": "Feature", "properties": { "value": 0.0663 }, "geometry": { "type": "Point", "coordinates": [ 129.365158, 35.491306, 225.0 ] } },
{ "type": "Feature", "properties": { "value": 0.0716 }, "geometry": { "type": "Point", "coordinates": [ 129.366272, 35.491302, 225.0 ] } },
{ "type": "Feature", "properties": { "value": 0.0825 }, "geometry": { "type": "Point", "coordinates": [ 129.367371, 35.491299, 225.0 ] } },
{ "type": "Feature", "properties": { "value": 0.0988 }, "geometry": { "type": "Point", "coordinates": [ 129.368469, 35.491299, 225.0 ] } },
{ "type": "Feature", "properties": { "value": 0.1213 }, "geometry": { "type": "Point", "coordinates": [ 129.369568, 35.491295, 225.0 ] } },
{ "type": "Feature", "properties": { "value": 0.1486 }, "geometry": { "type": "Point", "coordinates": [ 129.370682, 35.491291, 225.0 ] } },
{ "type": "Feature", "properties": { "value": 0.1847 }, "geometry": { "type": "Point", "coordinates": [ 129.37178, 35.491287, 225.0 ] } },
{ "type": "Feature", "properties": { "value": 0.222 }, "geometry": { "type": "Point", "coordinates": [ 129.372879, 35.491283, 225.0 ] } },
{ "type": "Feature", "properties": { "value": 0.2615 }, "geometry": { "type": "Point", "coordinates": [ 129.373978, 35.49128, 225.0 ] } },
{ "type": "Feature", "properties": { "value": 0.3009 }, "geometry": { "type": "Point", "coordinates": [ 129.375076, 35.491276, 225.0 ] } },
{ "type": "Feature", "properties": { "value": 0.3338 }, "geometry": { "type": "Point", "coordinates": [ 129.37619, 35.491272, 225.0 ] } },
{ "type": "Feature", "properties": { "value": 0.3611 }, "geometry": { "type": "Point", "coordinates": [ 129.377289, 35.491268, 225.0 ] } },
{ "type": "Feature", "properties": { "value": 0.3764 }, "geometry": { "type": "Point", "coordinates": [ 129.378387, 35.491268, 225.0 ] } },
{ "type": "Feature", "properties": { "value": 0.376 }, "geometry": { "type": "Point", "coordinates": [ 129.379486, 35.491264, 225.0 ] } },
{ "type": "Feature", "properties": { "value": 0.3576 }, "geometry": { "type": "Point", "coordinates": [ 129.3806, 35.491261, 225.0 ] } },
{ "type": "Feature", "properties": { "value": 0.3225 }, "geometry": { "type": "Point", "coordinates": [ 129.381699, 35.491257, 225.0 ] } },
{ "type": "Feature", "properties": { "value": 0.0378 }, "geometry": { "type": "Point", "coordinates": [ 129.337616, 35.49229, 225.0 ] } },
{ "type": "Feature", "properties": { "value": 0.1752 }, "geometry": { "type": "Point", "coordinates": [ 129.338715, 35.492287, 225.0 ] } },
{ "type": "Feature", "properties": { "value": 0.4887 }, "geometry": { "type": "Point", "coordinates": [ 129.339828, 35.492283, 225.0 ] } },
{ "type": "Feature", "properties": { "value": 1.0488 }, "geometry": { "type": "Point", "coordinates": [ 129.340927, 35.492279, 225.0 ] } },
{ "type": "Feature", "properties": { "value": 1.8268 }, "geometry": { "type": "Point", "coordinates": [ 129.342026, 35.492275, 225.0 ] } },
{ "type": "Feature", "properties": { "value": 2.6725 }, "geometry": { "type": "Point", "coordinates": [ 129.343124, 35.492271, 225.0 ] } },
{ "type": "Feature", "properties": { "value": 3.3577 }, "geometry": { "type": "Point", "coordinates": [ 129.344223, 35.492271, 225.0 ] } },
{ "type": "Feature", "properties": { "value": 3.6802 }, "geometry": { "type": "Point", "coordinates": [ 129.345337, 35.492268, 225.0 ] } },
{ "type": "Feature", "properties": { "value": 3.5905 }, "geometry": { "type": "Point", "coordinates": [ 129.346436, 35.492264, 225.0 ] } },
{ "type": "Feature", "properties": { "value": 3.2414 }, "geometry": { "type": "Point", "coordinates": [ 129.347534, 35.49226, 225.0 ] } },
{ "type": "Feature", "properties": { "value": 2.805 }, "geometry": { "type": "Point", "coordinates": [ 129.348633, 35.492256, 225.0 ] } },
{ "type": "Feature", "properties": { "value": 2.3469 }, "geometry": { "type": "Point", "coordinates": [ 129.349747, 35.492252, 225.0 ] } },
{ "type": "Feature", "properties": { "value": 1.8965 }, "geometry": { "type": "Point", "coordinates": [ 129.350845, 35.492252, 225.0 ] } },
{ "type": "Feature", "properties": { "value": 1.4942 }, "geometry": { "type": "Point", "coordinates": [ 129.351944, 35.492249, 225.0 ] } },
{ "type": "Feature", "properties": { "value": 1.1576 }, "geometry": { "type": "Point", "coordinates": [ 129.353043, 35.492245, 225.0 ] } },
{ "type": "Feature", "properties": { "value": 0.8886 }, "geometry": { "type": "Point", "coordinates": [ 129.354141, 35.492241, 225.0 ] } },
{ "type": "Feature", "properties": { "value": 0.6852 }, "geometry": { "type": "Point", "coordinates": [ 129.355255, 35.492237, 225.0 ] } },
{ "type": "Feature", "properties": { "value": 0.5368 }, "geometry": { "type": "Point", "coordinates": [ 129.356354, 35.492233, 225.0 ] } },
{ "type": "Feature", "properties": { "value": 0.4283 }, "geometry": { "type": "Point", "coordinates": [ 129.357452, 35.492233, 225.0 ] } },
{ "type": "Feature", "properties": { "value": 0.3487 }, "geometry": { "type": "Point", "coordinates": [ 129.358551, 35.492229, 225.0 ] } },
{ "type": "Feature", "properties": { "value": 0.291 }, "geometry": { "type": "Point", "coordinates": [ 129.359665, 35.492226, 225.0 ] } },
{ "type": "Feature", "properties": { "value": 0.249 }, "geometry": { "type": "Point", "coordinates": [ 129.360764, 35.492222, 225.0 ] } },
{ "type": "Feature", "properties": { "value": 0.2201 }, "geometry": { "type": "Point", "coordinates": [ 129.361862, 35.492218, 225.0 ] } },
{ "type": "Feature", "properties": { "value": 0.1996 }, "geometry": { "type": "Point", "coordinates": [ 129.362961, 35.492214, 225.0 ] } },
{ "type": "Feature", "properties": { "value": 0.188 }, "geometry": { "type": "Point", "coordinates": [ 129.364059, 35.49221, 225.0 ] } },
{ "type": "Feature", "properties": { "value": 0.1872 }, "geometry": { "type": "Point", "coordinates": [ 129.365173, 35.49221, 225.0 ] } },
{ "type": "Feature", "properties": { "value": 0.1933 }, "geometry": { "type": "Point", "coordinates": [ 129.366272, 35.492207, 225.0 ] } },
{ "type": "Feature", "properties": { "value": 0.2094 }, "geometry": { "type": "Point", "coordinates": [ 129.367371, 35.492203, 225.0 ] } },
{ "type": "Feature", "properties": { "value": 0.2346 }, "geometry": { "type": "Point", "coordinates": [ 129.368469, 35.492199, 225.0 ] } },
{ "type": "Feature", "properties": { "value": 0.2709 }, "geometry": { "type": "Point", "coordinates": [ 129.369583, 35.492195, 225.0 ] } },
{ "type": "Feature", "properties": { "value": 0.3169 }, "geometry": { "type": "Point", "coordinates": [ 129.370682, 35.492191, 225.0 ] } },
{ "type": "Feature", "properties": { "value": 0.3704 }, "geometry": { "type": "Point", "coordinates": [ 129.37178, 35.492188, 225.0 ] } },
{ "type": "Feature", "properties": { "value": 0.4286 }, "geometry": { "type": "Point", "coordinates": [ 129.372879, 35.492184, 225.0 ] } },
{ "type": "Feature", "properties": { "value": 0.4871 }, "geometry": { "type": "Point", "coordinates": [ 129.373978, 35.49218, 225.0 ] } },
{ "type": "Feature", "properties": { "value": 0.5456 }, "geometry": { "type": "Point", "coordinates": [ 129.375092, 35.49218, 225.0 ] } },
{ "type": "Feature", "properties": { "value": 0.5938 }, "geometry": { "type": "Point", "coordinates": [ 129.37619, 35.492176, 225.0 ] } },
{ "type": "Feature", "properties": { "value": 0.6294 }, "geometry": { "type": "Point", "coordinates": [ 129.377289, 35.492172, 225.0 ] } },
{ "type": "Feature", "properties": { "value": 0.6435 }, "geometry": { "type": "Point", "coordinates": [ 129.378387, 35.492168, 225.0 ] } },
{ "type": "Feature", "properties": { "value": 0.63 }, "geometry": { "type": "Point", "coordinates": [ 129.379501, 35.492165, 225.0 ] } },
{ "type": "Feature", "properties": { "value": 0.5925 }, "geometry": { "type": "Point", "coordinates": [ 129.3806, 35.492161, 225.0 ] } },
{ "type": "Feature", "properties": { "value": 0.5309 }, "geometry": { "type": "Point", "coordinates": [ 129.381699, 35.492157, 225.0 ] } },
{ "type": "Feature", "properties": { "value": 0.0605 }, "geometry": { "type": "Point", "coordinates": [ 129.33873, 35.493187, 225.0 ] } },
{ "type": "Feature", "properties": { "value": 0.216 }, "geometry": { "type": "Point", "coordinates": [ 129.339828, 35.493183, 225.0 ] } },
{ "type": "Feature", "properties": { "value": 0.5398 }, "geometry": { "type": "Point", "coordinates": [ 129.340927, 35.493179, 225.0 ] } },
{ "type": "Feature", "properties": { "value": 1.0804 }, "geometry": { "type": "Point", "coordinates": [ 129.342026, 35.493179, 225.0 ] } },
{ "type": "Feature", "properties": { "value": 1.7956 }, "geometry": { "type": "Point", "coordinates": [ 129.343124, 35.493176, 225.0 ] } },
{ "type": "Feature", "properties": { "value": 2.5536 }, "geometry": { "type": "Point", "coordinates": [ 129.344238, 35.493172, 225.0 ] } },
{ "type": "Feature", "properties": { "value": 3.1681 }, "geometry": { "type": "Point", "coordinates": [ 129.345337, 35.493168, 225.0 ] } },
{ "type": "Feature", "properties": { "value": 3.501 }, "geometry": { "type": "Point", "coordinates": [ 129.346436, 35.493164, 225.0 ] } },
{ "type": "Feature", "properties": { "value": 3.5503 }, "geometry": { "type": "Point", "coordinates": [ 129.347534, 35.49316, 225.0 ] } },
{ "type": "Feature", "properties": { "value": 3.3984 }, "geometry": { "type": "Point", "coordinates": [ 129.348648, 35.49316, 225.0 ] } },
{ "type": "Feature", "properties": { "value": 3.115 }, "geometry": { "type": "Point", "coordinates": [ 129.349747, 35.493156, 225.0 ] } },
{ "type": "Feature", "properties": { "value": 2.7478 }, "geometry": { "type": "Point", "coordinates": [ 129.350845, 35.493153, 225.0 ] } },
{ "type": "Feature", "properties": { "value": 2.3509 }, "geometry": { "type": "Point", "coordinates": [ 129.351944, 35.493149, 225.0 ] } },
{ "type": "Feature", "properties": { "value": 1.9546 }, "geometry": { "type": "Point", "coordinates": [ 129.353043, 35.493145, 225.0 ] } },
{ "type": "Feature", "properties": { "value": 1.5948 }, "geometry": { "type": "Point", "coordinates": [ 129.354156, 35.493141, 225.0 ] } },
{ "type": "Feature", "properties": { "value": 1.2973 }, "geometry": { "type": "Point", "coordinates": [ 129.355255, 35.493141, 225.0 ] } },
{ "type": "Feature", "properties": { "value": 1.0625 }, "geometry": { "type": "Point", "coordinates": [ 129.356354, 35.493137, 225.0 ] } },
{ "type": "Feature", "properties": { "value": 0.88 }, "geometry": { "type": "Point", "coordinates": [ 129.357452, 35.493134, 225.0 ] } },
{ "type": "Feature", "properties": { "value": 0.7369 }, "geometry": { "type": "Point", "coordinates": [ 129.358566, 35.49313, 225.0 ] } },
{ "type": "Feature", "properties": { "value": 0.628 }, "geometry": { "type": "Point", "coordinates": [ 129.359665, 35.493126, 225.0 ] } },
{ "type": "Feature", "properties": { "value": 0.5449 }, "geometry": { "type": "Point", "coordinates": [ 129.360764, 35.493122, 225.0 ] } },
{ "type": "Feature", "properties": { "value": 0.4847 }, "geometry": { "type": "Point", "coordinates": [ 129.361862, 35.493118, 225.0 ] } },
{ "type": "Feature", "properties": { "value": 0.4439 }, "geometry": { "type": "Point", "coordinates": [ 129.362961, 35.493118, 225.0 ] } },
{ "type": "Feature", "properties": { "value": 0.4177 }, "geometry": { "type": "Point", "coordinates": [ 129.364075, 35.493114, 225.0 ] } },
{ "type": "Feature", "properties": { "value": 0.4096 }, "geometry": { "type": "Point", "coordinates": [ 129.365173, 35.493111, 225.0 ] } },
{ "type": "Feature", "properties": { "value": 0.4147 }, "geometry": { "type": "Point", "coordinates": [ 129.366272, 35.493107, 225.0 ] } },
{ "type": "Feature", "properties": { "value": 0.4357 }, "geometry": { "type": "Point", "coordinates": [ 129.367371, 35.493103, 225.0 ] } },
{ "type": "Feature", "properties": { "value": 0.473 }, "geometry": { "type": "Point", "coordinates": [ 129.368484, 35.493099, 225.0 ] } },
{ "type": "Feature", "properties": { "value": 0.5249 }, "geometry": { "type": "Point", "coordinates": [ 129.369583, 35.493095, 225.0 ] } },
{ "type": "Feature", "properties": { "value": 0.5946 }, "geometry": { "type": "Point", "coordinates": [ 129.370682, 35.493092, 225.0 ] } },
{ "type": "Feature", "properties": { "value": 0.671 }, "geometry": { "type": "Point", "coordinates": [ 129.37178, 35.493088, 225.0 ] } },
{ "type": "Feature", "properties": { "value": 0.7529 }, "geometry": { "type": "Point", "coordinates": [ 129.372894, 35.493088, 225.0 ] } },
{ "type": "Feature", "properties": { "value": 0.8364 }, "geometry": { "type": "Point", "coordinates": [ 129.373993, 35.493084, 225.0 ] } },
{ "type": "Feature", "properties": { "value": 0.912 }, "geometry": { "type": "Point", "coordinates": [ 129.375092, 35.49308, 225.0 ] } },
{ "type": "Feature", "properties": { "value": 0.9745 }, "geometry": { "type": "Point", "coordinates": [ 129.37619, 35.493076, 225.0 ] } },
{ "type": "Feature", "properties": { "value": 1.0106 }, "geometry": { "type": "Point", "coordinates": [ 129.377289, 35.493073, 225.0 ] } },
{ "type": "Feature", "properties": { "value": 1.0164 }, "geometry": { "type": "Point", "coordinates": [ 129.378403, 35.493069, 225.0 ] } },
{ "type": "Feature", "properties": { "value": 0.9829 }, "geometry": { "type": "Point", "coordinates": [ 129.379501, 35.493065, 225.0 ] } },
{ "type": "Feature", "properties": { "value": 0.9105 }, "geometry": { "type": "Point", "coordinates": [ 129.3806, 35.493061, 225.0 ] } },
{ "type": "Feature", "properties": { "value": 0.8067 }, "geometry": { "type": "Point", "coordinates": [ 129.381699, 35.493057, 225.0 ] } },
{ "type": "Feature", "properties": { "value": 0.0792 }, "geometry": { "type": "Point", "coordinates": [ 129.339828, 35.494083, 225.0 ] } },
{ "type": "Feature", "properties": { "value": 0.2433 }, "geometry": { "type": "Point", "coordinates": [ 129.340927, 35.494083, 225.0 ] } },
{ "type": "Feature", "properties": { "value": 0.5569 }, "geometry": { "type": "Point", "coordinates": [ 129.342026, 35.49408, 225.0 ] } },
{ "type": "Feature", "properties": { "value": 1.0494 }, "geometry": { "type": "Point", "coordinates": [ 129.34314, 35.494076, 225.0 ] } },
{ "type": "Feature", "properties": { "value": 1.6781 }, "geometry": { "type": "Point", "coordinates": [ 129.344238, 35.494072, 225.0 ] } },
{ "type": "Feature", "properties": { "value": 2.3408 }, "geometry": { "type": "Point", "coordinates": [ 129.345337, 35.494068, 225.0 ] } },
{ "type": "Feature", "properties": { "value": 2.9118 }, "geometry": { "type": "Point", "coordinates": [ 129.346436, 35.494068, 225.0 ] } },
{ "type": "Feature", "properties": { "value": 3.3009 }, "geometry": { "type": "Point", "coordinates": [ 129.347549, 35.494064, 225.0 ] } },
{ "type": "Feature", "properties": { "value": 3.4953 }, "geometry": { "type": "Point", "coordinates": [ 129.348648, 35.494061, 225.0 ] } },
{ "type": "Feature", "properties": { "value": 3.5231 }, "geometry": { "type": "Point", "coordinates": [ 129.349747, 35.494057, 225.0 ] } },
{ "type": "Feature", "properties": { "value": 3.3882 }, "geometry": { "type": "Point", "coordinates": [ 129.350845, 35.494053, 225.0 ] } },
{ "type": "Feature", "properties": { "value": 3.1241 }, "geometry": { "type": "Point", "coordinates": [ 129.351959, 35.494049, 225.0 ] } },
{ "type": "Feature", "properties": { "value": 2.7913 }, "geometry": { "type": "Point", "coordinates": [ 129.353058, 35.494049, 225.0 ] } },
{ "type": "Feature", "properties": { "value": 2.431 }, "geometry": { "type": "Point", "coordinates": [ 129.354156, 35.494045, 225.0 ] } },
{ "type": "Feature", "properties": { "value": 2.0879 }, "geometry": { "type": "Point", "coordinates": [ 129.355255, 35.494041, 225.0 ] } },
{ "type": "Feature", "properties": { "value": 1.7891 }, "geometry": { "type": "Point", "coordinates": [ 129.356354, 35.494038, 225.0 ] } },
{ "type": "Feature", "properties": { "value": 1.5376 }, "geometry": { "type": "Point", "coordinates": [ 129.357468, 35.494034, 225.0 ] } },
{ "type": "Feature", "properties": { "value": 1.3285 }, "geometry": { "type": "Point", "coordinates": [ 129.358566, 35.49403, 225.0 ] } },
{ "type": "Feature", "properties": { "value": 1.158 }, "geometry": { "type": "Point", "coordinates": [ 129.359665, 35.494026, 225.0 ] } },
{ "type": "Feature", "properties": { "value": 1.0224 }, "geometry": { "type": "Point", "coordinates": [ 129.360764, 35.494026, 225.0 ] } },
{ "type": "Feature", "properties": { "value": 0.9199 }, "geometry": { "type": "Point", "coordinates": [ 129.361877, 35.494022, 225.0 ] } },
{ "type": "Feature", "properties": { "value": 0.8486 }, "geometry": { "type": "Point", "coordinates": [ 129.362976, 35.494019, 225.0 ] } },
{ "type": "Feature", "properties": { "value": 0.7995 }, "geometry": { "type": "Point", "coordinates": [ 129.364075, 35.494015, 225.0 ] } },
{ "type": "Feature", "properties": { "value": 0.7746 }, "geometry": { "type": "Point", "coordinates": [ 129.365173, 35.494011, 225.0 ] } },
{ "type": "Feature", "properties": { "value": 0.7746 }, "geometry": { "type": "Point", "coordinates": [ 129.366272, 35.494007, 225.0 ] } },
{ "type": "Feature", "properties": { "value": 0.798 }, "geometry": { "type": "Point", "coordinates": [ 129.367386, 35.494003, 225.0 ] } },
{ "type": "Feature", "properties": { "value": 0.8468 }, "geometry": { "type": "Point", "coordinates": [ 129.368484, 35.493999, 225.0 ] } },
{ "type": "Feature", "properties": { "value": 0.9189 }, "geometry": { "type": "Point", "coordinates": [ 129.369583, 35.493999, 225.0 ] } },
{ "type": "Feature", "properties": { "value": 1.009 }, "geometry": { "type": "Point", "coordinates": [ 129.370682, 35.493996, 225.0 ] } },
{ "type": "Feature", "properties": { "value": 1.1094 }, "geometry": { "type": "Point", "coordinates": [ 129.371796, 35.493992, 225.0 ] } },
{ "type": "Feature", "properties": { "value": 1.2176 }, "geometry": { "type": "Point", "coordinates": [ 129.372894, 35.493988, 225.0 ] } },
{ "type": "Feature", "properties": { "value": 1.3204 }, "geometry": { "type": "Point", "coordinates": [ 129.373993, 35.493984, 225.0 ] } },
{ "type": "Feature", "properties": { "value": 1.411 }, "geometry": { "type": "Point", "coordinates": [ 129.375092, 35.49398, 225.0 ] } },
{ "type": "Feature", "properties": { "value": 1.4761 }, "geometry": { "type": "Point", "coordinates": [ 129.37619, 35.493977, 225.0 ] } },
{ "type": "Feature", "properties": { "value": 1.5048 }, "geometry": { "type": "Point", "coordinates": [ 129.377304, 35.493973, 225.0 ] } },
{ "type": "Feature", "properties": { "value": 1.4882 }, "geometry": { "type": "Point", "coordinates": [ 129.378403, 35.493969, 225.0 ] } },
{ "type": "Feature", "properties": { "value": 1.4196 }, "geometry": { "type": "Point", "coordinates": [ 129.379501, 35.493965, 225.0 ] } },
{ "type": "Feature", "properties": { "value": 1.2993 }, "geometry": { "type": "Point", "coordinates": [ 129.3806, 35.493965, 225.0 ] } },
{ "type": "Feature", "properties": { "value": 1.1385 }, "geometry": { "type": "Point", "coordinates": [ 129.381714, 35.493961, 225.0 ] } },
{ "type": "Feature", "properties": { "value": 0.0921 }, "geometry": { "type": "Point", "coordinates": [ 129.340942, 35.494984, 225.0 ] } },
{ "type": "Feature", "properties": { "value": 0.249 }, "geometry": { "type": "Point", "coordinates": [ 129.342041, 35.49498, 225.0 ] } },
{ "type": "Feature", "properties": { "value": 0.5397 }, "geometry": { "type": "Point", "coordinates": [ 129.34314, 35.494976, 225.0 ] } },
{ "type": "Feature", "properties": { "value": 0.9685 }, "geometry": { "type": "Point", "coordinates": [ 129.344238, 35.494972, 225.0 ] } },
{ "type": "Feature", "properties": { "value": 1.508 }, "geometry": { "type": "Point", "coordinates": [ 129.345337, 35.494972, 225.0 ] } },
{ "type": "Feature", "properties": { "value": 2.0929 }, "geometry": { "type": "Point", "coordinates": [ 129.346451, 35.494968, 225.0 ] } },
{ "type": "Feature", "properties": { "value": 2.6396 }, "geometry": { "type": "Point", "coordinates": [ 129.347549, 35.494965, 225.0 ] } },
{ "type": "Feature", "properties": { "value": 3.0815 }, "geometry": { "type": "Point", "coordinates": [ 129.348648, 35.494961, 225.0 ] } },
{ "type": "Feature", "properties": { "value": 3.4017 }, "geometry": { "type": "Point", "coordinates": [ 129.349747, 35.494957, 225.0 ] } },
{ "type": "Feature", "properties": { "value": 3.5709 }, "geometry": { "type": "Point", "coordinates": [ 129.350861, 35.494953, 225.0 ] } },
{ "type": "Feature", "properties": { "value": 3.5576 }, "geometry": { "type": "Point", "coordinates": [ 129.351959, 35.494953, 225.0 ] } },
{ "type": "Feature", "properties": { "value": 3.4107 }, "geometry": { "type": "Point", "coordinates": [ 129.353058, 35.494949, 225.0 ] } },
{ "type": "Feature", "properties": { "value": 3.1703 }, "geometry": { "type": "Point", "coordinates": [ 129.354156, 35.494946, 225.0 ] } },
{ "type": "Feature", "properties": { "value": 2.8804 }, "geometry": { "type": "Point", "coordinates": [ 129.355255, 35.494942, 225.0 ] } },
{ "type": "Feature", "properties": { "value": 2.5896 }, "geometry": { "type": "Point", "coordinates": [ 129.356369, 35.494938, 225.0 ] } },
{ "type": "Feature", "properties": { "value": 2.3166 }, "geometry": { "type": "Point", "coordinates": [ 129.357468, 35.494934, 225.0 ] } },
{ "type": "Feature", "properties": { "value": 2.0693 }, "geometry": { "type": "Point", "coordinates": [ 129.358566, 35.494934, 225.0 ] } },
{ "type": "Feature", "properties": { "value": 1.8532 }, "geometry": { "type": "Point", "coordinates": [ 129.359665, 35.49493, 225.0 ] } },
{ "type": "Feature", "properties": { "value": 1.6725 }, "geometry": { "type": "Point", "coordinates": [ 129.360779, 35.494926, 225.0 ] } },
{ "type": "Feature", "properties": { "value": 1.5282 }, "geometry": { "type": "Point", "coordinates": [ 129.361877, 35.494923, 225.0 ] } },
{ "type": "Feature", "properties": { "value": 1.4175 }, "geometry": { "type": "Point", "coordinates": [ 129.362976, 35.494919, 225.0 ] } },
{ "type": "Feature", "properties": { "value": 1.3397 }, "geometry": { "type": "Point", "coordinates": [ 129.364075, 35.494915, 225.0 ] } },
{ "type": "Feature", "properties": { "value": 1.2952 }, "geometry": { "type": "Point", "coordinates": [ 129.365173, 35.494911, 225.0 ] } },
{ "type": "Feature", "properties": { "value": 1.2837 }, "geometry": { "type": "Point", "coordinates": [ 129.366287, 35.494907, 225.0 ] } },
{ "type": "Feature", "properties": { "value": 1.306 }, "geometry": { "type": "Point", "coordinates": [ 129.367386, 35.494907, 225.0 ] } },
{ "type": "Feature", "properties": { "value": 1.3621 }, "geometry": { "type": "Point", "coordinates": [ 129.368484, 35.494904, 225.0 ] } },
{ "type": "Feature", "properties": { "value": 1.4499 }, "geometry": { "type": "Point", "coordinates": [ 129.369583, 35.4949, 225.0 ] } },
{ "type": "Feature", "properties": { "value": 1.5587 }, "geometry": { "type": "Point", "coordinates": [ 129.370697, 35.494896, 225.0 ] } },
{ "type": "Feature", "properties": { "value": 1.6793 }, "geometry": { "type": "Point", "coordinates": [ 129.371796, 35.494892, 225.0 ] } },
{ "type": "Feature", "properties": { "value": 1.8051 }, "geometry": { "type": "Point", "coordinates": [ 129.372894, 35.494888, 225.0 ] } },
{ "type": "Feature", "properties": { "value": 1.9194 }, "geometry": { "type": "Point", "coordinates": [ 129.373993, 35.494884, 225.0 ] } },
{ "type": "Feature", "properties": { "value": 2.0113 }, "geometry": { "type": "Point", "coordinates": [ 129.375107, 35.494881, 225.0 ] } },
{ "type": "Feature", "properties": { "value": 2.0672 }, "geometry": { "type": "Point", "coordinates": [ 129.376205, 35.494877, 225.0 ] } },
{ "type": "Feature", "properties": { "value": 2.0722 }, "geometry": { "type": "Point", "coordinates": [ 129.377304, 35.494877, 225.0 ] } },
{ "type": "Feature", "properties": { "value": 2.0193 }, "geometry": { "type": "Point", "coordinates": [ 129.378403, 35.494873, 225.0 ] } },
{ "type": "Feature", "properties": { "value": 1.9006 }, "geometry": { "type": "Point", "coordinates": [ 129.379501, 35.494869, 225.0 ] } },
{ "type": "Feature", "properties": { "value": 1.7205 }, "geometry": { "type": "Point", "coordinates": [ 129.380615, 35.494865, 225.0 ] } },
{ "type": "Feature", "properties": { "value": 1.491 }, "geometry": { "type": "Point", "coordinates": [ 129.381714, 35.494862, 225.0 ] } },
{ "type": "Feature", "properties": { "value": 0.0065 }, "geometry": { "type": "Point", "coordinates": [ 129.340942, 35.495884, 225.0 ] } },
{ "type": "Feature", "properties": { "value": 0.0939 }, "geometry": { "type": "Point", "coordinates": [ 129.342041, 35.49588, 225.0 ] } },
{ "type": "Feature", "properties": { "value": 0.2432 }, "geometry": { "type": "Point", "coordinates": [ 129.34314, 35.49588, 225.0 ] } },
{ "type": "Feature", "properties": { "value": 0.4926 }, "geometry": { "type": "Point", "coordinates": [ 129.344238, 35.495876, 225.0 ] } },
{ "type": "Feature", "properties": { "value": 0.8522 }, "geometry": { "type": "Point", "coordinates": [ 129.345352, 35.495872, 225.0 ] } },
{ "type": "Feature", "properties": { "value": 1.3137 }, "geometry": { "type": "Point", "coordinates": [ 129.346451, 35.495869, 225.0 ] } },
{ "type": "Feature", "properties": { "value": 1.8377 }, "geometry": { "type": "Point", "coordinates": [ 129.347549, 35.495865, 225.0 ] } },
{ "type": "Feature", "properties": { "value": 2.3551 }, "geometry": { "type": "Point", "coordinates": [ 129.348648, 35.495861, 225.0 ] } },
{ "type": "Feature", "properties": { "value": 2.8258 }, "geometry": { "type": "Point", "coordinates": [ 129.349762, 35.495861, 225.0 ] } },
{ "type": "Feature", "properties": { "value": 3.2239 }, "geometry": { "type": "Point", "coordinates": [ 129.350861, 35.495857, 225.0 ] } },
{ "type": "Feature", "properties": { "value": 3.486 }, "geometry": { "type": "Point", "coordinates": [ 129.351959, 35.495853, 225.0 ] } },
{ "type": "Feature", "properties": { "value": 3.5898 }, "geometry": { "type": "Point", "coordinates": [ 129.353058, 35.49585, 225.0 ] } },
{ "type": "Feature", "properties": { "value": 3.5562 }, "geometry": { "type": "Point", "coordinates": [ 129.354156, 35.495846, 225.0 ] } },
{ "type": "Feature", "properties": { "value": 3.4201 }, "geometry": { "type": "Point", "coordinates": [ 129.35527, 35.495842, 225.0 ] } },
{ "type": "Feature", "properties": { "value": 3.232 }, "geometry": { "type": "Point", "coordinates": [ 129.356369, 35.495838, 225.0 ] } },
{ "type": "Feature", "properties": { "value": 3.0172 }, "geometry": { "type": "Point", "coordinates": [ 129.357468, 35.495838, 225.0 ] } },
{ "type": "Feature", "properties": { "value": 2.7957 }, "geometry": { "type": "Point", "coordinates": [ 129.358566, 35.495834, 225.0 ] } },
{ "type": "Feature", "properties": { "value": 2.5812 }, "geometry": { "type": "Point", "coordinates": [ 129.35968, 35.495831, 225.0 ] } },
{ "type": "Feature", "properties": { "value": 2.3869 }, "geometry": { "type": "Point", "coordinates": [ 129.360779, 35.495827, 225.0 ] } },
{ "type": "Feature", "properties": { "value": 2.2209 }, "geometry": { "type": "Point", "coordinates": [ 129.361877, 35.495823, 225.0 ] } },
{ "type": "Feature", "properties": { "value": 2.0842 }, "geometry": { "type": "Point", "coordinates": [ 129.362976, 35.495819, 225.0 ] } },
{ "type": "Feature", "properties": { "value": 1.9817 }, "geometry": { "type": "Point", "coordinates": [ 129.36409, 35.495815, 225.0 ] } },
{ "type": "Feature", "properties": { "value": 1.9172 }, "geometry": { "type": "Point", "coordinates": [ 129.365189, 35.495815, 225.0 ] } },
{ "type": "Feature", "properties": { "value": 1.8973 }, "geometry": { "type": "Point", "coordinates": [ 129.366287, 35.495811, 225.0 ] } },
{ "type": "Feature", "properties": { "value": 1.9153 }, "geometry": { "type": "Point", "coordinates": [ 129.367386, 35.495808, 225.0 ] } },
{ "type": "Feature", "properties": { "value": 1.975 }, "geometry": { "type": "Point", "coordinates": [ 129.368484, 35.495804, 225.0 ] } },
{ "type": "Feature", "properties": { "value": 2.0708 }, "geometry": { "type": "Point", "coordinates": [ 129.369598, 35.4958, 225.0 ] } },
{ "type": "Feature", "properties": { "value": 2.1913 }, "geometry": { "type": "Point", "coordinates": [ 129.370697, 35.495796, 225.0 ] } },
{ "type": "Feature", "properties": { "value": 2.3225 }, "geometry": { "type": "Point", "coordinates": [ 129.371796, 35.495792, 225.0 ] } },
{ "type": "Feature", "properties": { "value": 2.452 }, "geometry": { "type": "Point", "coordinates": [ 129.372894, 35.495789, 225.0 ] } },
{ "type": "Feature", "properties": { "value": 2.5644 }, "geometry": { "type": "Point", "coordinates": [ 129.374008, 35.495785, 225.0 ] } },
{ "type": "Feature", "properties": { "value": 2.6418 }, "geometry": { "type": "Point", "coordinates": [ 129.375107, 35.495785, 225.0 ] } },
{ "type": "Feature", "properties": { "value": 2.6717 }, "geometry": { "type": "Point", "coordinates": [ 129.376205, 35.495781, 225.0 ] } },
{ "type": "Feature", "properties": { "value": 2.6393 }, "geometry": { "type": "Point", "coordinates": [ 129.377304, 35.495777, 225.0 ] } },
{ "type": "Feature", "properties": { "value": 2.5353 }, "geometry": { "type": "Point", "coordinates": [ 129.378403, 35.495773, 225.0 ] } },
{ "type": "Feature", "properties": { "value": 2.3577 }, "geometry": { "type": "Point", "coordinates": [ 129.379517, 35.49577, 225.0 ] } },
{ "type": "Feature", "properties": { "value": 2.1114 }, "geometry": { "type": "Point", "coordinates": [ 129.380615, 35.495766, 225.0 ] } },
{ "type": "Feature", "properties": { "value": 1.8119 }, "geometry": { "type": "Point", "coordinates": [ 129.381714, 35.495762, 225.0 ] } },
{ "type": "Feature", "properties": { "value": 0.0176 }, "geometry": { "type": "Point", "coordinates": [ 129.342041, 35.496784, 225.0 ] } },
{ "type": "Feature", "properties": { "value": 0.0912 }, "geometry": { "type": "Point", "coordinates": [ 129.34314, 35.49678, 225.0 ] } },
{ "type": "Feature", "properties": { "value": 0.218 }, "geometry": { "type": "Point", "coordinates": [ 129.344254, 35.496777, 225.0 ] } },
{ "type": "Feature", "properties": { "value": 0.4243 }, "geometry": { "type": "Point", "coordinates": [ 129.345352, 35.496773, 225.0 ] } },
{ "type": "Feature", "properties": { "value": 0.7215 }, "geometry": { "type": "Point", "coordinates": [ 129.346451, 35.496769, 225.0 ] } },
{ "type": "Feature", "properties": { "value": 1.1147 }, "geometry": { "type": "Point", "coordinates": [ 129.347549, 35.496765, 225.0 ] } },
{ "type": "Feature", "properties": { "value": 1.565 }, "geometry": { "type": "Point", "coordinates": [ 129.348663, 35.496765, 225.0 ] } },
{ "type": "Feature", "properties": { "value": 2.0404 }, "geometry": { "type": "Point", "coordinates": [ 129.349762, 35.496761, 225.0 ] } },
{ "type": "Feature", "properties": { "value": 2.5165 }, "geometry": { "type": "Point", "coordinates": [ 129.350861, 35.496758, 225.0 ] } },
{ "type": "Feature", "properties": { "value": 2.9488 }, "geometry": { "type": "Point", "coordinates": [ 129.351959, 35.496754, 225.0 ] } },
{ "type": "Feature", "properties": { "value": 3.2638 }, "geometry": { "type": "Point", "coordinates": [ 129.353073, 35.49675, 225.0 ] } },
{ "type": "Feature", "properties": { "value": 3.4446 }, "geometry": { "type": "Point", "coordinates": [ 129.354172, 35.496746, 225.0 ] } },
{ "type": "Feature", "properties": { "value": 3.5116 }, "geometry": { "type": "Point", "coordinates": [ 129.35527, 35.496746, 225.0 ] } },
{ "type": "Feature", "properties": { "value": 3.493 }, "geometry": { "type": "Point", "coordinates": [ 129.356369, 35.496742, 225.0 ] } },
{ "type": "Feature", "properties": { "value": 3.4141 }, "geometry": { "type": "Point", "coordinates": [ 129.357468, 35.496738, 225.0 ] } },
{ "type": "Feature", "properties": { "value": 3.2896 }, "geometry": { "type": "Point", "coordinates": [ 129.358582, 35.496735, 225.0 ] } },
{ "type": "Feature", "properties": { "value": 3.1395 }, "geometry": { "type": "Point", "coordinates": [ 129.35968, 35.496731, 225.0 ] } },
{ "type": "Feature", "properties": { "value": 2.9824 }, "geometry": { "type": "Point", "coordinates": [ 129.360779, 35.496727, 225.0 ] } },
{ "type": "Feature", "properties": { "value": 2.8327 }, "geometry": { "type": "Point", "coordinates": [ 129.361877, 35.496723, 225.0 ] } },
{ "type": "Feature", "properties": { "value": 2.6996 }, "geometry": { "type": "Point", "coordinates": [ 129.362991, 35.496723, 225.0 ] } },
{ "type": "Feature", "properties": { "value": 2.5959 }, "geometry": { "type": "Point", "coordinates": [ 129.36409, 35.496719, 225.0 ] } },
{ "type": "Feature", "properties": { "value": 2.529 }, "geometry": { "type": "Point", "coordinates": [ 129.365189, 35.496716, 225.0 ] } },
{ "type": "Feature", "properties": { "value": 2.5018 }, "geometry": { "type": "Point", "coordinates": [ 129.366287, 35.496712, 225.0 ] } },
{ "type": "Feature", "properties": { "value": 2.5185 }, "geometry": { "type": "Point", "coordinates": [ 129.367386, 35.496708, 225.0 ] } },
{ "type": "Feature", "properties": { "value": 2.5795 }, "geometry": { "type": "Point", "coordinates": [ 129.3685, 35.496704, 225.0 ] } },
{ "type": "Feature", "properties": { "value": 2.6785 }, "geometry": { "type": "Point", "coordinates": [ 129.369598, 35.4967, 225.0 ] } },
{ "type": "Feature", "properties": { "value": 2.8001 }, "geometry": { "type": "Point", "coordinates": [ 129.370697, 35.496696, 225.0 ] } },
{ "type": "Feature", "properties": { "value": 2.9287 }, "geometry": { "type": "Point", "coordinates": [ 129.371796, 35.496696, 225.0 ] } },
{ "type": "Feature", "properties": { "value": 3.0497 }, "geometry": { "type": "Point", "coordinates": [ 129.37291, 35.496693, 225.0 ] } },
{ "type": "Feature", "properties": { "value": 3.1423 }, "geometry": { "type": "Point", "coordinates": [ 129.374008, 35.496689, 225.0 ] } },
{ "type": "Feature", "properties": { "value": 3.1924 }, "geometry": { "type": "Point", "coordinates": [ 129.375107, 35.496685, 225.0 ] } },
{ "type": "Feature", "properties": { "value": 3.183 }, "geometry": { "type": "Point", "coordinates": [ 129.376205, 35.496681, 225.0 ] } },
{ "type": "Feature", "properties": { "value": 3.1026 }, "geometry": { "type": "Point", "coordinates": [ 129.377319, 35.496677, 225.0 ] } },
{ "type": "Feature", "properties": { "value": 2.9444 }, "geometry": { "type": "Point", "coordinates": [ 129.378418, 35.496674, 225.0 ] } },
{ "type": "Feature", "properties": { "value": 2.7068 }, "geometry": { "type": "Point", "coordinates": [ 129.379517, 35.49667, 225.0 ] } },
{ "type": "Feature", "properties": { "value": 2.4004 }, "geometry": { "type": "Point", "coordinates": [ 129.380615, 35.496666, 225.0 ] } },
{ "type": "Feature", "properties": { "value": 2.0426 }, "geometry": { "type": "Point", "coordinates": [ 129.381714, 35.496662, 225.0 ] } },
{ "type": "Feature", "properties": { "value": 0.0169 }, "geometry": { "type": "Point", "coordinates": [ 129.343155, 35.497681, 225.0 ] } },
{ "type": "Feature", "properties": { "value": 0.0798 }, "geometry": { "type": "Point", "coordinates": [ 129.344254, 35.497677, 225.0 ] } },
{ "type": "Feature", "properties": { "value": 0.1808 }, "geometry": { "type": "Point", "coordinates": [ 129.345352, 35.497673, 225.0 ] } },
{ "type": "Feature", "properties": { "value": 0.3462 }, "geometry": { "type": "Point", "coordinates": [ 129.346451, 35.497673, 225.0 ] } },
{ "type": "Feature", "properties": { "value": 0.5887 }, "geometry": { "type": "Point", "coordinates": [ 129.347565, 35.497669, 225.0 ] } },
{ "type": "Feature", "properties": { "value": 0.9068 }, "geometry": { "type": "Point", "coordinates": [ 129.348663, 35.497665, 225.0 ] } },
{ "type": "Feature", "properties": { "value": 1.293 }, "geometry": { "type": "Point", "coordinates": [ 129.349762, 35.497662, 225.0 ] } },
{ "type": "Feature", "properties": { "value": 1.7252 }, "geometry": { "type": "Point", "coordinates": [ 129.350861, 35.497658, 225.0 ] } },
{ "type": "Feature", "properties": { "value": 2.1702 }, "geometry": { "type": "Point", "coordinates": [ 129.351974, 35.497654, 225.0 ] } },
{ "type": "Feature", "properties": { "value": 2.5645 }, "geometry": { "type": "Point", "coordinates": [ 129.353073, 35.497654, 225.0 ] } },
{ "type": "Feature", "properties": { "value": 2.8834 }, "geometry": { "type": "Point", "coordinates": [ 129.354172, 35.49765, 225.0 ] } },
{ "type": "Feature", "properties": { "value": 3.1202 }, "geometry": { "type": "Point", "coordinates": [ 129.35527, 35.497646, 225.0 ] } },
{ "type": "Feature", "properties": { "value": 3.2786 }, "geometry": { "type": "Point", "coordinates": [ 129.356369, 35.497643, 225.0 ] } },
{ "type": "Feature", "properties": { "value": 3.3654 }, "geometry": { "type": "Point", "coordinates": [ 129.357483, 35.497639, 225.0 ] } },
{ "type": "Feature", "properties": { "value": 3.3811 }, "geometry": { "type": "Point", "coordinates": [ 129.358582, 35.497635, 225.0 ] } },
{ "type": "Feature", "properties": { "value": 3.3422 }, "geometry": { "type": "Point", "coordinates": [ 129.35968, 35.497631, 225.0 ] } },
{ "type": "Feature", "properties": { "value": 3.2691 }, "geometry": { "type": "Point", "coordinates": [ 129.360779, 35.497631, 225.0 ] } },
{ "type": "Feature", "properties": { "value": 3.18 }, "geometry": { "type": "Point", "coordinates": [ 129.361893, 35.497627, 225.0 ] } },
{ "type": "Feature", "properties": { "value": 3.0926 }, "geometry": { "type": "Point", "coordinates": [ 129.362991, 35.497623, 225.0 ] } },
{ "type": "Feature", "properties": { "value": 3.0159 }, "geometry": { "type": "Point", "coordinates": [ 129.36409, 35.49762, 225.0 ] } },
{ "type": "Feature", "properties": { "value": 2.9651 }, "geometry": { "type": "Point", "coordinates": [ 129.365189, 35.497616, 225.0 ] } },
{ "type": "Feature", "properties": { "value": 2.9487 }, "geometry": { "type": "Point", "coordinates": [ 129.366302, 35.497612, 225.0 ] } },
{ "type": "Feature", "properties": { "value": 2.9721 }, "geometry": { "type": "Point", "coordinates": [ 129.367401, 35.497608, 225.0 ] } },
{ "type": "Feature", "properties": { "value": 3.0359 }, "geometry": { "type": "Point", "coordinates": [ 129.3685, 35.497604, 225.0 ] } },
{ "type": "Feature", "properties": { "value": 3.1329 }, "geometry": { "type": "Point", "coordinates": [ 129.369598, 35.497604, 225.0 ] } },
{ "type": "Feature", "properties": { "value": 3.2494 }, "geometry": { "type": "Point", "coordinates": [ 129.370697, 35.497601, 225.0 ] } },
{ "type": "Feature", "properties": { "value": 3.3661 }, "geometry": { "type": "Point", "coordinates": [ 129.371811, 35.497597, 225.0 ] } },
{ "type": "Feature", "properties": { "value": 3.4656 }, "geometry": { "type": "Point", "coordinates": [ 129.37291, 35.497593, 225.0 ] } },
{ "type": "Feature", "properties": { "value": 3.5302 }, "geometry": { "type": "Point", "coordinates": [ 129.374008, 35.497589, 225.0 ] } },
{ "type": "Feature", "properties": { "value": 3.544 }, "geometry": { "type": "Point", "coordinates": [ 129.375107, 35.497585, 225.0 ] } },
{ "type": "Feature", "properties": { "value": 3.4917 }, "geometry": { "type": "Point", "coordinates": [ 129.376221, 35.497581, 225.0 ] } },
{ "type": "Feature", "properties": { "value": 3.3651 }, "geometry": { "type": "Point", "coordinates": [ 129.377319, 35.497578, 225.0 ] } },
{ "type": "Feature", "properties": { "value": 3.1575 }, "geometry": { "type": "Point", "coordinates": [ 129.378418, 35.497574, 225.0 ] } },
{ "type": "Feature", "properties": { "value": 2.8751 }, "geometry": { "type": "Point", "coordinates": [ 129.379517, 35.497574, 225.0 ] } },
{ "type": "Feature", "properties": { "value": 2.5265 }, "geometry": { "type": "Point", "coordinates": [ 129.380615, 35.49757, 225.0 ] } },
{ "type": "Feature", "properties": { "value": 2.1334 }, "geometry": { "type": "Point", "coordinates": [ 129.381729, 35.497566, 225.0 ] } },
{ "type": "Feature", "properties": { "value": 0.061 }, "geometry": { "type": "Point", "coordinates": [ 129.345352, 35.498577, 225.0 ] } },
{ "type": "Feature", "properties": { "value": 0.1419 }, "geometry": { "type": "Point", "coordinates": [ 129.346466, 35.498573, 225.0 ] } },
{ "type": "Feature", "properties": { "value": 0.2705 }, "geometry": { "type": "Point", "coordinates": [ 129.347565, 35.498569, 225.0 ] } },
{ "type": "Feature", "properties": { "value": 0.4602 }, "geometry": { "type": "Point", "coordinates": [ 129.348663, 35.498566, 225.0 ] } },
{ "type": "Feature", "properties": { "value": 0.7183 }, "geometry": { "type": "Point", "coordinates": [ 129.349762, 35.498562, 225.0 ] } },
{ "type": "Feature", "properties": { "value": 1.0398 }, "geometry": { "type": "Point", "coordinates": [ 129.350876, 35.498562, 225.0 ] } },
{ "type": "Feature", "properties": { "value": 1.3976 }, "geometry": { "type": "Point", "coordinates": [ 129.351974, 35.498558, 225.0 ] } },
{ "type": "Feature", "properties": { "value": 1.762 }, "geometry": { "type": "Point", "coordinates": [ 129.353073, 35.498554, 225.0 ] } },
{ "type": "Feature", "properties": { "value": 2.1117 }, "geometry": { "type": "Point", "coordinates": [ 129.354172, 35.49855, 225.0 ] } },
{ "type": "Feature", "properties": { "value": 2.4291 }, "geometry": { "type": "Point", "coordinates": [ 129.35527, 35.498547, 225.0 ] } },
{ "type": "Feature", "properties": { "value": 2.6974 }, "geometry": { "type": "Point", "coordinates": [ 129.356384, 35.498543, 225.0 ] } },
{ "type": "Feature", "properties": { "value": 2.9089 }, "geometry": { "type": "Point", "coordinates": [ 129.357483, 35.498539, 225.0 ] } },
{ "type": "Feature", "properties": { "value": 3.0483 }, "geometry": { "type": "Point", "coordinates": [ 129.358582, 35.498539, 225.0 ] } },
{ "type": "Feature", "properties": { "value": 3.1258 }, "geometry": { "type": "Point", "coordinates": [ 129.35968, 35.498535, 225.0 ] } },
{ "type": "Feature", "properties": { "value": 3.1556 }, "geometry": { "type": "Point", "coordinates": [ 129.360794, 35.498531, 225.0 ] } },
{ "type": "Feature", "properties": { "value": 3.1547 }, "geometry": { "type": "Point", "coordinates": [ 129.361893, 35.498528, 225.0 ] } },
{ "type": "Feature", "properties": { "value": 3.1341 }, "geometry": { "type": "Point", "coordinates": [ 129.362991, 35.498524, 225.0 ] } },
{ "type": "Feature", "properties": { "value": 3.1107 }, "geometry": { "type": "Point", "coordinates": [ 129.36409, 35.49852, 225.0 ] } },
{ "type": "Feature", "properties": { "value": 3.0963 }, "geometry": { "type": "Point", "coordinates": [ 129.365204, 35.498516, 225.0 ] } },
{ "type": "Feature", "properties": { "value": 3.1058 }, "geometry": { "type": "Point", "coordinates": [ 129.366302, 35.498512, 225.0 ] } },
{ "type": "Feature", "properties": { "value": 3.1458 }, "geometry": { "type": "Point", "coordinates": [ 129.367401, 35.498512, 225.0 ] } },
{ "type": "Feature", "properties": { "value": 3.2158 }, "geometry": { "type": "Point", "coordinates": [ 129.3685, 35.498508, 225.0 ] } },
{ "type": "Feature", "properties": { "value": 3.3132 }, "geometry": { "type": "Point", "coordinates": [ 129.369598, 35.498505, 225.0 ] } },
{ "type": "Feature", "properties": { "value": 3.4205 }, "geometry": { "type": "Point", "coordinates": [ 129.370712, 35.498501, 225.0 ] } },
{ "type": "Feature", "properties": { "value": 3.5204 }, "geometry": { "type": "Point", "coordinates": [ 129.371811, 35.498497, 225.0 ] } },
{ "type": "Feature", "properties": { "value": 3.5959 }, "geometry": { "type": "Point", "coordinates": [ 129.37291, 35.498493, 225.0 ] } },
{ "type": "Feature", "properties": { "value": 3.6305 }, "geometry": { "type": "Point", "coordinates": [ 129.374008, 35.498489, 225.0 ] } },
{ "type": "Feature", "properties": { "value": 3.6103 }, "geometry": { "type": "Point", "coordinates": [ 129.375122, 35.498486, 225.0 ] } },
{ "type": "Feature", "properties": { "value": 3.5224 }, "geometry": { "type": "Point", "coordinates": [ 129.376221, 35.498482, 225.0 ] } },
{ "type": "Feature", "properties": { "value": 3.3618 }, "geometry": { "type": "Point", "coordinates": [ 129.377319, 35.498482, 225.0 ] } },
{ "type": "Feature", "properties": { "value": 3.126 }, "geometry": { "type": "Point", "coordinates": [ 129.378418, 35.498478, 225.0 ] } },
{ "type": "Feature", "properties": { "value": 2.8215 }, "geometry": { "type": "Point", "coordinates": [ 129.379532, 35.498474, 225.0 ] } },
{ "type": "Feature", "properties": { "value": 2.4598 }, "geometry": { "type": "Point", "coordinates": [ 129.38063, 35.49847, 225.0 ] } },
{ "type": "Feature", "properties": { "value": 2.0629 }, "geometry": { "type": "Point", "coordinates": [ 129.381729, 35.498466, 225.0 ] } },
{ "type": "Feature", "properties": { "value": 0.0411 }, "geometry": { "type": "Point", "coordinates": [ 129.346466, 35.499474, 225.0 ] } },
{ "type": "Feature", "properties": { "value": 0.1039 }, "geometry": { "type": "Point", "coordinates": [ 129.347565, 35.49947, 225.0 ] } },
{ "type": "Feature", "properties": { "value": 0.2017 }, "geometry": { "type": "Point", "coordinates": [ 129.348663, 35.499466, 225.0 ] } },
{ "type": "Feature", "properties": { "value": 0.3482 }, "geometry": { "type": "Point", "coordinates": [ 129.349777, 35.499466, 225.0 ] } },
{ "type": "Feature", "properties": { "value": 0.5444 }, "geometry": { "type": "Point", "coordinates": [ 129.350876, 35.499462, 225.0 ] } },
{ "type": "Feature", "properties": { "value": 0.7886 }, "geometry": { "type": "Point", "coordinates": [ 129.351974, 35.499458, 225.0 ] } },
{ "type": "Feature", "properties": { "value": 1.0663 }, "geometry": { "type": "Point", "coordinates": [ 129.353073, 35.499454, 225.0 ] } },
{ "type": "Feature", "properties": { "value": 1.3655 }, "geometry": { "type": "Point", "coordinates": [ 129.354187, 35.499451, 225.0 ] } },
{ "type": "Feature", "properties": { "value": 1.6661 }, "geometry": { "type": "Point", "coordinates": [ 129.355286, 35.499447, 225.0 ] } },
{ "type": "Feature", "properties": { "value": 1.9537 }, "geometry": { "type": "Point", "coordinates": [ 129.356384, 35.499447, 225.0 ] } },
{ "type": "Feature", "properties": { "value": 2.2085 }, "geometry": { "type": "Point", "coordinates": [ 129.357483, 35.499443, 225.0 ] } },
{ "type": "Feature", "properties": { "value": 2.415 }, "geometry": { "type": "Point", "coordinates": [ 129.358582, 35.499439, 225.0 ] } },
{ "type": "Feature", "properties": { "value": 2.5734 }, "geometry": { "type": "Point", "coordinates": [ 129.359695, 35.499435, 225.0 ] } },
{ "type": "Feature", "properties": { "value": 2.6889 }, "geometry": { "type": "Point", "coordinates": [ 129.360794, 35.499432, 225.0 ] } },
{ "type": "Feature", "properties": { "value": 2.7646 }, "geometry": { "type": "Point", "coordinates": [ 129.361893, 35.499428, 225.0 ] } },
{ "type": "Feature", "properties": { "value": 2.8163 }, "geometry": { "type": "Point", "coordinates": [ 129.362991, 35.499424, 225.0 ] } },
{ "type": "Feature", "properties": { "value": 2.8505 }, "geometry": { "type": "Point", "coordinates": [ 129.364105, 35.499424, 225.0 ] } },
{ "type": "Feature", "properties": { "value": 2.8851 }, "geometry": { "type": "Point", "coordinates": [ 129.365204, 35.49942, 225.0 ] } },
{ "type": "Feature", "properties": { "value": 2.9269 }, "geometry": { "type": "Point", "coordinates": [ 129.366302, 35.499416, 225.0 ] } },
{ "type": "Feature", "properties": { "value": 2.9878 }, "geometry": { "type": "Point", "coordinates": [ 129.367401, 35.499413, 225.0 ] } },
{ "type": "Feature", "properties": { "value": 3.0688 }, "geometry": { "type": "Point", "coordinates": [ 129.368515, 35.499409, 225.0 ] } },
{ "type": "Feature", "properties": { "value": 3.1662 }, "geometry": { "type": "Point", "coordinates": [ 129.369614, 35.499405, 225.0 ] } },
{ "type": "Feature", "properties": { "value": 3.265 }, "geometry": { "type": "Point", "coordinates": [ 129.370712, 35.499401, 225.0 ] } },
{ "type": "Feature", "properties": { "value": 3.3477 }, "geometry": { "type": "Point", "coordinates": [ 129.371811, 35.499397, 225.0 ] } },
{ "type": "Feature", "properties": { "value": 3.4038 }, "geometry": { "type": "Point", "coordinates": [ 129.37291, 35.499393, 225.0 ] } },
{ "type": "Feature", "properties": { "value": 3.4151 }, "geometry": { "type": "Point", "coordinates": [ 129.374023, 35.499393, 225.0 ] } },
{ "type": "Feature", "properties": { "value": 3.372 }, "geometry": { "type": "Point", "coordinates": [ 129.375122, 35.49939, 225.0 ] } },
{ "type": "Feature", "properties": { "value": 3.2651 }, "geometry": { "type": "Point", "coordinates": [ 129.376221, 35.499386, 225.0 ] } },
{ "type": "Feature", "properties": { "value": 3.0923 }, "geometry": { "type": "Point", "coordinates": [ 129.377319, 35.499382, 225.0 ] } },
{ "type": "Feature", "properties": { "value": 2.8536 }, "geometry": { "type": "Point", "coordinates": [ 129.378433, 35.499378, 225.0 ] } },
{ "type": "Feature", "properties": { "value": 2.5567 }, "geometry": { "type": "Point", "coordinates": [ 129.379532, 35.499374, 225.0 ] } },
{ "type": "Feature", "properties": { "value": 2.2143 }, "geometry": { "type": "Point", "coordinates": [ 129.38063, 35.499371, 225.0 ] } },
{ "type": "Feature", "properties": { "value": 1.846 }, "geometry": { "type": "Point", "coordinates": [ 129.381729, 35.499367, 225.0 ] } },
{ "type": "Feature", "properties": { "value": 0.0218 }, "geometry": { "type": "Point", "coordinates": [ 129.347565, 35.500374, 225.0 ] } },
{ "type": "Feature", "properties": { "value": 0.0697 }, "geometry": { "type": "Point", "coordinates": [ 129.348679, 35.50037, 225.0 ] } },
{ "type": "Feature", "properties": { "value": 0.1438 }, "geometry": { "type": "Point", "coordinates": [ 129.349777, 35.500366, 225.0 ] } },
{ "type": "Feature", "properties": { "value": 0.2483 }, "geometry": { "type": "Point", "coordinates": [ 129.350876, 35.500362, 225.0 ] } },
{ "type": "Feature", "properties": { "value": 0.3893 }, "geometry": { "type": "Point", "coordinates": [ 129.351974, 35.500359, 225.0 ] } },
{ "type": "Feature", "properties": { "value": 0.5688 }, "geometry": { "type": "Point", "coordinates": [ 129.353088, 35.500355, 225.0 ] } },
{ "type": "Feature", "properties": { "value": 0.7769 }, "geometry": { "type": "Point", "coordinates": [ 129.354187, 35.500355, 225.0 ] } },
{ "type": "Feature", "properties": { "value": 1.0062 }, "geometry": { "type": "Point", "coordinates": [ 129.355286, 35.500351, 225.0 ] } },
{ "type": "Feature", "properties": { "value": 1.2462 }, "geometry": { "type": "Point", "coordinates": [ 129.356384, 35.500347, 225.0 ] } },
{ "type": "Feature", "properties": { "value": 1.4776 }, "geometry": { "type": "Point", "coordinates": [ 129.357483, 35.500343, 225.0 ] } },
{ "type": "Feature", "properties": { "value": 1.687 }, "geometry": { "type": "Point", "coordinates": [ 129.358597, 35.50034, 225.0 ] } },
{ "type": "Feature", "properties": { "value": 1.871 }, "geometry": { "type": "Point", "coordinates": [ 129.359695, 35.500336, 225.0 ] } },
{ "type": "Feature", "properties": { "value": 2.0242 }, "geometry": { "type": "Point", "coordinates": [ 129.360794, 35.500332, 225.0 ] } },
{ "type": "Feature", "properties": { "value": 2.147 }, "geometry": { "type": "Point", "coordinates": [ 129.361893, 35.500332, 225.0 ] } },
{ "type": "Feature", "properties": { "value": 2.2455 }, "geometry": { "type": "Point", "coordinates": [ 129.363007, 35.500328, 225.0 ] } },
{ "type": "Feature", "properties": { "value": 2.3252 }, "geometry": { "type": "Point", "coordinates": [ 129.364105, 35.500324, 225.0 ] } },
{ "type": "Feature", "properties": { "value": 2.3975 }, "geometry": { "type": "Point", "coordinates": [ 129.365204, 35.50032, 225.0 ] } },
{ "type": "Feature", "properties": { "value": 2.4704 }, "geometry": { "type": "Point", "coordinates": [ 129.366302, 35.500317, 225.0 ] } },
{ "type": "Feature", "properties": { "value": 2.5492 }, "geometry": { "type": "Point", "coordinates": [ 129.367416, 35.500313, 225.0 ] } },
{ "type": "Feature", "properties": { "value": 2.6383 }, "geometry": { "type": "Point", "coordinates": [ 129.368515, 35.500309, 225.0 ] } },
{ "type": "Feature", "properties": { "value": 2.7329 }, "geometry": { "type": "Point", "coordinates": [ 129.369614, 35.500305, 225.0 ] } },
{ "type": "Feature", "properties": { "value": 2.8246 }, "geometry": { "type": "Point", "coordinates": [ 129.370712, 35.500301, 225.0 ] } },
{ "type": "Feature", "properties": { "value": 2.8956 }, "geometry": { "type": "Point", "coordinates": [ 129.371811, 35.500301, 225.0 ] } },
{ "type": "Feature", "properties": { "value": 2.9374 }, "geometry": { "type": "Point", "coordinates": [ 129.372925, 35.500298, 225.0 ] } },
{ "type": "Feature", "properties": { "value": 2.9364 }, "geometry": { "type": "Point", "coordinates": [ 129.374023, 35.500294, 225.0 ] } },
{ "type": "Feature", "properties": { "value": 2.8849 }, "geometry": { "type": "Point", "coordinates": [ 129.375122, 35.50029, 225.0 ] } },
{ "type": "Feature", "properties": { "value": 2.7792 }, "geometry": { "type": "Point", "coordinates": [ 129.376221, 35.500286, 225.0 ] } },
{ "type": "Feature", "properties": { "value": 2.6155 }, "geometry": { "type": "Point", "coordinates": [ 129.377335, 35.500282, 225.0 ] } },
{ "type": "Feature", "properties": { "value": 2.3997 }, "geometry": { "type": "Point", "coordinates": [ 129.378433, 35.500278, 225.0 ] } },
{ "type": "Feature", "properties": { "value": 2.1378 }, "geometry": { "type": "Point", "coordinates": [ 129.379532, 35.500275, 225.0 ] } },
{ "type": "Feature", "properties": { "value": 1.8413 }, "geometry": { "type": "Point", "coordinates": [ 129.38063, 35.500271, 225.0 ] } },
{ "type": "Feature", "properties": { "value": 1.5272 }, "geometry": { "type": "Point", "coordinates": [ 129.381744, 35.500267, 225.0 ] } },
{ "type": "Feature", "properties": { "value": 0.0417 }, "geometry": { "type": "Point", "coordinates": [ 129.349777, 35.501266, 225.0 ] } },
{ "type": "Feature", "properties": { "value": 0.0942 }, "geometry": { "type": "Point", "coordinates": [ 129.350876, 35.501263, 225.0 ] } },
{ "type": "Feature", "properties": { "value": 0.1669 }, "geometry": { "type": "Point", "coordinates": [ 129.35199, 35.501259, 225.0 ] } },
{ "type": "Feature", "properties": { "value": 0.2642 }, "geometry": { "type": "Point", "coordinates": [ 129.353088, 35.501259, 225.0 ] } },
{ "type": "Feature", "properties": { "value": 0.3874 }, "geometry": { "type": "Point", "coordinates": [ 129.354187, 35.501255, 225.0 ] } },
{ "type": "Feature", "properties": { "value": 0.5341 }, "geometry": { "type": "Point", "coordinates": [ 129.355286, 35.501251, 225.0 ] } },
{ "type": "Feature", "properties": { "value": 0.6976 }, "geometry": { "type": "Point", "coordinates": [ 129.3564, 35.501247, 225.0 ] } },
{ "type": "Feature", "properties": { "value": 0.8699 }, "geometry": { "type": "Point", "coordinates": [ 129.357498, 35.501244, 225.0 ] } },
{ "type": "Feature", "properties": { "value": 1.0386 }, "geometry": { "type": "Point", "coordinates": [ 129.358597, 35.50124, 225.0 ] } },
{ "type": "Feature", "properties": { "value": 1.1986 }, "geometry": { "type": "Point", "coordinates": [ 129.359695, 35.50124, 225.0 ] } },
{ "type": "Feature", "properties": { "value": 1.347 }, "geometry": { "type": "Point", "coordinates": [ 129.360794, 35.501236, 225.0 ] } },
{ "type": "Feature", "properties": { "value": 1.4778 }, "geometry": { "type": "Point", "coordinates": [ 129.361908, 35.501232, 225.0 ] } },
{ "type": "Feature", "properties": { "value": 1.593 }, "geometry": { "type": "Point", "coordinates": [ 129.363007, 35.501228, 225.0 ] } },
{ "type": "Feature", "properties": { "value": 1.6924 }, "geometry": { "type": "Point", "coordinates": [ 129.364105, 35.501225, 225.0 ] } },
{ "type": "Feature", "properties": { "value": 1.7799 }, "geometry": { "type": "Point", "coordinates": [ 129.365204, 35.501221, 225.0 ] } },
{ "type": "Feature", "properties": { "value": 1.8665 }, "geometry": { "type": "Point", "coordinates": [ 129.366318, 35.501217, 225.0 ] } },
{ "type": "Feature", "properties": { "value": 1.9527 }, "geometry": { "type": "Point", "coordinates": [ 129.367416, 35.501213, 225.0 ] } },
{ "type": "Feature", "properties": { "value": 2.0424 }, "geometry": { "type": "Point", "coordinates": [ 129.368515, 35.501213, 225.0 ] } },
{ "type": "Feature", "properties": { "value": 2.1317 }, "geometry": { "type": "Point", "coordinates": [ 129.369614, 35.501209, 225.0 ] } },
{ "type": "Feature", "properties": { "value": 2.2128 }, "geometry": { "type": "Point", "coordinates": [ 129.370728, 35.501205, 225.0 ] } },
{ "type": "Feature", "properties": { "value": 2.276 }, "geometry": { "type": "Point", "coordinates": [ 129.371826, 35.501202, 225.0 ] } },
{ "type": "Feature", "properties": { "value": 2.3091 }, "geometry": { "type": "Point", "coordinates": [ 129.372925, 35.501198, 225.0 ] } },
{ "type": "Feature", "properties": { "value": 2.3061 }, "geometry": { "type": "Point", "coordinates": [ 129.374023, 35.501194, 225.0 ] } },
{ "type": "Feature", "properties": { "value": 2.2603 }, "geometry": { "type": "Point", "coordinates": [ 129.375122, 35.50119, 225.0 ] } },
{ "type": "Feature", "properties": { "value": 2.1702 }, "geometry": { "type": "Point", "coordinates": [ 129.376236, 35.501186, 225.0 ] } },
{ "type": "Feature", "properties": { "value": 2.0349 }, "geometry": { "type": "Point", "coordinates": [ 129.377335, 35.501183, 225.0 ] } },
{ "type": "Feature", "properties": { "value": 1.8586 }, "geometry": { "type": "Point", "coordinates": [ 129.378433, 35.501179, 225.0 ] } },
{ "type": "Feature", "properties": { "value": 1.6486 }, "geometry": { "type": "Point", "coordinates": [ 129.379532, 35.501179, 225.0 ] } },
{ "type": "Feature", "properties": { "value": 1.4145 }, "geometry": { "type": "Point", "coordinates": [ 129.380646, 35.501175, 225.0 ] } },
{ "type": "Feature", "properties": { "value": 1.1681 }, "geometry": { "type": "Point", "coordinates": [ 129.381744, 35.501171, 225.0 ] } }
]
}
