{
"type": "FeatureCollection",
"features": [
{ "type": "Feature", "properties": { "value": 0.0 }, "geometry": { "type": "Point", "coordinates": [ 129.326462, 35.458069, 115.0 ] } },
{ "type": "Feature", "properties": { "value": 0.0 }, "geometry": { "type": "Point", "coordinates": [ 129.32756, 35.458069, 115.0 ] } },
{ "type": "Feature", "properties": { "value": 0.0036 }, "geometry": { "type": "Point", "coordinates": [ 129.326462, 35.458973, 115.0 ] } },
{ "type": "Feature", "properties": { "value": 0.0008 }, "geometry": { "type": "Point", "coordinates": [ 129.32756, 35.458969, 115.0 ] } },
{ "type": "Feature", "properties": { "value": 0.2515 }, "geometry": { "type": "Point", "coordinates": [ 129.326462, 35.459873, 115.0 ] } },
{ "type": "Feature", "properties": { "value": 0.0829 }, "geometry": { "type": "Point", "coordinates": [ 129.32756, 35.459869, 115.0 ] } },
{ "type": "Feature", "properties": { "value": 0.1617 }, "geometry": { "type": "Point", "coordinates": [ 129.325363, 35.460777, 115.0 ] } },
{ "type": "Feature", "properties": { "value": 3.0048 }, "geometry": { "type": "Point", "coordinates": [ 129.326477, 35.460773, 115.0 ] } },
{ "type": "Feature", "properties": { "value": 1.0229 }, "geometry": { "type": "Point", "coordinates": [ 129.327576, 35.46077, 115.0 ] } },
{ "type": "Feature", "properties": { "value": 0.953 }, "geometry": { "type": "Point", "coordinates": [ 129.325378, 35.461678, 115.0 ] } },
{ "type": "Feature", "properties": { "value": 7.6002 }, "geometry": { "type": "Point", "coordinates": [ 129.326477, 35.461674, 115.0 ] } },
{ "type": "Feature", "properties": { "value": 2.7805 }, "geometry": { "type": "Point", "coordinates": [ 129.327576, 35.461674, 115.0 ] } },
{ "type": "Feature", "properties": { "value": 0.127 }, "geometry": { "type": "Point", "coordinates": [ 129.328674, 35.46167, 115.0 ] } },
{ "type": "Feature", "properties": { "value": 0.069 }, "geometry": { "type": "Point", "coordinates": [ 129.32428, 35.462582, 115.0 ] } },
{ "type": "Feature", "properties": { "value": 2.3913 }, "geometry": { "type": "Point", "coordinates": [ 129.325378, 35.462578, 115.0 ] } },
{ "type": "Feature", "properties": { "value": 10.525 }, "geometry": { "type": "Point", "coordinates": [ 129.326477, 35.462578, 115.0 ] } },
{ "type": "Feature", "properties": { "value": 4.2736 }, "geometry": { "type": "Point", "coordinates": [ 129.327576, 35.462574, 115.0 ] } },
{ "type": "Feature", "properties": { "value": 0.4034 }, "geometry": { "type": "Point", "coordinates": [ 129.328674, 35.46257, 115.0 ] } },
{ "type": "Feature", "properties": { "value": 0.4094 }, "geometry": { "type": "Point", "coordinates": [ 129.32428, 35.463486, 115.0 ] } },
{ "type": "Feature", "properties": { "value": 4.3124 }, "geometry": { "type": "Point", "coordinates": [ 129.325378, 35.463482, 115.0 ] } },
{ "type": "Feature", "properties": { "value": 11.274 }, "geometry": { "type": "Point", "coordinates": [ 129.326477, 35.463478, 115.0 ] } },
{ "type": "Feature", "properties": { "value": 5.4969 }, "geometry": { "type": "Point", "coordinates": [ 129.327576, 35.463474, 115.0 ] } },
{ "type": "Feature", "properties": { "value": 0.7112 }, "geometry": { "type": "Point", "coordinates": [ 129.32869, 35.46347, 115.0 ] } },
{ "type": "Feature", "properties": { "value": 1.1192 }, "geometry": { "type": "Point", "coordinates": [ 129.32428, 35.464386, 115.0 ] } },
{ "type": "Feature", "properties": { "value": 6.4373 }, "geometry": { "type": "Point", "coordinates": [ 129.325378, 35.464382, 115.0 ] } },
{ "type": "Feature", "properties": { "value": 11.887 }, "geometry": { "type": "Point", "coordinates": [ 129.326477, 35.464378, 115.0 ] } },
{ "type": "Feature", "properties": { "value": 6.5104 }, "geometry": { "type": "Point", "coordinates": [ 129.327591, 35.464375, 115.0 ] } },
{ "type": "Feature", "properties": { "value": 1.0743 }, "geometry": { "type": "Point", "coordinates": [ 129.32869, 35.464375, 115.0 ] } },
{ "type": "Feature", "properties": { "value": 0.1922 }, "geometry": { "type": "Point", "coordinates": [ 129.323181, 35.46529, 115.0 ] } },
{ "type": "Feature", "properties": { "value": 2.1795 }, "geometry": { "type": "Point", "coordinates": [ 129.32428, 35.465286, 115.0 ] } },
{ "type": "Feature", "properties": { "value": 8.6408 }, "geometry": { "type": "Point", "coordinates": [ 129.325394, 35.465282, 115.0 ] } },
{ "type": "Feature", "properties": { "value": 13.331 }, "geometry": { "type": "Point", "coordinates": [ 129.326492, 35.465279, 115.0 ] } },
{ "type": "Feature", "properties": { "value": 7.4988 }, "geometry": { "type": "Point", "coordinates": [ 129.327591, 35.465279, 115.0 ] } },
{ "type": "Feature", "properties": { "value": 1.5708 }, "geometry": { "type": "Point", "coordinates": [ 129.32869, 35.465275, 115.0 ] } },
{ "type": "Feature", "properties": { "value": 0.5659 }, "geometry": { "type": "Point", "coordinates": [ 129.323181, 35.46619, 115.0 ] } },
{ "type": "Feature", "properties": { "value": 3.4646 }, "geometry": { "type": "Point", "coordinates": [ 129.324295, 35.466187, 115.0 ] } },
{ "type": "Feature", "properties": { "value": 10.432 }, "geometry": { "type": "Point", "coordinates": [ 129.325394, 35.466187, 115.0 ] } },
{ "type": "Feature", "properties": { "value": 14.178 }, "geometry": { "type": "Point", "coordinates": [ 129.326492, 35.466183, 115.0 ] } },
{ "type": "Feature", "properties": { "value": 8.0546 }, "geometry": { "type": "Point", "coordinates": [ 129.327591, 35.466179, 115.0 ] } },
{ "type": "Feature", "properties": { "value": 2.0538 }, "geometry": { "type": "Point", "coordinates": [ 129.32869, 35.466175, 115.0 ] } },
{ "type": "Feature", "properties": { "value": 0.1742 }, "geometry": { "type": "Point", "coordinates": [ 129.329803, 35.466171, 115.0 ] } },
{ "type": "Feature", "properties": { "value": 0.0624 }, "geometry": { "type": "Point", "coordinates": [ 129.322083, 35.467094, 115.0 ] } },
{ "type": "Feature", "properties": { "value": 1.1033 }, "geometry": { "type": "Point", "coordinates": [ 129.323196, 35.467091, 115.0 ] } },
{ "type": "Feature", "properties": { "value": 4.8383 }, "geometry": { "type": "Point", "coordinates": [ 129.324295, 35.467091, 115.0 ] } },
{ "type": "Feature", "properties": { "value": 11.533 }, "geometry": { "type": "Point", "coordinates": [ 129.325394, 35.467087, 115.0 ] } },
{ "type": "Feature", "properties": { "value": 14.019 }, "geometry": { "type": "Point", "coordinates": [ 129.326492, 35.467083, 115.0 ] } },
{ "type": "Feature", "properties": { "value": 8.1309 }, "geometry": { "type": "Point", "coordinates": [ 129.327591, 35.467079, 115.0 ] } },
{ "type": "Feature", "properties": { "value": 2.3459 }, "geometry": { "type": "Point", "coordinates": [ 129.328705, 35.467075, 115.0 ] } },
{ "type": "Feature", "properties": { "value": 0.2983 }, "geometry": { "type": "Point", "coordinates": [ 129.329803, 35.467075, 115.0 ] } },
{ "type": "Feature", "properties": { "value": 0.2902 }, "geometry": { "type": "Point", "coordinates": [ 129.322098, 35.467995, 115.0 ] } },
{ "type": "Feature", "properties": { "value": 1.8046 }, "geometry": { "type": "Point", "coordinates": [ 129.323196, 35.467995, 115.0 ] } },
{ "type": "Feature", "properties": { "value": 6.1019 }, "geometry": { "type": "Point", "coordinates": [ 129.324295, 35.467991, 115.0 ] } },
{ "type": "Feature", "properties": { "value": 11.941 }, "geometry": { "type": "Point", "coordinates": [ 129.325394, 35.467987, 115.0 ] } },
{ "type": "Feature", "properties": { "value": 13.229 }, "geometry": { "type": "Point", "coordinates": [ 129.326492, 35.467983, 115.0 ] } },
{ "type": "Feature", "properties": { "value": 7.9251 }, "geometry": { "type": "Point", "coordinates": [ 129.327606, 35.467983, 115.0 ] } },
{ "type": "Feature", "properties": { "value": 2.5457 }, "geometry": { "type": "Point", "coordinates": [ 129.328705, 35.467979, 115.0 ] } },
{ "type": "Feature", "properties": { "value": 0.4072 }, "geometry": { "type": "Point", "coordinates": [ 129.329803, 35.467976, 115.0 ] } },
{ "type": "Feature", "properties": { "value": 0.602 }, "geometry": { "type": "Point", "coordinates": [ 129.322098, 35.468899, 115.0 ] } },
{ "type": "Feature", "properties": { "value": 2.571 }, "geometry": { "type": "Point", "coordinates": [ 129.323196, 35.468895, 115.0 ] } },
{ "type": "Feature", "properties": { "value": 7.0835 }, "geometry": { "type": "Point", "coordinates": [ 129.324295, 35.468891, 115.0 ] } },
{ "type": "Feature", "properties": { "value": 12.094 }, "geometry": { "type": "Point", "coordinates": [ 129.325394, 35.468887, 115.0 ] } },
{ "type": "Feature", "properties": { "value": 12.477 }, "geometry": { "type": "Point", "coordinates": [ 129.326508, 35.468887, 115.0 ] } },
{ "type": "Feature", "properties": { "value": 7.5129 }, "geometry": { "type": "Point", "coordinates": [ 129.327606, 35.468884, 115.0 ] } },
{ "type": "Feature", "properties": { "value": 2.6435 }, "geometry": { "type": "Point", "coordinates": [ 129.328705, 35.46888, 115.0 ] } },
{ "type": "Feature", "properties": { "value": 0.5228 }, "geometry": { "type": "Point", "coordinates": [ 129.329803, 35.468876, 115.0 ] } },
{ "type": "Feature", "properties": { "value": 0.1827 }, "geometry": { "type": "Point", "coordinates": [ 129.320999, 35.469803, 115.0 ] } },
{ "type": "Feature", "properties": { "value": 0.9738 }, "geometry": { "type": "Point", "coordinates": [ 129.322098, 35.469799, 115.0 ] } },
{ "type": "Feature", "properties": { "value": 3.3227 }, "geometry": { "type": "Point", "coordinates": [ 129.323196, 35.469795, 115.0 ] } },
{ "type": "Feature", "properties": { "value": 7.7481 }, "geometry": { "type": "Point", "coordinates": [ 129.324295, 35.469791, 115.0 ] } },
{ "type": "Feature", "properties": { "value": 11.82 }, "geometry": { "type": "Point", "coordinates": [ 129.325409, 35.469791, 115.0 ] } },
{ "type": "Feature", "properties": { "value": 11.532 }, "geometry": { "type": "Point", "coordinates": [ 129.326508, 35.469788, 115.0 ] } },
{ "type": "Feature", "properties": { "value": 7.0353 }, "geometry": { "type": "Point", "coordinates": [ 129.327606, 35.469784, 115.0 ] } },
{ "type": "Feature", "properties": { "value": 2.6628 }, "geometry": { "type": "Point", "coordinates": [ 129.328705, 35.46978, 115.0 ] } },
{ "type": "Feature", "properties": { "value": 0.6269 }, "geometry": { "type": "Point", "coordinates": [ 129.329819, 35.469776, 115.0 ] } },
{ "type": "Feature", "properties": { "value": 0.0051 }, "geometry": { "type": "Point", "coordinates": [ 129.319901, 35.470707, 115.0 ] } },
{ "type": "Feature", "properties": { "value": 0.3482 }, "geometry": { "type": "Point", "coordinates": [ 129.320999, 35.470703, 115.0 ] } },
{ "type": "Feature", "properties": { "value": 1.4015 }, "geometry": { "type": "Point", "coordinates": [ 129.322098, 35.470699, 115.0 ] } },
{ "type": "Feature", "properties": { "value": 3.969 }, "geometry": { "type": "Point", "coordinates": [ 129.323212, 35.470695, 115.0 ] } },
{ "type": "Feature", "properties": { "value": 8.0718 }, "geometry": { "type": "Point", "coordinates": [ 129.32431, 35.470695, 115.0 ] } },
{ "type": "Feature", "properties": { "value": 11.271 }, "geometry": { "type": "Point", "coordinates": [ 129.325409, 35.470692, 115.0 ] } },
{ "type": "Feature", "properties": { "value": 10.548 }, "geometry": { "type": "Point", "coordinates": [ 129.326508, 35.470688, 115.0 ] } },
{ "type": "Feature", "properties": { "value": 6.5232 }, "geometry": { "type": "Point", "coordinates": [ 129.327606, 35.470684, 115.0 ] } },
{ "type": "Feature", "properties": { "value": 2.6563 }, "geometry": { "type": "Point", "coordinates": [ 129.32872, 35.470684, 115.0 ] } },
{ "type": "Feature", "properties": { "value": 0.7105 }, "geometry": { "type": "Point", "coordinates": [ 129.329819, 35.47068, 115.0 ] } },
{ "type": "Feature", "properties": { "value": 0.057 }, "geometry": { "type": "Point", "coordinates": [ 129.330917, 35.470676, 115.0 ] } },
{ "type": "Feature", "properties": { "value": 0.1181 }, "geometry": { "type": "Point", "coordinates": [ 129.319901, 35.471607, 115.0 ] } },
{ "type": "Feature", "properties": { "value": 0.5802 }, "geometry": { "type": "Point", "coordinates": [ 129.320999, 35.471603, 115.0 ] } },
{ "type": "Feature", "properties": { "value": 1.8283 }, "geometry": { "type": "Point", "coordinates": [ 129.322113, 35.4716, 115.0 ] } },
{ "type": "Feature", "properties": { "value": 4.4419 }, "geometry": { "type": "Point", "coordinates": [ 129.323212, 35.4716, 115.0 ] } },
{ "type": "Feature", "properties": { "value": 8.0464 }, "geometry": { "type": "Point", "coordinates": [ 129.32431, 35.471596, 115.0 ] } },
{ "type": "Feature", "properties": { "value": 10.421 }, "geometry": { "type": "Point", "coordinates": [ 129.325409, 35.471592, 115.0 ] } },
{ "type": "Feature", "properties": { "value": 9.4798 }, "geometry": { "type": "Point", "coordinates": [ 129.326508, 35.471588, 115.0 ] } },
{ "type": "Feature", "properties": { "value": 5.9782 }, "geometry": { "type": "Point", "coordinates": [ 129.327621, 35.471588, 115.0 ] } },
{ "type": "Feature", "properties": { "value": 2.615 }, "geometry": { "type": "Point", "coordinates": [ 129.32872, 35.471584, 115.0 ] } },
{ "type": "Feature", "properties": { "value": 0.8117 }, "geometry": { "type": "Point", "coordinates": [ 129.329819, 35.471581, 115.0 ] } },
{ "type": "Feature", "properties": { "value": 0.1317 }, "geometry": { "type": "Point", "coordinates": [ 129.330917, 35.471577, 115.0 ] } },
{ "type": "Feature", "properties": { "value": 0.008 }, "geometry": { "type": "Point", "coordinates": [ 129.318802, 35.472511, 115.0 ] } },
{ "type": "Feature", "properties": { "value": 0.233 }, "geometry": { "type": "Point", "coordinates": [ 129.319901, 35.472507, 115.0 ] } },
{ "type": "Feature", "properties": { "value": 0.8072 }, "geometry": { "type": "Point", "coordinates": [ 129.321014, 35.472507, 115.0 ] } },
{ "type": "Feature", "properties": { "value": 2.1863 }, "geometry": { "type": "Point", "coordinates": [ 129.322113, 35.472504, 115.0 ] } },
{ "type": "Feature", "properties": { "value": 4.6815 }, "geometry": { "type": "Point", "coordinates": [ 129.323212, 35.4725, 115.0 ] } },
{ "type": "Feature", "properties": { "value": 7.6954 }, "geometry": { "type": "Point", "coordinates": [ 129.32431, 35.472496, 115.0 ] } },
{ "type": "Feature", "properties": { "value": 9.4013 }, "geometry": { "type": "Point", "coordinates": [ 129.325409, 35.472492, 115.0 ] } },
{ "type": "Feature", "properties": { "value": 8.3965 }, "geometry": { "type": "Point", "coordinates": [ 129.326523, 35.472492, 115.0 ] } },
{ "type": "Feature", "properties": { "value": 5.438 }, "geometry": { "type": "Point", "coordinates": [ 129.327621, 35.472488, 115.0 ] } },
{ "type": "Feature", "properties": { "value": 2.571 }, "geometry": { "type": "Point", "coordinates": [ 129.32872, 35.472485, 115.0 ] } },
{ "type": "Feature", "properties": { "value": 0.8971 }, "geometry": { "type": "Point", "coordinates": [ 129.329819, 35.472481, 115.0 ] } },
{ "type": "Feature", "properties": { "value": 0.2183 }, "geometry": { "type": "Point", "coordinates": [ 129.330917, 35.472477, 115.0 ] } },
{ "type": "Feature", "properties": { "value": 0.0913 }, "geometry": { "type": "Point", "coordinates": [ 129.318802, 35.473412, 115.0 ] } },
{ "type": "Feature", "properties": { "value": 0.3493 }, "geometry": { "type": "Point", "coordinates": [ 129.319916, 35.473412, 115.0 ] } },
{ "type": "Feature", "properties": { "value": 1.0175 }, "geometry": { "type": "Point", "coordinates": [ 129.321014, 35.473408, 115.0 ] } },
{ "type": "Feature", "properties": { "value": 2.4283 }, "geometry": { "type": "Point", "coordinates": [ 129.322113, 35.473404, 115.0 ] } },
{ "type": "Feature", "properties": { "value": 4.7088 }, "geometry": { "type": "Point", "coordinates": [ 129.323212, 35.4734, 115.0 ] } },
{ "type": "Feature", "properties": { "value": 7.1397 }, "geometry": { "type": "Point", "coordinates": [ 129.32431, 35.473396, 115.0 ] } },
{ "type": "Feature", "properties": { "value": 8.3412 }, "geometry": { "type": "Point", "coordinates": [ 129.325424, 35.473396, 115.0 ] } },
{ "type": "Feature", "properties": { "value": 7.3647 }, "geometry": { "type": "Point", "coordinates": [ 129.326523, 35.473392, 115.0 ] } },
{ "type": "Feature", "properties": { "value": 4.9102 }, "geometry": { "type": "Point", "coordinates": [ 129.327621, 35.473389, 115.0 ] } },
{ "type": "Feature", "properties": { "value": 2.4831 }, "geometry": { "type": "Point", "coordinates": [ 129.32872, 35.473385, 115.0 ] } },
{ "type": "Feature", "properties": { "value": 0.9732 }, "geometry": { "type": "Point", "coordinates": [ 129.329819, 35.473385, 115.0 ] } },
{ "type": "Feature", "properties": { "value": 0.2921 }, "geometry": { "type": "Point", "coordinates": [ 129.330933, 35.473381, 115.0 ] } },
{ "type": "Feature", "properties": { "value": 0.0422 }, "geometry": { "type": "Point", "coordinates": [ 129.332031, 35.473377, 115.0 ] } },
{ "type": "Feature", "properties": { "value": 0.0055 }, "geometry": { "type": "Point", "coordinates": [ 129.317703, 35.474316, 115.0 ] } },
{ "type": "Feature", "properties": { "value": 0.1398 }, "geometry": { "type": "Point", "coordinates": [ 129.318817, 35.474316, 115.0 ] } },
{ "type": "Feature", "properties": { "value": 0.4471 }, "geometry": { "type": "Point", "coordinates": [ 129.319916, 35.474312, 115.0 ] } },
{ "type": "Feature", "properties": { "value": 1.1793 }, "geometry": { "type": "Point", "coordinates": [ 129.321014, 35.474308, 115.0 ] } },
{ "type": "Feature", "properties": { "value": 2.5563 }, "geometry": { "type": "Point", "coordinates": [ 129.322113, 35.474304, 115.0 ] } },
{ "type": "Feature", "properties": { "value": 4.5456 }, "geometry": { "type": "Point", "coordinates": [ 129.323212, 35.4743, 115.0 ] } },
{ "type": "Feature", "properties": { "value": 6.4895 }, "geometry": { "type": "Point", "coordinates": [ 129.324326, 35.4743, 115.0 ] } },
{ "type": "Feature", "properties": { "value": 7.3044 }, "geometry": { "type": "Point", "coordinates": [ 129.325424, 35.474297, 115.0 ] } },
{ "type": "Feature", "properties": { "value": 6.4249 }, "geometry": { "type": "Point", "coordinates": [ 129.326523, 35.474293, 115.0 ] } },
{ "type": "Feature", "properties": { "value": 4.4061 }, "geometry": { "type": "Point", "coordinates": [ 129.327621, 35.474289, 115.0 ] } },
{ "type": "Feature", "properties": { "value": 2.3685 }, "geometry": { "type": "Point", "coordinates": [ 129.328735, 35.474289, 115.0 ] } },
{ "type": "Feature", "properties": { "value": 1.0014 }, "geometry": { "type": "Point", "coordinates": [ 129.329834, 35.474285, 115.0 ] } },
{ "type": "Feature", "properties": { "value": 0.3406 }, "geometry": { "type": "Point", "coordinates": [ 129.330933, 35.474281, 115.0 ] } },
{ "type": "Feature", "properties": { "value": 0.0783 }, "geometry": { "type": "Point", "coordinates": [ 129.332031, 35.474277, 115.0 ] } },
{ "type": "Feature", "properties": { "value": 0.0432 }, "geometry": { "type": "Point", "coordinates": [ 129.317719, 35.47522, 115.0 ] } },
{ "type": "Feature", "properties": { "value": 0.1791 }, "geometry": { "type": "Point", "coordinates": [ 129.318817, 35.475216, 115.0 ] } },
{ "type": "Feature", "properties": { "value": 0.5228 }, "geometry": { "type": "Point", "coordinates": [ 129.319916, 35.475212, 115.0 ] } },
{ "type": "Feature", "properties": { "value": 1.2608 }, "geometry": { "type": "Point", "coordinates": [ 129.321014, 35.475208, 115.0 ] } },
{ "type": "Feature", "properties": { "value": 2.5358 }, "geometry": { "type": "Point", "coordinates": [ 129.322113, 35.475208, 115.0 ] } },
{ "type": "Feature", "properties": { "value": 4.2255 }, "geometry": { "type": "Point", "coordinates": [ 129.323227, 35.475204, 115.0 ] } },
{ "type": "Feature", "properties": { "value": 5.7371 }, "geometry": { "type": "Point", "coordinates": [ 129.324326, 35.475201, 115.0 ] } },
{ "type": "Feature", "properties": { "value": 6.2976 }, "geometry": { "type": "Point", "coordinates": [ 129.325424, 35.475197, 115.0 ] } },
{ "type": "Feature", "properties": { "value": 5.5302 }, "geometry": { "type": "Point", "coordinates": [ 129.326523, 35.475193, 115.0 ] } },
{ "type": "Feature", "properties": { "value": 3.8785 }, "geometry": { "type": "Point", "coordinates": [ 129.327637, 35.475193, 115.0 ] } },
{ "type": "Feature", "properties": { "value": 2.1829 }, "geometry": { "type": "Point", "coordinates": [ 129.328735, 35.475189, 115.0 ] } },
{ "type": "Feature", "properties": { "value": 0.9947 }, "geometry": { "type": "Point", "coordinates": [ 129.329834, 35.475185, 115.0 ] } },
{ "type": "Feature", "properties": { "value": 0.366 }, "geometry": { "type": "Point", "coordinates": [ 129.330933, 35.475182, 115.0 ] } },
{ "type": "Feature", "properties": { "value": 0.1026 }, "geometry": { "type": "Point", "coordinates": [ 129.332031, 35.475178, 115.0 ] } },
{ "type": "Feature", "properties": { "value": 0.0574 }, "geometry": { "type": "Point", "coordinates": [ 129.317719, 35.47612, 115.0 ] } },
{ "type": "Feature", "properties": { "value": 0.2039 }, "geometry": { "type": "Point", "coordinates": [ 129.318817, 35.476116, 115.0 ] } },
{ "type": "Feature", "properties": { "value": 0.5523 }, "geometry": { "type": "Point", "coordinates": [ 129.319916, 35.476112, 115.0 ] } },
{ "type": "Feature", "properties": { "value": 1.2416 }, "geometry": { "type": "Point", "coordinates": [ 129.32103, 35.476112, 115.0 ] } },
{ "type": "Feature", "properties": { "value": 2.3573 }, "geometry": { "type": "Point", "coordinates": [ 129.322128, 35.476109, 115.0 ] } },
{ "type": "Feature", "properties": { "value": 3.7377 }, "geometry": { "type": "Point", "coordinates": [ 129.323227, 35.476105, 115.0 ] } },
{ "type": "Feature", "properties": { "value": 4.8975 }, "geometry": { "type": "Point", "coordinates": [ 129.324326, 35.476101, 115.0 ] } },
{ "type": "Feature", "properties": { "value": 5.2664 }, "geometry": { "type": "Point", "coordinates": [ 129.325424, 35.476097, 115.0 ] } },
{ "type": "Feature", "properties": { "value": 4.6242 }, "geometry": { "type": "Point", "coordinates": [ 129.326538, 35.476097, 115.0 ] } },
{ "type": "Feature", "properties": { "value": 3.3118 }, "geometry": { "type": "Point", "coordinates": [ 129.327637, 35.476093, 115.0 ] } },
{ "type": "Feature", "properties": { "value": 1.936 }, "geometry": { "type": "Point", "coordinates": [ 129.328735, 35.476089, 115.0 ] } },
{ "type": "Feature", "properties": { "value": 0.9271 }, "geometry": { "type": "Point", "coordinates": [ 129.329834, 35.476086, 115.0 ] } },
{ "type": "Feature", "properties": { "value": 0.3675 }, "geometry": { "type": "Point", "coordinates": [ 129.330933, 35.476086, 115.0 ] } },
{ "type": "Feature", "properties": { "value": 0.113 }, "geometry": { "type": "Point", "coordinates": [ 129.332047, 35.476082, 115.0 ] } },
{ "type": "Feature", "properties": { "value": 0.0115 }, "geometry": { "type": "Point", "coordinates": [ 129.333145, 35.476078, 115.0 ] } },
{ "type": "Feature", "properties": { "value": 0.0089 }, "geometry": { "type": "Point", "coordinates": [ 129.31662, 35.477024, 115.0 ] } },
{ "type": "Feature", "properties": { "value": 0.0626 }, "geometry": { "type": "Point", "coordinates": [ 129.317719, 35.47702, 115.0 ] } },
{ "type": "Feature", "properties": { "value": 0.2026 }, "geometry": { "type": "Point", "coordinates": [ 129.318817, 35.477016, 115.0 ] } },
{ "type": "Feature", "properties": { "value": 0.5237 }, "geometry": { "type": "Point", "coordinates": [ 129.319931, 35.477016, 115.0 ] } },
{ "type": "Feature", "properties": { "value": 1.1206 }, "geometry": { "type": "Point", "coordinates": [ 129.32103, 35.477013, 115.0 ] } },
{ "type": "Feature", "properties": { "value": 2.0348 }, "geometry": { "type": "Point", "coordinates": [ 129.322128, 35.477009, 115.0 ] } },
{ "type": "Feature", "properties": { "value": 3.1017 }, "geometry": { "type": "Point", "coordinates": [ 129.323227, 35.477005, 115.0 ] } },
{ "type": "Feature", "properties": { "value": 3.9677 }, "geometry": { "type": "Point", "coordinates": [ 129.324326, 35.477005, 115.0 ] } },
{ "type": "Feature", "properties": { "value": 4.2062 }, "geometry": { "type": "Point", "coordinates": [ 129.325439, 35.477001, 115.0 ] } },
{ "type": "Feature", "properties": { "value": 3.6946 }, "geometry": { "type": "Point", "coordinates": [ 129.326538, 35.476997, 115.0 ] } },
{ "type": "Feature", "properties": { "value": 2.6768 }, "geometry": { "type": "Point", "coordinates": [ 129.327637, 35.476994, 115.0 ] } },
{ "type": "Feature", "properties": { "value": 1.6114 }, "geometry": { "type": "Point", "coordinates": [ 129.328735, 35.47699, 115.0 ] } },
{ "type": "Feature", "properties": { "value": 0.8031 }, "geometry": { "type": "Point", "coordinates": [ 129.329834, 35.47699, 115.0 ] } },
{ "type": "Feature", "properties": { "value": 0.334 }, "geometry": { "type": "Point", "coordinates": [ 129.330948, 35.476986, 115.0 ] } },
{ "type": "Feature", "properties": { "value": 0.1115 }, "geometry": { "type": "Point", "coordinates": [ 129.332047, 35.476982, 115.0 ] } },
{ "type": "Feature", "properties": { "value": 0.0175 }, "geometry": { "type": "Point", "coordinates": [ 129.333145, 35.476978, 115.0 ] } },
{ "type": "Feature", "properties": { "value": 0.0101 }, "geometry": { "type": "Point", "coordinates": [ 129.31662, 35.477924, 115.0 ] } },
{ "type": "Feature", "properties": { "value": 0.0617 }, "geometry": { "type": "Point", "coordinates": [ 129.317719, 35.477921, 115.0 ] } },
{ "type": "Feature", "properties": { "value": 0.1816 }, "geometry": { "type": "Point", "coordinates": [ 129.318832, 35.477921, 115.0 ] } },
{ "type": "Feature", "properties": { "value": 0.4465 }, "geometry": { "type": "Point", "coordinates": [ 129.319931, 35.477917, 115.0 ] } },
{ "type": "Feature", "properties": { "value": 0.9205 }, "geometry": { "type": "Point", "coordinates": [ 129.32103, 35.477913, 115.0 ] } },
{ "type": "Feature", "properties": { "value": 1.6147 }, "geometry": { "type": "Point", "coordinates": [ 129.322128, 35.477909, 115.0 ] } },
{ "type": "Feature", "properties": { "value": 2.3909 }, "geometry": { "type": "Point", "coordinates": [ 129.323227, 35.477909, 115.0 ] } },
{ "type": "Feature", "properties": { "value": 2.9974 }, "geometry": { "type": "Point", "coordinates": [ 129.324341, 35.477905, 115.0 ] } },
{ "type": "Feature", "properties": { "value": 3.1475 }, "geometry": { "type": "Point", "coordinates": [ 129.325439, 35.477901, 115.0 ] } },
{ "type": "Feature", "properties": { "value": 2.7601 }, "geometry": { "type": "Point", "coordinates": [ 129.326538, 35.477898, 115.0 ] } },
{ "type": "Feature", "properties": { "value": 2.0177 }, "geometry": { "type": "Point", "coordinates": [ 129.327637, 35.477894, 115.0 ] } },
{ "type": "Feature", "properties": { "value": 1.2434 }, "geometry": { "type": "Point", "coordinates": [ 129.328735, 35.477894, 115.0 ] } },
{ "type": "Feature", "properties": { "value": 0.6402 }, "geometry": { "type": "Point", "coordinates": [ 129.329849, 35.47789, 115.0 ] } },
{ "type": "Feature", "properties": { "value": 0.2766 }, "geometry": { "type": "Point", "coordinates": [ 129.330948, 35.477886, 115.0 ] } },
{ "type": "Feature", "properties": { "value": 0.0952 }, "geometry": { "type": "Point", "coordinates": [ 129.332047, 35.477882, 115.0 ] } },
{ "type": "Feature", "properties": { "value": 0.0151 }, "geometry": { "type": "Point", "coordinates": [ 129.333145, 35.477879, 115.0 ] } },
{ "type": "Feature", "properties": { "value": 0.0095 }, "geometry": { "type": "Point", "coordinates": [ 129.31662, 35.478825, 115.0 ] } },
{ "type": "Feature", "properties": { "value": 0.0474 }, "geometry": { "type": "Point", "coordinates": [ 129.317734, 35.478825, 115.0 ] } },
{ "type": "Feature", "properties": { "value": 0.1444 }, "geometry": { "type": "Point", "coordinates": [ 129.318832, 35.478821, 115.0 ] } },
{ "type": "Feature", "properties": { "value": 0.3408 }, "geometry": { "type": "Point", "coordinates": [ 129.319931, 35.478817, 115.0 ] } },
{ "type": "Feature", "properties": { "value": 0.6851 }, "geometry": { "type": "Point", "coordinates": [ 129.32103, 35.478813, 115.0 ] } },
{ "type": "Feature", "properties": { "value": 1.1706 }, "geometry": { "type": "Point", "coordinates": [ 129.322128, 35.478813, 115.0 ] } },
{ "type": "Feature", "properties": { "value": 1.6935 }, "geometry": { "type": "Point", "coordinates": [ 129.323242, 35.478809, 115.0 ] } },
{ "type": "Feature", "properties": { "value": 2.087 }, "geometry": { "type": "Point", "coordinates": [ 129.324341, 35.478806, 115.0 ] } },
{ "type": "Feature", "properties": { "value": 2.1703 }, "geometry": { "type": "Point", "coordinates": [ 129.325439, 35.478802, 115.0 ] } },
{ "type": "Feature", "properties": { "value": 1.8981 }, "geometry": { "type": "Point", "coordinates": [ 129.326538, 35.478798, 115.0 ] } },
{ "type": "Feature", "properties": { "value": 1.4061 }, "geometry": { "type": "Point", "coordinates": [ 129.327637, 35.478798, 115.0 ] } },
{ "type": "Feature", "properties": { "value": 0.8785 }, "geometry": { "type": "Point", "coordinates": [ 129.328751, 35.478794, 115.0 ] } },
{ "type": "Feature", "properties": { "value": 0.4657 }, "geometry": { "type": "Point", "coordinates": [ 129.329849, 35.47879, 115.0 ] } },
{ "type": "Feature", "properties": { "value": 0.2074 }, "geometry": { "type": "Point", "coordinates": [ 129.330948, 35.478786, 115.0 ] } },
{ "type": "Feature", "properties": { "value": 0.0726 }, "geometry": { "type": "Point", "coordinates": [ 129.332047, 35.478786, 115.0 ] } },
{ "type": "Feature", "properties": { "value": 0.0145 }, "geometry": { "type": "Point", "coordinates": [ 129.33316, 35.478783, 115.0 ] } },
{ "type": "Feature", "properties": { "value": 0.0033 }, "geometry": { "type": "Point", "coordinates": [ 129.316635, 35.479729, 115.0 ] } },
{ "type": "Feature", "properties": { "value": 0.0308 }, "geometry": { "type": "Point", "coordinates": [ 129.317734, 35.479725, 115.0 ] } },
{ "type": "Feature", "properties": { "value": 0.0995 }, "geometry": { "type": "Point", "coordinates": [ 129.318832, 35.479721, 115.0 ] } },
{ "type": "Feature", "properties": { "value": 0.2322 }, "geometry": { "type": "Point", "coordinates": [ 129.319931, 35.479717, 115.0 ] } },
{ "type": "Feature", "properties": { "value": 0.4589 }, "geometry": { "type": "Point", "coordinates": [ 129.32103, 35.479717, 115.0 ] } },
{ "type": "Feature", "properties": { "value": 0.767 }, "geometry": { "type": "Point", "coordinates": [ 129.322144, 35.479713, 115.0 ] } },
{ "type": "Feature", "properties": { "value": 1.0967 }, "geometry": { "type": "Point", "coordinates": [ 129.323242, 35.47971, 115.0 ] } },
{ "type": "Feature", "properties": { "value": 1.3377 }, "geometry": { "type": "Point", "coordinates": [ 129.324341, 35.479706, 115.0 ] } },
{ "type": "Feature", "properties": { "value": 1.3798 }, "geometry": { "type": "Point", "coordinates": [ 129.325439, 35.479706, 115.0 ] } },
{ "type": "Feature", "properties": { "value": 1.2116 }, "geometry": { "type": "Point", "coordinates": [ 129.326553, 35.479702, 115.0 ] } },
{ "type": "Feature", "properties": { "value": 0.9042 }, "geometry": { "type": "Point", "coordinates": [ 129.327652, 35.479698, 115.0 ] } },
{ "type": "Feature", "properties": { "value": 0.5701 }, "geometry": { "type": "Point", "coordinates": [ 129.328751, 35.479694, 115.0 ] } },
{ "type": "Feature", "properties": { "value": 0.3064 }, "geometry": { "type": "Point", "coordinates": [ 129.329849, 35.479691, 115.0 ] } },
{ "type": "Feature", "properties": { "value": 0.1355 }, "geometry": { "type": "Point", "coordinates": [ 129.330948, 35.479691, 115.0 ] } },
{ "type": "Feature", "properties": { "value": 0.0483 }, "geometry": { "type": "Point", "coordinates": [ 129.332062, 35.479687, 115.0 ] } },
{ "type": "Feature", "properties": { "value": 0.0098 }, "geometry": { "type": "Point", "coordinates": [ 129.33316, 35.479683, 115.0 ] } },
{ "type": "Feature", "properties": { "value": 0.0024 }, "geometry": { "type": "Point", "coordinates": [ 129.316635, 35.480629, 115.0 ] } },
{ "type": "Feature", "properties": { "value": 0.0209 }, "geometry": { "type": "Point", "coordinates": [ 129.317734, 35.480625, 115.0 ] } },
{ "type": "Feature", "properties": { "value": 0.0598 }, "geometry": { "type": "Point", "coordinates": [ 129.318832, 35.480621, 115.0 ] } },
{ "type": "Feature", "properties": { "value": 0.1402 }, "geometry": { "type": "Point", "coordinates": [ 129.319931, 35.480621, 115.0 ] } },
{ "type": "Feature", "properties": { "value": 0.2749 }, "geometry": { "type": "Point", "coordinates": [ 129.321045, 35.480618, 115.0 ] } },
{ "type": "Feature", "properties": { "value": 0.454 }, "geometry": { "type": "Point", "coordinates": [ 129.322144, 35.480614, 115.0 ] } },
{ "type": "Feature", "properties": { "value": 0.6438 }, "geometry": { "type": "Point", "coordinates": [ 129.323242, 35.48061, 115.0 ] } },
{ "type": "Feature", "properties": { "value": 0.7773 }, "geometry": { "type": "Point", "coordinates": [ 129.324341, 35.48061, 115.0 ] } },
{ "type": "Feature", "properties": { "value": 0.7998 }, "geometry": { "type": "Point", "coordinates": [ 129.325455, 35.480606, 115.0 ] } },
{ "type": "Feature", "properties": { "value": 0.7032 }, "geometry": { "type": "Point", "coordinates": [ 129.326553, 35.480602, 115.0 ] } },
{ "type": "Feature", "properties": { "value": 0.5271 }, "geometry": { "type": "Point", "coordinates": [ 129.327652, 35.480598, 115.0 ] } },
{ "type": "Feature", "properties": { "value": 0.3312 }, "geometry": { "type": "Point", "coordinates": [ 129.328751, 35.480595, 115.0 ] } },
{ "type": "Feature", "properties": { "value": 0.1778 }, "geometry": { "type": "Point", "coordinates": [ 129.329849, 35.480595, 115.0 ] } },
{ "type": "Feature", "properties": { "value": 0.0795 }, "geometry": { "type": "Point", "coordinates": [ 129.330963, 35.480591, 115.0 ] } },
{ "type": "Feature", "properties": { "value": 0.0268 }, "geometry": { "type": "Point", "coordinates": [ 129.332062, 35.480587, 115.0 ] } },
{ "type": "Feature", "properties": { "value": 0.0028 }, "geometry": { "type": "Point", "coordinates": [ 129.33316, 35.480583, 115.0 ] } },
{ "type": "Feature", "properties": { "value": 0.0096 }, "geometry": { "type": "Point", "coordinates": [ 129.317734, 35.481525, 115.0 ] } },
{ "type": "Feature", "properties": { "value": 0.0307 }, "geometry": { "type": "Point", "coordinates": [ 129.318848, 35.481525, 115.0 ] } },
{ "type": "Feature", "properties": { "value": 0.0741 }, "geometry": { "type": "Point", "coordinates": [ 129.319946, 35.481522, 115.0 ] } },
{ "type": "Feature", "properties": { "value": 0.1461 }, "geometry": { "type": "Point", "coordinates": [ 129.321045, 35.481518, 115.0 ] } },
{ "type": "Feature", "properties": { "value": 0.2373 }, "geometry": { "type": "Point", "coordinates": [ 129.322144, 35.481514, 115.0 ] } },
{ "type": "Feature", "properties": { "value": 0.3385 }, "geometry": { "type": "Point", "coordinates": [ 129.323242, 35.481514, 115.0 ] } },
{ "type": "Feature", "properties": { "value": 0.4057 }, "geometry": { "type": "Point", "coordinates": [ 129.324356, 35.48151, 115.0 ] } },
{ "type": "Feature", "properties": { "value": 0.4165 }, "geometry": { "type": "Point", "coordinates": [ 129.325455, 35.481506, 115.0 ] } },
{ "type": "Feature", "properties": { "value": 0.3657 }, "geometry": { "type": "Point", "coordinates": [ 129.326553, 35.481503, 115.0 ] } },
{ "type": "Feature", "properties": { "value": 0.2744 }, "geometry": { "type": "Point", "coordinates": [ 129.327652, 35.481503, 115.0 ] } },
{ "type": "Feature", "properties": { "value": 0.172 }, "geometry": { "type": "Point", "coordinates": [ 129.328751, 35.481499, 115.0 ] } },
{ "type": "Feature", "properties": { "value": 0.0924 }, "geometry": { "type": "Point", "coordinates": [ 129.329865, 35.481495, 115.0 ] } },
{ "type": "Feature", "properties": { "value": 0.0404 }, "geometry": { "type": "Point", "coordinates": [ 129.330963, 35.481491, 115.0 ] } },
{ "type": "Feature", "properties": { "value": 0.0116 }, "geometry": { "type": "Point", "coordinates": [ 129.332062, 35.481487, 115.0 ] } },
{ "type": "Feature", "properties": { "value": 0.0025 }, "geometry": { "type": "Point", "coordinates": [ 129.317749, 35.48243, 115.0 ] } },
{ "type": "Feature", "properties": { "value": 0.0124 }, "geometry": { "type": "Point", "coordinates": [ 129.318848, 35.482426, 115.0 ] } },
{ "type": "Feature", "properties": { "value": 0.0335 }, "geometry": { "type": "Point", "coordinates": [ 129.319946, 35.482422, 115.0 ] } },
{ "type": "Feature", "properties": { "value": 0.0681 }, "geometry": { "type": "Point", "coordinates": [ 129.321045, 35.482418, 115.0 ] } },
{ "type": "Feature", "properties": { "value": 0.1095 }, "geometry": { "type": "Point", "coordinates": [ 129.322144, 35.482418, 115.0 ] } },
{ "type": "Feature", "properties": { "value": 0.1576 }, "geometry": { "type": "Point", "coordinates": [ 129.323257, 35.482414, 115.0 ] } },
{ "type": "Feature", "properties": { "value": 0.1878 }, "geometry": { "type": "Point", "coordinates": [ 129.324356, 35.48241, 115.0 ] } },
{ "type": "Feature", "properties": { "value": 0.1921 }, "geometry": { "type": "Point", "coordinates": [ 129.325455, 35.482407, 115.0 ] } },
{ "type": "Feature", "properties": { "value": 0.1686 }, "geometry": { "type": "Point", "coordinates": [ 129.326553, 35.482407, 115.0 ] } },
{ "type": "Feature", "properties": { "value": 0.1242 }, "geometry": { "type": "Point", "coordinates": [ 129.327652, 35.482403, 115.0 ] } },
{ "type": "Feature", "properties": { "value": 0.0784 }, "geometry": { "type": "Point", "coordinates": [ 129.328766, 35.482399, 115.0 ] } },
{ "type": "Feature", "properties": { "value": 0.0393 }, "geometry": { "type": "Point", "coordinates": [ 129.329865, 35.482395, 115.0 ] } },
{ "type": "Feature", "properties": { "value": 0.0146 }, "geometry": { "type": "Point", "coordinates": [ 129.330963, 35.482391, 115.0 ] } },
{ "type": "Feature", "properties": { "value": 0.0027 }, "geometry": { "type": "Point", "coordinates": [ 129.332062, 35.482391, 115.0 ] } },
{ "type": "Feature", "properties": { "value": 0.0028 }, "geometry": { "type": "Point", "coordinates": [ 129.318848, 35.483326, 115.0 ] } },
{ "type": "Feature", "properties": { "value": 0.0121 }, "geometry": { "type": "Point", "coordinates": [ 129.319946, 35.483322, 115.0 ] } },
{ "type": "Feature", "properties": { "value": 0.0272 }, "geometry": { "type": "Point", "coordinates": [ 129.321045, 35.483322, 115.0 ] } },
{ "type": "Feature", "properties": { "value": 0.0433 }, "geometry": { "type": "Point", "coordinates": [ 129.322159, 35.483318, 115.0 ] } },
{ "type": "Feature", "properties": { "value": 0.0621 }, "geometry": { "type": "Point", "coordinates": [ 129.323257, 35.483315, 115.0 ] } },
{ "type": "Feature", "properties": { "value": 0.0764 }, "geometry": { "type": "Point", "coordinates": [ 129.324356, 35.483311, 115.0 ] } },
{ "type": "Feature", "properties": { "value": 0.078 }, "geometry": { "type": "Point", "coordinates": [ 129.325455, 35.483311, 115.0 ] } },
{ "type": "Feature", "properties": { "value": 0.0683 }, "geometry": { "type": "Point", "coordinates": [ 129.326553, 35.483307, 115.0 ] } },
{ "type": "Feature", "properties": { "value": 0.0473 }, "geometry": { "type": "Point", "coordinates": [ 129.327667, 35.483303, 115.0 ] } },
{ "type": "Feature", "properties": { "value": 0.0307 }, "geometry": { "type": "Point", "coordinates": [ 129.328766, 35.483299, 115.0 ] } },
{ "type": "Feature", "properties": { "value": 0.0137 }, "geometry": { "type": "Point", "coordinates": [ 129.329865, 35.483295, 115.0 ] } },
{ "type": "Feature", "properties": { "value": 0.0031 }, "geometry": { "type": "Point", "coordinates": [ 129.330963, 35.483295, 115.0 ] } },
{ "type": "Feature", "properties": { "value": 0.0025 }, "geometry": { "type": "Point", "coordinates": [ 129.319946, 35.484226, 115.0 ] } },
{ "type": "Feature", "properties": { "value": 0.0067 }, "geometry": { "type": "Point", "coordinates": [ 129.32106, 35.484222, 115.0 ] } },
{ "type": "Feature", "properties": { "value": 0.0138 }, "geometry": { "type": "Point", "coordinates": [ 129.322159, 35.484219, 115.0 ] } },
{ "type": "Feature", "properties": { "value": 0.0208 }, "geometry": { "type": "Point", "coordinates": [ 129.323257, 35.484215, 115.0 ] } },
{ "type": "Feature", "properties": { "value": 0.0268 }, "geometry": { "type": "Point", "coordinates": [ 129.324356, 35.484215, 115.0 ] } },
{ "type": "Feature", "properties": { "value": 0.0272 }, "geometry": { "type": "Point", "coordinates": [ 129.325455, 35.484211, 115.0 ] } },
{ "type": "Feature", "properties": { "value": 0.0219 }, "geometry": { "type": "Point", "coordinates": [ 129.326569, 35.484207, 115.0 ] } },
{ "type": "Feature", "properties": { "value": 0.0148 }, "geometry": { "type": "Point", "coordinates": [ 129.327667, 35.484203, 115.0 ] } },
{ "type": "Feature", "properties": { "value": 0.0097 }, "geometry": { "type": "Point", "coordinates": [ 129.328766, 35.484203, 115.0 ] } },
{ "type": "Feature", "properties": { "value": 0.0027 }, "geometry": { "type": "Point", "coordinates": [ 129.329865, 35.4842, 115.0 ] } },
{ "type": "Feature", "properties": { "value": 0.0025 }, "geometry": { "type": "Point", "coordinates": [ 129.322159, 35.485119, 115.0 ] } },
{ "type": "Feature", "properties": { "value": 0.0034 }, "geometry": { "type": "Point", "coordinates": [ 129.323257, 35.485119, 115.0 ] } },
{ "type": "Feature", "properties": { "value": 0.004 }, "geometry": { "type": "Point", "coordinates": [ 129.324371, 35.485115, 115.0 ] } },
{ "type": "Feature", "properties": { "value": 0.004 }, "geometry": { "type": "Point", "coordinates": [ 129.32547, 35.485111, 115.0 ] } },
{ "type": "Feature", "properties": { "value": 0.0035 }, "geometry": { "type": "Point", "coordinates": [ 129.326569, 35.485107, 115.0 ] } },
{ "type": "Feature", "properties": { "value": 0.0026 }, "geometry": { "type": "Point", "coordinates": [ 129.327667, 35.485107, 115.0 ] } }
]
}
