{
"type": "FeatureCollection",
"features": [
{ "type": "Feature", "properties": { "value": 7.0021 }, "geometry": { "type": "Point", "coordinates": [ 129.32756, 35.458969, 30.0 ] } },
{ "type": "Feature", "properties": { "value": 179.65 }, "geometry": { "type": "Point", "coordinates": [ 129.32756, 35.459869, 30.0 ] } },
{ "type": "Feature", "properties": { "value": 292.76 }, "geometry": { "type": "Point", "coordinates": [ 129.327576, 35.46077, 30.0 ] } },
{ "type": "Feature", "properties": { "value": 246.77 }, "geometry": { "type": "Point", "coordinates": [ 129.327576, 35.461674, 30.0 ] } },
{ "type": "Feature", "properties": { "value": 197.89 }, "geometry": { "type": "Point", "coordinates": [ 129.327576, 35.462574, 30.0 ] } },
{ "type": "Feature", "properties": { "value": 132.35 }, "geometry": { "type": "Point", "coordinates": [ 129.327576, 35.463474, 30.0 ] } },
{ "type": "Feature", "properties": { "value": 12.017 }, "geometry": { "type": "Point", "coordinates": [ 129.32869, 35.46347, 30.0 ] } },
{ "type": "Feature", "properties": { "value": 81.676 }, "geometry": { "type": "Point", "coordinates": [ 129.327591, 35.464375, 30.0 ] } },
{ "type": "Feature", "properties": { "value": 45.582 }, "geometry": { "type": "Point", "coordinates": [ 129.32869, 35.464375, 30.0 ] } },
{ "type": "Feature", "properties": { "value": 42.816 }, "geometry": { "type": "Point", "coordinates": [ 129.327591, 35.465279, 30.0 ] } },
{ "type": "Feature", "properties": { "value": 77.036 }, "geometry": { "type": "Point", "coordinates": [ 129.32869, 35.465275, 30.0 ] } },
{ "type": "Feature", "properties": { "value": 21.464 }, "geometry": { "type": "Point", "coordinates": [ 129.327591, 35.466179, 30.0 ] } },
{ "type": "Feature", "properties": { "value": 83.812 }, "geometry": { "type": "Point", "coordinates": [ 129.32869, 35.466175, 30.0 ] } },
{ "type": "Feature", "properties": { "value": 11.681 }, "geometry": { "type": "Point", "coordinates": [ 129.327591, 35.467079, 30.0 ] } },
{ "type": "Feature", "properties": { "value": 86.927 }, "geometry": { "type": "Point", "coordinates": [ 129.328705, 35.467075, 30.0 ] } },
{ "type": "Feature", "properties": { "value": 2.2241 }, "geometry": { "type": "Point", "coordinates": [ 129.329803, 35.467075, 30.0 ] } },
{ "type": "Feature", "properties": { "value": 6.714 }, "geometry": { "type": "Point", "coordinates": [ 129.327606, 35.467983, 30.0 ] } },
{ "type": "Feature", "properties": { "value": 82.417 }, "geometry": { "type": "Point", "coordinates": [ 129.328705, 35.467979, 30.0 ] } },
{ "type": "Feature", "properties": { "value": 6.8755 }, "geometry": { "type": "Point", "coordinates": [ 129.329803, 35.467976, 30.0 ] } },
{ "type": "Feature", "properties": { "value": 4.0329 }, "geometry": { "type": "Point", "coordinates": [ 129.327606, 35.468884, 30.0 ] } },
{ "type": "Feature", "properties": { "value": 74.479 }, "geometry": { "type": "Point", "coordinates": [ 129.328705, 35.46888, 30.0 ] } },
{ "type": "Feature", "properties": { "value": 16.78 }, "geometry": { "type": "Point", "coordinates": [ 129.329803, 35.468876, 30.0 ] } },
{ "type": "Feature", "properties": { "value": 2.455 }, "geometry": { "type": "Point", "coordinates": [ 129.327606, 35.469784, 30.0 ] } },
{ "type": "Feature", "properties": { "value": 66.94 }, "geometry": { "type": "Point", "coordinates": [ 129.328705, 35.46978, 30.0 ] } },
{ "type": "Feature", "properties": { "value": 37.592 }, "geometry": { "type": "Point", "coordinates": [ 129.329819, 35.469776, 30.0 ] } },
{ "type": "Feature", "properties": { "value": 1.4841 }, "geometry": { "type": "Point", "coordinates": [ 129.327606, 35.470684, 30.0 ] } },
{ "type": "Feature", "properties": { "value": 61.614 }, "geometry": { "type": "Point", "coordinates": [ 129.32872, 35.470684, 30.0 ] } },
{ "type": "Feature", "properties": { "value": 76.931 }, "geometry": { "type": "Point", "coordinates": [ 129.329819, 35.47068, 30.0 ] } },
{ "type": "Feature", "properties": { "value": 3.3768 }, "geometry": { "type": "Point", "coordinates": [ 129.330917, 35.470676, 30.0 ] } },
{ "type": "Feature", "properties": { "value": 54.348 }, "geometry": { "type": "Point", "coordinates": [ 129.32872, 35.471584, 30.0 ] } },
{ "type": "Feature", "properties": { "value": 118.51 }, "geometry": { "type": "Point", "coordinates": [ 129.329819, 35.471581, 30.0 ] } },
{ "type": "Feature", "properties": { "value": 12.192 }, "geometry": { "type": "Point", "coordinates": [ 129.330917, 35.471577, 30.0 ] } },
{ "type": "Feature", "properties": { "value": 37.555 }, "geometry": { "type": "Point", "coordinates": [ 129.32872, 35.472485, 30.0 ] } },
{ "type": "Feature", "properties": { "value": 131.33 }, "geometry": { "type": "Point", "coordinates": [ 129.329819, 35.472481, 30.0 ] } },
{ "type": "Feature", "properties": { "value": 29.598 }, "geometry": { "type": "Point", "coordinates": [ 129.330917, 35.472477, 30.0 ] } },
{ "type": "Feature", "properties": { "value": 21.447 }, "geometry": { "type": "Point", "coordinates": [ 129.32872, 35.473385, 30.0 ] } },
{ "type": "Feature", "properties": { "value": 120.34 }, "geometry": { "type": "Point", "coordinates": [ 129.329819, 35.473385, 30.0 ] } },
{ "type": "Feature", "properties": { "value": 54.265 }, "geometry": { "type": "Point", "coordinates": [ 129.330933, 35.473381, 30.0 ] } },
{ "type": "Feature", "properties": { "value": 2.0911 }, "geometry": { "type": "Point", "coordinates": [ 129.332031, 35.473377, 30.0 ] } },
{ "type": "Feature", "properties": { "value": 11.112 }, "geometry": { "type": "Point", "coordinates": [ 129.328735, 35.474289, 30.0 ] } },
{ "type": "Feature", "properties": { "value": 93.751 }, "geometry": { "type": "Point", "coordinates": [ 129.329834, 35.474285, 30.0 ] } },
{ "type": "Feature", "properties": { "value": 74.85 }, "geometry": { "type": "Point", "coordinates": [ 129.330933, 35.474281, 30.0 ] } },
{ "type": "Feature", "properties": { "value": 6.7725 }, "geometry": { "type": "Point", "coordinates": [ 129.332031, 35.474277, 30.0 ] } },
{ "type": "Feature", "properties": { "value": 5.5481 }, "geometry": { "type": "Point", "coordinates": [ 129.328735, 35.475189, 30.0 ] } },
{ "type": "Feature", "properties": { "value": 63.574 }, "geometry": { "type": "Point", "coordinates": [ 129.329834, 35.475185, 30.0 ] } },
{ "type": "Feature", "properties": { "value": 82.054 }, "geometry": { "type": "Point", "coordinates": [ 129.330933, 35.475182, 30.0 ] } },
{ "type": "Feature", "properties": { "value": 15.717 }, "geometry": { "type": "Point", "coordinates": [ 129.332031, 35.475178, 30.0 ] } },
{ "type": "Feature", "properties": { "value": 2.6362 }, "geometry": { "type": "Point", "coordinates": [ 129.328735, 35.476089, 30.0 ] } },
{ "type": "Feature", "properties": { "value": 39.799 }, "geometry": { "type": "Point", "coordinates": [ 129.329834, 35.476086, 30.0 ] } },
{ "type": "Feature", "properties": { "value": 79.328 }, "geometry": { "type": "Point", "coordinates": [ 129.330933, 35.476086, 30.0 ] } },
{ "type": "Feature", "properties": { "value": 28.543 }, "geometry": { "type": "Point", "coordinates": [ 129.332047, 35.476082, 30.0 ] } },
{ "type": "Feature", "properties": { "value": 1.8119 }, "geometry": { "type": "Point", "coordinates": [ 129.333145, 35.476078, 30.0 ] } },
{ "type": "Feature", "properties": { "value": 0.5874 }, "geometry": { "type": "Point", "coordinates": [ 129.328735, 35.47699, 30.0 ] } },
{ "type": "Feature", "properties": { "value": 22.524 }, "geometry": { "type": "Point", "coordinates": [ 129.329834, 35.47699, 30.0 ] } },
{ "type": "Feature", "properties": { "value": 70.762 }, "geometry": { "type": "Point", "coordinates": [ 129.330948, 35.476986, 30.0 ] } },
{ "type": "Feature", "properties": { "value": 44.3 }, "geometry": { "type": "Point", "coordinates": [ 129.332047, 35.476982, 30.0 ] } },
{ "type": "Feature", "properties": { "value": 5.6907 }, "geometry": { "type": "Point", "coordinates": [ 129.333145, 35.476978, 30.0 ] } },
{ "type": "Feature", "properties": { "value": 11.766 }, "geometry": { "type": "Point", "coordinates": [ 129.329849, 35.47789, 30.0 ] } },
{ "type": "Feature", "properties": { "value": 57.619 }, "geometry": { "type": "Point", "coordinates": [ 129.330948, 35.477886, 30.0 ] } },
{ "type": "Feature", "properties": { "value": 59.345 }, "geometry": { "type": "Point", "coordinates": [ 129.332047, 35.477882, 30.0 ] } },
{ "type": "Feature", "properties": { "value": 13.789 }, "geometry": { "type": "Point", "coordinates": [ 129.333145, 35.477879, 30.0 ] } },
{ "type": "Feature", "properties": { "value": 0.2142 }, "geometry": { "type": "Point", "coordinates": [ 129.334259, 35.477879, 30.0 ] } },
{ "type": "Feature", "properties": { "value": 5.8535 }, "geometry": { "type": "Point", "coordinates": [ 129.329849, 35.47879, 30.0 ] } },
{ "type": "Feature", "properties": { "value": 41.531 }, "geometry": { "type": "Point", "coordinates": [ 129.330948, 35.478786, 30.0 ] } },
{ "type": "Feature", "properties": { "value": 66.799 }, "geometry": { "type": "Point", "coordinates": [ 129.332047, 35.478786, 30.0 ] } },
{ "type": "Feature", "properties": { "value": 26.58 }, "geometry": { "type": "Point", "coordinates": [ 129.33316, 35.478783, 30.0 ] } },
{ "type": "Feature", "properties": { "value": 2.8744 }, "geometry": { "type": "Point", "coordinates": [ 129.334259, 35.478779, 30.0 ] } },
{ "type": "Feature", "properties": { "value": 2.7418 }, "geometry": { "type": "Point", "coordinates": [ 129.329849, 35.479691, 30.0 ] } },
{ "type": "Feature", "properties": { "value": 26.812 }, "geometry": { "type": "Point", "coordinates": [ 129.330948, 35.479691, 30.0 ] } },
{ "type": "Feature", "properties": { "value": 64.432 }, "geometry": { "type": "Point", "coordinates": [ 129.332062, 35.479687, 30.0 ] } },
{ "type": "Feature", "properties": { "value": 42.069 }, "geometry": { "type": "Point", "coordinates": [ 129.33316, 35.479683, 30.0 ] } },
{ "type": "Feature", "properties": { "value": 8.3253 }, "geometry": { "type": "Point", "coordinates": [ 129.334259, 35.479679, 30.0 ] } },
{ "type": "Feature", "properties": { "value": 1.0771 }, "geometry": { "type": "Point", "coordinates": [ 129.329849, 35.480595, 30.0 ] } },
{ "type": "Feature", "properties": { "value": 15.573 }, "geometry": { "type": "Point", "coordinates": [ 129.330963, 35.480591, 30.0 ] } },
{ "type": "Feature", "properties": { "value": 54.564 }, "geometry": { "type": "Point", "coordinates": [ 129.332062, 35.480587, 30.0 ] } },
{ "type": "Feature", "properties": { "value": 55.897 }, "geometry": { "type": "Point", "coordinates": [ 129.33316, 35.480583, 30.0 ] } },
{ "type": "Feature", "properties": { "value": 18.708 }, "geometry": { "type": "Point", "coordinates": [ 129.334259, 35.480579, 30.0 ] } },
{ "type": "Feature", "properties": { "value": 2.1821 }, "geometry": { "type": "Point", "coordinates": [ 129.335358, 35.480579, 30.0 ] } },
{ "type": "Feature", "properties": { "value": 8.0338 }, "geometry": { "type": "Point", "coordinates": [ 129.330963, 35.481491, 30.0 ] } },
{ "type": "Feature", "properties": { "value": 40.1 }, "geometry": { "type": "Point", "coordinates": [ 129.332062, 35.481487, 30.0 ] } },
{ "type": "Feature", "properties": { "value": 62.166 }, "geometry": { "type": "Point", "coordinates": [ 129.33316, 35.481487, 30.0 ] } },
{ "type": "Feature", "properties": { "value": 33.217 }, "geometry": { "type": "Point", "coordinates": [ 129.334259, 35.481483, 30.0 ] } },
{ "type": "Feature", "properties": { "value": 6.7185 }, "geometry": { "type": "Point", "coordinates": [ 129.335373, 35.48148, 30.0 ] } },
{ "type": "Feature", "properties": { "value": 3.6211 }, "geometry": { "type": "Point", "coordinates": [ 129.330963, 35.482391, 30.0 ] } },
{ "type": "Feature", "properties": { "value": 25.541 }, "geometry": { "type": "Point", "coordinates": [ 129.332062, 35.482391, 30.0 ] } },
{ "type": "Feature", "properties": { "value": 58.476 }, "geometry": { "type": "Point", "coordinates": [ 129.333176, 35.482388, 30.0 ] } },
{ "type": "Feature", "properties": { "value": 48.631 }, "geometry": { "type": "Point", "coordinates": [ 129.334274, 35.482384, 30.0 ] } },
{ "type": "Feature", "properties": { "value": 16.181 }, "geometry": { "type": "Point", "coordinates": [ 129.335373, 35.48238, 30.0 ] } },
{ "type": "Feature", "properties": { "value": 2.2118 }, "geometry": { "type": "Point", "coordinates": [ 129.336472, 35.482376, 30.0 ] } },
{ "type": "Feature", "properties": { "value": 1.355 }, "geometry": { "type": "Point", "coordinates": [ 129.330963, 35.483295, 30.0 ] } },
{ "type": "Feature", "properties": { "value": 14.119 }, "geometry": { "type": "Point", "coordinates": [ 129.332077, 35.483292, 30.0 ] } },
{ "type": "Feature", "properties": { "value": 46.718 }, "geometry": { "type": "Point", "coordinates": [ 129.333176, 35.483288, 30.0 ] } },
{ "type": "Feature", "properties": { "value": 58.943 }, "geometry": { "type": "Point", "coordinates": [ 129.334274, 35.483284, 30.0 ] } },
{ "type": "Feature", "properties": { "value": 31.076 }, "geometry": { "type": "Point", "coordinates": [ 129.335373, 35.48328, 30.0 ] } },
{ "type": "Feature", "properties": { "value": 7.5375 }, "geometry": { "type": "Point", "coordinates": [ 129.336472, 35.48328, 30.0 ] } },
{ "type": "Feature", "properties": { "value": 0.5973 }, "geometry": { "type": "Point", "coordinates": [ 129.337585, 35.483276, 30.0 ] } },
{ "type": "Feature", "properties": { "value": 6.7799 }, "geometry": { "type": "Point", "coordinates": [ 129.332077, 35.484192, 30.0 ] } },
{ "type": "Feature", "properties": { "value": 31.83 }, "geometry": { "type": "Point", "coordinates": [ 129.333176, 35.484188, 30.0 ] } },
{ "type": "Feature", "properties": { "value": 58.974 }, "geometry": { "type": "Point", "coordinates": [ 129.334274, 35.484188, 30.0 ] } },
{ "type": "Feature", "properties": { "value": 47.46 }, "geometry": { "type": "Point", "coordinates": [ 129.335373, 35.484184, 30.0 ] } },
{ "type": "Feature", "properties": { "value": 18.451 }, "geometry": { "type": "Point", "coordinates": [ 129.336487, 35.48418, 30.0 ] } },
{ "type": "Feature", "properties": { "value": 3.9762 }, "geometry": { "type": "Point", "coordinates": [ 129.337585, 35.484177, 30.0 ] } },
{ "type": "Feature", "properties": { "value": 0.2677 }, "geometry": { "type": "Point", "coordinates": [ 129.338684, 35.484173, 30.0 ] } },
{ "type": "Feature", "properties": { "value": 2.8215 }, "geometry": { "type": "Point", "coordinates": [ 129.332077, 35.485092, 30.0 ] } },
{ "type": "Feature", "properties": { "value": 18.536 }, "geometry": { "type": "Point", "coordinates": [ 129.333176, 35.485092, 30.0 ] } },
{ "type": "Feature", "properties": { "value": 48.524 }, "geometry": { "type": "Point", "coordinates": [ 129.334274, 35.485088, 30.0 ] } },
{ "type": "Feature", "properties": { "value": 56.503 }, "geometry": { "type": "Point", "coordinates": [ 129.335388, 35.485085, 30.0 ] } },
{ "type": "Feature", "properties": { "value": 33.181 }, "geometry": { "type": "Point", "coordinates": [ 129.336487, 35.485081, 30.0 ] } },
{ "type": "Feature", "properties": { "value": 11.329 }, "geometry": { "type": "Point", "coordinates": [ 129.337585, 35.485077, 30.0 ] } },
{ "type": "Feature", "properties": { "value": 2.5199 }, "geometry": { "type": "Point", "coordinates": [ 129.338684, 35.485077, 30.0 ] } },
{ "type": "Feature", "properties": { "value": 0.0661 }, "geometry": { "type": "Point", "coordinates": [ 129.339798, 35.485073, 30.0 ] } },
{ "type": "Feature", "properties": { "value": 0.9328 }, "geometry": { "type": "Point", "coordinates": [ 129.332077, 35.485996, 30.0 ] } },
{ "type": "Feature", "properties": { "value": 9.4069 }, "geometry": { "type": "Point", "coordinates": [ 129.333176, 35.485992, 30.0 ] } },
{ "type": "Feature", "properties": { "value": 32.705 }, "geometry": { "type": "Point", "coordinates": [ 129.33429, 35.485989, 30.0 ] } },
{ "type": "Feature", "properties": { "value": 52.838 }, "geometry": { "type": "Point", "coordinates": [ 129.335388, 35.485985, 30.0 ] } },
{ "type": "Feature", "properties": { "value": 44.742 }, "geometry": { "type": "Point", "coordinates": [ 129.336487, 35.485981, 30.0 ] } },
{ "type": "Feature", "properties": { "value": 22.52 }, "geometry": { "type": "Point", "coordinates": [ 129.337585, 35.485981, 30.0 ] } },
{ "type": "Feature", "properties": { "value": 7.5601 }, "geometry": { "type": "Point", "coordinates": [ 129.338699, 35.485977, 30.0 ] } },
{ "type": "Feature", "properties": { "value": 1.7948 }, "geometry": { "type": "Point", "coordinates": [ 129.339798, 35.485973, 30.0 ] } },
{ "type": "Feature", "properties": { "value": 4.4119 }, "geometry": { "type": "Point", "coordinates": [ 129.333191, 35.486893, 30.0 ] } },
{ "type": "Feature", "properties": { "value": 19.335 }, "geometry": { "type": "Point", "coordinates": [ 129.33429, 35.486889, 30.0 ] } },
{ "type": "Feature", "properties": { "value": 41.033 }, "geometry": { "type": "Point", "coordinates": [ 129.335388, 35.486889, 30.0 ] } },
{ "type": "Feature", "properties": { "value": 47.635 }, "geometry": { "type": "Point", "coordinates": [ 129.336487, 35.486885, 30.0 ] } },
{ "type": "Feature", "properties": { "value": 33.661 }, "geometry": { "type": "Point", "coordinates": [ 129.337601, 35.486881, 30.0 ] } },
{ "type": "Feature", "properties": { "value": 15.8 }, "geometry": { "type": "Point", "coordinates": [ 129.338699, 35.486877, 30.0 ] } },
{ "type": "Feature", "properties": { "value": 5.3948 }, "geometry": { "type": "Point", "coordinates": [ 129.339798, 35.486874, 30.0 ] } },
{ "type": "Feature", "properties": { "value": 1.3806 }, "geometry": { "type": "Point", "coordinates": [ 129.340897, 35.486874, 30.0 ] } },
{ "type": "Feature", "properties": { "value": 2.0038 }, "geometry": { "type": "Point", "coordinates": [ 129.333191, 35.487793, 30.0 ] } },
{ "type": "Feature", "properties": { "value": 10.542 }, "geometry": { "type": "Point", "coordinates": [ 129.33429, 35.487793, 30.0 ] } },
{ "type": "Feature", "properties": { "value": 28.044 }, "geometry": { "type": "Point", "coordinates": [ 129.335388, 35.487789, 30.0 ] } },
{ "type": "Feature", "properties": { "value": 42.48 }, "geometry": { "type": "Point", "coordinates": [ 129.336502, 35.487785, 30.0 ] } },
{ "type": "Feature", "properties": { "value": 39.958 }, "geometry": { "type": "Point", "coordinates": [ 129.337601, 35.487782, 30.0 ] } },
{ "type": "Feature", "properties": { "value": 25.044 }, "geometry": { "type": "Point", "coordinates": [ 129.338699, 35.487778, 30.0 ] } },
{ "type": "Feature", "properties": { "value": 11.464 }, "geometry": { "type": "Point", "coordinates": [ 129.339798, 35.487778, 30.0 ] } },
{ "type": "Feature", "properties": { "value": 4.0859 }, "geometry": { "type": "Point", "coordinates": [ 129.340912, 35.487774, 30.0 ] } },
{ "type": "Feature", "properties": { "value": 1.1102 }, "geometry": { "type": "Point", "coordinates": [ 129.34201, 35.48777, 30.0 ] } },
{ "type": "Feature", "properties": { "value": 0.0128 }, "geometry": { "type": "Point", "coordinates": [ 129.343109, 35.487766, 30.0 ] } },
{ "type": "Feature", "properties": { "value": 0.7898 }, "geometry": { "type": "Point", "coordinates": [ 129.333191, 35.488697, 30.0 ] } },
{ "type": "Feature", "properties": { "value": 5.3822 }, "geometry": { "type": "Point", "coordinates": [ 129.33429, 35.488693, 30.0 ] } },
{ "type": "Feature", "properties": { "value": 17.366 }, "geometry": { "type": "Point", "coordinates": [ 129.335403, 35.488689, 30.0 ] } },
{ "type": "Feature", "properties": { "value": 32.96 }, "geometry": { "type": "Point", "coordinates": [ 129.336502, 35.488686, 30.0 ] } },
{ "type": "Feature", "properties": { "value": 39.689 }, "geometry": { "type": "Point", "coordinates": [ 129.337601, 35.488682, 30.0 ] } },
{ "type": "Feature", "properties": { "value": 32.19 }, "geometry": { "type": "Point", "coordinates": [ 129.338699, 35.488682, 30.0 ] } },
{ "type": "Feature", "properties": { "value": 19.066 }, "geometry": { "type": "Point", "coordinates": [ 129.339813, 35.488678, 30.0 ] } },
{ "type": "Feature", "properties": { "value": 8.8224 }, "geometry": { "type": "Point", "coordinates": [ 129.340912, 35.488674, 30.0 ] } },
{ "type": "Feature", "properties": { "value": 3.2726 }, "geometry": { "type": "Point", "coordinates": [ 129.34201, 35.48867, 30.0 ] } },
{ "type": "Feature", "properties": { "value": 0.9475 }, "geometry": { "type": "Point", "coordinates": [ 129.343109, 35.488667, 30.0 ] } },
{ "type": "Feature", "properties": { "value": 2.5909 }, "geometry": { "type": "Point", "coordinates": [ 129.334305, 35.489594, 30.0 ] } },
{ "type": "Feature", "properties": { "value": 9.8767 }, "geometry": { "type": "Point", "coordinates": [ 129.335403, 35.48959, 30.0 ] } },
{ "type": "Feature", "properties": { "value": 22.84 }, "geometry": { "type": "Point", "coordinates": [ 129.336502, 35.48959, 30.0 ] } },
{ "type": "Feature", "properties": { "value": 34.245 }, "geometry": { "type": "Point", "coordinates": [ 129.337601, 35.489586, 30.0 ] } },
{ "type": "Feature", "properties": { "value": 35.119 }, "geometry": { "type": "Point", "coordinates": [ 129.338715, 35.489582, 30.0 ] } },
{ "type": "Feature", "properties": { "value": 26.308 }, "geometry": { "type": "Point", "coordinates": [ 129.339813, 35.489578, 30.0 ] } },
{ "type": "Feature", "properties": { "value": 15.358 }, "geometry": { "type": "Point", "coordinates": [ 129.340912, 35.489574, 30.0 ] } },
{ "type": "Feature", "properties": { "value": 7.2275 }, "geometry": { "type": "Point", "coordinates": [ 129.34201, 35.489571, 30.0 ] } },
{ "type": "Feature", "properties": { "value": 2.7571 }, "geometry": { "type": "Point", "coordinates": [ 129.343109, 35.489571, 30.0 ] } },
{ "type": "Feature", "properties": { "value": 0.8084 }, "geometry": { "type": "Point", "coordinates": [ 129.344223, 35.489567, 30.0 ] } },
{ "type": "Feature", "properties": { "value": 1.1093 }, "geometry": { "type": "Point", "coordinates": [ 129.334305, 35.490494, 30.0 ] } },
{ "type": "Feature", "properties": { "value": 5.2019 }, "geometry": { "type": "Point", "coordinates": [ 129.335403, 35.490494, 30.0 ] } },
{ "type": "Feature", "properties": { "value": 14.371 }, "geometry": { "type": "Point", "coordinates": [ 129.336502, 35.49049, 30.0 ] } },
{ "type": "Feature", "properties": { "value": 26.141 }, "geometry": { "type": "Point", "coordinates": [ 129.337616, 35.490486, 30.0 ] } },
{ "type": "Feature", "properties": { "value": 32.974 }, "geometry": { "type": "Point", "coordinates": [ 129.338715, 35.490482, 30.0 ] } },
{ "type": "Feature", "properties": { "value": 30.756 }, "geometry": { "type": "Point", "coordinates": [ 129.339813, 35.490479, 30.0 ] } },
{ "type": "Feature", "properties": { "value": 22.479 }, "geometry": { "type": "Point", "coordinates": [ 129.340912, 35.490479, 30.0 ] } },
{ "type": "Feature", "properties": { "value": 13.11 }, "geometry": { "type": "Point", "coordinates": [ 129.34201, 35.490475, 30.0 ] } },
{ "type": "Feature", "properties": { "value": 6.1579 }, "geometry": { "type": "Point", "coordinates": [ 129.343124, 35.490471, 30.0 ] } },
{ "type": "Feature", "properties": { "value": 2.3755 }, "geometry": { "type": "Point", "coordinates": [ 129.344223, 35.490467, 30.0 ] } },
{ "type": "Feature", "properties": { "value": 0.7036 }, "geometry": { "type": "Point", "coordinates": [ 129.345322, 35.490463, 30.0 ] } },
{ "type": "Feature", "properties": { "value": 0.3968 }, "geometry": { "type": "Point", "coordinates": [ 129.334305, 35.491398, 30.0 ] } },
{ "type": "Feature", "properties": { "value": 2.509 }, "geometry": { "type": "Point", "coordinates": [ 129.335403, 35.491394, 30.0 ] } },
{ "type": "Feature", "properties": { "value": 8.2512 }, "geometry": { "type": "Point", "coordinates": [ 129.336517, 35.49139, 30.0 ] } },
{ "type": "Feature", "properties": { "value": 17.901 }, "geometry": { "type": "Point", "coordinates": [ 129.337616, 35.491386, 30.0 ] } },
{ "type": "Feature", "properties": { "value": 27.214 }, "geometry": { "type": "Point", "coordinates": [ 129.338715, 35.491383, 30.0 ] } },
{ "type": "Feature", "properties": { "value": 31.126 }, "geometry": { "type": "Point", "coordinates": [ 129.339813, 35.491383, 30.0 ] } },
{ "type": "Feature", "properties": { "value": 27.933 }, "geometry": { "type": "Point", "coordinates": [ 129.340927, 35.491379, 30.0 ] } },
{ "type": "Feature", "properties": { "value": 19.842 }, "geometry": { "type": "Point", "coordinates": [ 129.342026, 35.491375, 30.0 ] } },
{ "type": "Feature", "properties": { "value": 11.387 }, "geometry": { "type": "Point", "coordinates": [ 129.343124, 35.491371, 30.0 ] } },
{ "type": "Feature", "properties": { "value": 5.3992 }, "geometry": { "type": "Point", "coordinates": [ 129.344223, 35.491367, 30.0 ] } },
{ "type": "Feature", "properties": { "value": 2.1463 }, "geometry": { "type": "Point", "coordinates": [ 129.345322, 35.491367, 30.0 ] } },
{ "type": "Feature", "properties": { "value": 0.6744 }, "geometry": { "type": "Point", "coordinates": [ 129.346436, 35.491364, 30.0 ] } },
{ "type": "Feature", "properties": { "value": 1.1076 }, "geometry": { "type": "Point", "coordinates": [ 129.335419, 35.492294, 30.0 ] } },
{ "type": "Feature", "properties": { "value": 4.3095 }, "geometry": { "type": "Point", "coordinates": [ 129.336517, 35.49229, 30.0 ] } },
{ "type": "Feature", "properties": { "value": 11.054 }, "geometry": { "type": "Point", "coordinates": [ 129.337616, 35.49229, 30.0 ] } },
{ "type": "Feature", "properties": { "value": 20.196 }, "geometry": { "type": "Point", "coordinates": [ 129.338715, 35.492287, 30.0 ] } },
{ "type": "Feature", "properties": { "value": 27.753 }, "geometry": { "type": "Point", "coordinates": [ 129.339828, 35.492283, 30.0 ] } },
{ "type": "Feature", "properties": { "value": 29.79 }, "geometry": { "type": "Point", "coordinates": [ 129.340927, 35.492279, 30.0 ] } },
{ "type": "Feature", "properties": { "value": 25.439 }, "geometry": { "type": "Point", "coordinates": [ 129.342026, 35.492275, 30.0 ] } },
{ "type": "Feature", "properties": { "value": 17.621 }, "geometry": { "type": "Point", "coordinates": [ 129.343124, 35.492271, 30.0 ] } },
{ "type": "Feature", "properties": { "value": 10.081 }, "geometry": { "type": "Point", "coordinates": [ 129.344223, 35.492271, 30.0 ] } },
{ "type": "Feature", "properties": { "value": 4.8868 }, "geometry": { "type": "Point", "coordinates": [ 129.345337, 35.492268, 30.0 ] } },
{ "type": "Feature", "properties": { "value": 2.0055 }, "geometry": { "type": "Point", "coordinates": [ 129.346436, 35.492264, 30.0 ] } },
{ "type": "Feature", "properties": { "value": 0.6424 }, "geometry": { "type": "Point", "coordinates": [ 129.347534, 35.49226, 30.0 ] } },
{ "type": "Feature", "properties": { "value": 0.378 }, "geometry": { "type": "Point", "coordinates": [ 129.335419, 35.493195, 30.0 ] } },
{ "type": "Feature", "properties": { "value": 2.0245 }, "geometry": { "type": "Point", "coordinates": [ 129.336517, 35.493195, 30.0 ] } },
{ "type": "Feature", "properties": { "value": 6.1282 }, "geometry": { "type": "Point", "coordinates": [ 129.337616, 35.493191, 30.0 ] } },
{ "type": "Feature", "properties": { "value": 13.343 }, "geometry": { "type": "Point", "coordinates": [ 129.33873, 35.493187, 30.0 ] } },
{ "type": "Feature", "properties": { "value": 21.831 }, "geometry": { "type": "Point", "coordinates": [ 129.339828, 35.493183, 30.0 ] } },
{ "type": "Feature", "properties": { "value": 27.716 }, "geometry": { "type": "Point", "coordinates": [ 129.340927, 35.493179, 30.0 ] } },
{ "type": "Feature", "properties": { "value": 28.134 }, "geometry": { "type": "Point", "coordinates": [ 129.342026, 35.493179, 30.0 ] } },
{ "type": "Feature", "properties": { "value": 23.297 }, "geometry": { "type": "Point", "coordinates": [ 129.343124, 35.493176, 30.0 ] } },
{ "type": "Feature", "properties": { "value": 15.953 }, "geometry": { "type": "Point", "coordinates": [ 129.344238, 35.493172, 30.0 ] } },
{ "type": "Feature", "properties": { "value": 9.2077 }, "geometry": { "type": "Point", "coordinates": [ 129.345337, 35.493168, 30.0 ] } },
{ "type": "Feature", "properties": { "value": 4.5456 }, "geometry": { "type": "Point", "coordinates": [ 129.346436, 35.493164, 30.0 ] } },
{ "type": "Feature", "properties": { "value": 1.9159 }, "geometry": { "type": "Point", "coordinates": [ 129.347534, 35.49316, 30.0 ] } },
{ "type": "Feature", "properties": { "value": 0.6598 }, "geometry": { "type": "Point", "coordinates": [ 129.348648, 35.49316, 30.0 ] } },
{ "type": "Feature", "properties": { "value": 0.05 }, "geometry": { "type": "Point", "coordinates": [ 129.349747, 35.493156, 30.0 ] } },
{ "type": "Feature", "properties": { "value": 0.8045 }, "geometry": { "type": "Point", "coordinates": [ 129.336517, 35.494095, 30.0 ] } },
{ "type": "Feature", "properties": { "value": 3.015 }, "geometry": { "type": "Point", "coordinates": [ 129.337631, 35.494091, 30.0 ] } },
{ "type": "Feature", "properties": { "value": 7.7774 }, "geometry": { "type": "Point", "coordinates": [ 129.33873, 35.494087, 30.0 ] } },
{ "type": "Feature", "properties": { "value": 15.036 }, "geometry": { "type": "Point", "coordinates": [ 129.339828, 35.494083, 30.0 ] } },
{ "type": "Feature", "properties": { "value": 22.572 }, "geometry": { "type": "Point", "coordinates": [ 129.340927, 35.494083, 30.0 ] } },
{ "type": "Feature", "properties": { "value": 27.131 }, "geometry": { "type": "Point", "coordinates": [ 129.342026, 35.49408, 30.0 ] } },
{ "type": "Feature", "properties": { "value": 26.619 }, "geometry": { "type": "Point", "coordinates": [ 129.34314, 35.494076, 30.0 ] } },
{ "type": "Feature", "properties": { "value": 21.651 }, "geometry": { "type": "Point", "coordinates": [ 129.344238, 35.494072, 30.0 ] } },
{ "type": "Feature", "properties": { "value": 14.83 }, "geometry": { "type": "Point", "coordinates": [ 129.345337, 35.494068, 30.0 ] } },
{ "type": "Feature", "properties": { "value": 8.6703 }, "geometry": { "type": "Point", "coordinates": [ 129.346436, 35.494068, 30.0 ] } },
{ "type": "Feature", "properties": { "value": 4.407 }, "geometry": { "type": "Point", "coordinates": [ 129.347549, 35.494064, 30.0 ] } },
{ "type": "Feature", "properties": { "value": 1.9657 }, "geometry": { "type": "Point", "coordinates": [ 129.348648, 35.494061, 30.0 ] } },
{ "type": "Feature", "properties": { "value": 0.7471 }, "geometry": { "type": "Point", "coordinates": [ 129.349747, 35.494057, 30.0 ] } },
{ "type": "Feature", "properties": { "value": 0.1529 }, "geometry": { "type": "Point", "coordinates": [ 129.350845, 35.494053, 30.0 ] } },
{ "type": "Feature", "properties": { "value": 0.1083 }, "geometry": { "type": "Point", "coordinates": [ 129.336533, 35.494995, 30.0 ] } },
{ "type": "Feature", "properties": { "value": 1.2922 }, "geometry": { "type": "Point", "coordinates": [ 129.337631, 35.494991, 30.0 ] } },
{ "type": "Feature", "properties": { "value": 3.977 }, "geometry": { "type": "Point", "coordinates": [ 129.33873, 35.494991, 30.0 ] } },
{ "type": "Feature", "properties": { "value": 9.0699 }, "geometry": { "type": "Point", "coordinates": [ 129.339828, 35.494987, 30.0 ] } },
{ "type": "Feature", "properties": { "value": 16.118 }, "geometry": { "type": "Point", "coordinates": [ 129.340942, 35.494984, 30.0 ] } },
{ "type": "Feature", "properties": { "value": 22.799 }, "geometry": { "type": "Point", "coordinates": [ 129.342041, 35.49498, 30.0 ] } },
{ "type": "Feature", "properties": { "value": 26.239 }, "geometry": { "type": "Point", "coordinates": [ 129.34314, 35.494976, 30.0 ] } },
{ "type": "Feature", "properties": { "value": 25.185 }, "geometry": { "type": "Point", "coordinates": [ 129.344238, 35.494972, 30.0 ] } },
{ "type": "Feature", "properties": { "value": 20.382 }, "geometry": { "type": "Point", "coordinates": [ 129.345337, 35.494972, 30.0 ] } },
{ "type": "Feature", "properties": { "value": 14.088 }, "geometry": { "type": "Point", "coordinates": [ 129.346451, 35.494968, 30.0 ] } },
{ "type": "Feature", "properties": { "value": 8.4706 }, "geometry": { "type": "Point", "coordinates": [ 129.347549, 35.494965, 30.0 ] } },
{ "type": "Feature", "properties": { "value": 4.5318 }, "geometry": { "type": "Point", "coordinates": [ 129.348648, 35.494961, 30.0 ] } },
{ "type": "Feature", "properties": { "value": 2.1626 }, "geometry": { "type": "Point", "coordinates": [ 129.349747, 35.494957, 30.0 ] } },
{ "type": "Feature", "properties": { "value": 0.9292 }, "geometry": { "type": "Point", "coordinates": [ 129.350861, 35.494953, 30.0 ] } },
{ "type": "Feature", "properties": { "value": 0.3096 }, "geometry": { "type": "Point", "coordinates": [ 129.351959, 35.494953, 30.0 ] } },
{ "type": "Feature", "properties": { "value": 0.404 }, "geometry": { "type": "Point", "coordinates": [ 129.337631, 35.495895, 30.0 ] } },
{ "type": "Feature", "properties": { "value": 1.7572 }, "geometry": { "type": "Point", "coordinates": [ 129.33873, 35.495892, 30.0 ] } },
{ "type": "Feature", "properties": { "value": 4.7924 }, "geometry": { "type": "Point", "coordinates": [ 129.339844, 35.495888, 30.0 ] } },
{ "type": "Feature", "properties": { "value": 10.061 }, "geometry": { "type": "Point", "coordinates": [ 129.340942, 35.495884, 30.0 ] } },
{ "type": "Feature", "properties": { "value": 16.681 }, "geometry": { "type": "Point", "coordinates": [ 129.342041, 35.49588, 30.0 ] } },
{ "type": "Feature", "properties": { "value": 22.413 }, "geometry": { "type": "Point", "coordinates": [ 129.34314, 35.49588, 30.0 ] } },
{ "type": "Feature", "properties": { "value": 25.218 }, "geometry": { "type": "Point", "coordinates": [ 129.344238, 35.495876, 30.0 ] } },
{ "type": "Feature", "properties": { "value": 24.029 }, "geometry": { "type": "Point", "coordinates": [ 129.345352, 35.495872, 30.0 ] } },
{ "type": "Feature", "properties": { "value": 19.492 }, "geometry": { "type": "Point", "coordinates": [ 129.346451, 35.495869, 30.0 ] } },
{ "type": "Feature", "properties": { "value": 13.786 }, "geometry": { "type": "Point", "coordinates": [ 129.347549, 35.495865, 30.0 ] } },
{ "type": "Feature", "properties": { "value": 8.6871 }, "geometry": { "type": "Point", "coordinates": [ 129.348648, 35.495861, 30.0 ] } },
{ "type": "Feature", "properties": { "value": 4.9244 }, "geometry": { "type": "Point", "coordinates": [ 129.349762, 35.495861, 30.0 ] } },
{ "type": "Feature", "properties": { "value": 2.535 }, "geometry": { "type": "Point", "coordinates": [ 129.350861, 35.495857, 30.0 ] } },
{ "type": "Feature", "properties": { "value": 1.1981 }, "geometry": { "type": "Point", "coordinates": [ 129.351959, 35.495853, 30.0 ] } },
{ "type": "Feature", "properties": { "value": 0.5033 }, "geometry": { "type": "Point", "coordinates": [ 129.353058, 35.49585, 30.0 ] } },
{ "type": "Feature", "properties": { "value": 0.0936 }, "geometry": { "type": "Point", "coordinates": [ 129.354156, 35.495846, 30.0 ] } },
{ "type": "Feature", "properties": { "value": 0.6343 }, "geometry": { "type": "Point", "coordinates": [ 129.338745, 35.496792, 30.0 ] } },
{ "type": "Feature", "properties": { "value": 2.2154 }, "geometry": { "type": "Point", "coordinates": [ 129.339844, 35.496788, 30.0 ] } },
{ "type": "Feature", "properties": { "value": 5.4972 }, "geometry": { "type": "Point", "coordinates": [ 129.340942, 35.496784, 30.0 ] } },
{ "type": "Feature", "properties": { "value": 10.669 }, "geometry": { "type": "Point", "coordinates": [ 129.342041, 35.496784, 30.0 ] } },
{ "type": "Feature", "properties": { "value": 16.735 }, "geometry": { "type": "Point", "coordinates": [ 129.34314, 35.49678, 30.0 ] } },
{ "type": "Feature", "properties": { "value": 21.942 }, "geometry": { "type": "Point", "coordinates": [ 129.344254, 35.496777, 30.0 ] } },
{ "type": "Feature", "properties": { "value": 24.392 }, "geometry": { "type": "Point", "coordinates": [ 129.345352, 35.496773, 30.0 ] } },
{ "type": "Feature", "properties": { "value": 23.126 }, "geometry": { "type": "Point", "coordinates": [ 129.346451, 35.496769, 30.0 ] } },
{ "type": "Feature", "properties": { "value": 19.11 }, "geometry": { "type": "Point", "coordinates": [ 129.347549, 35.496765, 30.0 ] } },
{ "type": "Feature", "properties": { "value": 14.041 }, "geometry": { "type": "Point", "coordinates": [ 129.348663, 35.496765, 30.0 ] } },
{ "type": "Feature", "properties": { "value": 9.3116 }, "geometry": { "type": "Point", "coordinates": [ 129.349762, 35.496761, 30.0 ] } },
{ "type": "Feature", "properties": { "value": 5.5703 }, "geometry": { "type": "Point", "coordinates": [ 129.350861, 35.496758, 30.0 ] } },
{ "type": "Feature", "properties": { "value": 3.0382 }, "geometry": { "type": "Point", "coordinates": [ 129.351959, 35.496754, 30.0 ] } },
{ "type": "Feature", "properties": { "value": 1.5205 }, "geometry": { "type": "Point", "coordinates": [ 129.353073, 35.49675, 30.0 ] } },
{ "type": "Feature", "properties": { "value": 0.6808 }, "geometry": { "type": "Point", "coordinates": [ 129.354172, 35.496746, 30.0 ] } },
{ "type": "Feature", "properties": { "value": 0.2549 }, "geometry": { "type": "Point", "coordinates": [ 129.35527, 35.496746, 30.0 ] } },
{ "type": "Feature", "properties": { "value": 0.8524 }, "geometry": { "type": "Point", "coordinates": [ 129.339844, 35.497692, 30.0 ] } },
{ "type": "Feature", "properties": { "value": 2.6076 }, "geometry": { "type": "Point", "coordinates": [ 129.340942, 35.497688, 30.0 ] } },
{ "type": "Feature", "properties": { "value": 5.939 }, "geometry": { "type": "Point", "coordinates": [ 129.342041, 35.497684, 30.0 ] } },
{ "type": "Feature", "properties": { "value": 10.865 }, "geometry": { "type": "Point", "coordinates": [ 129.343155, 35.497681, 30.0 ] } },
{ "type": "Feature", "properties": { "value": 16.566 }, "geometry": { "type": "Point", "coordinates": [ 129.344254, 35.497677, 30.0 ] } },
{ "type": "Feature", "properties": { "value": 21.395 }, "geometry": { "type": "Point", "coordinates": [ 129.345352, 35.497673, 30.0 ] } },
{ "type": "Feature", "properties": { "value": 23.597 }, "geometry": { "type": "Point", "coordinates": [ 129.346451, 35.497673, 30.0 ] } },
{ "type": "Feature", "properties": { "value": 22.653 }, "geometry": { "type": "Point", "coordinates": [ 129.347565, 35.497669, 30.0 ] } },
{ "type": "Feature", "properties": { "value": 19.217 }, "geometry": { "type": "Point", "coordinates": [ 129.348663, 35.497665, 30.0 ] } },
{ "type": "Feature", "properties": { "value": 14.598 }, "geometry": { "type": "Point", "coordinates": [ 129.349762, 35.497662, 30.0 ] } },
{ "type": "Feature", "properties": { "value": 9.9872 }, "geometry": { "type": "Point", "coordinates": [ 129.350861, 35.497658, 30.0 ] } },
{ "type": "Feature", "properties": { "value": 6.1805 }, "geometry": { "type": "Point", "coordinates": [ 129.351974, 35.497654, 30.0 ] } },
{ "type": "Feature", "properties": { "value": 3.4786 }, "geometry": { "type": "Point", "coordinates": [ 129.353073, 35.497654, 30.0 ] } },
{ "type": "Feature", "properties": { "value": 1.76 }, "geometry": { "type": "Point", "coordinates": [ 129.354172, 35.49765, 30.0 ] } },
{ "type": "Feature", "properties": { "value": 0.7697 }, "geometry": { "type": "Point", "coordinates": [ 129.35527, 35.497646, 30.0 ] } },
{ "type": "Feature", "properties": { "value": 0.2715 }, "geometry": { "type": "Point", "coordinates": [ 129.356369, 35.497643, 30.0 ] } },
{ "type": "Feature", "properties": { "value": 0.0453 }, "geometry": { "type": "Point", "coordinates": [ 129.357483, 35.497639, 30.0 ] } },
{ "type": "Feature", "properties": { "value": 0.2066 }, "geometry": { "type": "Point", "coordinates": [ 129.339844, 35.498592, 30.0 ] } },
{ "type": "Feature", "properties": { "value": 1.0562 }, "geometry": { "type": "Point", "coordinates": [ 129.340958, 35.498589, 30.0 ] } },
{ "type": "Feature", "properties": { "value": 2.8631 }, "geometry": { "type": "Point", "coordinates": [ 129.342056, 35.498585, 30.0 ] } },
{ "type": "Feature", "properties": { "value": 6.1126 }, "geometry": { "type": "Point", "coordinates": [ 129.343155, 35.498581, 30.0 ] } },
{ "type": "Feature", "properties": { "value": 10.856 }, "geometry": { "type": "Point", "coordinates": [ 129.344254, 35.498581, 30.0 ] } },
{ "type": "Feature", "properties": { "value": 16.241 }, "geometry": { "type": "Point", "coordinates": [ 129.345352, 35.498577, 30.0 ] } },
{ "type": "Feature", "properties": { "value": 20.708 }, "geometry": { "type": "Point", "coordinates": [ 129.346466, 35.498573, 30.0 ] } },
{ "type": "Feature", "properties": { "value": 22.899 }, "geometry": { "type": "Point", "coordinates": [ 129.347565, 35.498569, 30.0 ] } },
{ "type": "Feature", "properties": { "value": 22.192 }, "geometry": { "type": "Point", "coordinates": [ 129.348663, 35.498566, 30.0 ] } },
{ "type": "Feature", "properties": { "value": 19.145 }, "geometry": { "type": "Point", "coordinates": [ 129.349762, 35.498562, 30.0 ] } },
{ "type": "Feature", "properties": { "value": 14.822 }, "geometry": { "type": "Point", "coordinates": [ 129.350876, 35.498562, 30.0 ] } },
{ "type": "Feature", "properties": { "value": 10.318 }, "geometry": { "type": "Point", "coordinates": [ 129.351974, 35.498558, 30.0 ] } },
{ "type": "Feature", "properties": { "value": 6.4466 }, "geometry": { "type": "Point", "coordinates": [ 129.353073, 35.498554, 30.0 ] } },
{ "type": "Feature", "properties": { "value": 3.5508 }, "geometry": { "type": "Point", "coordinates": [ 129.354172, 35.49855, 30.0 ] } },
{ "type": "Feature", "properties": { "value": 1.6773 }, "geometry": { "type": "Point", "coordinates": [ 129.35527, 35.498547, 30.0 ] } },
{ "type": "Feature", "properties": { "value": 0.6633 }, "geometry": { "type": "Point", "coordinates": [ 129.356384, 35.498543, 30.0 ] } },
{ "type": "Feature", "properties": { "value": 0.2012 }, "geometry": { "type": "Point", "coordinates": [ 129.357483, 35.498539, 30.0 ] } },
{ "type": "Feature", "properties": { "value": 0.0276 }, "geometry": { "type": "Point", "coordinates": [ 129.358582, 35.498539, 30.0 ] } },
{ "type": "Feature", "properties": { "value": 0.3198 }, "geometry": { "type": "Point", "coordinates": [ 129.340958, 35.499489, 30.0 ] } },
{ "type": "Feature", "properties": { "value": 1.192 }, "geometry": { "type": "Point", "coordinates": [ 129.342056, 35.499485, 30.0 ] } },
{ "type": "Feature", "properties": { "value": 3.0141 }, "geometry": { "type": "Point", "coordinates": [ 129.343155, 35.499485, 30.0 ] } },
{ "type": "Feature", "properties": { "value": 6.2192 }, "geometry": { "type": "Point", "coordinates": [ 129.344254, 35.499481, 30.0 ] } },
{ "type": "Feature", "properties": { "value": 10.679 }, "geometry": { "type": "Point", "coordinates": [ 129.345367, 35.499477, 30.0 ] } },
{ "type": "Feature", "properties": { "value": 15.615 }, "geometry": { "type": "Point", "coordinates": [ 129.346466, 35.499474, 30.0 ] } },
{ "type": "Feature", "properties": { "value": 19.746 }, "geometry": { "type": "Point", "coordinates": [ 129.347565, 35.49947, 30.0 ] } },
{ "type": "Feature", "properties": { "value": 21.794 }, "geometry": { "type": "Point", "coordinates": [ 129.348663, 35.499466, 30.0 ] } },
{ "type": "Feature", "properties": { "value": 21.221 }, "geometry": { "type": "Point", "coordinates": [ 129.349777, 35.499466, 30.0 ] } },
{ "type": "Feature", "properties": { "value": 18.403 }, "geometry": { "type": "Point", "coordinates": [ 129.350876, 35.499462, 30.0 ] } },
{ "type": "Feature", "properties": { "value": 14.223 }, "geometry": { "type": "Point", "coordinates": [ 129.351974, 35.499458, 30.0 ] } },
{ "type": "Feature", "properties": { "value": 9.6676 }, "geometry": { "type": "Point", "coordinates": [ 129.353073, 35.499454, 30.0 ] } },
{ "type": "Feature", "properties": { "value": 5.6842 }, "geometry": { "type": "Point", "coordinates": [ 129.354187, 35.499451, 30.0 ] } },
{ "type": "Feature", "properties": { "value": 2.8383 }, "geometry": { "type": "Point", "coordinates": [ 129.355286, 35.499447, 30.0 ] } },
{ "type": "Feature", "properties": { "value": 1.1799 }, "geometry": { "type": "Point", "coordinates": [ 129.356384, 35.499447, 30.0 ] } },
{ "type": "Feature", "properties": { "value": 0.3966 }, "geometry": { "type": "Point", "coordinates": [ 129.357483, 35.499443, 30.0 ] } },
{ "type": "Feature", "properties": { "value": 0.0935 }, "geometry": { "type": "Point", "coordinates": [ 129.358582, 35.499439, 30.0 ] } },
{ "type": "Feature", "properties": { "value": 0.4012 }, "geometry": { "type": "Point", "coordinates": [ 129.342056, 35.500389, 30.0 ] } },
{ "type": "Feature", "properties": { "value": 1.2847 }, "geometry": { "type": "Point", "coordinates": [ 129.343155, 35.500385, 30.0 ] } },
{ "type": "Feature", "properties": { "value": 3.1054 }, "geometry": { "type": "Point", "coordinates": [ 129.344269, 35.500381, 30.0 ] } },
{ "type": "Feature", "properties": { "value": 6.1118 }, "geometry": { "type": "Point", "coordinates": [ 129.345367, 35.500378, 30.0 ] } },
{ "type": "Feature", "properties": { "value": 10.178 }, "geometry": { "type": "Point", "coordinates": [ 129.346466, 35.500374, 30.0 ] } },
{ "type": "Feature", "properties": { "value": 14.643 }, "geometry": { "type": "Point", "coordinates": [ 129.347565, 35.500374, 30.0 ] } },
{ "type": "Feature", "properties": { "value": 18.284 }, "geometry": { "type": "Point", "coordinates": [ 129.348679, 35.50037, 30.0 ] } },
{ "type": "Feature", "properties": { "value": 19.927 }, "geometry": { "type": "Point", "coordinates": [ 129.349777, 35.500366, 30.0 ] } },
{ "type": "Feature", "properties": { "value": 19.117 }, "geometry": { "type": "Point", "coordinates": [ 129.350876, 35.500362, 30.0 ] } },
{ "type": "Feature", "properties": { "value": 16.116 }, "geometry": { "type": "Point", "coordinates": [ 129.351974, 35.500359, 30.0 ] } },
{ "type": "Feature", "properties": { "value": 11.765 }, "geometry": { "type": "Point", "coordinates": [ 129.353088, 35.500355, 30.0 ] } },
{ "type": "Feature", "properties": { "value": 7.3267 }, "geometry": { "type": "Point", "coordinates": [ 129.354187, 35.500355, 30.0 ] } },
{ "type": "Feature", "properties": { "value": 3.8403 }, "geometry": { "type": "Point", "coordinates": [ 129.355286, 35.500351, 30.0 ] } },
{ "type": "Feature", "properties": { "value": 1.6585 }, "geometry": { "type": "Point", "coordinates": [ 129.356384, 35.500347, 30.0 ] } },
{ "type": "Feature", "properties": { "value": 0.5853 }, "geometry": { "type": "Point", "coordinates": [ 129.357483, 35.500343, 30.0 ] } },
{ "type": "Feature", "properties": { "value": 0.1554 }, "geometry": { "type": "Point", "coordinates": [ 129.358597, 35.50034, 30.0 ] } },
{ "type": "Feature", "properties": { "value": 0.0137 }, "geometry": { "type": "Point", "coordinates": [ 129.359695, 35.500336, 30.0 ] } },
{ "type": "Feature", "properties": { "value": 0.4349 }, "geometry": { "type": "Point", "coordinates": [ 129.34317, 35.501286, 30.0 ] } },
{ "type": "Feature", "properties": { "value": 1.3152 }, "geometry": { "type": "Point", "coordinates": [ 129.344269, 35.501282, 30.0 ] } },
{ "type": "Feature", "properties": { "value": 3.0095 }, "geometry": { "type": "Point", "coordinates": [ 129.345367, 35.501278, 30.0 ] } },
{ "type": "Feature", "properties": { "value": 5.6971 }, "geometry": { "type": "Point", "coordinates": [ 129.346466, 35.501278, 30.0 ] } },
{ "type": "Feature", "properties": { "value": 9.2288 }, "geometry": { "type": "Point", "coordinates": [ 129.34758, 35.501274, 30.0 ] } },
{ "type": "Feature", "properties": { "value": 12.928 }, "geometry": { "type": "Point", "coordinates": [ 129.348679, 35.50127, 30.0 ] } },
{ "type": "Feature", "properties": { "value": 15.662 }, "geometry": { "type": "Point", "coordinates": [ 129.349777, 35.501266, 30.0 ] } },
{ "type": "Feature", "properties": { "value": 16.484 }, "geometry": { "type": "Point", "coordinates": [ 129.350876, 35.501263, 30.0 ] } },
{ "type": "Feature", "properties": { "value": 14.983 }, "geometry": { "type": "Point", "coordinates": [ 129.35199, 35.501259, 30.0 ] } },
{ "type": "Feature", "properties": { "value": 11.645 }, "geometry": { "type": "Point", "coordinates": [ 129.353088, 35.501259, 30.0 ] } },
{ "type": "Feature", "properties": { "value": 7.6329 }, "geometry": { "type": "Point", "coordinates": [ 129.354187, 35.501255, 30.0 ] } },
{ "type": "Feature", "properties": { "value": 4.1659 }, "geometry": { "type": "Point", "coordinates": [ 129.355286, 35.501251, 30.0 ] } },
{ "type": "Feature", "properties": { "value": 1.867 }, "geometry": { "type": "Point", "coordinates": [ 129.3564, 35.501247, 30.0 ] } },
{ "type": "Feature", "properties": { "value": 0.6817 }, "geometry": { "type": "Point", "coordinates": [ 129.357498, 35.501244, 30.0 ] } },
{ "type": "Feature", "properties": { "value": 0.1934 }, "geometry": { "type": "Point", "coordinates": [ 129.358597, 35.50124, 30.0 ] } },
{ "type": "Feature", "properties": { "value": 0.03 }, "geometry": { "type": "Point", "coordinates": [ 129.359695, 35.50124, 30.0 ] } }
]
}
