{
"type": "FeatureCollection",
"features": [
{ "type": "Feature", "properties": { "value": 0.0 }, "geometry": { "type": "Point", "coordinates": [ 129.294434, 35.438324, 60.0 ] } },
{ "type": "Feature", "properties": { "value": 0.0035 }, "geometry": { "type": "Point", "coordinates": [ 129.295547, 35.43832, 60.0 ] } },
{ "type": "Feature", "properties": { "value": 0.0006 }, "geometry": { "type": "Point", "coordinates": [ 129.296646, 35.43832, 60.0 ] } },
{ "type": "Feature", "properties": { "value": 0.1025 }, "geometry": { "type": "Point", "coordinates": [ 129.293335, 35.439228, 60.0 ] } },
{ "type": "Feature", "properties": { "value": 0.486 }, "geometry": { "type": "Point", "coordinates": [ 129.294449, 35.439224, 60.0 ] } },
{ "type": "Feature", "properties": { "value": 1.4614 }, "geometry": { "type": "Point", "coordinates": [ 129.295547, 35.439224, 60.0 ] } },
{ "type": "Feature", "properties": { "value": 0.2792 }, "geometry": { "type": "Point", "coordinates": [ 129.296646, 35.43922, 60.0 ] } },
{ "type": "Feature", "properties": { "value": 0.0 }, "geometry": { "type": "Point", "coordinates": [ 129.297745, 35.439217, 60.0 ] } },
{ "type": "Feature", "properties": { "value": 0.0444 }, "geometry": { "type": "Point", "coordinates": [ 129.291138, 35.440136, 60.0 ] } },
{ "type": "Feature", "properties": { "value": 0.3032 }, "geometry": { "type": "Point", "coordinates": [ 129.292252, 35.440132, 60.0 ] } },
{ "type": "Feature", "properties": { "value": 1.6625 }, "geometry": { "type": "Point", "coordinates": [ 129.29335, 35.440128, 60.0 ] } },
{ "type": "Feature", "properties": { "value": 7.9787 }, "geometry": { "type": "Point", "coordinates": [ 129.294449, 35.440128, 60.0 ] } },
{ "type": "Feature", "properties": { "value": 12.067 }, "geometry": { "type": "Point", "coordinates": [ 129.295547, 35.440125, 60.0 ] } },
{ "type": "Feature", "properties": { "value": 2.3673 }, "geometry": { "type": "Point", "coordinates": [ 129.296646, 35.440121, 60.0 ] } },
{ "type": "Feature", "properties": { "value": 0.0021 }, "geometry": { "type": "Point", "coordinates": [ 129.297745, 35.440117, 60.0 ] } },
{ "type": "Feature", "properties": { "value": 0.0545 }, "geometry": { "type": "Point", "coordinates": [ 129.290039, 35.44104, 60.0 ] } },
{ "type": "Feature", "properties": { "value": 0.3646 }, "geometry": { "type": "Point", "coordinates": [ 129.291153, 35.441036, 60.0 ] } },
{ "type": "Feature", "properties": { "value": 1.6984 }, "geometry": { "type": "Point", "coordinates": [ 129.292252, 35.441032, 60.0 ] } },
{ "type": "Feature", "properties": { "value": 7.3133 }, "geometry": { "type": "Point", "coordinates": [ 129.29335, 35.441029, 60.0 ] } },
{ "type": "Feature", "properties": { "value": 21.072 }, "geometry": { "type": "Point", "coordinates": [ 129.294449, 35.441029, 60.0 ] } },
{ "type": "Feature", "properties": { "value": 21.802 }, "geometry": { "type": "Point", "coordinates": [ 129.295547, 35.441025, 60.0 ] } },
{ "type": "Feature", "properties": { "value": 4.1958 }, "geometry": { "type": "Point", "coordinates": [ 129.296646, 35.441021, 60.0 ] } },
{ "type": "Feature", "properties": { "value": 0.2232 }, "geometry": { "type": "Point", "coordinates": [ 129.29776, 35.441021, 60.0 ] } },
{ "type": "Feature", "properties": { "value": 0.0234 }, "geometry": { "type": "Point", "coordinates": [ 129.28894, 35.441944, 60.0 ] } },
{ "type": "Feature", "properties": { "value": 0.2869 }, "geometry": { "type": "Point", "coordinates": [ 129.290054, 35.44194, 60.0 ] } },
{ "type": "Feature", "properties": { "value": 1.1273 }, "geometry": { "type": "Point", "coordinates": [ 129.291153, 35.441936, 60.0 ] } },
{ "type": "Feature", "properties": { "value": 3.8751 }, "geometry": { "type": "Point", "coordinates": [ 129.292252, 35.441933, 60.0 ] } },
{ "type": "Feature", "properties": { "value": 11.054 }, "geometry": { "type": "Point", "coordinates": [ 129.29335, 35.441933, 60.0 ] } },
{ "type": "Feature", "properties": { "value": 20.303 }, "geometry": { "type": "Point", "coordinates": [ 129.294449, 35.441929, 60.0 ] } },
{ "type": "Feature", "properties": { "value": 16.809 }, "geometry": { "type": "Point", "coordinates": [ 129.295547, 35.441925, 60.0 ] } },
{ "type": "Feature", "properties": { "value": 4.4731 }, "geometry": { "type": "Point", "coordinates": [ 129.296661, 35.441925, 60.0 ] } },
{ "type": "Feature", "properties": { "value": 0.4309 }, "geometry": { "type": "Point", "coordinates": [ 129.29776, 35.441921, 60.0 ] } },
{ "type": "Feature", "properties": { "value": 0.185 }, "geometry": { "type": "Point", "coordinates": [ 129.288956, 35.442844, 60.0 ] } },
{ "type": "Feature", "properties": { "value": 0.6942 }, "geometry": { "type": "Point", "coordinates": [ 129.290054, 35.442841, 60.0 ] } },
{ "type": "Feature", "properties": { "value": 2.1345 }, "geometry": { "type": "Point", "coordinates": [ 129.291153, 35.442837, 60.0 ] } },
{ "type": "Feature", "properties": { "value": 5.4143 }, "geometry": { "type": "Point", "coordinates": [ 129.292252, 35.442837, 60.0 ] } },
{ "type": "Feature", "properties": { "value": 10.783 }, "geometry": { "type": "Point", "coordinates": [ 129.29335, 35.442833, 60.0 ] } },
{ "type": "Feature", "properties": { "value": 14.233 }, "geometry": { "type": "Point", "coordinates": [ 129.294464, 35.442829, 60.0 ] } },
{ "type": "Feature", "properties": { "value": 10.302 }, "geometry": { "type": "Point", "coordinates": [ 129.295563, 35.442829, 60.0 ] } },
{ "type": "Feature", "properties": { "value": 3.5276 }, "geometry": { "type": "Point", "coordinates": [ 129.296661, 35.442825, 60.0 ] } },
{ "type": "Feature", "properties": { "value": 0.6007 }, "geometry": { "type": "Point", "coordinates": [ 129.29776, 35.442822, 60.0 ] } },
{ "type": "Feature", "properties": { "value": 0.0569 }, "geometry": { "type": "Point", "coordinates": [ 129.298859, 35.442818, 60.0 ] } },
{ "type": "Feature", "properties": { "value": 0.0952 }, "geometry": { "type": "Point", "coordinates": [ 129.287857, 35.443748, 60.0 ] } },
{ "type": "Feature", "properties": { "value": 0.3891 }, "geometry": { "type": "Point", "coordinates": [ 129.288956, 35.443745, 60.0 ] } },
{ "type": "Feature", "properties": { "value": 1.2303 }, "geometry": { "type": "Point", "coordinates": [ 129.290054, 35.443741, 60.0 ] } },
{ "type": "Feature", "properties": { "value": 3.1117 }, "geometry": { "type": "Point", "coordinates": [ 129.291153, 35.443741, 60.0 ] } },
{ "type": "Feature", "properties": { "value": 6.2661 }, "geometry": { "type": "Point", "coordinates": [ 129.292252, 35.443737, 60.0 ] } },
{ "type": "Feature", "properties": { "value": 9.5774 }, "geometry": { "type": "Point", "coordinates": [ 129.293365, 35.443733, 60.0 ] } },
{ "type": "Feature", "properties": { "value": 10.141 }, "geometry": { "type": "Point", "coordinates": [ 129.294464, 35.443733, 60.0 ] } },
{ "type": "Feature", "properties": { "value": 6.7702 }, "geometry": { "type": "Point", "coordinates": [ 129.295563, 35.443729, 60.0 ] } },
{ "type": "Feature", "properties": { "value": 2.7258 }, "geometry": { "type": "Point", "coordinates": [ 129.296661, 35.443726, 60.0 ] } },
{ "type": "Feature", "properties": { "value": 0.646 }, "geometry": { "type": "Point", "coordinates": [ 129.29776, 35.443722, 60.0 ] } },
{ "type": "Feature", "properties": { "value": 0.0761 }, "geometry": { "type": "Point", "coordinates": [ 129.298859, 35.443722, 60.0 ] } },
{ "type": "Feature", "properties": { "value": 0.0246 }, "geometry": { "type": "Point", "coordinates": [ 129.286758, 35.444653, 60.0 ] } },
{ "type": "Feature", "properties": { "value": 0.1869 }, "geometry": { "type": "Point", "coordinates": [ 129.287857, 35.444649, 60.0 ] } },
{ "type": "Feature", "properties": { "value": 0.65 }, "geometry": { "type": "Point", "coordinates": [ 129.288956, 35.444645, 60.0 ] } },
{ "type": "Feature", "properties": { "value": 1.7717 }, "geometry": { "type": "Point", "coordinates": [ 129.290054, 35.444645, 60.0 ] } },
{ "type": "Feature", "properties": { "value": 3.8693 }, "geometry": { "type": "Point", "coordinates": [ 129.291153, 35.444641, 60.0 ] } },
{ "type": "Feature", "properties": { "value": 6.6143 }, "geometry": { "type": "Point", "coordinates": [ 129.292267, 35.444637, 60.0 ] } },
{ "type": "Feature", "properties": { "value": 8.5353 }, "geometry": { "type": "Point", "coordinates": [ 129.293365, 35.444637, 60.0 ] } },
{ "type": "Feature", "properties": { "value": 7.9242 }, "geometry": { "type": "Point", "coordinates": [ 129.294464, 35.444633, 60.0 ] } },
{ "type": "Feature", "properties": { "value": 5.0738 }, "geometry": { "type": "Point", "coordinates": [ 129.295563, 35.44463, 60.0 ] } },
{ "type": "Feature", "properties": { "value": 2.1696 }, "geometry": { "type": "Point", "coordinates": [ 129.296661, 35.444626, 60.0 ] } },
{ "type": "Feature", "properties": { "value": 0.623 }, "geometry": { "type": "Point", "coordinates": [ 129.297775, 35.444626, 60.0 ] } },
{ "type": "Feature", "properties": { "value": 0.1013 }, "geometry": { "type": "Point", "coordinates": [ 129.298874, 35.444622, 60.0 ] } },
{ "type": "Feature", "properties": { "value": 0.0656 }, "geometry": { "type": "Point", "coordinates": [ 129.286758, 35.445553, 60.0 ] } },
{ "type": "Feature", "properties": { "value": 0.2876 }, "geometry": { "type": "Point", "coordinates": [ 129.287857, 35.445549, 60.0 ] } },
{ "type": "Feature", "properties": { "value": 0.8824 }, "geometry": { "type": "Point", "coordinates": [ 129.288956, 35.445549, 60.0 ] } },
{ "type": "Feature", "properties": { "value": 2.1725 }, "geometry": { "type": "Point", "coordinates": [ 129.290054, 35.445545, 60.0 ] } },
{ "type": "Feature", "properties": { "value": 4.2162 }, "geometry": { "type": "Point", "coordinates": [ 129.291168, 35.445541, 60.0 ] } },
{ "type": "Feature", "properties": { "value": 6.4135 }, "geometry": { "type": "Point", "coordinates": [ 129.292267, 35.445541, 60.0 ] } },
{ "type": "Feature", "properties": { "value": 7.4415 }, "geometry": { "type": "Point", "coordinates": [ 129.293365, 35.445538, 60.0 ] } },
{ "type": "Feature", "properties": { "value": 6.3927 }, "geometry": { "type": "Point", "coordinates": [ 129.294464, 35.445534, 60.0 ] } },
{ "type": "Feature", "properties": { "value": 3.9659 }, "geometry": { "type": "Point", "coordinates": [ 129.295563, 35.44553, 60.0 ] } },
{ "type": "Feature", "properties": { "value": 1.7439 }, "geometry": { "type": "Point", "coordinates": [ 129.296677, 35.44553, 60.0 ] } },
{ "type": "Feature", "properties": { "value": 0.5404 }, "geometry": { "type": "Point", "coordinates": [ 129.297775, 35.445526, 60.0 ] } },
{ "type": "Feature", "properties": { "value": 0.1069 }, "geometry": { "type": "Point", "coordinates": [ 129.298874, 35.445522, 60.0 ] } },
{ "type": "Feature", "properties": { "value": 0.0123 }, "geometry": { "type": "Point", "coordinates": [ 129.28566, 35.446457, 60.0 ] } },
{ "type": "Feature", "properties": { "value": 0.0955 }, "geometry": { "type": "Point", "coordinates": [ 129.286758, 35.446453, 60.0 ] } },
{ "type": "Feature", "properties": { "value": 0.3552 }, "geometry": { "type": "Point", "coordinates": [ 129.287857, 35.446453, 60.0 ] } },
{ "type": "Feature", "properties": { "value": 1.0045 }, "geometry": { "type": "Point", "coordinates": [ 129.288956, 35.446449, 60.0 ] } },
{ "type": "Feature", "properties": { "value": 2.2698 }, "geometry": { "type": "Point", "coordinates": [ 129.29007, 35.446445, 60.0 ] } },
{ "type": "Feature", "properties": { "value": 4.0672 }, "geometry": { "type": "Point", "coordinates": [ 129.291168, 35.446442, 60.0 ] } },
{ "type": "Feature", "properties": { "value": 5.6954 }, "geometry": { "type": "Point", "coordinates": [ 129.292267, 35.446442, 60.0 ] } },
{ "type": "Feature", "properties": { "value": 6.1362 }, "geometry": { "type": "Point", "coordinates": [ 129.293365, 35.446438, 60.0 ] } },
{ "type": "Feature", "properties": { "value": 4.9773 }, "geometry": { "type": "Point", "coordinates": [ 129.294464, 35.446434, 60.0 ] } },
{ "type": "Feature", "properties": { "value": 3.0132 }, "geometry": { "type": "Point", "coordinates": [ 129.295578, 35.446434, 60.0 ] } },
{ "type": "Feature", "properties": { "value": 1.345 }, "geometry": { "type": "Point", "coordinates": [ 129.296677, 35.44643, 60.0 ] } },
{ "type": "Feature", "properties": { "value": 0.4345 }, "geometry": { "type": "Point", "coordinates": [ 129.297775, 35.446426, 60.0 ] } },
{ "type": "Feature", "properties": { "value": 0.0925 }, "geometry": { "type": "Point", "coordinates": [ 129.298874, 35.446426, 60.0 ] } },
{ "type": "Feature", "properties": { "value": 0.022 }, "geometry": { "type": "Point", "coordinates": [ 129.28566, 35.447357, 60.0 ] } },
{ "type": "Feature", "properties": { "value": 0.1098 }, "geometry": { "type": "Point", "coordinates": [ 129.286758, 35.447357, 60.0 ] } },
{ "type": "Feature", "properties": { "value": 0.363 }, "geometry": { "type": "Point", "coordinates": [ 129.287872, 35.447353, 60.0 ] } },
{ "type": "Feature", "properties": { "value": 0.9586 }, "geometry": { "type": "Point", "coordinates": [ 129.288971, 35.44735, 60.0 ] } },
{ "type": "Feature", "properties": { "value": 2.0185 }, "geometry": { "type": "Point", "coordinates": [ 129.29007, 35.447346, 60.0 ] } },
{ "type": "Feature", "properties": { "value": 3.3948 }, "geometry": { "type": "Point", "coordinates": [ 129.291168, 35.447346, 60.0 ] } },
{ "type": "Feature", "properties": { "value": 4.4868 }, "geometry": { "type": "Point", "coordinates": [ 129.292267, 35.447342, 60.0 ] } },
{ "type": "Feature", "properties": { "value": 4.6027 }, "geometry": { "type": "Point", "coordinates": [ 129.293365, 35.447338, 60.0 ] } },
{ "type": "Feature", "properties": { "value": 3.629 }, "geometry": { "type": "Point", "coordinates": [ 129.294479, 35.447338, 60.0 ] } },
{ "type": "Feature", "properties": { "value": 2.1599 }, "geometry": { "type": "Point", "coordinates": [ 129.295578, 35.447334, 60.0 ] } },
{ "type": "Feature", "properties": { "value": 0.963 }, "geometry": { "type": "Point", "coordinates": [ 129.296677, 35.44733, 60.0 ] } },
{ "type": "Feature", "properties": { "value": 0.3198 }, "geometry": { "type": "Point", "coordinates": [ 129.297775, 35.44733, 60.0 ] } },
{ "type": "Feature", "properties": { "value": 0.0628 }, "geometry": { "type": "Point", "coordinates": [ 129.298874, 35.447327, 60.0 ] } },
{ "type": "Feature", "properties": { "value": 0.0219 }, "geometry": { "type": "Point", "coordinates": [ 129.28566, 35.448257, 60.0 ] } },
{ "type": "Feature", "properties": { "value": 0.0958 }, "geometry": { "type": "Point", "coordinates": [ 129.286774, 35.448257, 60.0 ] } },
{ "type": "Feature", "properties": { "value": 0.3069 }, "geometry": { "type": "Point", "coordinates": [ 129.287872, 35.448254, 60.0 ] } },
{ "type": "Feature", "properties": { "value": 0.7726 }, "geometry": { "type": "Point", "coordinates": [ 129.288971, 35.44825, 60.0 ] } },
{ "type": "Feature", "properties": { "value": 1.5433 }, "geometry": { "type": "Point", "coordinates": [ 129.29007, 35.44825, 60.0 ] } },
{ "type": "Feature", "properties": { "value": 2.4593 }, "geometry": { "type": "Point", "coordinates": [ 129.291168, 35.448246, 60.0 ] } },
{ "type": "Feature", "properties": { "value": 3.1017 }, "geometry": { "type": "Point", "coordinates": [ 129.292267, 35.448242, 60.0 ] } },
{ "type": "Feature", "properties": { "value": 3.0798 }, "geometry": { "type": "Point", "coordinates": [ 129.293381, 35.448242, 60.0 ] } },
{ "type": "Feature", "properties": { "value": 2.3737 }, "geometry": { "type": "Point", "coordinates": [ 129.294479, 35.448238, 60.0 ] } },
{ "type": "Feature", "properties": { "value": 1.4096 }, "geometry": { "type": "Point", "coordinates": [ 129.295578, 35.448235, 60.0 ] } },
{ "type": "Feature", "properties": { "value": 0.6373 }, "geometry": { "type": "Point", "coordinates": [ 129.296677, 35.448235, 60.0 ] } },
{ "type": "Feature", "properties": { "value": 0.2129 }, "geometry": { "type": "Point", "coordinates": [ 129.297775, 35.448231, 60.0 ] } },
{ "type": "Feature", "properties": { "value": 0.0414 }, "geometry": { "type": "Point", "coordinates": [ 129.298889, 35.448227, 60.0 ] } },
{ "type": "Feature", "properties": { "value": 0.0143 }, "geometry": { "type": "Point", "coordinates": [ 129.285675, 35.449162, 60.0 ] } },
{ "type": "Feature", "properties": { "value": 0.0683 }, "geometry": { "type": "Point", "coordinates": [ 129.286774, 35.449158, 60.0 ] } },
{ "type": "Feature", "properties": { "value": 0.2161 }, "geometry": { "type": "Point", "coordinates": [ 129.287872, 35.449154, 60.0 ] } },
{ "type": "Feature", "properties": { "value": 0.5258 }, "geometry": { "type": "Point", "coordinates": [ 129.288971, 35.449154, 60.0 ] } },
{ "type": "Feature", "properties": { "value": 1.0127 }, "geometry": { "type": "Point", "coordinates": [ 129.29007, 35.44915, 60.0 ] } },
{ "type": "Feature", "properties": { "value": 1.5583 }, "geometry": { "type": "Point", "coordinates": [ 129.291168, 35.449146, 60.0 ] } },
{ "type": "Feature", "properties": { "value": 1.8991 }, "geometry": { "type": "Point", "coordinates": [ 129.292282, 35.449146, 60.0 ] } },
{ "type": "Feature", "properties": { "value": 1.8267 }, "geometry": { "type": "Point", "coordinates": [ 129.293381, 35.449142, 60.0 ] } },
{ "type": "Feature", "properties": { "value": 1.38 }, "geometry": { "type": "Point", "coordinates": [ 129.294479, 35.449139, 60.0 ] } },
{ "type": "Feature", "properties": { "value": 0.8166 }, "geometry": { "type": "Point", "coordinates": [ 129.295578, 35.449135, 60.0 ] } },
{ "type": "Feature", "properties": { "value": 0.3739 }, "geometry": { "type": "Point", "coordinates": [ 129.296677, 35.449135, 60.0 ] } },
{ "type": "Feature", "properties": { "value": 0.1275 }, "geometry": { "type": "Point", "coordinates": [ 129.297791, 35.449131, 60.0 ] } },
{ "type": "Feature", "properties": { "value": 0.0274 }, "geometry": { "type": "Point", "coordinates": [ 129.298889, 35.449127, 60.0 ] } },
{ "type": "Feature", "properties": { "value": 0.006 }, "geometry": { "type": "Point", "coordinates": [ 129.285675, 35.450062, 60.0 ] } },
{ "type": "Feature", "properties": { "value": 0.0391 }, "geometry": { "type": "Point", "coordinates": [ 129.286774, 35.450058, 60.0 ] } },
{ "type": "Feature", "properties": { "value": 0.1263 }, "geometry": { "type": "Point", "coordinates": [ 129.287872, 35.450058, 60.0 ] } },
{ "type": "Feature", "properties": { "value": 0.2971 }, "geometry": { "type": "Point", "coordinates": [ 129.288971, 35.450054, 60.0 ] } },
{ "type": "Feature", "properties": { "value": 0.5592 }, "geometry": { "type": "Point", "coordinates": [ 129.290085, 35.45005, 60.0 ] } },
{ "type": "Feature", "properties": { "value": 0.8401 }, "geometry": { "type": "Point", "coordinates": [ 129.291183, 35.45005, 60.0 ] } },
{ "type": "Feature", "properties": { "value": 1.0047 }, "geometry": { "type": "Point", "coordinates": [ 129.292282, 35.450047, 60.0 ] } },
{ "type": "Feature", "properties": { "value": 0.9496 }, "geometry": { "type": "Point", "coordinates": [ 129.293381, 35.450043, 60.0 ] } },
{ "type": "Feature", "properties": { "value": 0.7099 }, "geometry": { "type": "Point", "coordinates": [ 129.294479, 35.450039, 60.0 ] } },
{ "type": "Feature", "properties": { "value": 0.4154 }, "geometry": { "type": "Point", "coordinates": [ 129.295578, 35.450039, 60.0 ] } },
{ "type": "Feature", "properties": { "value": 0.1908 }, "geometry": { "type": "Point", "coordinates": [ 129.296692, 35.450035, 60.0 ] } },
{ "type": "Feature", "properties": { "value": 0.065 }, "geometry": { "type": "Point", "coordinates": [ 129.297791, 35.450031, 60.0 ] } },
{ "type": "Feature", "properties": { "value": 0.0114 }, "geometry": { "type": "Point", "coordinates": [ 129.298889, 35.450031, 60.0 ] } },
{ "type": "Feature", "properties": { "value": 0.0174 }, "geometry": { "type": "Point", "coordinates": [ 129.286774, 35.450962, 60.0 ] } },
{ "type": "Feature", "properties": { "value": 0.0607 }, "geometry": { "type": "Point", "coordinates": [ 129.287872, 35.450958, 60.0 ] } },
{ "type": "Feature", "properties": { "value": 0.1412 }, "geometry": { "type": "Point", "coordinates": [ 129.288986, 35.450954, 60.0 ] } },
{ "type": "Feature", "properties": { "value": 0.2612 }, "geometry": { "type": "Point", "coordinates": [ 129.290085, 35.450954, 60.0 ] } },
{ "type": "Feature", "properties": { "value": 0.3816 }, "geometry": { "type": "Point", "coordinates": [ 129.291183, 35.450951, 60.0 ] } },
{ "type": "Feature", "properties": { "value": 0.451 }, "geometry": { "type": "Point", "coordinates": [ 129.292282, 35.450947, 60.0 ] } },
{ "type": "Feature", "properties": { "value": 0.4207 }, "geometry": { "type": "Point", "coordinates": [ 129.293381, 35.450943, 60.0 ] } },
{ "type": "Feature", "properties": { "value": 0.3075 }, "geometry": { "type": "Point", "coordinates": [ 129.294479, 35.450943, 60.0 ] } },
{ "type": "Feature", "properties": { "value": 0.1812 }, "geometry": { "type": "Point", "coordinates": [ 129.295593, 35.450939, 60.0 ] } },
{ "type": "Feature", "properties": { "value": 0.0823 }, "geometry": { "type": "Point", "coordinates": [ 129.296692, 35.450935, 60.0 ] } },
{ "type": "Feature", "properties": { "value": 0.0255 }, "geometry": { "type": "Point", "coordinates": [ 129.297791, 35.450935, 60.0 ] } },
{ "type": "Feature", "properties": { "value": 0.0051 }, "geometry": { "type": "Point", "coordinates": [ 129.286774, 35.451862, 60.0 ] } },
{ "type": "Feature", "properties": { "value": 0.0204 }, "geometry": { "type": "Point", "coordinates": [ 129.287888, 35.451859, 60.0 ] } },
{ "type": "Feature", "properties": { "value": 0.0518 }, "geometry": { "type": "Point", "coordinates": [ 129.288986, 35.451855, 60.0 ] } },
{ "type": "Feature", "properties": { "value": 0.0989 }, "geometry": { "type": "Point", "coordinates": [ 129.290085, 35.451855, 60.0 ] } },
{ "type": "Feature", "properties": { "value": 0.1465 }, "geometry": { "type": "Point", "coordinates": [ 129.291183, 35.451851, 60.0 ] } },
{ "type": "Feature", "properties": { "value": 0.169 }, "geometry": { "type": "Point", "coordinates": [ 129.292282, 35.451847, 60.0 ] } },
{ "type": "Feature", "properties": { "value": 0.156 }, "geometry": { "type": "Point", "coordinates": [ 129.293381, 35.451847, 60.0 ] } },
{ "type": "Feature", "properties": { "value": 0.1151 }, "geometry": { "type": "Point", "coordinates": [ 129.294495, 35.451843, 60.0 ] } },
{ "type": "Feature", "properties": { "value": 0.065 }, "geometry": { "type": "Point", "coordinates": [ 129.295593, 35.451839, 60.0 ] } },
{ "type": "Feature", "properties": { "value": 0.0278 }, "geometry": { "type": "Point", "coordinates": [ 129.296692, 35.451839, 60.0 ] } },
{ "type": "Feature", "properties": { "value": 0.0052 }, "geometry": { "type": "Point", "coordinates": [ 129.297791, 35.451836, 60.0 ] } },
{ "type": "Feature", "properties": { "value": 0.0049 }, "geometry": { "type": "Point", "coordinates": [ 129.287888, 35.452759, 60.0 ] } },
{ "type": "Feature", "properties": { "value": 0.0156 }, "geometry": { "type": "Point", "coordinates": [ 129.288986, 35.452759, 60.0 ] } },
{ "type": "Feature", "properties": { "value": 0.0311 }, "geometry": { "type": "Point", "coordinates": [ 129.290085, 35.452755, 60.0 ] } },
{ "type": "Feature", "properties": { "value": 0.0439 }, "geometry": { "type": "Point", "coordinates": [ 129.291183, 35.452751, 60.0 ] } },
{ "type": "Feature", "properties": { "value": 0.0499 }, "geometry": { "type": "Point", "coordinates": [ 129.292297, 35.452751, 60.0 ] } },
{ "type": "Feature", "properties": { "value": 0.0456 }, "geometry": { "type": "Point", "coordinates": [ 129.293396, 35.452747, 60.0 ] } },
{ "type": "Feature", "properties": { "value": 0.0335 }, "geometry": { "type": "Point", "coordinates": [ 129.294495, 35.452744, 60.0 ] } },
{ "type": "Feature", "properties": { "value": 0.0167 }, "geometry": { "type": "Point", "coordinates": [ 129.295593, 35.452744, 60.0 ] } },
{ "type": "Feature", "properties": { "value": 0.005 }, "geometry": { "type": "Point", "coordinates": [ 129.296692, 35.45274, 60.0 ] } },
{ "type": "Feature", "properties": { "value": 0.0053 }, "geometry": { "type": "Point", "coordinates": [ 129.290085, 35.453655, 60.0 ] } },
{ "type": "Feature", "properties": { "value": 0.0073 }, "geometry": { "type": "Point", "coordinates": [ 129.291199, 35.453655, 60.0 ] } },
{ "type": "Feature", "properties": { "value": 0.0122 }, "geometry": { "type": "Point", "coordinates": [ 129.292297, 35.453651, 60.0 ] } },
{ "type": "Feature", "properties": { "value": 0.011 }, "geometry": { "type": "Point", "coordinates": [ 129.293396, 35.453648, 60.0 ] } },
{ "type": "Feature", "properties": { "value": 0.0054 }, "geometry": { "type": "Point", "coordinates": [ 129.294495, 35.453648, 60.0 ] } },
{ "type": "Feature", "properties": { "value": 28.271 }, "geometry": { "type": "Point", "coordinates": [ 129.326462, 35.458069, 60.0 ] } },
{ "type": "Feature", "properties": { "value": 12.316 }, "geometry": { "type": "Point", "coordinates": [ 129.32756, 35.458069, 60.0 ] } },
{ "type": "Feature", "properties": { "value": 1.8183 }, "geometry": { "type": "Point", "coordinates": [ 129.325363, 35.458973, 60.0 ] } },
{ "type": "Feature", "properties": { "value": 72.83 }, "geometry": { "type": "Point", "coordinates": [ 129.326462, 35.458973, 60.0 ] } },
{ "type": "Feature", "properties": { "value": 43.272 }, "geometry": { "type": "Point", "coordinates": [ 129.32756, 35.458969, 60.0 ] } },
{ "type": "Feature", "properties": { "value": 11.248 }, "geometry": { "type": "Point", "coordinates": [ 129.325363, 35.459877, 60.0 ] } },
{ "type": "Feature", "properties": { "value": 88.566 }, "geometry": { "type": "Point", "coordinates": [ 129.326462, 35.459873, 60.0 ] } },
{ "type": "Feature", "properties": { "value": 58.167 }, "geometry": { "type": "Point", "coordinates": [ 129.32756, 35.459869, 60.0 ] } },
{ "type": "Feature", "properties": { "value": 3.259 }, "geometry": { "type": "Point", "coordinates": [ 129.328674, 35.459866, 60.0 ] } },
{ "type": "Feature", "properties": { "value": 1.5867 }, "geometry": { "type": "Point", "coordinates": [ 129.324265, 35.460781, 60.0 ] } },
{ "type": "Feature", "properties": { "value": 22.787 }, "geometry": { "type": "Point", "coordinates": [ 129.325363, 35.460777, 60.0 ] } },
{ "type": "Feature", "properties": { "value": 84.8 }, "geometry": { "type": "Point", "coordinates": [ 129.326477, 35.460773, 60.0 ] } },
{ "type": "Feature", "properties": { "value": 59.605 }, "geometry": { "type": "Point", "coordinates": [ 129.327576, 35.46077, 60.0 ] } },
{ "type": "Feature", "properties": { "value": 8.1222 }, "geometry": { "type": "Point", "coordinates": [ 129.328674, 35.46077, 60.0 ] } },
{ "type": "Feature", "properties": { "value": 4.3867 }, "geometry": { "type": "Point", "coordinates": [ 129.324265, 35.461681, 60.0 ] } },
{ "type": "Feature", "properties": { "value": 29.111 }, "geometry": { "type": "Point", "coordinates": [ 129.325378, 35.461678, 60.0 ] } },
{ "type": "Feature", "properties": { "value": 70.218 }, "geometry": { "type": "Point", "coordinates": [ 129.326477, 35.461674, 60.0 ] } },
{ "type": "Feature", "properties": { "value": 52.299 }, "geometry": { "type": "Point", "coordinates": [ 129.327576, 35.461674, 60.0 ] } },
{ "type": "Feature", "properties": { "value": 11.824 }, "geometry": { "type": "Point", "coordinates": [ 129.328674, 35.46167, 60.0 ] } },
{ "type": "Feature", "properties": { "value": 0.6864 }, "geometry": { "type": "Point", "coordinates": [ 129.329773, 35.461666, 60.0 ] } },
{ "type": "Feature", "properties": { "value": 0.8884 }, "geometry": { "type": "Point", "coordinates": [ 129.323166, 35.462585, 60.0 ] } },
{ "type": "Feature", "properties": { "value": 7.5884 }, "geometry": { "type": "Point", "coordinates": [ 129.32428, 35.462582, 60.0 ] } },
{ "type": "Feature", "properties": { "value": 31.106 }, "geometry": { "type": "Point", "coordinates": [ 129.325378, 35.462578, 60.0 ] } },
{ "type": "Feature", "properties": { "value": 57.528 }, "geometry": { "type": "Point", "coordinates": [ 129.326477, 35.462578, 60.0 ] } },
{ "type": "Feature", "properties": { "value": 44.697 }, "geometry": { "type": "Point", "coordinates": [ 129.327576, 35.462574, 60.0 ] } },
{ "type": "Feature", "properties": { "value": 13.893 }, "geometry": { "type": "Point", "coordinates": [ 129.328674, 35.46257, 60.0 ] } },
{ "type": "Feature", "properties": { "value": 1.8325 }, "geometry": { "type": "Point", "coordinates": [ 129.329788, 35.462566, 60.0 ] } },
{ "type": "Feature", "properties": { "value": 2.0487 }, "geometry": { "type": "Point", "coordinates": [ 129.323181, 35.463486, 60.0 ] } },
{ "type": "Feature", "properties": { "value": 10.26 }, "geometry": { "type": "Point", "coordinates": [ 129.32428, 35.463486, 60.0 ] } },
{ "type": "Feature", "properties": { "value": 30.366 }, "geometry": { "type": "Point", "coordinates": [ 129.325378, 35.463482, 60.0 ] } },
{ "type": "Feature", "properties": { "value": 47.807 }, "geometry": { "type": "Point", "coordinates": [ 129.326477, 35.463478, 60.0 ] } },
{ "type": "Feature", "properties": { "value": 37.931 }, "geometry": { "type": "Point", "coordinates": [ 129.327576, 35.463474, 60.0 ] } },
{ "type": "Feature", "properties": { "value": 14.732 }, "geometry": { "type": "Point", "coordinates": [ 129.32869, 35.46347, 60.0 ] } },
{ "type": "Feature", "properties": { "value": 3.0241 }, "geometry": { "type": "Point", "coordinates": [ 129.329788, 35.46347, 60.0 ] } },
{ "type": "Feature", "properties": { "value": 0.1112 }, "geometry": { "type": "Point", "coordinates": [ 129.330887, 35.463467, 60.0 ] } },
{ "type": "Feature", "properties": { "value": 0.5063 }, "geometry": { "type": "Point", "coordinates": [ 129.322083, 35.46439, 60.0 ] } },
{ "type": "Feature", "properties": { "value": 3.2581 }, "geometry": { "type": "Point", "coordinates": [ 129.323181, 35.46439, 60.0 ] } },
{ "type": "Feature", "properties": { "value": 11.987 }, "geometry": { "type": "Point", "coordinates": [ 129.32428, 35.464386, 60.0 ] } },
{ "type": "Feature", "properties": { "value": 28.357 }, "geometry": { "type": "Point", "coordinates": [ 129.325378, 35.464382, 60.0 ] } },
{ "type": "Feature", "properties": { "value": 39.965 }, "geometry": { "type": "Point", "coordinates": [ 129.326477, 35.464378, 60.0 ] } },
{ "type": "Feature", "properties": { "value": 32.018 }, "geometry": { "type": "Point", "coordinates": [ 129.327591, 35.464375, 60.0 ] } },
{ "type": "Feature", "properties": { "value": 14.63 }, "geometry": { "type": "Point", "coordinates": [ 129.32869, 35.464375, 60.0 ] } },
{ "type": "Feature", "properties": { "value": 3.9278 }, "geometry": { "type": "Point", "coordinates": [ 129.329788, 35.464371, 60.0 ] } },
{ "type": "Feature", "properties": { "value": 0.5659 }, "geometry": { "type": "Point", "coordinates": [ 129.330887, 35.464367, 60.0 ] } },
{ "type": "Feature", "properties": { "value": 1.0554 }, "geometry": { "type": "Point", "coordinates": [ 129.322083, 35.465294, 60.0 ] } },
{ "type": "Feature", "properties": { "value": 4.4053 }, "geometry": { "type": "Point", "coordinates": [ 129.323181, 35.46529, 60.0 ] } },
{ "type": "Feature", "properties": { "value": 12.85 }, "geometry": { "type": "Point", "coordinates": [ 129.32428, 35.465286, 60.0 ] } },
{ "type": "Feature", "properties": { "value": 25.634 }, "geometry": { "type": "Point", "coordinates": [ 129.325394, 35.465282, 60.0 ] } },
{ "type": "Feature", "properties": { "value": 33.154 }, "geometry": { "type": "Point", "coordinates": [ 129.326492, 35.465279, 60.0 ] } },
{ "type": "Feature", "properties": { "value": 27.025 }, "geometry": { "type": "Point", "coordinates": [ 129.327591, 35.465279, 60.0 ] } },
{ "type": "Feature", "properties": { "value": 13.792 }, "geometry": { "type": "Point", "coordinates": [ 129.32869, 35.465275, 60.0 ] } },
{ "type": "Feature", "properties": { "value": 4.5336 }, "geometry": { "type": "Point", "coordinates": [ 129.329788, 35.465271, 60.0 ] } },
{ "type": "Feature", "properties": { "value": 0.97 }, "geometry": { "type": "Point", "coordinates": [ 129.330887, 35.465267, 60.0 ] } },
{ "type": "Feature", "properties": { "value": 0.338 }, "geometry": { "type": "Point", "coordinates": [ 129.320984, 35.466198, 60.0 ] } },
{ "type": "Feature", "properties": { "value": 1.6108 }, "geometry": { "type": "Point", "coordinates": [ 129.322083, 35.466194, 60.0 ] } },
{ "type": "Feature", "properties": { "value": 5.2753 }, "geometry": { "type": "Point", "coordinates": [ 129.323181, 35.46619, 60.0 ] } },
{ "type": "Feature", "properties": { "value": 12.965 }, "geometry": { "type": "Point", "coordinates": [ 129.324295, 35.466187, 60.0 ] } },
{ "type": "Feature", "properties": { "value": 22.774 }, "geometry": { "type": "Point", "coordinates": [ 129.325394, 35.466187, 60.0 ] } },
{ "type": "Feature", "properties": { "value": 27.617 }, "geometry": { "type": "Point", "coordinates": [ 129.326492, 35.466183, 60.0 ] } },
{ "type": "Feature", "properties": { "value": 22.821 }, "geometry": { "type": "Point", "coordinates": [ 129.327591, 35.466179, 60.0 ] } },
{ "type": "Feature", "properties": { "value": 12.572 }, "geometry": { "type": "Point", "coordinates": [ 129.32869, 35.466175, 60.0 ] } },
{ "type": "Feature", "properties": { "value": 4.8314 }, "geometry": { "type": "Point", "coordinates": [ 129.329803, 35.466171, 60.0 ] } },
{ "type": "Feature", "properties": { "value": 1.3007 }, "geometry": { "type": "Point", "coordinates": [ 129.330902, 35.466171, 60.0 ] } },
{ "type": "Feature", "properties": { "value": 0.1372 }, "geometry": { "type": "Point", "coordinates": [ 129.332001, 35.466167, 60.0 ] } },
{ "type": "Feature", "properties": { "value": 0.5565 }, "geometry": { "type": "Point", "coordinates": [ 129.320984, 35.467098, 60.0 ] } },
{ "type": "Feature", "properties": { "value": 2.0421 }, "geometry": { "type": "Point", "coordinates": [ 129.322083, 35.467094, 60.0 ] } },
{ "type": "Feature", "properties": { "value": 5.7596 }, "geometry": { "type": "Point", "coordinates": [ 129.323196, 35.467091, 60.0 ] } },
{ "type": "Feature", "properties": { "value": 12.444 }, "geometry": { "type": "Point", "coordinates": [ 129.324295, 35.467091, 60.0 ] } },
{ "type": "Feature", "properties": { "value": 19.955 }, "geometry": { "type": "Point", "coordinates": [ 129.325394, 35.467087, 60.0 ] } },
{ "type": "Feature", "properties": { "value": 23.124 }, "geometry": { "type": "Point", "coordinates": [ 129.326492, 35.467083, 60.0 ] } },
{ "type": "Feature", "properties": { "value": 19.28 }, "geometry": { "type": "Point", "coordinates": [ 129.327591, 35.467079, 60.0 ] } },
{ "type": "Feature", "properties": { "value": 11.345 }, "geometry": { "type": "Point", "coordinates": [ 129.328705, 35.467075, 60.0 ] } },
{ "type": "Feature", "properties": { "value": 4.8311 }, "geometry": { "type": "Point", "coordinates": [ 129.329803, 35.467075, 60.0 ] } },
{ "type": "Feature", "properties": { "value": 1.5327 }, "geometry": { "type": "Point", "coordinates": [ 129.330902, 35.467072, 60.0 ] } },
{ "type": "Feature", "properties": { "value": 0.3218 }, "geometry": { "type": "Point", "coordinates": [ 129.332001, 35.467068, 60.0 ] } },
{ "type": "Feature", "properties": { "value": 0.1235 }, "geometry": { "type": "Point", "coordinates": [ 129.319885, 35.468002, 60.0 ] } },
{ "type": "Feature", "properties": { "value": 0.7118 }, "geometry": { "type": "Point", "coordinates": [ 129.320984, 35.467999, 60.0 ] } },
{ "type": "Feature", "properties": { "value": 2.3087 }, "geometry": { "type": "Point", "coordinates": [ 129.322098, 35.467995, 60.0 ] } },
{ "type": "Feature", "properties": { "value": 5.8109 }, "geometry": { "type": "Point", "coordinates": [ 129.323196, 35.467995, 60.0 ] } },
{ "type": "Feature", "properties": { "value": 11.402 }, "geometry": { "type": "Point", "coordinates": [ 129.324295, 35.467991, 60.0 ] } },
{ "type": "Feature", "properties": { "value": 17.148 }, "geometry": { "type": "Point", "coordinates": [ 129.325394, 35.467987, 60.0 ] } },
{ "type": "Feature", "properties": { "value": 19.293 }, "geometry": { "type": "Point", "coordinates": [ 129.326492, 35.467983, 60.0 ] } },
{ "type": "Feature", "properties": { "value": 16.111 }, "geometry": { "type": "Point", "coordinates": [ 129.327606, 35.467983, 60.0 ] } },
{ "type": "Feature", "properties": { "value": 9.9775 }, "geometry": { "type": "Point", "coordinates": [ 129.328705, 35.467979, 60.0 ] } },
{ "type": "Feature", "properties": { "value": 4.6291 }, "geometry": { "type": "Point", "coordinates": [ 129.329803, 35.467976, 60.0 ] } },
{ "type": "Feature", "properties": { "value": 1.6441 }, "geometry": { "type": "Point", "coordinates": [ 129.330902, 35.467972, 60.0 ] } },
{ "type": "Feature", "properties": { "value": 0.4372 }, "geometry": { "type": "Point", "coordinates": [ 129.332001, 35.467968, 60.0 ] } },
{ "type": "Feature", "properties": { "value": 0.2062 }, "geometry": { "type": "Point", "coordinates": [ 129.319885, 35.468903, 60.0 ] } },
{ "type": "Feature", "properties": { "value": 0.7962 }, "geometry": { "type": "Point", "coordinates": [ 129.320999, 35.468899, 60.0 ] } },
{ "type": "Feature", "properties": { "value": 2.3527 }, "geometry": { "type": "Point", "coordinates": [ 129.322098, 35.468899, 60.0 ] } },
{ "type": "Feature", "properties": { "value": 5.4278 }, "geometry": { "type": "Point", "coordinates": [ 129.323196, 35.468895, 60.0 ] } },
{ "type": "Feature", "properties": { "value": 9.9039 }, "geometry": { "type": "Point", "coordinates": [ 129.324295, 35.468891, 60.0 ] } },
{ "type": "Feature", "properties": { "value": 14.138 }, "geometry": { "type": "Point", "coordinates": [ 129.325394, 35.468887, 60.0 ] } },
{ "type": "Feature", "properties": { "value": 15.503 }, "geometry": { "type": "Point", "coordinates": [ 129.326508, 35.468887, 60.0 ] } },
{ "type": "Feature", "properties": { "value": 13.04 }, "geometry": { "type": "Point", "coordinates": [ 129.327606, 35.468884, 60.0 ] } },
{ "type": "Feature", "properties": { "value": 8.411 }, "geometry": { "type": "Point", "coordinates": [ 129.328705, 35.46888, 60.0 ] } },
{ "type": "Feature", "properties": { "value": 4.1731 }, "geometry": { "type": "Point", "coordinates": [ 129.329803, 35.468876, 60.0 ] } },
{ "type": "Feature", "properties": { "value": 1.6186 }, "geometry": { "type": "Point", "coordinates": [ 129.330902, 35.468872, 60.0 ] } },
{ "type": "Feature", "properties": { "value": 0.4784 }, "geometry": { "type": "Point", "coordinates": [ 129.332016, 35.468872, 60.0 ] } },
{ "type": "Feature", "properties": { "value": 0.0512 }, "geometry": { "type": "Point", "coordinates": [ 129.333115, 35.468868, 60.0 ] } },
{ "type": "Feature", "properties": { "value": 0.0087 }, "geometry": { "type": "Point", "coordinates": [ 129.318787, 35.469807, 60.0 ] } },
{ "type": "Feature", "properties": { "value": 0.2146 }, "geometry": { "type": "Point", "coordinates": [ 129.319901, 35.469803, 60.0 ] } },
{ "type": "Feature", "properties": { "value": 0.8058 }, "geometry": { "type": "Point", "coordinates": [ 129.320999, 35.469803, 60.0 ] } },
{ "type": "Feature", "properties": { "value": 2.146 }, "geometry": { "type": "Point", "coordinates": [ 129.322098, 35.469799, 60.0 ] } },
{ "type": "Feature", "properties": { "value": 4.6313 }, "geometry": { "type": "Point", "coordinates": [ 129.323196, 35.469795, 60.0 ] } },
{ "type": "Feature", "properties": { "value": 8.0035 }, "geometry": { "type": "Point", "coordinates": [ 129.324295, 35.469791, 60.0 ] } },
{ "type": "Feature", "properties": { "value": 11.001 }, "geometry": { "type": "Point", "coordinates": [ 129.325409, 35.469791, 60.0 ] } },
{ "type": "Feature", "properties": { "value": 11.867 }, "geometry": { "type": "Point", "coordinates": [ 129.326508, 35.469788, 60.0 ] } },
{ "type": "Feature", "properties": { "value": 10.032 }, "geometry": { "type": "Point", "coordinates": [ 129.327606, 35.469784, 60.0 ] } },
{ "type": "Feature", "properties": { "value": 6.6572 }, "geometry": { "type": "Point", "coordinates": [ 129.328705, 35.46978, 60.0 ] } },
{ "type": "Feature", "properties": { "value": 3.4836 }, "geometry": { "type": "Point", "coordinates": [ 129.329819, 35.469776, 60.0 ] } },
{ "type": "Feature", "properties": { "value": 1.4508 }, "geometry": { "type": "Point", "coordinates": [ 129.330917, 35.469776, 60.0 ] } },
{ "type": "Feature", "properties": { "value": 0.4637 }, "geometry": { "type": "Point", "coordinates": [ 129.332016, 35.469772, 60.0 ] } },
{ "type": "Feature", "properties": { "value": 0.0889 }, "geometry": { "type": "Point", "coordinates": [ 129.333115, 35.469769, 60.0 ] } },
{ "type": "Feature", "properties": { "value": 0.0313 }, "geometry": { "type": "Point", "coordinates": [ 129.318802, 35.470707, 60.0 ] } },
{ "type": "Feature", "properties": { "value": 0.2134 }, "geometry": { "type": "Point", "coordinates": [ 129.319901, 35.470707, 60.0 ] } },
{ "type": "Feature", "properties": { "value": 0.6908 }, "geometry": { "type": "Point", "coordinates": [ 129.320999, 35.470703, 60.0 ] } },
{ "type": "Feature", "properties": { "value": 1.7299 }, "geometry": { "type": "Point", "coordinates": [ 129.322098, 35.470699, 60.0 ] } },
{ "type": "Feature", "properties": { "value": 3.5394 }, "geometry": { "type": "Point", "coordinates": [ 129.323212, 35.470695, 60.0 ] } },
{ "type": "Feature", "properties": { "value": 5.8652 }, "geometry": { "type": "Point", "coordinates": [ 129.32431, 35.470695, 60.0 ] } },
{ "type": "Feature", "properties": { "value": 7.839 }, "geometry": { "type": "Point", "coordinates": [ 129.325409, 35.470692, 60.0 ] } },
{ "type": "Feature", "properties": { "value": 8.3596 }, "geometry": { "type": "Point", "coordinates": [ 129.326508, 35.470688, 60.0 ] } },
{ "type": "Feature", "properties": { "value": 7.1085 }, "geometry": { "type": "Point", "coordinates": [ 129.327606, 35.470684, 60.0 ] } },
{ "type": "Feature", "properties": { "value": 4.8141 }, "geometry": { "type": "Point", "coordinates": [ 129.32872, 35.470684, 60.0 ] } },
{ "type": "Feature", "properties": { "value": 2.6442 }, "geometry": { "type": "Point", "coordinates": [ 129.329819, 35.47068, 60.0 ] } },
{ "type": "Feature", "properties": { "value": 1.1622 }, "geometry": { "type": "Point", "coordinates": [ 129.330917, 35.470676, 60.0 ] } },
{ "type": "Feature", "properties": { "value": 0.3927 }, "geometry": { "type": "Point", "coordinates": [ 129.332016, 35.470673, 60.0 ] } },
{ "type": "Feature", "properties": { "value": 0.0951 }, "geometry": { "type": "Point", "coordinates": [ 129.333115, 35.470669, 60.0 ] } },
{ "type": "Feature", "properties": { "value": 0.0296 }, "geometry": { "type": "Point", "coordinates": [ 129.318802, 35.471611, 60.0 ] } },
{ "type": "Feature", "properties": { "value": 0.1583 }, "geometry": { "type": "Point", "coordinates": [ 129.319901, 35.471607, 60.0 ] } },
{ "type": "Feature", "properties": { "value": 0.508 }, "geometry": { "type": "Point", "coordinates": [ 129.320999, 35.471603, 60.0 ] } },
{ "type": "Feature", "properties": { "value": 1.2287 }, "geometry": { "type": "Point", "coordinates": [ 129.322113, 35.4716, 60.0 ] } },
{ "type": "Feature", "properties": { "value": 2.427 }, "geometry": { "type": "Point", "coordinates": [ 129.323212, 35.4716, 60.0 ] } },
{ "type": "Feature", "properties": { "value": 3.8857 }, "geometry": { "type": "Point", "coordinates": [ 129.32431, 35.471596, 60.0 ] } },
{ "type": "Feature", "properties": { "value": 5.1173 }, "geometry": { "type": "Point", "coordinates": [ 129.325409, 35.471592, 60.0 ] } },
{ "type": "Feature", "properties": { "value": 5.3989 }, "geometry": { "type": "Point", "coordinates": [ 129.326508, 35.471588, 60.0 ] } },
{ "type": "Feature", "properties": { "value": 4.6135 }, "geometry": { "type": "Point", "coordinates": [ 129.327621, 35.471588, 60.0 ] } },
{ "type": "Feature", "properties": { "value": 3.1839 }, "geometry": { "type": "Point", "coordinates": [ 129.32872, 35.471584, 60.0 ] } },
{ "type": "Feature", "properties": { "value": 1.7966 }, "geometry": { "type": "Point", "coordinates": [ 129.329819, 35.471581, 60.0 ] } },
{ "type": "Feature", "properties": { "value": 0.8143 }, "geometry": { "type": "Point", "coordinates": [ 129.330917, 35.471577, 60.0 ] } },
{ "type": "Feature", "properties": { "value": 0.285 }, "geometry": { "type": "Point", "coordinates": [ 129.332016, 35.471573, 60.0 ] } },
{ "type": "Feature", "properties": { "value": 0.0688 }, "geometry": { "type": "Point", "coordinates": [ 129.33313, 35.471573, 60.0 ] } },
{ "type": "Feature", "properties": { "value": 0.0099 }, "geometry": { "type": "Point", "coordinates": [ 129.318802, 35.472511, 60.0 ] } },
{ "type": "Feature", "properties": { "value": 0.096 }, "geometry": { "type": "Point", "coordinates": [ 129.319901, 35.472507, 60.0 ] } },
{ "type": "Feature", "properties": { "value": 0.3204 }, "geometry": { "type": "Point", "coordinates": [ 129.321014, 35.472507, 60.0 ] } },
{ "type": "Feature", "properties": { "value": 0.7614 }, "geometry": { "type": "Point", "coordinates": [ 129.322113, 35.472504, 60.0 ] } },
{ "type": "Feature", "properties": { "value": 1.4765 }, "geometry": { "type": "Point", "coordinates": [ 129.323212, 35.4725, 60.0 ] } },
{ "type": "Feature", "properties": { "value": 2.3152 }, "geometry": { "type": "Point", "coordinates": [ 129.32431, 35.472496, 60.0 ] } },
{ "type": "Feature", "properties": { "value": 2.9952 }, "geometry": { "type": "Point", "coordinates": [ 129.325409, 35.472492, 60.0 ] } },
{ "type": "Feature", "properties": { "value": 3.1572 }, "geometry": { "type": "Point", "coordinates": [ 129.326523, 35.472492, 60.0 ] } },
{ "type": "Feature", "properties": { "value": 2.6905 }, "geometry": { "type": "Point", "coordinates": [ 129.327621, 35.472488, 60.0 ] } },
{ "type": "Feature", "properties": { "value": 1.8858 }, "geometry": { "type": "Point", "coordinates": [ 129.32872, 35.472485, 60.0 ] } },
{ "type": "Feature", "properties": { "value": 1.0593 }, "geometry": { "type": "Point", "coordinates": [ 129.329819, 35.472481, 60.0 ] } },
{ "type": "Feature", "properties": { "value": 0.4798 }, "geometry": { "type": "Point", "coordinates": [ 129.330917, 35.472477, 60.0 ] } },
{ "type": "Feature", "properties": { "value": 0.1739 }, "geometry": { "type": "Point", "coordinates": [ 129.332031, 35.472477, 60.0 ] } },
{ "type": "Feature", "properties": { "value": 0.036 }, "geometry": { "type": "Point", "coordinates": [ 129.33313, 35.472473, 60.0 ] } },
{ "type": "Feature", "properties": { "value": 0.0068 }, "geometry": { "type": "Point", "coordinates": [ 129.318802, 35.473412, 60.0 ] } },
{ "type": "Feature", "properties": { "value": 0.045 }, "geometry": { "type": "Point", "coordinates": [ 129.319916, 35.473412, 60.0 ] } },
{ "type": "Feature", "properties": { "value": 0.1726 }, "geometry": { "type": "Point", "coordinates": [ 129.321014, 35.473408, 60.0 ] } },
{ "type": "Feature", "properties": { "value": 0.4079 }, "geometry": { "type": "Point", "coordinates": [ 129.322113, 35.473404, 60.0 ] } },
{ "type": "Feature", "properties": { "value": 0.7646 }, "geometry": { "type": "Point", "coordinates": [ 129.323212, 35.4734, 60.0 ] } },
{ "type": "Feature", "properties": { "value": 1.2093 }, "geometry": { "type": "Point", "coordinates": [ 129.32431, 35.473396, 60.0 ] } },
{ "type": "Feature", "properties": { "value": 1.5445 }, "geometry": { "type": "Point", "coordinates": [ 129.325424, 35.473396, 60.0 ] } },
{ "type": "Feature", "properties": { "value": 1.6142 }, "geometry": { "type": "Point", "coordinates": [ 129.326523, 35.473392, 60.0 ] } },
{ "type": "Feature", "properties": { "value": 1.3877 }, "geometry": { "type": "Point", "coordinates": [ 129.327621, 35.473389, 60.0 ] } },
{ "type": "Feature", "properties": { "value": 0.9772 }, "geometry": { "type": "Point", "coordinates": [ 129.32872, 35.473385, 60.0 ] } },
{ "type": "Feature", "properties": { "value": 0.5527 }, "geometry": { "type": "Point", "coordinates": [ 129.329819, 35.473385, 60.0 ] } },
{ "type": "Feature", "properties": { "value": 0.2504 }, "geometry": { "type": "Point", "coordinates": [ 129.330933, 35.473381, 60.0 ] } },
{ "type": "Feature", "properties": { "value": 0.0884 }, "geometry": { "type": "Point", "coordinates": [ 129.332031, 35.473377, 60.0 ] } },
{ "type": "Feature", "properties": { "value": 0.0101 }, "geometry": { "type": "Point", "coordinates": [ 129.33313, 35.473373, 60.0 ] } },
{ "type": "Feature", "properties": { "value": 0.0117 }, "geometry": { "type": "Point", "coordinates": [ 129.319916, 35.474312, 60.0 ] } },
{ "type": "Feature", "properties": { "value": 0.0779 }, "geometry": { "type": "Point", "coordinates": [ 129.321014, 35.474308, 60.0 ] } },
{ "type": "Feature", "properties": { "value": 0.1873 }, "geometry": { "type": "Point", "coordinates": [ 129.322113, 35.474304, 60.0 ] } },
{ "type": "Feature", "properties": { "value": 0.3457 }, "geometry": { "type": "Point", "coordinates": [ 129.323212, 35.4743, 60.0 ] } },
{ "type": "Feature", "properties": { "value": 0.5484 }, "geometry": { "type": "Point", "coordinates": [ 129.324326, 35.4743, 60.0 ] } },
{ "type": "Feature", "properties": { "value": 0.6939 }, "geometry": { "type": "Point", "coordinates": [ 129.325424, 35.474297, 60.0 ] } },
{ "type": "Feature", "properties": { "value": 0.7238 }, "geometry": { "type": "Point", "coordinates": [ 129.326523, 35.474293, 60.0 ] } },
{ "type": "Feature", "properties": { "value": 0.6222 }, "geometry": { "type": "Point", "coordinates": [ 129.327621, 35.474289, 60.0 ] } },
{ "type": "Feature", "properties": { "value": 0.4407 }, "geometry": { "type": "Point", "coordinates": [ 129.328735, 35.474289, 60.0 ] } },
{ "type": "Feature", "properties": { "value": 0.2484 }, "geometry": { "type": "Point", "coordinates": [ 129.329834, 35.474285, 60.0 ] } },
{ "type": "Feature", "properties": { "value": 0.1094 }, "geometry": { "type": "Point", "coordinates": [ 129.330933, 35.474281, 60.0 ] } },
{ "type": "Feature", "properties": { "value": 0.035 }, "geometry": { "type": "Point", "coordinates": [ 129.332031, 35.474277, 60.0 ] } },
{ "type": "Feature", "properties": { "value": 0.0057 }, "geometry": { "type": "Point", "coordinates": [ 129.319916, 35.475212, 60.0 ] } },
{ "type": "Feature", "properties": { "value": 0.0277 }, "geometry": { "type": "Point", "coordinates": [ 129.321014, 35.475208, 60.0 ] } },
{ "type": "Feature", "properties": { "value": 0.066 }, "geometry": { "type": "Point", "coordinates": [ 129.322113, 35.475208, 60.0 ] } },
{ "type": "Feature", "properties": { "value": 0.1316 }, "geometry": { "type": "Point", "coordinates": [ 129.323227, 35.475204, 60.0 ] } },
{ "type": "Feature", "properties": { "value": 0.2136 }, "geometry": { "type": "Point", "coordinates": [ 129.324326, 35.475201, 60.0 ] } },
{ "type": "Feature", "properties": { "value": 0.2685 }, "geometry": { "type": "Point", "coordinates": [ 129.325424, 35.475197, 60.0 ] } },
{ "type": "Feature", "properties": { "value": 0.2793 }, "geometry": { "type": "Point", "coordinates": [ 129.326523, 35.475193, 60.0 ] } },
{ "type": "Feature", "properties": { "value": 0.2403 }, "geometry": { "type": "Point", "coordinates": [ 129.327637, 35.475193, 60.0 ] } },
{ "type": "Feature", "properties": { "value": 0.159 }, "geometry": { "type": "Point", "coordinates": [ 129.328735, 35.475189, 60.0 ] } },
{ "type": "Feature", "properties": { "value": 0.0939 }, "geometry": { "type": "Point", "coordinates": [ 129.329834, 35.475185, 60.0 ] } },
{ "type": "Feature", "properties": { "value": 0.0376 }, "geometry": { "type": "Point", "coordinates": [ 129.330933, 35.475182, 60.0 ] } },
{ "type": "Feature", "properties": { "value": 0.0079 }, "geometry": { "type": "Point", "coordinates": [ 129.332031, 35.475178, 60.0 ] } },
{ "type": "Feature", "properties": { "value": 0.0057 }, "geometry": { "type": "Point", "coordinates": [ 129.32103, 35.476112, 60.0 ] } },
{ "type": "Feature", "properties": { "value": 0.012 }, "geometry": { "type": "Point", "coordinates": [ 129.322128, 35.476109, 60.0 ] } },
{ "type": "Feature", "properties": { "value": 0.0398 }, "geometry": { "type": "Point", "coordinates": [ 129.323227, 35.476105, 60.0 ] } },
{ "type": "Feature", "properties": { "value": 0.0595 }, "geometry": { "type": "Point", "coordinates": [ 129.324326, 35.476101, 60.0 ] } },
{ "type": "Feature", "properties": { "value": 0.0878 }, "geometry": { "type": "Point", "coordinates": [ 129.325424, 35.476097, 60.0 ] } },
{ "type": "Feature", "properties": { "value": 0.0912 }, "geometry": { "type": "Point", "coordinates": [ 129.326538, 35.476097, 60.0 ] } },
{ "type": "Feature", "properties": { "value": 0.0785 }, "geometry": { "type": "Point", "coordinates": [ 129.327637, 35.476093, 60.0 ] } },
{ "type": "Feature", "properties": { "value": 0.0474 }, "geometry": { "type": "Point", "coordinates": [ 129.328735, 35.476089, 60.0 ] } },
{ "type": "Feature", "properties": { "value": 0.0282 }, "geometry": { "type": "Point", "coordinates": [ 129.329834, 35.476086, 60.0 ] } },
{ "type": "Feature", "properties": { "value": 0.0075 }, "geometry": { "type": "Point", "coordinates": [ 129.330933, 35.476086, 60.0 ] } },
{ "type": "Feature", "properties": { "value": 0.0072 }, "geometry": { "type": "Point", "coordinates": [ 129.323227, 35.477005, 60.0 ] } },
{ "type": "Feature", "properties": { "value": 0.0105 }, "geometry": { "type": "Point", "coordinates": [ 129.324326, 35.477005, 60.0 ] } },
{ "type": "Feature", "properties": { "value": 0.013 }, "geometry": { "type": "Point", "coordinates": [ 129.325439, 35.477001, 60.0 ] } },
{ "type": "Feature", "properties": { "value": 0.0134 }, "geometry": { "type": "Point", "coordinates": [ 129.326538, 35.476997, 60.0 ] } },
{ "type": "Feature", "properties": { "value": 0.0115 }, "geometry": { "type": "Point", "coordinates": [ 129.327637, 35.476994, 60.0 ] } },
{ "type": "Feature", "properties": { "value": 0.0083 }, "geometry": { "type": "Point", "coordinates": [ 129.328735, 35.47699, 60.0 ] } },
{ "type": "Feature", "properties": { "value": 0.0 }, "geometry": { "type": "Point", "coordinates": [ 129.319931, 35.480621, 60.0 ] } },
{ "type": "Feature", "properties": { "value": 0.018 }, "geometry": { "type": "Point", "coordinates": [ 129.318848, 35.481525, 60.0 ] } },
{ "type": "Feature", "properties": { "value": 0.1399 }, "geometry": { "type": "Point", "coordinates": [ 129.319946, 35.481522, 60.0 ] } },
{ "type": "Feature", "properties": { "value": 0.0386 }, "geometry": { "type": "Point", "coordinates": [ 129.321045, 35.481518, 60.0 ] } },
{ "type": "Feature", "properties": { "value": 0.0001 }, "geometry": { "type": "Point", "coordinates": [ 129.322144, 35.481514, 60.0 ] } },
{ "type": "Feature", "properties": { "value": 0.2344 }, "geometry": { "type": "Point", "coordinates": [ 129.317749, 35.48243, 60.0 ] } },
{ "type": "Feature", "properties": { "value": 3.2409 }, "geometry": { "type": "Point", "coordinates": [ 129.318848, 35.482426, 60.0 ] } },
{ "type": "Feature", "properties": { "value": 6.7947 }, "geometry": { "type": "Point", "coordinates": [ 129.319946, 35.482422, 60.0 ] } },
{ "type": "Feature", "properties": { "value": 2.499 }, "geometry": { "type": "Point", "coordinates": [ 129.321045, 35.482418, 60.0 ] } },
{ "type": "Feature", "properties": { "value": 0.0275 }, "geometry": { "type": "Point", "coordinates": [ 129.322144, 35.482418, 60.0 ] } },
{ "type": "Feature", "properties": { "value": 0.542 }, "geometry": { "type": "Point", "coordinates": [ 129.31665, 35.483334, 60.0 ] } },
{ "type": "Feature", "properties": { "value": 4.9641 }, "geometry": { "type": "Point", "coordinates": [ 129.317749, 35.48333, 60.0 ] } },
{ "type": "Feature", "properties": { "value": 22.824 }, "geometry": { "type": "Point", "coordinates": [ 129.318848, 35.483326, 60.0 ] } },
{ "type": "Feature", "properties": { "value": 28.299 }, "geometry": { "type": "Point", "coordinates": [ 129.319946, 35.483322, 60.0 ] } },
{ "type": "Feature", "properties": { "value": 10.119 }, "geometry": { "type": "Point", "coordinates": [ 129.321045, 35.483322, 60.0 ] } },
{ "type": "Feature", "properties": { "value": 0.1476 }, "geometry": { "type": "Point", "coordinates": [ 129.322159, 35.483318, 60.0 ] } },
{ "type": "Feature", "properties": { "value": 0.6577 }, "geometry": { "type": "Point", "coordinates": [ 129.315552, 35.484238, 60.0 ] } },
{ "type": "Feature", "properties": { "value": 4.4152 }, "geometry": { "type": "Point", "coordinates": [ 129.31665, 35.484234, 60.0 ] } },
{ "type": "Feature", "properties": { "value": 19.706 }, "geometry": { "type": "Point", "coordinates": [ 129.317749, 35.48423, 60.0 ] } },
{ "type": "Feature", "properties": { "value": 43.491 }, "geometry": { "type": "Point", "coordinates": [ 129.318848, 35.48423, 60.0 ] } },
{ "type": "Feature", "properties": { "value": 38.816 }, "geometry": { "type": "Point", "coordinates": [ 129.319946, 35.484226, 60.0 ] } },
{ "type": "Feature", "properties": { "value": 9.436 }, "geometry": { "type": "Point", "coordinates": [ 129.32106, 35.484222, 60.0 ] } },
{ "type": "Feature", "properties": { "value": 0.1826 }, "geometry": { "type": "Point", "coordinates": [ 129.322159, 35.484219, 60.0 ] } },
{ "type": "Feature", "properties": { "value": 0.6204 }, "geometry": { "type": "Point", "coordinates": [ 129.314453, 35.485142, 60.0 ] } },
{ "type": "Feature", "properties": { "value": 3.4415 }, "geometry": { "type": "Point", "coordinates": [ 129.315552, 35.485138, 60.0 ] } },
{ "type": "Feature", "properties": { "value": 13.815 }, "geometry": { "type": "Point", "coordinates": [ 129.31665, 35.485134, 60.0 ] } },
{ "type": "Feature", "properties": { "value": 35.104 }, "geometry": { "type": "Point", "coordinates": [ 129.317749, 35.485134, 60.0 ] } },
{ "type": "Feature", "properties": { "value": 48.334 }, "geometry": { "type": "Point", "coordinates": [ 129.318848, 35.48513, 60.0 ] } },
{ "type": "Feature", "properties": { "value": 29.987 }, "geometry": { "type": "Point", "coordinates": [ 129.319962, 35.485126, 60.0 ] } },
{ "type": "Feature", "properties": { "value": 5.3787 }, "geometry": { "type": "Point", "coordinates": [ 129.32106, 35.485123, 60.0 ] } },
{ "type": "Feature", "properties": { "value": 0.1589 }, "geometry": { "type": "Point", "coordinates": [ 129.322159, 35.485119, 60.0 ] } },
{ "type": "Feature", "properties": { "value": 0.5402 }, "geometry": { "type": "Point", "coordinates": [ 129.313354, 35.486046, 60.0 ] } },
{ "type": "Feature", "properties": { "value": 2.6343 }, "geometry": { "type": "Point", "coordinates": [ 129.314453, 35.486042, 60.0 ] } },
{ "type": "Feature", "properties": { "value": 9.664 }, "geometry": { "type": "Point", "coordinates": [ 129.315552, 35.486038, 60.0 ] } },
{ "type": "Feature", "properties": { "value": 25.485 }, "geometry": { "type": "Point", "coordinates": [ 129.31665, 35.486038, 60.0 ] } },
{ "type": "Feature", "properties": { "value": 42.382 }, "geometry": { "type": "Point", "coordinates": [ 129.317749, 35.486034, 60.0 ] } },
{ "type": "Feature", "properties": { "value": 39.896 }, "geometry": { "type": "Point", "coordinates": [ 129.318863, 35.486031, 60.0 ] } },
{ "type": "Feature", "properties": { "value": 17.994 }, "geometry": { "type": "Point", "coordinates": [ 129.319962, 35.486027, 60.0 ] } },
{ "type": "Feature", "properties": { "value": 2.8074 }, "geometry": { "type": "Point", "coordinates": [ 129.32106, 35.486027, 60.0 ] } },
{ "type": "Feature", "properties": { "value": 0.0787 }, "geometry": { "type": "Point", "coordinates": [ 129.322159, 35.486023, 60.0 ] } },
{ "type": "Feature", "properties": { "value": 0.4368 }, "geometry": { "type": "Point", "coordinates": [ 129.312256, 35.48695, 60.0 ] } },
{ "type": "Feature", "properties": { "value": 1.9558 }, "geometry": { "type": "Point", "coordinates": [ 129.313354, 35.486946, 60.0 ] } },
{ "type": "Feature", "properties": { "value": 6.7274 }, "geometry": { "type": "Point", "coordinates": [ 129.314453, 35.486942, 60.0 ] } },
{ "type": "Feature", "properties": { "value": 17.678 }, "geometry": { "type": "Point", "coordinates": [ 129.315552, 35.486942, 60.0 ] } },
{ "type": "Feature", "properties": { "value": 33.061 }, "geometry": { "type": "Point", "coordinates": [ 129.31665, 35.486938, 60.0 ] } },
{ "type": "Feature", "properties": { "value": 40.037 }, "geometry": { "type": "Point", "coordinates": [ 129.317764, 35.486935, 60.0 ] } },
{ "type": "Feature", "properties": { "value": 28.039 }, "geometry": { "type": "Point", "coordinates": [ 129.318863, 35.486931, 60.0 ] } },
{ "type": "Feature", "properties": { "value": 9.7614 }, "geometry": { "type": "Point", "coordinates": [ 129.319962, 35.486931, 60.0 ] } },
{ "type": "Feature", "properties": { "value": 1.3898 }, "geometry": { "type": "Point", "coordinates": [ 129.32106, 35.486927, 60.0 ] } },
{ "type": "Feature", "properties": { "value": 0.256 }, "geometry": { "type": "Point", "coordinates": [ 129.311157, 35.487854, 60.0 ] } },
{ "type": "Feature", "properties": { "value": 1.2792 }, "geometry": { "type": "Point", "coordinates": [ 129.312256, 35.48785, 60.0 ] } },
{ "type": "Feature", "properties": { "value": 4.4967 }, "geometry": { "type": "Point", "coordinates": [ 129.313354, 35.487846, 60.0 ] } },
{ "type": "Feature", "properties": { "value": 12.032 }, "geometry": { "type": "Point", "coordinates": [ 129.314453, 35.487846, 60.0 ] } },
{ "type": "Feature", "properties": { "value": 24.13 }, "geometry": { "type": "Point", "coordinates": [ 129.315552, 35.487843, 60.0 ] } },
{ "type": "Feature", "properties": { "value": 33.913 }, "geometry": { "type": "Point", "coordinates": [ 129.316666, 35.487839, 60.0 ] } },
{ "type": "Feature", "properties": { "value": 31.099 }, "geometry": { "type": "Point", "coordinates": [ 129.317764, 35.487835, 60.0 ] } },
{ "type": "Feature", "properties": { "value": 17.131 }, "geometry": { "type": "Point", "coordinates": [ 129.318863, 35.487835, 60.0 ] } },
{ "type": "Feature", "properties": { "value": 4.9119 }, "geometry": { "type": "Point", "coordinates": [ 129.319962, 35.487831, 60.0 ] } },
{ "type": "Feature", "properties": { "value": 0.6294 }, "geometry": { "type": "Point", "coordinates": [ 129.321075, 35.487827, 60.0 ] } },
{ "type": "Feature", "properties": { "value": 0.0923 }, "geometry": { "type": "Point", "coordinates": [ 129.310059, 35.488758, 60.0 ] } },
{ "type": "Feature", "properties": { "value": 0.6201 }, "geometry": { "type": "Point", "coordinates": [ 129.311157, 35.488754, 60.0 ] } },
{ "type": "Feature", "properties": { "value": 2.4874 }, "geometry": { "type": "Point", "coordinates": [ 129.312256, 35.48875, 60.0 ] } },
{ "type": "Feature", "properties": { "value": 7.4453 }, "geometry": { "type": "Point", "coordinates": [ 129.313354, 35.48875, 60.0 ] } },
{ "type": "Feature", "properties": { "value": 16.275 }, "geometry": { "type": "Point", "coordinates": [ 129.314453, 35.488747, 60.0 ] } },
{ "type": "Feature", "properties": { "value": 25.854 }, "geometry": { "type": "Point", "coordinates": [ 129.315567, 35.488743, 60.0 ] } },
{ "type": "Feature", "properties": { "value": 28.947 }, "geometry": { "type": "Point", "coordinates": [ 129.316666, 35.488739, 60.0 ] } },
{ "type": "Feature", "properties": { "value": 21.465 }, "geometry": { "type": "Point", "coordinates": [ 129.317764, 35.488739, 60.0 ] } },
{ "type": "Feature", "properties": { "value": 9.6314 }, "geometry": { "type": "Point", "coordinates": [ 129.318863, 35.488735, 60.0 ] } },
{ "type": "Feature", "properties": { "value": 2.4109 }, "geometry": { "type": "Point", "coordinates": [ 129.319977, 35.488731, 60.0 ] } },
{ "type": "Feature", "properties": { "value": 0.2479 }, "geometry": { "type": "Point", "coordinates": [ 129.321075, 35.488728, 60.0 ] } },
{ "type": "Feature", "properties": { "value": 0.0137 }, "geometry": { "type": "Point", "coordinates": [ 129.30896, 35.489662, 60.0 ] } },
{ "type": "Feature", "properties": { "value": 0.1708 }, "geometry": { "type": "Point", "coordinates": [ 129.310059, 35.489658, 60.0 ] } },
{ "type": "Feature", "properties": { "value": 0.9207 }, "geometry": { "type": "Point", "coordinates": [ 129.311157, 35.489655, 60.0 ] } },
{ "type": "Feature", "properties": { "value": 3.3649 }, "geometry": { "type": "Point", "coordinates": [ 129.312256, 35.489655, 60.0 ] } },
{ "type": "Feature", "properties": { "value": 8.9291 }, "geometry": { "type": "Point", "coordinates": [ 129.313354, 35.489651, 60.0 ] } },
{ "type": "Feature", "properties": { "value": 17.04 }, "geometry": { "type": "Point", "coordinates": [ 129.314468, 35.489647, 60.0 ] } },
{ "type": "Feature", "properties": { "value": 22.815 }, "geometry": { "type": "Point", "coordinates": [ 129.315567, 35.489643, 60.0 ] } },
{ "type": "Feature", "properties": { "value": 21.173 }, "geometry": { "type": "Point", "coordinates": [ 129.316666, 35.489643, 60.0 ] } },
{ "type": "Feature", "properties": { "value": 13.093 }, "geometry": { "type": "Point", "coordinates": [ 129.317764, 35.489639, 60.0 ] } },
{ "type": "Feature", "properties": { "value": 5.0952 }, "geometry": { "type": "Point", "coordinates": [ 129.318878, 35.489635, 60.0 ] } },
{ "type": "Feature", "properties": { "value": 1.1442 }, "geometry": { "type": "Point", "coordinates": [ 129.319977, 35.489632, 60.0 ] } },
{ "type": "Feature", "properties": { "value": 0.0569 }, "geometry": { "type": "Point", "coordinates": [ 129.321075, 35.489632, 60.0 ] } },
{ "type": "Feature", "properties": { "value": 0.0171 }, "geometry": { "type": "Point", "coordinates": [ 129.30896, 35.490562, 60.0 ] } },
{ "type": "Feature", "properties": { "value": 0.1789 }, "geometry": { "type": "Point", "coordinates": [ 129.310059, 35.490559, 60.0 ] } },
{ "type": "Feature", "properties": { "value": 0.9473 }, "geometry": { "type": "Point", "coordinates": [ 129.311157, 35.490559, 60.0 ] } },
{ "type": "Feature", "properties": { "value": 3.2456 }, "geometry": { "type": "Point", "coordinates": [ 129.312271, 35.490555, 60.0 ] } },
{ "type": "Feature", "properties": { "value": 7.8041 }, "geometry": { "type": "Point", "coordinates": [ 129.31337, 35.490551, 60.0 ] } },
{ "type": "Feature", "properties": { "value": 13.334 }, "geometry": { "type": "Point", "coordinates": [ 129.314468, 35.490547, 60.0 ] } },
{ "type": "Feature", "properties": { "value": 16.149 }, "geometry": { "type": "Point", "coordinates": [ 129.315567, 35.490547, 60.0 ] } },
{ "type": "Feature", "properties": { "value": 13.159 }, "geometry": { "type": "Point", "coordinates": [ 129.316666, 35.490543, 60.0 ] } },
{ "type": "Feature", "properties": { "value": 7.1346 }, "geometry": { "type": "Point", "coordinates": [ 129.31778, 35.49054, 60.0 ] } },
{ "type": "Feature", "properties": { "value": 2.4832 }, "geometry": { "type": "Point", "coordinates": [ 129.318878, 35.490536, 60.0 ] } },
{ "type": "Feature", "properties": { "value": 0.5061 }, "geometry": { "type": "Point", "coordinates": [ 129.319977, 35.490536, 60.0 ] } },
{ "type": "Feature", "properties": { "value": 0.0146 }, "geometry": { "type": "Point", "coordinates": [ 129.30896, 35.491463, 60.0 ] } },
{ "type": "Feature", "properties": { "value": 0.1412 }, "geometry": { "type": "Point", "coordinates": [ 129.310059, 35.491463, 60.0 ] } },
{ "type": "Feature", "properties": { "value": 0.684 }, "geometry": { "type": "Point", "coordinates": [ 129.311172, 35.491459, 60.0 ] } },
{ "type": "Feature", "properties": { "value": 2.2272 }, "geometry": { "type": "Point", "coordinates": [ 129.312271, 35.491455, 60.0 ] } },
{ "type": "Feature", "properties": { "value": 5.032 }, "geometry": { "type": "Point", "coordinates": [ 129.31337, 35.491451, 60.0 ] } },
{ "type": "Feature", "properties": { "value": 7.936 }, "geometry": { "type": "Point", "coordinates": [ 129.314468, 35.491451, 60.0 ] } },
{ "type": "Feature", "properties": { "value": 8.6692 }, "geometry": { "type": "Point", "coordinates": [ 129.315567, 35.491447, 60.0 ] } },
{ "type": "Feature", "properties": { "value": 6.5688 }, "geometry": { "type": "Point", "coordinates": [ 129.316681, 35.491444, 60.0 ] } },
{ "type": "Feature", "properties": { "value": 3.2587 }, "geometry": { "type": "Point", "coordinates": [ 129.31778, 35.49144, 60.0 ] } },
{ "type": "Feature", "properties": { "value": 1.0325 }, "geometry": { "type": "Point", "coordinates": [ 129.318878, 35.49144, 60.0 ] } },
{ "type": "Feature", "properties": { "value": 0.191 }, "geometry": { "type": "Point", "coordinates": [ 129.319977, 35.491436, 60.0 ] } },
{ "type": "Feature", "properties": { "value": 0.0704 }, "geometry": { "type": "Point", "coordinates": [ 129.310074, 35.492363, 60.0 ] } },
{ "type": "Feature", "properties": { "value": 0.3472 }, "geometry": { "type": "Point", "coordinates": [ 129.311172, 35.492359, 60.0 ] } },
{ "type": "Feature", "properties": { "value": 1.0807 }, "geometry": { "type": "Point", "coordinates": [ 129.312271, 35.492355, 60.0 ] } },
{ "type": "Feature", "properties": { "value": 2.3358 }, "geometry": { "type": "Point", "coordinates": [ 129.31337, 35.492355, 60.0 ] } },
{ "type": "Feature", "properties": { "value": 3.4981 }, "geometry": { "type": "Point", "coordinates": [ 129.314468, 35.492352, 60.0 ] } },
{ "type": "Feature", "properties": { "value": 3.6109 }, "geometry": { "type": "Point", "coordinates": [ 129.315582, 35.492348, 60.0 ] } },
{ "type": "Feature", "properties": { "value": 2.5366 }, "geometry": { "type": "Point", "coordinates": [ 129.316681, 35.492344, 60.0 ] } },
{ "type": "Feature", "properties": { "value": 1.1869 }, "geometry": { "type": "Point", "coordinates": [ 129.31778, 35.492344, 60.0 ] } },
{ "type": "Feature", "properties": { "value": 0.3321 }, "geometry": { "type": "Point", "coordinates": [ 129.318878, 35.49234, 60.0 ] } },
{ "type": "Feature", "properties": { "value": 0.0201 }, "geometry": { "type": "Point", "coordinates": [ 129.310074, 35.493263, 60.0 ] } },
{ "type": "Feature", "properties": { "value": 0.1124 }, "geometry": { "type": "Point", "coordinates": [ 129.311172, 35.493259, 60.0 ] } },
{ "type": "Feature", "properties": { "value": 0.3742 }, "geometry": { "type": "Point", "coordinates": [ 129.312271, 35.493259, 60.0 ] } },
{ "type": "Feature", "properties": { "value": 0.7816 }, "geometry": { "type": "Point", "coordinates": [ 129.31337, 35.493256, 60.0 ] } },
{ "type": "Feature", "properties": { "value": 1.1121 }, "geometry": { "type": "Point", "coordinates": [ 129.314484, 35.493252, 60.0 ] } },
{ "type": "Feature", "properties": { "value": 1.1038 }, "geometry": { "type": "Point", "coordinates": [ 129.315582, 35.493248, 60.0 ] } },
{ "type": "Feature", "properties": { "value": 0.7376 }, "geometry": { "type": "Point", "coordinates": [ 129.316681, 35.493248, 60.0 ] } },
{ "type": "Feature", "properties": { "value": 0.3213 }, "geometry": { "type": "Point", "coordinates": [ 129.31778, 35.493244, 60.0 ] } },
{ "type": "Feature", "properties": { "value": 0.074 }, "geometry": { "type": "Point", "coordinates": [ 129.318893, 35.49324, 60.0 ] } },
{ "type": "Feature", "properties": { "value": 0.0221 }, "geometry": { "type": "Point", "coordinates": [ 129.311172, 35.494164, 60.0 ] } },
{ "type": "Feature", "properties": { "value": 0.0839 }, "geometry": { "type": "Point", "coordinates": [ 129.312271, 35.49416, 60.0 ] } },
{ "type": "Feature", "properties": { "value": 0.1799 }, "geometry": { "type": "Point", "coordinates": [ 129.313385, 35.494156, 60.0 ] } },
{ "type": "Feature", "properties": { "value": 0.2448 }, "geometry": { "type": "Point", "coordinates": [ 129.314484, 35.494152, 60.0 ] } },
{ "type": "Feature", "properties": { "value": 0.2418 }, "geometry": { "type": "Point", "coordinates": [ 129.315582, 35.494152, 60.0 ] } },
{ "type": "Feature", "properties": { "value": 0.1443 }, "geometry": { "type": "Point", "coordinates": [ 129.316681, 35.494148, 60.0 ] } },
{ "type": "Feature", "properties": { "value": 0.052 }, "geometry": { "type": "Point", "coordinates": [ 129.317795, 35.494144, 60.0 ] } },
{ "type": "Feature", "properties": { "value": 0.0115 }, "geometry": { "type": "Point", "coordinates": [ 129.312286, 35.49506, 60.0 ] } },
{ "type": "Feature", "properties": { "value": 0.0215 }, "geometry": { "type": "Point", "coordinates": [ 129.313385, 35.495056, 60.0 ] } },
{ "type": "Feature", "properties": { "value": 0.0275 }, "geometry": { "type": "Point", "coordinates": [ 129.314484, 35.495056, 60.0 ] } },
{ "type": "Feature", "properties": { "value": 0.0242 }, "geometry": { "type": "Point", "coordinates": [ 129.315582, 35.495052, 60.0 ] } },
{ "type": "Feature", "properties": { "value": 0.0147 }, "geometry": { "type": "Point", "coordinates": [ 129.316696, 35.495049, 60.0 ] } }
]
}
