{
"type": "FeatureCollection",
"features": [
{ "type": "Feature", "properties": { "value": 0.0035 }, "geometry": { "type": "Point", "coordinates": [ 129.32756, 35.458969, 60.0 ] } },
{ "type": "Feature", "properties": { "value": 3.6002 }, "geometry": { "type": "Point", "coordinates": [ 129.32756, 35.459869, 60.0 ] } },
{ "type": "Feature", "properties": { "value": 81.314 }, "geometry": { "type": "Point", "coordinates": [ 129.327576, 35.46077, 60.0 ] } },
{ "type": "Feature", "properties": { "value": 127.91 }, "geometry": { "type": "Point", "coordinates": [ 129.327576, 35.461674, 60.0 ] } },
{ "type": "Feature", "properties": { "value": 92.65 }, "geometry": { "type": "Point", "coordinates": [ 129.327576, 35.462574, 60.0 ] } },
{ "type": "Feature", "properties": { "value": 1.9304 }, "geometry": { "type": "Point", "coordinates": [ 129.328674, 35.46257, 60.0 ] } },
{ "type": "Feature", "properties": { "value": 56.577 }, "geometry": { "type": "Point", "coordinates": [ 129.327576, 35.463474, 60.0 ] } },
{ "type": "Feature", "properties": { "value": 11.029 }, "geometry": { "type": "Point", "coordinates": [ 129.32869, 35.46347, 60.0 ] } },
{ "type": "Feature", "properties": { "value": 34.743 }, "geometry": { "type": "Point", "coordinates": [ 129.327591, 35.464375, 60.0 ] } },
{ "type": "Feature", "properties": { "value": 30.793 }, "geometry": { "type": "Point", "coordinates": [ 129.32869, 35.464375, 60.0 ] } },
{ "type": "Feature", "properties": { "value": 22.944 }, "geometry": { "type": "Point", "coordinates": [ 129.327591, 35.465279, 60.0 ] } },
{ "type": "Feature", "properties": { "value": 69.851 }, "geometry": { "type": "Point", "coordinates": [ 129.32869, 35.465275, 60.0 ] } },
{ "type": "Feature", "properties": { "value": 14.023 }, "geometry": { "type": "Point", "coordinates": [ 129.327591, 35.466179, 60.0 ] } },
{ "type": "Feature", "properties": { "value": 106.81 }, "geometry": { "type": "Point", "coordinates": [ 129.32869, 35.466175, 60.0 ] } },
{ "type": "Feature", "properties": { "value": 7.7779 }, "geometry": { "type": "Point", "coordinates": [ 129.327591, 35.467079, 60.0 ] } },
{ "type": "Feature", "properties": { "value": 117.91 }, "geometry": { "type": "Point", "coordinates": [ 129.328705, 35.467075, 60.0 ] } },
{ "type": "Feature", "properties": { "value": 6.1813 }, "geometry": { "type": "Point", "coordinates": [ 129.329803, 35.467075, 60.0 ] } },
{ "type": "Feature", "properties": { "value": 3.7688 }, "geometry": { "type": "Point", "coordinates": [ 129.327606, 35.467983, 60.0 ] } },
{ "type": "Feature", "properties": { "value": 104.91 }, "geometry": { "type": "Point", "coordinates": [ 129.328705, 35.467979, 60.0 ] } },
{ "type": "Feature", "properties": { "value": 18.8 }, "geometry": { "type": "Point", "coordinates": [ 129.329803, 35.467976, 60.0 ] } },
{ "type": "Feature", "properties": { "value": 1.8013 }, "geometry": { "type": "Point", "coordinates": [ 129.327606, 35.468884, 60.0 ] } },
{ "type": "Feature", "properties": { "value": 80.018 }, "geometry": { "type": "Point", "coordinates": [ 129.328705, 35.46888, 60.0 ] } },
{ "type": "Feature", "properties": { "value": 40.004 }, "geometry": { "type": "Point", "coordinates": [ 129.329803, 35.468876, 60.0 ] } },
{ "type": "Feature", "properties": { "value": 53.442 }, "geometry": { "type": "Point", "coordinates": [ 129.328705, 35.46978, 60.0 ] } },
{ "type": "Feature", "properties": { "value": 63.536 }, "geometry": { "type": "Point", "coordinates": [ 129.329819, 35.469776, 60.0 ] } },
{ "type": "Feature", "properties": { "value": 1.7188 }, "geometry": { "type": "Point", "coordinates": [ 129.330917, 35.469776, 60.0 ] } },
{ "type": "Feature", "properties": { "value": 31.117 }, "geometry": { "type": "Point", "coordinates": [ 129.32872, 35.470684, 60.0 ] } },
{ "type": "Feature", "properties": { "value": 71.245 }, "geometry": { "type": "Point", "coordinates": [ 129.329819, 35.47068, 60.0 ] } },
{ "type": "Feature", "properties": { "value": 5.1143 }, "geometry": { "type": "Point", "coordinates": [ 129.330917, 35.470676, 60.0 ] } },
{ "type": "Feature", "properties": { "value": 13.556 }, "geometry": { "type": "Point", "coordinates": [ 129.32872, 35.471584, 60.0 ] } },
{ "type": "Feature", "properties": { "value": 49.833 }, "geometry": { "type": "Point", "coordinates": [ 129.329819, 35.471581, 60.0 ] } },
{ "type": "Feature", "properties": { "value": 8.9338 }, "geometry": { "type": "Point", "coordinates": [ 129.330917, 35.471577, 60.0 ] } },
{ "type": "Feature", "properties": { "value": 4.417 }, "geometry": { "type": "Point", "coordinates": [ 129.32872, 35.472485, 60.0 ] } },
{ "type": "Feature", "properties": { "value": 30.987 }, "geometry": { "type": "Point", "coordinates": [ 129.329819, 35.472481, 60.0 ] } },
{ "type": "Feature", "properties": { "value": 17.378 }, "geometry": { "type": "Point", "coordinates": [ 129.330917, 35.472477, 60.0 ] } },
{ "type": "Feature", "properties": { "value": 0.8443 }, "geometry": { "type": "Point", "coordinates": [ 129.332031, 35.472477, 60.0 ] } },
{ "type": "Feature", "properties": { "value": 1.5966 }, "geometry": { "type": "Point", "coordinates": [ 129.32872, 35.473385, 60.0 ] } },
{ "type": "Feature", "properties": { "value": 24.434 }, "geometry": { "type": "Point", "coordinates": [ 129.329819, 35.473385, 60.0 ] } },
{ "type": "Feature", "properties": { "value": 35.453 }, "geometry": { "type": "Point", "coordinates": [ 129.330933, 35.473381, 60.0 ] } },
{ "type": "Feature", "properties": { "value": 5.4383 }, "geometry": { "type": "Point", "coordinates": [ 129.332031, 35.473377, 60.0 ] } },
{ "type": "Feature", "properties": { "value": 0.7385 }, "geometry": { "type": "Point", "coordinates": [ 129.328735, 35.474289, 60.0 ] } },
{ "type": "Feature", "properties": { "value": 19.665 }, "geometry": { "type": "Point", "coordinates": [ 129.329834, 35.474285, 60.0 ] } },
{ "type": "Feature", "properties": { "value": 50.004 }, "geometry": { "type": "Point", "coordinates": [ 129.330933, 35.474281, 60.0 ] } },
{ "type": "Feature", "properties": { "value": 16.024 }, "geometry": { "type": "Point", "coordinates": [ 129.332031, 35.474277, 60.0 ] } },
{ "type": "Feature", "properties": { "value": 0.7308 }, "geometry": { "type": "Point", "coordinates": [ 129.33313, 35.474274, 60.0 ] } },
{ "type": "Feature", "properties": { "value": 0.1457 }, "geometry": { "type": "Point", "coordinates": [ 129.328735, 35.475189, 60.0 ] } },
{ "type": "Feature", "properties": { "value": 12.392 }, "geometry": { "type": "Point", "coordinates": [ 129.329834, 35.475185, 60.0 ] } },
{ "type": "Feature", "properties": { "value": 48.707 }, "geometry": { "type": "Point", "coordinates": [ 129.330933, 35.475182, 60.0 ] } },
{ "type": "Feature", "properties": { "value": 29.592 }, "geometry": { "type": "Point", "coordinates": [ 129.332031, 35.475178, 60.0 ] } },
{ "type": "Feature", "properties": { "value": 3.3251 }, "geometry": { "type": "Point", "coordinates": [ 129.333145, 35.475178, 60.0 ] } },
{ "type": "Feature", "properties": { "value": 6.6782 }, "geometry": { "type": "Point", "coordinates": [ 129.329834, 35.476086, 60.0 ] } },
{ "type": "Feature", "properties": { "value": 39.895 }, "geometry": { "type": "Point", "coordinates": [ 129.330933, 35.476086, 60.0 ] } },
{ "type": "Feature", "properties": { "value": 42.077 }, "geometry": { "type": "Point", "coordinates": [ 129.332047, 35.476082, 60.0 ] } },
{ "type": "Feature", "properties": { "value": 9.3245 }, "geometry": { "type": "Point", "coordinates": [ 129.333145, 35.476078, 60.0 ] } },
{ "type": "Feature", "properties": { "value": 0.0446 }, "geometry": { "type": "Point", "coordinates": [ 129.334244, 35.476074, 60.0 ] } },
{ "type": "Feature", "properties": { "value": 3.128 }, "geometry": { "type": "Point", "coordinates": [ 129.329834, 35.47699, 60.0 ] } },
{ "type": "Feature", "properties": { "value": 27.507 }, "geometry": { "type": "Point", "coordinates": [ 129.330948, 35.476986, 60.0 ] } },
{ "type": "Feature", "properties": { "value": 48.098 }, "geometry": { "type": "Point", "coordinates": [ 129.332047, 35.476982, 60.0 ] } },
{ "type": "Feature", "properties": { "value": 19.54 }, "geometry": { "type": "Point", "coordinates": [ 129.333145, 35.476978, 60.0 ] } },
{ "type": "Feature", "properties": { "value": 2.0315 }, "geometry": { "type": "Point", "coordinates": [ 129.334244, 35.476974, 60.0 ] } },
{ "type": "Feature", "properties": { "value": 1.2092 }, "geometry": { "type": "Point", "coordinates": [ 129.329849, 35.47789, 60.0 ] } },
{ "type": "Feature", "properties": { "value": 16.235 }, "geometry": { "type": "Point", "coordinates": [ 129.330948, 35.477886, 60.0 ] } },
{ "type": "Feature", "properties": { "value": 45.128 }, "geometry": { "type": "Point", "coordinates": [ 129.332047, 35.477882, 60.0 ] } },
{ "type": "Feature", "properties": { "value": 31.888 }, "geometry": { "type": "Point", "coordinates": [ 129.333145, 35.477879, 60.0 ] } },
{ "type": "Feature", "properties": { "value": 6.3519 }, "geometry": { "type": "Point", "coordinates": [ 129.334259, 35.477879, 60.0 ] } },
{ "type": "Feature", "properties": { "value": 0.0905 }, "geometry": { "type": "Point", "coordinates": [ 129.329849, 35.47879, 60.0 ] } },
{ "type": "Feature", "properties": { "value": 8.142 }, "geometry": { "type": "Point", "coordinates": [ 129.330948, 35.478786, 60.0 ] } },
{ "type": "Feature", "properties": { "value": 35.016 }, "geometry": { "type": "Point", "coordinates": [ 129.332047, 35.478786, 60.0 ] } },
{ "type": "Feature", "properties": { "value": 41.26 }, "geometry": { "type": "Point", "coordinates": [ 129.33316, 35.478783, 60.0 ] } },
{ "type": "Feature", "properties": { "value": 14.831 }, "geometry": { "type": "Point", "coordinates": [ 129.334259, 35.478779, 60.0 ] } },
{ "type": "Feature", "properties": { "value": 1.7505 }, "geometry": { "type": "Point", "coordinates": [ 129.335358, 35.478775, 60.0 ] } },
{ "type": "Feature", "properties": { "value": 3.4549 }, "geometry": { "type": "Point", "coordinates": [ 129.330948, 35.479691, 60.0 ] } },
{ "type": "Feature", "properties": { "value": 22.63 }, "geometry": { "type": "Point", "coordinates": [ 129.332062, 35.479687, 60.0 ] } },
{ "type": "Feature", "properties": { "value": 42.87 }, "geometry": { "type": "Point", "coordinates": [ 129.33316, 35.479683, 60.0 ] } },
{ "type": "Feature", "properties": { "value": 26.503 }, "geometry": { "type": "Point", "coordinates": [ 129.334259, 35.479679, 60.0 ] } },
{ "type": "Feature", "properties": { "value": 6.0096 }, "geometry": { "type": "Point", "coordinates": [ 129.335358, 35.479675, 60.0 ] } },
{ "type": "Feature", "properties": { "value": 0.2873 }, "geometry": { "type": "Point", "coordinates": [ 129.336456, 35.479675, 60.0 ] } },
{ "type": "Feature", "properties": { "value": 1.2254 }, "geometry": { "type": "Point", "coordinates": [ 129.330963, 35.480591, 60.0 ] } },
{ "type": "Feature", "properties": { "value": 12.294 }, "geometry": { "type": "Point", "coordinates": [ 129.332062, 35.480587, 60.0 ] } },
{ "type": "Feature", "properties": { "value": 36.105 }, "geometry": { "type": "Point", "coordinates": [ 129.33316, 35.480583, 60.0 ] } },
{ "type": "Feature", "properties": { "value": 36.517 }, "geometry": { "type": "Point", "coordinates": [ 129.334259, 35.480579, 60.0 ] } },
{ "type": "Feature", "properties": { "value": 14.379 }, "geometry": { "type": "Point", "coordinates": [ 129.335358, 35.480579, 60.0 ] } },
{ "type": "Feature", "properties": { "value": 2.643 }, "geometry": { "type": "Point", "coordinates": [ 129.336472, 35.480576, 60.0 ] } },
{ "type": "Feature", "properties": { "value": 0.0186 }, "geometry": { "type": "Point", "coordinates": [ 129.33757, 35.480572, 60.0 ] } },
{ "type": "Feature", "properties": { "value": 0.0683 }, "geometry": { "type": "Point", "coordinates": [ 129.330963, 35.481491, 60.0 ] } },
{ "type": "Feature", "properties": { "value": 5.6856 }, "geometry": { "type": "Point", "coordinates": [ 129.332062, 35.481487, 60.0 ] } },
{ "type": "Feature", "properties": { "value": 24.41 }, "geometry": { "type": "Point", "coordinates": [ 129.33316, 35.481487, 60.0 ] } },
{ "type": "Feature", "properties": { "value": 37.359 }, "geometry": { "type": "Point", "coordinates": [ 129.334259, 35.481483, 60.0 ] } },
{ "type": "Feature", "properties": { "value": 24.101 }, "geometry": { "type": "Point", "coordinates": [ 129.335373, 35.48148, 60.0 ] } },
{ "type": "Feature", "properties": { "value": 7.7775 }, "geometry": { "type": "Point", "coordinates": [ 129.336472, 35.481476, 60.0 ] } },
{ "type": "Feature", "properties": { "value": 1.4412 }, "geometry": { "type": "Point", "coordinates": [ 129.33757, 35.481472, 60.0 ] } },
{ "type": "Feature", "properties": { "value": 2.3728 }, "geometry": { "type": "Point", "coordinates": [ 129.332062, 35.482391, 60.0 ] } },
{ "type": "Feature", "properties": { "value": 13.801 }, "geometry": { "type": "Point", "coordinates": [ 129.333176, 35.482388, 60.0 ] } },
{ "type": "Feature", "properties": { "value": 30.631 }, "geometry": { "type": "Point", "coordinates": [ 129.334274, 35.482384, 60.0 ] } },
{ "type": "Feature", "properties": { "value": 30.473 }, "geometry": { "type": "Point", "coordinates": [ 129.335373, 35.48238, 60.0 ] } },
{ "type": "Feature", "properties": { "value": 15.596 }, "geometry": { "type": "Point", "coordinates": [ 129.336472, 35.482376, 60.0 ] } },
{ "type": "Feature", "properties": { "value": 4.7871 }, "geometry": { "type": "Point", "coordinates": [ 129.33757, 35.482376, 60.0 ] } },
{ "type": "Feature", "properties": { "value": 0.9807 }, "geometry": { "type": "Point", "coordinates": [ 129.338684, 35.482372, 60.0 ] } },
{ "type": "Feature", "properties": { "value": 0.9198 }, "geometry": { "type": "Point", "coordinates": [ 129.332077, 35.483292, 60.0 ] } },
{ "type": "Feature", "properties": { "value": 7.1293 }, "geometry": { "type": "Point", "coordinates": [ 129.333176, 35.483288, 60.0 ] } },
{ "type": "Feature", "properties": { "value": 21.281 }, "geometry": { "type": "Point", "coordinates": [ 129.334274, 35.483284, 60.0 ] } },
{ "type": "Feature", "properties": { "value": 29.96 }, "geometry": { "type": "Point", "coordinates": [ 129.335373, 35.48328, 60.0 ] } },
{ "type": "Feature", "properties": { "value": 22.682 }, "geometry": { "type": "Point", "coordinates": [ 129.336472, 35.48328, 60.0 ] } },
{ "type": "Feature", "properties": { "value": 10.519 }, "geometry": { "type": "Point", "coordinates": [ 129.337585, 35.483276, 60.0 ] } },
{ "type": "Feature", "properties": { "value": 3.3842 }, "geometry": { "type": "Point", "coordinates": [ 129.338684, 35.483273, 60.0 ] } },
{ "type": "Feature", "properties": { "value": 0.8138 }, "geometry": { "type": "Point", "coordinates": [ 129.339783, 35.483269, 60.0 ] } },
{ "type": "Feature", "properties": { "value": 0.0101 }, "geometry": { "type": "Point", "coordinates": [ 129.340881, 35.483265, 60.0 ] } },
{ "type": "Feature", "properties": { "value": 0.2693 }, "geometry": { "type": "Point", "coordinates": [ 129.332077, 35.484192, 60.0 ] } },
{ "type": "Feature", "properties": { "value": 3.4021 }, "geometry": { "type": "Point", "coordinates": [ 129.333176, 35.484188, 60.0 ] } },
{ "type": "Feature", "properties": { "value": 12.813 }, "geometry": { "type": "Point", "coordinates": [ 129.334274, 35.484188, 60.0 ] } },
{ "type": "Feature", "properties": { "value": 24.14 }, "geometry": { "type": "Point", "coordinates": [ 129.335373, 35.484184, 60.0 ] } },
{ "type": "Feature", "properties": { "value": 25.499 }, "geometry": { "type": "Point", "coordinates": [ 129.336487, 35.48418, 60.0 ] } },
{ "type": "Feature", "properties": { "value": 16.886 }, "geometry": { "type": "Point", "coordinates": [ 129.337585, 35.484177, 60.0 ] } },
{ "type": "Feature", "properties": { "value": 7.7988 }, "geometry": { "type": "Point", "coordinates": [ 129.338684, 35.484173, 60.0 ] } },
{ "type": "Feature", "properties": { "value": 2.7708 }, "geometry": { "type": "Point", "coordinates": [ 129.339783, 35.484173, 60.0 ] } },
{ "type": "Feature", "properties": { "value": 0.7898 }, "geometry": { "type": "Point", "coordinates": [ 129.340897, 35.484169, 60.0 ] } },
{ "type": "Feature", "properties": { "value": 0.045 }, "geometry": { "type": "Point", "coordinates": [ 129.341995, 35.484165, 60.0 ] } },
{ "type": "Feature", "properties": { "value": 1.4545 }, "geometry": { "type": "Point", "coordinates": [ 129.333176, 35.485092, 60.0 ] } },
{ "type": "Feature", "properties": { "value": 6.8285 }, "geometry": { "type": "Point", "coordinates": [ 129.334274, 35.485088, 60.0 ] } },
{ "type": "Feature", "properties": { "value": 16.577 }, "geometry": { "type": "Point", "coordinates": [ 129.335388, 35.485085, 60.0 ] } },
{ "type": "Feature", "properties": { "value": 23.362 }, "geometry": { "type": "Point", "coordinates": [ 129.336487, 35.485081, 60.0 ] } },
{ "type": "Feature", "properties": { "value": 21.051 }, "geometry": { "type": "Point", "coordinates": [ 129.337585, 35.485077, 60.0 ] } },
{ "type": "Feature", "properties": { "value": 13.281 }, "geometry": { "type": "Point", "coordinates": [ 129.338684, 35.485077, 60.0 ] } },
{ "type": "Feature", "properties": { "value": 6.3718 }, "geometry": { "type": "Point", "coordinates": [ 129.339798, 35.485073, 60.0 ] } },
{ "type": "Feature", "properties": { "value": 2.4724 }, "geometry": { "type": "Point", "coordinates": [ 129.340897, 35.485069, 60.0 ] } },
{ "type": "Feature", "properties": { "value": 0.7871 }, "geometry": { "type": "Point", "coordinates": [ 129.341995, 35.485065, 60.0 ] } },
{ "type": "Feature", "properties": { "value": 0.1464 }, "geometry": { "type": "Point", "coordinates": [ 129.343094, 35.485062, 60.0 ] } },
{ "type": "Feature", "properties": { "value": 0.5464 }, "geometry": { "type": "Point", "coordinates": [ 129.333176, 35.485992, 60.0 ] } },
{ "type": "Feature", "properties": { "value": 3.2806 }, "geometry": { "type": "Point", "coordinates": [ 129.33429, 35.485989, 60.0 ] } },
{ "type": "Feature", "properties": { "value": 9.9419 }, "geometry": { "type": "Point", "coordinates": [ 129.335388, 35.485985, 60.0 ] } },
{ "type": "Feature", "properties": { "value": 18.018 }, "geometry": { "type": "Point", "coordinates": [ 129.336487, 35.485981, 60.0 ] } },
{ "type": "Feature", "properties": { "value": 21.287 }, "geometry": { "type": "Point", "coordinates": [ 129.337585, 35.485981, 60.0 ] } },
{ "type": "Feature", "properties": { "value": 17.658 }, "geometry": { "type": "Point", "coordinates": [ 129.338699, 35.485977, 60.0 ] } },
{ "type": "Feature", "properties": { "value": 11.053 }, "geometry": { "type": "Point", "coordinates": [ 129.339798, 35.485973, 60.0 ] } },
{ "type": "Feature", "properties": { "value": 5.5453 }, "geometry": { "type": "Point", "coordinates": [ 129.340897, 35.48597, 60.0 ] } },
{ "type": "Feature", "properties": { "value": 2.3489 }, "geometry": { "type": "Point", "coordinates": [ 129.341995, 35.485966, 60.0 ] } },
{ "type": "Feature", "properties": { "value": 0.8717 }, "geometry": { "type": "Point", "coordinates": [ 129.343094, 35.485966, 60.0 ] } },
{ "type": "Feature", "properties": { "value": 0.2582 }, "geometry": { "type": "Point", "coordinates": [ 129.344208, 35.485962, 60.0 ] } },
{ "type": "Feature", "properties": { "value": 0.0632 }, "geometry": { "type": "Point", "coordinates": [ 129.333191, 35.486893, 60.0 ] } },
{ "type": "Feature", "properties": { "value": 1.4177 }, "geometry": { "type": "Point", "coordinates": [ 129.33429, 35.486889, 60.0 ] } },
{ "type": "Feature", "properties": { "value": 5.3044 }, "geometry": { "type": "Point", "coordinates": [ 129.335388, 35.486889, 60.0 ] } },
{ "type": "Feature", "properties": { "value": 12.001 }, "geometry": { "type": "Point", "coordinates": [ 129.336487, 35.486885, 60.0 ] } },
{ "type": "Feature", "properties": { "value": 18.004 }, "geometry": { "type": "Point", "coordinates": [ 129.337601, 35.486881, 60.0 ] } },
{ "type": "Feature", "properties": { "value": 19.051 }, "geometry": { "type": "Point", "coordinates": [ 129.338699, 35.486877, 60.0 ] } },
{ "type": "Feature", "properties": { "value": 15.134 }, "geometry": { "type": "Point", "coordinates": [ 129.339798, 35.486874, 60.0 ] } },
{ "type": "Feature", "properties": { "value": 9.6048 }, "geometry": { "type": "Point", "coordinates": [ 129.340897, 35.486874, 60.0 ] } },
{ "type": "Feature", "properties": { "value": 5.1157 }, "geometry": { "type": "Point", "coordinates": [ 129.341995, 35.48687, 60.0 ] } },
{ "type": "Feature", "properties": { "value": 2.3971 }, "geometry": { "type": "Point", "coordinates": [ 129.343109, 35.486866, 60.0 ] } },
{ "type": "Feature", "properties": { "value": 1.0084 }, "geometry": { "type": "Point", "coordinates": [ 129.344208, 35.486862, 60.0 ] } },
{ "type": "Feature", "properties": { "value": 0.3769 }, "geometry": { "type": "Point", "coordinates": [ 129.345306, 35.486858, 60.0 ] } },
{ "type": "Feature", "properties": { "value": 0.0787 }, "geometry": { "type": "Point", "coordinates": [ 129.346405, 35.486855, 60.0 ] } },
{ "type": "Feature", "properties": { "value": 0.5518 }, "geometry": { "type": "Point", "coordinates": [ 129.33429, 35.487793, 60.0 ] } },
{ "type": "Feature", "properties": { "value": 2.5617 }, "geometry": { "type": "Point", "coordinates": [ 129.335388, 35.487789, 60.0 ] } },
{ "type": "Feature", "properties": { "value": 7.0581 }, "geometry": { "type": "Point", "coordinates": [ 129.336502, 35.487785, 60.0 ] } },
{ "type": "Feature", "properties": { "value": 13.041 }, "geometry": { "type": "Point", "coordinates": [ 129.337601, 35.487782, 60.0 ] } },
{ "type": "Feature", "properties": { "value": 17.088 }, "geometry": { "type": "Point", "coordinates": [ 129.338699, 35.487778, 60.0 ] } },
{ "type": "Feature", "properties": { "value": 16.856 }, "geometry": { "type": "Point", "coordinates": [ 129.339798, 35.487778, 60.0 ] } },
{ "type": "Feature", "properties": { "value": 13.268 }, "geometry": { "type": "Point", "coordinates": [ 129.340912, 35.487774, 60.0 ] } },
{ "type": "Feature", "properties": { "value": 8.7024 }, "geometry": { "type": "Point", "coordinates": [ 129.34201, 35.48777, 60.0 ] } },
{ "type": "Feature", "properties": { "value": 4.9767 }, "geometry": { "type": "Point", "coordinates": [ 129.343109, 35.487766, 60.0 ] } },
{ "type": "Feature", "properties": { "value": 2.5546 }, "geometry": { "type": "Point", "coordinates": [ 129.344208, 35.487762, 60.0 ] } },
{ "type": "Feature", "properties": { "value": 1.2181 }, "geometry": { "type": "Point", "coordinates": [ 129.345306, 35.487759, 60.0 ] } },
{ "type": "Feature", "properties": { "value": 0.5336 }, "geometry": { "type": "Point", "coordinates": [ 129.34642, 35.487759, 60.0 ] } },
{ "type": "Feature", "properties": { "value": 0.2021 }, "geometry": { "type": "Point", "coordinates": [ 129.347519, 35.487755, 60.0 ] } },
{ "type": "Feature", "properties": { "value": 0.1033 }, "geometry": { "type": "Point", "coordinates": [ 129.33429, 35.488693, 60.0 ] } },
{ "type": "Feature", "properties": { "value": 1.1144 }, "geometry": { "type": "Point", "coordinates": [ 129.335403, 35.488689, 60.0 ] } },
{ "type": "Feature", "properties": { "value": 3.7074 }, "geometry": { "type": "Point", "coordinates": [ 129.336502, 35.488686, 60.0 ] } },
{ "type": "Feature", "properties": { "value": 8.2548 }, "geometry": { "type": "Point", "coordinates": [ 129.337601, 35.488682, 60.0 ] } },
{ "type": "Feature", "properties": { "value": 13.111 }, "geometry": { "type": "Point", "coordinates": [ 129.338699, 35.488682, 60.0 ] } },
{ "type": "Feature", "properties": { "value": 15.772 }, "geometry": { "type": "Point", "coordinates": [ 129.339813, 35.488678, 60.0 ] } },
{ "type": "Feature", "properties": { "value": 15.113 }, "geometry": { "type": "Point", "coordinates": [ 129.340912, 35.488674, 60.0 ] } },
{ "type": "Feature", "properties": { "value": 12.013 }, "geometry": { "type": "Point", "coordinates": [ 129.34201, 35.48867, 60.0 ] } },
{ "type": "Feature", "properties": { "value": 8.2508 }, "geometry": { "type": "Point", "coordinates": [ 129.343109, 35.488667, 60.0 ] } },
{ "type": "Feature", "properties": { "value": 5.0602 }, "geometry": { "type": "Point", "coordinates": [ 129.344208, 35.488667, 60.0 ] } },
{ "type": "Feature", "properties": { "value": 2.8476 }, "geometry": { "type": "Point", "coordinates": [ 129.345322, 35.488663, 60.0 ] } },
{ "type": "Feature", "properties": { "value": 1.495 }, "geometry": { "type": "Point", "coordinates": [ 129.34642, 35.488659, 60.0 ] } },
{ "type": "Feature", "properties": { "value": 0.7288 }, "geometry": { "type": "Point", "coordinates": [ 129.347519, 35.488655, 60.0 ] } },
{ "type": "Feature", "properties": { "value": 0.3233 }, "geometry": { "type": "Point", "coordinates": [ 129.348618, 35.488651, 60.0 ] } },
{ "type": "Feature", "properties": { "value": 0.0999 }, "geometry": { "type": "Point", "coordinates": [ 129.349731, 35.488647, 60.0 ] } },
{ "type": "Feature", "properties": { "value": 0.0022 }, "geometry": { "type": "Point", "coordinates": [ 129.379471, 35.48856, 60.0 ] } },
{ "type": "Feature", "properties": { "value": 0.0057 }, "geometry": { "type": "Point", "coordinates": [ 129.380585, 35.488556, 60.0 ] } },
{ "type": "Feature", "properties": { "value": 0.006 }, "geometry": { "type": "Point", "coordinates": [ 129.381683, 35.488552, 60.0 ] } },
{ "type": "Feature", "properties": { "value": 0.4217 }, "geometry": { "type": "Point", "coordinates": [ 129.335403, 35.48959, 60.0 ] } },
{ "type": "Feature", "properties": { "value": 1.7533 }, "geometry": { "type": "Point", "coordinates": [ 129.336502, 35.48959, 60.0 ] } },
{ "type": "Feature", "properties": { "value": 4.6337 }, "geometry": { "type": "Point", "coordinates": [ 129.337601, 35.489586, 60.0 ] } },
{ "type": "Feature", "properties": { "value": 8.8133 }, "geometry": { "type": "Point", "coordinates": [ 129.338715, 35.489582, 60.0 ] } },
{ "type": "Feature", "properties": { "value": 12.691 }, "geometry": { "type": "Point", "coordinates": [ 129.339813, 35.489578, 60.0 ] } },
{ "type": "Feature", "properties": { "value": 14.583 }, "geometry": { "type": "Point", "coordinates": [ 129.340912, 35.489574, 60.0 ] } },
{ "type": "Feature", "properties": { "value": 13.902 }, "geometry": { "type": "Point", "coordinates": [ 129.34201, 35.489571, 60.0 ] } },
{ "type": "Feature", "properties": { "value": 11.33 }, "geometry": { "type": "Point", "coordinates": [ 129.343109, 35.489571, 60.0 ] } },
{ "type": "Feature", "properties": { "value": 8.1641 }, "geometry": { "type": "Point", "coordinates": [ 129.344223, 35.489567, 60.0 ] } },
{ "type": "Feature", "properties": { "value": 5.34 }, "geometry": { "type": "Point", "coordinates": [ 129.345322, 35.489563, 60.0 ] } },
{ "type": "Feature", "properties": { "value": 3.2199 }, "geometry": { "type": "Point", "coordinates": [ 129.34642, 35.489559, 60.0 ] } },
{ "type": "Feature", "properties": { "value": 1.8119 }, "geometry": { "type": "Point", "coordinates": [ 129.347519, 35.489555, 60.0 ] } },
{ "type": "Feature", "properties": { "value": 0.9576 }, "geometry": { "type": "Point", "coordinates": [ 129.348633, 35.489555, 60.0 ] } },
{ "type": "Feature", "properties": { "value": 0.4752 }, "geometry": { "type": "Point", "coordinates": [ 129.349731, 35.489552, 60.0 ] } },
{ "type": "Feature", "properties": { "value": 0.2074 }, "geometry": { "type": "Point", "coordinates": [ 129.35083, 35.489548, 60.0 ] } },
{ "type": "Feature", "properties": { "value": 0.0462 }, "geometry": { "type": "Point", "coordinates": [ 129.351929, 35.489544, 60.0 ] } },
{ "type": "Feature", "properties": { "value": 0.0189 }, "geometry": { "type": "Point", "coordinates": [ 129.377274, 35.489468, 60.0 ] } },
{ "type": "Feature", "properties": { "value": 0.0274 }, "geometry": { "type": "Point", "coordinates": [ 129.378387, 35.489464, 60.0 ] } },
{ "type": "Feature", "properties": { "value": 0.0314 }, "geometry": { "type": "Point", "coordinates": [ 129.379486, 35.48946, 60.0 ] } },
{ "type": "Feature", "properties": { "value": 0.0321 }, "geometry": { "type": "Point", "coordinates": [ 129.380585, 35.489456, 60.0 ] } },
{ "type": "Feature", "properties": { "value": 0.0316 }, "geometry": { "type": "Point", "coordinates": [ 129.381683, 35.489452, 60.0 ] } },
{ "type": "Feature", "properties": { "value": 0.0403 }, "geometry": { "type": "Point", "coordinates": [ 129.335403, 35.490494, 60.0 ] } },
{ "type": "Feature", "properties": { "value": 0.7282 }, "geometry": { "type": "Point", "coordinates": [ 129.336502, 35.49049, 60.0 ] } },
{ "type": "Feature", "properties": { "value": 2.3197 }, "geometry": { "type": "Point", "coordinates": [ 129.337616, 35.490486, 60.0 ] } },
{ "type": "Feature", "properties": { "value": 5.1957 }, "geometry": { "type": "Point", "coordinates": [ 129.338715, 35.490482, 60.0 ] } },
{ "type": "Feature", "properties": { "value": 8.8723 }, "geometry": { "type": "Point", "coordinates": [ 129.339813, 35.490479, 60.0 ] } },
{ "type": "Feature", "properties": { "value": 12.111 }, "geometry": { "type": "Point", "coordinates": [ 129.340912, 35.490479, 60.0 ] } },
{ "type": "Feature", "properties": { "value": 13.658 }, "geometry": { "type": "Point", "coordinates": [ 129.34201, 35.490475, 60.0 ] } },
{ "type": "Feature", "properties": { "value": 13.071 }, "geometry": { "type": "Point", "coordinates": [ 129.343124, 35.490471, 60.0 ] } },
{ "type": "Feature", "properties": { "value": 10.982 }, "geometry": { "type": "Point", "coordinates": [ 129.344223, 35.490467, 60.0 ] } },
{ "type": "Feature", "properties": { "value": 8.2933 }, "geometry": { "type": "Point", "coordinates": [ 129.345322, 35.490463, 60.0 ] } },
{ "type": "Feature", "properties": { "value": 5.726 }, "geometry": { "type": "Point", "coordinates": [ 129.34642, 35.490459, 60.0 ] } },
{ "type": "Feature", "properties": { "value": 3.6645 }, "geometry": { "type": "Point", "coordinates": [ 129.347534, 35.490459, 60.0 ] } },
{ "type": "Feature", "properties": { "value": 2.1949 }, "geometry": { "type": "Point", "coordinates": [ 129.348633, 35.490456, 60.0 ] } },
{ "type": "Feature", "properties": { "value": 1.2566 }, "geometry": { "type": "Point", "coordinates": [ 129.349731, 35.490452, 60.0 ] } },
{ "type": "Feature", "properties": { "value": 0.6949 }, "geometry": { "type": "Point", "coordinates": [ 129.35083, 35.490448, 60.0 ] } },
{ "type": "Feature", "properties": { "value": 0.3687 }, "geometry": { "type": "Point", "coordinates": [ 129.351929, 35.490444, 60.0 ] } },
{ "type": "Feature", "properties": { "value": 0.1768 }, "geometry": { "type": "Point", "coordinates": [ 129.353043, 35.49044, 60.0 ] } },
{ "type": "Feature", "properties": { "value": 0.0507 }, "geometry": { "type": "Point", "coordinates": [ 129.354141, 35.49044, 60.0 ] } },
{ "type": "Feature", "properties": { "value": 0.0045 }, "geometry": { "type": "Point", "coordinates": [ 129.373978, 35.490379, 60.0 ] } },
{ "type": "Feature", "properties": { "value": 0.0443 }, "geometry": { "type": "Point", "coordinates": [ 129.375076, 35.490376, 60.0 ] } },
{ "type": "Feature", "properties": { "value": 0.0609 }, "geometry": { "type": "Point", "coordinates": [ 129.376175, 35.490372, 60.0 ] } },
{ "type": "Feature", "properties": { "value": 0.0742 }, "geometry": { "type": "Point", "coordinates": [ 129.377289, 35.490368, 60.0 ] } },
{ "type": "Feature", "properties": { "value": 0.0825 }, "geometry": { "type": "Point", "coordinates": [ 129.378387, 35.490364, 60.0 ] } },
{ "type": "Feature", "properties": { "value": 0.0855 }, "geometry": { "type": "Point", "coordinates": [ 129.379486, 35.49036, 60.0 ] } },
{ "type": "Feature", "properties": { "value": 0.084 }, "geometry": { "type": "Point", "coordinates": [ 129.380585, 35.490356, 60.0 ] } },
{ "type": "Feature", "properties": { "value": 0.0777 }, "geometry": { "type": "Point", "coordinates": [ 129.381683, 35.490356, 60.0 ] } },
{ "type": "Feature", "properties": { "value": 0.2513 }, "geometry": { "type": "Point", "coordinates": [ 129.336517, 35.49139, 60.0 ] } },
{ "type": "Feature", "properties": { "value": 1.0369 }, "geometry": { "type": "Point", "coordinates": [ 129.337616, 35.491386, 60.0 ] } },
{ "type": "Feature", "properties": { "value": 2.7213 }, "geometry": { "type": "Point", "coordinates": [ 129.338715, 35.491383, 60.0 ] } },
{ "type": "Feature", "properties": { "value": 5.4226 }, "geometry": { "type": "Point", "coordinates": [ 129.339813, 35.491383, 60.0 ] } },
{ "type": "Feature", "properties": { "value": 8.69 }, "geometry": { "type": "Point", "coordinates": [ 129.340927, 35.491379, 60.0 ] } },
{ "type": "Feature", "properties": { "value": 11.443 }, "geometry": { "type": "Point", "coordinates": [ 129.342026, 35.491375, 60.0 ] } },
{ "type": "Feature", "properties": { "value": 12.763 }, "geometry": { "type": "Point", "coordinates": [ 129.343124, 35.491371, 60.0 ] } },
{ "type": "Feature", "properties": { "value": 12.41 }, "geometry": { "type": "Point", "coordinates": [ 129.344223, 35.491367, 60.0 ] } },
{ "type": "Feature", "properties": { "value": 10.753 }, "geometry": { "type": "Point", "coordinates": [ 129.345322, 35.491367, 60.0 ] } },
{ "type": "Feature", "properties": { "value": 8.4765 }, "geometry": { "type": "Point", "coordinates": [ 129.346436, 35.491364, 60.0 ] } },
{ "type": "Feature", "properties": { "value": 6.1512 }, "geometry": { "type": "Point", "coordinates": [ 129.347534, 35.49136, 60.0 ] } },
{ "type": "Feature", "properties": { "value": 4.148 }, "geometry": { "type": "Point", "coordinates": [ 129.348633, 35.491356, 60.0 ] } },
{ "type": "Feature", "properties": { "value": 2.6664 }, "geometry": { "type": "Point", "coordinates": [ 129.349731, 35.491352, 60.0 ] } },
{ "type": "Feature", "properties": { "value": 1.6565 }, "geometry": { "type": "Point", "coordinates": [ 129.350845, 35.491348, 60.0 ] } },
{ "type": "Feature", "properties": { "value": 1.0131 }, "geometry": { "type": "Point", "coordinates": [ 129.351944, 35.491348, 60.0 ] } },
{ "type": "Feature", "properties": { "value": 0.6116 }, "geometry": { "type": "Point", "coordinates": [ 129.353043, 35.491344, 60.0 ] } },
{ "type": "Feature", "properties": { "value": 0.3642 }, "geometry": { "type": "Point", "coordinates": [ 129.354141, 35.491341, 60.0 ] } },
{ "type": "Feature", "properties": { "value": 0.2157 }, "geometry": { "type": "Point", "coordinates": [ 129.35524, 35.491337, 60.0 ] } },
{ "type": "Feature", "properties": { "value": 0.1232 }, "geometry": { "type": "Point", "coordinates": [ 129.356354, 35.491333, 60.0 ] } },
{ "type": "Feature", "properties": { "value": 0.055 }, "geometry": { "type": "Point", "coordinates": [ 129.357452, 35.491329, 60.0 ] } },
{ "type": "Feature", "properties": { "value": 0.0138 }, "geometry": { "type": "Point", "coordinates": [ 129.358551, 35.491325, 60.0 ] } },
{ "type": "Feature", "properties": { "value": 0.0081 }, "geometry": { "type": "Point", "coordinates": [ 129.370682, 35.491291, 60.0 ] } },
{ "type": "Feature", "properties": { "value": 0.0415 }, "geometry": { "type": "Point", "coordinates": [ 129.37178, 35.491287, 60.0 ] } },
{ "type": "Feature", "properties": { "value": 0.08 }, "geometry": { "type": "Point", "coordinates": [ 129.372879, 35.491283, 60.0 ] } },
{ "type": "Feature", "properties": { "value": 0.1104 }, "geometry": { "type": "Point", "coordinates": [ 129.373978, 35.49128, 60.0 ] } },
{ "type": "Feature", "properties": { "value": 0.1335 }, "geometry": { "type": "Point", "coordinates": [ 129.375076, 35.491276, 60.0 ] } },
{ "type": "Feature", "properties": { "value": 0.1556 }, "geometry": { "type": "Point", "coordinates": [ 129.37619, 35.491272, 60.0 ] } },
{ "type": "Feature", "properties": { "value": 0.1766 }, "geometry": { "type": "Point", "coordinates": [ 129.377289, 35.491268, 60.0 ] } },
{ "type": "Feature", "properties": { "value": 0.1871 }, "geometry": { "type": "Point", "coordinates": [ 129.378387, 35.491268, 60.0 ] } },
{ "type": "Feature", "properties": { "value": 0.1878 }, "geometry": { "type": "Point", "coordinates": [ 129.379486, 35.491264, 60.0 ] } },
{ "type": "Feature", "properties": { "value": 0.1805 }, "geometry": { "type": "Point", "coordinates": [ 129.3806, 35.491261, 60.0 ] } },
{ "type": "Feature", "properties": { "value": 0.1636 }, "geometry": { "type": "Point", "coordinates": [ 129.381699, 35.491257, 60.0 ] } },
{ "type": "Feature", "properties": { "value": 0.3915 }, "geometry": { "type": "Point", "coordinates": [ 129.337616, 35.49229, 60.0 ] } },
{ "type": "Feature", "properties": { "value": 1.2669 }, "geometry": { "type": "Point", "coordinates": [ 129.338715, 35.492287, 60.0 ] } },
{ "type": "Feature", "properties": { "value": 2.9456 }, "geometry": { "type": "Point", "coordinates": [ 129.339828, 35.492283, 60.0 ] } },
{ "type": "Feature", "properties": { "value": 5.4479 }, "geometry": { "type": "Point", "coordinates": [ 129.340927, 35.492279, 60.0 ] } },
{ "type": "Feature", "properties": { "value": 8.298 }, "geometry": { "type": "Point", "coordinates": [ 129.342026, 35.492275, 60.0 ] } },
{ "type": "Feature", "properties": { "value": 10.696 }, "geometry": { "type": "Point", "coordinates": [ 129.343124, 35.492271, 60.0 ] } },
{ "type": "Feature", "properties": { "value": 11.922 }, "geometry": { "type": "Point", "coordinates": [ 129.344223, 35.492271, 60.0 ] } },
{ "type": "Feature", "properties": { "value": 11.771 }, "geometry": { "type": "Point", "coordinates": [ 129.345337, 35.492268, 60.0 ] } },
{ "type": "Feature", "properties": { "value": 10.528 }, "geometry": { "type": "Point", "coordinates": [ 129.346436, 35.492264, 60.0 ] } },
{ "type": "Feature", "properties": { "value": 8.6229 }, "geometry": { "type": "Point", "coordinates": [ 129.347534, 35.49226, 60.0 ] } },
{ "type": "Feature", "properties": { "value": 6.55 }, "geometry": { "type": "Point", "coordinates": [ 129.348633, 35.492256, 60.0 ] } },
{ "type": "Feature", "properties": { "value": 4.7125 }, "geometry": { "type": "Point", "coordinates": [ 129.349747, 35.492252, 60.0 ] } },
{ "type": "Feature", "properties": { "value": 3.2683 }, "geometry": { "type": "Point", "coordinates": [ 129.350845, 35.492252, 60.0 ] } },
{ "type": "Feature", "properties": { "value": 2.2091 }, "geometry": { "type": "Point", "coordinates": [ 129.351944, 35.492249, 60.0 ] } },
{ "type": "Feature", "properties": { "value": 1.4747 }, "geometry": { "type": "Point", "coordinates": [ 129.353043, 35.492245, 60.0 ] } },
{ "type": "Feature", "properties": { "value": 0.9865 }, "geometry": { "type": "Point", "coordinates": [ 129.354141, 35.492241, 60.0 ] } },
{ "type": "Feature", "properties": { "value": 0.6733 }, "geometry": { "type": "Point", "coordinates": [ 129.355255, 35.492237, 60.0 ] } },
{ "type": "Feature", "properties": { "value": 0.4643 }, "geometry": { "type": "Point", "coordinates": [ 129.356354, 35.492233, 60.0 ] } },
{ "type": "Feature", "properties": { "value": 0.3306 }, "geometry": { "type": "Point", "coordinates": [ 129.357452, 35.492233, 60.0 ] } },
{ "type": "Feature", "properties": { "value": 0.2409 }, "geometry": { "type": "Point", "coordinates": [ 129.358551, 35.492229, 60.0 ] } },
{ "type": "Feature", "properties": { "value": 0.1796 }, "geometry": { "type": "Point", "coordinates": [ 129.359665, 35.492226, 60.0 ] } },
{ "type": "Feature", "properties": { "value": 0.1389 }, "geometry": { "type": "Point", "coordinates": [ 129.360764, 35.492222, 60.0 ] } },
{ "type": "Feature", "properties": { "value": 0.1076 }, "geometry": { "type": "Point", "coordinates": [ 129.361862, 35.492218, 60.0 ] } },
{ "type": "Feature", "properties": { "value": 0.0879 }, "geometry": { "type": "Point", "coordinates": [ 129.362961, 35.492214, 60.0 ] } },
{ "type": "Feature", "properties": { "value": 0.0746 }, "geometry": { "type": "Point", "coordinates": [ 129.364059, 35.49221, 60.0 ] } },
{ "type": "Feature", "properties": { "value": 0.0703 }, "geometry": { "type": "Point", "coordinates": [ 129.365173, 35.49221, 60.0 ] } },
{ "type": "Feature", "properties": { "value": 0.0689 }, "geometry": { "type": "Point", "coordinates": [ 129.366272, 35.492207, 60.0 ] } },
{ "type": "Feature", "properties": { "value": 0.0777 }, "geometry": { "type": "Point", "coordinates": [ 129.367371, 35.492203, 60.0 ] } },
{ "type": "Feature", "properties": { "value": 0.0899 }, "geometry": { "type": "Point", "coordinates": [ 129.368469, 35.492199, 60.0 ] } },
{ "type": "Feature", "properties": { "value": 0.1113 }, "geometry": { "type": "Point", "coordinates": [ 129.369583, 35.492195, 60.0 ] } },
{ "type": "Feature", "properties": { "value": 0.1375 }, "geometry": { "type": "Point", "coordinates": [ 129.370682, 35.492191, 60.0 ] } },
{ "type": "Feature", "properties": { "value": 0.1748 }, "geometry": { "type": "Point", "coordinates": [ 129.37178, 35.492188, 60.0 ] } },
{ "type": "Feature", "properties": { "value": 0.2122 }, "geometry": { "type": "Point", "coordinates": [ 129.372879, 35.492184, 60.0 ] } },
{ "type": "Feature", "properties": { "value": 0.2523 }, "geometry": { "type": "Point", "coordinates": [ 129.373978, 35.49218, 60.0 ] } },
{ "type": "Feature", "properties": { "value": 0.2929 }, "geometry": { "type": "Point", "coordinates": [ 129.375092, 35.49218, 60.0 ] } },
{ "type": "Feature", "properties": { "value": 0.3273 }, "geometry": { "type": "Point", "coordinates": [ 129.37619, 35.492176, 60.0 ] } },
{ "type": "Feature", "properties": { "value": 0.3548 }, "geometry": { "type": "Point", "coordinates": [ 129.377289, 35.492172, 60.0 ] } },
{ "type": "Feature", "properties": { "value": 0.3704 }, "geometry": { "type": "Point", "coordinates": [ 129.378387, 35.492168, 60.0 ] } },
{ "type": "Feature", "properties": { "value": 0.3694 }, "geometry": { "type": "Point", "coordinates": [ 129.379501, 35.492165, 60.0 ] } },
{ "type": "Feature", "properties": { "value": 0.3499 }, "geometry": { "type": "Point", "coordinates": [ 129.3806, 35.492161, 60.0 ] } },
{ "type": "Feature", "properties": { "value": 0.3107 }, "geometry": { "type": "Point", "coordinates": [ 129.381699, 35.492157, 60.0 ] } },
{ "type": "Feature", "properties": { "value": 0.0679 }, "geometry": { "type": "Point", "coordinates": [ 129.337616, 35.493191, 60.0 ] } },
{ "type": "Feature", "properties": { "value": 0.5167 }, "geometry": { "type": "Point", "coordinates": [ 129.33873, 35.493187, 60.0 ] } },
{ "type": "Feature", "properties": { "value": 1.4286 }, "geometry": { "type": "Point", "coordinates": [ 129.339828, 35.493183, 60.0 ] } },
{ "type": "Feature", "properties": { "value": 3.039 }, "geometry": { "type": "Point", "coordinates": [ 129.340927, 35.493179, 60.0 ] } },
{ "type": "Feature", "properties": { "value": 5.3126 }, "geometry": { "type": "Point", "coordinates": [ 129.342026, 35.493179, 60.0 ] } },
{ "type": "Feature", "properties": { "value": 7.8233 }, "geometry": { "type": "Point", "coordinates": [ 129.343124, 35.493176, 60.0 ] } },
{ "type": "Feature", "properties": { "value": 9.9304 }, "geometry": { "type": "Point", "coordinates": [ 129.344238, 35.493172, 60.0 ] } },
{ "type": "Feature", "properties": { "value": 11.111 }, "geometry": { "type": "Point", "coordinates": [ 129.345337, 35.493168, 60.0 ] } },
{ "type": "Feature", "properties": { "value": 11.186 }, "geometry": { "type": "Point", "coordinates": [ 129.346436, 35.493164, 60.0 ] } },
{ "type": "Feature", "properties": { "value": 10.3 }, "geometry": { "type": "Point", "coordinates": [ 129.347534, 35.49316, 60.0 ] } },
{ "type": "Feature", "properties": { "value": 8.8064 }, "geometry": { "type": "Point", "coordinates": [ 129.348648, 35.49316, 60.0 ] } },
{ "type": "Feature", "properties": { "value": 7.0879 }, "geometry": { "type": "Point", "coordinates": [ 129.349747, 35.493156, 60.0 ] } },
{ "type": "Feature", "properties": { "value": 5.4463 }, "geometry": { "type": "Point", "coordinates": [ 129.350845, 35.493153, 60.0 ] } },
{ "type": "Feature", "properties": { "value": 4.0446 }, "geometry": { "type": "Point", "coordinates": [ 129.351944, 35.493149, 60.0 ] } },
{ "type": "Feature", "properties": { "value": 2.9514 }, "geometry": { "type": "Point", "coordinates": [ 129.353043, 35.493145, 60.0 ] } },
{ "type": "Feature", "properties": { "value": 2.1437 }, "geometry": { "type": "Point", "coordinates": [ 129.354156, 35.493141, 60.0 ] } },
{ "type": "Feature", "properties": { "value": 1.5645 }, "geometry": { "type": "Point", "coordinates": [ 129.355255, 35.493141, 60.0 ] } },
{ "type": "Feature", "properties": { "value": 1.1567 }, "geometry": { "type": "Point", "coordinates": [ 129.356354, 35.493137, 60.0 ] } },
{ "type": "Feature", "properties": { "value": 0.8735 }, "geometry": { "type": "Point", "coordinates": [ 129.357452, 35.493134, 60.0 ] } },
{ "type": "Feature", "properties": { "value": 0.6721 }, "geometry": { "type": "Point", "coordinates": [ 129.358566, 35.49313, 60.0 ] } },
{ "type": "Feature", "properties": { "value": 0.5365 }, "geometry": { "type": "Point", "coordinates": [ 129.359665, 35.493126, 60.0 ] } },
{ "type": "Feature", "properties": { "value": 0.4331 }, "geometry": { "type": "Point", "coordinates": [ 129.360764, 35.493122, 60.0 ] } },
{ "type": "Feature", "properties": { "value": 0.3619 }, "geometry": { "type": "Point", "coordinates": [ 129.361862, 35.493118, 60.0 ] } },
{ "type": "Feature", "properties": { "value": 0.3133 }, "geometry": { "type": "Point", "coordinates": [ 129.362961, 35.493118, 60.0 ] } },
{ "type": "Feature", "properties": { "value": 0.2776 }, "geometry": { "type": "Point", "coordinates": [ 129.364075, 35.493114, 60.0 ] } },
{ "type": "Feature", "properties": { "value": 0.2599 }, "geometry": { "type": "Point", "coordinates": [ 129.365173, 35.493111, 60.0 ] } },
{ "type": "Feature", "properties": { "value": 0.2511 }, "geometry": { "type": "Point", "coordinates": [ 129.366272, 35.493107, 60.0 ] } },
{ "type": "Feature", "properties": { "value": 0.2544 }, "geometry": { "type": "Point", "coordinates": [ 129.367371, 35.493103, 60.0 ] } },
{ "type": "Feature", "properties": { "value": 0.2693 }, "geometry": { "type": "Point", "coordinates": [ 129.368484, 35.493099, 60.0 ] } },
{ "type": "Feature", "properties": { "value": 0.2998 }, "geometry": { "type": "Point", "coordinates": [ 129.369583, 35.493095, 60.0 ] } },
{ "type": "Feature", "properties": { "value": 0.34 }, "geometry": { "type": "Point", "coordinates": [ 129.370682, 35.493092, 60.0 ] } },
{ "type": "Feature", "properties": { "value": 0.393 }, "geometry": { "type": "Point", "coordinates": [ 129.37178, 35.493088, 60.0 ] } },
{ "type": "Feature", "properties": { "value": 0.4464 }, "geometry": { "type": "Point", "coordinates": [ 129.372894, 35.493088, 60.0 ] } },
{ "type": "Feature", "properties": { "value": 0.5092 }, "geometry": { "type": "Point", "coordinates": [ 129.373993, 35.493084, 60.0 ] } },
{ "type": "Feature", "properties": { "value": 0.5674 }, "geometry": { "type": "Point", "coordinates": [ 129.375092, 35.49308, 60.0 ] } },
{ "type": "Feature", "properties": { "value": 0.6218 }, "geometry": { "type": "Point", "coordinates": [ 129.37619, 35.493076, 60.0 ] } },
{ "type": "Feature", "properties": { "value": 0.6566 }, "geometry": { "type": "Point", "coordinates": [ 129.377289, 35.493073, 60.0 ] } },
{ "type": "Feature", "properties": { "value": 0.6715 }, "geometry": { "type": "Point", "coordinates": [ 129.378403, 35.493069, 60.0 ] } },
{ "type": "Feature", "properties": { "value": 0.6578 }, "geometry": { "type": "Point", "coordinates": [ 129.379501, 35.493065, 60.0 ] } },
{ "type": "Feature", "properties": { "value": 0.6109 }, "geometry": { "type": "Point", "coordinates": [ 129.3806, 35.493061, 60.0 ] } },
{ "type": "Feature", "properties": { "value": 0.5417 }, "geometry": { "type": "Point", "coordinates": [ 129.381699, 35.493057, 60.0 ] } },
{ "type": "Feature", "properties": { "value": 0.1554 }, "geometry": { "type": "Point", "coordinates": [ 129.33873, 35.494087, 60.0 ] } },
{ "type": "Feature", "properties": { "value": 0.6209 }, "geometry": { "type": "Point", "coordinates": [ 129.339828, 35.494083, 60.0 ] } },
{ "type": "Feature", "properties": { "value": 1.5222 }, "geometry": { "type": "Point", "coordinates": [ 129.340927, 35.494083, 60.0 ] } },
{ "type": "Feature", "properties": { "value": 3.032 }, "geometry": { "type": "Point", "coordinates": [ 129.342026, 35.49408, 60.0 ] } },
{ "type": "Feature", "properties": { "value": 5.0726 }, "geometry": { "type": "Point", "coordinates": [ 129.34314, 35.494076, 60.0 ] } },
{ "type": "Feature", "properties": { "value": 7.2827 }, "geometry": { "type": "Point", "coordinates": [ 129.344238, 35.494072, 60.0 ] } },
{ "type": "Feature", "properties": { "value": 9.1862 }, "geometry": { "type": "Point", "coordinates": [ 129.345337, 35.494068, 60.0 ] } },
{ "type": "Feature", "properties": { "value": 10.376 }, "geometry": { "type": "Point", "coordinates": [ 129.346436, 35.494068, 60.0 ] } },
{ "type": "Feature", "properties": { "value": 10.721 }, "geometry": { "type": "Point", "coordinates": [ 129.347549, 35.494064, 60.0 ] } },
{ "type": "Feature", "properties": { "value": 10.246 }, "geometry": { "type": "Point", "coordinates": [ 129.348648, 35.494061, 60.0 ] } },
{ "type": "Feature", "properties": { "value": 9.1467 }, "geometry": { "type": "Point", "coordinates": [ 129.349747, 35.494057, 60.0 ] } },
{ "type": "Feature", "properties": { "value": 7.7493 }, "geometry": { "type": "Point", "coordinates": [ 129.350845, 35.494053, 60.0 ] } },
{ "type": "Feature", "properties": { "value": 6.3137 }, "geometry": { "type": "Point", "coordinates": [ 129.351959, 35.494049, 60.0 ] } },
{ "type": "Feature", "properties": { "value": 4.9973 }, "geometry": { "type": "Point", "coordinates": [ 129.353058, 35.494049, 60.0 ] } },
{ "type": "Feature", "properties": { "value": 3.8945 }, "geometry": { "type": "Point", "coordinates": [ 129.354156, 35.494045, 60.0 ] } },
{ "type": "Feature", "properties": { "value": 3.0248 }, "geometry": { "type": "Point", "coordinates": [ 129.355255, 35.494041, 60.0 ] } },
{ "type": "Feature", "properties": { "value": 2.3605 }, "geometry": { "type": "Point", "coordinates": [ 129.356354, 35.494038, 60.0 ] } },
{ "type": "Feature", "properties": { "value": 1.8649 }, "geometry": { "type": "Point", "coordinates": [ 129.357468, 35.494034, 60.0 ] } },
{ "type": "Feature", "properties": { "value": 1.4926 }, "geometry": { "type": "Point", "coordinates": [ 129.358566, 35.49403, 60.0 ] } },
{ "type": "Feature", "properties": { "value": 1.2194 }, "geometry": { "type": "Point", "coordinates": [ 129.359665, 35.494026, 60.0 ] } },
{ "type": "Feature", "properties": { "value": 1.0168 }, "geometry": { "type": "Point", "coordinates": [ 129.360764, 35.494026, 60.0 ] } },
{ "type": "Feature", "properties": { "value": 0.8603 }, "geometry": { "type": "Point", "coordinates": [ 129.361877, 35.494022, 60.0 ] } },
{ "type": "Feature", "properties": { "value": 0.7469 }, "geometry": { "type": "Point", "coordinates": [ 129.362976, 35.494019, 60.0 ] } },
{ "type": "Feature", "properties": { "value": 0.6705 }, "geometry": { "type": "Point", "coordinates": [ 129.364075, 35.494015, 60.0 ] } },
{ "type": "Feature", "properties": { "value": 0.6209 }, "geometry": { "type": "Point", "coordinates": [ 129.365173, 35.494011, 60.0 ] } },
{ "type": "Feature", "properties": { "value": 0.5943 }, "geometry": { "type": "Point", "coordinates": [ 129.366272, 35.494007, 60.0 ] } },
{ "type": "Feature", "properties": { "value": 0.5906 }, "geometry": { "type": "Point", "coordinates": [ 129.367386, 35.494003, 60.0 ] } },
{ "type": "Feature", "properties": { "value": 0.606 }, "geometry": { "type": "Point", "coordinates": [ 129.368484, 35.493999, 60.0 ] } },
{ "type": "Feature", "properties": { "value": 0.6435 }, "geometry": { "type": "Point", "coordinates": [ 129.369583, 35.493999, 60.0 ] } },
{ "type": "Feature", "properties": { "value": 0.698 }, "geometry": { "type": "Point", "coordinates": [ 129.370682, 35.493996, 60.0 ] } },
{ "type": "Feature", "properties": { "value": 0.7665 }, "geometry": { "type": "Point", "coordinates": [ 129.371796, 35.493992, 60.0 ] } },
{ "type": "Feature", "properties": { "value": 0.8457 }, "geometry": { "type": "Point", "coordinates": [ 129.372894, 35.493988, 60.0 ] } },
{ "type": "Feature", "properties": { "value": 0.9305 }, "geometry": { "type": "Point", "coordinates": [ 129.373993, 35.493984, 60.0 ] } },
{ "type": "Feature", "properties": { "value": 1.0117 }, "geometry": { "type": "Point", "coordinates": [ 129.375092, 35.49398, 60.0 ] } },
{ "type": "Feature", "properties": { "value": 1.0783 }, "geometry": { "type": "Point", "coordinates": [ 129.37619, 35.493977, 60.0 ] } },
{ "type": "Feature", "properties": { "value": 1.119 }, "geometry": { "type": "Point", "coordinates": [ 129.377304, 35.493973, 60.0 ] } },
{ "type": "Feature", "properties": { "value": 1.1204 }, "geometry": { "type": "Point", "coordinates": [ 129.378403, 35.493969, 60.0 ] } },
{ "type": "Feature", "properties": { "value": 1.0786 }, "geometry": { "type": "Point", "coordinates": [ 129.379501, 35.493965, 60.0 ] } },
{ "type": "Feature", "properties": { "value": 0.9932 }, "geometry": { "type": "Point", "coordinates": [ 129.3806, 35.493965, 60.0 ] } },
{ "type": "Feature", "properties": { "value": 0.8685 }, "geometry": { "type": "Point", "coordinates": [ 129.381714, 35.493961, 60.0 ] } },
{ "type": "Feature", "properties": { "value": 0.222 }, "geometry": { "type": "Point", "coordinates": [ 129.339828, 35.494987, 60.0 ] } },
{ "type": "Feature", "properties": { "value": 0.6858 }, "geometry": { "type": "Point", "coordinates": [ 129.340942, 35.494984, 60.0 ] } },
{ "type": "Feature", "properties": { "value": 1.5519 }, "geometry": { "type": "Point", "coordinates": [ 129.342041, 35.49498, 60.0 ] } },
{ "type": "Feature", "properties": { "value": 2.9185 }, "geometry": { "type": "Point", "coordinates": [ 129.34314, 35.494976, 60.0 ] } },
{ "type": "Feature", "properties": { "value": 4.7105 }, "geometry": { "type": "Point", "coordinates": [ 129.344238, 35.494972, 60.0 ] } },
{ "type": "Feature", "properties": { "value": 6.6766 }, "geometry": { "type": "Point", "coordinates": [ 129.345337, 35.494972, 60.0 ] } },
{ "type": "Feature", "properties": { "value": 8.4419 }, "geometry": { "type": "Point", "coordinates": [ 129.346451, 35.494968, 60.0 ] } },
{ "type": "Feature", "properties": { "value": 9.7184 }, "geometry": { "type": "Point", "coordinates": [ 129.347549, 35.494965, 60.0 ] } },
{ "type": "Feature", "properties": { "value": 10.318 }, "geometry": { "type": "Point", "coordinates": [ 129.348648, 35.494961, 60.0 ] } },
{ "type": "Feature", "properties": { "value": 10.18 }, "geometry": { "type": "Point", "coordinates": [ 129.349747, 35.494957, 60.0 ] } },
{ "type": "Feature", "properties": { "value": 9.4543 }, "geometry": { "type": "Point", "coordinates": [ 129.350861, 35.494953, 60.0 ] } },
{ "type": "Feature", "properties": { "value": 8.3937 }, "geometry": { "type": "Point", "coordinates": [ 129.351959, 35.494953, 60.0 ] } },
{ "type": "Feature", "properties": { "value": 7.1714 }, "geometry": { "type": "Point", "coordinates": [ 129.353058, 35.494949, 60.0 ] } },
{ "type": "Feature", "properties": { "value": 5.9871 }, "geometry": { "type": "Point", "coordinates": [ 129.354156, 35.494946, 60.0 ] } },
{ "type": "Feature", "properties": { "value": 4.9477 }, "geometry": { "type": "Point", "coordinates": [ 129.355255, 35.494942, 60.0 ] } },
{ "type": "Feature", "properties": { "value": 4.0729 }, "geometry": { "type": "Point", "coordinates": [ 129.356369, 35.494938, 60.0 ] } },
{ "type": "Feature", "properties": { "value": 3.3589 }, "geometry": { "type": "Point", "coordinates": [ 129.357468, 35.494934, 60.0 ] } },
{ "type": "Feature", "properties": { "value": 2.7928 }, "geometry": { "type": "Point", "coordinates": [ 129.358566, 35.494934, 60.0 ] } },
{ "type": "Feature", "properties": { "value": 2.3481 }, "geometry": { "type": "Point", "coordinates": [ 129.359665, 35.49493, 60.0 ] } },
{ "type": "Feature", "properties": { "value": 1.9977 }, "geometry": { "type": "Point", "coordinates": [ 129.360779, 35.494926, 60.0 ] } },
{ "type": "Feature", "properties": { "value": 1.7244 }, "geometry": { "type": "Point", "coordinates": [ 129.361877, 35.494923, 60.0 ] } },
{ "type": "Feature", "properties": { "value": 1.5121 }, "geometry": { "type": "Point", "coordinates": [ 129.362976, 35.494919, 60.0 ] } },
{ "type": "Feature", "properties": { "value": 1.3615 }, "geometry": { "type": "Point", "coordinates": [ 129.364075, 35.494915, 60.0 ] } },
{ "type": "Feature", "properties": { "value": 1.259 }, "geometry": { "type": "Point", "coordinates": [ 129.365173, 35.494911, 60.0 ] } },
{ "type": "Feature", "properties": { "value": 1.1941 }, "geometry": { "type": "Point", "coordinates": [ 129.366287, 35.494907, 60.0 ] } },
{ "type": "Feature", "properties": { "value": 1.1674 }, "geometry": { "type": "Point", "coordinates": [ 129.367386, 35.494907, 60.0 ] } },
{ "type": "Feature", "properties": { "value": 1.173 }, "geometry": { "type": "Point", "coordinates": [ 129.368484, 35.494904, 60.0 ] } },
{ "type": "Feature", "properties": { "value": 1.2079 }, "geometry": { "type": "Point", "coordinates": [ 129.369583, 35.4949, 60.0 ] } },
{ "type": "Feature", "properties": { "value": 1.2743 }, "geometry": { "type": "Point", "coordinates": [ 129.370697, 35.494896, 60.0 ] } },
{ "type": "Feature", "properties": { "value": 1.3602 }, "geometry": { "type": "Point", "coordinates": [ 129.371796, 35.494892, 60.0 ] } },
{ "type": "Feature", "properties": { "value": 1.4582 }, "geometry": { "type": "Point", "coordinates": [ 129.372894, 35.494888, 60.0 ] } },
{ "type": "Feature", "properties": { "value": 1.5625 }, "geometry": { "type": "Point", "coordinates": [ 129.373993, 35.494884, 60.0 ] } },
{ "type": "Feature", "properties": { "value": 1.6565 }, "geometry": { "type": "Point", "coordinates": [ 129.375107, 35.494881, 60.0 ] } },
{ "type": "Feature", "properties": { "value": 1.7281 }, "geometry": { "type": "Point", "coordinates": [ 129.376205, 35.494877, 60.0 ] } },
{ "type": "Feature", "properties": { "value": 1.7567 }, "geometry": { "type": "Point", "coordinates": [ 129.377304, 35.494877, 60.0 ] } },
{ "type": "Feature", "properties": { "value": 1.7306 }, "geometry": { "type": "Point", "coordinates": [ 129.378403, 35.494873, 60.0 ] } },
{ "type": "Feature", "properties": { "value": 1.6399 }, "geometry": { "type": "Point", "coordinates": [ 129.379501, 35.494869, 60.0 ] } },
{ "type": "Feature", "properties": { "value": 1.4888 }, "geometry": { "type": "Point", "coordinates": [ 129.380615, 35.494865, 60.0 ] } },
{ "type": "Feature", "properties": { "value": 1.2879 }, "geometry": { "type": "Point", "coordinates": [ 129.381714, 35.494862, 60.0 ] } },
{ "type": "Feature", "properties": { "value": 0.2578 }, "geometry": { "type": "Point", "coordinates": [ 129.340942, 35.495884, 60.0 ] } },
{ "type": "Feature", "properties": { "value": 0.6984 }, "geometry": { "type": "Point", "coordinates": [ 129.342041, 35.49588, 60.0 ] } },
{ "type": "Feature", "properties": { "value": 1.4911 }, "geometry": { "type": "Point", "coordinates": [ 129.34314, 35.49588, 60.0 ] } },
{ "type": "Feature", "properties": { "value": 2.6853 }, "geometry": { "type": "Point", "coordinates": [ 129.344238, 35.495876, 60.0 ] } },
{ "type": "Feature", "properties": { "value": 4.2585 }, "geometry": { "type": "Point", "coordinates": [ 129.345352, 35.495872, 60.0 ] } },
{ "type": "Feature", "properties": { "value": 5.9935 }, "geometry": { "type": "Point", "coordinates": [ 129.346451, 35.495869, 60.0 ] } },
{ "type": "Feature", "properties": { "value": 7.6428 }, "geometry": { "type": "Point", "coordinates": [ 129.347549, 35.495865, 60.0 ] } },
{ "type": "Feature", "properties": { "value": 8.9765 }, "geometry": { "type": "Point", "coordinates": [ 129.348648, 35.495861, 60.0 ] } },
{ "type": "Feature", "properties": { "value": 9.7666 }, "geometry": { "type": "Point", "coordinates": [ 129.349762, 35.495861, 60.0 ] } },
{ "type": "Feature", "properties": { "value": 9.9192 }, "geometry": { "type": "Point", "coordinates": [ 129.350861, 35.495857, 60.0 ] } },
{ "type": "Feature", "properties": { "value": 9.5269 }, "geometry": { "type": "Point", "coordinates": [ 129.351959, 35.495853, 60.0 ] } },
{ "type": "Feature", "properties": { "value": 8.7713 }, "geometry": { "type": "Point", "coordinates": [ 129.353058, 35.49585, 60.0 ] } },
{ "type": "Feature", "properties": { "value": 7.8477 }, "geometry": { "type": "Point", "coordinates": [ 129.354156, 35.495846, 60.0 ] } },
{ "type": "Feature", "properties": { "value": 6.8988 }, "geometry": { "type": "Point", "coordinates": [ 129.35527, 35.495842, 60.0 ] } },
{ "type": "Feature", "properties": { "value": 5.9945 }, "geometry": { "type": "Point", "coordinates": [ 129.356369, 35.495838, 60.0 ] } },
{ "type": "Feature", "properties": { "value": 5.1809 }, "geometry": { "type": "Point", "coordinates": [ 129.357468, 35.495838, 60.0 ] } },
{ "type": "Feature", "properties": { "value": 4.4747 }, "geometry": { "type": "Point", "coordinates": [ 129.358566, 35.495834, 60.0 ] } },
{ "type": "Feature", "properties": { "value": 3.876 }, "geometry": { "type": "Point", "coordinates": [ 129.35968, 35.495831, 60.0 ] } },
{ "type": "Feature", "properties": { "value": 3.3766 }, "geometry": { "type": "Point", "coordinates": [ 129.360779, 35.495827, 60.0 ] } },
{ "type": "Feature", "properties": { "value": 2.9701 }, "geometry": { "type": "Point", "coordinates": [ 129.361877, 35.495823, 60.0 ] } },
{ "type": "Feature", "properties": { "value": 2.6494 }, "geometry": { "type": "Point", "coordinates": [ 129.362976, 35.495819, 60.0 ] } },
{ "type": "Feature", "properties": { "value": 2.4048 }, "geometry": { "type": "Point", "coordinates": [ 129.36409, 35.495815, 60.0 ] } },
{ "type": "Feature", "properties": { "value": 2.2255 }, "geometry": { "type": "Point", "coordinates": [ 129.365189, 35.495815, 60.0 ] } },
{ "type": "Feature", "properties": { "value": 2.105 }, "geometry": { "type": "Point", "coordinates": [ 129.366287, 35.495811, 60.0 ] } },
{ "type": "Feature", "properties": { "value": 2.0347 }, "geometry": { "type": "Point", "coordinates": [ 129.367386, 35.495808, 60.0 ] } },
{ "type": "Feature", "properties": { "value": 2.0151 }, "geometry": { "type": "Point", "coordinates": [ 129.368484, 35.495804, 60.0 ] } },
{ "type": "Feature", "properties": { "value": 2.0383 }, "geometry": { "type": "Point", "coordinates": [ 129.369598, 35.4958, 60.0 ] } },
{ "type": "Feature", "properties": { "value": 2.1025 }, "geometry": { "type": "Point", "coordinates": [ 129.370697, 35.495796, 60.0 ] } },
{ "type": "Feature", "properties": { "value": 2.191 }, "geometry": { "type": "Point", "coordinates": [ 129.371796, 35.495792, 60.0 ] } },
{ "type": "Feature", "properties": { "value": 2.2966 }, "geometry": { "type": "Point", "coordinates": [ 129.372894, 35.495789, 60.0 ] } },
{ "type": "Feature", "properties": { "value": 2.4035 }, "geometry": { "type": "Point", "coordinates": [ 129.374008, 35.495785, 60.0 ] } },
{ "type": "Feature", "properties": { "value": 2.4952 }, "geometry": { "type": "Point", "coordinates": [ 129.375107, 35.495785, 60.0 ] } },
{ "type": "Feature", "properties": { "value": 2.5494 }, "geometry": { "type": "Point", "coordinates": [ 129.376205, 35.495781, 60.0 ] } },
{ "type": "Feature", "properties": { "value": 2.545 }, "geometry": { "type": "Point", "coordinates": [ 129.377304, 35.495777, 60.0 ] } },
{ "type": "Feature", "properties": { "value": 2.4665 }, "geometry": { "type": "Point", "coordinates": [ 129.378403, 35.495773, 60.0 ] } },
{ "type": "Feature", "properties": { "value": 2.305 }, "geometry": { "type": "Point", "coordinates": [ 129.379517, 35.49577, 60.0 ] } },
{ "type": "Feature", "properties": { "value": 2.0667 }, "geometry": { "type": "Point", "coordinates": [ 129.380615, 35.495766, 60.0 ] } },
{ "type": "Feature", "properties": { "value": 1.7686 }, "geometry": { "type": "Point", "coordinates": [ 129.381714, 35.495762, 60.0 ] } },
{ "type": "Feature", "properties": { "value": 0.0119 }, "geometry": { "type": "Point", "coordinates": [ 129.340942, 35.496784, 60.0 ] } },
{ "type": "Feature", "properties": { "value": 0.2654 }, "geometry": { "type": "Point", "coordinates": [ 129.342041, 35.496784, 60.0 ] } },
{ "type": "Feature", "properties": { "value": 0.6636 }, "geometry": { "type": "Point", "coordinates": [ 129.34314, 35.49678, 60.0 ] } },
{ "type": "Feature", "properties": { "value": 1.3507 }, "geometry": { "type": "Point", "coordinates": [ 129.344254, 35.496777, 60.0 ] } },
{ "type": "Feature", "properties": { "value": 2.3795 }, "geometry": { "type": "Point", "coordinates": [ 129.345352, 35.496773, 60.0 ] } },
{ "type": "Feature", "properties": { "value": 3.7137 }, "geometry": { "type": "Point", "coordinates": [ 129.346451, 35.496769, 60.0 ] } },
{ "type": "Feature", "properties": { "value": 5.2271 }, "geometry": { "type": "Point", "coordinates": [ 129.347549, 35.496765, 60.0 ] } },
{ "type": "Feature", "properties": { "value": 6.7561 }, "geometry": { "type": "Point", "coordinates": [ 129.348663, 35.496765, 60.0 ] } },
{ "type": "Feature", "properties": { "value": 8.0776 }, "geometry": { "type": "Point", "coordinates": [ 129.349762, 35.496761, 60.0 ] } },
{ "type": "Feature", "properties": { "value": 8.9569 }, "geometry": { "type": "Point", "coordinates": [ 129.350861, 35.496758, 60.0 ] } },
{ "type": "Feature", "properties": { "value": 9.2854 }, "geometry": { "type": "Point", "coordinates": [ 129.351959, 35.496754, 60.0 ] } },
{ "type": "Feature", "properties": { "value": 9.2086 }, "geometry": { "type": "Point", "coordinates": [ 129.353073, 35.49675, 60.0 ] } },
{ "type": "Feature", "properties": { "value": 8.8349 }, "geometry": { "type": "Point", "coordinates": [ 129.354172, 35.496746, 60.0 ] } },
{ "type": "Feature", "properties": { "value": 8.2739 }, "geometry": { "type": "Point", "coordinates": [ 129.35527, 35.496746, 60.0 ] } },
{ "type": "Feature", "properties": { "value": 7.6005 }, "geometry": { "type": "Point", "coordinates": [ 129.356369, 35.496742, 60.0 ] } },
{ "type": "Feature", "properties": { "value": 6.8881 }, "geometry": { "type": "Point", "coordinates": [ 129.357468, 35.496738, 60.0 ] } },
{ "type": "Feature", "properties": { "value": 6.1952 }, "geometry": { "type": "Point", "coordinates": [ 129.358582, 35.496735, 60.0 ] } },
{ "type": "Feature", "properties": { "value": 5.5517 }, "geometry": { "type": "Point", "coordinates": [ 129.35968, 35.496731, 60.0 ] } },
{ "type": "Feature", "properties": { "value": 4.9745 }, "geometry": { "type": "Point", "coordinates": [ 129.360779, 35.496727, 60.0 ] } },
{ "type": "Feature", "properties": { "value": 4.4767 }, "geometry": { "type": "Point", "coordinates": [ 129.361877, 35.496723, 60.0 ] } },
{ "type": "Feature", "properties": { "value": 4.0606 }, "geometry": { "type": "Point", "coordinates": [ 129.362991, 35.496723, 60.0 ] } },
{ "type": "Feature", "properties": { "value": 3.7301 }, "geometry": { "type": "Point", "coordinates": [ 129.36409, 35.496719, 60.0 ] } },
{ "type": "Feature", "properties": { "value": 3.4707 }, "geometry": { "type": "Point", "coordinates": [ 129.365189, 35.496716, 60.0 ] } },
{ "type": "Feature", "properties": { "value": 3.2815 }, "geometry": { "type": "Point", "coordinates": [ 129.366287, 35.496712, 60.0 ] } },
{ "type": "Feature", "properties": { "value": 3.1598 }, "geometry": { "type": "Point", "coordinates": [ 129.367386, 35.496708, 60.0 ] } },
{ "type": "Feature", "properties": { "value": 3.0987 }, "geometry": { "type": "Point", "coordinates": [ 129.3685, 35.496704, 60.0 ] } },
{ "type": "Feature", "properties": { "value": 3.0961 }, "geometry": { "type": "Point", "coordinates": [ 129.369598, 35.4967, 60.0 ] } },
{ "type": "Feature", "properties": { "value": 3.1371 }, "geometry": { "type": "Point", "coordinates": [ 129.370697, 35.496696, 60.0 ] } },
{ "type": "Feature", "properties": { "value": 3.2095 }, "geometry": { "type": "Point", "coordinates": [ 129.371796, 35.496696, 60.0 ] } },
{ "type": "Feature", "properties": { "value": 3.2995 }, "geometry": { "type": "Point", "coordinates": [ 129.37291, 35.496693, 60.0 ] } },
{ "type": "Feature", "properties": { "value": 3.388 }, "geometry": { "type": "Point", "coordinates": [ 129.374008, 35.496689, 60.0 ] } },
{ "type": "Feature", "properties": { "value": 3.4497 }, "geometry": { "type": "Point", "coordinates": [ 129.375107, 35.496685, 60.0 ] } },
{ "type": "Feature", "properties": { "value": 3.463 }, "geometry": { "type": "Point", "coordinates": [ 129.376205, 35.496681, 60.0 ] } },
{ "type": "Feature", "properties": { "value": 3.4006 }, "geometry": { "type": "Point", "coordinates": [ 129.377319, 35.496677, 60.0 ] } },
{ "type": "Feature", "properties": { "value": 3.2445 }, "geometry": { "type": "Point", "coordinates": [ 129.378418, 35.496674, 60.0 ] } },
{ "type": "Feature", "properties": { "value": 2.9935 }, "geometry": { "type": "Point", "coordinates": [ 129.379517, 35.49667, 60.0 ] } },
{ "type": "Feature", "properties": { "value": 2.6522 }, "geometry": { "type": "Point", "coordinates": [ 129.380615, 35.496666, 60.0 ] } },
{ "type": "Feature", "properties": { "value": 2.2471 }, "geometry": { "type": "Point", "coordinates": [ 129.381714, 35.496662, 60.0 ] } },
{ "type": "Feature", "properties": { "value": 0.041 }, "geometry": { "type": "Point", "coordinates": [ 129.342041, 35.497684, 60.0 ] } },
{ "type": "Feature", "properties": { "value": 0.2467 }, "geometry": { "type": "Point", "coordinates": [ 129.343155, 35.497681, 60.0 ] } },
{ "type": "Feature", "properties": { "value": 0.5851 }, "geometry": { "type": "Point", "coordinates": [ 129.344254, 35.497677, 60.0 ] } },
{ "type": "Feature", "properties": { "value": 1.1575 }, "geometry": { "type": "Point", "coordinates": [ 129.345352, 35.497673, 60.0 ] } },
{ "type": "Feature", "properties": { "value": 2.0024 }, "geometry": { "type": "Point", "coordinates": [ 129.346451, 35.497673, 60.0 ] } },
{ "type": "Feature", "properties": { "value": 3.1076 }, "geometry": { "type": "Point", "coordinates": [ 129.347565, 35.497669, 60.0 ] } },
{ "type": "Feature", "properties": { "value": 4.4003 }, "geometry": { "type": "Point", "coordinates": [ 129.348663, 35.497665, 60.0 ] } },
{ "type": "Feature", "properties": { "value": 5.7413 }, "geometry": { "type": "Point", "coordinates": [ 129.349762, 35.497662, 60.0 ] } },
{ "type": "Feature", "properties": { "value": 6.9234 }, "geometry": { "type": "Point", "coordinates": [ 129.350861, 35.497658, 60.0 ] } },
{ "type": "Feature", "properties": { "value": 7.7955 }, "geometry": { "type": "Point", "coordinates": [ 129.351974, 35.497654, 60.0 ] } },
{ "type": "Feature", "properties": { "value": 8.3568 }, "geometry": { "type": "Point", "coordinates": [ 129.353073, 35.497654, 60.0 ] } },
{ "type": "Feature", "properties": { "value": 8.615 }, "geometry": { "type": "Point", "coordinates": [ 129.354172, 35.49765, 60.0 ] } },
{ "type": "Feature", "properties": { "value": 8.5917 }, "geometry": { "type": "Point", "coordinates": [ 129.35527, 35.497646, 60.0 ] } },
{ "type": "Feature", "properties": { "value": 8.3415 }, "geometry": { "type": "Point", "coordinates": [ 129.356369, 35.497643, 60.0 ] } },
{ "type": "Feature", "properties": { "value": 7.9263 }, "geometry": { "type": "Point", "coordinates": [ 129.357483, 35.497639, 60.0 ] } },
{ "type": "Feature", "properties": { "value": 7.4368 }, "geometry": { "type": "Point", "coordinates": [ 129.358582, 35.497635, 60.0 ] } },
{ "type": "Feature", "properties": { "value": 6.9173 }, "geometry": { "type": "Point", "coordinates": [ 129.35968, 35.497631, 60.0 ] } },
{ "type": "Feature", "properties": { "value": 6.3945 }, "geometry": { "type": "Point", "coordinates": [ 129.360779, 35.497631, 60.0 ] } },
{ "type": "Feature", "properties": { "value": 5.9025 }, "geometry": { "type": "Point", "coordinates": [ 129.361893, 35.497627, 60.0 ] } },
{ "type": "Feature", "properties": { "value": 5.4638 }, "geometry": { "type": "Point", "coordinates": [ 129.362991, 35.497623, 60.0 ] } },
{ "type": "Feature", "properties": { "value": 5.0879 }, "geometry": { "type": "Point", "coordinates": [ 129.36409, 35.49762, 60.0 ] } },
{ "type": "Feature", "properties": { "value": 4.7767 }, "geometry": { "type": "Point", "coordinates": [ 129.365189, 35.497616, 60.0 ] } },
{ "type": "Feature", "properties": { "value": 4.5375 }, "geometry": { "type": "Point", "coordinates": [ 129.366302, 35.497612, 60.0 ] } },
{ "type": "Feature", "properties": { "value": 4.3674 }, "geometry": { "type": "Point", "coordinates": [ 129.367401, 35.497608, 60.0 ] } },
{ "type": "Feature", "properties": { "value": 4.2657 }, "geometry": { "type": "Point", "coordinates": [ 129.3685, 35.497604, 60.0 ] } },
{ "type": "Feature", "properties": { "value": 4.2267 }, "geometry": { "type": "Point", "coordinates": [ 129.369598, 35.497604, 60.0 ] } },
{ "type": "Feature", "properties": { "value": 4.2355 }, "geometry": { "type": "Point", "coordinates": [ 129.370697, 35.497601, 60.0 ] } },
{ "type": "Feature", "properties": { "value": 4.2712 }, "geometry": { "type": "Point", "coordinates": [ 129.371811, 35.497597, 60.0 ] } },
{ "type": "Feature", "properties": { "value": 4.3213 }, "geometry": { "type": "Point", "coordinates": [ 129.37291, 35.497593, 60.0 ] } },
{ "type": "Feature", "properties": { "value": 4.3667 }, "geometry": { "type": "Point", "coordinates": [ 129.374008, 35.497589, 60.0 ] } },
{ "type": "Feature", "properties": { "value": 4.3763 }, "geometry": { "type": "Point", "coordinates": [ 129.375107, 35.497585, 60.0 ] } },
{ "type": "Feature", "properties": { "value": 4.3222 }, "geometry": { "type": "Point", "coordinates": [ 129.376221, 35.497581, 60.0 ] } },
{ "type": "Feature", "properties": { "value": 4.1837 }, "geometry": { "type": "Point", "coordinates": [ 129.377319, 35.497578, 60.0 ] } },
{ "type": "Feature", "properties": { "value": 3.9405 }, "geometry": { "type": "Point", "coordinates": [ 129.378418, 35.497574, 60.0 ] } },
{ "type": "Feature", "properties": { "value": 3.5898 }, "geometry": { "type": "Point", "coordinates": [ 129.379517, 35.497574, 60.0 ] } },
{ "type": "Feature", "properties": { "value": 3.1482 }, "geometry": { "type": "Point", "coordinates": [ 129.380615, 35.49757, 60.0 ] } },
{ "type": "Feature", "properties": { "value": 2.6419 }, "geometry": { "type": "Point", "coordinates": [ 129.381729, 35.497566, 60.0 ] } },
{ "type": "Feature", "properties": { "value": 0.0111 }, "geometry": { "type": "Point", "coordinates": [ 129.343155, 35.498581, 60.0 ] } },
{ "type": "Feature", "properties": { "value": 0.2042 }, "geometry": { "type": "Point", "coordinates": [ 129.344254, 35.498581, 60.0 ] } },
{ "type": "Feature", "properties": { "value": 0.4847 }, "geometry": { "type": "Point", "coordinates": [ 129.345352, 35.498577, 60.0 ] } },
{ "type": "Feature", "properties": { "value": 0.9365 }, "geometry": { "type": "Point", "coordinates": [ 129.346466, 35.498573, 60.0 ] } },
{ "type": "Feature", "properties": { "value": 1.601 }, "geometry": { "type": "Point", "coordinates": [ 129.347565, 35.498569, 60.0 ] } },
{ "type": "Feature", "properties": { "value": 2.4833 }, "geometry": { "type": "Point", "coordinates": [ 129.348663, 35.498566, 60.0 ] } },
{ "type": "Feature", "properties": { "value": 3.522 }, "geometry": { "type": "Point", "coordinates": [ 129.349762, 35.498562, 60.0 ] } },
{ "type": "Feature", "properties": { "value": 4.6136 }, "geometry": { "type": "Point", "coordinates": [ 129.350876, 35.498562, 60.0 ] } },
{ "type": "Feature", "properties": { "value": 5.6572 }, "geometry": { "type": "Point", "coordinates": [ 129.351974, 35.498558, 60.0 ] } },
{ "type": "Feature", "properties": { "value": 6.5712 }, "geometry": { "type": "Point", "coordinates": [ 129.353073, 35.498554, 60.0 ] } },
{ "type": "Feature", "properties": { "value": 7.2674 }, "geometry": { "type": "Point", "coordinates": [ 129.354172, 35.49855, 60.0 ] } },
{ "type": "Feature", "properties": { "value": 7.7169 }, "geometry": { "type": "Point", "coordinates": [ 129.35527, 35.498547, 60.0 ] } },
{ "type": "Feature", "properties": { "value": 7.9198 }, "geometry": { "type": "Point", "coordinates": [ 129.356384, 35.498543, 60.0 ] } },
{ "type": "Feature", "properties": { "value": 7.9157 }, "geometry": { "type": "Point", "coordinates": [ 129.357483, 35.498539, 60.0 ] } },
{ "type": "Feature", "properties": { "value": 7.7652 }, "geometry": { "type": "Point", "coordinates": [ 129.358582, 35.498539, 60.0 ] } },
{ "type": "Feature", "properties": { "value": 7.5127 }, "geometry": { "type": "Point", "coordinates": [ 129.35968, 35.498535, 60.0 ] } },
{ "type": "Feature", "properties": { "value": 7.1839 }, "geometry": { "type": "Point", "coordinates": [ 129.360794, 35.498531, 60.0 ] } },
{ "type": "Feature", "properties": { "value": 6.8208 }, "geometry": { "type": "Point", "coordinates": [ 129.361893, 35.498528, 60.0 ] } },
{ "type": "Feature", "properties": { "value": 6.4583 }, "geometry": { "type": "Point", "coordinates": [ 129.362991, 35.498524, 60.0 ] } },
{ "type": "Feature", "properties": { "value": 6.1216 }, "geometry": { "type": "Point", "coordinates": [ 129.36409, 35.49852, 60.0 ] } },
{ "type": "Feature", "properties": { "value": 5.8235 }, "geometry": { "type": "Point", "coordinates": [ 129.365204, 35.498516, 60.0 ] } },
{ "type": "Feature", "properties": { "value": 5.5786 }, "geometry": { "type": "Point", "coordinates": [ 129.366302, 35.498512, 60.0 ] } },
{ "type": "Feature", "properties": { "value": 5.3889 }, "geometry": { "type": "Point", "coordinates": [ 129.367401, 35.498512, 60.0 ] } },
{ "type": "Feature", "properties": { "value": 5.2623 }, "geometry": { "type": "Point", "coordinates": [ 129.3685, 35.498508, 60.0 ] } },
{ "type": "Feature", "properties": { "value": 5.1906 }, "geometry": { "type": "Point", "coordinates": [ 129.369598, 35.498505, 60.0 ] } },
{ "type": "Feature", "properties": { "value": 5.1611 }, "geometry": { "type": "Point", "coordinates": [ 129.370712, 35.498501, 60.0 ] } },
{ "type": "Feature", "properties": { "value": 5.1523 }, "geometry": { "type": "Point", "coordinates": [ 129.371811, 35.498497, 60.0 ] } },
{ "type": "Feature", "properties": { "value": 5.154 }, "geometry": { "type": "Point", "coordinates": [ 129.37291, 35.498493, 60.0 ] } },
{ "type": "Feature", "properties": { "value": 5.1393 }, "geometry": { "type": "Point", "coordinates": [ 129.374008, 35.498489, 60.0 ] } },
{ "type": "Feature", "properties": { "value": 5.0806 }, "geometry": { "type": "Point", "coordinates": [ 129.375122, 35.498486, 60.0 ] } },
{ "type": "Feature", "properties": { "value": 4.9545 }, "geometry": { "type": "Point", "coordinates": [ 129.376221, 35.498482, 60.0 ] } },
{ "type": "Feature", "properties": { "value": 4.7345 }, "geometry": { "type": "Point", "coordinates": [ 129.377319, 35.498482, 60.0 ] } },
{ "type": "Feature", "properties": { "value": 4.4058 }, "geometry": { "type": "Point", "coordinates": [ 129.378418, 35.498478, 60.0 ] } },
{ "type": "Feature", "properties": { "value": 3.9735 }, "geometry": { "type": "Point", "coordinates": [ 129.379532, 35.498474, 60.0 ] } },
{ "type": "Feature", "properties": { "value": 3.4506 }, "geometry": { "type": "Point", "coordinates": [ 129.38063, 35.49847, 60.0 ] } },
{ "type": "Feature", "properties": { "value": 2.8728 }, "geometry": { "type": "Point", "coordinates": [ 129.381729, 35.498466, 60.0 ] } },
{ "type": "Feature", "properties": { "value": 0.1503 }, "geometry": { "type": "Point", "coordinates": [ 129.345367, 35.499477, 60.0 ] } },
{ "type": "Feature", "properties": { "value": 0.3655 }, "geometry": { "type": "Point", "coordinates": [ 129.346466, 35.499474, 60.0 ] } },
{ "type": "Feature", "properties": { "value": 0.7102 }, "geometry": { "type": "Point", "coordinates": [ 129.347565, 35.49947, 60.0 ] } },
{ "type": "Feature", "properties": { "value": 1.2175 }, "geometry": { "type": "Point", "coordinates": [ 129.348663, 35.499466, 60.0 ] } },
{ "type": "Feature", "properties": { "value": 1.8784 }, "geometry": { "type": "Point", "coordinates": [ 129.349777, 35.499466, 60.0 ] } },
{ "type": "Feature", "properties": { "value": 2.6836 }, "geometry": { "type": "Point", "coordinates": [ 129.350876, 35.499462, 60.0 ] } },
{ "type": "Feature", "properties": { "value": 3.5722 }, "geometry": { "type": "Point", "coordinates": [ 129.351974, 35.499458, 60.0 ] } },
{ "type": "Feature", "properties": { "value": 4.4763 }, "geometry": { "type": "Point", "coordinates": [ 129.353073, 35.499454, 60.0 ] } },
{ "type": "Feature", "properties": { "value": 5.3047 }, "geometry": { "type": "Point", "coordinates": [ 129.354187, 35.499451, 60.0 ] } },
{ "type": "Feature", "properties": { "value": 6.0041 }, "geometry": { "type": "Point", "coordinates": [ 129.355286, 35.499447, 60.0 ] } },
{ "type": "Feature", "properties": { "value": 6.5285 }, "geometry": { "type": "Point", "coordinates": [ 129.356384, 35.499447, 60.0 ] } },
{ "type": "Feature", "properties": { "value": 6.8846 }, "geometry": { "type": "Point", "coordinates": [ 129.357483, 35.499443, 60.0 ] } },
{ "type": "Feature", "properties": { "value": 7.0825 }, "geometry": { "type": "Point", "coordinates": [ 129.358582, 35.499439, 60.0 ] } },
{ "type": "Feature", "properties": { "value": 7.1416 }, "geometry": { "type": "Point", "coordinates": [ 129.359695, 35.499435, 60.0 ] } },
{ "type": "Feature", "properties": { "value": 7.0741 }, "geometry": { "type": "Point", "coordinates": [ 129.360794, 35.499432, 60.0 ] } },
{ "type": "Feature", "properties": { "value": 6.9287 }, "geometry": { "type": "Point", "coordinates": [ 129.361893, 35.499428, 60.0 ] } },
{ "type": "Feature", "properties": { "value": 6.7271 }, "geometry": { "type": "Point", "coordinates": [ 129.362991, 35.499424, 60.0 ] } },
{ "type": "Feature", "properties": { "value": 6.5091 }, "geometry": { "type": "Point", "coordinates": [ 129.364105, 35.499424, 60.0 ] } },
{ "type": "Feature", "properties": { "value": 6.295 }, "geometry": { "type": "Point", "coordinates": [ 129.365204, 35.49942, 60.0 ] } },
{ "type": "Feature", "properties": { "value": 6.0974 }, "geometry": { "type": "Point", "coordinates": [ 129.366302, 35.499416, 60.0 ] } },
{ "type": "Feature", "properties": { "value": 5.9346 }, "geometry": { "type": "Point", "coordinates": [ 129.367401, 35.499413, 60.0 ] } },
{ "type": "Feature", "properties": { "value": 5.8131 }, "geometry": { "type": "Point", "coordinates": [ 129.368515, 35.499409, 60.0 ] } },
{ "type": "Feature", "properties": { "value": 5.7315 }, "geometry": { "type": "Point", "coordinates": [ 129.369614, 35.499405, 60.0 ] } },
{ "type": "Feature", "properties": { "value": 5.6778 }, "geometry": { "type": "Point", "coordinates": [ 129.370712, 35.499401, 60.0 ] } },
{ "type": "Feature", "properties": { "value": 5.6318 }, "geometry": { "type": "Point", "coordinates": [ 129.371811, 35.499397, 60.0 ] } },
{ "type": "Feature", "properties": { "value": 5.5866 }, "geometry": { "type": "Point", "coordinates": [ 129.37291, 35.499393, 60.0 ] } },
{ "type": "Feature", "properties": { "value": 5.5159 }, "geometry": { "type": "Point", "coordinates": [ 129.374023, 35.499393, 60.0 ] } },
{ "type": "Feature", "properties": { "value": 5.3958 }, "geometry": { "type": "Point", "coordinates": [ 129.375122, 35.49939, 60.0 ] } },
{ "type": "Feature", "properties": { "value": 5.2072 }, "geometry": { "type": "Point", "coordinates": [ 129.376221, 35.499386, 60.0 ] } },
{ "type": "Feature", "properties": { "value": 4.9225 }, "geometry": { "type": "Point", "coordinates": [ 129.377319, 35.499382, 60.0 ] } },
{ "type": "Feature", "properties": { "value": 4.5372 }, "geometry": { "type": "Point", "coordinates": [ 129.378433, 35.499378, 60.0 ] } },
{ "type": "Feature", "properties": { "value": 4.053 }, "geometry": { "type": "Point", "coordinates": [ 129.379532, 35.499374, 60.0 ] } },
{ "type": "Feature", "properties": { "value": 3.4894 }, "geometry": { "type": "Point", "coordinates": [ 129.38063, 35.499371, 60.0 ] } },
{ "type": "Feature", "properties": { "value": 2.8837 }, "geometry": { "type": "Point", "coordinates": [ 129.381729, 35.499367, 60.0 ] } },
{ "type": "Feature", "properties": { "value": 0.091 }, "geometry": { "type": "Point", "coordinates": [ 129.346466, 35.500374, 60.0 ] } },
{ "type": "Feature", "properties": { "value": 0.2599 }, "geometry": { "type": "Point", "coordinates": [ 129.347565, 35.500374, 60.0 ] } },
{ "type": "Feature", "properties": { "value": 0.51 }, "geometry": { "type": "Point", "coordinates": [ 129.348679, 35.50037, 60.0 ] } },
{ "type": "Feature", "properties": { "value": 0.8786 }, "geometry": { "type": "Point", "coordinates": [ 129.349777, 35.500366, 60.0 ] } },
{ "type": "Feature", "properties": { "value": 1.3679 }, "geometry": { "type": "Point", "coordinates": [ 129.350876, 35.500362, 60.0 ] } },
{ "type": "Feature", "properties": { "value": 1.9708 }, "geometry": { "type": "Point", "coordinates": [ 129.351974, 35.500359, 60.0 ] } },
{ "type": "Feature", "properties": { "value": 2.6633 }, "geometry": { "type": "Point", "coordinates": [ 129.353088, 35.500355, 60.0 ] } },
{ "type": "Feature", "properties": { "value": 3.382 }, "geometry": { "type": "Point", "coordinates": [ 129.354187, 35.500355, 60.0 ] } },
{ "type": "Feature", "properties": { "value": 4.0805 }, "geometry": { "type": "Point", "coordinates": [ 129.355286, 35.500351, 60.0 ] } },
{ "type": "Feature", "properties": { "value": 4.7061 }, "geometry": { "type": "Point", "coordinates": [ 129.356384, 35.500347, 60.0 ] } },
{ "type": "Feature", "properties": { "value": 5.2442 }, "geometry": { "type": "Point", "coordinates": [ 129.357483, 35.500343, 60.0 ] } },
{ "type": "Feature", "properties": { "value": 5.6585 }, "geometry": { "type": "Point", "coordinates": [ 129.358597, 35.50034, 60.0 ] } },
{ "type": "Feature", "properties": { "value": 5.954 }, "geometry": { "type": "Point", "coordinates": [ 129.359695, 35.500336, 60.0 ] } },
{ "type": "Feature", "properties": { "value": 6.1296 }, "geometry": { "type": "Point", "coordinates": [ 129.360794, 35.500332, 60.0 ] } },
{ "type": "Feature", "properties": { "value": 6.1968 }, "geometry": { "type": "Point", "coordinates": [ 129.361893, 35.500332, 60.0 ] } },
{ "type": "Feature", "properties": { "value": 6.1855 }, "geometry": { "type": "Point", "coordinates": [ 129.363007, 35.500328, 60.0 ] } },
{ "type": "Feature", "properties": { "value": 6.1258 }, "geometry": { "type": "Point", "coordinates": [ 129.364105, 35.500324, 60.0 ] } },
{ "type": "Feature", "properties": { "value": 6.0339 }, "geometry": { "type": "Point", "coordinates": [ 129.365204, 35.50032, 60.0 ] } },
{ "type": "Feature", "properties": { "value": 5.9358 }, "geometry": { "type": "Point", "coordinates": [ 129.366302, 35.500317, 60.0 ] } },
{ "type": "Feature", "properties": { "value": 5.8361 }, "geometry": { "type": "Point", "coordinates": [ 129.367416, 35.500313, 60.0 ] } },
{ "type": "Feature", "properties": { "value": 5.7523 }, "geometry": { "type": "Point", "coordinates": [ 129.368515, 35.500309, 60.0 ] } },
{ "type": "Feature", "properties": { "value": 5.689 }, "geometry": { "type": "Point", "coordinates": [ 129.369614, 35.500305, 60.0 ] } },
{ "type": "Feature", "properties": { "value": 5.6357 }, "geometry": { "type": "Point", "coordinates": [ 129.370712, 35.500301, 60.0 ] } },
{ "type": "Feature", "properties": { "value": 5.5736 }, "geometry": { "type": "Point", "coordinates": [ 129.371811, 35.500301, 60.0 ] } },
{ "type": "Feature", "properties": { "value": 5.5004 }, "geometry": { "type": "Point", "coordinates": [ 129.372925, 35.500298, 60.0 ] } },
{ "type": "Feature", "properties": { "value": 5.3945 }, "geometry": { "type": "Point", "coordinates": [ 129.374023, 35.500294, 60.0 ] } },
{ "type": "Feature", "properties": { "value": 5.2366 }, "geometry": { "type": "Point", "coordinates": [ 129.375122, 35.50029, 60.0 ] } },
{ "type": "Feature", "properties": { "value": 5.0122 }, "geometry": { "type": "Point", "coordinates": [ 129.376221, 35.500286, 60.0 ] } },
{ "type": "Feature", "properties": { "value": 4.6979 }, "geometry": { "type": "Point", "coordinates": [ 129.377335, 35.500282, 60.0 ] } },
{ "type": "Feature", "properties": { "value": 4.295 }, "geometry": { "type": "Point", "coordinates": [ 129.378433, 35.500278, 60.0 ] } },
{ "type": "Feature", "properties": { "value": 3.8072 }, "geometry": { "type": "Point", "coordinates": [ 129.379532, 35.500275, 60.0 ] } },
{ "type": "Feature", "properties": { "value": 3.2544 }, "geometry": { "type": "Point", "coordinates": [ 129.38063, 35.500271, 60.0 ] } },
{ "type": "Feature", "properties": { "value": 2.6723 }, "geometry": { "type": "Point", "coordinates": [ 129.381744, 35.500267, 60.0 ] } },
{ "type": "Feature", "properties": { "value": 0.1674 }, "geometry": { "type": "Point", "coordinates": [ 129.348679, 35.50127, 60.0 ] } },
{ "type": "Feature", "properties": { "value": 0.3501 }, "geometry": { "type": "Point", "coordinates": [ 129.349777, 35.501266, 60.0 ] } },
{ "type": "Feature", "properties": { "value": 0.6051 }, "geometry": { "type": "Point", "coordinates": [ 129.350876, 35.501263, 60.0 ] } },
{ "type": "Feature", "properties": { "value": 0.9475 }, "geometry": { "type": "Point", "coordinates": [ 129.35199, 35.501259, 60.0 ] } },
{ "type": "Feature", "properties": { "value": 1.3863 }, "geometry": { "type": "Point", "coordinates": [ 129.353088, 35.501259, 60.0 ] } },
{ "type": "Feature", "properties": { "value": 1.8937 }, "geometry": { "type": "Point", "coordinates": [ 129.354187, 35.501255, 60.0 ] } },
{ "type": "Feature", "properties": { "value": 2.4413 }, "geometry": { "type": "Point", "coordinates": [ 129.355286, 35.501251, 60.0 ] } },
{ "type": "Feature", "properties": { "value": 2.9901 }, "geometry": { "type": "Point", "coordinates": [ 129.3564, 35.501247, 60.0 ] } },
{ "type": "Feature", "properties": { "value": 3.5152 }, "geometry": { "type": "Point", "coordinates": [ 129.357498, 35.501244, 60.0 ] } },
{ "type": "Feature", "properties": { "value": 3.9942 }, "geometry": { "type": "Point", "coordinates": [ 129.358597, 35.50124, 60.0 ] } },
{ "type": "Feature", "properties": { "value": 4.3963 }, "geometry": { "type": "Point", "coordinates": [ 129.359695, 35.50124, 60.0 ] } },
{ "type": "Feature", "properties": { "value": 4.6983 }, "geometry": { "type": "Point", "coordinates": [ 129.360794, 35.501236, 60.0 ] } },
{ "type": "Feature", "properties": { "value": 4.903 }, "geometry": { "type": "Point", "coordinates": [ 129.361908, 35.501232, 60.0 ] } },
{ "type": "Feature", "properties": { "value": 5.0376 }, "geometry": { "type": "Point", "coordinates": [ 129.363007, 35.501228, 60.0 ] } },
{ "type": "Feature", "properties": { "value": 5.1104 }, "geometry": { "type": "Point", "coordinates": [ 129.364105, 35.501225, 60.0 ] } },
{ "type": "Feature", "properties": { "value": 5.1459 }, "geometry": { "type": "Point", "coordinates": [ 129.365204, 35.501221, 60.0 ] } },
{ "type": "Feature", "properties": { "value": 5.1452 }, "geometry": { "type": "Point", "coordinates": [ 129.366318, 35.501217, 60.0 ] } },
{ "type": "Feature", "properties": { "value": 5.1266 }, "geometry": { "type": "Point", "coordinates": [ 129.367416, 35.501213, 60.0 ] } },
{ "type": "Feature", "properties": { "value": 5.1034 }, "geometry": { "type": "Point", "coordinates": [ 129.368515, 35.501213, 60.0 ] } },
{ "type": "Feature", "properties": { "value": 5.0743 }, "geometry": { "type": "Point", "coordinates": [ 129.369614, 35.501209, 60.0 ] } },
{ "type": "Feature", "properties": { "value": 5.0458 }, "geometry": { "type": "Point", "coordinates": [ 129.370728, 35.501205, 60.0 ] } },
{ "type": "Feature", "properties": { "value": 4.9916 }, "geometry": { "type": "Point", "coordinates": [ 129.371826, 35.501202, 60.0 ] } },
{ "type": "Feature", "properties": { "value": 4.9134 }, "geometry": { "type": "Point", "coordinates": [ 129.372925, 35.501198, 60.0 ] } },
{ "type": "Feature", "properties": { "value": 4.8035 }, "geometry": { "type": "Point", "coordinates": [ 129.374023, 35.501194, 60.0 ] } },
{ "type": "Feature", "properties": { "value": 4.6398 }, "geometry": { "type": "Point", "coordinates": [ 129.375122, 35.50119, 60.0 ] } },
{ "type": "Feature", "properties": { "value": 4.4143 }, "geometry": { "type": "Point", "coordinates": [ 129.376236, 35.501186, 60.0 ] } },
{ "type": "Feature", "properties": { "value": 4.1129 }, "geometry": { "type": "Point", "coordinates": [ 129.377335, 35.501183, 60.0 ] } },
{ "type": "Feature", "properties": { "value": 3.7341 }, "geometry": { "type": "Point", "coordinates": [ 129.378433, 35.501179, 60.0 ] } },
{ "type": "Feature", "properties": { "value": 3.2914 }, "geometry": { "type": "Point", "coordinates": [ 129.379532, 35.501179, 60.0 ] } },
{ "type": "Feature", "properties": { "value": 2.7972 }, "geometry": { "type": "Point", "coordinates": [ 129.380646, 35.501175, 60.0 ] } },
{ "type": "Feature", "properties": { "value": 2.2849 }, "geometry": { "type": "Point", "coordinates": [ 129.381744, 35.501171, 60.0 ] } }
]
}
