{
"type": "FeatureCollection",
"features": [
{ "type": "Feature", "properties": { "value": 9.1752 }, "geometry": { "type": "Point", "coordinates": [ 129.32756, 35.458969, 10.0 ] } },
{ "type": "Feature", "properties": { "value": 67.346 }, "geometry": { "type": "Point", "coordinates": [ 129.32756, 35.459869, 10.0 ] } },
{ "type": "Feature", "properties": { "value": 39.925 }, "geometry": { "type": "Point", "coordinates": [ 129.327576, 35.46077, 10.0 ] } },
{ "type": "Feature", "properties": { "value": 32.048 }, "geometry": { "type": "Point", "coordinates": [ 129.327576, 35.461674, 10.0 ] } },
{ "type": "Feature", "properties": { "value": 33.991 }, "geometry": { "type": "Point", "coordinates": [ 129.327576, 35.462574, 10.0 ] } },
{ "type": "Feature", "properties": { "value": 28.849 }, "geometry": { "type": "Point", "coordinates": [ 129.327576, 35.463474, 10.0 ] } },
{ "type": "Feature", "properties": { "value": 1.9167 }, "geometry": { "type": "Point", "coordinates": [ 129.32869, 35.46347, 10.0 ] } },
{ "type": "Feature", "properties": { "value": 20.586 }, "geometry": { "type": "Point", "coordinates": [ 129.327591, 35.464375, 10.0 ] } },
{ "type": "Feature", "properties": { "value": 10.777 }, "geometry": { "type": "Point", "coordinates": [ 129.32869, 35.464375, 10.0 ] } },
{ "type": "Feature", "properties": { "value": 10.219 }, "geometry": { "type": "Point", "coordinates": [ 129.327591, 35.465279, 10.0 ] } },
{ "type": "Feature", "properties": { "value": 16.899 }, "geometry": { "type": "Point", "coordinates": [ 129.32869, 35.465275, 10.0 ] } },
{ "type": "Feature", "properties": { "value": 4.8347 }, "geometry": { "type": "Point", "coordinates": [ 129.327591, 35.466179, 10.0 ] } },
{ "type": "Feature", "properties": { "value": 16.108 }, "geometry": { "type": "Point", "coordinates": [ 129.32869, 35.466175, 10.0 ] } },
{ "type": "Feature", "properties": { "value": 2.7282 }, "geometry": { "type": "Point", "coordinates": [ 129.327591, 35.467079, 10.0 ] } },
{ "type": "Feature", "properties": { "value": 17.345 }, "geometry": { "type": "Point", "coordinates": [ 129.328705, 35.467075, 10.0 ] } },
{ "type": "Feature", "properties": { "value": 0.4038 }, "geometry": { "type": "Point", "coordinates": [ 129.329803, 35.467075, 10.0 ] } },
{ "type": "Feature", "properties": { "value": 1.6909 }, "geometry": { "type": "Point", "coordinates": [ 129.327606, 35.467983, 10.0 ] } },
{ "type": "Feature", "properties": { "value": 18.064 }, "geometry": { "type": "Point", "coordinates": [ 129.328705, 35.467979, 10.0 ] } },
{ "type": "Feature", "properties": { "value": 1.3117 }, "geometry": { "type": "Point", "coordinates": [ 129.329803, 35.467976, 10.0 ] } },
{ "type": "Feature", "properties": { "value": 1.1452 }, "geometry": { "type": "Point", "coordinates": [ 129.327606, 35.468884, 10.0 ] } },
{ "type": "Feature", "properties": { "value": 18.5 }, "geometry": { "type": "Point", "coordinates": [ 129.328705, 35.46888, 10.0 ] } },
{ "type": "Feature", "properties": { "value": 3.7025 }, "geometry": { "type": "Point", "coordinates": [ 129.329803, 35.468876, 10.0 ] } },
{ "type": "Feature", "properties": { "value": 0.8634 }, "geometry": { "type": "Point", "coordinates": [ 129.327606, 35.469784, 10.0 ] } },
{ "type": "Feature", "properties": { "value": 19.697 }, "geometry": { "type": "Point", "coordinates": [ 129.328705, 35.46978, 10.0 ] } },
{ "type": "Feature", "properties": { "value": 10.633 }, "geometry": { "type": "Point", "coordinates": [ 129.329819, 35.469776, 10.0 ] } },
{ "type": "Feature", "properties": { "value": 0.6554 }, "geometry": { "type": "Point", "coordinates": [ 129.327606, 35.470684, 10.0 ] } },
{ "type": "Feature", "properties": { "value": 23.288 }, "geometry": { "type": "Point", "coordinates": [ 129.32872, 35.470684, 10.0 ] } },
{ "type": "Feature", "properties": { "value": 32.047 }, "geometry": { "type": "Point", "coordinates": [ 129.329819, 35.47068, 10.0 ] } },
{ "type": "Feature", "properties": { "value": 1.7561 }, "geometry": { "type": "Point", "coordinates": [ 129.330917, 35.470676, 10.0 ] } },
{ "type": "Feature", "properties": { "value": 0.0688 }, "geometry": { "type": "Point", "coordinates": [ 129.327621, 35.471588, 10.0 ] } },
{ "type": "Feature", "properties": { "value": 30.772 }, "geometry": { "type": "Point", "coordinates": [ 129.32872, 35.471584, 10.0 ] } },
{ "type": "Feature", "properties": { "value": 78.097 }, "geometry": { "type": "Point", "coordinates": [ 129.329819, 35.471581, 10.0 ] } },
{ "type": "Feature", "properties": { "value": 8.9286 }, "geometry": { "type": "Point", "coordinates": [ 129.330917, 35.471577, 10.0 ] } },
{ "type": "Feature", "properties": { "value": 30.662 }, "geometry": { "type": "Point", "coordinates": [ 129.32872, 35.472485, 10.0 ] } },
{ "type": "Feature", "properties": { "value": 110.13 }, "geometry": { "type": "Point", "coordinates": [ 129.329819, 35.472481, 10.0 ] } },
{ "type": "Feature", "properties": { "value": 22.836 }, "geometry": { "type": "Point", "coordinates": [ 129.330917, 35.472477, 10.0 ] } },
{ "type": "Feature", "properties": { "value": 20.297 }, "geometry": { "type": "Point", "coordinates": [ 129.32872, 35.473385, 10.0 ] } },
{ "type": "Feature", "properties": { "value": 102.54 }, "geometry": { "type": "Point", "coordinates": [ 129.329819, 35.473385, 10.0 ] } },
{ "type": "Feature", "properties": { "value": 37.795 }, "geometry": { "type": "Point", "coordinates": [ 129.330933, 35.473381, 10.0 ] } },
{ "type": "Feature", "properties": { "value": 0.9949 }, "geometry": { "type": "Point", "coordinates": [ 129.332031, 35.473377, 10.0 ] } },
{ "type": "Feature", "properties": { "value": 10.77 }, "geometry": { "type": "Point", "coordinates": [ 129.328735, 35.474289, 10.0 ] } },
{ "type": "Feature", "properties": { "value": 73.704 }, "geometry": { "type": "Point", "coordinates": [ 129.329834, 35.474285, 10.0 ] } },
{ "type": "Feature", "properties": { "value": 45.453 }, "geometry": { "type": "Point", "coordinates": [ 129.330933, 35.474281, 10.0 ] } },
{ "type": "Feature", "properties": { "value": 3.1778 }, "geometry": { "type": "Point", "coordinates": [ 129.332031, 35.474277, 10.0 ] } },
{ "type": "Feature", "properties": { "value": 5.3813 }, "geometry": { "type": "Point", "coordinates": [ 129.328735, 35.475189, 10.0 ] } },
{ "type": "Feature", "properties": { "value": 46.576 }, "geometry": { "type": "Point", "coordinates": [ 129.329834, 35.475185, 10.0 ] } },
{ "type": "Feature", "properties": { "value": 46.314 }, "geometry": { "type": "Point", "coordinates": [ 129.330933, 35.475182, 10.0 ] } },
{ "type": "Feature", "properties": { "value": 7.4541 }, "geometry": { "type": "Point", "coordinates": [ 129.332031, 35.475178, 10.0 ] } },
{ "type": "Feature", "properties": { "value": 2.4014 }, "geometry": { "type": "Point", "coordinates": [ 129.328735, 35.476089, 10.0 ] } },
{ "type": "Feature", "properties": { "value": 28.308 }, "geometry": { "type": "Point", "coordinates": [ 129.329834, 35.476086, 10.0 ] } },
{ "type": "Feature", "properties": { "value": 44.247 }, "geometry": { "type": "Point", "coordinates": [ 129.330933, 35.476086, 10.0 ] } },
{ "type": "Feature", "properties": { "value": 13.937 }, "geometry": { "type": "Point", "coordinates": [ 129.332047, 35.476082, 10.0 ] } },
{ "type": "Feature", "properties": { "value": 0.7603 }, "geometry": { "type": "Point", "coordinates": [ 129.333145, 35.476078, 10.0 ] } },
{ "type": "Feature", "properties": { "value": 0.8286 }, "geometry": { "type": "Point", "coordinates": [ 129.328735, 35.47699, 10.0 ] } },
{ "type": "Feature", "properties": { "value": 15.739 }, "geometry": { "type": "Point", "coordinates": [ 129.329834, 35.47699, 10.0 ] } },
{ "type": "Feature", "properties": { "value": 40.941 }, "geometry": { "type": "Point", "coordinates": [ 129.330948, 35.476986, 10.0 ] } },
{ "type": "Feature", "properties": { "value": 22.794 }, "geometry": { "type": "Point", "coordinates": [ 129.332047, 35.476982, 10.0 ] } },
{ "type": "Feature", "properties": { "value": 2.6313 }, "geometry": { "type": "Point", "coordinates": [ 129.333145, 35.476978, 10.0 ] } },
{ "type": "Feature", "properties": { "value": 8.2099 }, "geometry": { "type": "Point", "coordinates": [ 129.329849, 35.47789, 10.0 ] } },
{ "type": "Feature", "properties": { "value": 35.114 }, "geometry": { "type": "Point", "coordinates": [ 129.330948, 35.477886, 10.0 ] } },
{ "type": "Feature", "properties": { "value": 32.437 }, "geometry": { "type": "Point", "coordinates": [ 129.332047, 35.477882, 10.0 ] } },
{ "type": "Feature", "properties": { "value": 6.753 }, "geometry": { "type": "Point", "coordinates": [ 129.333145, 35.477879, 10.0 ] } },
{ "type": "Feature", "properties": { "value": 4.1948 }, "geometry": { "type": "Point", "coordinates": [ 129.329849, 35.47879, 10.0 ] } },
{ "type": "Feature", "properties": { "value": 26.578 }, "geometry": { "type": "Point", "coordinates": [ 129.330948, 35.478786, 10.0 ] } },
{ "type": "Feature", "properties": { "value": 38.345 }, "geometry": { "type": "Point", "coordinates": [ 129.332047, 35.478786, 10.0 ] } },
{ "type": "Feature", "properties": { "value": 13.53 }, "geometry": { "type": "Point", "coordinates": [ 129.33316, 35.478783, 10.0 ] } },
{ "type": "Feature", "properties": { "value": 1.2179 }, "geometry": { "type": "Point", "coordinates": [ 129.334259, 35.478779, 10.0 ] } },
{ "type": "Feature", "properties": { "value": 2.0983 }, "geometry": { "type": "Point", "coordinates": [ 129.329849, 35.479691, 10.0 ] } },
{ "type": "Feature", "properties": { "value": 18.161 }, "geometry": { "type": "Point", "coordinates": [ 129.330948, 35.479691, 10.0 ] } },
{ "type": "Feature", "properties": { "value": 39.284 }, "geometry": { "type": "Point", "coordinates": [ 129.332062, 35.479687, 10.0 ] } },
{ "type": "Feature", "properties": { "value": 22.597 }, "geometry": { "type": "Point", "coordinates": [ 129.33316, 35.479683, 10.0 ] } },
{ "type": "Feature", "properties": { "value": 3.862 }, "geometry": { "type": "Point", "coordinates": [ 129.334259, 35.479679, 10.0 ] } },
{ "type": "Feature", "properties": { "value": 0.9608 }, "geometry": { "type": "Point", "coordinates": [ 129.329849, 35.480595, 10.0 ] } },
{ "type": "Feature", "properties": { "value": 11.325 }, "geometry": { "type": "Point", "coordinates": [ 129.330963, 35.480591, 10.0 ] } },
{ "type": "Feature", "properties": { "value": 35.689 }, "geometry": { "type": "Point", "coordinates": [ 129.332062, 35.480587, 10.0 ] } },
{ "type": "Feature", "properties": { "value": 32.079 }, "geometry": { "type": "Point", "coordinates": [ 129.33316, 35.480583, 10.0 ] } },
{ "type": "Feature", "properties": { "value": 9.2409 }, "geometry": { "type": "Point", "coordinates": [ 129.334259, 35.480579, 10.0 ] } },
{ "type": "Feature", "properties": { "value": 0.8744 }, "geometry": { "type": "Point", "coordinates": [ 129.335358, 35.480579, 10.0 ] } },
{ "type": "Feature", "properties": { "value": 0.0731 }, "geometry": { "type": "Point", "coordinates": [ 129.329865, 35.481495, 10.0 ] } },
{ "type": "Feature", "properties": { "value": 6.2312 }, "geometry": { "type": "Point", "coordinates": [ 129.330963, 35.481491, 10.0 ] } },
{ "type": "Feature", "properties": { "value": 28.035 }, "geometry": { "type": "Point", "coordinates": [ 129.332062, 35.481487, 10.0 ] } },
{ "type": "Feature", "properties": { "value": 38.14 }, "geometry": { "type": "Point", "coordinates": [ 129.33316, 35.481487, 10.0 ] } },
{ "type": "Feature", "properties": { "value": 17.542 }, "geometry": { "type": "Point", "coordinates": [ 129.334259, 35.481483, 10.0 ] } },
{ "type": "Feature", "properties": { "value": 3.0066 }, "geometry": { "type": "Point", "coordinates": [ 129.335373, 35.48148, 10.0 ] } },
{ "type": "Feature", "properties": { "value": 3.0276 }, "geometry": { "type": "Point", "coordinates": [ 129.330963, 35.482391, 10.0 ] } },
{ "type": "Feature", "properties": { "value": 19.078 }, "geometry": { "type": "Point", "coordinates": [ 129.332062, 35.482391, 10.0 ] } },
{ "type": "Feature", "properties": { "value": 38.452 }, "geometry": { "type": "Point", "coordinates": [ 129.333176, 35.482388, 10.0 ] } },
{ "type": "Feature", "properties": { "value": 27.734 }, "geometry": { "type": "Point", "coordinates": [ 129.334274, 35.482384, 10.0 ] } },
{ "type": "Feature", "properties": { "value": 7.9314 }, "geometry": { "type": "Point", "coordinates": [ 129.335373, 35.48238, 10.0 ] } },
{ "type": "Feature", "properties": { "value": 0.8398 }, "geometry": { "type": "Point", "coordinates": [ 129.336472, 35.482376, 10.0 ] } },
{ "type": "Feature", "properties": { "value": 1.2553 }, "geometry": { "type": "Point", "coordinates": [ 129.330963, 35.483295, 10.0 ] } },
{ "type": "Feature", "properties": { "value": 11.331 }, "geometry": { "type": "Point", "coordinates": [ 129.332077, 35.483292, 10.0 ] } },
{ "type": "Feature", "properties": { "value": 33.071 }, "geometry": { "type": "Point", "coordinates": [ 129.333176, 35.483288, 10.0 ] } },
{ "type": "Feature", "properties": { "value": 36.409 }, "geometry": { "type": "Point", "coordinates": [ 129.334274, 35.483284, 10.0 ] } },
{ "type": "Feature", "properties": { "value": 16.603 }, "geometry": { "type": "Point", "coordinates": [ 129.335373, 35.48328, 10.0 ] } },
{ "type": "Feature", "properties": { "value": 3.4367 }, "geometry": { "type": "Point", "coordinates": [ 129.336472, 35.48328, 10.0 ] } },
{ "type": "Feature", "properties": { "value": 0.2789 }, "geometry": { "type": "Point", "coordinates": [ 129.330978, 35.484196, 10.0 ] } },
{ "type": "Feature", "properties": { "value": 5.8747 }, "geometry": { "type": "Point", "coordinates": [ 129.332077, 35.484192, 10.0 ] } },
{ "type": "Feature", "properties": { "value": 24.344 }, "geometry": { "type": "Point", "coordinates": [ 129.333176, 35.484188, 10.0 ] } },
{ "type": "Feature", "properties": { "value": 39.589 }, "geometry": { "type": "Point", "coordinates": [ 129.334274, 35.484188, 10.0 ] } },
{ "type": "Feature", "properties": { "value": 27.714 }, "geometry": { "type": "Point", "coordinates": [ 129.335373, 35.484184, 10.0 ] } },
{ "type": "Feature", "properties": { "value": 9.2848 }, "geometry": { "type": "Point", "coordinates": [ 129.336487, 35.48418, 10.0 ] } },
{ "type": "Feature", "properties": { "value": 1.6506 }, "geometry": { "type": "Point", "coordinates": [ 129.337585, 35.484177, 10.0 ] } },
{ "type": "Feature", "properties": { "value": 2.6194 }, "geometry": { "type": "Point", "coordinates": [ 129.332077, 35.485092, 10.0 ] } },
{ "type": "Feature", "properties": { "value": 15.361 }, "geometry": { "type": "Point", "coordinates": [ 129.333176, 35.485092, 10.0 ] } },
{ "type": "Feature", "properties": { "value": 35.671 }, "geometry": { "type": "Point", "coordinates": [ 129.334274, 35.485088, 10.0 ] } },
{ "type": "Feature", "properties": { "value": 36.628 }, "geometry": { "type": "Point", "coordinates": [ 129.335388, 35.485085, 10.0 ] } },
{ "type": "Feature", "properties": { "value": 18.71 }, "geometry": { "type": "Point", "coordinates": [ 129.336487, 35.485081, 10.0 ] } },
{ "type": "Feature", "properties": { "value": 5.5012 }, "geometry": { "type": "Point", "coordinates": [ 129.337585, 35.485077, 10.0 ] } },
{ "type": "Feature", "properties": { "value": 1.0269 }, "geometry": { "type": "Point", "coordinates": [ 129.338684, 35.485077, 10.0 ] } },
{ "type": "Feature", "properties": { "value": 1.0153 }, "geometry": { "type": "Point", "coordinates": [ 129.332077, 35.485996, 10.0 ] } },
{ "type": "Feature", "properties": { "value": 8.343 }, "geometry": { "type": "Point", "coordinates": [ 129.333176, 35.485992, 10.0 ] } },
{ "type": "Feature", "properties": { "value": 26.079 }, "geometry": { "type": "Point", "coordinates": [ 129.33429, 35.485989, 10.0 ] } },
{ "type": "Feature", "properties": { "value": 37.482 }, "geometry": { "type": "Point", "coordinates": [ 129.335388, 35.485985, 10.0 ] } },
{ "type": "Feature", "properties": { "value": 27.944 }, "geometry": { "type": "Point", "coordinates": [ 129.336487, 35.485981, 10.0 ] } },
{ "type": "Feature", "properties": { "value": 12.298 }, "geometry": { "type": "Point", "coordinates": [ 129.337585, 35.485981, 10.0 ] } },
{ "type": "Feature", "properties": { "value": 3.593 }, "geometry": { "type": "Point", "coordinates": [ 129.338699, 35.485977, 10.0 ] } },
{ "type": "Feature", "properties": { "value": 0.7112 }, "geometry": { "type": "Point", "coordinates": [ 129.339798, 35.485973, 10.0 ] } },
{ "type": "Feature", "properties": { "value": 0.2156 }, "geometry": { "type": "Point", "coordinates": [ 129.332092, 35.486897, 10.0 ] } },
{ "type": "Feature", "properties": { "value": 4.1388 }, "geometry": { "type": "Point", "coordinates": [ 129.333191, 35.486893, 10.0 ] } },
{ "type": "Feature", "properties": { "value": 16.417 }, "geometry": { "type": "Point", "coordinates": [ 129.33429, 35.486889, 10.0 ] } },
{ "type": "Feature", "properties": { "value": 31.406 }, "geometry": { "type": "Point", "coordinates": [ 129.335388, 35.486889, 10.0 ] } },
{ "type": "Feature", "properties": { "value": 32.526 }, "geometry": { "type": "Point", "coordinates": [ 129.336487, 35.486885, 10.0 ] } },
{ "type": "Feature", "properties": { "value": 20.339 }, "geometry": { "type": "Point", "coordinates": [ 129.337601, 35.486881, 10.0 ] } },
{ "type": "Feature", "properties": { "value": 8.3751 }, "geometry": { "type": "Point", "coordinates": [ 129.338699, 35.486877, 10.0 ] } },
{ "type": "Feature", "properties": { "value": 2.4972 }, "geometry": { "type": "Point", "coordinates": [ 129.339798, 35.486874, 10.0 ] } },
{ "type": "Feature", "properties": { "value": 0.5017 }, "geometry": { "type": "Point", "coordinates": [ 129.340897, 35.486874, 10.0 ] } },
{ "type": "Feature", "properties": { "value": 1.9516 }, "geometry": { "type": "Point", "coordinates": [ 129.333191, 35.487793, 10.0 ] } },
{ "type": "Feature", "properties": { "value": 9.4335 }, "geometry": { "type": "Point", "coordinates": [ 129.33429, 35.487793, 10.0 ] } },
{ "type": "Feature", "properties": { "value": 22.844 }, "geometry": { "type": "Point", "coordinates": [ 129.335388, 35.487789, 10.0 ] } },
{ "type": "Feature", "properties": { "value": 31.235 }, "geometry": { "type": "Point", "coordinates": [ 129.336502, 35.487785, 10.0 ] } },
{ "type": "Feature", "properties": { "value": 26.244 }, "geometry": { "type": "Point", "coordinates": [ 129.337601, 35.487782, 10.0 ] } },
{ "type": "Feature", "properties": { "value": 14.575 }, "geometry": { "type": "Point", "coordinates": [ 129.338699, 35.487778, 10.0 ] } },
{ "type": "Feature", "properties": { "value": 5.8706 }, "geometry": { "type": "Point", "coordinates": [ 129.339798, 35.487778, 10.0 ] } },
{ "type": "Feature", "properties": { "value": 1.8454 }, "geometry": { "type": "Point", "coordinates": [ 129.340912, 35.487774, 10.0 ] } },
{ "type": "Feature", "properties": { "value": 0.3986 }, "geometry": { "type": "Point", "coordinates": [ 129.34201, 35.48777, 10.0 ] } },
{ "type": "Feature", "properties": { "value": 0.8596 }, "geometry": { "type": "Point", "coordinates": [ 129.333191, 35.488697, 10.0 ] } },
{ "type": "Feature", "properties": { "value": 5.043 }, "geometry": { "type": "Point", "coordinates": [ 129.33429, 35.488693, 10.0 ] } },
{ "type": "Feature", "properties": { "value": 14.882 }, "geometry": { "type": "Point", "coordinates": [ 129.335403, 35.488689, 10.0 ] } },
{ "type": "Feature", "properties": { "value": 25.781 }, "geometry": { "type": "Point", "coordinates": [ 129.336502, 35.488686, 10.0 ] } },
{ "type": "Feature", "properties": { "value": 28.005 }, "geometry": { "type": "Point", "coordinates": [ 129.337601, 35.488682, 10.0 ] } },
{ "type": "Feature", "properties": { "value": 20.266 }, "geometry": { "type": "Point", "coordinates": [ 129.338699, 35.488682, 10.0 ] } },
{ "type": "Feature", "properties": { "value": 10.685 }, "geometry": { "type": "Point", "coordinates": [ 129.339813, 35.488678, 10.0 ] } },
{ "type": "Feature", "properties": { "value": 4.3973 }, "geometry": { "type": "Point", "coordinates": [ 129.340912, 35.488674, 10.0 ] } },
{ "type": "Feature", "properties": { "value": 1.4359 }, "geometry": { "type": "Point", "coordinates": [ 129.34201, 35.48867, 10.0 ] } },
{ "type": "Feature", "properties": { "value": 0.3031 }, "geometry": { "type": "Point", "coordinates": [ 129.343109, 35.488667, 10.0 ] } },
{ "type": "Feature", "properties": { "value": 0.2809 }, "geometry": { "type": "Point", "coordinates": [ 129.333191, 35.489597, 10.0 ] } },
{ "type": "Feature", "properties": { "value": 2.4953 }, "geometry": { "type": "Point", "coordinates": [ 129.334305, 35.489594, 10.0 ] } },
{ "type": "Feature", "properties": { "value": 8.8319 }, "geometry": { "type": "Point", "coordinates": [ 129.335403, 35.48959, 10.0 ] } },
{ "type": "Feature", "properties": { "value": 18.795 }, "geometry": { "type": "Point", "coordinates": [ 129.336502, 35.48959, 10.0 ] } },
{ "type": "Feature", "properties": { "value": 25.675 }, "geometry": { "type": "Point", "coordinates": [ 129.337601, 35.489586, 10.0 ] } },
{ "type": "Feature", "properties": { "value": 23.755 }, "geometry": { "type": "Point", "coordinates": [ 129.338715, 35.489582, 10.0 ] } },
{ "type": "Feature", "properties": { "value": 15.981 }, "geometry": { "type": "Point", "coordinates": [ 129.339813, 35.489578, 10.0 ] } },
{ "type": "Feature", "properties": { "value": 8.3837 }, "geometry": { "type": "Point", "coordinates": [ 129.340912, 35.489574, 10.0 ] } },
{ "type": "Feature", "properties": { "value": 3.509 }, "geometry": { "type": "Point", "coordinates": [ 129.34201, 35.489571, 10.0 ] } },
{ "type": "Feature", "properties": { "value": 1.1489 }, "geometry": { "type": "Point", "coordinates": [ 129.343109, 35.489571, 10.0 ] } },
{ "type": "Feature", "properties": { "value": 0.2358 }, "geometry": { "type": "Point", "coordinates": [ 129.344223, 35.489567, 10.0 ] } },
{ "type": "Feature", "properties": { "value": 1.1386 }, "geometry": { "type": "Point", "coordinates": [ 129.334305, 35.490494, 10.0 ] } },
{ "type": "Feature", "properties": { "value": 4.8463 }, "geometry": { "type": "Point", "coordinates": [ 129.335403, 35.490494, 10.0 ] } },
{ "type": "Feature", "properties": { "value": 12.384 }, "geometry": { "type": "Point", "coordinates": [ 129.336502, 35.49049, 10.0 ] } },
{ "type": "Feature", "properties": { "value": 20.712 }, "geometry": { "type": "Point", "coordinates": [ 129.337616, 35.490486, 10.0 ] } },
{ "type": "Feature", "properties": { "value": 23.81 }, "geometry": { "type": "Point", "coordinates": [ 129.338715, 35.490482, 10.0 ] } },
{ "type": "Feature", "properties": { "value": 20.18 }, "geometry": { "type": "Point", "coordinates": [ 129.339813, 35.490479, 10.0 ] } },
{ "type": "Feature", "properties": { "value": 13.368 }, "geometry": { "type": "Point", "coordinates": [ 129.340912, 35.490479, 10.0 ] } },
{ "type": "Feature", "properties": { "value": 6.9758 }, "geometry": { "type": "Point", "coordinates": [ 129.34201, 35.490475, 10.0 ] } },
{ "type": "Feature", "properties": { "value": 2.899 }, "geometry": { "type": "Point", "coordinates": [ 129.343124, 35.490471, 10.0 ] } },
{ "type": "Feature", "properties": { "value": 0.9499 }, "geometry": { "type": "Point", "coordinates": [ 129.344223, 35.490467, 10.0 ] } },
{ "type": "Feature", "properties": { "value": 0.1612 }, "geometry": { "type": "Point", "coordinates": [ 129.345322, 35.490463, 10.0 ] } },
{ "type": "Feature", "properties": { "value": 0.4649 }, "geometry": { "type": "Point", "coordinates": [ 129.334305, 35.491398, 10.0 ] } },
{ "type": "Feature", "properties": { "value": 2.4616 }, "geometry": { "type": "Point", "coordinates": [ 129.335403, 35.491394, 10.0 ] } },
{ "type": "Feature", "properties": { "value": 7.4588 }, "geometry": { "type": "Point", "coordinates": [ 129.336517, 35.49139, 10.0 ] } },
{ "type": "Feature", "properties": { "value": 14.998 }, "geometry": { "type": "Point", "coordinates": [ 129.337616, 35.491386, 10.0 ] } },
{ "type": "Feature", "properties": { "value": 21.012 }, "geometry": { "type": "Point", "coordinates": [ 129.338715, 35.491383, 10.0 ] } },
{ "type": "Feature", "properties": { "value": 22.012 }, "geometry": { "type": "Point", "coordinates": [ 129.339813, 35.491383, 10.0 ] } },
{ "type": "Feature", "properties": { "value": 17.997 }, "geometry": { "type": "Point", "coordinates": [ 129.340927, 35.491379, 10.0 ] } },
{ "type": "Feature", "properties": { "value": 11.533 }, "geometry": { "type": "Point", "coordinates": [ 129.342026, 35.491375, 10.0 ] } },
{ "type": "Feature", "properties": { "value": 5.8994 }, "geometry": { "type": "Point", "coordinates": [ 129.343124, 35.491371, 10.0 ] } },
{ "type": "Feature", "properties": { "value": 2.4744 }, "geometry": { "type": "Point", "coordinates": [ 129.344223, 35.491367, 10.0 ] } },
{ "type": "Feature", "properties": { "value": 0.843 }, "geometry": { "type": "Point", "coordinates": [ 129.345322, 35.491367, 10.0 ] } },
{ "type": "Feature", "properties": { "value": 0.1423 }, "geometry": { "type": "Point", "coordinates": [ 129.346436, 35.491364, 10.0 ] } },
{ "type": "Feature", "properties": { "value": 0.0298 }, "geometry": { "type": "Point", "coordinates": [ 129.334305, 35.492298, 10.0 ] } },
{ "type": "Feature", "properties": { "value": 1.1444 }, "geometry": { "type": "Point", "coordinates": [ 129.335419, 35.492294, 10.0 ] } },
{ "type": "Feature", "properties": { "value": 4.0991 }, "geometry": { "type": "Point", "coordinates": [ 129.336517, 35.49229, 10.0 ] } },
{ "type": "Feature", "properties": { "value": 9.8178 }, "geometry": { "type": "Point", "coordinates": [ 129.337616, 35.49229, 10.0 ] } },
{ "type": "Feature", "properties": { "value": 16.649 }, "geometry": { "type": "Point", "coordinates": [ 129.338715, 35.492287, 10.0 ] } },
{ "type": "Feature", "properties": { "value": 21.094 }, "geometry": { "type": "Point", "coordinates": [ 129.339828, 35.492283, 10.0 ] } },
{ "type": "Feature", "properties": { "value": 20.723 }, "geometry": { "type": "Point", "coordinates": [ 129.340927, 35.492279, 10.0 ] } },
{ "type": "Feature", "properties": { "value": 16.065 }, "geometry": { "type": "Point", "coordinates": [ 129.342026, 35.492275, 10.0 ] } },
{ "type": "Feature", "properties": { "value": 10.026 }, "geometry": { "type": "Point", "coordinates": [ 129.343124, 35.492271, 10.0 ] } },
{ "type": "Feature", "properties": { "value": 5.1404 }, "geometry": { "type": "Point", "coordinates": [ 129.344223, 35.492271, 10.0 ] } },
{ "type": "Feature", "properties": { "value": 2.1979 }, "geometry": { "type": "Point", "coordinates": [ 129.345337, 35.492268, 10.0 ] } },
{ "type": "Feature", "properties": { "value": 0.7813 }, "geometry": { "type": "Point", "coordinates": [ 129.346436, 35.492264, 10.0 ] } },
{ "type": "Feature", "properties": { "value": 0.1286 }, "geometry": { "type": "Point", "coordinates": [ 129.347534, 35.49226, 10.0 ] } },
{ "type": "Feature", "properties": { "value": 0.4557 }, "geometry": { "type": "Point", "coordinates": [ 129.335419, 35.493195, 10.0 ] } },
{ "type": "Feature", "properties": { "value": 2.0221 }, "geometry": { "type": "Point", "coordinates": [ 129.336517, 35.493195, 10.0 ] } },
{ "type": "Feature", "properties": { "value": 5.749 }, "geometry": { "type": "Point", "coordinates": [ 129.337616, 35.493191, 10.0 ] } },
{ "type": "Feature", "properties": { "value": 11.712 }, "geometry": { "type": "Point", "coordinates": [ 129.33873, 35.493187, 10.0 ] } },
{ "type": "Feature", "properties": { "value": 17.793 }, "geometry": { "type": "Point", "coordinates": [ 129.339828, 35.493183, 10.0 ] } },
{ "type": "Feature", "properties": { "value": 20.782 }, "geometry": { "type": "Point", "coordinates": [ 129.340927, 35.493179, 10.0 ] } },
{ "type": "Feature", "properties": { "value": 19.27 }, "geometry": { "type": "Point", "coordinates": [ 129.342026, 35.493179, 10.0 ] } },
{ "type": "Feature", "properties": { "value": 14.471 }, "geometry": { "type": "Point", "coordinates": [ 129.343124, 35.493176, 10.0 ] } },
{ "type": "Feature", "properties": { "value": 8.9413 }, "geometry": { "type": "Point", "coordinates": [ 129.344238, 35.493172, 10.0 ] } },
{ "type": "Feature", "properties": { "value": 4.6317 }, "geometry": { "type": "Point", "coordinates": [ 129.345337, 35.493168, 10.0 ] } },
{ "type": "Feature", "properties": { "value": 2.0362 }, "geometry": { "type": "Point", "coordinates": [ 129.346436, 35.493164, 10.0 ] } },
{ "type": "Feature", "properties": { "value": 0.7293 }, "geometry": { "type": "Point", "coordinates": [ 129.347534, 35.49316, 10.0 ] } },
{ "type": "Feature", "properties": { "value": 0.1318 }, "geometry": { "type": "Point", "coordinates": [ 129.348648, 35.49316, 10.0 ] } },
{ "type": "Feature", "properties": { "value": 0.8692 }, "geometry": { "type": "Point", "coordinates": [ 129.336517, 35.494095, 10.0 ] } },
{ "type": "Feature", "properties": { "value": 3.0006 }, "geometry": { "type": "Point", "coordinates": [ 129.337631, 35.494091, 10.0 ] } },
{ "type": "Feature", "properties": { "value": 7.2488 }, "geometry": { "type": "Point", "coordinates": [ 129.33873, 35.494087, 10.0 ] } },
{ "type": "Feature", "properties": { "value": 13.099 }, "geometry": { "type": "Point", "coordinates": [ 129.339828, 35.494083, 10.0 ] } },
{ "type": "Feature", "properties": { "value": 18.212 }, "geometry": { "type": "Point", "coordinates": [ 129.340927, 35.494083, 10.0 ] } },
{ "type": "Feature", "properties": { "value": 20.098 }, "geometry": { "type": "Point", "coordinates": [ 129.342026, 35.49408, 10.0 ] } },
{ "type": "Feature", "properties": { "value": 17.995 }, "geometry": { "type": "Point", "coordinates": [ 129.34314, 35.494076, 10.0 ] } },
{ "type": "Feature", "properties": { "value": 13.299 }, "geometry": { "type": "Point", "coordinates": [ 129.344238, 35.494072, 10.0 ] } },
{ "type": "Feature", "properties": { "value": 8.231 }, "geometry": { "type": "Point", "coordinates": [ 129.345337, 35.494068, 10.0 ] } },
{ "type": "Feature", "properties": { "value": 4.3092 }, "geometry": { "type": "Point", "coordinates": [ 129.346436, 35.494068, 10.0 ] } },
{ "type": "Feature", "properties": { "value": 1.9202 }, "geometry": { "type": "Point", "coordinates": [ 129.347549, 35.494064, 10.0 ] } },
{ "type": "Feature", "properties": { "value": 0.719 }, "geometry": { "type": "Point", "coordinates": [ 129.348648, 35.494061, 10.0 ] } },
{ "type": "Feature", "properties": { "value": 0.1647 }, "geometry": { "type": "Point", "coordinates": [ 129.349747, 35.494057, 10.0 ] } },
{ "type": "Feature", "properties": { "value": 0.2814 }, "geometry": { "type": "Point", "coordinates": [ 129.336533, 35.494995, 10.0 ] } },
{ "type": "Feature", "properties": { "value": 1.3703 }, "geometry": { "type": "Point", "coordinates": [ 129.337631, 35.494991, 10.0 ] } },
{ "type": "Feature", "properties": { "value": 3.9344 }, "geometry": { "type": "Point", "coordinates": [ 129.33873, 35.494991, 10.0 ] } },
{ "type": "Feature", "properties": { "value": 8.4269 }, "geometry": { "type": "Point", "coordinates": [ 129.339828, 35.494987, 10.0 ] } },
{ "type": "Feature", "properties": { "value": 13.948 }, "geometry": { "type": "Point", "coordinates": [ 129.340942, 35.494984, 10.0 ] } },
{ "type": "Feature", "properties": { "value": 18.21 }, "geometry": { "type": "Point", "coordinates": [ 129.342041, 35.49498, 10.0 ] } },
{ "type": "Feature", "properties": { "value": 19.242 }, "geometry": { "type": "Point", "coordinates": [ 129.34314, 35.494976, 10.0 ] } },
{ "type": "Feature", "properties": { "value": 16.892 }, "geometry": { "type": "Point", "coordinates": [ 129.344238, 35.494972, 10.0 ] } },
{ "type": "Feature", "properties": { "value": 12.448 }, "geometry": { "type": "Point", "coordinates": [ 129.345337, 35.494972, 10.0 ] } },
{ "type": "Feature", "properties": { "value": 7.7428 }, "geometry": { "type": "Point", "coordinates": [ 129.346451, 35.494968, 10.0 ] } },
{ "type": "Feature", "properties": { "value": 4.1291 }, "geometry": { "type": "Point", "coordinates": [ 129.347549, 35.494965, 10.0 ] } },
{ "type": "Feature", "properties": { "value": 1.9151 }, "geometry": { "type": "Point", "coordinates": [ 129.348648, 35.494961, 10.0 ] } },
{ "type": "Feature", "properties": { "value": 0.7569 }, "geometry": { "type": "Point", "coordinates": [ 129.349747, 35.494957, 10.0 ] } },
{ "type": "Feature", "properties": { "value": 0.216 }, "geometry": { "type": "Point", "coordinates": [ 129.350861, 35.494953, 10.0 ] } },
{ "type": "Feature", "properties": { "value": 0.5177 }, "geometry": { "type": "Point", "coordinates": [ 129.337631, 35.495895, 10.0 ] } },
{ "type": "Feature", "properties": { "value": 1.8652 }, "geometry": { "type": "Point", "coordinates": [ 129.33873, 35.495892, 10.0 ] } },
{ "type": "Feature", "properties": { "value": 4.744 }, "geometry": { "type": "Point", "coordinates": [ 129.339844, 35.495888, 10.0 ] } },
{ "type": "Feature", "properties": { "value": 9.3156 }, "geometry": { "type": "Point", "coordinates": [ 129.340942, 35.495884, 10.0 ] } },
{ "type": "Feature", "properties": { "value": 14.342 }, "geometry": { "type": "Point", "coordinates": [ 129.342041, 35.49588, 10.0 ] } },
{ "type": "Feature", "properties": { "value": 17.788 }, "geometry": { "type": "Point", "coordinates": [ 129.34314, 35.49588, 10.0 ] } },
{ "type": "Feature", "properties": { "value": 18.44 }, "geometry": { "type": "Point", "coordinates": [ 129.344238, 35.495876, 10.0 ] } },
{ "type": "Feature", "properties": { "value": 16.081 }, "geometry": { "type": "Point", "coordinates": [ 129.345352, 35.495872, 10.0 ] } },
{ "type": "Feature", "properties": { "value": 11.807 }, "geometry": { "type": "Point", "coordinates": [ 129.346451, 35.495869, 10.0 ] } },
{ "type": "Feature", "properties": { "value": 7.4412 }, "geometry": { "type": "Point", "coordinates": [ 129.347549, 35.495865, 10.0 ] } },
{ "type": "Feature", "properties": { "value": 4.1098 }, "geometry": { "type": "Point", "coordinates": [ 129.348648, 35.495861, 10.0 ] } },
{ "type": "Feature", "properties": { "value": 2.0095 }, "geometry": { "type": "Point", "coordinates": [ 129.349762, 35.495861, 10.0 ] } },
{ "type": "Feature", "properties": { "value": 0.8645 }, "geometry": { "type": "Point", "coordinates": [ 129.350861, 35.495857, 10.0 ] } },
{ "type": "Feature", "properties": { "value": 0.3095 }, "geometry": { "type": "Point", "coordinates": [ 129.351959, 35.495853, 10.0 ] } },
{ "type": "Feature", "properties": { "value": 0.0321 }, "geometry": { "type": "Point", "coordinates": [ 129.337631, 35.496796, 10.0 ] } },
{ "type": "Feature", "properties": { "value": 0.7612 }, "geometry": { "type": "Point", "coordinates": [ 129.338745, 35.496792, 10.0 ] } },
{ "type": "Feature", "properties": { "value": 2.337 }, "geometry": { "type": "Point", "coordinates": [ 129.339844, 35.496788, 10.0 ] } },
{ "type": "Feature", "properties": { "value": 5.4335 }, "geometry": { "type": "Point", "coordinates": [ 129.340942, 35.496784, 10.0 ] } },
{ "type": "Feature", "properties": { "value": 9.8676 }, "geometry": { "type": "Point", "coordinates": [ 129.342041, 35.496784, 10.0 ] } },
{ "type": "Feature", "properties": { "value": 14.386 }, "geometry": { "type": "Point", "coordinates": [ 129.34314, 35.49678, 10.0 ] } },
{ "type": "Feature", "properties": { "value": 17.474 }, "geometry": { "type": "Point", "coordinates": [ 129.344254, 35.496777, 10.0 ] } },
{ "type": "Feature", "properties": { "value": 17.872 }, "geometry": { "type": "Point", "coordinates": [ 129.345352, 35.496773, 10.0 ] } },
{ "type": "Feature", "properties": { "value": 15.397 }, "geometry": { "type": "Point", "coordinates": [ 129.346451, 35.496769, 10.0 ] } },
{ "type": "Feature", "properties": { "value": 11.415 }, "geometry": { "type": "Point", "coordinates": [ 129.347549, 35.496765, 10.0 ] } },
{ "type": "Feature", "properties": { "value": 7.4221 }, "geometry": { "type": "Point", "coordinates": [ 129.348663, 35.496765, 10.0 ] } },
{ "type": "Feature", "properties": { "value": 4.2939 }, "geometry": { "type": "Point", "coordinates": [ 129.349762, 35.496761, 10.0 ] } },
{ "type": "Feature", "properties": { "value": 2.2034 }, "geometry": { "type": "Point", "coordinates": [ 129.350861, 35.496758, 10.0 ] } },
{ "type": "Feature", "properties": { "value": 1.0116 }, "geometry": { "type": "Point", "coordinates": [ 129.351959, 35.496754, 10.0 ] } },
{ "type": "Feature", "properties": { "value": 0.4028 }, "geometry": { "type": "Point", "coordinates": [ 129.353073, 35.49675, 10.0 ] } },
{ "type": "Feature", "properties": { "value": 0.1152 }, "geometry": { "type": "Point", "coordinates": [ 129.354172, 35.496746, 10.0 ] } },
{ "type": "Feature", "properties": { "value": 0.2084 }, "geometry": { "type": "Point", "coordinates": [ 129.338745, 35.497692, 10.0 ] } },
{ "type": "Feature", "properties": { "value": 0.9913 }, "geometry": { "type": "Point", "coordinates": [ 129.339844, 35.497692, 10.0 ] } },
{ "type": "Feature", "properties": { "value": 2.7649 }, "geometry": { "type": "Point", "coordinates": [ 129.340942, 35.497688, 10.0 ] } },
{ "type": "Feature", "properties": { "value": 5.9056 }, "geometry": { "type": "Point", "coordinates": [ 129.342041, 35.497684, 10.0 ] } },
{ "type": "Feature", "properties": { "value": 10.101 }, "geometry": { "type": "Point", "coordinates": [ 129.343155, 35.497681, 10.0 ] } },
{ "type": "Feature", "properties": { "value": 14.365 }, "geometry": { "type": "Point", "coordinates": [ 129.344254, 35.497677, 10.0 ] } },
{ "type": "Feature", "properties": { "value": 17.145 }, "geometry": { "type": "Point", "coordinates": [ 129.345352, 35.497673, 10.0 ] } },
{ "type": "Feature", "properties": { "value": 17.301 }, "geometry": { "type": "Point", "coordinates": [ 129.346451, 35.497673, 10.0 ] } },
{ "type": "Feature", "properties": { "value": 15.0 }, "geometry": { "type": "Point", "coordinates": [ 129.347565, 35.497669, 10.0 ] } },
{ "type": "Feature", "properties": { "value": 11.325 }, "geometry": { "type": "Point", "coordinates": [ 129.348663, 35.497665, 10.0 ] } },
{ "type": "Feature", "properties": { "value": 7.5573 }, "geometry": { "type": "Point", "coordinates": [ 129.349762, 35.497662, 10.0 ] } },
{ "type": "Feature", "properties": { "value": 4.4736 }, "geometry": { "type": "Point", "coordinates": [ 129.350861, 35.497658, 10.0 ] } },
{ "type": "Feature", "properties": { "value": 2.3402 }, "geometry": { "type": "Point", "coordinates": [ 129.351974, 35.497654, 10.0 ] } },
{ "type": "Feature", "properties": { "value": 1.0857 }, "geometry": { "type": "Point", "coordinates": [ 129.353073, 35.497654, 10.0 ] } },
{ "type": "Feature", "properties": { "value": 0.4318 }, "geometry": { "type": "Point", "coordinates": [ 129.354172, 35.49765, 10.0 ] } },
{ "type": "Feature", "properties": { "value": 0.1221 }, "geometry": { "type": "Point", "coordinates": [ 129.35527, 35.497646, 10.0 ] } },
{ "type": "Feature", "properties": { "value": 0.3392 }, "geometry": { "type": "Point", "coordinates": [ 129.339844, 35.498592, 10.0 ] } },
{ "type": "Feature", "properties": { "value": 1.2175 }, "geometry": { "type": "Point", "coordinates": [ 129.340958, 35.498589, 10.0 ] } },
{ "type": "Feature", "properties": { "value": 3.0529 }, "geometry": { "type": "Point", "coordinates": [ 129.342056, 35.498585, 10.0 ] } },
{ "type": "Feature", "properties": { "value": 6.1536 }, "geometry": { "type": "Point", "coordinates": [ 129.343155, 35.498581, 10.0 ] } },
{ "type": "Feature", "properties": { "value": 10.24 }, "geometry": { "type": "Point", "coordinates": [ 129.344254, 35.498581, 10.0 ] } },
{ "type": "Feature", "properties": { "value": 14.255 }, "geometry": { "type": "Point", "coordinates": [ 129.345352, 35.498577, 10.0 ] } },
{ "type": "Feature", "properties": { "value": 16.733 }, "geometry": { "type": "Point", "coordinates": [ 129.346466, 35.498573, 10.0 ] } },
{ "type": "Feature", "properties": { "value": 16.794 }, "geometry": { "type": "Point", "coordinates": [ 129.347565, 35.498569, 10.0 ] } },
{ "type": "Feature", "properties": { "value": 14.575 }, "geometry": { "type": "Point", "coordinates": [ 129.348663, 35.498566, 10.0 ] } },
{ "type": "Feature", "properties": { "value": 11.081 }, "geometry": { "type": "Point", "coordinates": [ 129.349762, 35.498562, 10.0 ] } },
{ "type": "Feature", "properties": { "value": 7.4289 }, "geometry": { "type": "Point", "coordinates": [ 129.350876, 35.498562, 10.0 ] } },
{ "type": "Feature", "properties": { "value": 4.3815 }, "geometry": { "type": "Point", "coordinates": [ 129.351974, 35.498558, 10.0 ] } },
{ "type": "Feature", "properties": { "value": 2.2469 }, "geometry": { "type": "Point", "coordinates": [ 129.353073, 35.498554, 10.0 ] } },
{ "type": "Feature", "properties": { "value": 0.9808 }, "geometry": { "type": "Point", "coordinates": [ 129.354172, 35.49855, 10.0 ] } },
{ "type": "Feature", "properties": { "value": 0.345 }, "geometry": { "type": "Point", "coordinates": [ 129.35527, 35.498547, 10.0 ] } },
{ "type": "Feature", "properties": { "value": 0.0825 }, "geometry": { "type": "Point", "coordinates": [ 129.356384, 35.498543, 10.0 ] } },
{ "type": "Feature", "properties": { "value": 0.4348 }, "geometry": { "type": "Point", "coordinates": [ 129.340958, 35.499489, 10.0 ] } },
{ "type": "Feature", "properties": { "value": 1.3803 }, "geometry": { "type": "Point", "coordinates": [ 129.342056, 35.499485, 10.0 ] } },
{ "type": "Feature", "properties": { "value": 3.2886 }, "geometry": { "type": "Point", "coordinates": [ 129.343155, 35.499485, 10.0 ] } },
{ "type": "Feature", "properties": { "value": 6.3867 }, "geometry": { "type": "Point", "coordinates": [ 129.344254, 35.499481, 10.0 ] } },
{ "type": "Feature", "properties": { "value": 10.292 }, "geometry": { "type": "Point", "coordinates": [ 129.345367, 35.499477, 10.0 ] } },
{ "type": "Feature", "properties": { "value": 13.914 }, "geometry": { "type": "Point", "coordinates": [ 129.346466, 35.499474, 10.0 ] } },
{ "type": "Feature", "properties": { "value": 16.053 }, "geometry": { "type": "Point", "coordinates": [ 129.347565, 35.49947, 10.0 ] } },
{ "type": "Feature", "properties": { "value": 15.915 }, "geometry": { "type": "Point", "coordinates": [ 129.348663, 35.499466, 10.0 ] } },
{ "type": "Feature", "properties": { "value": 13.668 }, "geometry": { "type": "Point", "coordinates": [ 129.349777, 35.499466, 10.0 ] } },
{ "type": "Feature", "properties": { "value": 10.232 }, "geometry": { "type": "Point", "coordinates": [ 129.350876, 35.499462, 10.0 ] } },
{ "type": "Feature", "properties": { "value": 6.6531 }, "geometry": { "type": "Point", "coordinates": [ 129.351974, 35.499458, 10.0 ] } },
{ "type": "Feature", "properties": { "value": 3.6928 }, "geometry": { "type": "Point", "coordinates": [ 129.353073, 35.499454, 10.0 ] } },
{ "type": "Feature", "properties": { "value": 1.7111 }, "geometry": { "type": "Point", "coordinates": [ 129.354187, 35.499451, 10.0 ] } },
{ "type": "Feature", "properties": { "value": 0.6507 }, "geometry": { "type": "Point", "coordinates": [ 129.355286, 35.499447, 10.0 ] } },
{ "type": "Feature", "properties": { "value": 0.191 }, "geometry": { "type": "Point", "coordinates": [ 129.356384, 35.499447, 10.0 ] } },
{ "type": "Feature", "properties": { "value": 0.0281 }, "geometry": { "type": "Point", "coordinates": [ 129.357483, 35.499443, 10.0 ] } },
{ "type": "Feature", "properties": { "value": 0.0062 }, "geometry": { "type": "Point", "coordinates": [ 129.340958, 35.500393, 10.0 ] } },
{ "type": "Feature", "properties": { "value": 0.5367 }, "geometry": { "type": "Point", "coordinates": [ 129.342056, 35.500389, 10.0 ] } },
{ "type": "Feature", "properties": { "value": 1.5459 }, "geometry": { "type": "Point", "coordinates": [ 129.343155, 35.500385, 10.0 ] } },
{ "type": "Feature", "properties": { "value": 3.5129 }, "geometry": { "type": "Point", "coordinates": [ 129.344269, 35.500381, 10.0 ] } },
{ "type": "Feature", "properties": { "value": 6.4994 }, "geometry": { "type": "Point", "coordinates": [ 129.345367, 35.500378, 10.0 ] } },
{ "type": "Feature", "properties": { "value": 10.01 }, "geometry": { "type": "Point", "coordinates": [ 129.346466, 35.500374, 10.0 ] } },
{ "type": "Feature", "properties": { "value": 13.178 }, "geometry": { "type": "Point", "coordinates": [ 129.347565, 35.500374, 10.0 ] } },
{ "type": "Feature", "properties": { "value": 14.795 }, "geometry": { "type": "Point", "coordinates": [ 129.348679, 35.50037, 10.0 ] } },
{ "type": "Feature", "properties": { "value": 14.167 }, "geometry": { "type": "Point", "coordinates": [ 129.349777, 35.500366, 10.0 ] } },
{ "type": "Feature", "properties": { "value": 11.651 }, "geometry": { "type": "Point", "coordinates": [ 129.350876, 35.500362, 10.0 ] } },
{ "type": "Feature", "properties": { "value": 8.1767 }, "geometry": { "type": "Point", "coordinates": [ 129.351974, 35.500359, 10.0 ] } },
{ "type": "Feature", "properties": { "value": 4.8226 }, "geometry": { "type": "Point", "coordinates": [ 129.353088, 35.500355, 10.0 ] } },
{ "type": "Feature", "properties": { "value": 2.3529 }, "geometry": { "type": "Point", "coordinates": [ 129.354187, 35.500355, 10.0 ] } },
{ "type": "Feature", "properties": { "value": 0.9348 }, "geometry": { "type": "Point", "coordinates": [ 129.355286, 35.500351, 10.0 ] } },
{ "type": "Feature", "properties": { "value": 0.2866 }, "geometry": { "type": "Point", "coordinates": [ 129.356384, 35.500347, 10.0 ] } },
{ "type": "Feature", "properties": { "value": 0.0566 }, "geometry": { "type": "Point", "coordinates": [ 129.357483, 35.500343, 10.0 ] } },
{ "type": "Feature", "properties": { "value": 0.1244 }, "geometry": { "type": "Point", "coordinates": [ 129.342056, 35.501289, 10.0 ] } },
{ "type": "Feature", "properties": { "value": 0.6194 }, "geometry": { "type": "Point", "coordinates": [ 129.34317, 35.501286, 10.0 ] } },
{ "type": "Feature", "properties": { "value": 1.6585 }, "geometry": { "type": "Point", "coordinates": [ 129.344269, 35.501282, 10.0 ] } },
{ "type": "Feature", "properties": { "value": 3.5352 }, "geometry": { "type": "Point", "coordinates": [ 129.345367, 35.501278, 10.0 ] } },
{ "type": "Feature", "properties": { "value": 6.1788 }, "geometry": { "type": "Point", "coordinates": [ 129.346466, 35.501278, 10.0 ] } },
{ "type": "Feature", "properties": { "value": 9.1547 }, "geometry": { "type": "Point", "coordinates": [ 129.34758, 35.501274, 10.0 ] } },
{ "type": "Feature", "properties": { "value": 11.478 }, "geometry": { "type": "Point", "coordinates": [ 129.348679, 35.50127, 10.0 ] } },
{ "type": "Feature", "properties": { "value": 12.138 }, "geometry": { "type": "Point", "coordinates": [ 129.349777, 35.501266, 10.0 ] } },
{ "type": "Feature", "properties": { "value": 10.837 }, "geometry": { "type": "Point", "coordinates": [ 129.350876, 35.501263, 10.0 ] } },
{ "type": "Feature", "properties": { "value": 8.1109 }, "geometry": { "type": "Point", "coordinates": [ 129.35199, 35.501259, 10.0 ] } },
{ "type": "Feature", "properties": { "value": 5.0408 }, "geometry": { "type": "Point", "coordinates": [ 129.353088, 35.501259, 10.0 ] } },
{ "type": "Feature", "properties": { "value": 2.5729 }, "geometry": { "type": "Point", "coordinates": [ 129.354187, 35.501255, 10.0 ] } },
{ "type": "Feature", "properties": { "value": 1.0543 }, "geometry": { "type": "Point", "coordinates": [ 129.355286, 35.501251, 10.0 ] } },
{ "type": "Feature", "properties": { "value": 0.3392 }, "geometry": { "type": "Point", "coordinates": [ 129.3564, 35.501247, 10.0 ] } },
{ "type": "Feature", "properties": { "value": 0.0793 }, "geometry": { "type": "Point", "coordinates": [ 129.357498, 35.501244, 10.0 ] } },
{ "type": "Feature", "properties": { "value": 0.0041 }, "geometry": { "type": "Point", "coordinates": [ 129.358597, 35.50124, 10.0 ] } }
]
}
