{
"type": "FeatureCollection",
"features": [
{ "type": "Feature", "properties": { "value": 0.0004 }, "geometry": { "type": "Point", "coordinates": [ 129.325455, 35.483311, 2650.0 ] } },
{ "type": "Feature", "properties": { "value": 0.0004 }, "geometry": { "type": "Point", "coordinates": [ 129.326553, 35.483307, 2650.0 ] } },
{ "type": "Feature", "properties": { "value": 0.0004 }, "geometry": { "type": "Point", "coordinates": [ 129.327667, 35.483303, 2650.0 ] } },
{ "type": "Feature", "properties": { "value": 0.0004 }, "geometry": { "type": "Point", "coordinates": [ 129.328766, 35.483299, 2650.0 ] } },
{ "type": "Feature", "properties": { "value": 0.0004 }, "geometry": { "type": "Point", "coordinates": [ 129.329865, 35.483295, 2650.0 ] } },
{ "type": "Feature", "properties": { "value": 0.0004 }, "geometry": { "type": "Point", "coordinates": [ 129.330963, 35.483295, 2650.0 ] } },
{ "type": "Feature", "properties": { "value": 0.0004 }, "geometry": { "type": "Point", "coordinates": [ 129.32106, 35.484222, 2650.0 ] } },
{ "type": "Feature", "properties": { "value": 0.0009 }, "geometry": { "type": "Point", "coordinates": [ 129.322159, 35.484219, 2650.0 ] } },
{ "type": "Feature", "properties": { "value": 0.0014 }, "geometry": { "type": "Point", "coordinates": [ 129.323257, 35.484215, 2650.0 ] } },
{ "type": "Feature", "properties": { "value": 0.002 }, "geometry": { "type": "Point", "coordinates": [ 129.324356, 35.484215, 2650.0 ] } },
{ "type": "Feature", "properties": { "value": 0.0021 }, "geometry": { "type": "Point", "coordinates": [ 129.325455, 35.484211, 2650.0 ] } },
{ "type": "Feature", "properties": { "value": 0.0022 }, "geometry": { "type": "Point", "coordinates": [ 129.326569, 35.484207, 2650.0 ] } },
{ "type": "Feature", "properties": { "value": 0.0023 }, "geometry": { "type": "Point", "coordinates": [ 129.327667, 35.484203, 2650.0 ] } },
{ "type": "Feature", "properties": { "value": 0.0023 }, "geometry": { "type": "Point", "coordinates": [ 129.328766, 35.484203, 2650.0 ] } },
{ "type": "Feature", "properties": { "value": 0.0022 }, "geometry": { "type": "Point", "coordinates": [ 129.329865, 35.4842, 2650.0 ] } },
{ "type": "Feature", "properties": { "value": 0.0021 }, "geometry": { "type": "Point", "coordinates": [ 129.330978, 35.484196, 2650.0 ] } },
{ "type": "Feature", "properties": { "value": 0.002 }, "geometry": { "type": "Point", "coordinates": [ 129.332077, 35.484192, 2650.0 ] } },
{ "type": "Feature", "properties": { "value": 0.0015 }, "geometry": { "type": "Point", "coordinates": [ 129.333176, 35.484188, 2650.0 ] } },
{ "type": "Feature", "properties": { "value": 0.0009 }, "geometry": { "type": "Point", "coordinates": [ 129.334274, 35.484188, 2650.0 ] } },
{ "type": "Feature", "properties": { "value": 0.0004 }, "geometry": { "type": "Point", "coordinates": [ 129.335373, 35.484184, 2650.0 ] } },
{ "type": "Feature", "properties": { "value": 0.0004 }, "geometry": { "type": "Point", "coordinates": [ 129.318848, 35.48513, 2650.0 ] } },
{ "type": "Feature", "properties": { "value": 0.0014 }, "geometry": { "type": "Point", "coordinates": [ 129.319962, 35.485126, 2650.0 ] } },
{ "type": "Feature", "properties": { "value": 0.0021 }, "geometry": { "type": "Point", "coordinates": [ 129.32106, 35.485123, 2650.0 ] } },
{ "type": "Feature", "properties": { "value": 0.0024 }, "geometry": { "type": "Point", "coordinates": [ 129.322159, 35.485119, 2650.0 ] } },
{ "type": "Feature", "properties": { "value": 0.0027 }, "geometry": { "type": "Point", "coordinates": [ 129.323257, 35.485119, 2650.0 ] } },
{ "type": "Feature", "properties": { "value": 0.003 }, "geometry": { "type": "Point", "coordinates": [ 129.324371, 35.485115, 2650.0 ] } },
{ "type": "Feature", "properties": { "value": 0.0033 }, "geometry": { "type": "Point", "coordinates": [ 129.32547, 35.485111, 2650.0 ] } },
{ "type": "Feature", "properties": { "value": 0.0034 }, "geometry": { "type": "Point", "coordinates": [ 129.326569, 35.485107, 2650.0 ] } },
{ "type": "Feature", "properties": { "value": 0.0035 }, "geometry": { "type": "Point", "coordinates": [ 129.327667, 35.485107, 2650.0 ] } },
{ "type": "Feature", "properties": { "value": 0.0035 }, "geometry": { "type": "Point", "coordinates": [ 129.328766, 35.485104, 2650.0 ] } },
{ "type": "Feature", "properties": { "value": 0.0035 }, "geometry": { "type": "Point", "coordinates": [ 129.32988, 35.4851, 2650.0 ] } },
{ "type": "Feature", "properties": { "value": 0.0033 }, "geometry": { "type": "Point", "coordinates": [ 129.330978, 35.485096, 2650.0 ] } },
{ "type": "Feature", "properties": { "value": 0.0031 }, "geometry": { "type": "Point", "coordinates": [ 129.332077, 35.485092, 2650.0 ] } },
{ "type": "Feature", "properties": { "value": 0.0028 }, "geometry": { "type": "Point", "coordinates": [ 129.333176, 35.485092, 2650.0 ] } },
{ "type": "Feature", "properties": { "value": 0.0025 }, "geometry": { "type": "Point", "coordinates": [ 129.334274, 35.485088, 2650.0 ] } },
{ "type": "Feature", "properties": { "value": 0.0022 }, "geometry": { "type": "Point", "coordinates": [ 129.335388, 35.485085, 2650.0 ] } },
{ "type": "Feature", "properties": { "value": 0.0019 }, "geometry": { "type": "Point", "coordinates": [ 129.336487, 35.485081, 2650.0 ] } },
{ "type": "Feature", "properties": { "value": 0.0009 }, "geometry": { "type": "Point", "coordinates": [ 129.337585, 35.485077, 2650.0 ] } },
{ "type": "Feature", "properties": { "value": 0.0004 }, "geometry": { "type": "Point", "coordinates": [ 129.31665, 35.486038, 2650.0 ] } },
{ "type": "Feature", "properties": { "value": 0.0014 }, "geometry": { "type": "Point", "coordinates": [ 129.317749, 35.486034, 2650.0 ] } },
{ "type": "Feature", "properties": { "value": 0.0022 }, "geometry": { "type": "Point", "coordinates": [ 129.318863, 35.486031, 2650.0 ] } },
{ "type": "Feature", "properties": { "value": 0.0027 }, "geometry": { "type": "Point", "coordinates": [ 129.319962, 35.486027, 2650.0 ] } },
{ "type": "Feature", "properties": { "value": 0.0032 }, "geometry": { "type": "Point", "coordinates": [ 129.32106, 35.486027, 2650.0 ] } },
{ "type": "Feature", "properties": { "value": 0.0036 }, "geometry": { "type": "Point", "coordinates": [ 129.322159, 35.486023, 2650.0 ] } },
{ "type": "Feature", "properties": { "value": 0.0041 }, "geometry": { "type": "Point", "coordinates": [ 129.323273, 35.486019, 2650.0 ] } },
{ "type": "Feature", "properties": { "value": 0.0045 }, "geometry": { "type": "Point", "coordinates": [ 129.324371, 35.486015, 2650.0 ] } },
{ "type": "Feature", "properties": { "value": 0.0049 }, "geometry": { "type": "Point", "coordinates": [ 129.32547, 35.486012, 2650.0 ] } },
{ "type": "Feature", "properties": { "value": 0.0051 }, "geometry": { "type": "Point", "coordinates": [ 129.326569, 35.486012, 2650.0 ] } },
{ "type": "Feature", "properties": { "value": 0.0053 }, "geometry": { "type": "Point", "coordinates": [ 129.327667, 35.486008, 2650.0 ] } },
{ "type": "Feature", "properties": { "value": 0.0053 }, "geometry": { "type": "Point", "coordinates": [ 129.328781, 35.486004, 2650.0 ] } },
{ "type": "Feature", "properties": { "value": 0.0052 }, "geometry": { "type": "Point", "coordinates": [ 129.32988, 35.486, 2650.0 ] } },
{ "type": "Feature", "properties": { "value": 0.005 }, "geometry": { "type": "Point", "coordinates": [ 129.330978, 35.485996, 2650.0 ] } },
{ "type": "Feature", "properties": { "value": 0.0047 }, "geometry": { "type": "Point", "coordinates": [ 129.332077, 35.485996, 2650.0 ] } },
{ "type": "Feature", "properties": { "value": 0.0043 }, "geometry": { "type": "Point", "coordinates": [ 129.333176, 35.485992, 2650.0 ] } },
{ "type": "Feature", "properties": { "value": 0.0038 }, "geometry": { "type": "Point", "coordinates": [ 129.33429, 35.485989, 2650.0 ] } },
{ "type": "Feature", "properties": { "value": 0.0033 }, "geometry": { "type": "Point", "coordinates": [ 129.335388, 35.485985, 2650.0 ] } },
{ "type": "Feature", "properties": { "value": 0.0028 }, "geometry": { "type": "Point", "coordinates": [ 129.336487, 35.485981, 2650.0 ] } },
{ "type": "Feature", "properties": { "value": 0.0023 }, "geometry": { "type": "Point", "coordinates": [ 129.337585, 35.485981, 2650.0 ] } },
{ "type": "Feature", "properties": { "value": 0.0019 }, "geometry": { "type": "Point", "coordinates": [ 129.338699, 35.485977, 2650.0 ] } },
{ "type": "Feature", "properties": { "value": 0.0008 }, "geometry": { "type": "Point", "coordinates": [ 129.339798, 35.485973, 2650.0 ] } },
{ "type": "Feature", "properties": { "value": 0.0009 }, "geometry": { "type": "Point", "coordinates": [ 129.315552, 35.486942, 2650.0 ] } },
{ "type": "Feature", "properties": { "value": 0.0021 }, "geometry": { "type": "Point", "coordinates": [ 129.31665, 35.486938, 2650.0 ] } },
{ "type": "Feature", "properties": { "value": 0.0026 }, "geometry": { "type": "Point", "coordinates": [ 129.317764, 35.486935, 2650.0 ] } },
{ "type": "Feature", "properties": { "value": 0.0032 }, "geometry": { "type": "Point", "coordinates": [ 129.318863, 35.486931, 2650.0 ] } },
{ "type": "Feature", "properties": { "value": 0.0039 }, "geometry": { "type": "Point", "coordinates": [ 129.319962, 35.486931, 2650.0 ] } },
{ "type": "Feature", "properties": { "value": 0.0046 }, "geometry": { "type": "Point", "coordinates": [ 129.32106, 35.486927, 2650.0 ] } },
{ "type": "Feature", "properties": { "value": 0.0054 }, "geometry": { "type": "Point", "coordinates": [ 129.322174, 35.486923, 2650.0 ] } },
{ "type": "Feature", "properties": { "value": 0.0061 }, "geometry": { "type": "Point", "coordinates": [ 129.323273, 35.486919, 2650.0 ] } },
{ "type": "Feature", "properties": { "value": 0.0067 }, "geometry": { "type": "Point", "coordinates": [ 129.324371, 35.486916, 2650.0 ] } },
{ "type": "Feature", "properties": { "value": 0.0072 }, "geometry": { "type": "Point", "coordinates": [ 129.32547, 35.486916, 2650.0 ] } },
{ "type": "Feature", "properties": { "value": 0.0076 }, "geometry": { "type": "Point", "coordinates": [ 129.326569, 35.486912, 2650.0 ] } },
{ "type": "Feature", "properties": { "value": 0.0078 }, "geometry": { "type": "Point", "coordinates": [ 129.327682, 35.486908, 2650.0 ] } },
{ "type": "Feature", "properties": { "value": 0.0078 }, "geometry": { "type": "Point", "coordinates": [ 129.328781, 35.486904, 2650.0 ] } },
{ "type": "Feature", "properties": { "value": 0.0077 }, "geometry": { "type": "Point", "coordinates": [ 129.32988, 35.486904, 2650.0 ] } },
{ "type": "Feature", "properties": { "value": 0.0073 }, "geometry": { "type": "Point", "coordinates": [ 129.330978, 35.4869, 2650.0 ] } },
{ "type": "Feature", "properties": { "value": 0.0069 }, "geometry": { "type": "Point", "coordinates": [ 129.332092, 35.486897, 2650.0 ] } },
{ "type": "Feature", "properties": { "value": 0.0063 }, "geometry": { "type": "Point", "coordinates": [ 129.333191, 35.486893, 2650.0 ] } },
{ "type": "Feature", "properties": { "value": 0.0056 }, "geometry": { "type": "Point", "coordinates": [ 129.33429, 35.486889, 2650.0 ] } },
{ "type": "Feature", "properties": { "value": 0.0049 }, "geometry": { "type": "Point", "coordinates": [ 129.335388, 35.486889, 2650.0 ] } },
{ "type": "Feature", "properties": { "value": 0.0041 }, "geometry": { "type": "Point", "coordinates": [ 129.336487, 35.486885, 2650.0 ] } },
{ "type": "Feature", "properties": { "value": 0.0034 }, "geometry": { "type": "Point", "coordinates": [ 129.337601, 35.486881, 2650.0 ] } },
{ "type": "Feature", "properties": { "value": 0.0028 }, "geometry": { "type": "Point", "coordinates": [ 129.338699, 35.486877, 2650.0 ] } },
{ "type": "Feature", "properties": { "value": 0.0022 }, "geometry": { "type": "Point", "coordinates": [ 129.339798, 35.486874, 2650.0 ] } },
{ "type": "Feature", "properties": { "value": 0.0014 }, "geometry": { "type": "Point", "coordinates": [ 129.340897, 35.486874, 2650.0 ] } },
{ "type": "Feature", "properties": { "value": 0.0013 }, "geometry": { "type": "Point", "coordinates": [ 129.314453, 35.487846, 2650.0 ] } },
{ "type": "Feature", "properties": { "value": 0.0023 }, "geometry": { "type": "Point", "coordinates": [ 129.315552, 35.487843, 2650.0 ] } },
{ "type": "Feature", "properties": { "value": 0.0029 }, "geometry": { "type": "Point", "coordinates": [ 129.316666, 35.487839, 2650.0 ] } },
{ "type": "Feature", "properties": { "value": 0.0037 }, "geometry": { "type": "Point", "coordinates": [ 129.317764, 35.487835, 2650.0 ] } },
{ "type": "Feature", "properties": { "value": 0.0046 }, "geometry": { "type": "Point", "coordinates": [ 129.318863, 35.487835, 2650.0 ] } },
{ "type": "Feature", "properties": { "value": 0.0056 }, "geometry": { "type": "Point", "coordinates": [ 129.319962, 35.487831, 2650.0 ] } },
{ "type": "Feature", "properties": { "value": 0.0067 }, "geometry": { "type": "Point", "coordinates": [ 129.321075, 35.487827, 2650.0 ] } },
{ "type": "Feature", "properties": { "value": 0.0077 }, "geometry": { "type": "Point", "coordinates": [ 129.322174, 35.487823, 2650.0 ] } },
{ "type": "Feature", "properties": { "value": 0.0087 }, "geometry": { "type": "Point", "coordinates": [ 129.323273, 35.48782, 2650.0 ] } },
{ "type": "Feature", "properties": { "value": 0.0096 }, "geometry": { "type": "Point", "coordinates": [ 129.324371, 35.48782, 2650.0 ] } },
{ "type": "Feature", "properties": { "value": 0.0103 }, "geometry": { "type": "Point", "coordinates": [ 129.32547, 35.487816, 2650.0 ] } },
{ "type": "Feature", "properties": { "value": 0.0109 }, "geometry": { "type": "Point", "coordinates": [ 129.326584, 35.487812, 2650.0 ] } },
{ "type": "Feature", "properties": { "value": 0.0112 }, "geometry": { "type": "Point", "coordinates": [ 129.327682, 35.487808, 2650.0 ] } },
{ "type": "Feature", "properties": { "value": 0.0112 }, "geometry": { "type": "Point", "coordinates": [ 129.328781, 35.487808, 2650.0 ] } },
{ "type": "Feature", "properties": { "value": 0.011 }, "geometry": { "type": "Point", "coordinates": [ 129.32988, 35.487804, 2650.0 ] } },
{ "type": "Feature", "properties": { "value": 0.0105 }, "geometry": { "type": "Point", "coordinates": [ 129.330994, 35.487801, 2650.0 ] } },
{ "type": "Feature", "properties": { "value": 0.0098 }, "geometry": { "type": "Point", "coordinates": [ 129.332092, 35.487797, 2650.0 ] } },
{ "type": "Feature", "properties": { "value": 0.009 }, "geometry": { "type": "Point", "coordinates": [ 129.333191, 35.487793, 2650.0 ] } },
{ "type": "Feature", "properties": { "value": 0.008 }, "geometry": { "type": "Point", "coordinates": [ 129.33429, 35.487793, 2650.0 ] } },
{ "type": "Feature", "properties": { "value": 0.007 }, "geometry": { "type": "Point", "coordinates": [ 129.335388, 35.487789, 2650.0 ] } },
{ "type": "Feature", "properties": { "value": 0.0059 }, "geometry": { "type": "Point", "coordinates": [ 129.336502, 35.487785, 2650.0 ] } },
{ "type": "Feature", "properties": { "value": 0.0049 }, "geometry": { "type": "Point", "coordinates": [ 129.337601, 35.487782, 2650.0 ] } },
{ "type": "Feature", "properties": { "value": 0.004 }, "geometry": { "type": "Point", "coordinates": [ 129.338699, 35.487778, 2650.0 ] } },
{ "type": "Feature", "properties": { "value": 0.0032 }, "geometry": { "type": "Point", "coordinates": [ 129.339798, 35.487778, 2650.0 ] } },
{ "type": "Feature", "properties": { "value": 0.0025 }, "geometry": { "type": "Point", "coordinates": [ 129.340912, 35.487774, 2650.0 ] } },
{ "type": "Feature", "properties": { "value": 0.0019 }, "geometry": { "type": "Point", "coordinates": [ 129.34201, 35.48777, 2650.0 ] } },
{ "type": "Feature", "properties": { "value": 0.0014 }, "geometry": { "type": "Point", "coordinates": [ 129.313354, 35.48875, 2650.0 ] } },
{ "type": "Feature", "properties": { "value": 0.0024 }, "geometry": { "type": "Point", "coordinates": [ 129.314453, 35.488747, 2650.0 ] } },
{ "type": "Feature", "properties": { "value": 0.0032 }, "geometry": { "type": "Point", "coordinates": [ 129.315567, 35.488743, 2650.0 ] } },
{ "type": "Feature", "properties": { "value": 0.0041 }, "geometry": { "type": "Point", "coordinates": [ 129.316666, 35.488739, 2650.0 ] } },
{ "type": "Feature", "properties": { "value": 0.0052 }, "geometry": { "type": "Point", "coordinates": [ 129.317764, 35.488739, 2650.0 ] } },
{ "type": "Feature", "properties": { "value": 0.0065 }, "geometry": { "type": "Point", "coordinates": [ 129.318863, 35.488735, 2650.0 ] } },
{ "type": "Feature", "properties": { "value": 0.0079 }, "geometry": { "type": "Point", "coordinates": [ 129.319977, 35.488731, 2650.0 ] } },
{ "type": "Feature", "properties": { "value": 0.0093 }, "geometry": { "type": "Point", "coordinates": [ 129.321075, 35.488728, 2650.0 ] } },
{ "type": "Feature", "properties": { "value": 0.0108 }, "geometry": { "type": "Point", "coordinates": [ 129.322174, 35.488728, 2650.0 ] } },
{ "type": "Feature", "properties": { "value": 0.0122 }, "geometry": { "type": "Point", "coordinates": [ 129.323273, 35.488724, 2650.0 ] } },
{ "type": "Feature", "properties": { "value": 0.0135 }, "geometry": { "type": "Point", "coordinates": [ 129.324371, 35.48872, 2650.0 ] } },
{ "type": "Feature", "properties": { "value": 0.0145 }, "geometry": { "type": "Point", "coordinates": [ 129.325485, 35.488716, 2650.0 ] } },
{ "type": "Feature", "properties": { "value": 0.0152 }, "geometry": { "type": "Point", "coordinates": [ 129.326584, 35.488712, 2650.0 ] } },
{ "type": "Feature", "properties": { "value": 0.0157 }, "geometry": { "type": "Point", "coordinates": [ 129.327682, 35.488712, 2650.0 ] } },
{ "type": "Feature", "properties": { "value": 0.0157 }, "geometry": { "type": "Point", "coordinates": [ 129.328781, 35.488708, 2650.0 ] } },
{ "type": "Feature", "properties": { "value": 0.0154 }, "geometry": { "type": "Point", "coordinates": [ 129.329895, 35.488705, 2650.0 ] } },
{ "type": "Feature", "properties": { "value": 0.0148 }, "geometry": { "type": "Point", "coordinates": [ 129.330994, 35.488701, 2650.0 ] } },
{ "type": "Feature", "properties": { "value": 0.0138 }, "geometry": { "type": "Point", "coordinates": [ 129.332092, 35.488697, 2650.0 ] } },
{ "type": "Feature", "properties": { "value": 0.0126 }, "geometry": { "type": "Point", "coordinates": [ 129.333191, 35.488697, 2650.0 ] } },
{ "type": "Feature", "properties": { "value": 0.0112 }, "geometry": { "type": "Point", "coordinates": [ 129.33429, 35.488693, 2650.0 ] } },
{ "type": "Feature", "properties": { "value": 0.0098 }, "geometry": { "type": "Point", "coordinates": [ 129.335403, 35.488689, 2650.0 ] } },
{ "type": "Feature", "properties": { "value": 0.0083 }, "geometry": { "type": "Point", "coordinates": [ 129.336502, 35.488686, 2650.0 ] } },
{ "type": "Feature", "properties": { "value": 0.0069 }, "geometry": { "type": "Point", "coordinates": [ 129.337601, 35.488682, 2650.0 ] } },
{ "type": "Feature", "properties": { "value": 0.0056 }, "geometry": { "type": "Point", "coordinates": [ 129.338699, 35.488682, 2650.0 ] } },
{ "type": "Feature", "properties": { "value": 0.0045 }, "geometry": { "type": "Point", "coordinates": [ 129.339813, 35.488678, 2650.0 ] } },
{ "type": "Feature", "properties": { "value": 0.0035 }, "geometry": { "type": "Point", "coordinates": [ 129.340912, 35.488674, 2650.0 ] } },
{ "type": "Feature", "properties": { "value": 0.0026 }, "geometry": { "type": "Point", "coordinates": [ 129.34201, 35.48867, 2650.0 ] } },
{ "type": "Feature", "properties": { "value": 0.0019 }, "geometry": { "type": "Point", "coordinates": [ 129.343109, 35.488667, 2650.0 ] } },
{ "type": "Feature", "properties": { "value": 0.0013 }, "geometry": { "type": "Point", "coordinates": [ 129.312256, 35.489655, 2650.0 ] } },
{ "type": "Feature", "properties": { "value": 0.0024 }, "geometry": { "type": "Point", "coordinates": [ 129.313354, 35.489651, 2650.0 ] } },
{ "type": "Feature", "properties": { "value": 0.0033 }, "geometry": { "type": "Point", "coordinates": [ 129.314468, 35.489647, 2650.0 ] } },
{ "type": "Feature", "properties": { "value": 0.0044 }, "geometry": { "type": "Point", "coordinates": [ 129.315567, 35.489643, 2650.0 ] } },
{ "type": "Feature", "properties": { "value": 0.0057 }, "geometry": { "type": "Point", "coordinates": [ 129.316666, 35.489643, 2650.0 ] } },
{ "type": "Feature", "properties": { "value": 0.0072 }, "geometry": { "type": "Point", "coordinates": [ 129.317764, 35.489639, 2650.0 ] } },
{ "type": "Feature", "properties": { "value": 0.0089 }, "geometry": { "type": "Point", "coordinates": [ 129.318878, 35.489635, 2650.0 ] } },
{ "type": "Feature", "properties": { "value": 0.0108 }, "geometry": { "type": "Point", "coordinates": [ 129.319977, 35.489632, 2650.0 ] } },
{ "type": "Feature", "properties": { "value": 0.0128 }, "geometry": { "type": "Point", "coordinates": [ 129.321075, 35.489632, 2650.0 ] } },
{ "type": "Feature", "properties": { "value": 0.0148 }, "geometry": { "type": "Point", "coordinates": [ 129.322174, 35.489628, 2650.0 ] } },
{ "type": "Feature", "properties": { "value": 0.0167 }, "geometry": { "type": "Point", "coordinates": [ 129.323273, 35.489624, 2650.0 ] } },
{ "type": "Feature", "properties": { "value": 0.0184 }, "geometry": { "type": "Point", "coordinates": [ 129.324387, 35.48962, 2650.0 ] } },
{ "type": "Feature", "properties": { "value": 0.0199 }, "geometry": { "type": "Point", "coordinates": [ 129.325485, 35.489616, 2650.0 ] } },
{ "type": "Feature", "properties": { "value": 0.0209 }, "geometry": { "type": "Point", "coordinates": [ 129.326584, 35.489616, 2650.0 ] } },
{ "type": "Feature", "properties": { "value": 0.0215 }, "geometry": { "type": "Point", "coordinates": [ 129.327682, 35.489613, 2650.0 ] } },
{ "type": "Feature", "properties": { "value": 0.0215 }, "geometry": { "type": "Point", "coordinates": [ 129.328796, 35.489609, 2650.0 ] } },
{ "type": "Feature", "properties": { "value": 0.0211 }, "geometry": { "type": "Point", "coordinates": [ 129.329895, 35.489605, 2650.0 ] } },
{ "type": "Feature", "properties": { "value": 0.0202 }, "geometry": { "type": "Point", "coordinates": [ 129.330994, 35.489605, 2650.0 ] } },
{ "type": "Feature", "properties": { "value": 0.0189 }, "geometry": { "type": "Point", "coordinates": [ 129.332092, 35.489601, 2650.0 ] } },
{ "type": "Feature", "properties": { "value": 0.0173 }, "geometry": { "type": "Point", "coordinates": [ 129.333191, 35.489597, 2650.0 ] } },
{ "type": "Feature", "properties": { "value": 0.0154 }, "geometry": { "type": "Point", "coordinates": [ 129.334305, 35.489594, 2650.0 ] } },
{ "type": "Feature", "properties": { "value": 0.0134 }, "geometry": { "type": "Point", "coordinates": [ 129.335403, 35.48959, 2650.0 ] } },
{ "type": "Feature", "properties": { "value": 0.0114 }, "geometry": { "type": "Point", "coordinates": [ 129.336502, 35.48959, 2650.0 ] } },
{ "type": "Feature", "properties": { "value": 0.0095 }, "geometry": { "type": "Point", "coordinates": [ 129.337601, 35.489586, 2650.0 ] } },
{ "type": "Feature", "properties": { "value": 0.0077 }, "geometry": { "type": "Point", "coordinates": [ 129.338715, 35.489582, 2650.0 ] } },
{ "type": "Feature", "properties": { "value": 0.0061 }, "geometry": { "type": "Point", "coordinates": [ 129.339813, 35.489578, 2650.0 ] } },
{ "type": "Feature", "properties": { "value": 0.0047 }, "geometry": { "type": "Point", "coordinates": [ 129.340912, 35.489574, 2650.0 ] } },
{ "type": "Feature", "properties": { "value": 0.0036 }, "geometry": { "type": "Point", "coordinates": [ 129.34201, 35.489571, 2650.0 ] } },
{ "type": "Feature", "properties": { "value": 0.0026 }, "geometry": { "type": "Point", "coordinates": [ 129.343109, 35.489571, 2650.0 ] } },
{ "type": "Feature", "properties": { "value": 0.0019 }, "geometry": { "type": "Point", "coordinates": [ 129.344223, 35.489567, 2650.0 ] } },
{ "type": "Feature", "properties": { "value": 0.0009 }, "geometry": { "type": "Point", "coordinates": [ 129.311157, 35.490559, 2650.0 ] } },
{ "type": "Feature", "properties": { "value": 0.0023 }, "geometry": { "type": "Point", "coordinates": [ 129.312271, 35.490555, 2650.0 ] } },
{ "type": "Feature", "properties": { "value": 0.0032 }, "geometry": { "type": "Point", "coordinates": [ 129.31337, 35.490551, 2650.0 ] } },
{ "type": "Feature", "properties": { "value": 0.0044 }, "geometry": { "type": "Point", "coordinates": [ 129.314468, 35.490547, 2650.0 ] } },
{ "type": "Feature", "properties": { "value": 0.0058 }, "geometry": { "type": "Point", "coordinates": [ 129.315567, 35.490547, 2650.0 ] } },
{ "type": "Feature", "properties": { "value": 0.0076 }, "geometry": { "type": "Point", "coordinates": [ 129.316666, 35.490543, 2650.0 ] } },
{ "type": "Feature", "properties": { "value": 0.0096 }, "geometry": { "type": "Point", "coordinates": [ 129.31778, 35.49054, 2650.0 ] } },
{ "type": "Feature", "properties": { "value": 0.0119 }, "geometry": { "type": "Point", "coordinates": [ 129.318878, 35.490536, 2650.0 ] } },
{ "type": "Feature", "properties": { "value": 0.0145 }, "geometry": { "type": "Point", "coordinates": [ 129.319977, 35.490536, 2650.0 ] } },
{ "type": "Feature", "properties": { "value": 0.0171 }, "geometry": { "type": "Point", "coordinates": [ 129.321075, 35.490532, 2650.0 ] } },
{ "type": "Feature", "properties": { "value": 0.0198 }, "geometry": { "type": "Point", "coordinates": [ 129.322174, 35.490528, 2650.0 ] } },
{ "type": "Feature", "properties": { "value": 0.0224 }, "geometry": { "type": "Point", "coordinates": [ 129.323288, 35.490524, 2650.0 ] } },
{ "type": "Feature", "properties": { "value": 0.0247 }, "geometry": { "type": "Point", "coordinates": [ 129.324387, 35.490524, 2650.0 ] } },
{ "type": "Feature", "properties": { "value": 0.0266 }, "geometry": { "type": "Point", "coordinates": [ 129.325485, 35.49052, 2650.0 ] } },
{ "type": "Feature", "properties": { "value": 0.028 }, "geometry": { "type": "Point", "coordinates": [ 129.326584, 35.490517, 2650.0 ] } },
{ "type": "Feature", "properties": { "value": 0.0287 }, "geometry": { "type": "Point", "coordinates": [ 129.327698, 35.490513, 2650.0 ] } },
{ "type": "Feature", "properties": { "value": 0.0288 }, "geometry": { "type": "Point", "coordinates": [ 129.328796, 35.490509, 2650.0 ] } },
{ "type": "Feature", "properties": { "value": 0.0283 }, "geometry": { "type": "Point", "coordinates": [ 129.329895, 35.490509, 2650.0 ] } },
{ "type": "Feature", "properties": { "value": 0.0271 }, "geometry": { "type": "Point", "coordinates": [ 129.330994, 35.490505, 2650.0 ] } },
{ "type": "Feature", "properties": { "value": 0.0253 }, "geometry": { "type": "Point", "coordinates": [ 129.332092, 35.490501, 2650.0 ] } },
{ "type": "Feature", "properties": { "value": 0.0231 }, "geometry": { "type": "Point", "coordinates": [ 129.333206, 35.490498, 2650.0 ] } },
{ "type": "Feature", "properties": { "value": 0.0206 }, "geometry": { "type": "Point", "coordinates": [ 129.334305, 35.490494, 2650.0 ] } },
{ "type": "Feature", "properties": { "value": 0.018 }, "geometry": { "type": "Point", "coordinates": [ 129.335403, 35.490494, 2650.0 ] } },
{ "type": "Feature", "properties": { "value": 0.0153 }, "geometry": { "type": "Point", "coordinates": [ 129.336502, 35.49049, 2650.0 ] } },
{ "type": "Feature", "properties": { "value": 0.0127 }, "geometry": { "type": "Point", "coordinates": [ 129.337616, 35.490486, 2650.0 ] } },
{ "type": "Feature", "properties": { "value": 0.0103 }, "geometry": { "type": "Point", "coordinates": [ 129.338715, 35.490482, 2650.0 ] } },
{ "type": "Feature", "properties": { "value": 0.0082 }, "geometry": { "type": "Point", "coordinates": [ 129.339813, 35.490479, 2650.0 ] } },
{ "type": "Feature", "properties": { "value": 0.0063 }, "geometry": { "type": "Point", "coordinates": [ 129.340912, 35.490479, 2650.0 ] } },
{ "type": "Feature", "properties": { "value": 0.0048 }, "geometry": { "type": "Point", "coordinates": [ 129.34201, 35.490475, 2650.0 ] } },
{ "type": "Feature", "properties": { "value": 0.0035 }, "geometry": { "type": "Point", "coordinates": [ 129.343124, 35.490471, 2650.0 ] } },
{ "type": "Feature", "properties": { "value": 0.0026 }, "geometry": { "type": "Point", "coordinates": [ 129.344223, 35.490467, 2650.0 ] } },
{ "type": "Feature", "properties": { "value": 0.0018 }, "geometry": { "type": "Point", "coordinates": [ 129.345322, 35.490463, 2650.0 ] } },
{ "type": "Feature", "properties": { "value": 0.0021 }, "geometry": { "type": "Point", "coordinates": [ 129.311172, 35.491459, 2650.0 ] } },
{ "type": "Feature", "properties": { "value": 0.003 }, "geometry": { "type": "Point", "coordinates": [ 129.312271, 35.491455, 2650.0 ] } },
{ "type": "Feature", "properties": { "value": 0.0042 }, "geometry": { "type": "Point", "coordinates": [ 129.31337, 35.491451, 2650.0 ] } },
{ "type": "Feature", "properties": { "value": 0.0057 }, "geometry": { "type": "Point", "coordinates": [ 129.314468, 35.491451, 2650.0 ] } },
{ "type": "Feature", "properties": { "value": 0.0076 }, "geometry": { "type": "Point", "coordinates": [ 129.315567, 35.491447, 2650.0 ] } },
{ "type": "Feature", "properties": { "value": 0.0099 }, "geometry": { "type": "Point", "coordinates": [ 129.316681, 35.491444, 2650.0 ] } },
{ "type": "Feature", "properties": { "value": 0.0126 }, "geometry": { "type": "Point", "coordinates": [ 129.31778, 35.49144, 2650.0 ] } },
{ "type": "Feature", "properties": { "value": 0.0156 }, "geometry": { "type": "Point", "coordinates": [ 129.318878, 35.49144, 2650.0 ] } },
{ "type": "Feature", "properties": { "value": 0.0189 }, "geometry": { "type": "Point", "coordinates": [ 129.319977, 35.491436, 2650.0 ] } },
{ "type": "Feature", "properties": { "value": 0.0224 }, "geometry": { "type": "Point", "coordinates": [ 129.321091, 35.491432, 2650.0 ] } },
{ "type": "Feature", "properties": { "value": 0.0259 }, "geometry": { "type": "Point", "coordinates": [ 129.322189, 35.491428, 2650.0 ] } },
{ "type": "Feature", "properties": { "value": 0.0292 }, "geometry": { "type": "Point", "coordinates": [ 129.323288, 35.491428, 2650.0 ] } },
{ "type": "Feature", "properties": { "value": 0.0322 }, "geometry": { "type": "Point", "coordinates": [ 129.324387, 35.491425, 2650.0 ] } },
{ "type": "Feature", "properties": { "value": 0.0347 }, "geometry": { "type": "Point", "coordinates": [ 129.325485, 35.491421, 2650.0 ] } },
{ "type": "Feature", "properties": { "value": 0.0365 }, "geometry": { "type": "Point", "coordinates": [ 129.326599, 35.491417, 2650.0 ] } },
{ "type": "Feature", "properties": { "value": 0.0375 }, "geometry": { "type": "Point", "coordinates": [ 129.327698, 35.491413, 2650.0 ] } },
{ "type": "Feature", "properties": { "value": 0.0377 }, "geometry": { "type": "Point", "coordinates": [ 129.328796, 35.491413, 2650.0 ] } },
{ "type": "Feature", "properties": { "value": 0.0369 }, "geometry": { "type": "Point", "coordinates": [ 129.329895, 35.491409, 2650.0 ] } },
{ "type": "Feature", "properties": { "value": 0.0354 }, "geometry": { "type": "Point", "coordinates": [ 129.331009, 35.491405, 2650.0 ] } },
{ "type": "Feature", "properties": { "value": 0.0331 }, "geometry": { "type": "Point", "coordinates": [ 129.332108, 35.491402, 2650.0 ] } },
{ "type": "Feature", "properties": { "value": 0.0302 }, "geometry": { "type": "Point", "coordinates": [ 129.333206, 35.491398, 2650.0 ] } },
{ "type": "Feature", "properties": { "value": 0.0269 }, "geometry": { "type": "Point", "coordinates": [ 129.334305, 35.491398, 2650.0 ] } },
{ "type": "Feature", "properties": { "value": 0.0235 }, "geometry": { "type": "Point", "coordinates": [ 129.335403, 35.491394, 2650.0 ] } },
{ "type": "Feature", "properties": { "value": 0.02 }, "geometry": { "type": "Point", "coordinates": [ 129.336517, 35.49139, 2650.0 ] } },
{ "type": "Feature", "properties": { "value": 0.0166 }, "geometry": { "type": "Point", "coordinates": [ 129.337616, 35.491386, 2650.0 ] } },
{ "type": "Feature", "properties": { "value": 0.0135 }, "geometry": { "type": "Point", "coordinates": [ 129.338715, 35.491383, 2650.0 ] } },
{ "type": "Feature", "properties": { "value": 0.0107 }, "geometry": { "type": "Point", "coordinates": [ 129.339813, 35.491383, 2650.0 ] } },
{ "type": "Feature", "properties": { "value": 0.0083 }, "geometry": { "type": "Point", "coordinates": [ 129.340927, 35.491379, 2650.0 ] } },
{ "type": "Feature", "properties": { "value": 0.0063 }, "geometry": { "type": "Point", "coordinates": [ 129.342026, 35.491375, 2650.0 ] } },
{ "type": "Feature", "properties": { "value": 0.0046 }, "geometry": { "type": "Point", "coordinates": [ 129.343124, 35.491371, 2650.0 ] } },
{ "type": "Feature", "properties": { "value": 0.0033 }, "geometry": { "type": "Point", "coordinates": [ 129.344223, 35.491367, 2650.0 ] } },
{ "type": "Feature", "properties": { "value": 0.0024 }, "geometry": { "type": "Point", "coordinates": [ 129.345322, 35.491367, 2650.0 ] } },
{ "type": "Feature", "properties": { "value": 0.0009 }, "geometry": { "type": "Point", "coordinates": [ 129.346436, 35.491364, 2650.0 ] } },
{ "type": "Feature", "properties": { "value": 0.0018 }, "geometry": { "type": "Point", "coordinates": [ 129.310074, 35.492363, 2650.0 ] } },
{ "type": "Feature", "properties": { "value": 0.0027 }, "geometry": { "type": "Point", "coordinates": [ 129.311172, 35.492359, 2650.0 ] } },
{ "type": "Feature", "properties": { "value": 0.0038 }, "geometry": { "type": "Point", "coordinates": [ 129.312271, 35.492355, 2650.0 ] } },
{ "type": "Feature", "properties": { "value": 0.0054 }, "geometry": { "type": "Point", "coordinates": [ 129.31337, 35.492355, 2650.0 ] } },
{ "type": "Feature", "properties": { "value": 0.0073 }, "geometry": { "type": "Point", "coordinates": [ 129.314468, 35.492352, 2650.0 ] } },
{ "type": "Feature", "properties": { "value": 0.0097 }, "geometry": { "type": "Point", "coordinates": [ 129.315582, 35.492348, 2650.0 ] } },
{ "type": "Feature", "properties": { "value": 0.0126 }, "geometry": { "type": "Point", "coordinates": [ 129.316681, 35.492344, 2650.0 ] } },
{ "type": "Feature", "properties": { "value": 0.0161 }, "geometry": { "type": "Point", "coordinates": [ 129.31778, 35.492344, 2650.0 ] } },
{ "type": "Feature", "properties": { "value": 0.0199 }, "geometry": { "type": "Point", "coordinates": [ 129.318878, 35.49234, 2650.0 ] } },
{ "type": "Feature", "properties": { "value": 0.0242 }, "geometry": { "type": "Point", "coordinates": [ 129.319992, 35.492336, 2650.0 ] } },
{ "type": "Feature", "properties": { "value": 0.0286 }, "geometry": { "type": "Point", "coordinates": [ 129.321091, 35.492332, 2650.0 ] } },
{ "type": "Feature", "properties": { "value": 0.0331 }, "geometry": { "type": "Point", "coordinates": [ 129.322189, 35.492332, 2650.0 ] } },
{ "type": "Feature", "properties": { "value": 0.0373 }, "geometry": { "type": "Point", "coordinates": [ 129.323288, 35.492329, 2650.0 ] } },
{ "type": "Feature", "properties": { "value": 0.0412 }, "geometry": { "type": "Point", "coordinates": [ 129.324387, 35.492325, 2650.0 ] } },
{ "type": "Feature", "properties": { "value": 0.0443 }, "geometry": { "type": "Point", "coordinates": [ 129.3255, 35.492321, 2650.0 ] } },
{ "type": "Feature", "properties": { "value": 0.0466 }, "geometry": { "type": "Point", "coordinates": [ 129.326599, 35.492317, 2650.0 ] } },
{ "type": "Feature", "properties": { "value": 0.0479 }, "geometry": { "type": "Point", "coordinates": [ 129.327698, 35.492317, 2650.0 ] } },
{ "type": "Feature", "properties": { "value": 0.0481 }, "geometry": { "type": "Point", "coordinates": [ 129.328796, 35.492313, 2650.0 ] } },
{ "type": "Feature", "properties": { "value": 0.0472 }, "geometry": { "type": "Point", "coordinates": [ 129.32991, 35.49231, 2650.0 ] } },
{ "type": "Feature", "properties": { "value": 0.0452 }, "geometry": { "type": "Point", "coordinates": [ 129.331009, 35.492306, 2650.0 ] } },
{ "type": "Feature", "properties": { "value": 0.0422 }, "geometry": { "type": "Point", "coordinates": [ 129.332108, 35.492306, 2650.0 ] } },
{ "type": "Feature", "properties": { "value": 0.0386 }, "geometry": { "type": "Point", "coordinates": [ 129.333206, 35.492302, 2650.0 ] } },
{ "type": "Feature", "properties": { "value": 0.0344 }, "geometry": { "type": "Point", "coordinates": [ 129.334305, 35.492298, 2650.0 ] } },
{ "type": "Feature", "properties": { "value": 0.03 }, "geometry": { "type": "Point", "coordinates": [ 129.335419, 35.492294, 2650.0 ] } },
{ "type": "Feature", "properties": { "value": 0.0255 }, "geometry": { "type": "Point", "coordinates": [ 129.336517, 35.49229, 2650.0 ] } },
{ "type": "Feature", "properties": { "value": 0.0212 }, "geometry": { "type": "Point", "coordinates": [ 129.337616, 35.49229, 2650.0 ] } },
{ "type": "Feature", "properties": { "value": 0.0172 }, "geometry": { "type": "Point", "coordinates": [ 129.338715, 35.492287, 2650.0 ] } },
{ "type": "Feature", "properties": { "value": 0.0136 }, "geometry": { "type": "Point", "coordinates": [ 129.339828, 35.492283, 2650.0 ] } },
{ "type": "Feature", "properties": { "value": 0.0106 }, "geometry": { "type": "Point", "coordinates": [ 129.340927, 35.492279, 2650.0 ] } },
{ "type": "Feature", "properties": { "value": 0.008 }, "geometry": { "type": "Point", "coordinates": [ 129.342026, 35.492275, 2650.0 ] } },
{ "type": "Feature", "properties": { "value": 0.0059 }, "geometry": { "type": "Point", "coordinates": [ 129.343124, 35.492271, 2650.0 ] } },
{ "type": "Feature", "properties": { "value": 0.0043 }, "geometry": { "type": "Point", "coordinates": [ 129.344223, 35.492271, 2650.0 ] } },
{ "type": "Feature", "properties": { "value": 0.003 }, "geometry": { "type": "Point", "coordinates": [ 129.345337, 35.492268, 2650.0 ] } },
{ "type": "Feature", "properties": { "value": 0.0021 }, "geometry": { "type": "Point", "coordinates": [ 129.346436, 35.492264, 2650.0 ] } },
{ "type": "Feature", "properties": { "value": 0.0023 }, "geometry": { "type": "Point", "coordinates": [ 129.310074, 35.493263, 2650.0 ] } },
{ "type": "Feature", "properties": { "value": 0.0034 }, "geometry": { "type": "Point", "coordinates": [ 129.311172, 35.493259, 2650.0 ] } },
{ "type": "Feature", "properties": { "value": 0.0048 }, "geometry": { "type": "Point", "coordinates": [ 129.312271, 35.493259, 2650.0 ] } },
{ "type": "Feature", "properties": { "value": 0.0067 }, "geometry": { "type": "Point", "coordinates": [ 129.31337, 35.493256, 2650.0 ] } },
{ "type": "Feature", "properties": { "value": 0.0091 }, "geometry": { "type": "Point", "coordinates": [ 129.314484, 35.493252, 2650.0 ] } },
{ "type": "Feature", "properties": { "value": 0.0121 }, "geometry": { "type": "Point", "coordinates": [ 129.315582, 35.493248, 2650.0 ] } },
{ "type": "Feature", "properties": { "value": 0.0158 }, "geometry": { "type": "Point", "coordinates": [ 129.316681, 35.493248, 2650.0 ] } },
{ "type": "Feature", "properties": { "value": 0.02 }, "geometry": { "type": "Point", "coordinates": [ 129.31778, 35.493244, 2650.0 ] } },
{ "type": "Feature", "properties": { "value": 0.0249 }, "geometry": { "type": "Point", "coordinates": [ 129.318893, 35.49324, 2650.0 ] } },
{ "type": "Feature", "properties": { "value": 0.0301 }, "geometry": { "type": "Point", "coordinates": [ 129.319992, 35.493237, 2650.0 ] } },
{ "type": "Feature", "properties": { "value": 0.0357 }, "geometry": { "type": "Point", "coordinates": [ 129.321091, 35.493237, 2650.0 ] } },
{ "type": "Feature", "properties": { "value": 0.0412 }, "geometry": { "type": "Point", "coordinates": [ 129.322189, 35.493233, 2650.0 ] } },
{ "type": "Feature", "properties": { "value": 0.0465 }, "geometry": { "type": "Point", "coordinates": [ 129.323288, 35.493229, 2650.0 ] } },
{ "type": "Feature", "properties": { "value": 0.0513 }, "geometry": { "type": "Point", "coordinates": [ 129.324402, 35.493225, 2650.0 ] } },
{ "type": "Feature", "properties": { "value": 0.0553 }, "geometry": { "type": "Point", "coordinates": [ 129.3255, 35.493225, 2650.0 ] } },
{ "type": "Feature", "properties": { "value": 0.0582 }, "geometry": { "type": "Point", "coordinates": [ 129.326599, 35.493221, 2650.0 ] } },
{ "type": "Feature", "properties": { "value": 0.0598 }, "geometry": { "type": "Point", "coordinates": [ 129.327698, 35.493217, 2650.0 ] } },
{ "type": "Feature", "properties": { "value": 0.06 }, "geometry": { "type": "Point", "coordinates": [ 129.328812, 35.493214, 2650.0 ] } },
{ "type": "Feature", "properties": { "value": 0.0588 }, "geometry": { "type": "Point", "coordinates": [ 129.32991, 35.49321, 2650.0 ] } },
{ "type": "Feature", "properties": { "value": 0.0563 }, "geometry": { "type": "Point", "coordinates": [ 129.331009, 35.49321, 2650.0 ] } },
{ "type": "Feature", "properties": { "value": 0.0526 }, "geometry": { "type": "Point", "coordinates": [ 129.332108, 35.493206, 2650.0 ] } },
{ "type": "Feature", "properties": { "value": 0.0481 }, "geometry": { "type": "Point", "coordinates": [ 129.333206, 35.493202, 2650.0 ] } },
{ "type": "Feature", "properties": { "value": 0.0429 }, "geometry": { "type": "Point", "coordinates": [ 129.33432, 35.493198, 2650.0 ] } },
{ "type": "Feature", "properties": { "value": 0.0374 }, "geometry": { "type": "Point", "coordinates": [ 129.335419, 35.493195, 2650.0 ] } },
{ "type": "Feature", "properties": { "value": 0.0318 }, "geometry": { "type": "Point", "coordinates": [ 129.336517, 35.493195, 2650.0 ] } },
{ "type": "Feature", "properties": { "value": 0.0264 }, "geometry": { "type": "Point", "coordinates": [ 129.337616, 35.493191, 2650.0 ] } },
{ "type": "Feature", "properties": { "value": 0.0215 }, "geometry": { "type": "Point", "coordinates": [ 129.33873, 35.493187, 2650.0 ] } },
{ "type": "Feature", "properties": { "value": 0.017 }, "geometry": { "type": "Point", "coordinates": [ 129.339828, 35.493183, 2650.0 ] } },
{ "type": "Feature", "properties": { "value": 0.0132 }, "geometry": { "type": "Point", "coordinates": [ 129.340927, 35.493179, 2650.0 ] } },
{ "type": "Feature", "properties": { "value": 0.01 }, "geometry": { "type": "Point", "coordinates": [ 129.342026, 35.493179, 2650.0 ] } },
{ "type": "Feature", "properties": { "value": 0.0074 }, "geometry": { "type": "Point", "coordinates": [ 129.343124, 35.493176, 2650.0 ] } },
{ "type": "Feature", "properties": { "value": 0.0053 }, "geometry": { "type": "Point", "coordinates": [ 129.344238, 35.493172, 2650.0 ] } },
{ "type": "Feature", "properties": { "value": 0.0037 }, "geometry": { "type": "Point", "coordinates": [ 129.345337, 35.493168, 2650.0 ] } },
{ "type": "Feature", "properties": { "value": 0.0026 }, "geometry": { "type": "Point", "coordinates": [ 129.346436, 35.493164, 2650.0 ] } },
{ "type": "Feature", "properties": { "value": 0.0017 }, "geometry": { "type": "Point", "coordinates": [ 129.347534, 35.49316, 2650.0 ] } },
{ "type": "Feature", "properties": { "value": 0.0019 }, "geometry": { "type": "Point", "coordinates": [ 129.308975, 35.494167, 2650.0 ] } },
{ "type": "Feature", "properties": { "value": 0.0028 }, "geometry": { "type": "Point", "coordinates": [ 129.310074, 35.494164, 2650.0 ] } },
{ "type": "Feature", "properties": { "value": 0.0041 }, "geometry": { "type": "Point", "coordinates": [ 129.311172, 35.494164, 2650.0 ] } },
{ "type": "Feature", "properties": { "value": 0.0058 }, "geometry": { "type": "Point", "coordinates": [ 129.312271, 35.49416, 2650.0 ] } },
{ "type": "Feature", "properties": { "value": 0.0081 }, "geometry": { "type": "Point", "coordinates": [ 129.313385, 35.494156, 2650.0 ] } },
{ "type": "Feature", "properties": { "value": 0.0111 }, "geometry": { "type": "Point", "coordinates": [ 129.314484, 35.494152, 2650.0 ] } },
{ "type": "Feature", "properties": { "value": 0.0148 }, "geometry": { "type": "Point", "coordinates": [ 129.315582, 35.494152, 2650.0 ] } },
{ "type": "Feature", "properties": { "value": 0.0192 }, "geometry": { "type": "Point", "coordinates": [ 129.316681, 35.494148, 2650.0 ] } },
{ "type": "Feature", "properties": { "value": 0.0244 }, "geometry": { "type": "Point", "coordinates": [ 129.317795, 35.494144, 2650.0 ] } },
{ "type": "Feature", "properties": { "value": 0.0303 }, "geometry": { "type": "Point", "coordinates": [ 129.318893, 35.494141, 2650.0 ] } },
{ "type": "Feature", "properties": { "value": 0.0367 }, "geometry": { "type": "Point", "coordinates": [ 129.319992, 35.494141, 2650.0 ] } },
{ "type": "Feature", "properties": { "value": 0.0434 }, "geometry": { "type": "Point", "coordinates": [ 129.321091, 35.494137, 2650.0 ] } },
{ "type": "Feature", "properties": { "value": 0.0502 }, "geometry": { "type": "Point", "coordinates": [ 129.322189, 35.494133, 2650.0 ] } },
{ "type": "Feature", "properties": { "value": 0.0567 }, "geometry": { "type": "Point", "coordinates": [ 129.323303, 35.494129, 2650.0 ] } },
{ "type": "Feature", "properties": { "value": 0.0625 }, "geometry": { "type": "Point", "coordinates": [ 129.324402, 35.494129, 2650.0 ] } },
{ "type": "Feature", "properties": { "value": 0.0673 }, "geometry": { "type": "Point", "coordinates": [ 129.3255, 35.494125, 2650.0 ] } },
{ "type": "Feature", "properties": { "value": 0.0708 }, "geometry": { "type": "Point", "coordinates": [ 129.326599, 35.494122, 2650.0 ] } },
{ "type": "Feature", "properties": { "value": 0.0728 }, "geometry": { "type": "Point", "coordinates": [ 129.327713, 35.494118, 2650.0 ] } },
{ "type": "Feature", "properties": { "value": 0.0731 }, "geometry": { "type": "Point", "coordinates": [ 129.328812, 35.494114, 2650.0 ] } },
{ "type": "Feature", "properties": { "value": 0.0716 }, "geometry": { "type": "Point", "coordinates": [ 129.32991, 35.494114, 2650.0 ] } },
{ "type": "Feature", "properties": { "value": 0.0686 }, "geometry": { "type": "Point", "coordinates": [ 129.331009, 35.49411, 2650.0 ] } },
{ "type": "Feature", "properties": { "value": 0.0641 }, "geometry": { "type": "Point", "coordinates": [ 129.332108, 35.494106, 2650.0 ] } },
{ "type": "Feature", "properties": { "value": 0.0586 }, "geometry": { "type": "Point", "coordinates": [ 129.333221, 35.494102, 2650.0 ] } },
{ "type": "Feature", "properties": { "value": 0.0522 }, "geometry": { "type": "Point", "coordinates": [ 129.33432, 35.494099, 2650.0 ] } },
{ "type": "Feature", "properties": { "value": 0.0455 }, "geometry": { "type": "Point", "coordinates": [ 129.335419, 35.494099, 2650.0 ] } },
{ "type": "Feature", "properties": { "value": 0.0387 }, "geometry": { "type": "Point", "coordinates": [ 129.336517, 35.494095, 2650.0 ] } },
{ "type": "Feature", "properties": { "value": 0.0322 }, "geometry": { "type": "Point", "coordinates": [ 129.337631, 35.494091, 2650.0 ] } },
{ "type": "Feature", "properties": { "value": 0.0261 }, "geometry": { "type": "Point", "coordinates": [ 129.33873, 35.494087, 2650.0 ] } },
{ "type": "Feature", "properties": { "value": 0.0207 }, "geometry": { "type": "Point", "coordinates": [ 129.339828, 35.494083, 2650.0 ] } },
{ "type": "Feature", "properties": { "value": 0.0161 }, "geometry": { "type": "Point", "coordinates": [ 129.340927, 35.494083, 2650.0 ] } },
{ "type": "Feature", "properties": { "value": 0.0121 }, "geometry": { "type": "Point", "coordinates": [ 129.342026, 35.49408, 2650.0 ] } },
{ "type": "Feature", "properties": { "value": 0.009 }, "geometry": { "type": "Point", "coordinates": [ 129.34314, 35.494076, 2650.0 ] } },
{ "type": "Feature", "properties": { "value": 0.0065 }, "geometry": { "type": "Point", "coordinates": [ 129.344238, 35.494072, 2650.0 ] } },
{ "type": "Feature", "properties": { "value": 0.0046 }, "geometry": { "type": "Point", "coordinates": [ 129.345337, 35.494068, 2650.0 ] } },
{ "type": "Feature", "properties": { "value": 0.0031 }, "geometry": { "type": "Point", "coordinates": [ 129.346436, 35.494068, 2650.0 ] } },
{ "type": "Feature", "properties": { "value": 0.0021 }, "geometry": { "type": "Point", "coordinates": [ 129.347549, 35.494064, 2650.0 ] } },
{ "type": "Feature", "properties": { "value": 0.0022 }, "geometry": { "type": "Point", "coordinates": [ 129.308975, 35.495068, 2650.0 ] } },
{ "type": "Feature", "properties": { "value": 0.0033 }, "geometry": { "type": "Point", "coordinates": [ 129.310074, 35.495068, 2650.0 ] } },
{ "type": "Feature", "properties": { "value": 0.0049 }, "geometry": { "type": "Point", "coordinates": [ 129.311172, 35.495064, 2650.0 ] } },
{ "type": "Feature", "properties": { "value": 0.0069 }, "geometry": { "type": "Point", "coordinates": [ 129.312286, 35.49506, 2650.0 ] } },
{ "type": "Feature", "properties": { "value": 0.0097 }, "geometry": { "type": "Point", "coordinates": [ 129.313385, 35.495056, 2650.0 ] } },
{ "type": "Feature", "properties": { "value": 0.0132 }, "geometry": { "type": "Point", "coordinates": [ 129.314484, 35.495056, 2650.0 ] } },
{ "type": "Feature", "properties": { "value": 0.0176 }, "geometry": { "type": "Point", "coordinates": [ 129.315582, 35.495052, 2650.0 ] } },
{ "type": "Feature", "properties": { "value": 0.0229 }, "geometry": { "type": "Point", "coordinates": [ 129.316696, 35.495049, 2650.0 ] } },
{ "type": "Feature", "properties": { "value": 0.029 }, "geometry": { "type": "Point", "coordinates": [ 129.317795, 35.495045, 2650.0 ] } },
{ "type": "Feature", "properties": { "value": 0.036 }, "geometry": { "type": "Point", "coordinates": [ 129.318893, 35.495045, 2650.0 ] } },
{ "type": "Feature", "properties": { "value": 0.0437 }, "geometry": { "type": "Point", "coordinates": [ 129.319992, 35.495041, 2650.0 ] } },
{ "type": "Feature", "properties": { "value": 0.0517 }, "geometry": { "type": "Point", "coordinates": [ 129.321091, 35.495037, 2650.0 ] } },
{ "type": "Feature", "properties": { "value": 0.0597 }, "geometry": { "type": "Point", "coordinates": [ 129.322205, 35.495033, 2650.0 ] } },
{ "type": "Feature", "properties": { "value": 0.0674 }, "geometry": { "type": "Point", "coordinates": [ 129.323303, 35.495033, 2650.0 ] } },
{ "type": "Feature", "properties": { "value": 0.0744 }, "geometry": { "type": "Point", "coordinates": [ 129.324402, 35.495029, 2650.0 ] } },
{ "type": "Feature", "properties": { "value": 0.0801 }, "geometry": { "type": "Point", "coordinates": [ 129.3255, 35.495026, 2650.0 ] } },
{ "type": "Feature", "properties": { "value": 0.0843 }, "geometry": { "type": "Point", "coordinates": [ 129.326614, 35.495022, 2650.0 ] } },
{ "type": "Feature", "properties": { "value": 0.0866 }, "geometry": { "type": "Point", "coordinates": [ 129.327713, 35.495022, 2650.0 ] } },
{ "type": "Feature", "properties": { "value": 0.0869 }, "geometry": { "type": "Point", "coordinates": [ 129.328812, 35.495018, 2650.0 ] } },
{ "type": "Feature", "properties": { "value": 0.0852 }, "geometry": { "type": "Point", "coordinates": [ 129.32991, 35.495014, 2650.0 ] } },
{ "type": "Feature", "properties": { "value": 0.0816 }, "geometry": { "type": "Point", "coordinates": [ 129.331009, 35.49501, 2650.0 ] } },
{ "type": "Feature", "properties": { "value": 0.0763 }, "geometry": { "type": "Point", "coordinates": [ 129.332123, 35.495007, 2650.0 ] } },
{ "type": "Feature", "properties": { "value": 0.0697 }, "geometry": { "type": "Point", "coordinates": [ 129.333221, 35.495007, 2650.0 ] } },
{ "type": "Feature", "properties": { "value": 0.0622 }, "geometry": { "type": "Point", "coordinates": [ 129.33432, 35.495003, 2650.0 ] } },
{ "type": "Feature", "properties": { "value": 0.0542 }, "geometry": { "type": "Point", "coordinates": [ 129.335419, 35.494999, 2650.0 ] } },
{ "type": "Feature", "properties": { "value": 0.0461 }, "geometry": { "type": "Point", "coordinates": [ 129.336533, 35.494995, 2650.0 ] } },
{ "type": "Feature", "properties": { "value": 0.0383 }, "geometry": { "type": "Point", "coordinates": [ 129.337631, 35.494991, 2650.0 ] } },
{ "type": "Feature", "properties": { "value": 0.0311 }, "geometry": { "type": "Point", "coordinates": [ 129.33873, 35.494991, 2650.0 ] } },
{ "type": "Feature", "properties": { "value": 0.0247 }, "geometry": { "type": "Point", "coordinates": [ 129.339828, 35.494987, 2650.0 ] } },
{ "type": "Feature", "properties": { "value": 0.0191 }, "geometry": { "type": "Point", "coordinates": [ 129.340942, 35.494984, 2650.0 ] } },
{ "type": "Feature", "properties": { "value": 0.0145 }, "geometry": { "type": "Point", "coordinates": [ 129.342041, 35.49498, 2650.0 ] } },
{ "type": "Feature", "properties": { "value": 0.0107 }, "geometry": { "type": "Point", "coordinates": [ 129.34314, 35.494976, 2650.0 ] } },
{ "type": "Feature", "properties": { "value": 0.0077 }, "geometry": { "type": "Point", "coordinates": [ 129.344238, 35.494972, 2650.0 ] } },
{ "type": "Feature", "properties": { "value": 0.0054 }, "geometry": { "type": "Point", "coordinates": [ 129.345337, 35.494972, 2650.0 ] } },
{ "type": "Feature", "properties": { "value": 0.0037 }, "geometry": { "type": "Point", "coordinates": [ 129.346451, 35.494968, 2650.0 ] } },
{ "type": "Feature", "properties": { "value": 0.0025 }, "geometry": { "type": "Point", "coordinates": [ 129.347549, 35.494965, 2650.0 ] } },
{ "type": "Feature", "properties": { "value": 0.0015 }, "geometry": { "type": "Point", "coordinates": [ 129.348648, 35.494961, 2650.0 ] } },
{ "type": "Feature", "properties": { "value": 0.0011 }, "geometry": { "type": "Point", "coordinates": [ 129.307877, 35.495972, 2650.0 ] } },
{ "type": "Feature", "properties": { "value": 0.0026 }, "geometry": { "type": "Point", "coordinates": [ 129.308975, 35.495972, 2650.0 ] } },
{ "type": "Feature", "properties": { "value": 0.0039 }, "geometry": { "type": "Point", "coordinates": [ 129.310074, 35.495968, 2650.0 ] } },
{ "type": "Feature", "properties": { "value": 0.0056 }, "geometry": { "type": "Point", "coordinates": [ 129.311188, 35.495964, 2650.0 ] } },
{ "type": "Feature", "properties": { "value": 0.0081 }, "geometry": { "type": "Point", "coordinates": [ 129.312286, 35.495964, 2650.0 ] } },
{ "type": "Feature", "properties": { "value": 0.0113 }, "geometry": { "type": "Point", "coordinates": [ 129.313385, 35.49596, 2650.0 ] } },
{ "type": "Feature", "properties": { "value": 0.0154 }, "geometry": { "type": "Point", "coordinates": [ 129.314484, 35.495956, 2650.0 ] } },
{ "type": "Feature", "properties": { "value": 0.0204 }, "geometry": { "type": "Point", "coordinates": [ 129.315598, 35.495953, 2650.0 ] } },
{ "type": "Feature", "properties": { "value": 0.0266 }, "geometry": { "type": "Point", "coordinates": [ 129.316696, 35.495949, 2650.0 ] } },
{ "type": "Feature", "properties": { "value": 0.0338 }, "geometry": { "type": "Point", "coordinates": [ 129.317795, 35.495949, 2650.0 ] } },
{ "type": "Feature", "properties": { "value": 0.0419 }, "geometry": { "type": "Point", "coordinates": [ 129.318893, 35.495945, 2650.0 ] } },
{ "type": "Feature", "properties": { "value": 0.0507 }, "geometry": { "type": "Point", "coordinates": [ 129.319992, 35.495941, 2650.0 ] } },
{ "type": "Feature", "properties": { "value": 0.0601 }, "geometry": { "type": "Point", "coordinates": [ 129.321106, 35.495937, 2650.0 ] } },
{ "type": "Feature", "properties": { "value": 0.0694 }, "geometry": { "type": "Point", "coordinates": [ 129.322205, 35.495937, 2650.0 ] } },
{ "type": "Feature", "properties": { "value": 0.0784 }, "geometry": { "type": "Point", "coordinates": [ 129.323303, 35.495934, 2650.0 ] } },
{ "type": "Feature", "properties": { "value": 0.0864 }, "geometry": { "type": "Point", "coordinates": [ 129.324402, 35.49593, 2650.0 ] } },
{ "type": "Feature", "properties": { "value": 0.0931 }, "geometry": { "type": "Point", "coordinates": [ 129.325516, 35.495926, 2650.0 ] } },
{ "type": "Feature", "properties": { "value": 0.0979 }, "geometry": { "type": "Point", "coordinates": [ 129.326614, 35.495926, 2650.0 ] } },
{ "type": "Feature", "properties": { "value": 0.1006 }, "geometry": { "type": "Point", "coordinates": [ 129.327713, 35.495922, 2650.0 ] } },
{ "type": "Feature", "properties": { "value": 0.101 }, "geometry": { "type": "Point", "coordinates": [ 129.328812, 35.495918, 2650.0 ] } },
{ "type": "Feature", "properties": { "value": 0.099 }, "geometry": { "type": "Point", "coordinates": [ 129.329926, 35.495914, 2650.0 ] } },
{ "type": "Feature", "properties": { "value": 0.0948 }, "geometry": { "type": "Point", "coordinates": [ 129.331024, 35.495911, 2650.0 ] } },
{ "type": "Feature", "properties": { "value": 0.0887 }, "geometry": { "type": "Point", "coordinates": [ 129.332123, 35.495911, 2650.0 ] } },
{ "type": "Feature", "properties": { "value": 0.081 }, "geometry": { "type": "Point", "coordinates": [ 129.333221, 35.495907, 2650.0 ] } },
{ "type": "Feature", "properties": { "value": 0.0722 }, "geometry": { "type": "Point", "coordinates": [ 129.33432, 35.495903, 2650.0 ] } },
{ "type": "Feature", "properties": { "value": 0.0629 }, "geometry": { "type": "Point", "coordinates": [ 129.335434, 35.495899, 2650.0 ] } },
{ "type": "Feature", "properties": { "value": 0.0536 }, "geometry": { "type": "Point", "coordinates": [ 129.336533, 35.495895, 2650.0 ] } },
{ "type": "Feature", "properties": { "value": 0.0445 }, "geometry": { "type": "Point", "coordinates": [ 129.337631, 35.495895, 2650.0 ] } },
{ "type": "Feature", "properties": { "value": 0.0361 }, "geometry": { "type": "Point", "coordinates": [ 129.33873, 35.495892, 2650.0 ] } },
{ "type": "Feature", "properties": { "value": 0.0287 }, "geometry": { "type": "Point", "coordinates": [ 129.339844, 35.495888, 2650.0 ] } },
{ "type": "Feature", "properties": { "value": 0.0222 }, "geometry": { "type": "Point", "coordinates": [ 129.340942, 35.495884, 2650.0 ] } },
{ "type": "Feature", "properties": { "value": 0.0168 }, "geometry": { "type": "Point", "coordinates": [ 129.342041, 35.49588, 2650.0 ] } },
{ "type": "Feature", "properties": { "value": 0.0124 }, "geometry": { "type": "Point", "coordinates": [ 129.34314, 35.49588, 2650.0 ] } },
{ "type": "Feature", "properties": { "value": 0.009 }, "geometry": { "type": "Point", "coordinates": [ 129.344238, 35.495876, 2650.0 ] } },
{ "type": "Feature", "properties": { "value": 0.0063 }, "geometry": { "type": "Point", "coordinates": [ 129.345352, 35.495872, 2650.0 ] } },
{ "type": "Feature", "properties": { "value": 0.0043 }, "geometry": { "type": "Point", "coordinates": [ 129.346451, 35.495869, 2650.0 ] } },
{ "type": "Feature", "properties": { "value": 0.0029 }, "geometry": { "type": "Point", "coordinates": [ 129.347549, 35.495865, 2650.0 ] } },
{ "type": "Feature", "properties": { "value": 0.0019 }, "geometry": { "type": "Point", "coordinates": [ 129.348648, 35.495861, 2650.0 ] } },
{ "type": "Feature", "properties": { "value": 0.0019 }, "geometry": { "type": "Point", "coordinates": [ 129.307877, 35.496876, 2650.0 ] } },
{ "type": "Feature", "properties": { "value": 0.0029 }, "geometry": { "type": "Point", "coordinates": [ 129.308975, 35.496872, 2650.0 ] } },
{ "type": "Feature", "properties": { "value": 0.0044 }, "geometry": { "type": "Point", "coordinates": [ 129.310089, 35.496868, 2650.0 ] } },
{ "type": "Feature", "properties": { "value": 0.0064 }, "geometry": { "type": "Point", "coordinates": [ 129.311188, 35.496868, 2650.0 ] } },
{ "type": "Feature", "properties": { "value": 0.0092 }, "geometry": { "type": "Point", "coordinates": [ 129.312286, 35.496864, 2650.0 ] } },
{ "type": "Feature", "properties": { "value": 0.0128 }, "geometry": { "type": "Point", "coordinates": [ 129.313385, 35.496861, 2650.0 ] } },
{ "type": "Feature", "properties": { "value": 0.0174 }, "geometry": { "type": "Point", "coordinates": [ 129.314499, 35.496857, 2650.0 ] } },
{ "type": "Feature", "properties": { "value": 0.0232 }, "geometry": { "type": "Point", "coordinates": [ 129.315598, 35.496857, 2650.0 ] } },
{ "type": "Feature", "properties": { "value": 0.0302 }, "geometry": { "type": "Point", "coordinates": [ 129.316696, 35.496853, 2650.0 ] } },
{ "type": "Feature", "properties": { "value": 0.0383 }, "geometry": { "type": "Point", "coordinates": [ 129.317795, 35.496849, 2650.0 ] } },
{ "type": "Feature", "properties": { "value": 0.0475 }, "geometry": { "type": "Point", "coordinates": [ 129.318893, 35.496845, 2650.0 ] } },
{ "type": "Feature", "properties": { "value": 0.0576 }, "geometry": { "type": "Point", "coordinates": [ 129.320007, 35.496841, 2650.0 ] } },
{ "type": "Feature", "properties": { "value": 0.0682 }, "geometry": { "type": "Point", "coordinates": [ 129.321106, 35.496841, 2650.0 ] } },
{ "type": "Feature", "properties": { "value": 0.0788 }, "geometry": { "type": "Point", "coordinates": [ 129.322205, 35.496838, 2650.0 ] } },
{ "type": "Feature", "properties": { "value": 0.089 }, "geometry": { "type": "Point", "coordinates": [ 129.323303, 35.496834, 2650.0 ] } },
{ "type": "Feature", "properties": { "value": 0.0981 }, "geometry": { "type": "Point", "coordinates": [ 129.324417, 35.49683, 2650.0 ] } },
{ "type": "Feature", "properties": { "value": 0.1057 }, "geometry": { "type": "Point", "coordinates": [ 129.325516, 35.49683, 2650.0 ] } },
{ "type": "Feature", "properties": { "value": 0.1112 }, "geometry": { "type": "Point", "coordinates": [ 129.326614, 35.496826, 2650.0 ] } },
{ "type": "Feature", "properties": { "value": 0.1142 }, "geometry": { "type": "Point", "coordinates": [ 129.327713, 35.496822, 2650.0 ] } },
{ "type": "Feature", "properties": { "value": 0.1147 }, "geometry": { "type": "Point", "coordinates": [ 129.328827, 35.496819, 2650.0 ] } },
{ "type": "Feature", "properties": { "value": 0.1124 }, "geometry": { "type": "Point", "coordinates": [ 129.329926, 35.496815, 2650.0 ] } },
{ "type": "Feature", "properties": { "value": 0.1076 }, "geometry": { "type": "Point", "coordinates": [ 129.331024, 35.496815, 2650.0 ] } },
{ "type": "Feature", "properties": { "value": 0.1006 }, "geometry": { "type": "Point", "coordinates": [ 129.332123, 35.496811, 2650.0 ] } },
{ "type": "Feature", "properties": { "value": 0.0919 }, "geometry": { "type": "Point", "coordinates": [ 129.333221, 35.496807, 2650.0 ] } },
{ "type": "Feature", "properties": { "value": 0.082 }, "geometry": { "type": "Point", "coordinates": [ 129.334335, 35.496803, 2650.0 ] } },
{ "type": "Feature", "properties": { "value": 0.0714 }, "geometry": { "type": "Point", "coordinates": [ 129.335434, 35.496799, 2650.0 ] } },
{ "type": "Feature", "properties": { "value": 0.0608 }, "geometry": { "type": "Point", "coordinates": [ 129.336533, 35.496799, 2650.0 ] } },
{ "type": "Feature", "properties": { "value": 0.0505 }, "geometry": { "type": "Point", "coordinates": [ 129.337631, 35.496796, 2650.0 ] } },
{ "type": "Feature", "properties": { "value": 0.041 }, "geometry": { "type": "Point", "coordinates": [ 129.338745, 35.496792, 2650.0 ] } },
{ "type": "Feature", "properties": { "value": 0.0325 }, "geometry": { "type": "Point", "coordinates": [ 129.339844, 35.496788, 2650.0 ] } },
{ "type": "Feature", "properties": { "value": 0.0252 }, "geometry": { "type": "Point", "coordinates": [ 129.340942, 35.496784, 2650.0 ] } },
{ "type": "Feature", "properties": { "value": 0.0191 }, "geometry": { "type": "Point", "coordinates": [ 129.342041, 35.496784, 2650.0 ] } },
{ "type": "Feature", "properties": { "value": 0.0141 }, "geometry": { "type": "Point", "coordinates": [ 129.34314, 35.49678, 2650.0 ] } },
{ "type": "Feature", "properties": { "value": 0.0102 }, "geometry": { "type": "Point", "coordinates": [ 129.344254, 35.496777, 2650.0 ] } },
{ "type": "Feature", "properties": { "value": 0.0072 }, "geometry": { "type": "Point", "coordinates": [ 129.345352, 35.496773, 2650.0 ] } },
{ "type": "Feature", "properties": { "value": 0.0049 }, "geometry": { "type": "Point", "coordinates": [ 129.346451, 35.496769, 2650.0 ] } },
{ "type": "Feature", "properties": { "value": 0.0033 }, "geometry": { "type": "Point", "coordinates": [ 129.347549, 35.496765, 2650.0 ] } },
{ "type": "Feature", "properties": { "value": 0.0022 }, "geometry": { "type": "Point", "coordinates": [ 129.348663, 35.496765, 2650.0 ] } },
{ "type": "Feature", "properties": { "value": 0.0021 }, "geometry": { "type": "Point", "coordinates": [ 129.307877, 35.497776, 2650.0 ] } },
{ "type": "Feature", "properties": { "value": 0.0033 }, "geometry": { "type": "Point", "coordinates": [ 129.30899, 35.497772, 2650.0 ] } },
{ "type": "Feature", "properties": { "value": 0.0049 }, "geometry": { "type": "Point", "coordinates": [ 129.310089, 35.497772, 2650.0 ] } },
{ "type": "Feature", "properties": { "value": 0.0071 }, "geometry": { "type": "Point", "coordinates": [ 129.311188, 35.497768, 2650.0 ] } },
{ "type": "Feature", "properties": { "value": 0.0102 }, "geometry": { "type": "Point", "coordinates": [ 129.312286, 35.497765, 2650.0 ] } },
{ "type": "Feature", "properties": { "value": 0.0142 }, "geometry": { "type": "Point", "coordinates": [ 129.3134, 35.497761, 2650.0 ] } },
{ "type": "Feature", "properties": { "value": 0.0193 }, "geometry": { "type": "Point", "coordinates": [ 129.314499, 35.497761, 2650.0 ] } },
{ "type": "Feature", "properties": { "value": 0.0257 }, "geometry": { "type": "Point", "coordinates": [ 129.315598, 35.497757, 2650.0 ] } },
{ "type": "Feature", "properties": { "value": 0.0335 }, "geometry": { "type": "Point", "coordinates": [ 129.316696, 35.497753, 2650.0 ] } },
{ "type": "Feature", "properties": { "value": 0.0425 }, "geometry": { "type": "Point", "coordinates": [ 129.317795, 35.497749, 2650.0 ] } },
{ "type": "Feature", "properties": { "value": 0.0527 }, "geometry": { "type": "Point", "coordinates": [ 129.318909, 35.497749, 2650.0 ] } },
{ "type": "Feature", "properties": { "value": 0.0639 }, "geometry": { "type": "Point", "coordinates": [ 129.320007, 35.497746, 2650.0 ] } },
{ "type": "Feature", "properties": { "value": 0.0756 }, "geometry": { "type": "Point", "coordinates": [ 129.321106, 35.497742, 2650.0 ] } },
{ "type": "Feature", "properties": { "value": 0.0874 }, "geometry": { "type": "Point", "coordinates": [ 129.322205, 35.497738, 2650.0 ] } },
{ "type": "Feature", "properties": { "value": 0.0987 }, "geometry": { "type": "Point", "coordinates": [ 129.323318, 35.497734, 2650.0 ] } },
{ "type": "Feature", "properties": { "value": 0.1088 }, "geometry": { "type": "Point", "coordinates": [ 129.324417, 35.497734, 2650.0 ] } },
{ "type": "Feature", "properties": { "value": 0.1172 }, "geometry": { "type": "Point", "coordinates": [ 129.325516, 35.49773, 2650.0 ] } },
{ "type": "Feature", "properties": { "value": 0.1233 }, "geometry": { "type": "Point", "coordinates": [ 129.326614, 35.497726, 2650.0 ] } },
{ "type": "Feature", "properties": { "value": 0.1267 }, "geometry": { "type": "Point", "coordinates": [ 129.327728, 35.497723, 2650.0 ] } },
{ "type": "Feature", "properties": { "value": 0.1271 }, "geometry": { "type": "Point", "coordinates": [ 129.328827, 35.497723, 2650.0 ] } },
{ "type": "Feature", "properties": { "value": 0.1246 }, "geometry": { "type": "Point", "coordinates": [ 129.329926, 35.497719, 2650.0 ] } },
{ "type": "Feature", "properties": { "value": 0.1193 }, "geometry": { "type": "Point", "coordinates": [ 129.331024, 35.497715, 2650.0 ] } },
{ "type": "Feature", "properties": { "value": 0.1116 }, "geometry": { "type": "Point", "coordinates": [ 129.332123, 35.497711, 2650.0 ] } },
{ "type": "Feature", "properties": { "value": 0.1019 }, "geometry": { "type": "Point", "coordinates": [ 129.333237, 35.497707, 2650.0 ] } },
{ "type": "Feature", "properties": { "value": 0.0909 }, "geometry": { "type": "Point", "coordinates": [ 129.334335, 35.497707, 2650.0 ] } },
{ "type": "Feature", "properties": { "value": 0.0792 }, "geometry": { "type": "Point", "coordinates": [ 129.335434, 35.497704, 2650.0 ] } },
{ "type": "Feature", "properties": { "value": 0.0674 }, "geometry": { "type": "Point", "coordinates": [ 129.336533, 35.4977, 2650.0 ] } },
{ "type": "Feature", "properties": { "value": 0.056 }, "geometry": { "type": "Point", "coordinates": [ 129.337646, 35.497696, 2650.0 ] } },
{ "type": "Feature", "properties": { "value": 0.0455 }, "geometry": { "type": "Point", "coordinates": [ 129.338745, 35.497692, 2650.0 ] } },
{ "type": "Feature", "properties": { "value": 0.0361 }, "geometry": { "type": "Point", "coordinates": [ 129.339844, 35.497692, 2650.0 ] } },
{ "type": "Feature", "properties": { "value": 0.028 }, "geometry": { "type": "Point", "coordinates": [ 129.340942, 35.497688, 2650.0 ] } },
{ "type": "Feature", "properties": { "value": 0.0212 }, "geometry": { "type": "Point", "coordinates": [ 129.342041, 35.497684, 2650.0 ] } },
{ "type": "Feature", "properties": { "value": 0.0156 }, "geometry": { "type": "Point", "coordinates": [ 129.343155, 35.497681, 2650.0 ] } },
{ "type": "Feature", "properties": { "value": 0.0113 }, "geometry": { "type": "Point", "coordinates": [ 129.344254, 35.497677, 2650.0 ] } },
{ "type": "Feature", "properties": { "value": 0.008 }, "geometry": { "type": "Point", "coordinates": [ 129.345352, 35.497673, 2650.0 ] } },
{ "type": "Feature", "properties": { "value": 0.0055 }, "geometry": { "type": "Point", "coordinates": [ 129.346451, 35.497673, 2650.0 ] } },
{ "type": "Feature", "properties": { "value": 0.0037 }, "geometry": { "type": "Point", "coordinates": [ 129.347565, 35.497669, 2650.0 ] } },
{ "type": "Feature", "properties": { "value": 0.0024 }, "geometry": { "type": "Point", "coordinates": [ 129.348663, 35.497665, 2650.0 ] } },
{ "type": "Feature", "properties": { "value": 0.0023 }, "geometry": { "type": "Point", "coordinates": [ 129.307892, 35.498676, 2650.0 ] } },
{ "type": "Feature", "properties": { "value": 0.0035 }, "geometry": { "type": "Point", "coordinates": [ 129.30899, 35.498676, 2650.0 ] } },
{ "type": "Feature", "properties": { "value": 0.0053 }, "geometry": { "type": "Point", "coordinates": [ 129.310089, 35.498672, 2650.0 ] } },
{ "type": "Feature", "properties": { "value": 0.0077 }, "geometry": { "type": "Point", "coordinates": [ 129.311188, 35.498669, 2650.0 ] } },
{ "type": "Feature", "properties": { "value": 0.011 }, "geometry": { "type": "Point", "coordinates": [ 129.312302, 35.498665, 2650.0 ] } },
{ "type": "Feature", "properties": { "value": 0.0154 }, "geometry": { "type": "Point", "coordinates": [ 129.3134, 35.498665, 2650.0 ] } },
{ "type": "Feature", "properties": { "value": 0.0209 }, "geometry": { "type": "Point", "coordinates": [ 129.314499, 35.498661, 2650.0 ] } },
{ "type": "Feature", "properties": { "value": 0.0279 }, "geometry": { "type": "Point", "coordinates": [ 129.315598, 35.498657, 2650.0 ] } },
{ "type": "Feature", "properties": { "value": 0.0363 }, "geometry": { "type": "Point", "coordinates": [ 129.316696, 35.498653, 2650.0 ] } },
{ "type": "Feature", "properties": { "value": 0.046 }, "geometry": { "type": "Point", "coordinates": [ 129.31781, 35.498653, 2650.0 ] } },
{ "type": "Feature", "properties": { "value": 0.0571 }, "geometry": { "type": "Point", "coordinates": [ 129.318909, 35.49865, 2650.0 ] } },
{ "type": "Feature", "properties": { "value": 0.0692 }, "geometry": { "type": "Point", "coordinates": [ 129.320007, 35.498646, 2650.0 ] } },
{ "type": "Feature", "properties": { "value": 0.0819 }, "geometry": { "type": "Point", "coordinates": [ 129.321106, 35.498642, 2650.0 ] } },
{ "type": "Feature", "properties": { "value": 0.0947 }, "geometry": { "type": "Point", "coordinates": [ 129.32222, 35.498638, 2650.0 ] } },
{ "type": "Feature", "properties": { "value": 0.1069 }, "geometry": { "type": "Point", "coordinates": [ 129.323318, 35.498638, 2650.0 ] } },
{ "type": "Feature", "properties": { "value": 0.1178 }, "geometry": { "type": "Point", "coordinates": [ 129.324417, 35.498634, 2650.0 ] } },
{ "type": "Feature", "properties": { "value": 0.1269 }, "geometry": { "type": "Point", "coordinates": [ 129.325516, 35.498631, 2650.0 ] } },
{ "type": "Feature", "properties": { "value": 0.1335 }, "geometry": { "type": "Point", "coordinates": [ 129.32663, 35.498627, 2650.0 ] } },
{ "type": "Feature", "properties": { "value": 0.1372 }, "geometry": { "type": "Point", "coordinates": [ 129.327728, 35.498627, 2650.0 ] } },
{ "type": "Feature", "properties": { "value": 0.1377 }, "geometry": { "type": "Point", "coordinates": [ 129.328827, 35.498623, 2650.0 ] } },
{ "type": "Feature", "properties": { "value": 0.135 }, "geometry": { "type": "Point", "coordinates": [ 129.329926, 35.498619, 2650.0 ] } },
{ "type": "Feature", "properties": { "value": 0.1292 }, "geometry": { "type": "Point", "coordinates": [ 129.331024, 35.498615, 2650.0 ] } },
{ "type": "Feature", "properties": { "value": 0.1208 }, "geometry": { "type": "Point", "coordinates": [ 129.332138, 35.498611, 2650.0 ] } },
{ "type": "Feature", "properties": { "value": 0.1104 }, "geometry": { "type": "Point", "coordinates": [ 129.333237, 35.498611, 2650.0 ] } },
{ "type": "Feature", "properties": { "value": 0.0985 }, "geometry": { "type": "Point", "coordinates": [ 129.334335, 35.498608, 2650.0 ] } },
{ "type": "Feature", "properties": { "value": 0.0858 }, "geometry": { "type": "Point", "coordinates": [ 129.335434, 35.498604, 2650.0 ] } },
{ "type": "Feature", "properties": { "value": 0.073 }, "geometry": { "type": "Point", "coordinates": [ 129.336548, 35.4986, 2650.0 ] } },
{ "type": "Feature", "properties": { "value": 0.0607 }, "geometry": { "type": "Point", "coordinates": [ 129.337646, 35.498596, 2650.0 ] } },
{ "type": "Feature", "properties": { "value": 0.0493 }, "geometry": { "type": "Point", "coordinates": [ 129.338745, 35.498596, 2650.0 ] } },
{ "type": "Feature", "properties": { "value": 0.0391 }, "geometry": { "type": "Point", "coordinates": [ 129.339844, 35.498592, 2650.0 ] } },
{ "type": "Feature", "properties": { "value": 0.0303 }, "geometry": { "type": "Point", "coordinates": [ 129.340958, 35.498589, 2650.0 ] } },
{ "type": "Feature", "properties": { "value": 0.0229 }, "geometry": { "type": "Point", "coordinates": [ 129.342056, 35.498585, 2650.0 ] } },
{ "type": "Feature", "properties": { "value": 0.0169 }, "geometry": { "type": "Point", "coordinates": [ 129.343155, 35.498581, 2650.0 ] } },
{ "type": "Feature", "properties": { "value": 0.0122 }, "geometry": { "type": "Point", "coordinates": [ 129.344254, 35.498581, 2650.0 ] } },
{ "type": "Feature", "properties": { "value": 0.0086 }, "geometry": { "type": "Point", "coordinates": [ 129.345352, 35.498577, 2650.0 ] } },
{ "type": "Feature", "properties": { "value": 0.0059 }, "geometry": { "type": "Point", "coordinates": [ 129.346466, 35.498573, 2650.0 ] } },
{ "type": "Feature", "properties": { "value": 0.004 }, "geometry": { "type": "Point", "coordinates": [ 129.347565, 35.498569, 2650.0 ] } },
{ "type": "Feature", "properties": { "value": 0.0026 }, "geometry": { "type": "Point", "coordinates": [ 129.348663, 35.498566, 2650.0 ] } },
{ "type": "Feature", "properties": { "value": 0.0011 }, "geometry": { "type": "Point", "coordinates": [ 129.349762, 35.498562, 2650.0 ] } },
{ "type": "Feature", "properties": { "value": 0.0002 }, "geometry": { "type": "Point", "coordinates": [ 129.306793, 35.49958, 2650.0 ] } },
{ "type": "Feature", "properties": { "value": 0.0025 }, "geometry": { "type": "Point", "coordinates": [ 129.307892, 35.49958, 2650.0 ] } },
{ "type": "Feature", "properties": { "value": 0.0038 }, "geometry": { "type": "Point", "coordinates": [ 129.30899, 35.499577, 2650.0 ] } },
{ "type": "Feature", "properties": { "value": 0.0057 }, "geometry": { "type": "Point", "coordinates": [ 129.310089, 35.499573, 2650.0 ] } },
{ "type": "Feature", "properties": { "value": 0.0083 }, "geometry": { "type": "Point", "coordinates": [ 129.311203, 35.499569, 2650.0 ] } },
{ "type": "Feature", "properties": { "value": 0.0118 }, "geometry": { "type": "Point", "coordinates": [ 129.312302, 35.499569, 2650.0 ] } },
{ "type": "Feature", "properties": { "value": 0.0164 }, "geometry": { "type": "Point", "coordinates": [ 129.3134, 35.499565, 2650.0 ] } },
{ "type": "Feature", "properties": { "value": 0.0222 }, "geometry": { "type": "Point", "coordinates": [ 129.314499, 35.499561, 2650.0 ] } },
{ "type": "Feature", "properties": { "value": 0.0296 }, "geometry": { "type": "Point", "coordinates": [ 129.315598, 35.499557, 2650.0 ] } },
{ "type": "Feature", "properties": { "value": 0.0384 }, "geometry": { "type": "Point", "coordinates": [ 129.316711, 35.499557, 2650.0 ] } },
{ "type": "Feature", "properties": { "value": 0.0487 }, "geometry": { "type": "Point", "coordinates": [ 129.31781, 35.499554, 2650.0 ] } },
{ "type": "Feature", "properties": { "value": 0.0604 }, "geometry": { "type": "Point", "coordinates": [ 129.318909, 35.49955, 2650.0 ] } },
{ "type": "Feature", "properties": { "value": 0.0732 }, "geometry": { "type": "Point", "coordinates": [ 129.320007, 35.499546, 2650.0 ] } },
{ "type": "Feature", "properties": { "value": 0.0866 }, "geometry": { "type": "Point", "coordinates": [ 129.321121, 35.499546, 2650.0 ] } },
{ "type": "Feature", "properties": { "value": 0.1002 }, "geometry": { "type": "Point", "coordinates": [ 129.32222, 35.499542, 2650.0 ] } },
{ "type": "Feature", "properties": { "value": 0.1131 }, "geometry": { "type": "Point", "coordinates": [ 129.323318, 35.499538, 2650.0 ] } },
{ "type": "Feature", "properties": { "value": 0.1247 }, "geometry": { "type": "Point", "coordinates": [ 129.324417, 35.499535, 2650.0 ] } },
{ "type": "Feature", "properties": { "value": 0.1343 }, "geometry": { "type": "Point", "coordinates": [ 129.325531, 35.499531, 2650.0 ] } },
{ "type": "Feature", "properties": { "value": 0.1413 }, "geometry": { "type": "Point", "coordinates": [ 129.32663, 35.499531, 2650.0 ] } },
{ "type": "Feature", "properties": { "value": 0.1452 }, "geometry": { "type": "Point", "coordinates": [ 129.327728, 35.499527, 2650.0 ] } },
{ "type": "Feature", "properties": { "value": 0.1457 }, "geometry": { "type": "Point", "coordinates": [ 129.328827, 35.499523, 2650.0 ] } },
{ "type": "Feature", "properties": { "value": 0.1428 }, "geometry": { "type": "Point", "coordinates": [ 129.329926, 35.499519, 2650.0 ] } },
{ "type": "Feature", "properties": { "value": 0.1367 }, "geometry": { "type": "Point", "coordinates": [ 129.331039, 35.499516, 2650.0 ] } },
{ "type": "Feature", "properties": { "value": 0.1279 }, "geometry": { "type": "Point", "coordinates": [ 129.332138, 35.499516, 2650.0 ] } },
{ "type": "Feature", "properties": { "value": 0.1168 }, "geometry": { "type": "Point", "coordinates": [ 129.333237, 35.499512, 2650.0 ] } },
{ "type": "Feature", "properties": { "value": 0.1042 }, "geometry": { "type": "Point", "coordinates": [ 129.334335, 35.499508, 2650.0 ] } },
{ "type": "Feature", "properties": { "value": 0.0908 }, "geometry": { "type": "Point", "coordinates": [ 129.335449, 35.499504, 2650.0 ] } },
{ "type": "Feature", "properties": { "value": 0.0773 }, "geometry": { "type": "Point", "coordinates": [ 129.336548, 35.4995, 2650.0 ] } },
{ "type": "Feature", "properties": { "value": 0.0642 }, "geometry": { "type": "Point", "coordinates": [ 129.337646, 35.4995, 2650.0 ] } },
{ "type": "Feature", "properties": { "value": 0.0522 }, "geometry": { "type": "Point", "coordinates": [ 129.338745, 35.499496, 2650.0 ] } },
{ "type": "Feature", "properties": { "value": 0.0414 }, "geometry": { "type": "Point", "coordinates": [ 129.339859, 35.499493, 2650.0 ] } },
{ "type": "Feature", "properties": { "value": 0.032 }, "geometry": { "type": "Point", "coordinates": [ 129.340958, 35.499489, 2650.0 ] } },
{ "type": "Feature", "properties": { "value": 0.0242 }, "geometry": { "type": "Point", "coordinates": [ 129.342056, 35.499485, 2650.0 ] } },
{ "type": "Feature", "properties": { "value": 0.0179 }, "geometry": { "type": "Point", "coordinates": [ 129.343155, 35.499485, 2650.0 ] } },
{ "type": "Feature", "properties": { "value": 0.0129 }, "geometry": { "type": "Point", "coordinates": [ 129.344254, 35.499481, 2650.0 ] } },
{ "type": "Feature", "properties": { "value": 0.0091 }, "geometry": { "type": "Point", "coordinates": [ 129.345367, 35.499477, 2650.0 ] } },
{ "type": "Feature", "properties": { "value": 0.0063 }, "geometry": { "type": "Point", "coordinates": [ 129.346466, 35.499474, 2650.0 ] } },
{ "type": "Feature", "properties": { "value": 0.0042 }, "geometry": { "type": "Point", "coordinates": [ 129.347565, 35.49947, 2650.0 ] } },
{ "type": "Feature", "properties": { "value": 0.0028 }, "geometry": { "type": "Point", "coordinates": [ 129.348663, 35.499466, 2650.0 ] } },
{ "type": "Feature", "properties": { "value": 0.0018 }, "geometry": { "type": "Point", "coordinates": [ 129.349777, 35.499466, 2650.0 ] } },
{ "type": "Feature", "properties": { "value": 0.0009 }, "geometry": { "type": "Point", "coordinates": [ 129.306793, 35.500484, 2650.0 ] } },
{ "type": "Feature", "properties": { "value": 0.0026 }, "geometry": { "type": "Point", "coordinates": [ 129.307892, 35.500481, 2650.0 ] } },
{ "type": "Feature", "properties": { "value": 0.004 }, "geometry": { "type": "Point", "coordinates": [ 129.30899, 35.500477, 2650.0 ] } },
{ "type": "Feature", "properties": { "value": 0.006 }, "geometry": { "type": "Point", "coordinates": [ 129.310104, 35.500473, 2650.0 ] } },
{ "type": "Feature", "properties": { "value": 0.0087 }, "geometry": { "type": "Point", "coordinates": [ 129.311203, 35.500473, 2650.0 ] } },
{ "type": "Feature", "properties": { "value": 0.0123 }, "geometry": { "type": "Point", "coordinates": [ 129.312302, 35.500469, 2650.0 ] } },
{ "type": "Feature", "properties": { "value": 0.0171 }, "geometry": { "type": "Point", "coordinates": [ 129.3134, 35.500465, 2650.0 ] } },
{ "type": "Feature", "properties": { "value": 0.0232 }, "geometry": { "type": "Point", "coordinates": [ 129.314499, 35.500462, 2650.0 ] } },
{ "type": "Feature", "properties": { "value": 0.0307 }, "geometry": { "type": "Point", "coordinates": [ 129.315613, 35.500462, 2650.0 ] } },
{ "type": "Feature", "properties": { "value": 0.0398 }, "geometry": { "type": "Point", "coordinates": [ 129.316711, 35.500458, 2650.0 ] } },
{ "type": "Feature", "properties": { "value": 0.0504 }, "geometry": { "type": "Point", "coordinates": [ 129.31781, 35.500454, 2650.0 ] } },
{ "type": "Feature", "properties": { "value": 0.0624 }, "geometry": { "type": "Point", "coordinates": [ 129.318909, 35.50045, 2650.0 ] } },
{ "type": "Feature", "properties": { "value": 0.0755 }, "geometry": { "type": "Point", "coordinates": [ 129.320023, 35.50045, 2650.0 ] } },
{ "type": "Feature", "properties": { "value": 0.0893 }, "geometry": { "type": "Point", "coordinates": [ 129.321121, 35.500446, 2650.0 ] } },
{ "type": "Feature", "properties": { "value": 0.1032 }, "geometry": { "type": "Point", "coordinates": [ 129.32222, 35.500443, 2650.0 ] } },
{ "type": "Feature", "properties": { "value": 0.1165 }, "geometry": { "type": "Point", "coordinates": [ 129.323318, 35.500439, 2650.0 ] } },
{ "type": "Feature", "properties": { "value": 0.1285 }, "geometry": { "type": "Point", "coordinates": [ 129.324432, 35.500435, 2650.0 ] } },
{ "type": "Feature", "properties": { "value": 0.1385 }, "geometry": { "type": "Point", "coordinates": [ 129.325531, 35.500435, 2650.0 ] } },
{ "type": "Feature", "properties": { "value": 0.1459 }, "geometry": { "type": "Point", "coordinates": [ 129.32663, 35.500431, 2650.0 ] } },
{ "type": "Feature", "properties": { "value": 0.15 }, "geometry": { "type": "Point", "coordinates": [ 129.327728, 35.500427, 2650.0 ] } },
{ "type": "Feature", "properties": { "value": 0.1506 }, "geometry": { "type": "Point", "coordinates": [ 129.328827, 35.500423, 2650.0 ] } },
{ "type": "Feature", "properties": { "value": 0.1476 }, "geometry": { "type": "Point", "coordinates": [ 129.329941, 35.500423, 2650.0 ] } },
{ "type": "Feature", "properties": { "value": 0.1413 }, "geometry": { "type": "Point", "coordinates": [ 129.331039, 35.50042, 2650.0 ] } },
{ "type": "Feature", "properties": { "value": 0.1321 }, "geometry": { "type": "Point", "coordinates": [ 129.332138, 35.500416, 2650.0 ] } },
{ "type": "Feature", "properties": { "value": 0.1207 }, "geometry": { "type": "Point", "coordinates": [ 129.333237, 35.500412, 2650.0 ] } },
{ "type": "Feature", "properties": { "value": 0.1077 }, "geometry": { "type": "Point", "coordinates": [ 129.334351, 35.500408, 2650.0 ] } },
{ "type": "Feature", "properties": { "value": 0.0938 }, "geometry": { "type": "Point", "coordinates": [ 129.335449, 35.500408, 2650.0 ] } },
{ "type": "Feature", "properties": { "value": 0.0799 }, "geometry": { "type": "Point", "coordinates": [ 129.336548, 35.500404, 2650.0 ] } },
{ "type": "Feature", "properties": { "value": 0.0664 }, "geometry": { "type": "Point", "coordinates": [ 129.337646, 35.500401, 2650.0 ] } },
{ "type": "Feature", "properties": { "value": 0.0539 }, "geometry": { "type": "Point", "coordinates": [ 129.33876, 35.500397, 2650.0 ] } },
{ "type": "Feature", "properties": { "value": 0.0428 }, "geometry": { "type": "Point", "coordinates": [ 129.339859, 35.500393, 2650.0 ] } },
{ "type": "Feature", "properties": { "value": 0.0331 }, "geometry": { "type": "Point", "coordinates": [ 129.340958, 35.500393, 2650.0 ] } },
{ "type": "Feature", "properties": { "value": 0.0251 }, "geometry": { "type": "Point", "coordinates": [ 129.342056, 35.500389, 2650.0 ] } },
{ "type": "Feature", "properties": { "value": 0.0185 }, "geometry": { "type": "Point", "coordinates": [ 129.343155, 35.500385, 2650.0 ] } },
{ "type": "Feature", "properties": { "value": 0.0134 }, "geometry": { "type": "Point", "coordinates": [ 129.344269, 35.500381, 2650.0 ] } },
{ "type": "Feature", "properties": { "value": 0.0094 }, "geometry": { "type": "Point", "coordinates": [ 129.345367, 35.500378, 2650.0 ] } },
{ "type": "Feature", "properties": { "value": 0.0065 }, "geometry": { "type": "Point", "coordinates": [ 129.346466, 35.500374, 2650.0 ] } },
{ "type": "Feature", "properties": { "value": 0.0044 }, "geometry": { "type": "Point", "coordinates": [ 129.347565, 35.500374, 2650.0 ] } },
{ "type": "Feature", "properties": { "value": 0.0029 }, "geometry": { "type": "Point", "coordinates": [ 129.348679, 35.50037, 2650.0 ] } },
{ "type": "Feature", "properties": { "value": 0.0018 }, "geometry": { "type": "Point", "coordinates": [ 129.349777, 35.500366, 2650.0 ] } },
{ "type": "Feature", "properties": { "value": 0.0011 }, "geometry": { "type": "Point", "coordinates": [ 129.306793, 35.501385, 2650.0 ] } },
{ "type": "Feature", "properties": { "value": 0.0027 }, "geometry": { "type": "Point", "coordinates": [ 129.307892, 35.501381, 2650.0 ] } },
{ "type": "Feature", "properties": { "value": 0.0041 }, "geometry": { "type": "Point", "coordinates": [ 129.309006, 35.501377, 2650.0 ] } },
{ "type": "Feature", "properties": { "value": 0.006 }, "geometry": { "type": "Point", "coordinates": [ 129.310104, 35.501377, 2650.0 ] } },
{ "type": "Feature", "properties": { "value": 0.0088 }, "geometry": { "type": "Point", "coordinates": [ 129.311203, 35.501373, 2650.0 ] } },
{ "type": "Feature", "properties": { "value": 0.0125 }, "geometry": { "type": "Point", "coordinates": [ 129.312302, 35.501369, 2650.0 ] } },
{ "type": "Feature", "properties": { "value": 0.0173 }, "geometry": { "type": "Point", "coordinates": [ 129.3134, 35.501366, 2650.0 ] } },
{ "type": "Feature", "properties": { "value": 0.0235 }, "geometry": { "type": "Point", "coordinates": [ 129.314514, 35.501366, 2650.0 ] } },
{ "type": "Feature", "properties": { "value": 0.0311 }, "geometry": { "type": "Point", "coordinates": [ 129.315613, 35.501362, 2650.0 ] } },
{ "type": "Feature", "properties": { "value": 0.0403 }, "geometry": { "type": "Point", "coordinates": [ 129.316711, 35.501358, 2650.0 ] } },
{ "type": "Feature", "properties": { "value": 0.0509 }, "geometry": { "type": "Point", "coordinates": [ 129.31781, 35.501354, 2650.0 ] } },
{ "type": "Feature", "properties": { "value": 0.063 }, "geometry": { "type": "Point", "coordinates": [ 129.318924, 35.501354, 2650.0 ] } },
{ "type": "Feature", "properties": { "value": 0.0761 }, "geometry": { "type": "Point", "coordinates": [ 129.320023, 35.50135, 2650.0 ] } },
{ "type": "Feature", "properties": { "value": 0.0898 }, "geometry": { "type": "Point", "coordinates": [ 129.321121, 35.501347, 2650.0 ] } },
{ "type": "Feature", "properties": { "value": 0.1036 }, "geometry": { "type": "Point", "coordinates": [ 129.32222, 35.501343, 2650.0 ] } },
{ "type": "Feature", "properties": { "value": 0.1169 }, "geometry": { "type": "Point", "coordinates": [ 129.323334, 35.501339, 2650.0 ] } },
{ "type": "Feature", "properties": { "value": 0.1288 }, "geometry": { "type": "Point", "coordinates": [ 129.324432, 35.501339, 2650.0 ] } },
{ "type": "Feature", "properties": { "value": 0.1387 }, "geometry": { "type": "Point", "coordinates": [ 129.325531, 35.501335, 2650.0 ] } },
{ "type": "Feature", "properties": { "value": 0.146 }, "geometry": { "type": "Point", "coordinates": [ 129.32663, 35.501331, 2650.0 ] } },
{ "type": "Feature", "properties": { "value": 0.1501 }, "geometry": { "type": "Point", "coordinates": [ 129.327728, 35.501328, 2650.0 ] } },
{ "type": "Feature", "properties": { "value": 0.1508 }, "geometry": { "type": "Point", "coordinates": [ 129.328842, 35.501328, 2650.0 ] } },
{ "type": "Feature", "properties": { "value": 0.148 }, "geometry": { "type": "Point", "coordinates": [ 129.329941, 35.501324, 2650.0 ] } },
{ "type": "Feature", "properties": { "value": 0.1419 }, "geometry": { "type": "Point", "coordinates": [ 129.331039, 35.50132, 2650.0 ] } },
{ "type": "Feature", "properties": { "value": 0.1328 }, "geometry": { "type": "Point", "coordinates": [ 129.332138, 35.501316, 2650.0 ] } },
{ "type": "Feature", "properties": { "value": 0.1215 }, "geometry": { "type": "Point", "coordinates": [ 129.333252, 35.501312, 2650.0 ] } },
{ "type": "Feature", "properties": { "value": 0.1085 }, "geometry": { "type": "Point", "coordinates": [ 129.334351, 35.501312, 2650.0 ] } },
{ "type": "Feature", "properties": { "value": 0.0946 }, "geometry": { "type": "Point", "coordinates": [ 129.335449, 35.501308, 2650.0 ] } },
{ "type": "Feature", "properties": { "value": 0.0806 }, "geometry": { "type": "Point", "coordinates": [ 129.336548, 35.501305, 2650.0 ] } },
{ "type": "Feature", "properties": { "value": 0.067 }, "geometry": { "type": "Point", "coordinates": [ 129.337662, 35.501301, 2650.0 ] } },
{ "type": "Feature", "properties": { "value": 0.0544 }, "geometry": { "type": "Point", "coordinates": [ 129.33876, 35.501297, 2650.0 ] } },
{ "type": "Feature", "properties": { "value": 0.0432 }, "geometry": { "type": "Point", "coordinates": [ 129.339859, 35.501297, 2650.0 ] } },
{ "type": "Feature", "properties": { "value": 0.0334 }, "geometry": { "type": "Point", "coordinates": [ 129.340958, 35.501293, 2650.0 ] } },
{ "type": "Feature", "properties": { "value": 0.0253 }, "geometry": { "type": "Point", "coordinates": [ 129.342056, 35.501289, 2650.0 ] } },
{ "type": "Feature", "properties": { "value": 0.0187 }, "geometry": { "type": "Point", "coordinates": [ 129.34317, 35.501286, 2650.0 ] } },
{ "type": "Feature", "properties": { "value": 0.0135 }, "geometry": { "type": "Point", "coordinates": [ 129.344269, 35.501282, 2650.0 ] } },
{ "type": "Feature", "properties": { "value": 0.0095 }, "geometry": { "type": "Point", "coordinates": [ 129.345367, 35.501278, 2650.0 ] } },
{ "type": "Feature", "properties": { "value": 0.0066 }, "geometry": { "type": "Point", "coordinates": [ 129.346466, 35.501278, 2650.0 ] } },
{ "type": "Feature", "properties": { "value": 0.0044 }, "geometry": { "type": "Point", "coordinates": [ 129.34758, 35.501274, 2650.0 ] } },
{ "type": "Feature", "properties": { "value": 0.0029 }, "geometry": { "type": "Point", "coordinates": [ 129.348679, 35.50127, 2650.0 ] } },
{ "type": "Feature", "properties": { "value": 0.0019 }, "geometry": { "type": "Point", "coordinates": [ 129.349777, 35.501266, 2650.0 ] } }
]
}
