{
"type": "FeatureCollection",
"features": [
{ "type": "Feature", "properties": { "value": 164.22 }, "geometry": { "type": "Point", "coordinates": [ 129.326462, 35.458069, 10.0 ] } },
{ "type": "Feature", "properties": { "value": 75.607 }, "geometry": { "type": "Point", "coordinates": [ 129.32756, 35.458069, 10.0 ] } },
{ "type": "Feature", "properties": { "value": 3.9179 }, "geometry": { "type": "Point", "coordinates": [ 129.325363, 35.458973, 10.0 ] } },
{ "type": "Feature", "properties": { "value": 191.76 }, "geometry": { "type": "Point", "coordinates": [ 129.326462, 35.458973, 10.0 ] } },
{ "type": "Feature", "properties": { "value": 116.48 }, "geometry": { "type": "Point", "coordinates": [ 129.32756, 35.458969, 10.0 ] } },
{ "type": "Feature", "properties": { "value": 17.373 }, "geometry": { "type": "Point", "coordinates": [ 129.325363, 35.459877, 10.0 ] } },
{ "type": "Feature", "properties": { "value": 143.86 }, "geometry": { "type": "Point", "coordinates": [ 129.326462, 35.459873, 10.0 ] } },
{ "type": "Feature", "properties": { "value": 100.75 }, "geometry": { "type": "Point", "coordinates": [ 129.32756, 35.459869, 10.0 ] } },
{ "type": "Feature", "properties": { "value": 5.2258 }, "geometry": { "type": "Point", "coordinates": [ 129.328674, 35.459866, 10.0 ] } },
{ "type": "Feature", "properties": { "value": 1.7618 }, "geometry": { "type": "Point", "coordinates": [ 129.324265, 35.460781, 10.0 ] } },
{ "type": "Feature", "properties": { "value": 26.37 }, "geometry": { "type": "Point", "coordinates": [ 129.325363, 35.460777, 10.0 ] } },
{ "type": "Feature", "properties": { "value": 97.34 }, "geometry": { "type": "Point", "coordinates": [ 129.326477, 35.460773, 10.0 ] } },
{ "type": "Feature", "properties": { "value": 74.338 }, "geometry": { "type": "Point", "coordinates": [ 129.327576, 35.46077, 10.0 ] } },
{ "type": "Feature", "properties": { "value": 9.6759 }, "geometry": { "type": "Point", "coordinates": [ 129.328674, 35.46077, 10.0 ] } },
{ "type": "Feature", "properties": { "value": 4.3263 }, "geometry": { "type": "Point", "coordinates": [ 129.324265, 35.461681, 10.0 ] } },
{ "type": "Feature", "properties": { "value": 29.982 }, "geometry": { "type": "Point", "coordinates": [ 129.325378, 35.461678, 10.0 ] } },
{ "type": "Feature", "properties": { "value": 71.765 }, "geometry": { "type": "Point", "coordinates": [ 129.326477, 35.461674, 10.0 ] } },
{ "type": "Feature", "properties": { "value": 57.774 }, "geometry": { "type": "Point", "coordinates": [ 129.327576, 35.461674, 10.0 ] } },
{ "type": "Feature", "properties": { "value": 12.669 }, "geometry": { "type": "Point", "coordinates": [ 129.328674, 35.46167, 10.0 ] } },
{ "type": "Feature", "properties": { "value": 0.7305 }, "geometry": { "type": "Point", "coordinates": [ 129.329773, 35.461666, 10.0 ] } },
{ "type": "Feature", "properties": { "value": 0.6127 }, "geometry": { "type": "Point", "coordinates": [ 129.323166, 35.462585, 10.0 ] } },
{ "type": "Feature", "properties": { "value": 6.9975 }, "geometry": { "type": "Point", "coordinates": [ 129.32428, 35.462582, 10.0 ] } },
{ "type": "Feature", "properties": { "value": 29.653 }, "geometry": { "type": "Point", "coordinates": [ 129.325378, 35.462578, 10.0 ] } },
{ "type": "Feature", "properties": { "value": 55.658 }, "geometry": { "type": "Point", "coordinates": [ 129.326477, 35.462578, 10.0 ] } },
{ "type": "Feature", "properties": { "value": 45.992 }, "geometry": { "type": "Point", "coordinates": [ 129.327576, 35.462574, 10.0 ] } },
{ "type": "Feature", "properties": { "value": 14.188 }, "geometry": { "type": "Point", "coordinates": [ 129.328674, 35.46257, 10.0 ] } },
{ "type": "Feature", "properties": { "value": 1.9217 }, "geometry": { "type": "Point", "coordinates": [ 129.329788, 35.462566, 10.0 ] } },
{ "type": "Feature", "properties": { "value": 1.6483 }, "geometry": { "type": "Point", "coordinates": [ 129.323181, 35.463486, 10.0 ] } },
{ "type": "Feature", "properties": { "value": 8.8544 }, "geometry": { "type": "Point", "coordinates": [ 129.32428, 35.463486, 10.0 ] } },
{ "type": "Feature", "properties": { "value": 27.373 }, "geometry": { "type": "Point", "coordinates": [ 129.325378, 35.463482, 10.0 ] } },
{ "type": "Feature", "properties": { "value": 44.532 }, "geometry": { "type": "Point", "coordinates": [ 129.326477, 35.463478, 10.0 ] } },
{ "type": "Feature", "properties": { "value": 36.892 }, "geometry": { "type": "Point", "coordinates": [ 129.327576, 35.463474, 10.0 ] } },
{ "type": "Feature", "properties": { "value": 14.596 }, "geometry": { "type": "Point", "coordinates": [ 129.32869, 35.46347, 10.0 ] } },
{ "type": "Feature", "properties": { "value": 3.0736 }, "geometry": { "type": "Point", "coordinates": [ 129.329788, 35.46347, 10.0 ] } },
{ "type": "Feature", "properties": { "value": 0.1545 }, "geometry": { "type": "Point", "coordinates": [ 129.330887, 35.463467, 10.0 ] } },
{ "type": "Feature", "properties": { "value": 0.2857 }, "geometry": { "type": "Point", "coordinates": [ 129.322083, 35.46439, 10.0 ] } },
{ "type": "Feature", "properties": { "value": 2.5058 }, "geometry": { "type": "Point", "coordinates": [ 129.323181, 35.46439, 10.0 ] } },
{ "type": "Feature", "properties": { "value": 9.803 }, "geometry": { "type": "Point", "coordinates": [ 129.32428, 35.464386, 10.0 ] } },
{ "type": "Feature", "properties": { "value": 24.361 }, "geometry": { "type": "Point", "coordinates": [ 129.325378, 35.464382, 10.0 ] } },
{ "type": "Feature", "properties": { "value": 35.753 }, "geometry": { "type": "Point", "coordinates": [ 129.326477, 35.464378, 10.0 ] } },
{ "type": "Feature", "properties": { "value": 29.818 }, "geometry": { "type": "Point", "coordinates": [ 129.327591, 35.464375, 10.0 ] } },
{ "type": "Feature", "properties": { "value": 14.084 }, "geometry": { "type": "Point", "coordinates": [ 129.32869, 35.464375, 10.0 ] } },
{ "type": "Feature", "properties": { "value": 3.9105 }, "geometry": { "type": "Point", "coordinates": [ 129.329788, 35.464371, 10.0 ] } },
{ "type": "Feature", "properties": { "value": 0.6002 }, "geometry": { "type": "Point", "coordinates": [ 129.330887, 35.464367, 10.0 ] } },
{ "type": "Feature", "properties": { "value": 0.72 }, "geometry": { "type": "Point", "coordinates": [ 129.322083, 35.465294, 10.0 ] } },
{ "type": "Feature", "properties": { "value": 3.2774 }, "geometry": { "type": "Point", "coordinates": [ 129.323181, 35.46529, 10.0 ] } },
{ "type": "Feature", "properties": { "value": 10.137 }, "geometry": { "type": "Point", "coordinates": [ 129.32428, 35.465286, 10.0 ] } },
{ "type": "Feature", "properties": { "value": 21.228 }, "geometry": { "type": "Point", "coordinates": [ 129.325394, 35.465282, 10.0 ] } },
{ "type": "Feature", "properties": { "value": 28.686 }, "geometry": { "type": "Point", "coordinates": [ 129.326492, 35.465279, 10.0 ] } },
{ "type": "Feature", "properties": { "value": 24.382 }, "geometry": { "type": "Point", "coordinates": [ 129.327591, 35.465279, 10.0 ] } },
{ "type": "Feature", "properties": { "value": 12.936 }, "geometry": { "type": "Point", "coordinates": [ 129.32869, 35.465275, 10.0 ] } },
{ "type": "Feature", "properties": { "value": 4.4293 }, "geometry": { "type": "Point", "coordinates": [ 129.329788, 35.465271, 10.0 ] } },
{ "type": "Feature", "properties": { "value": 1.0019 }, "geometry": { "type": "Point", "coordinates": [ 129.330887, 35.465267, 10.0 ] } },
{ "type": "Feature", "properties": { "value": 0.1459 }, "geometry": { "type": "Point", "coordinates": [ 129.320984, 35.466198, 10.0 ] } },
{ "type": "Feature", "properties": { "value": 1.0699 }, "geometry": { "type": "Point", "coordinates": [ 129.322083, 35.466194, 10.0 ] } },
{ "type": "Feature", "properties": { "value": 3.871 }, "geometry": { "type": "Point", "coordinates": [ 129.323181, 35.46619, 10.0 ] } },
{ "type": "Feature", "properties": { "value": 10.019 }, "geometry": { "type": "Point", "coordinates": [ 129.324295, 35.466187, 10.0 ] } },
{ "type": "Feature", "properties": { "value": 18.442 }, "geometry": { "type": "Point", "coordinates": [ 129.325394, 35.466187, 10.0 ] } },
{ "type": "Feature", "properties": { "value": 23.38 }, "geometry": { "type": "Point", "coordinates": [ 129.326492, 35.466183, 10.0 ] } },
{ "type": "Feature", "properties": { "value": 20.237 }, "geometry": { "type": "Point", "coordinates": [ 129.327591, 35.466179, 10.0 ] } },
{ "type": "Feature", "properties": { "value": 11.653 }, "geometry": { "type": "Point", "coordinates": [ 129.32869, 35.466175, 10.0 ] } },
{ "type": "Feature", "properties": { "value": 4.7063 }, "geometry": { "type": "Point", "coordinates": [ 129.329803, 35.466171, 10.0 ] } },
{ "type": "Feature", "properties": { "value": 1.3365 }, "geometry": { "type": "Point", "coordinates": [ 129.330902, 35.466171, 10.0 ] } },
{ "type": "Feature", "properties": { "value": 0.1978 }, "geometry": { "type": "Point", "coordinates": [ 129.332001, 35.466167, 10.0 ] } },
{ "type": "Feature", "properties": { "value": 0.3478 }, "geometry": { "type": "Point", "coordinates": [ 129.320984, 35.467098, 10.0 ] } },
{ "type": "Feature", "properties": { "value": 1.4496 }, "geometry": { "type": "Point", "coordinates": [ 129.322083, 35.467094, 10.0 ] } },
{ "type": "Feature", "properties": { "value": 4.2462 }, "geometry": { "type": "Point", "coordinates": [ 129.323196, 35.467091, 10.0 ] } },
{ "type": "Feature", "properties": { "value": 9.5832 }, "geometry": { "type": "Point", "coordinates": [ 129.324295, 35.467091, 10.0 ] } },
{ "type": "Feature", "properties": { "value": 16.078 }, "geometry": { "type": "Point", "coordinates": [ 129.325394, 35.467087, 10.0 ] } },
{ "type": "Feature", "properties": { "value": 19.506 }, "geometry": { "type": "Point", "coordinates": [ 129.326492, 35.467083, 10.0 ] } },
{ "type": "Feature", "properties": { "value": 17.095 }, "geometry": { "type": "Point", "coordinates": [ 129.327591, 35.467079, 10.0 ] } },
{ "type": "Feature", "properties": { "value": 10.589 }, "geometry": { "type": "Point", "coordinates": [ 129.328705, 35.467075, 10.0 ] } },
{ "type": "Feature", "properties": { "value": 4.7917 }, "geometry": { "type": "Point", "coordinates": [ 129.329803, 35.467075, 10.0 ] } },
{ "type": "Feature", "properties": { "value": 1.6423 }, "geometry": { "type": "Point", "coordinates": [ 129.330902, 35.467072, 10.0 ] } },
{ "type": "Feature", "properties": { "value": 0.4123 }, "geometry": { "type": "Point", "coordinates": [ 129.332001, 35.467068, 10.0 ] } },
{ "type": "Feature", "properties": { "value": 0.0704 }, "geometry": { "type": "Point", "coordinates": [ 129.319885, 35.468002, 10.0 ] } },
{ "type": "Feature", "properties": { "value": 0.5336 }, "geometry": { "type": "Point", "coordinates": [ 129.320984, 35.467999, 10.0 ] } },
{ "type": "Feature", "properties": { "value": 1.7196 }, "geometry": { "type": "Point", "coordinates": [ 129.322098, 35.467995, 10.0 ] } },
{ "type": "Feature", "properties": { "value": 4.4246 }, "geometry": { "type": "Point", "coordinates": [ 129.323196, 35.467995, 10.0 ] } },
{ "type": "Feature", "properties": { "value": 8.9886 }, "geometry": { "type": "Point", "coordinates": [ 129.324295, 35.467991, 10.0 ] } },
{ "type": "Feature", "properties": { "value": 14.112 }, "geometry": { "type": "Point", "coordinates": [ 129.325394, 35.467987, 10.0 ] } },
{ "type": "Feature", "properties": { "value": 16.631 }, "geometry": { "type": "Point", "coordinates": [ 129.326492, 35.467983, 10.0 ] } },
{ "type": "Feature", "properties": { "value": 14.624 }, "geometry": { "type": "Point", "coordinates": [ 129.327606, 35.467983, 10.0 ] } },
{ "type": "Feature", "properties": { "value": 9.6105 }, "geometry": { "type": "Point", "coordinates": [ 129.328705, 35.467979, 10.0 ] } },
{ "type": "Feature", "properties": { "value": 4.793 }, "geometry": { "type": "Point", "coordinates": [ 129.329803, 35.467976, 10.0 ] } },
{ "type": "Feature", "properties": { "value": 1.8697 }, "geometry": { "type": "Point", "coordinates": [ 129.330902, 35.467972, 10.0 ] } },
{ "type": "Feature", "properties": { "value": 0.5713 }, "geometry": { "type": "Point", "coordinates": [ 129.332001, 35.467968, 10.0 ] } },
{ "type": "Feature", "properties": { "value": 0.0809 }, "geometry": { "type": "Point", "coordinates": [ 129.333115, 35.467968, 10.0 ] } },
{ "type": "Feature", "properties": { "value": 0.178 }, "geometry": { "type": "Point", "coordinates": [ 129.319885, 35.468903, 10.0 ] } },
{ "type": "Feature", "properties": { "value": 0.6733 }, "geometry": { "type": "Point", "coordinates": [ 129.320999, 35.468899, 10.0 ] } },
{ "type": "Feature", "properties": { "value": 1.9264 }, "geometry": { "type": "Point", "coordinates": [ 129.322098, 35.468899, 10.0 ] } },
{ "type": "Feature", "properties": { "value": 4.4634 }, "geometry": { "type": "Point", "coordinates": [ 129.323196, 35.468895, 10.0 ] } },
{ "type": "Feature", "properties": { "value": 8.331 }, "geometry": { "type": "Point", "coordinates": [ 129.324295, 35.468891, 10.0 ] } },
{ "type": "Feature", "properties": { "value": 12.333 }, "geometry": { "type": "Point", "coordinates": [ 129.325394, 35.468887, 10.0 ] } },
{ "type": "Feature", "properties": { "value": 14.157 }, "geometry": { "type": "Point", "coordinates": [ 129.326508, 35.468887, 10.0 ] } },
{ "type": "Feature", "properties": { "value": 12.591 }, "geometry": { "type": "Point", "coordinates": [ 129.327606, 35.468884, 10.0 ] } },
{ "type": "Feature", "properties": { "value": 8.6923 }, "geometry": { "type": "Point", "coordinates": [ 129.328705, 35.46888, 10.0 ] } },
{ "type": "Feature", "properties": { "value": 4.7005 }, "geometry": { "type": "Point", "coordinates": [ 129.329803, 35.468876, 10.0 ] } },
{ "type": "Feature", "properties": { "value": 2.0401 }, "geometry": { "type": "Point", "coordinates": [ 129.330902, 35.468872, 10.0 ] } },
{ "type": "Feature", "properties": { "value": 0.7107 }, "geometry": { "type": "Point", "coordinates": [ 129.332016, 35.468872, 10.0 ] } },
{ "type": "Feature", "properties": { "value": 0.1846 }, "geometry": { "type": "Point", "coordinates": [ 129.333115, 35.468868, 10.0 ] } },
{ "type": "Feature", "properties": { "value": 0.0178 }, "geometry": { "type": "Point", "coordinates": [ 129.318787, 35.469807, 10.0 ] } },
{ "type": "Feature", "properties": { "value": 0.2508 }, "geometry": { "type": "Point", "coordinates": [ 129.319901, 35.469803, 10.0 ] } },
{ "type": "Feature", "properties": { "value": 0.7885 }, "geometry": { "type": "Point", "coordinates": [ 129.320999, 35.469803, 10.0 ] } },
{ "type": "Feature", "properties": { "value": 2.0469 }, "geometry": { "type": "Point", "coordinates": [ 129.322098, 35.469799, 10.0 ] } },
{ "type": "Feature", "properties": { "value": 4.3575 }, "geometry": { "type": "Point", "coordinates": [ 129.323196, 35.469795, 10.0 ] } },
{ "type": "Feature", "properties": { "value": 7.6037 }, "geometry": { "type": "Point", "coordinates": [ 129.324295, 35.469791, 10.0 ] } },
{ "type": "Feature", "properties": { "value": 10.756 }, "geometry": { "type": "Point", "coordinates": [ 129.325409, 35.469791, 10.0 ] } },
{ "type": "Feature", "properties": { "value": 12.126 }, "geometry": { "type": "Point", "coordinates": [ 129.326508, 35.469788, 10.0 ] } },
{ "type": "Feature", "properties": { "value": 10.879 }, "geometry": { "type": "Point", "coordinates": [ 129.327606, 35.469784, 10.0 ] } },
{ "type": "Feature", "properties": { "value": 7.7981 }, "geometry": { "type": "Point", "coordinates": [ 129.328705, 35.46978, 10.0 ] } },
{ "type": "Feature", "properties": { "value": 4.5107 }, "geometry": { "type": "Point", "coordinates": [ 129.329819, 35.469776, 10.0 ] } },
{ "type": "Feature", "properties": { "value": 2.1403 }, "geometry": { "type": "Point", "coordinates": [ 129.330917, 35.469776, 10.0 ] } },
{ "type": "Feature", "properties": { "value": 0.827 }, "geometry": { "type": "Point", "coordinates": [ 129.332016, 35.469772, 10.0 ] } },
{ "type": "Feature", "properties": { "value": 0.2623 }, "geometry": { "type": "Point", "coordinates": [ 129.333115, 35.469769, 10.0 ] } },
{ "type": "Feature", "properties": { "value": 0.0307 }, "geometry": { "type": "Point", "coordinates": [ 129.334213, 35.469765, 10.0 ] } },
{ "type": "Feature", "properties": { "value": 0.0641 }, "geometry": { "type": "Point", "coordinates": [ 129.318802, 35.470707, 10.0 ] } },
{ "type": "Feature", "properties": { "value": 0.2969 }, "geometry": { "type": "Point", "coordinates": [ 129.319901, 35.470707, 10.0 ] } },
{ "type": "Feature", "properties": { "value": 0.8589 }, "geometry": { "type": "Point", "coordinates": [ 129.320999, 35.470703, 10.0 ] } },
{ "type": "Feature", "properties": { "value": 2.0559 }, "geometry": { "type": "Point", "coordinates": [ 129.322098, 35.470699, 10.0 ] } },
{ "type": "Feature", "properties": { "value": 4.0864 }, "geometry": { "type": "Point", "coordinates": [ 129.323212, 35.470695, 10.0 ] } },
{ "type": "Feature", "properties": { "value": 6.7415 }, "geometry": { "type": "Point", "coordinates": [ 129.32431, 35.470695, 10.0 ] } },
{ "type": "Feature", "properties": { "value": 9.2303 }, "geometry": { "type": "Point", "coordinates": [ 129.325409, 35.470692, 10.0 ] } },
{ "type": "Feature", "properties": { "value": 10.264 }, "geometry": { "type": "Point", "coordinates": [ 129.326508, 35.470688, 10.0 ] } },
{ "type": "Feature", "properties": { "value": 9.2898 }, "geometry": { "type": "Point", "coordinates": [ 129.327606, 35.470684, 10.0 ] } },
{ "type": "Feature", "properties": { "value": 6.8624 }, "geometry": { "type": "Point", "coordinates": [ 129.32872, 35.470684, 10.0 ] } },
{ "type": "Feature", "properties": { "value": 4.2063 }, "geometry": { "type": "Point", "coordinates": [ 129.329819, 35.47068, 10.0 ] } },
{ "type": "Feature", "properties": { "value": 2.137 }, "geometry": { "type": "Point", "coordinates": [ 129.330917, 35.470676, 10.0 ] } },
{ "type": "Feature", "properties": { "value": 0.8923 }, "geometry": { "type": "Point", "coordinates": [ 129.332016, 35.470673, 10.0 ] } },
{ "type": "Feature", "properties": { "value": 0.3072 }, "geometry": { "type": "Point", "coordinates": [ 129.333115, 35.470669, 10.0 ] } },
{ "type": "Feature", "properties": { "value": 0.0665 }, "geometry": { "type": "Point", "coordinates": [ 129.334229, 35.470669, 10.0 ] } },
{ "type": "Feature", "properties": { "value": 0.0031 }, "geometry": { "type": "Point", "coordinates": [ 129.317703, 35.471615, 10.0 ] } },
{ "type": "Feature", "properties": { "value": 0.0967 }, "geometry": { "type": "Point", "coordinates": [ 129.318802, 35.471611, 10.0 ] } },
{ "type": "Feature", "properties": { "value": 0.3193 }, "geometry": { "type": "Point", "coordinates": [ 129.319901, 35.471607, 10.0 ] } },
{ "type": "Feature", "properties": { "value": 0.8648 }, "geometry": { "type": "Point", "coordinates": [ 129.320999, 35.471603, 10.0 ] } },
{ "type": "Feature", "properties": { "value": 1.9447 }, "geometry": { "type": "Point", "coordinates": [ 129.322113, 35.4716, 10.0 ] } },
{ "type": "Feature", "properties": { "value": 3.6597 }, "geometry": { "type": "Point", "coordinates": [ 129.323212, 35.4716, 10.0 ] } },
{ "type": "Feature", "properties": { "value": 5.7857 }, "geometry": { "type": "Point", "coordinates": [ 129.32431, 35.471596, 10.0 ] } },
{ "type": "Feature", "properties": { "value": 7.7113 }, "geometry": { "type": "Point", "coordinates": [ 129.325409, 35.471592, 10.0 ] } },
{ "type": "Feature", "properties": { "value": 8.4779 }, "geometry": { "type": "Point", "coordinates": [ 129.326508, 35.471588, 10.0 ] } },
{ "type": "Feature", "properties": { "value": 7.7482 }, "geometry": { "type": "Point", "coordinates": [ 129.327621, 35.471588, 10.0 ] } },
{ "type": "Feature", "properties": { "value": 5.892 }, "geometry": { "type": "Point", "coordinates": [ 129.32872, 35.471584, 10.0 ] } },
{ "type": "Feature", "properties": { "value": 3.7576 }, "geometry": { "type": "Point", "coordinates": [ 129.329819, 35.471581, 10.0 ] } },
{ "type": "Feature", "properties": { "value": 2.0009 }, "geometry": { "type": "Point", "coordinates": [ 129.330917, 35.471577, 10.0 ] } },
{ "type": "Feature", "properties": { "value": 0.8895 }, "geometry": { "type": "Point", "coordinates": [ 129.332016, 35.471573, 10.0 ] } },
{ "type": "Feature", "properties": { "value": 0.3429 }, "geometry": { "type": "Point", "coordinates": [ 129.33313, 35.471573, 10.0 ] } },
{ "type": "Feature", "properties": { "value": 0.0996 }, "geometry": { "type": "Point", "coordinates": [ 129.334229, 35.471569, 10.0 ] } },
{ "type": "Feature", "properties": { "value": 0.0033 }, "geometry": { "type": "Point", "coordinates": [ 129.335327, 35.471565, 10.0 ] } },
{ "type": "Feature", "properties": { "value": 0.0117 }, "geometry": { "type": "Point", "coordinates": [ 129.317703, 35.472515, 10.0 ] } },
{ "type": "Feature", "properties": { "value": 0.0987 }, "geometry": { "type": "Point", "coordinates": [ 129.318802, 35.472511, 10.0 ] } },
{ "type": "Feature", "properties": { "value": 0.3251 }, "geometry": { "type": "Point", "coordinates": [ 129.319901, 35.472507, 10.0 ] } },
{ "type": "Feature", "properties": { "value": 0.8012 }, "geometry": { "type": "Point", "coordinates": [ 129.321014, 35.472507, 10.0 ] } },
{ "type": "Feature", "properties": { "value": 1.7086 }, "geometry": { "type": "Point", "coordinates": [ 129.322113, 35.472504, 10.0 ] } },
{ "type": "Feature", "properties": { "value": 3.0885 }, "geometry": { "type": "Point", "coordinates": [ 129.323212, 35.4725, 10.0 ] } },
{ "type": "Feature", "properties": { "value": 4.7408 }, "geometry": { "type": "Point", "coordinates": [ 129.32431, 35.472496, 10.0 ] } },
{ "type": "Feature", "properties": { "value": 6.177 }, "geometry": { "type": "Point", "coordinates": [ 129.325409, 35.472492, 10.0 ] } },
{ "type": "Feature", "properties": { "value": 6.7286 }, "geometry": { "type": "Point", "coordinates": [ 129.326523, 35.472492, 10.0 ] } },
{ "type": "Feature", "properties": { "value": 6.1981 }, "geometry": { "type": "Point", "coordinates": [ 129.327621, 35.472488, 10.0 ] } },
{ "type": "Feature", "properties": { "value": 4.8166 }, "geometry": { "type": "Point", "coordinates": [ 129.32872, 35.472485, 10.0 ] } },
{ "type": "Feature", "properties": { "value": 3.1419 }, "geometry": { "type": "Point", "coordinates": [ 129.329819, 35.472481, 10.0 ] } },
{ "type": "Feature", "properties": { "value": 1.7544 }, "geometry": { "type": "Point", "coordinates": [ 129.330917, 35.472477, 10.0 ] } },
{ "type": "Feature", "properties": { "value": 0.8221 }, "geometry": { "type": "Point", "coordinates": [ 129.332031, 35.472477, 10.0 ] } },
{ "type": "Feature", "properties": { "value": 0.3348 }, "geometry": { "type": "Point", "coordinates": [ 129.33313, 35.472473, 10.0 ] } },
{ "type": "Feature", "properties": { "value": 0.1017 }, "geometry": { "type": "Point", "coordinates": [ 129.334229, 35.472469, 10.0 ] } },
{ "type": "Feature", "properties": { "value": 0.0123 }, "geometry": { "type": "Point", "coordinates": [ 129.335327, 35.472466, 10.0 ] } },
{ "type": "Feature", "properties": { "value": 0.0217 }, "geometry": { "type": "Point", "coordinates": [ 129.317703, 35.473415, 10.0 ] } },
{ "type": "Feature", "properties": { "value": 0.1017 }, "geometry": { "type": "Point", "coordinates": [ 129.318802, 35.473412, 10.0 ] } },
{ "type": "Feature", "properties": { "value": 0.2904 }, "geometry": { "type": "Point", "coordinates": [ 129.319916, 35.473412, 10.0 ] } },
{ "type": "Feature", "properties": { "value": 0.6798 }, "geometry": { "type": "Point", "coordinates": [ 129.321014, 35.473408, 10.0 ] } },
{ "type": "Feature", "properties": { "value": 1.3792 }, "geometry": { "type": "Point", "coordinates": [ 129.322113, 35.473404, 10.0 ] } },
{ "type": "Feature", "properties": { "value": 2.4109 }, "geometry": { "type": "Point", "coordinates": [ 129.323212, 35.4734, 10.0 ] } },
{ "type": "Feature", "properties": { "value": 3.6056 }, "geometry": { "type": "Point", "coordinates": [ 129.32431, 35.473396, 10.0 ] } },
{ "type": "Feature", "properties": { "value": 4.6038 }, "geometry": { "type": "Point", "coordinates": [ 129.325424, 35.473396, 10.0 ] } },
{ "type": "Feature", "properties": { "value": 4.9962 }, "geometry": { "type": "Point", "coordinates": [ 129.326523, 35.473392, 10.0 ] } },
{ "type": "Feature", "properties": { "value": 4.627 }, "geometry": { "type": "Point", "coordinates": [ 129.327621, 35.473389, 10.0 ] } },
{ "type": "Feature", "properties": { "value": 3.6455 }, "geometry": { "type": "Point", "coordinates": [ 129.32872, 35.473385, 10.0 ] } },
{ "type": "Feature", "properties": { "value": 2.4453 }, "geometry": { "type": "Point", "coordinates": [ 129.329819, 35.473385, 10.0 ] } },
{ "type": "Feature", "properties": { "value": 1.4055 }, "geometry": { "type": "Point", "coordinates": [ 129.330933, 35.473381, 10.0 ] } },
{ "type": "Feature", "properties": { "value": 0.6943 }, "geometry": { "type": "Point", "coordinates": [ 129.332031, 35.473377, 10.0 ] } },
{ "type": "Feature", "properties": { "value": 0.2974 }, "geometry": { "type": "Point", "coordinates": [ 129.33313, 35.473373, 10.0 ] } },
{ "type": "Feature", "properties": { "value": 0.1048 }, "geometry": { "type": "Point", "coordinates": [ 129.334229, 35.47337, 10.0 ] } },
{ "type": "Feature", "properties": { "value": 0.023 }, "geometry": { "type": "Point", "coordinates": [ 129.335342, 35.47337, 10.0 ] } },
{ "type": "Feature", "properties": { "value": 0.0234 }, "geometry": { "type": "Point", "coordinates": [ 129.317703, 35.474316, 10.0 ] } },
{ "type": "Feature", "properties": { "value": 0.0853 }, "geometry": { "type": "Point", "coordinates": [ 129.318817, 35.474316, 10.0 ] } },
{ "type": "Feature", "properties": { "value": 0.235 }, "geometry": { "type": "Point", "coordinates": [ 129.319916, 35.474312, 10.0 ] } },
{ "type": "Feature", "properties": { "value": 0.5266 }, "geometry": { "type": "Point", "coordinates": [ 129.321014, 35.474308, 10.0 ] } },
{ "type": "Feature", "properties": { "value": 1.029 }, "geometry": { "type": "Point", "coordinates": [ 129.322113, 35.474304, 10.0 ] } },
{ "type": "Feature", "properties": { "value": 1.7445 }, "geometry": { "type": "Point", "coordinates": [ 129.323212, 35.4743, 10.0 ] } },
{ "type": "Feature", "properties": { "value": 2.5537 }, "geometry": { "type": "Point", "coordinates": [ 129.324326, 35.4743, 10.0 ] } },
{ "type": "Feature", "properties": { "value": 3.2112 }, "geometry": { "type": "Point", "coordinates": [ 129.325424, 35.474297, 10.0 ] } },
{ "type": "Feature", "properties": { "value": 3.4725 }, "geometry": { "type": "Point", "coordinates": [ 129.326523, 35.474293, 10.0 ] } },
{ "type": "Feature", "properties": { "value": 3.2261 }, "geometry": { "type": "Point", "coordinates": [ 129.327621, 35.474289, 10.0 ] } },
{ "type": "Feature", "properties": { "value": 2.5777 }, "geometry": { "type": "Point", "coordinates": [ 129.328735, 35.474289, 10.0 ] } },
{ "type": "Feature", "properties": { "value": 1.769 }, "geometry": { "type": "Point", "coordinates": [ 129.329834, 35.474285, 10.0 ] } },
{ "type": "Feature", "properties": { "value": 1.0457 }, "geometry": { "type": "Point", "coordinates": [ 129.330933, 35.474281, 10.0 ] } },
{ "type": "Feature", "properties": { "value": 0.5357 }, "geometry": { "type": "Point", "coordinates": [ 129.332031, 35.474277, 10.0 ] } },
{ "type": "Feature", "properties": { "value": 0.24 }, "geometry": { "type": "Point", "coordinates": [ 129.33313, 35.474274, 10.0 ] } },
{ "type": "Feature", "properties": { "value": 0.0879 }, "geometry": { "type": "Point", "coordinates": [ 129.334244, 35.474274, 10.0 ] } },
{ "type": "Feature", "properties": { "value": 0.0245 }, "geometry": { "type": "Point", "coordinates": [ 129.335342, 35.47427, 10.0 ] } },
{ "type": "Feature", "properties": { "value": 0.0144 }, "geometry": { "type": "Point", "coordinates": [ 129.317719, 35.47522, 10.0 ] } },
{ "type": "Feature", "properties": { "value": 0.0621 }, "geometry": { "type": "Point", "coordinates": [ 129.318817, 35.475216, 10.0 ] } },
{ "type": "Feature", "properties": { "value": 0.172 }, "geometry": { "type": "Point", "coordinates": [ 129.319916, 35.475212, 10.0 ] } },
{ "type": "Feature", "properties": { "value": 0.3763 }, "geometry": { "type": "Point", "coordinates": [ 129.321014, 35.475208, 10.0 ] } },
{ "type": "Feature", "properties": { "value": 0.7184 }, "geometry": { "type": "Point", "coordinates": [ 129.322113, 35.475208, 10.0 ] } },
{ "type": "Feature", "properties": { "value": 1.1928 }, "geometry": { "type": "Point", "coordinates": [ 129.323227, 35.475204, 10.0 ] } },
{ "type": "Feature", "properties": { "value": 1.7088 }, "geometry": { "type": "Point", "coordinates": [ 129.324326, 35.475201, 10.0 ] } },
{ "type": "Feature", "properties": { "value": 2.1382 }, "geometry": { "type": "Point", "coordinates": [ 129.325424, 35.475197, 10.0 ] } },
{ "type": "Feature", "properties": { "value": 2.3043 }, "geometry": { "type": "Point", "coordinates": [ 129.326523, 35.475193, 10.0 ] } },
{ "type": "Feature", "properties": { "value": 2.1486 }, "geometry": { "type": "Point", "coordinates": [ 129.327637, 35.475193, 10.0 ] } },
{ "type": "Feature", "properties": { "value": 1.7254 }, "geometry": { "type": "Point", "coordinates": [ 129.328735, 35.475189, 10.0 ] } },
{ "type": "Feature", "properties": { "value": 1.2084 }, "geometry": { "type": "Point", "coordinates": [ 129.329834, 35.475185, 10.0 ] } },
{ "type": "Feature", "properties": { "value": 0.728 }, "geometry": { "type": "Point", "coordinates": [ 129.330933, 35.475182, 10.0 ] } },
{ "type": "Feature", "properties": { "value": 0.3824 }, "geometry": { "type": "Point", "coordinates": [ 129.332031, 35.475178, 10.0 ] } },
{ "type": "Feature", "properties": { "value": 0.1757 }, "geometry": { "type": "Point", "coordinates": [ 129.333145, 35.475178, 10.0 ] } },
{ "type": "Feature", "properties": { "value": 0.064 }, "geometry": { "type": "Point", "coordinates": [ 129.334244, 35.475174, 10.0 ] } },
{ "type": "Feature", "properties": { "value": 0.0151 }, "geometry": { "type": "Point", "coordinates": [ 129.335342, 35.47517, 10.0 ] } },
{ "type": "Feature", "properties": { "value": 0.0115 }, "geometry": { "type": "Point", "coordinates": [ 129.317719, 35.47612, 10.0 ] } },
{ "type": "Feature", "properties": { "value": 0.0392 }, "geometry": { "type": "Point", "coordinates": [ 129.318817, 35.476116, 10.0 ] } },
{ "type": "Feature", "properties": { "value": 0.1139 }, "geometry": { "type": "Point", "coordinates": [ 129.319916, 35.476112, 10.0 ] } },
{ "type": "Feature", "properties": { "value": 0.246 }, "geometry": { "type": "Point", "coordinates": [ 129.32103, 35.476112, 10.0 ] } },
{ "type": "Feature", "properties": { "value": 0.4622 }, "geometry": { "type": "Point", "coordinates": [ 129.322128, 35.476109, 10.0 ] } },
{ "type": "Feature", "properties": { "value": 0.7555 }, "geometry": { "type": "Point", "coordinates": [ 129.323227, 35.476105, 10.0 ] } },
{ "type": "Feature", "properties": { "value": 1.068 }, "geometry": { "type": "Point", "coordinates": [ 129.324326, 35.476101, 10.0 ] } },
{ "type": "Feature", "properties": { "value": 1.3173 }, "geometry": { "type": "Point", "coordinates": [ 129.325424, 35.476097, 10.0 ] } },
{ "type": "Feature", "properties": { "value": 1.4253 }, "geometry": { "type": "Point", "coordinates": [ 129.326538, 35.476097, 10.0 ] } },
{ "type": "Feature", "properties": { "value": 1.3239 }, "geometry": { "type": "Point", "coordinates": [ 129.327637, 35.476093, 10.0 ] } },
{ "type": "Feature", "properties": { "value": 1.0787 }, "geometry": { "type": "Point", "coordinates": [ 129.328735, 35.476089, 10.0 ] } },
{ "type": "Feature", "properties": { "value": 0.764 }, "geometry": { "type": "Point", "coordinates": [ 129.329834, 35.476086, 10.0 ] } },
{ "type": "Feature", "properties": { "value": 0.4675 }, "geometry": { "type": "Point", "coordinates": [ 129.330933, 35.476086, 10.0 ] } },
{ "type": "Feature", "properties": { "value": 0.25 }, "geometry": { "type": "Point", "coordinates": [ 129.332047, 35.476082, 10.0 ] } },
{ "type": "Feature", "properties": { "value": 0.1165 }, "geometry": { "type": "Point", "coordinates": [ 129.333145, 35.476078, 10.0 ] } },
{ "type": "Feature", "properties": { "value": 0.0405 }, "geometry": { "type": "Point", "coordinates": [ 129.334244, 35.476074, 10.0 ] } },
{ "type": "Feature", "properties": { "value": 0.012 }, "geometry": { "type": "Point", "coordinates": [ 129.335342, 35.47607, 10.0 ] } },
{ "type": "Feature", "properties": { "value": 0.0035 }, "geometry": { "type": "Point", "coordinates": [ 129.317719, 35.47702, 10.0 ] } },
{ "type": "Feature", "properties": { "value": 0.0266 }, "geometry": { "type": "Point", "coordinates": [ 129.318817, 35.477016, 10.0 ] } },
{ "type": "Feature", "properties": { "value": 0.0677 }, "geometry": { "type": "Point", "coordinates": [ 129.319931, 35.477016, 10.0 ] } },
{ "type": "Feature", "properties": { "value": 0.1463 }, "geometry": { "type": "Point", "coordinates": [ 129.32103, 35.477013, 10.0 ] } },
{ "type": "Feature", "properties": { "value": 0.2725 }, "geometry": { "type": "Point", "coordinates": [ 129.322128, 35.477009, 10.0 ] } },
{ "type": "Feature", "properties": { "value": 0.4326 }, "geometry": { "type": "Point", "coordinates": [ 129.323227, 35.477005, 10.0 ] } },
{ "type": "Feature", "properties": { "value": 0.6161 }, "geometry": { "type": "Point", "coordinates": [ 129.324326, 35.477005, 10.0 ] } },
{ "type": "Feature", "properties": { "value": 0.7547 }, "geometry": { "type": "Point", "coordinates": [ 129.325439, 35.477001, 10.0 ] } },
{ "type": "Feature", "properties": { "value": 0.809 }, "geometry": { "type": "Point", "coordinates": [ 129.326538, 35.476997, 10.0 ] } },
{ "type": "Feature", "properties": { "value": 0.7568 }, "geometry": { "type": "Point", "coordinates": [ 129.327637, 35.476994, 10.0 ] } },
{ "type": "Feature", "properties": { "value": 0.6204 }, "geometry": { "type": "Point", "coordinates": [ 129.328735, 35.47699, 10.0 ] } },
{ "type": "Feature", "properties": { "value": 0.4448 }, "geometry": { "type": "Point", "coordinates": [ 129.329834, 35.47699, 10.0 ] } },
{ "type": "Feature", "properties": { "value": 0.2757 }, "geometry": { "type": "Point", "coordinates": [ 129.330948, 35.476986, 10.0 ] } },
{ "type": "Feature", "properties": { "value": 0.1488 }, "geometry": { "type": "Point", "coordinates": [ 129.332047, 35.476982, 10.0 ] } },
{ "type": "Feature", "properties": { "value": 0.0694 }, "geometry": { "type": "Point", "coordinates": [ 129.333145, 35.476978, 10.0 ] } },
{ "type": "Feature", "properties": { "value": 0.0275 }, "geometry": { "type": "Point", "coordinates": [ 129.334244, 35.476974, 10.0 ] } },
{ "type": "Feature", "properties": { "value": 0.0037 }, "geometry": { "type": "Point", "coordinates": [ 129.335342, 35.476974, 10.0 ] } },
{ "type": "Feature", "properties": { "value": 0.0023 }, "geometry": { "type": "Point", "coordinates": [ 129.317719, 35.477921, 10.0 ] } },
{ "type": "Feature", "properties": { "value": 0.0125 }, "geometry": { "type": "Point", "coordinates": [ 129.318832, 35.477921, 10.0 ] } },
{ "type": "Feature", "properties": { "value": 0.0355 }, "geometry": { "type": "Point", "coordinates": [ 129.319931, 35.477917, 10.0 ] } },
{ "type": "Feature", "properties": { "value": 0.0785 }, "geometry": { "type": "Point", "coordinates": [ 129.32103, 35.477913, 10.0 ] } },
{ "type": "Feature", "properties": { "value": 0.1466 }, "geometry": { "type": "Point", "coordinates": [ 129.322128, 35.477909, 10.0 ] } },
{ "type": "Feature", "properties": { "value": 0.2296 }, "geometry": { "type": "Point", "coordinates": [ 129.323227, 35.477909, 10.0 ] } },
{ "type": "Feature", "properties": { "value": 0.3267 }, "geometry": { "type": "Point", "coordinates": [ 129.324341, 35.477905, 10.0 ] } },
{ "type": "Feature", "properties": { "value": 0.3977 }, "geometry": { "type": "Point", "coordinates": [ 129.325439, 35.477901, 10.0 ] } },
{ "type": "Feature", "properties": { "value": 0.4243 }, "geometry": { "type": "Point", "coordinates": [ 129.326538, 35.477898, 10.0 ] } },
{ "type": "Feature", "properties": { "value": 0.3973 }, "geometry": { "type": "Point", "coordinates": [ 129.327637, 35.477894, 10.0 ] } },
{ "type": "Feature", "properties": { "value": 0.3277 }, "geometry": { "type": "Point", "coordinates": [ 129.328735, 35.477894, 10.0 ] } },
{ "type": "Feature", "properties": { "value": 0.2315 }, "geometry": { "type": "Point", "coordinates": [ 129.329849, 35.47789, 10.0 ] } },
{ "type": "Feature", "properties": { "value": 0.1484 }, "geometry": { "type": "Point", "coordinates": [ 129.330948, 35.477886, 10.0 ] } },
{ "type": "Feature", "properties": { "value": 0.08 }, "geometry": { "type": "Point", "coordinates": [ 129.332047, 35.477882, 10.0 ] } },
{ "type": "Feature", "properties": { "value": 0.0365 }, "geometry": { "type": "Point", "coordinates": [ 129.333145, 35.477879, 10.0 ] } },
{ "type": "Feature", "properties": { "value": 0.013 }, "geometry": { "type": "Point", "coordinates": [ 129.334259, 35.477879, 10.0 ] } },
{ "type": "Feature", "properties": { "value": 0.0024 }, "geometry": { "type": "Point", "coordinates": [ 129.335358, 35.477875, 10.0 ] } },
{ "type": "Feature", "properties": { "value": 0.0033 }, "geometry": { "type": "Point", "coordinates": [ 129.318832, 35.478821, 10.0 ] } },
{ "type": "Feature", "properties": { "value": 0.0151 }, "geometry": { "type": "Point", "coordinates": [ 129.319931, 35.478817, 10.0 ] } },
{ "type": "Feature", "properties": { "value": 0.0373 }, "geometry": { "type": "Point", "coordinates": [ 129.32103, 35.478813, 10.0 ] } },
{ "type": "Feature", "properties": { "value": 0.0712 }, "geometry": { "type": "Point", "coordinates": [ 129.322128, 35.478813, 10.0 ] } },
{ "type": "Feature", "properties": { "value": 0.11 }, "geometry": { "type": "Point", "coordinates": [ 129.323242, 35.478809, 10.0 ] } },
{ "type": "Feature", "properties": { "value": 0.158 }, "geometry": { "type": "Point", "coordinates": [ 129.324341, 35.478806, 10.0 ] } },
{ "type": "Feature", "properties": { "value": 0.191 }, "geometry": { "type": "Point", "coordinates": [ 129.325439, 35.478802, 10.0 ] } },
{ "type": "Feature", "properties": { "value": 0.2036 }, "geometry": { "type": "Point", "coordinates": [ 129.326538, 35.478798, 10.0 ] } },
{ "type": "Feature", "properties": { "value": 0.1913 }, "geometry": { "type": "Point", "coordinates": [ 129.327637, 35.478798, 10.0 ] } },
{ "type": "Feature", "properties": { "value": 0.1586 }, "geometry": { "type": "Point", "coordinates": [ 129.328751, 35.478794, 10.0 ] } },
{ "type": "Feature", "properties": { "value": 0.1113 }, "geometry": { "type": "Point", "coordinates": [ 129.329849, 35.47879, 10.0 ] } },
{ "type": "Feature", "properties": { "value": 0.0723 }, "geometry": { "type": "Point", "coordinates": [ 129.330948, 35.478786, 10.0 ] } },
{ "type": "Feature", "properties": { "value": 0.0381 }, "geometry": { "type": "Point", "coordinates": [ 129.332047, 35.478786, 10.0 ] } },
{ "type": "Feature", "properties": { "value": 0.0156 }, "geometry": { "type": "Point", "coordinates": [ 129.33316, 35.478783, 10.0 ] } },
{ "type": "Feature", "properties": { "value": 0.0034 }, "geometry": { "type": "Point", "coordinates": [ 129.334259, 35.478779, 10.0 ] } },
{ "type": "Feature", "properties": { "value": 0.0037 }, "geometry": { "type": "Point", "coordinates": [ 129.319931, 35.479717, 10.0 ] } },
{ "type": "Feature", "properties": { "value": 0.0145 }, "geometry": { "type": "Point", "coordinates": [ 129.32103, 35.479717, 10.0 ] } },
{ "type": "Feature", "properties": { "value": 0.0308 }, "geometry": { "type": "Point", "coordinates": [ 129.322144, 35.479713, 10.0 ] } },
{ "type": "Feature", "properties": { "value": 0.047 }, "geometry": { "type": "Point", "coordinates": [ 129.323242, 35.47971, 10.0 ] } },
{ "type": "Feature", "properties": { "value": 0.0639 }, "geometry": { "type": "Point", "coordinates": [ 129.324341, 35.479706, 10.0 ] } },
{ "type": "Feature", "properties": { "value": 0.0835 }, "geometry": { "type": "Point", "coordinates": [ 129.325439, 35.479706, 10.0 ] } },
{ "type": "Feature", "properties": { "value": 0.0891 }, "geometry": { "type": "Point", "coordinates": [ 129.326553, 35.479702, 10.0 ] } },
{ "type": "Feature", "properties": { "value": 0.084 }, "geometry": { "type": "Point", "coordinates": [ 129.327652, 35.479698, 10.0 ] } },
{ "type": "Feature", "properties": { "value": 0.0644 }, "geometry": { "type": "Point", "coordinates": [ 129.328751, 35.479694, 10.0 ] } },
{ "type": "Feature", "properties": { "value": 0.0477 }, "geometry": { "type": "Point", "coordinates": [ 129.329849, 35.479691, 10.0 ] } },
{ "type": "Feature", "properties": { "value": 0.0313 }, "geometry": { "type": "Point", "coordinates": [ 129.330948, 35.479691, 10.0 ] } },
{ "type": "Feature", "properties": { "value": 0.0149 }, "geometry": { "type": "Point", "coordinates": [ 129.332062, 35.479687, 10.0 ] } },
{ "type": "Feature", "properties": { "value": 0.0038 }, "geometry": { "type": "Point", "coordinates": [ 129.33316, 35.479683, 10.0 ] } },
{ "type": "Feature", "properties": { "value": 0.0033 }, "geometry": { "type": "Point", "coordinates": [ 129.321045, 35.480618, 10.0 ] } },
{ "type": "Feature", "properties": { "value": 0.011 }, "geometry": { "type": "Point", "coordinates": [ 129.322144, 35.480614, 10.0 ] } },
{ "type": "Feature", "properties": { "value": 0.0166 }, "geometry": { "type": "Point", "coordinates": [ 129.323242, 35.48061, 10.0 ] } },
{ "type": "Feature", "properties": { "value": 0.0224 }, "geometry": { "type": "Point", "coordinates": [ 129.324341, 35.48061, 10.0 ] } },
{ "type": "Feature", "properties": { "value": 0.0328 }, "geometry": { "type": "Point", "coordinates": [ 129.325455, 35.480606, 10.0 ] } },
{ "type": "Feature", "properties": { "value": 0.0349 }, "geometry": { "type": "Point", "coordinates": [ 129.326553, 35.480602, 10.0 ] } },
{ "type": "Feature", "properties": { "value": 0.033 }, "geometry": { "type": "Point", "coordinates": [ 129.327652, 35.480598, 10.0 ] } },
{ "type": "Feature", "properties": { "value": 0.0227 }, "geometry": { "type": "Point", "coordinates": [ 129.328751, 35.480595, 10.0 ] } },
{ "type": "Feature", "properties": { "value": 0.0169 }, "geometry": { "type": "Point", "coordinates": [ 129.329849, 35.480595, 10.0 ] } },
{ "type": "Feature", "properties": { "value": 0.0112 }, "geometry": { "type": "Point", "coordinates": [ 129.330963, 35.480591, 10.0 ] } },
{ "type": "Feature", "properties": { "value": 0.0034 }, "geometry": { "type": "Point", "coordinates": [ 129.332062, 35.480587, 10.0 ] } },
{ "type": "Feature", "properties": { "value": 0.0023 }, "geometry": { "type": "Point", "coordinates": [ 129.322144, 35.481514, 10.0 ] } },
{ "type": "Feature", "properties": { "value": 0.0035 }, "geometry": { "type": "Point", "coordinates": [ 129.323242, 35.481514, 10.0 ] } },
{ "type": "Feature", "properties": { "value": 0.009 }, "geometry": { "type": "Point", "coordinates": [ 129.324356, 35.48151, 10.0 ] } },
{ "type": "Feature", "properties": { "value": 0.0107 }, "geometry": { "type": "Point", "coordinates": [ 129.325455, 35.481506, 10.0 ] } },
{ "type": "Feature", "properties": { "value": 0.0114 }, "geometry": { "type": "Point", "coordinates": [ 129.326553, 35.481503, 10.0 ] } },
{ "type": "Feature", "properties": { "value": 0.0108 }, "geometry": { "type": "Point", "coordinates": [ 129.327652, 35.481503, 10.0 ] } },
{ "type": "Feature", "properties": { "value": 0.009 }, "geometry": { "type": "Point", "coordinates": [ 129.328751, 35.481499, 10.0 ] } },
{ "type": "Feature", "properties": { "value": 0.0035 }, "geometry": { "type": "Point", "coordinates": [ 129.329865, 35.481495, 10.0 ] } },
{ "type": "Feature", "properties": { "value": 0.0024 }, "geometry": { "type": "Point", "coordinates": [ 129.330963, 35.481491, 10.0 ] } },
{ "type": "Feature", "properties": { "value": 0.0021 }, "geometry": { "type": "Point", "coordinates": [ 129.325455, 35.482407, 10.0 ] } },
{ "type": "Feature", "properties": { "value": 0.0022 }, "geometry": { "type": "Point", "coordinates": [ 129.326553, 35.482407, 10.0 ] } },
{ "type": "Feature", "properties": { "value": 0.0021 }, "geometry": { "type": "Point", "coordinates": [ 129.327652, 35.482403, 10.0 ] } }
]
}
