{
"type": "FeatureCollection",
"features": [
{ "type": "Feature", "properties": { "value": 0.0 }, "geometry": { "type": "Point", "coordinates": [ 129.327576, 35.463474, 450.0 ] } },
{ "type": "Feature", "properties": { "value": 0.0 }, "geometry": { "type": "Point", "coordinates": [ 129.32869, 35.46347, 450.0 ] } },
{ "type": "Feature", "properties": { "value": 0.0 }, "geometry": { "type": "Point", "coordinates": [ 129.329788, 35.46347, 450.0 ] } },
{ "type": "Feature", "properties": { "value": 0.0 }, "geometry": { "type": "Point", "coordinates": [ 129.326477, 35.464378, 450.0 ] } },
{ "type": "Feature", "properties": { "value": 0.0 }, "geometry": { "type": "Point", "coordinates": [ 129.327591, 35.464375, 450.0 ] } },
{ "type": "Feature", "properties": { "value": 0.0 }, "geometry": { "type": "Point", "coordinates": [ 129.32869, 35.464375, 450.0 ] } },
{ "type": "Feature", "properties": { "value": 0.0 }, "geometry": { "type": "Point", "coordinates": [ 129.329788, 35.464371, 450.0 ] } },
{ "type": "Feature", "properties": { "value": 0.0 }, "geometry": { "type": "Point", "coordinates": [ 129.330887, 35.464367, 450.0 ] } },
{ "type": "Feature", "properties": { "value": 0.0 }, "geometry": { "type": "Point", "coordinates": [ 129.325394, 35.465282, 450.0 ] } },
{ "type": "Feature", "properties": { "value": 0.0 }, "geometry": { "type": "Point", "coordinates": [ 129.326492, 35.465279, 450.0 ] } },
{ "type": "Feature", "properties": { "value": 0.0 }, "geometry": { "type": "Point", "coordinates": [ 129.327591, 35.465279, 450.0 ] } },
{ "type": "Feature", "properties": { "value": 0.0 }, "geometry": { "type": "Point", "coordinates": [ 129.32869, 35.465275, 450.0 ] } },
{ "type": "Feature", "properties": { "value": 0.0 }, "geometry": { "type": "Point", "coordinates": [ 129.329788, 35.465271, 450.0 ] } },
{ "type": "Feature", "properties": { "value": 0.0 }, "geometry": { "type": "Point", "coordinates": [ 129.330887, 35.465267, 450.0 ] } },
{ "type": "Feature", "properties": { "value": 0.0 }, "geometry": { "type": "Point", "coordinates": [ 129.325394, 35.466187, 450.0 ] } },
{ "type": "Feature", "properties": { "value": 0.0 }, "geometry": { "type": "Point", "coordinates": [ 129.326492, 35.466183, 450.0 ] } },
{ "type": "Feature", "properties": { "value": 0.0001 }, "geometry": { "type": "Point", "coordinates": [ 129.327591, 35.466179, 450.0 ] } },
{ "type": "Feature", "properties": { "value": 0.0001 }, "geometry": { "type": "Point", "coordinates": [ 129.32869, 35.466175, 450.0 ] } },
{ "type": "Feature", "properties": { "value": 0.0001 }, "geometry": { "type": "Point", "coordinates": [ 129.329803, 35.466171, 450.0 ] } },
{ "type": "Feature", "properties": { "value": 0.0 }, "geometry": { "type": "Point", "coordinates": [ 129.330902, 35.466171, 450.0 ] } },
{ "type": "Feature", "properties": { "value": 0.0 }, "geometry": { "type": "Point", "coordinates": [ 129.332001, 35.466167, 450.0 ] } },
{ "type": "Feature", "properties": { "value": 0.0 }, "geometry": { "type": "Point", "coordinates": [ 129.325394, 35.467087, 450.0 ] } },
{ "type": "Feature", "properties": { "value": 0.0001 }, "geometry": { "type": "Point", "coordinates": [ 129.326492, 35.467083, 450.0 ] } },
{ "type": "Feature", "properties": { "value": 0.0002 }, "geometry": { "type": "Point", "coordinates": [ 129.327591, 35.467079, 450.0 ] } },
{ "type": "Feature", "properties": { "value": 0.0004 }, "geometry": { "type": "Point", "coordinates": [ 129.328705, 35.467075, 450.0 ] } },
{ "type": "Feature", "properties": { "value": 0.0003 }, "geometry": { "type": "Point", "coordinates": [ 129.329803, 35.467075, 450.0 ] } },
{ "type": "Feature", "properties": { "value": 0.0001 }, "geometry": { "type": "Point", "coordinates": [ 129.330902, 35.467072, 450.0 ] } },
{ "type": "Feature", "properties": { "value": 0.0 }, "geometry": { "type": "Point", "coordinates": [ 129.332001, 35.467068, 450.0 ] } },
{ "type": "Feature", "properties": { "value": 0.0 }, "geometry": { "type": "Point", "coordinates": [ 129.325394, 35.467987, 450.0 ] } },
{ "type": "Feature", "properties": { "value": 0.0001 }, "geometry": { "type": "Point", "coordinates": [ 129.326492, 35.467983, 450.0 ] } },
{ "type": "Feature", "properties": { "value": 0.0003 }, "geometry": { "type": "Point", "coordinates": [ 129.327606, 35.467983, 450.0 ] } },
{ "type": "Feature", "properties": { "value": 0.0007 }, "geometry": { "type": "Point", "coordinates": [ 129.328705, 35.467979, 450.0 ] } },
{ "type": "Feature", "properties": { "value": 0.0007 }, "geometry": { "type": "Point", "coordinates": [ 129.329803, 35.467976, 450.0 ] } },
{ "type": "Feature", "properties": { "value": 0.0003 }, "geometry": { "type": "Point", "coordinates": [ 129.330902, 35.467972, 450.0 ] } },
{ "type": "Feature", "properties": { "value": 0.0001 }, "geometry": { "type": "Point", "coordinates": [ 129.332001, 35.467968, 450.0 ] } },
{ "type": "Feature", "properties": { "value": 0.0 }, "geometry": { "type": "Point", "coordinates": [ 129.333115, 35.467968, 450.0 ] } },
{ "type": "Feature", "properties": { "value": 0.0 }, "geometry": { "type": "Point", "coordinates": [ 129.325394, 35.468887, 450.0 ] } },
{ "type": "Feature", "properties": { "value": 0.0001 }, "geometry": { "type": "Point", "coordinates": [ 129.326508, 35.468887, 450.0 ] } },
{ "type": "Feature", "properties": { "value": 0.0004 }, "geometry": { "type": "Point", "coordinates": [ 129.327606, 35.468884, 450.0 ] } },
{ "type": "Feature", "properties": { "value": 0.0007 }, "geometry": { "type": "Point", "coordinates": [ 129.328705, 35.46888, 450.0 ] } },
{ "type": "Feature", "properties": { "value": 0.0008 }, "geometry": { "type": "Point", "coordinates": [ 129.329803, 35.468876, 450.0 ] } },
{ "type": "Feature", "properties": { "value": 0.0004 }, "geometry": { "type": "Point", "coordinates": [ 129.330902, 35.468872, 450.0 ] } },
{ "type": "Feature", "properties": { "value": 0.0001 }, "geometry": { "type": "Point", "coordinates": [ 129.332016, 35.468872, 450.0 ] } },
{ "type": "Feature", "properties": { "value": 0.0 }, "geometry": { "type": "Point", "coordinates": [ 129.333115, 35.468868, 450.0 ] } },
{ "type": "Feature", "properties": { "value": 0.0 }, "geometry": { "type": "Point", "coordinates": [ 129.325409, 35.469791, 450.0 ] } },
{ "type": "Feature", "properties": { "value": 0.0001 }, "geometry": { "type": "Point", "coordinates": [ 129.326508, 35.469788, 450.0 ] } },
{ "type": "Feature", "properties": { "value": 0.0002 }, "geometry": { "type": "Point", "coordinates": [ 129.327606, 35.469784, 450.0 ] } },
{ "type": "Feature", "properties": { "value": 0.0006 }, "geometry": { "type": "Point", "coordinates": [ 129.328705, 35.46978, 450.0 ] } },
{ "type": "Feature", "properties": { "value": 0.0006 }, "geometry": { "type": "Point", "coordinates": [ 129.329819, 35.469776, 450.0 ] } },
{ "type": "Feature", "properties": { "value": 0.0002 }, "geometry": { "type": "Point", "coordinates": [ 129.330917, 35.469776, 450.0 ] } },
{ "type": "Feature", "properties": { "value": 0.0 }, "geometry": { "type": "Point", "coordinates": [ 129.332016, 35.469772, 450.0 ] } },
{ "type": "Feature", "properties": { "value": 0.0 }, "geometry": { "type": "Point", "coordinates": [ 129.333115, 35.469769, 450.0 ] } },
{ "type": "Feature", "properties": { "value": 0.0 }, "geometry": { "type": "Point", "coordinates": [ 129.326508, 35.470688, 450.0 ] } },
{ "type": "Feature", "properties": { "value": 0.0001 }, "geometry": { "type": "Point", "coordinates": [ 129.327606, 35.470684, 450.0 ] } },
{ "type": "Feature", "properties": { "value": 0.0003 }, "geometry": { "type": "Point", "coordinates": [ 129.32872, 35.470684, 450.0 ] } },
{ "type": "Feature", "properties": { "value": 0.0002 }, "geometry": { "type": "Point", "coordinates": [ 129.329819, 35.47068, 450.0 ] } },
{ "type": "Feature", "properties": { "value": 0.0001 }, "geometry": { "type": "Point", "coordinates": [ 129.330917, 35.470676, 450.0 ] } },
{ "type": "Feature", "properties": { "value": 0.0 }, "geometry": { "type": "Point", "coordinates": [ 129.332016, 35.470673, 450.0 ] } },
{ "type": "Feature", "properties": { "value": 0.0 }, "geometry": { "type": "Point", "coordinates": [ 129.333115, 35.470669, 450.0 ] } },
{ "type": "Feature", "properties": { "value": 0.0 }, "geometry": { "type": "Point", "coordinates": [ 129.326508, 35.471588, 450.0 ] } },
{ "type": "Feature", "properties": { "value": 0.0 }, "geometry": { "type": "Point", "coordinates": [ 129.327621, 35.471588, 450.0 ] } },
{ "type": "Feature", "properties": { "value": 0.0001 }, "geometry": { "type": "Point", "coordinates": [ 129.32872, 35.471584, 450.0 ] } },
{ "type": "Feature", "properties": { "value": 0.0001 }, "geometry": { "type": "Point", "coordinates": [ 129.329819, 35.471581, 450.0 ] } },
{ "type": "Feature", "properties": { "value": 0.0 }, "geometry": { "type": "Point", "coordinates": [ 129.330917, 35.471577, 450.0 ] } },
{ "type": "Feature", "properties": { "value": 0.0 }, "geometry": { "type": "Point", "coordinates": [ 129.332016, 35.471573, 450.0 ] } },
{ "type": "Feature", "properties": { "value": 0.0 }, "geometry": { "type": "Point", "coordinates": [ 129.33313, 35.471573, 450.0 ] } },
{ "type": "Feature", "properties": { "value": 0.0 }, "geometry": { "type": "Point", "coordinates": [ 129.326523, 35.472492, 450.0 ] } },
{ "type": "Feature", "properties": { "value": 0.0 }, "geometry": { "type": "Point", "coordinates": [ 129.327621, 35.472488, 450.0 ] } },
{ "type": "Feature", "properties": { "value": 0.0 }, "geometry": { "type": "Point", "coordinates": [ 129.32872, 35.472485, 450.0 ] } },
{ "type": "Feature", "properties": { "value": 0.0 }, "geometry": { "type": "Point", "coordinates": [ 129.329819, 35.472481, 450.0 ] } },
{ "type": "Feature", "properties": { "value": 0.0 }, "geometry": { "type": "Point", "coordinates": [ 129.330917, 35.472477, 450.0 ] } },
{ "type": "Feature", "properties": { "value": 0.0 }, "geometry": { "type": "Point", "coordinates": [ 129.332031, 35.472477, 450.0 ] } },
{ "type": "Feature", "properties": { "value": 0.0 }, "geometry": { "type": "Point", "coordinates": [ 129.33313, 35.472473, 450.0 ] } },
{ "type": "Feature", "properties": { "value": 0.0 }, "geometry": { "type": "Point", "coordinates": [ 129.326523, 35.473392, 450.0 ] } },
{ "type": "Feature", "properties": { "value": 0.0 }, "geometry": { "type": "Point", "coordinates": [ 129.327621, 35.473389, 450.0 ] } },
{ "type": "Feature", "properties": { "value": 0.0 }, "geometry": { "type": "Point", "coordinates": [ 129.32872, 35.473385, 450.0 ] } },
{ "type": "Feature", "properties": { "value": 0.0 }, "geometry": { "type": "Point", "coordinates": [ 129.329819, 35.473385, 450.0 ] } },
{ "type": "Feature", "properties": { "value": 0.0 }, "geometry": { "type": "Point", "coordinates": [ 129.330933, 35.473381, 450.0 ] } },
{ "type": "Feature", "properties": { "value": 0.0 }, "geometry": { "type": "Point", "coordinates": [ 129.332031, 35.473377, 450.0 ] } },
{ "type": "Feature", "properties": { "value": 0.0 }, "geometry": { "type": "Point", "coordinates": [ 129.33313, 35.473373, 450.0 ] } },
{ "type": "Feature", "properties": { "value": 0.0 }, "geometry": { "type": "Point", "coordinates": [ 129.334229, 35.47337, 450.0 ] } },
{ "type": "Feature", "properties": { "value": 0.0 }, "geometry": { "type": "Point", "coordinates": [ 129.326523, 35.474293, 450.0 ] } },
{ "type": "Feature", "properties": { "value": 0.0 }, "geometry": { "type": "Point", "coordinates": [ 129.327621, 35.474289, 450.0 ] } },
{ "type": "Feature", "properties": { "value": 0.0 }, "geometry": { "type": "Point", "coordinates": [ 129.328735, 35.474289, 450.0 ] } },
{ "type": "Feature", "properties": { "value": 0.0 }, "geometry": { "type": "Point", "coordinates": [ 129.329834, 35.474285, 450.0 ] } },
{ "type": "Feature", "properties": { "value": 0.0 }, "geometry": { "type": "Point", "coordinates": [ 129.330933, 35.474281, 450.0 ] } },
{ "type": "Feature", "properties": { "value": 0.0 }, "geometry": { "type": "Point", "coordinates": [ 129.332031, 35.474277, 450.0 ] } },
{ "type": "Feature", "properties": { "value": 0.0 }, "geometry": { "type": "Point", "coordinates": [ 129.33313, 35.474274, 450.0 ] } },
{ "type": "Feature", "properties": { "value": 0.0 }, "geometry": { "type": "Point", "coordinates": [ 129.334244, 35.474274, 450.0 ] } },
{ "type": "Feature", "properties": { "value": 0.0 }, "geometry": { "type": "Point", "coordinates": [ 129.326523, 35.475193, 450.0 ] } },
{ "type": "Feature", "properties": { "value": 0.0 }, "geometry": { "type": "Point", "coordinates": [ 129.327637, 35.475193, 450.0 ] } },
{ "type": "Feature", "properties": { "value": 0.0 }, "geometry": { "type": "Point", "coordinates": [ 129.328735, 35.475189, 450.0 ] } },
{ "type": "Feature", "properties": { "value": 0.0 }, "geometry": { "type": "Point", "coordinates": [ 129.329834, 35.475185, 450.0 ] } },
{ "type": "Feature", "properties": { "value": 0.0 }, "geometry": { "type": "Point", "coordinates": [ 129.330933, 35.475182, 450.0 ] } },
{ "type": "Feature", "properties": { "value": 0.0 }, "geometry": { "type": "Point", "coordinates": [ 129.332031, 35.475178, 450.0 ] } },
{ "type": "Feature", "properties": { "value": 0.0 }, "geometry": { "type": "Point", "coordinates": [ 129.333145, 35.475178, 450.0 ] } },
{ "type": "Feature", "properties": { "value": 0.0 }, "geometry": { "type": "Point", "coordinates": [ 129.334244, 35.475174, 450.0 ] } },
{ "type": "Feature", "properties": { "value": 0.0 }, "geometry": { "type": "Point", "coordinates": [ 129.327637, 35.476093, 450.0 ] } },
{ "type": "Feature", "properties": { "value": 0.0 }, "geometry": { "type": "Point", "coordinates": [ 129.328735, 35.476089, 450.0 ] } },
{ "type": "Feature", "properties": { "value": 0.0 }, "geometry": { "type": "Point", "coordinates": [ 129.329834, 35.476086, 450.0 ] } },
{ "type": "Feature", "properties": { "value": 0.0001 }, "geometry": { "type": "Point", "coordinates": [ 129.330933, 35.476086, 450.0 ] } },
{ "type": "Feature", "properties": { "value": 0.0001 }, "geometry": { "type": "Point", "coordinates": [ 129.332047, 35.476082, 450.0 ] } },
{ "type": "Feature", "properties": { "value": 0.0001 }, "geometry": { "type": "Point", "coordinates": [ 129.333145, 35.476078, 450.0 ] } },
{ "type": "Feature", "properties": { "value": 0.0 }, "geometry": { "type": "Point", "coordinates": [ 129.334244, 35.476074, 450.0 ] } },
{ "type": "Feature", "properties": { "value": 0.0 }, "geometry": { "type": "Point", "coordinates": [ 129.327637, 35.476994, 450.0 ] } },
{ "type": "Feature", "properties": { "value": 0.0 }, "geometry": { "type": "Point", "coordinates": [ 129.328735, 35.47699, 450.0 ] } },
{ "type": "Feature", "properties": { "value": 0.0001 }, "geometry": { "type": "Point", "coordinates": [ 129.329834, 35.47699, 450.0 ] } },
{ "type": "Feature", "properties": { "value": 0.0002 }, "geometry": { "type": "Point", "coordinates": [ 129.330948, 35.476986, 450.0 ] } },
{ "type": "Feature", "properties": { "value": 0.0002 }, "geometry": { "type": "Point", "coordinates": [ 129.332047, 35.476982, 450.0 ] } },
{ "type": "Feature", "properties": { "value": 0.0001 }, "geometry": { "type": "Point", "coordinates": [ 129.333145, 35.476978, 450.0 ] } },
{ "type": "Feature", "properties": { "value": 0.0 }, "geometry": { "type": "Point", "coordinates": [ 129.334244, 35.476974, 450.0 ] } },
{ "type": "Feature", "properties": { "value": 0.0 }, "geometry": { "type": "Point", "coordinates": [ 129.335342, 35.476974, 450.0 ] } },
{ "type": "Feature", "properties": { "value": 0.0 }, "geometry": { "type": "Point", "coordinates": [ 129.327637, 35.477894, 450.0 ] } },
{ "type": "Feature", "properties": { "value": 0.0 }, "geometry": { "type": "Point", "coordinates": [ 129.328735, 35.477894, 450.0 ] } },
{ "type": "Feature", "properties": { "value": 0.0001 }, "geometry": { "type": "Point", "coordinates": [ 129.329849, 35.47789, 450.0 ] } },
{ "type": "Feature", "properties": { "value": 0.0003 }, "geometry": { "type": "Point", "coordinates": [ 129.330948, 35.477886, 450.0 ] } },
{ "type": "Feature", "properties": { "value": 0.0003 }, "geometry": { "type": "Point", "coordinates": [ 129.332047, 35.477882, 450.0 ] } },
{ "type": "Feature", "properties": { "value": 0.0002 }, "geometry": { "type": "Point", "coordinates": [ 129.333145, 35.477879, 450.0 ] } },
{ "type": "Feature", "properties": { "value": 0.0001 }, "geometry": { "type": "Point", "coordinates": [ 129.334259, 35.477879, 450.0 ] } },
{ "type": "Feature", "properties": { "value": 0.0 }, "geometry": { "type": "Point", "coordinates": [ 129.335358, 35.477875, 450.0 ] } },
{ "type": "Feature", "properties": { "value": 0.0 }, "geometry": { "type": "Point", "coordinates": [ 129.327637, 35.478798, 450.0 ] } },
{ "type": "Feature", "properties": { "value": 0.0 }, "geometry": { "type": "Point", "coordinates": [ 129.328751, 35.478794, 450.0 ] } },
{ "type": "Feature", "properties": { "value": 0.0001 }, "geometry": { "type": "Point", "coordinates": [ 129.329849, 35.47879, 450.0 ] } },
{ "type": "Feature", "properties": { "value": 0.0003 }, "geometry": { "type": "Point", "coordinates": [ 129.330948, 35.478786, 450.0 ] } },
{ "type": "Feature", "properties": { "value": 0.0004 }, "geometry": { "type": "Point", "coordinates": [ 129.332047, 35.478786, 450.0 ] } },
{ "type": "Feature", "properties": { "value": 0.0002 }, "geometry": { "type": "Point", "coordinates": [ 129.33316, 35.478783, 450.0 ] } },
{ "type": "Feature", "properties": { "value": 0.0001 }, "geometry": { "type": "Point", "coordinates": [ 129.334259, 35.478779, 450.0 ] } },
{ "type": "Feature", "properties": { "value": 0.0 }, "geometry": { "type": "Point", "coordinates": [ 129.335358, 35.478775, 450.0 ] } },
{ "type": "Feature", "properties": { "value": 0.0 }, "geometry": { "type": "Point", "coordinates": [ 129.328751, 35.479694, 450.0 ] } },
{ "type": "Feature", "properties": { "value": 0.0001 }, "geometry": { "type": "Point", "coordinates": [ 129.329849, 35.479691, 450.0 ] } },
{ "type": "Feature", "properties": { "value": 0.0003 }, "geometry": { "type": "Point", "coordinates": [ 129.330948, 35.479691, 450.0 ] } },
{ "type": "Feature", "properties": { "value": 0.0004 }, "geometry": { "type": "Point", "coordinates": [ 129.332062, 35.479687, 450.0 ] } },
{ "type": "Feature", "properties": { "value": 0.0003 }, "geometry": { "type": "Point", "coordinates": [ 129.33316, 35.479683, 450.0 ] } },
{ "type": "Feature", "properties": { "value": 0.0001 }, "geometry": { "type": "Point", "coordinates": [ 129.334259, 35.479679, 450.0 ] } },
{ "type": "Feature", "properties": { "value": 0.0 }, "geometry": { "type": "Point", "coordinates": [ 129.335358, 35.479675, 450.0 ] } },
{ "type": "Feature", "properties": { "value": 0.0 }, "geometry": { "type": "Point", "coordinates": [ 129.336456, 35.479675, 450.0 ] } },
{ "type": "Feature", "properties": { "value": 0.0 }, "geometry": { "type": "Point", "coordinates": [ 129.328751, 35.480595, 450.0 ] } },
{ "type": "Feature", "properties": { "value": 0.0001 }, "geometry": { "type": "Point", "coordinates": [ 129.329849, 35.480595, 450.0 ] } },
{ "type": "Feature", "properties": { "value": 0.0002 }, "geometry": { "type": "Point", "coordinates": [ 129.330963, 35.480591, 450.0 ] } },
{ "type": "Feature", "properties": { "value": 0.0003 }, "geometry": { "type": "Point", "coordinates": [ 129.332062, 35.480587, 450.0 ] } },
{ "type": "Feature", "properties": { "value": 0.0003 }, "geometry": { "type": "Point", "coordinates": [ 129.33316, 35.480583, 450.0 ] } },
{ "type": "Feature", "properties": { "value": 0.0002 }, "geometry": { "type": "Point", "coordinates": [ 129.334259, 35.480579, 450.0 ] } },
{ "type": "Feature", "properties": { "value": 0.0001 }, "geometry": { "type": "Point", "coordinates": [ 129.335358, 35.480579, 450.0 ] } },
{ "type": "Feature", "properties": { "value": 0.0 }, "geometry": { "type": "Point", "coordinates": [ 129.336472, 35.480576, 450.0 ] } },
{ "type": "Feature", "properties": { "value": 0.0 }, "geometry": { "type": "Point", "coordinates": [ 129.328751, 35.481499, 450.0 ] } },
{ "type": "Feature", "properties": { "value": 0.0 }, "geometry": { "type": "Point", "coordinates": [ 129.329865, 35.481495, 450.0 ] } },
{ "type": "Feature", "properties": { "value": 0.0001 }, "geometry": { "type": "Point", "coordinates": [ 129.330963, 35.481491, 450.0 ] } },
{ "type": "Feature", "properties": { "value": 0.0003 }, "geometry": { "type": "Point", "coordinates": [ 129.332062, 35.481487, 450.0 ] } },
{ "type": "Feature", "properties": { "value": 0.0003 }, "geometry": { "type": "Point", "coordinates": [ 129.33316, 35.481487, 450.0 ] } },
{ "type": "Feature", "properties": { "value": 0.0002 }, "geometry": { "type": "Point", "coordinates": [ 129.334259, 35.481483, 450.0 ] } },
{ "type": "Feature", "properties": { "value": 0.0001 }, "geometry": { "type": "Point", "coordinates": [ 129.335373, 35.48148, 450.0 ] } },
{ "type": "Feature", "properties": { "value": 0.0 }, "geometry": { "type": "Point", "coordinates": [ 129.336472, 35.481476, 450.0 ] } },
{ "type": "Feature", "properties": { "value": 0.0 }, "geometry": { "type": "Point", "coordinates": [ 129.33757, 35.481472, 450.0 ] } },
{ "type": "Feature", "properties": { "value": 0.0 }, "geometry": { "type": "Point", "coordinates": [ 129.328766, 35.482399, 450.0 ] } },
{ "type": "Feature", "properties": { "value": 0.0 }, "geometry": { "type": "Point", "coordinates": [ 129.329865, 35.482395, 450.0 ] } },
{ "type": "Feature", "properties": { "value": 0.0001 }, "geometry": { "type": "Point", "coordinates": [ 129.330963, 35.482391, 450.0 ] } },
{ "type": "Feature", "properties": { "value": 0.0002 }, "geometry": { "type": "Point", "coordinates": [ 129.332062, 35.482391, 450.0 ] } },
{ "type": "Feature", "properties": { "value": 0.0003 }, "geometry": { "type": "Point", "coordinates": [ 129.333176, 35.482388, 450.0 ] } },
{ "type": "Feature", "properties": { "value": 0.0003 }, "geometry": { "type": "Point", "coordinates": [ 129.334274, 35.482384, 450.0 ] } },
{ "type": "Feature", "properties": { "value": 0.0001 }, "geometry": { "type": "Point", "coordinates": [ 129.335373, 35.48238, 450.0 ] } },
{ "type": "Feature", "properties": { "value": 0.0 }, "geometry": { "type": "Point", "coordinates": [ 129.336472, 35.482376, 450.0 ] } },
{ "type": "Feature", "properties": { "value": 0.0 }, "geometry": { "type": "Point", "coordinates": [ 129.33757, 35.482376, 450.0 ] } },
{ "type": "Feature", "properties": { "value": 0.0 }, "geometry": { "type": "Point", "coordinates": [ 129.329865, 35.483295, 450.0 ] } },
{ "type": "Feature", "properties": { "value": 0.0001 }, "geometry": { "type": "Point", "coordinates": [ 129.330963, 35.483295, 450.0 ] } },
{ "type": "Feature", "properties": { "value": 0.0002 }, "geometry": { "type": "Point", "coordinates": [ 129.332077, 35.483292, 450.0 ] } },
{ "type": "Feature", "properties": { "value": 0.0003 }, "geometry": { "type": "Point", "coordinates": [ 129.333176, 35.483288, 450.0 ] } },
{ "type": "Feature", "properties": { "value": 0.0004 }, "geometry": { "type": "Point", "coordinates": [ 129.334274, 35.483284, 450.0 ] } },
{ "type": "Feature", "properties": { "value": 0.0004 }, "geometry": { "type": "Point", "coordinates": [ 129.335373, 35.48328, 450.0 ] } },
{ "type": "Feature", "properties": { "value": 0.0003 }, "geometry": { "type": "Point", "coordinates": [ 129.336472, 35.48328, 450.0 ] } },
{ "type": "Feature", "properties": { "value": 0.0001 }, "geometry": { "type": "Point", "coordinates": [ 129.337585, 35.483276, 450.0 ] } },
{ "type": "Feature", "properties": { "value": 0.0 }, "geometry": { "type": "Point", "coordinates": [ 129.338684, 35.483273, 450.0 ] } },
{ "type": "Feature", "properties": { "value": 0.0 }, "geometry": { "type": "Point", "coordinates": [ 129.329865, 35.4842, 450.0 ] } },
{ "type": "Feature", "properties": { "value": 0.0 }, "geometry": { "type": "Point", "coordinates": [ 129.330978, 35.484196, 450.0 ] } },
{ "type": "Feature", "properties": { "value": 0.0002 }, "geometry": { "type": "Point", "coordinates": [ 129.332077, 35.484192, 450.0 ] } },
{ "type": "Feature", "properties": { "value": 0.0006 }, "geometry": { "type": "Point", "coordinates": [ 129.333176, 35.484188, 450.0 ] } },
{ "type": "Feature", "properties": { "value": 0.0014 }, "geometry": { "type": "Point", "coordinates": [ 129.334274, 35.484188, 450.0 ] } },
{ "type": "Feature", "properties": { "value": 0.0021 }, "geometry": { "type": "Point", "coordinates": [ 129.335373, 35.484184, 450.0 ] } },
{ "type": "Feature", "properties": { "value": 0.0022 }, "geometry": { "type": "Point", "coordinates": [ 129.336487, 35.48418, 450.0 ] } },
{ "type": "Feature", "properties": { "value": 0.0017 }, "geometry": { "type": "Point", "coordinates": [ 129.337585, 35.484177, 450.0 ] } },
{ "type": "Feature", "properties": { "value": 0.0009 }, "geometry": { "type": "Point", "coordinates": [ 129.338684, 35.484173, 450.0 ] } },
{ "type": "Feature", "properties": { "value": 0.0 }, "geometry": { "type": "Point", "coordinates": [ 129.32988, 35.4851, 450.0 ] } },
{ "type": "Feature", "properties": { "value": 0.0 }, "geometry": { "type": "Point", "coordinates": [ 129.330978, 35.485096, 450.0 ] } },
{ "type": "Feature", "properties": { "value": 0.0004 }, "geometry": { "type": "Point", "coordinates": [ 129.332077, 35.485092, 450.0 ] } },
{ "type": "Feature", "properties": { "value": 0.0018 }, "geometry": { "type": "Point", "coordinates": [ 129.333176, 35.485092, 450.0 ] } },
{ "type": "Feature", "properties": { "value": 0.0045 }, "geometry": { "type": "Point", "coordinates": [ 129.334274, 35.485088, 450.0 ] } },
{ "type": "Feature", "properties": { "value": 0.0079 }, "geometry": { "type": "Point", "coordinates": [ 129.335388, 35.485085, 450.0 ] } },
{ "type": "Feature", "properties": { "value": 0.0097 }, "geometry": { "type": "Point", "coordinates": [ 129.336487, 35.485081, 450.0 ] } },
{ "type": "Feature", "properties": { "value": 0.0089 }, "geometry": { "type": "Point", "coordinates": [ 129.337585, 35.485077, 450.0 ] } },
{ "type": "Feature", "properties": { "value": 0.0061 }, "geometry": { "type": "Point", "coordinates": [ 129.338684, 35.485077, 450.0 ] } },
{ "type": "Feature", "properties": { "value": 0.0029 }, "geometry": { "type": "Point", "coordinates": [ 129.339798, 35.485073, 450.0 ] } },
{ "type": "Feature", "properties": { "value": 0.0001 }, "geometry": { "type": "Point", "coordinates": [ 129.330978, 35.485996, 450.0 ] } },
{ "type": "Feature", "properties": { "value": 0.0011 }, "geometry": { "type": "Point", "coordinates": [ 129.332077, 35.485996, 450.0 ] } },
{ "type": "Feature", "properties": { "value": 0.0045 }, "geometry": { "type": "Point", "coordinates": [ 129.333176, 35.485992, 450.0 ] } },
{ "type": "Feature", "properties": { "value": 0.0122 }, "geometry": { "type": "Point", "coordinates": [ 129.33429, 35.485989, 450.0 ] } },
{ "type": "Feature", "properties": { "value": 0.0225 }, "geometry": { "type": "Point", "coordinates": [ 129.335388, 35.485985, 450.0 ] } },
{ "type": "Feature", "properties": { "value": 0.0304 }, "geometry": { "type": "Point", "coordinates": [ 129.336487, 35.485981, 450.0 ] } },
{ "type": "Feature", "properties": { "value": 0.0305 }, "geometry": { "type": "Point", "coordinates": [ 129.337585, 35.485981, 450.0 ] } },
{ "type": "Feature", "properties": { "value": 0.0233 }, "geometry": { "type": "Point", "coordinates": [ 129.338699, 35.485977, 450.0 ] } },
{ "type": "Feature", "properties": { "value": 0.0139 }, "geometry": { "type": "Point", "coordinates": [ 129.339798, 35.485973, 450.0 ] } },
{ "type": "Feature", "properties": { "value": 0.0063 }, "geometry": { "type": "Point", "coordinates": [ 129.340897, 35.48597, 450.0 ] } },
{ "type": "Feature", "properties": { "value": 0.0002 }, "geometry": { "type": "Point", "coordinates": [ 129.341995, 35.485966, 450.0 ] } },
{ "type": "Feature", "properties": { "value": 0.0002 }, "geometry": { "type": "Point", "coordinates": [ 129.330978, 35.4869, 450.0 ] } },
{ "type": "Feature", "properties": { "value": 0.0022 }, "geometry": { "type": "Point", "coordinates": [ 129.332092, 35.486897, 450.0 ] } },
{ "type": "Feature", "properties": { "value": 0.0095 }, "geometry": { "type": "Point", "coordinates": [ 129.333191, 35.486893, 450.0 ] } },
{ "type": "Feature", "properties": { "value": 0.0258 }, "geometry": { "type": "Point", "coordinates": [ 129.33429, 35.486889, 450.0 ] } },
{ "type": "Feature", "properties": { "value": 0.0502 }, "geometry": { "type": "Point", "coordinates": [ 129.335388, 35.486889, 450.0 ] } },
{ "type": "Feature", "properties": { "value": 0.0721 }, "geometry": { "type": "Point", "coordinates": [ 129.336487, 35.486885, 450.0 ] } },
{ "type": "Feature", "properties": { "value": 0.0777 }, "geometry": { "type": "Point", "coordinates": [ 129.337601, 35.486881, 450.0 ] } },
{ "type": "Feature", "properties": { "value": 0.0651 }, "geometry": { "type": "Point", "coordinates": [ 129.338699, 35.486877, 450.0 ] } },
{ "type": "Feature", "properties": { "value": 0.0419 }, "geometry": { "type": "Point", "coordinates": [ 129.339798, 35.486874, 450.0 ] } },
{ "type": "Feature", "properties": { "value": 0.0214 }, "geometry": { "type": "Point", "coordinates": [ 129.340897, 35.486874, 450.0 ] } },
{ "type": "Feature", "properties": { "value": 0.0088 }, "geometry": { "type": "Point", "coordinates": [ 129.341995, 35.48687, 450.0 ] } },
{ "type": "Feature", "properties": { "value": 0.0002 }, "geometry": { "type": "Point", "coordinates": [ 129.343109, 35.486866, 450.0 ] } },
{ "type": "Feature", "properties": { "value": 0.0004 }, "geometry": { "type": "Point", "coordinates": [ 129.330994, 35.487801, 450.0 ] } },
{ "type": "Feature", "properties": { "value": 0.0037 }, "geometry": { "type": "Point", "coordinates": [ 129.332092, 35.487797, 450.0 ] } },
{ "type": "Feature", "properties": { "value": 0.0154 }, "geometry": { "type": "Point", "coordinates": [ 129.333191, 35.487793, 450.0 ] } },
{ "type": "Feature", "properties": { "value": 0.0437 }, "geometry": { "type": "Point", "coordinates": [ 129.33429, 35.487793, 450.0 ] } },
{ "type": "Feature", "properties": { "value": 0.0891 }, "geometry": { "type": "Point", "coordinates": [ 129.335388, 35.487789, 450.0 ] } },
{ "type": "Feature", "properties": { "value": 0.1354 }, "geometry": { "type": "Point", "coordinates": [ 129.336502, 35.487785, 450.0 ] } },
{ "type": "Feature", "properties": { "value": 0.1549 }, "geometry": { "type": "Point", "coordinates": [ 129.337601, 35.487782, 450.0 ] } },
{ "type": "Feature", "properties": { "value": 0.1365 }, "geometry": { "type": "Point", "coordinates": [ 129.338699, 35.487778, 450.0 ] } },
{ "type": "Feature", "properties": { "value": 0.0977 }, "geometry": { "type": "Point", "coordinates": [ 129.339798, 35.487778, 450.0 ] } },
{ "type": "Feature", "properties": { "value": 0.0568 }, "geometry": { "type": "Point", "coordinates": [ 129.340912, 35.487774, 450.0 ] } },
{ "type": "Feature", "properties": { "value": 0.0271 }, "geometry": { "type": "Point", "coordinates": [ 129.34201, 35.48777, 450.0 ] } },
{ "type": "Feature", "properties": { "value": 0.0103 }, "geometry": { "type": "Point", "coordinates": [ 129.343109, 35.487766, 450.0 ] } },
{ "type": "Feature", "properties": { "value": 0.0003 }, "geometry": { "type": "Point", "coordinates": [ 129.344208, 35.487762, 450.0 ] } },
{ "type": "Feature", "properties": { "value": 0.0003 }, "geometry": { "type": "Point", "coordinates": [ 129.330994, 35.488701, 450.0 ] } },
{ "type": "Feature", "properties": { "value": 0.0046 }, "geometry": { "type": "Point", "coordinates": [ 129.332092, 35.488697, 450.0 ] } },
{ "type": "Feature", "properties": { "value": 0.0203 }, "geometry": { "type": "Point", "coordinates": [ 129.333191, 35.488697, 450.0 ] } },
{ "type": "Feature", "properties": { "value": 0.0596 }, "geometry": { "type": "Point", "coordinates": [ 129.33429, 35.488693, 450.0 ] } },
{ "type": "Feature", "properties": { "value": 0.1275 }, "geometry": { "type": "Point", "coordinates": [ 129.335403, 35.488689, 450.0 ] } },
{ "type": "Feature", "properties": { "value": 0.1988 }, "geometry": { "type": "Point", "coordinates": [ 129.336502, 35.488686, 450.0 ] } },
{ "type": "Feature", "properties": { "value": 0.2413 }, "geometry": { "type": "Point", "coordinates": [ 129.337601, 35.488682, 450.0 ] } },
{ "type": "Feature", "properties": { "value": 0.2394 }, "geometry": { "type": "Point", "coordinates": [ 129.338699, 35.488682, 450.0 ] } },
{ "type": "Feature", "properties": { "value": 0.1895 }, "geometry": { "type": "Point", "coordinates": [ 129.339813, 35.488678, 450.0 ] } },
{ "type": "Feature", "properties": { "value": 0.1203 }, "geometry": { "type": "Point", "coordinates": [ 129.340912, 35.488674, 450.0 ] } },
{ "type": "Feature", "properties": { "value": 0.0625 }, "geometry": { "type": "Point", "coordinates": [ 129.34201, 35.48867, 450.0 ] } },
{ "type": "Feature", "properties": { "value": 0.026 }, "geometry": { "type": "Point", "coordinates": [ 129.343109, 35.488667, 450.0 ] } },
{ "type": "Feature", "properties": { "value": 0.008 }, "geometry": { "type": "Point", "coordinates": [ 129.344208, 35.488667, 450.0 ] } },
{ "type": "Feature", "properties": { "value": 0.0047 }, "geometry": { "type": "Point", "coordinates": [ 129.332092, 35.489601, 450.0 ] } },
{ "type": "Feature", "properties": { "value": 0.0223 }, "geometry": { "type": "Point", "coordinates": [ 129.333191, 35.489597, 450.0 ] } },
{ "type": "Feature", "properties": { "value": 0.0665 }, "geometry": { "type": "Point", "coordinates": [ 129.334305, 35.489594, 450.0 ] } },
{ "type": "Feature", "properties": { "value": 0.1444 }, "geometry": { "type": "Point", "coordinates": [ 129.335403, 35.48959, 450.0 ] } },
{ "type": "Feature", "properties": { "value": 0.2442 }, "geometry": { "type": "Point", "coordinates": [ 129.336502, 35.48959, 450.0 ] } },
{ "type": "Feature", "properties": { "value": 0.3243 }, "geometry": { "type": "Point", "coordinates": [ 129.337601, 35.489586, 450.0 ] } },
{ "type": "Feature", "properties": { "value": 0.345 }, "geometry": { "type": "Point", "coordinates": [ 129.338715, 35.489582, 450.0 ] } },
{ "type": "Feature", "properties": { "value": 0.2955 }, "geometry": { "type": "Point", "coordinates": [ 129.339813, 35.489578, 450.0 ] } },
{ "type": "Feature", "properties": { "value": 0.2015 }, "geometry": { "type": "Point", "coordinates": [ 129.340912, 35.489574, 450.0 ] } },
{ "type": "Feature", "properties": { "value": 0.1088 }, "geometry": { "type": "Point", "coordinates": [ 129.34201, 35.489571, 450.0 ] } },
{ "type": "Feature", "properties": { "value": 0.0481 }, "geometry": { "type": "Point", "coordinates": [ 129.343109, 35.489571, 450.0 ] } },
{ "type": "Feature", "properties": { "value": 0.0172 }, "geometry": { "type": "Point", "coordinates": [ 129.344223, 35.489567, 450.0 ] } },
{ "type": "Feature", "properties": { "value": 0.0037 }, "geometry": { "type": "Point", "coordinates": [ 129.345322, 35.489563, 450.0 ] } },
{ "type": "Feature", "properties": { "value": 0.0042 }, "geometry": { "type": "Point", "coordinates": [ 129.332092, 35.490501, 450.0 ] } },
{ "type": "Feature", "properties": { "value": 0.0201 }, "geometry": { "type": "Point", "coordinates": [ 129.333206, 35.490498, 450.0 ] } },
{ "type": "Feature", "properties": { "value": 0.0618 }, "geometry": { "type": "Point", "coordinates": [ 129.334305, 35.490494, 450.0 ] } },
{ "type": "Feature", "properties": { "value": 0.1444 }, "geometry": { "type": "Point", "coordinates": [ 129.335403, 35.490494, 450.0 ] } },
{ "type": "Feature", "properties": { "value": 0.2592 }, "geometry": { "type": "Point", "coordinates": [ 129.336502, 35.49049, 450.0 ] } },
{ "type": "Feature", "properties": { "value": 0.3661 }, "geometry": { "type": "Point", "coordinates": [ 129.337616, 35.490486, 450.0 ] } },
{ "type": "Feature", "properties": { "value": 0.4165 }, "geometry": { "type": "Point", "coordinates": [ 129.338715, 35.490482, 450.0 ] } },
{ "type": "Feature", "properties": { "value": 0.3765 }, "geometry": { "type": "Point", "coordinates": [ 129.339813, 35.490479, 450.0 ] } },
{ "type": "Feature", "properties": { "value": 0.2668 }, "geometry": { "type": "Point", "coordinates": [ 129.340912, 35.490479, 450.0 ] } },
{ "type": "Feature", "properties": { "value": 0.1546 }, "geometry": { "type": "Point", "coordinates": [ 129.34201, 35.490475, 450.0 ] } },
{ "type": "Feature", "properties": { "value": 0.0747 }, "geometry": { "type": "Point", "coordinates": [ 129.343124, 35.490471, 450.0 ] } },
{ "type": "Feature", "properties": { "value": 0.0296 }, "geometry": { "type": "Point", "coordinates": [ 129.344223, 35.490467, 450.0 ] } },
{ "type": "Feature", "properties": { "value": 0.0089 }, "geometry": { "type": "Point", "coordinates": [ 129.345322, 35.490463, 450.0 ] } },
{ "type": "Feature", "properties": { "value": 0.0004 }, "geometry": { "type": "Point", "coordinates": [ 129.34642, 35.490459, 450.0 ] } },
{ "type": "Feature", "properties": { "value": 0.0016 }, "geometry": { "type": "Point", "coordinates": [ 129.332108, 35.491402, 450.0 ] } },
{ "type": "Feature", "properties": { "value": 0.0155 }, "geometry": { "type": "Point", "coordinates": [ 129.333206, 35.491398, 450.0 ] } },
{ "type": "Feature", "properties": { "value": 0.0505 }, "geometry": { "type": "Point", "coordinates": [ 129.334305, 35.491398, 450.0 ] } },
{ "type": "Feature", "properties": { "value": 0.1244 }, "geometry": { "type": "Point", "coordinates": [ 129.335403, 35.491394, 450.0 ] } },
{ "type": "Feature", "properties": { "value": 0.234 }, "geometry": { "type": "Point", "coordinates": [ 129.336517, 35.49139, 450.0 ] } },
{ "type": "Feature", "properties": { "value": 0.3501 }, "geometry": { "type": "Point", "coordinates": [ 129.337616, 35.491386, 450.0 ] } },
{ "type": "Feature", "properties": { "value": 0.4172 }, "geometry": { "type": "Point", "coordinates": [ 129.338715, 35.491383, 450.0 ] } },
{ "type": "Feature", "properties": { "value": 0.3977 }, "geometry": { "type": "Point", "coordinates": [ 129.339813, 35.491383, 450.0 ] } },
{ "type": "Feature", "properties": { "value": 0.3042 }, "geometry": { "type": "Point", "coordinates": [ 129.340927, 35.491379, 450.0 ] } },
{ "type": "Feature", "properties": { "value": 0.1921 }, "geometry": { "type": "Point", "coordinates": [ 129.342026, 35.491375, 450.0 ] } },
{ "type": "Feature", "properties": { "value": 0.1019 }, "geometry": { "type": "Point", "coordinates": [ 129.343124, 35.491371, 450.0 ] } },
{ "type": "Feature", "properties": { "value": 0.045 }, "geometry": { "type": "Point", "coordinates": [ 129.344223, 35.491367, 450.0 ] } },
{ "type": "Feature", "properties": { "value": 0.0166 }, "geometry": { "type": "Point", "coordinates": [ 129.345322, 35.491367, 450.0 ] } },
{ "type": "Feature", "properties": { "value": 0.0043 }, "geometry": { "type": "Point", "coordinates": [ 129.346436, 35.491364, 450.0 ] } },
{ "type": "Feature", "properties": { "value": 0.01 }, "geometry": { "type": "Point", "coordinates": [ 129.333206, 35.492302, 450.0 ] } },
{ "type": "Feature", "properties": { "value": 0.0354 }, "geometry": { "type": "Point", "coordinates": [ 129.334305, 35.492298, 450.0 ] } },
{ "type": "Feature", "properties": { "value": 0.0915 }, "geometry": { "type": "Point", "coordinates": [ 129.335419, 35.492294, 450.0 ] } },
{ "type": "Feature", "properties": { "value": 0.1808 }, "geometry": { "type": "Point", "coordinates": [ 129.336517, 35.49229, 450.0 ] } },
{ "type": "Feature", "properties": { "value": 0.2772 }, "geometry": { "type": "Point", "coordinates": [ 129.337616, 35.49229, 450.0 ] } },
{ "type": "Feature", "properties": { "value": 0.3501 }, "geometry": { "type": "Point", "coordinates": [ 129.338715, 35.492287, 450.0 ] } },
{ "type": "Feature", "properties": { "value": 0.362 }, "geometry": { "type": "Point", "coordinates": [ 129.339828, 35.492283, 450.0 ] } },
{ "type": "Feature", "properties": { "value": 0.3055 }, "geometry": { "type": "Point", "coordinates": [ 129.340927, 35.492279, 450.0 ] } },
{ "type": "Feature", "properties": { "value": 0.2142 }, "geometry": { "type": "Point", "coordinates": [ 129.342026, 35.492275, 450.0 ] } },
{ "type": "Feature", "properties": { "value": 0.1272 }, "geometry": { "type": "Point", "coordinates": [ 129.343124, 35.492271, 450.0 ] } },
{ "type": "Feature", "properties": { "value": 0.0652 }, "geometry": { "type": "Point", "coordinates": [ 129.344223, 35.492271, 450.0 ] } },
{ "type": "Feature", "properties": { "value": 0.029 }, "geometry": { "type": "Point", "coordinates": [ 129.345337, 35.492268, 450.0 ] } },
{ "type": "Feature", "properties": { "value": 0.0117 }, "geometry": { "type": "Point", "coordinates": [ 129.346436, 35.492264, 450.0 ] } },
{ "type": "Feature", "properties": { "value": 0.004 }, "geometry": { "type": "Point", "coordinates": [ 129.347534, 35.49226, 450.0 ] } },
{ "type": "Feature", "properties": { "value": 0.0002 }, "geometry": { "type": "Point", "coordinates": [ 129.348633, 35.492256, 450.0 ] } },
{ "type": "Feature", "properties": { "value": 0.0052 }, "geometry": { "type": "Point", "coordinates": [ 129.333206, 35.493202, 450.0 ] } },
{ "type": "Feature", "properties": { "value": 0.0214 }, "geometry": { "type": "Point", "coordinates": [ 129.33432, 35.493198, 450.0 ] } },
{ "type": "Feature", "properties": { "value": 0.0567 }, "geometry": { "type": "Point", "coordinates": [ 129.335419, 35.493195, 450.0 ] } },
{ "type": "Feature", "properties": { "value": 0.1154 }, "geometry": { "type": "Point", "coordinates": [ 129.336517, 35.493195, 450.0 ] } },
{ "type": "Feature", "properties": { "value": 0.1891 }, "geometry": { "type": "Point", "coordinates": [ 129.337616, 35.493191, 450.0 ] } },
{ "type": "Feature", "properties": { "value": 0.255 }, "geometry": { "type": "Point", "coordinates": [ 129.33873, 35.493187, 450.0 ] } },
{ "type": "Feature", "properties": { "value": 0.2873 }, "geometry": { "type": "Point", "coordinates": [ 129.339828, 35.493183, 450.0 ] } },
{ "type": "Feature", "properties": { "value": 0.2719 }, "geometry": { "type": "Point", "coordinates": [ 129.340927, 35.493179, 450.0 ] } },
{ "type": "Feature", "properties": { "value": 0.2168 }, "geometry": { "type": "Point", "coordinates": [ 129.342026, 35.493179, 450.0 ] } },
{ "type": "Feature", "properties": { "value": 0.1489 }, "geometry": { "type": "Point", "coordinates": [ 129.343124, 35.493176, 450.0 ] } },
{ "type": "Feature", "properties": { "value": 0.0911 }, "geometry": { "type": "Point", "coordinates": [ 129.344238, 35.493172, 450.0 ] } },
{ "type": "Feature", "properties": { "value": 0.0516 }, "geometry": { "type": "Point", "coordinates": [ 129.345337, 35.493168, 450.0 ] } },
{ "type": "Feature", "properties": { "value": 0.026 }, "geometry": { "type": "Point", "coordinates": [ 129.346436, 35.493164, 450.0 ] } },
{ "type": "Feature", "properties": { "value": 0.0118 }, "geometry": { "type": "Point", "coordinates": [ 129.347534, 35.49316, 450.0 ] } },
{ "type": "Feature", "properties": { "value": 0.0048 }, "geometry": { "type": "Point", "coordinates": [ 129.348648, 35.49316, 450.0 ] } },
{ "type": "Feature", "properties": { "value": 0.0005 }, "geometry": { "type": "Point", "coordinates": [ 129.349747, 35.493156, 450.0 ] } },
{ "type": "Feature", "properties": { "value": 0.0101 }, "geometry": { "type": "Point", "coordinates": [ 129.33432, 35.494099, 450.0 ] } },
{ "type": "Feature", "properties": { "value": 0.0291 }, "geometry": { "type": "Point", "coordinates": [ 129.335419, 35.494099, 450.0 ] } },
{ "type": "Feature", "properties": { "value": 0.0633 }, "geometry": { "type": "Point", "coordinates": [ 129.336517, 35.494095, 450.0 ] } },
{ "type": "Feature", "properties": { "value": 0.112 }, "geometry": { "type": "Point", "coordinates": [ 129.337631, 35.494091, 450.0 ] } },
{ "type": "Feature", "properties": { "value": 0.1643 }, "geometry": { "type": "Point", "coordinates": [ 129.33873, 35.494087, 450.0 ] } },
{ "type": "Feature", "properties": { "value": 0.205 }, "geometry": { "type": "Point", "coordinates": [ 129.339828, 35.494083, 450.0 ] } },
{ "type": "Feature", "properties": { "value": 0.22 }, "geometry": { "type": "Point", "coordinates": [ 129.340927, 35.494083, 450.0 ] } },
{ "type": "Feature", "properties": { "value": 0.2043 }, "geometry": { "type": "Point", "coordinates": [ 129.342026, 35.49408, 450.0 ] } },
{ "type": "Feature", "properties": { "value": 0.1685 }, "geometry": { "type": "Point", "coordinates": [ 129.34314, 35.494076, 450.0 ] } },
{ "type": "Feature", "properties": { "value": 0.1272 }, "geometry": { "type": "Point", "coordinates": [ 129.344238, 35.494072, 450.0 ] } },
{ "type": "Feature", "properties": { "value": 0.0844 }, "geometry": { "type": "Point", "coordinates": [ 129.345337, 35.494068, 450.0 ] } },
{ "type": "Feature", "properties": { "value": 0.0501 }, "geometry": { "type": "Point", "coordinates": [ 129.346436, 35.494068, 450.0 ] } },
{ "type": "Feature", "properties": { "value": 0.0264 }, "geometry": { "type": "Point", "coordinates": [ 129.347549, 35.494064, 450.0 ] } },
{ "type": "Feature", "properties": { "value": 0.0124 }, "geometry": { "type": "Point", "coordinates": [ 129.348648, 35.494061, 450.0 ] } },
{ "type": "Feature", "properties": { "value": 0.005 }, "geometry": { "type": "Point", "coordinates": [ 129.349747, 35.494057, 450.0 ] } },
{ "type": "Feature", "properties": { "value": 0.0002 }, "geometry": { "type": "Point", "coordinates": [ 129.350845, 35.494053, 450.0 ] } },
{ "type": "Feature", "properties": { "value": 0.0025 }, "geometry": { "type": "Point", "coordinates": [ 129.33432, 35.495003, 450.0 ] } },
{ "type": "Feature", "properties": { "value": 0.0124 }, "geometry": { "type": "Point", "coordinates": [ 129.335419, 35.494999, 450.0 ] } },
{ "type": "Feature", "properties": { "value": 0.0301 }, "geometry": { "type": "Point", "coordinates": [ 129.336533, 35.494995, 450.0 ] } },
{ "type": "Feature", "properties": { "value": 0.0585 }, "geometry": { "type": "Point", "coordinates": [ 129.337631, 35.494991, 450.0 ] } },
{ "type": "Feature", "properties": { "value": 0.0961 }, "geometry": { "type": "Point", "coordinates": [ 129.33873, 35.494991, 450.0 ] } },
{ "type": "Feature", "properties": { "value": 0.1358 }, "geometry": { "type": "Point", "coordinates": [ 129.339828, 35.494987, 450.0 ] } },
{ "type": "Feature", "properties": { "value": 0.1677 }, "geometry": { "type": "Point", "coordinates": [ 129.340942, 35.494984, 450.0 ] } },
{ "type": "Feature", "properties": { "value": 0.1881 }, "geometry": { "type": "Point", "coordinates": [ 129.342041, 35.49498, 450.0 ] } },
{ "type": "Feature", "properties": { "value": 0.1915 }, "geometry": { "type": "Point", "coordinates": [ 129.34314, 35.494976, 450.0 ] } },
{ "type": "Feature", "properties": { "value": 0.1657 }, "geometry": { "type": "Point", "coordinates": [ 129.344238, 35.494972, 450.0 ] } },
{ "type": "Feature", "properties": { "value": 0.1254 }, "geometry": { "type": "Point", "coordinates": [ 129.345337, 35.494972, 450.0 ] } },
{ "type": "Feature", "properties": { "value": 0.0843 }, "geometry": { "type": "Point", "coordinates": [ 129.346451, 35.494968, 450.0 ] } },
{ "type": "Feature", "properties": { "value": 0.0498 }, "geometry": { "type": "Point", "coordinates": [ 129.347549, 35.494965, 450.0 ] } },
{ "type": "Feature", "properties": { "value": 0.0259 }, "geometry": { "type": "Point", "coordinates": [ 129.348648, 35.494961, 450.0 ] } },
{ "type": "Feature", "properties": { "value": 0.0119 }, "geometry": { "type": "Point", "coordinates": [ 129.349747, 35.494957, 450.0 ] } },
{ "type": "Feature", "properties": { "value": 0.0044 }, "geometry": { "type": "Point", "coordinates": [ 129.350861, 35.494953, 450.0 ] } },
{ "type": "Feature", "properties": { "value": 0.0038 }, "geometry": { "type": "Point", "coordinates": [ 129.335434, 35.495899, 450.0 ] } },
{ "type": "Feature", "properties": { "value": 0.0125 }, "geometry": { "type": "Point", "coordinates": [ 129.336533, 35.495895, 450.0 ] } },
{ "type": "Feature", "properties": { "value": 0.028 }, "geometry": { "type": "Point", "coordinates": [ 129.337631, 35.495895, 450.0 ] } },
{ "type": "Feature", "properties": { "value": 0.0527 }, "geometry": { "type": "Point", "coordinates": [ 129.33873, 35.495892, 450.0 ] } },
{ "type": "Feature", "properties": { "value": 0.0864 }, "geometry": { "type": "Point", "coordinates": [ 129.339844, 35.495888, 450.0 ] } },
{ "type": "Feature", "properties": { "value": 0.1277 }, "geometry": { "type": "Point", "coordinates": [ 129.340942, 35.495884, 450.0 ] } },
{ "type": "Feature", "properties": { "value": 0.1723 }, "geometry": { "type": "Point", "coordinates": [ 129.342041, 35.49588, 450.0 ] } },
{ "type": "Feature", "properties": { "value": 0.2016 }, "geometry": { "type": "Point", "coordinates": [ 129.34314, 35.49588, 450.0 ] } },
{ "type": "Feature", "properties": { "value": 0.199 }, "geometry": { "type": "Point", "coordinates": [ 129.344238, 35.495876, 450.0 ] } },
{ "type": "Feature", "properties": { "value": 0.1678 }, "geometry": { "type": "Point", "coordinates": [ 129.345352, 35.495872, 450.0 ] } },
{ "type": "Feature", "properties": { "value": 0.1249 }, "geometry": { "type": "Point", "coordinates": [ 129.346451, 35.495869, 450.0 ] } },
{ "type": "Feature", "properties": { "value": 0.0815 }, "geometry": { "type": "Point", "coordinates": [ 129.347549, 35.495865, 450.0 ] } },
{ "type": "Feature", "properties": { "value": 0.0463 }, "geometry": { "type": "Point", "coordinates": [ 129.348648, 35.495861, 450.0 ] } },
{ "type": "Feature", "properties": { "value": 0.0234 }, "geometry": { "type": "Point", "coordinates": [ 129.349762, 35.495861, 450.0 ] } },
{ "type": "Feature", "properties": { "value": 0.0108 }, "geometry": { "type": "Point", "coordinates": [ 129.350861, 35.495857, 450.0 ] } },
{ "type": "Feature", "properties": { "value": 0.0043 }, "geometry": { "type": "Point", "coordinates": [ 129.351959, 35.495853, 450.0 ] } },
{ "type": "Feature", "properties": { "value": 0.0001 }, "geometry": { "type": "Point", "coordinates": [ 129.353058, 35.49585, 450.0 ] } },
{ "type": "Feature", "properties": { "value": 0.004 }, "geometry": { "type": "Point", "coordinates": [ 129.336533, 35.496799, 450.0 ] } },
{ "type": "Feature", "properties": { "value": 0.0122 }, "geometry": { "type": "Point", "coordinates": [ 129.337631, 35.496796, 450.0 ] } },
{ "type": "Feature", "properties": { "value": 0.0282 }, "geometry": { "type": "Point", "coordinates": [ 129.338745, 35.496792, 450.0 ] } },
{ "type": "Feature", "properties": { "value": 0.056 }, "geometry": { "type": "Point", "coordinates": [ 129.339844, 35.496788, 450.0 ] } },
{ "type": "Feature", "properties": { "value": 0.0966 }, "geometry": { "type": "Point", "coordinates": [ 129.340942, 35.496784, 450.0 ] } },
{ "type": "Feature", "properties": { "value": 0.1457 }, "geometry": { "type": "Point", "coordinates": [ 129.342041, 35.496784, 450.0 ] } },
{ "type": "Feature", "properties": { "value": 0.1934 }, "geometry": { "type": "Point", "coordinates": [ 129.34314, 35.49678, 450.0 ] } },
{ "type": "Feature", "properties": { "value": 0.2141 }, "geometry": { "type": "Point", "coordinates": [ 129.344254, 35.496777, 450.0 ] } },
{ "type": "Feature", "properties": { "value": 0.1996 }, "geometry": { "type": "Point", "coordinates": [ 129.345352, 35.496773, 450.0 ] } },
{ "type": "Feature", "properties": { "value": 0.1629 }, "geometry": { "type": "Point", "coordinates": [ 129.346451, 35.496769, 450.0 ] } },
{ "type": "Feature", "properties": { "value": 0.1162 }, "geometry": { "type": "Point", "coordinates": [ 129.347549, 35.496765, 450.0 ] } },
{ "type": "Feature", "properties": { "value": 0.0723 }, "geometry": { "type": "Point", "coordinates": [ 129.348663, 35.496765, 450.0 ] } },
{ "type": "Feature", "properties": { "value": 0.0399 }, "geometry": { "type": "Point", "coordinates": [ 129.349762, 35.496761, 450.0 ] } },
{ "type": "Feature", "properties": { "value": 0.0206 }, "geometry": { "type": "Point", "coordinates": [ 129.350861, 35.496758, 450.0 ] } },
{ "type": "Feature", "properties": { "value": 0.0096 }, "geometry": { "type": "Point", "coordinates": [ 129.351959, 35.496754, 450.0 ] } },
{ "type": "Feature", "properties": { "value": 0.0037 }, "geometry": { "type": "Point", "coordinates": [ 129.353073, 35.49675, 450.0 ] } },
{ "type": "Feature", "properties": { "value": 0.0009 }, "geometry": { "type": "Point", "coordinates": [ 129.354172, 35.496746, 450.0 ] } },
{ "type": "Feature", "properties": { "value": 0.0001 }, "geometry": { "type": "Point", "coordinates": [ 129.336533, 35.4977, 450.0 ] } },
{ "type": "Feature", "properties": { "value": 0.0049 }, "geometry": { "type": "Point", "coordinates": [ 129.337646, 35.497696, 450.0 ] } },
{ "type": "Feature", "properties": { "value": 0.0153 }, "geometry": { "type": "Point", "coordinates": [ 129.338745, 35.497692, 450.0 ] } },
{ "type": "Feature", "properties": { "value": 0.0355 }, "geometry": { "type": "Point", "coordinates": [ 129.339844, 35.497692, 450.0 ] } },
{ "type": "Feature", "properties": { "value": 0.069 }, "geometry": { "type": "Point", "coordinates": [ 129.340942, 35.497688, 450.0 ] } },
{ "type": "Feature", "properties": { "value": 0.1165 }, "geometry": { "type": "Point", "coordinates": [ 129.342041, 35.497684, 450.0 ] } },
{ "type": "Feature", "properties": { "value": 0.1701 }, "geometry": { "type": "Point", "coordinates": [ 129.343155, 35.497681, 450.0 ] } },
{ "type": "Feature", "properties": { "value": 0.2062 }, "geometry": { "type": "Point", "coordinates": [ 129.344254, 35.497677, 450.0 ] } },
{ "type": "Feature", "properties": { "value": 0.2104 }, "geometry": { "type": "Point", "coordinates": [ 129.345352, 35.497673, 450.0 ] } },
{ "type": "Feature", "properties": { "value": 0.187 }, "geometry": { "type": "Point", "coordinates": [ 129.346451, 35.497673, 450.0 ] } },
{ "type": "Feature", "properties": { "value": 0.1451 }, "geometry": { "type": "Point", "coordinates": [ 129.347565, 35.497669, 450.0 ] } },
{ "type": "Feature", "properties": { "value": 0.1002 }, "geometry": { "type": "Point", "coordinates": [ 129.348663, 35.497665, 450.0 ] } },
{ "type": "Feature", "properties": { "value": 0.0622 }, "geometry": { "type": "Point", "coordinates": [ 129.349762, 35.497662, 450.0 ] } },
{ "type": "Feature", "properties": { "value": 0.0355 }, "geometry": { "type": "Point", "coordinates": [ 129.350861, 35.497658, 450.0 ] } },
{ "type": "Feature", "properties": { "value": 0.0185 }, "geometry": { "type": "Point", "coordinates": [ 129.351974, 35.497654, 450.0 ] } },
{ "type": "Feature", "properties": { "value": 0.0082 }, "geometry": { "type": "Point", "coordinates": [ 129.353073, 35.497654, 450.0 ] } },
{ "type": "Feature", "properties": { "value": 0.0032 }, "geometry": { "type": "Point", "coordinates": [ 129.354172, 35.49765, 450.0 ] } },
{ "type": "Feature", "properties": { "value": 0.0007 }, "geometry": { "type": "Point", "coordinates": [ 129.35527, 35.497646, 450.0 ] } },
{ "type": "Feature", "properties": { "value": 0.0016 }, "geometry": { "type": "Point", "coordinates": [ 129.337646, 35.498596, 450.0 ] } },
{ "type": "Feature", "properties": { "value": 0.0078 }, "geometry": { "type": "Point", "coordinates": [ 129.338745, 35.498596, 450.0 ] } },
{ "type": "Feature", "properties": { "value": 0.0211 }, "geometry": { "type": "Point", "coordinates": [ 129.339844, 35.498592, 450.0 ] } },
{ "type": "Feature", "properties": { "value": 0.0469 }, "geometry": { "type": "Point", "coordinates": [ 129.340958, 35.498589, 450.0 ] } },
{ "type": "Feature", "properties": { "value": 0.0875 }, "geometry": { "type": "Point", "coordinates": [ 129.342056, 35.498585, 450.0 ] } },
{ "type": "Feature", "properties": { "value": 0.1371 }, "geometry": { "type": "Point", "coordinates": [ 129.343155, 35.498581, 450.0 ] } },
{ "type": "Feature", "properties": { "value": 0.1784 }, "geometry": { "type": "Point", "coordinates": [ 129.344254, 35.498581, 450.0 ] } },
{ "type": "Feature", "properties": { "value": 0.1971 }, "geometry": { "type": "Point", "coordinates": [ 129.345352, 35.498577, 450.0 ] } },
{ "type": "Feature", "properties": { "value": 0.1903 }, "geometry": { "type": "Point", "coordinates": [ 129.346466, 35.498573, 450.0 ] } },
{ "type": "Feature", "properties": { "value": 0.1628 }, "geometry": { "type": "Point", "coordinates": [ 129.347565, 35.498569, 450.0 ] } },
{ "type": "Feature", "properties": { "value": 0.126 }, "geometry": { "type": "Point", "coordinates": [ 129.348663, 35.498566, 450.0 ] } },
{ "type": "Feature", "properties": { "value": 0.0882 }, "geometry": { "type": "Point", "coordinates": [ 129.349762, 35.498562, 450.0 ] } },
{ "type": "Feature", "properties": { "value": 0.0555 }, "geometry": { "type": "Point", "coordinates": [ 129.350876, 35.498562, 450.0 ] } },
{ "type": "Feature", "properties": { "value": 0.0308 }, "geometry": { "type": "Point", "coordinates": [ 129.351974, 35.498558, 450.0 ] } },
{ "type": "Feature", "properties": { "value": 0.0147 }, "geometry": { "type": "Point", "coordinates": [ 129.353073, 35.498554, 450.0 ] } },
{ "type": "Feature", "properties": { "value": 0.0062 }, "geometry": { "type": "Point", "coordinates": [ 129.354172, 35.49855, 450.0 ] } },
{ "type": "Feature", "properties": { "value": 0.002 }, "geometry": { "type": "Point", "coordinates": [ 129.35527, 35.498547, 450.0 ] } },
{ "type": "Feature", "properties": { "value": 0.0003 }, "geometry": { "type": "Point", "coordinates": [ 129.356384, 35.498543, 450.0 ] } },
{ "type": "Feature", "properties": { "value": 0.0033 }, "geometry": { "type": "Point", "coordinates": [ 129.338745, 35.499496, 450.0 ] } },
{ "type": "Feature", "properties": { "value": 0.0109 }, "geometry": { "type": "Point", "coordinates": [ 129.339859, 35.499493, 450.0 ] } },
{ "type": "Feature", "properties": { "value": 0.0282 }, "geometry": { "type": "Point", "coordinates": [ 129.340958, 35.499489, 450.0 ] } },
{ "type": "Feature", "properties": { "value": 0.0588 }, "geometry": { "type": "Point", "coordinates": [ 129.342056, 35.499485, 450.0 ] } },
{ "type": "Feature", "properties": { "value": 0.0977 }, "geometry": { "type": "Point", "coordinates": [ 129.343155, 35.499485, 450.0 ] } },
{ "type": "Feature", "properties": { "value": 0.1356 }, "geometry": { "type": "Point", "coordinates": [ 129.344254, 35.499481, 450.0 ] } },
{ "type": "Feature", "properties": { "value": 0.1633 }, "geometry": { "type": "Point", "coordinates": [ 129.345367, 35.499477, 450.0 ] } },
{ "type": "Feature", "properties": { "value": 0.1738 }, "geometry": { "type": "Point", "coordinates": [ 129.346466, 35.499474, 450.0 ] } },
{ "type": "Feature", "properties": { "value": 0.1643 }, "geometry": { "type": "Point", "coordinates": [ 129.347565, 35.49947, 450.0 ] } },
{ "type": "Feature", "properties": { "value": 0.1409 }, "geometry": { "type": "Point", "coordinates": [ 129.348663, 35.499466, 450.0 ] } },
{ "type": "Feature", "properties": { "value": 0.1094 }, "geometry": { "type": "Point", "coordinates": [ 129.349777, 35.499466, 450.0 ] } },
{ "type": "Feature", "properties": { "value": 0.0748 }, "geometry": { "type": "Point", "coordinates": [ 129.350876, 35.499462, 450.0 ] } },
{ "type": "Feature", "properties": { "value": 0.0443 }, "geometry": { "type": "Point", "coordinates": [ 129.351974, 35.499458, 450.0 ] } },
{ "type": "Feature", "properties": { "value": 0.0226 }, "geometry": { "type": "Point", "coordinates": [ 129.353073, 35.499454, 450.0 ] } },
{ "type": "Feature", "properties": { "value": 0.0098 }, "geometry": { "type": "Point", "coordinates": [ 129.354187, 35.499451, 450.0 ] } },
{ "type": "Feature", "properties": { "value": 0.0035 }, "geometry": { "type": "Point", "coordinates": [ 129.355286, 35.499447, 450.0 ] } },
{ "type": "Feature", "properties": { "value": 0.0009 }, "geometry": { "type": "Point", "coordinates": [ 129.356384, 35.499447, 450.0 ] } },
{ "type": "Feature", "properties": { "value": 0.0003 }, "geometry": { "type": "Point", "coordinates": [ 129.33876, 35.500397, 450.0 ] } },
{ "type": "Feature", "properties": { "value": 0.0046 }, "geometry": { "type": "Point", "coordinates": [ 129.339859, 35.500393, 450.0 ] } },
{ "type": "Feature", "properties": { "value": 0.0142 }, "geometry": { "type": "Point", "coordinates": [ 129.340958, 35.500393, 450.0 ] } },
{ "type": "Feature", "properties": { "value": 0.0336 }, "geometry": { "type": "Point", "coordinates": [ 129.342056, 35.500389, 450.0 ] } },
{ "type": "Feature", "properties": { "value": 0.0606 }, "geometry": { "type": "Point", "coordinates": [ 129.343155, 35.500385, 450.0 ] } },
{ "type": "Feature", "properties": { "value": 0.0895 }, "geometry": { "type": "Point", "coordinates": [ 129.344269, 35.500381, 450.0 ] } },
{ "type": "Feature", "properties": { "value": 0.1182 }, "geometry": { "type": "Point", "coordinates": [ 129.345367, 35.500378, 450.0 ] } },
{ "type": "Feature", "properties": { "value": 0.1398 }, "geometry": { "type": "Point", "coordinates": [ 129.346466, 35.500374, 450.0 ] } },
{ "type": "Feature", "properties": { "value": 0.1453 }, "geometry": { "type": "Point", "coordinates": [ 129.347565, 35.500374, 450.0 ] } },
{ "type": "Feature", "properties": { "value": 0.1365 }, "geometry": { "type": "Point", "coordinates": [ 129.348679, 35.50037, 450.0 ] } },
{ "type": "Feature", "properties": { "value": 0.116 }, "geometry": { "type": "Point", "coordinates": [ 129.349777, 35.500366, 450.0 ] } },
{ "type": "Feature", "properties": { "value": 0.0858 }, "geometry": { "type": "Point", "coordinates": [ 129.350876, 35.500362, 450.0 ] } },
{ "type": "Feature", "properties": { "value": 0.0542 }, "geometry": { "type": "Point", "coordinates": [ 129.351974, 35.500359, 450.0 ] } },
{ "type": "Feature", "properties": { "value": 0.0287 }, "geometry": { "type": "Point", "coordinates": [ 129.353088, 35.500355, 450.0 ] } },
{ "type": "Feature", "properties": { "value": 0.0128 }, "geometry": { "type": "Point", "coordinates": [ 129.354187, 35.500355, 450.0 ] } },
{ "type": "Feature", "properties": { "value": 0.0048 }, "geometry": { "type": "Point", "coordinates": [ 129.355286, 35.500351, 450.0 ] } },
{ "type": "Feature", "properties": { "value": 0.0014 }, "geometry": { "type": "Point", "coordinates": [ 129.356384, 35.500347, 450.0 ] } },
{ "type": "Feature", "properties": { "value": 0.0002 }, "geometry": { "type": "Point", "coordinates": [ 129.357483, 35.500343, 450.0 ] } },
{ "type": "Feature", "properties": { "value": 0.0011 }, "geometry": { "type": "Point", "coordinates": [ 129.339859, 35.501297, 450.0 ] } },
{ "type": "Feature", "properties": { "value": 0.0059 }, "geometry": { "type": "Point", "coordinates": [ 129.340958, 35.501293, 450.0 ] } },
{ "type": "Feature", "properties": { "value": 0.0161 }, "geometry": { "type": "Point", "coordinates": [ 129.342056, 35.501289, 450.0 ] } },
{ "type": "Feature", "properties": { "value": 0.0326 }, "geometry": { "type": "Point", "coordinates": [ 129.34317, 35.501286, 450.0 ] } },
{ "type": "Feature", "properties": { "value": 0.0532 }, "geometry": { "type": "Point", "coordinates": [ 129.344269, 35.501282, 450.0 ] } },
{ "type": "Feature", "properties": { "value": 0.077 }, "geometry": { "type": "Point", "coordinates": [ 129.345367, 35.501278, 450.0 ] } },
{ "type": "Feature", "properties": { "value": 0.1012 }, "geometry": { "type": "Point", "coordinates": [ 129.346466, 35.501278, 450.0 ] } },
{ "type": "Feature", "properties": { "value": 0.1162 }, "geometry": { "type": "Point", "coordinates": [ 129.34758, 35.501274, 450.0 ] } },
{ "type": "Feature", "properties": { "value": 0.1188 }, "geometry": { "type": "Point", "coordinates": [ 129.348679, 35.50127, 450.0 ] } },
{ "type": "Feature", "properties": { "value": 0.108 }, "geometry": { "type": "Point", "coordinates": [ 129.349777, 35.501266, 450.0 ] } },
{ "type": "Feature", "properties": { "value": 0.0847 }, "geometry": { "type": "Point", "coordinates": [ 129.350876, 35.501263, 450.0 ] } },
{ "type": "Feature", "properties": { "value": 0.0555 }, "geometry": { "type": "Point", "coordinates": [ 129.35199, 35.501259, 450.0 ] } },
{ "type": "Feature", "properties": { "value": 0.0304 }, "geometry": { "type": "Point", "coordinates": [ 129.353088, 35.501259, 450.0 ] } },
{ "type": "Feature", "properties": { "value": 0.014 }, "geometry": { "type": "Point", "coordinates": [ 129.354187, 35.501255, 450.0 ] } },
{ "type": "Feature", "properties": { "value": 0.0053 }, "geometry": { "type": "Point", "coordinates": [ 129.355286, 35.501251, 450.0 ] } },
{ "type": "Feature", "properties": { "value": 0.0016 }, "geometry": { "type": "Point", "coordinates": [ 129.3564, 35.501247, 450.0 ] } },
{ "type": "Feature", "properties": { "value": 0.0003 }, "geometry": { "type": "Point", "coordinates": [ 129.357498, 35.501244, 450.0 ] } }
]
}
