{
"type": "FeatureCollection",
"features": [
{ "type": "Feature", "properties": { "value": 0.0 }, "geometry": { "type": "Point", "coordinates": [ 129.292252, 35.441032, 115.0 ] } },
{ "type": "Feature", "properties": { "value": 0.0 }, "geometry": { "type": "Point", "coordinates": [ 129.29335, 35.441029, 115.0 ] } },
{ "type": "Feature", "properties": { "value": 0.0 }, "geometry": { "type": "Point", "coordinates": [ 129.294449, 35.441029, 115.0 ] } },
{ "type": "Feature", "properties": { "value": 0.0007 }, "geometry": { "type": "Point", "coordinates": [ 129.292252, 35.441933, 115.0 ] } },
{ "type": "Feature", "properties": { "value": 0.0029 }, "geometry": { "type": "Point", "coordinates": [ 129.29335, 35.441933, 115.0 ] } },
{ "type": "Feature", "properties": { "value": 0.0004 }, "geometry": { "type": "Point", "coordinates": [ 129.294449, 35.441929, 115.0 ] } },
{ "type": "Feature", "properties": { "value": 0.0 }, "geometry": { "type": "Point", "coordinates": [ 129.295547, 35.441925, 115.0 ] } },
{ "type": "Feature", "properties": { "value": 0.0005 }, "geometry": { "type": "Point", "coordinates": [ 129.291153, 35.442837, 115.0 ] } },
{ "type": "Feature", "properties": { "value": 0.0238 }, "geometry": { "type": "Point", "coordinates": [ 129.292252, 35.442837, 115.0 ] } },
{ "type": "Feature", "properties": { "value": 0.0478 }, "geometry": { "type": "Point", "coordinates": [ 129.29335, 35.442833, 115.0 ] } },
{ "type": "Feature", "properties": { "value": 0.0064 }, "geometry": { "type": "Point", "coordinates": [ 129.294464, 35.442829, 115.0 ] } },
{ "type": "Feature", "properties": { "value": 0.0 }, "geometry": { "type": "Point", "coordinates": [ 129.295563, 35.442829, 115.0 ] } },
{ "type": "Feature", "properties": { "value": 0.0094 }, "geometry": { "type": "Point", "coordinates": [ 129.291153, 35.443741, 115.0 ] } },
{ "type": "Feature", "properties": { "value": 0.1345 }, "geometry": { "type": "Point", "coordinates": [ 129.292252, 35.443737, 115.0 ] } },
{ "type": "Feature", "properties": { "value": 0.1578 }, "geometry": { "type": "Point", "coordinates": [ 129.293365, 35.443733, 115.0 ] } },
{ "type": "Feature", "properties": { "value": 0.0154 }, "geometry": { "type": "Point", "coordinates": [ 129.294464, 35.443733, 115.0 ] } },
{ "type": "Feature", "properties": { "value": 0.0736 }, "geometry": { "type": "Point", "coordinates": [ 129.291153, 35.444641, 115.0 ] } },
{ "type": "Feature", "properties": { "value": 0.4154 }, "geometry": { "type": "Point", "coordinates": [ 129.292267, 35.444637, 115.0 ] } },
{ "type": "Feature", "properties": { "value": 0.2608 }, "geometry": { "type": "Point", "coordinates": [ 129.293365, 35.444637, 115.0 ] } },
{ "type": "Feature", "properties": { "value": 0.0138 }, "geometry": { "type": "Point", "coordinates": [ 129.294464, 35.444633, 115.0 ] } },
{ "type": "Feature", "properties": { "value": 0.0074 }, "geometry": { "type": "Point", "coordinates": [ 129.290054, 35.445545, 115.0 ] } },
{ "type": "Feature", "properties": { "value": 0.2634 }, "geometry": { "type": "Point", "coordinates": [ 129.291168, 35.445541, 115.0 ] } },
{ "type": "Feature", "properties": { "value": 0.8172 }, "geometry": { "type": "Point", "coordinates": [ 129.292267, 35.445541, 115.0 ] } },
{ "type": "Feature", "properties": { "value": 0.3245 }, "geometry": { "type": "Point", "coordinates": [ 129.293365, 35.445538, 115.0 ] } },
{ "type": "Feature", "properties": { "value": 0.0105 }, "geometry": { "type": "Point", "coordinates": [ 129.294464, 35.445534, 115.0 ] } },
{ "type": "Feature", "properties": { "value": 0.0329 }, "geometry": { "type": "Point", "coordinates": [ 129.29007, 35.446445, 115.0 ] } },
{ "type": "Feature", "properties": { "value": 0.5304 }, "geometry": { "type": "Point", "coordinates": [ 129.291168, 35.446442, 115.0 ] } },
{ "type": "Feature", "properties": { "value": 1.0312 }, "geometry": { "type": "Point", "coordinates": [ 129.292267, 35.446442, 115.0 ] } },
{ "type": "Feature", "properties": { "value": 0.2692 }, "geometry": { "type": "Point", "coordinates": [ 129.293365, 35.446438, 115.0 ] } },
{ "type": "Feature", "properties": { "value": 0.0056 }, "geometry": { "type": "Point", "coordinates": [ 129.294464, 35.446434, 115.0 ] } },
{ "type": "Feature", "properties": { "value": 0.1579 }, "geometry": { "type": "Point", "coordinates": [ 129.29007, 35.447346, 115.0 ] } },
{ "type": "Feature", "properties": { "value": 1.0508 }, "geometry": { "type": "Point", "coordinates": [ 129.291168, 35.447346, 115.0 ] } },
{ "type": "Feature", "properties": { "value": 1.1415 }, "geometry": { "type": "Point", "coordinates": [ 129.292267, 35.447342, 115.0 ] } },
{ "type": "Feature", "properties": { "value": 0.1883 }, "geometry": { "type": "Point", "coordinates": [ 129.293365, 35.447338, 115.0 ] } },
{ "type": "Feature", "properties": { "value": 0.0208 }, "geometry": { "type": "Point", "coordinates": [ 129.288971, 35.44825, 115.0 ] } },
{ "type": "Feature", "properties": { "value": 0.4881 }, "geometry": { "type": "Point", "coordinates": [ 129.29007, 35.44825, 115.0 ] } },
{ "type": "Feature", "properties": { "value": 1.8305 }, "geometry": { "type": "Point", "coordinates": [ 129.291168, 35.448246, 115.0 ] } },
{ "type": "Feature", "properties": { "value": 1.3481 }, "geometry": { "type": "Point", "coordinates": [ 129.292267, 35.448242, 115.0 ] } },
{ "type": "Feature", "properties": { "value": 0.1775 }, "geometry": { "type": "Point", "coordinates": [ 129.293381, 35.448242, 115.0 ] } },
{ "type": "Feature", "properties": { "value": 0.0882 }, "geometry": { "type": "Point", "coordinates": [ 129.288971, 35.449154, 115.0 ] } },
{ "type": "Feature", "properties": { "value": 1.0103 }, "geometry": { "type": "Point", "coordinates": [ 129.29007, 35.44915, 115.0 ] } },
{ "type": "Feature", "properties": { "value": 2.3922 }, "geometry": { "type": "Point", "coordinates": [ 129.291168, 35.449146, 115.0 ] } },
{ "type": "Feature", "properties": { "value": 1.2687 }, "geometry": { "type": "Point", "coordinates": [ 129.292282, 35.449146, 115.0 ] } },
{ "type": "Feature", "properties": { "value": 0.131 }, "geometry": { "type": "Point", "coordinates": [ 129.293381, 35.449142, 115.0 ] } },
{ "type": "Feature", "properties": { "value": 0.2778 }, "geometry": { "type": "Point", "coordinates": [ 129.288971, 35.450054, 115.0 ] } },
{ "type": "Feature", "properties": { "value": 1.9074 }, "geometry": { "type": "Point", "coordinates": [ 129.290085, 35.45005, 115.0 ] } },
{ "type": "Feature", "properties": { "value": 2.9859 }, "geometry": { "type": "Point", "coordinates": [ 129.291183, 35.45005, 115.0 ] } },
{ "type": "Feature", "properties": { "value": 1.1283 }, "geometry": { "type": "Point", "coordinates": [ 129.292282, 35.450047, 115.0 ] } },
{ "type": "Feature", "properties": { "value": 0.0844 }, "geometry": { "type": "Point", "coordinates": [ 129.293381, 35.450043, 115.0 ] } },
{ "type": "Feature", "properties": { "value": 0.0323 }, "geometry": { "type": "Point", "coordinates": [ 129.287872, 35.450958, 115.0 ] } },
{ "type": "Feature", "properties": { "value": 0.9368 }, "geometry": { "type": "Point", "coordinates": [ 129.288986, 35.450954, 115.0 ] } },
{ "type": "Feature", "properties": { "value": 4.3369 }, "geometry": { "type": "Point", "coordinates": [ 129.290085, 35.450954, 115.0 ] } },
{ "type": "Feature", "properties": { "value": 5.0316 }, "geometry": { "type": "Point", "coordinates": [ 129.291183, 35.450951, 115.0 ] } },
{ "type": "Feature", "properties": { "value": 1.4709 }, "geometry": { "type": "Point", "coordinates": [ 129.292282, 35.450947, 115.0 ] } },
{ "type": "Feature", "properties": { "value": 0.0823 }, "geometry": { "type": "Point", "coordinates": [ 129.293381, 35.450943, 115.0 ] } },
{ "type": "Feature", "properties": { "value": 0.1634 }, "geometry": { "type": "Point", "coordinates": [ 129.287888, 35.451859, 115.0 ] } },
{ "type": "Feature", "properties": { "value": 2.6604 }, "geometry": { "type": "Point", "coordinates": [ 129.288986, 35.451855, 115.0 ] } },
{ "type": "Feature", "properties": { "value": 10.06 }, "geometry": { "type": "Point", "coordinates": [ 129.290085, 35.451855, 115.0 ] } },
{ "type": "Feature", "properties": { "value": 10.239 }, "geometry": { "type": "Point", "coordinates": [ 129.291183, 35.451851, 115.0 ] } },
{ "type": "Feature", "properties": { "value": 2.8061 }, "geometry": { "type": "Point", "coordinates": [ 129.292282, 35.451847, 115.0 ] } },
{ "type": "Feature", "properties": { "value": 0.1773 }, "geometry": { "type": "Point", "coordinates": [ 129.293381, 35.451847, 115.0 ] } },
{ "type": "Feature", "properties": { "value": 0.3632 }, "geometry": { "type": "Point", "coordinates": [ 129.287888, 35.452759, 115.0 ] } },
{ "type": "Feature", "properties": { "value": 4.9389 }, "geometry": { "type": "Point", "coordinates": [ 129.288986, 35.452759, 115.0 ] } },
{ "type": "Feature", "properties": { "value": 17.24 }, "geometry": { "type": "Point", "coordinates": [ 129.290085, 35.452755, 115.0 ] } },
{ "type": "Feature", "properties": { "value": 17.201 }, "geometry": { "type": "Point", "coordinates": [ 129.291183, 35.452751, 115.0 ] } },
{ "type": "Feature", "properties": { "value": 4.8932 }, "geometry": { "type": "Point", "coordinates": [ 129.292297, 35.452751, 115.0 ] } },
{ "type": "Feature", "properties": { "value": 0.3557 }, "geometry": { "type": "Point", "coordinates": [ 129.293396, 35.452747, 115.0 ] } },
{ "type": "Feature", "properties": { "value": 0.5495 }, "geometry": { "type": "Point", "coordinates": [ 129.287888, 35.453663, 115.0 ] } },
{ "type": "Feature", "properties": { "value": 6.2555 }, "geometry": { "type": "Point", "coordinates": [ 129.288986, 35.453659, 115.0 ] } },
{ "type": "Feature", "properties": { "value": 20.215 }, "geometry": { "type": "Point", "coordinates": [ 129.290085, 35.453655, 115.0 ] } },
{ "type": "Feature", "properties": { "value": 19.996 }, "geometry": { "type": "Point", "coordinates": [ 129.291199, 35.453655, 115.0 ] } },
{ "type": "Feature", "properties": { "value": 5.9966 }, "geometry": { "type": "Point", "coordinates": [ 129.292297, 35.453651, 115.0 ] } },
{ "type": "Feature", "properties": { "value": 0.4974 }, "geometry": { "type": "Point", "coordinates": [ 129.293396, 35.453648, 115.0 ] } },
{ "type": "Feature", "properties": { "value": 0.7094 }, "geometry": { "type": "Point", "coordinates": [ 129.287888, 35.454563, 115.0 ] } },
{ "type": "Feature", "properties": { "value": 6.5347 }, "geometry": { "type": "Point", "coordinates": [ 129.288986, 35.454559, 115.0 ] } },
{ "type": "Feature", "properties": { "value": 18.961 }, "geometry": { "type": "Point", "coordinates": [ 129.2901, 35.454559, 115.0 ] } },
{ "type": "Feature", "properties": { "value": 18.212 }, "geometry": { "type": "Point", "coordinates": [ 129.291199, 35.454556, 115.0 ] } },
{ "type": "Feature", "properties": { "value": 5.7317 }, "geometry": { "type": "Point", "coordinates": [ 129.292297, 35.454552, 115.0 ] } },
{ "type": "Feature", "properties": { "value": 0.5502 }, "geometry": { "type": "Point", "coordinates": [ 129.293396, 35.454552, 115.0 ] } },
{ "type": "Feature", "properties": { "value": 1.0218 }, "geometry": { "type": "Point", "coordinates": [ 129.287888, 35.455463, 115.0 ] } },
{ "type": "Feature", "properties": { "value": 7.1428 }, "geometry": { "type": "Point", "coordinates": [ 129.289001, 35.455463, 115.0 ] } },
{ "type": "Feature", "properties": { "value": 17.804 }, "geometry": { "type": "Point", "coordinates": [ 129.2901, 35.45546, 115.0 ] } },
{ "type": "Feature", "properties": { "value": 16.101 }, "geometry": { "type": "Point", "coordinates": [ 129.291199, 35.455456, 115.0 ] } },
{ "type": "Feature", "properties": { "value": 5.1667 }, "geometry": { "type": "Point", "coordinates": [ 129.292297, 35.455452, 115.0 ] } },
{ "type": "Feature", "properties": { "value": 0.5395 }, "geometry": { "type": "Point", "coordinates": [ 129.293396, 35.455452, 115.0 ] } },
{ "type": "Feature", "properties": { "value": 0.0585 }, "geometry": { "type": "Point", "coordinates": [ 129.286789, 35.456367, 115.0 ] } },
{ "type": "Feature", "properties": { "value": 1.5668 }, "geometry": { "type": "Point", "coordinates": [ 129.287903, 35.456367, 115.0 ] } },
{ "type": "Feature", "properties": { "value": 8.41 }, "geometry": { "type": "Point", "coordinates": [ 129.289001, 35.456364, 115.0 ] } },
{ "type": "Feature", "properties": { "value": 17.569 }, "geometry": { "type": "Point", "coordinates": [ 129.2901, 35.45636, 115.0 ] } },
{ "type": "Feature", "properties": { "value": 14.296 }, "geometry": { "type": "Point", "coordinates": [ 129.291199, 35.456356, 115.0 ] } },
{ "type": "Feature", "properties": { "value": 4.4025 }, "geometry": { "type": "Point", "coordinates": [ 129.292297, 35.456356, 115.0 ] } },
{ "type": "Feature", "properties": { "value": 0.4717 }, "geometry": { "type": "Point", "coordinates": [ 129.293411, 35.456352, 115.0 ] } },
{ "type": "Feature", "properties": { "value": 0.1958 }, "geometry": { "type": "Point", "coordinates": [ 129.286804, 35.457268, 115.0 ] } },
{ "type": "Feature", "properties": { "value": 2.262 }, "geometry": { "type": "Point", "coordinates": [ 129.287903, 35.457268, 115.0 ] } },
{ "type": "Feature", "properties": { "value": 9.6837 }, "geometry": { "type": "Point", "coordinates": [ 129.289001, 35.457264, 115.0 ] } },
{ "type": "Feature", "properties": { "value": 16.93 }, "geometry": { "type": "Point", "coordinates": [ 129.2901, 35.45726, 115.0 ] } },
{ "type": "Feature", "properties": { "value": 12.114 }, "geometry": { "type": "Point", "coordinates": [ 129.291199, 35.45726, 115.0 ] } },
{ "type": "Feature", "properties": { "value": 3.4263 }, "geometry": { "type": "Point", "coordinates": [ 129.292313, 35.457256, 115.0 ] } },
{ "type": "Feature", "properties": { "value": 0.3435 }, "geometry": { "type": "Point", "coordinates": [ 129.293411, 35.457253, 115.0 ] } },
{ "type": "Feature", "properties": { "value": 0.3524 }, "geometry": { "type": "Point", "coordinates": [ 129.286804, 35.458172, 115.0 ] } },
{ "type": "Feature", "properties": { "value": 3.0885 }, "geometry": { "type": "Point", "coordinates": [ 129.287903, 35.458168, 115.0 ] } },
{ "type": "Feature", "properties": { "value": 10.845 }, "geometry": { "type": "Point", "coordinates": [ 129.289001, 35.458164, 115.0 ] } },
{ "type": "Feature", "properties": { "value": 16.21 }, "geometry": { "type": "Point", "coordinates": [ 129.2901, 35.458164, 115.0 ] } },
{ "type": "Feature", "properties": { "value": 10.266 }, "geometry": { "type": "Point", "coordinates": [ 129.291214, 35.45816, 115.0 ] } },
{ "type": "Feature", "properties": { "value": 2.6767 }, "geometry": { "type": "Point", "coordinates": [ 129.292313, 35.458157, 115.0 ] } },
{ "type": "Feature", "properties": { "value": 0.2494 }, "geometry": { "type": "Point", "coordinates": [ 129.293411, 35.458157, 115.0 ] } },
{ "type": "Feature", "properties": { "value": 0.5784 }, "geometry": { "type": "Point", "coordinates": [ 129.286804, 35.459072, 115.0 ] } },
{ "type": "Feature", "properties": { "value": 4.1091 }, "geometry": { "type": "Point", "coordinates": [ 129.287903, 35.459068, 115.0 ] } },
{ "type": "Feature", "properties": { "value": 12.468 }, "geometry": { "type": "Point", "coordinates": [ 129.289001, 35.459068, 115.0 ] } },
{ "type": "Feature", "properties": { "value": 16.493 }, "geometry": { "type": "Point", "coordinates": [ 129.290115, 35.459064, 115.0 ] } },
{ "type": "Feature", "properties": { "value": 9.5072 }, "geometry": { "type": "Point", "coordinates": [ 129.291214, 35.459061, 115.0 ] } },
{ "type": "Feature", "properties": { "value": 2.333 }, "geometry": { "type": "Point", "coordinates": [ 129.292313, 35.459061, 115.0 ] } },
{ "type": "Feature", "properties": { "value": 0.2114 }, "geometry": { "type": "Point", "coordinates": [ 129.293411, 35.459057, 115.0 ] } },
{ "type": "Feature", "properties": { "value": 0.9144 }, "geometry": { "type": "Point", "coordinates": [ 129.286804, 35.459972, 115.0 ] } },
{ "type": "Feature", "properties": { "value": 5.4185 }, "geometry": { "type": "Point", "coordinates": [ 129.287903, 35.459972, 115.0 ] } },
{ "type": "Feature", "properties": { "value": 14.357 }, "geometry": { "type": "Point", "coordinates": [ 129.289017, 35.459969, 115.0 ] } },
{ "type": "Feature", "properties": { "value": 17.171 }, "geometry": { "type": "Point", "coordinates": [ 129.290115, 35.459965, 115.0 ] } },
{ "type": "Feature", "properties": { "value": 9.1738 }, "geometry": { "type": "Point", "coordinates": [ 129.291214, 35.459965, 115.0 ] } },
{ "type": "Feature", "properties": { "value": 2.1328 }, "geometry": { "type": "Point", "coordinates": [ 129.292313, 35.459961, 115.0 ] } },
{ "type": "Feature", "properties": { "value": 0.179 }, "geometry": { "type": "Point", "coordinates": [ 129.293411, 35.459957, 115.0 ] } },
{ "type": "Feature", "properties": { "value": 0.1279 }, "geometry": { "type": "Point", "coordinates": [ 129.285706, 35.460876, 115.0 ] } },
{ "type": "Feature", "properties": { "value": 1.5146 }, "geometry": { "type": "Point", "coordinates": [ 129.286804, 35.460876, 115.0 ] } },
{ "type": "Feature", "properties": { "value": 6.9438 }, "geometry": { "type": "Point", "coordinates": [ 129.287918, 35.460873, 115.0 ] } },
{ "type": "Feature", "properties": { "value": 15.401 }, "geometry": { "type": "Point", "coordinates": [ 129.289017, 35.460869, 115.0 ] } },
{ "type": "Feature", "properties": { "value": 16.209 }, "geometry": { "type": "Point", "coordinates": [ 129.290115, 35.460865, 115.0 ] } },
{ "type": "Feature", "properties": { "value": 7.9152 }, "geometry": { "type": "Point", "coordinates": [ 129.291214, 35.460865, 115.0 ] } },
{ "type": "Feature", "properties": { "value": 1.7302 }, "geometry": { "type": "Point", "coordinates": [ 129.292313, 35.460861, 115.0 ] } },
{ "type": "Feature", "properties": { "value": 0.1312 }, "geometry": { "type": "Point", "coordinates": [ 129.293427, 35.460857, 115.0 ] } },
{ "type": "Feature", "properties": { "value": 0.0017 }, "geometry": { "type": "Point", "coordinates": [ 129.327576, 35.46077, 115.0 ] } },
{ "type": "Feature", "properties": { "value": 0.4091 }, "geometry": { "type": "Point", "coordinates": [ 129.285706, 35.461781, 115.0 ] } },
{ "type": "Feature", "properties": { "value": 2.7356 }, "geometry": { "type": "Point", "coordinates": [ 129.286819, 35.461777, 115.0 ] } },
{ "type": "Feature", "properties": { "value": 9.1475 }, "geometry": { "type": "Point", "coordinates": [ 129.287918, 35.461773, 115.0 ] } },
{ "type": "Feature", "properties": { "value": 15.985 }, "geometry": { "type": "Point", "coordinates": [ 129.289017, 35.461769, 115.0 ] } },
{ "type": "Feature", "properties": { "value": 14.07 }, "geometry": { "type": "Point", "coordinates": [ 129.290115, 35.461769, 115.0 ] } },
{ "type": "Feature", "properties": { "value": 6.0199 }, "geometry": { "type": "Point", "coordinates": [ 129.291214, 35.461765, 115.0 ] } },
{ "type": "Feature", "properties": { "value": 1.1783 }, "geometry": { "type": "Point", "coordinates": [ 129.292328, 35.461761, 115.0 ] } },
{ "type": "Feature", "properties": { "value": 0.0202 }, "geometry": { "type": "Point", "coordinates": [ 129.293427, 35.461761, 115.0 ] } },
{ "type": "Feature", "properties": { "value": 0.0309 }, "geometry": { "type": "Point", "coordinates": [ 129.327576, 35.461674, 115.0 ] } },
{ "type": "Feature", "properties": { "value": 0.056 }, "geometry": { "type": "Point", "coordinates": [ 129.284607, 35.462681, 115.0 ] } },
{ "type": "Feature", "properties": { "value": 1.2531 }, "geometry": { "type": "Point", "coordinates": [ 129.285721, 35.462681, 115.0 ] } },
{ "type": "Feature", "properties": { "value": 5.1758 }, "geometry": { "type": "Point", "coordinates": [ 129.286819, 35.462677, 115.0 ] } },
{ "type": "Feature", "properties": { "value": 12.613 }, "geometry": { "type": "Point", "coordinates": [ 129.287918, 35.462673, 115.0 ] } },
{ "type": "Feature", "properties": { "value": 17.04 }, "geometry": { "type": "Point", "coordinates": [ 129.289017, 35.462673, 115.0 ] } },
{ "type": "Feature", "properties": { "value": 12.213 }, "geometry": { "type": "Point", "coordinates": [ 129.290115, 35.462669, 115.0 ] } },
{ "type": "Feature", "properties": { "value": 4.4349 }, "geometry": { "type": "Point", "coordinates": [ 129.291229, 35.462666, 115.0 ] } },
{ "type": "Feature", "properties": { "value": 0.769 }, "geometry": { "type": "Point", "coordinates": [ 129.292328, 35.462666, 115.0 ] } },
{ "type": "Feature", "properties": { "value": 0.0652 }, "geometry": { "type": "Point", "coordinates": [ 129.327576, 35.462574, 115.0 ] } },
{ "type": "Feature", "properties": { "value": 0.027 }, "geometry": { "type": "Point", "coordinates": [ 129.280212, 35.463593, 115.0 ] } },
{ "type": "Feature", "properties": { "value": 0.0572 }, "geometry": { "type": "Point", "coordinates": [ 129.281311, 35.463593, 115.0 ] } },
{ "type": "Feature", "properties": { "value": 0.0724 }, "geometry": { "type": "Point", "coordinates": [ 129.28241, 35.463589, 115.0 ] } },
{ "type": "Feature", "properties": { "value": 0.2936 }, "geometry": { "type": "Point", "coordinates": [ 129.283524, 35.463585, 115.0 ] } },
{ "type": "Feature", "properties": { "value": 1.042 }, "geometry": { "type": "Point", "coordinates": [ 129.284622, 35.463585, 115.0 ] } },
{ "type": "Feature", "properties": { "value": 3.4985 }, "geometry": { "type": "Point", "coordinates": [ 129.285721, 35.463581, 115.0 ] } },
{ "type": "Feature", "properties": { "value": 9.4946 }, "geometry": { "type": "Point", "coordinates": [ 129.286819, 35.463577, 115.0 ] } },
{ "type": "Feature", "properties": { "value": 16.955 }, "geometry": { "type": "Point", "coordinates": [ 129.287918, 35.463577, 115.0 ] } },
{ "type": "Feature", "properties": { "value": 17.883 }, "geometry": { "type": "Point", "coordinates": [ 129.289017, 35.463573, 115.0 ] } },
{ "type": "Feature", "properties": { "value": 10.447 }, "geometry": { "type": "Point", "coordinates": [ 129.290131, 35.46357, 115.0 ] } },
{ "type": "Feature", "properties": { "value": 3.2204 }, "geometry": { "type": "Point", "coordinates": [ 129.291229, 35.46357, 115.0 ] } },
{ "type": "Feature", "properties": { "value": 0.4765 }, "geometry": { "type": "Point", "coordinates": [ 129.292328, 35.463566, 115.0 ] } },
{ "type": "Feature", "properties": { "value": 0.1121 }, "geometry": { "type": "Point", "coordinates": [ 129.327576, 35.463474, 115.0 ] } },
{ "type": "Feature", "properties": { "value": 0.0084 }, "geometry": { "type": "Point", "coordinates": [ 129.32869, 35.46347, 115.0 ] } },
{ "type": "Feature", "properties": { "value": 0.0329 }, "geometry": { "type": "Point", "coordinates": [ 129.278015, 35.4645, 115.0 ] } },
{ "type": "Feature", "properties": { "value": 0.1317 }, "geometry": { "type": "Point", "coordinates": [ 129.279114, 35.464497, 115.0 ] } },
{ "type": "Feature", "properties": { "value": 0.3191 }, "geometry": { "type": "Point", "coordinates": [ 129.280212, 35.464497, 115.0 ] } },
{ "type": "Feature", "properties": { "value": 0.5876 }, "geometry": { "type": "Point", "coordinates": [ 129.281311, 35.464493, 115.0 ] } },
{ "type": "Feature", "properties": { "value": 1.0087 }, "geometry": { "type": "Point", "coordinates": [ 129.282425, 35.464489, 115.0 ] } },
{ "type": "Feature", "properties": { "value": 1.824 }, "geometry": { "type": "Point", "coordinates": [ 129.283524, 35.464489, 115.0 ] } },
{ "type": "Feature", "properties": { "value": 3.7911 }, "geometry": { "type": "Point", "coordinates": [ 129.284622, 35.464485, 115.0 ] } },
{ "type": "Feature", "properties": { "value": 8.171 }, "geometry": { "type": "Point", "coordinates": [ 129.285721, 35.464481, 115.0 ] } },
{ "type": "Feature", "properties": { "value": 15.082 }, "geometry": { "type": "Point", "coordinates": [ 129.286819, 35.464481, 115.0 ] } },
{ "type": "Feature", "properties": { "value": 19.917 }, "geometry": { "type": "Point", "coordinates": [ 129.287933, 35.464478, 115.0 ] } },
{ "type": "Feature", "properties": { "value": 16.512 }, "geometry": { "type": "Point", "coordinates": [ 129.289032, 35.464474, 115.0 ] } },
{ "type": "Feature", "properties": { "value": 7.9403 }, "geometry": { "type": "Point", "coordinates": [ 129.290131, 35.464474, 115.0 ] } },
{ "type": "Feature", "properties": { "value": 2.083 }, "geometry": { "type": "Point", "coordinates": [ 129.291229, 35.46447, 115.0 ] } },
{ "type": "Feature", "properties": { "value": 0.2455 }, "geometry": { "type": "Point", "coordinates": [ 129.292328, 35.464466, 115.0 ] } },
{ "type": "Feature", "properties": { "value": 0.2295 }, "geometry": { "type": "Point", "coordinates": [ 129.327591, 35.464375, 115.0 ] } },
{ "type": "Feature", "properties": { "value": 0.0329 }, "geometry": { "type": "Point", "coordinates": [ 129.32869, 35.464375, 115.0 ] } },
{ "type": "Feature", "properties": { "value": 0.0271 }, "geometry": { "type": "Point", "coordinates": [ 129.276917, 35.465405, 115.0 ] } },
{ "type": "Feature", "properties": { "value": 0.1511 }, "geometry": { "type": "Point", "coordinates": [ 129.278015, 35.465401, 115.0 ] } },
{ "type": "Feature", "properties": { "value": 0.5623 }, "geometry": { "type": "Point", "coordinates": [ 129.279114, 35.465401, 115.0 ] } },
{ "type": "Feature", "properties": { "value": 1.3395 }, "geometry": { "type": "Point", "coordinates": [ 129.280212, 35.465397, 115.0 ] } },
{ "type": "Feature", "properties": { "value": 2.438 }, "geometry": { "type": "Point", "coordinates": [ 129.281326, 35.465393, 115.0 ] } },
{ "type": "Feature", "properties": { "value": 3.8185 }, "geometry": { "type": "Point", "coordinates": [ 129.282425, 35.465393, 115.0 ] } },
{ "type": "Feature", "properties": { "value": 5.8924 }, "geometry": { "type": "Point", "coordinates": [ 129.283524, 35.465389, 115.0 ] } },
{ "type": "Feature", "properties": { "value": 9.3187 }, "geometry": { "type": "Point", "coordinates": [ 129.284622, 35.465385, 115.0 ] } },
{ "type": "Feature", "properties": { "value": 14.188 }, "geometry": { "type": "Point", "coordinates": [ 129.285721, 35.465385, 115.0 ] } },
{ "type": "Feature", "properties": { "value": 18.63 }, "geometry": { "type": "Point", "coordinates": [ 129.286835, 35.465382, 115.0 ] } },
{ "type": "Feature", "properties": { "value": 18.387 }, "geometry": { "type": "Point", "coordinates": [ 129.287933, 35.465378, 115.0 ] } },
{ "type": "Feature", "properties": { "value": 12.038 }, "geometry": { "type": "Point", "coordinates": [ 129.289032, 35.465378, 115.0 ] } },
{ "type": "Feature", "properties": { "value": 4.7629 }, "geometry": { "type": "Point", "coordinates": [ 129.290131, 35.465374, 115.0 ] } },
{ "type": "Feature", "properties": { "value": 1.0466 }, "geometry": { "type": "Point", "coordinates": [ 129.291229, 35.46537, 115.0 ] } },
{ "type": "Feature", "properties": { "value": 0.0643 }, "geometry": { "type": "Point", "coordinates": [ 129.292343, 35.465366, 115.0 ] } },
{ "type": "Feature", "properties": { "value": 0.7743 }, "geometry": { "type": "Point", "coordinates": [ 129.327591, 35.465279, 115.0 ] } },
{ "type": "Feature", "properties": { "value": 0.2946 }, "geometry": { "type": "Point", "coordinates": [ 129.32869, 35.465275, 115.0 ] } },
{ "type": "Feature", "properties": { "value": 0.0657 }, "geometry": { "type": "Point", "coordinates": [ 129.276917, 35.466305, 115.0 ] } },
{ "type": "Feature", "properties": { "value": 0.3894 }, "geometry": { "type": "Point", "coordinates": [ 129.278015, 35.466305, 115.0 ] } },
{ "type": "Feature", "properties": { "value": 1.3787 }, "geometry": { "type": "Point", "coordinates": [ 129.279114, 35.466301, 115.0 ] } },
{ "type": "Feature", "properties": { "value": 3.2695 }, "geometry": { "type": "Point", "coordinates": [ 129.280228, 35.466297, 115.0 ] } },
{ "type": "Feature", "properties": { "value": 5.7993 }, "geometry": { "type": "Point", "coordinates": [ 129.281326, 35.466297, 115.0 ] } },
{ "type": "Feature", "properties": { "value": 8.568 }, "geometry": { "type": "Point", "coordinates": [ 129.282425, 35.466293, 115.0 ] } },
{ "type": "Feature", "properties": { "value": 11.615 }, "geometry": { "type": "Point", "coordinates": [ 129.283524, 35.46629, 115.0 ] } },
{ "type": "Feature", "properties": { "value": 14.91 }, "geometry": { "type": "Point", "coordinates": [ 129.284622, 35.46629, 115.0 ] } },
{ "type": "Feature", "properties": { "value": 17.258 }, "geometry": { "type": "Point", "coordinates": [ 129.285736, 35.466286, 115.0 ] } },
{ "type": "Feature", "properties": { "value": 16.739 }, "geometry": { "type": "Point", "coordinates": [ 129.286835, 35.466282, 115.0 ] } },
{ "type": "Feature", "properties": { "value": 12.444 }, "geometry": { "type": "Point", "coordinates": [ 129.287933, 35.466278, 115.0 ] } },
{ "type": "Feature", "properties": { "value": 6.3949 }, "geometry": { "type": "Point", "coordinates": [ 129.289032, 35.466278, 115.0 ] } },
{ "type": "Feature", "properties": { "value": 2.0671 }, "geometry": { "type": "Point", "coordinates": [ 129.290131, 35.466274, 115.0 ] } },
{ "type": "Feature", "properties": { "value": 0.3552 }, "geometry": { "type": "Point", "coordinates": [ 129.291245, 35.46627, 115.0 ] } },
{ "type": "Feature", "properties": { "value": 2.3268 }, "geometry": { "type": "Point", "coordinates": [ 129.327591, 35.466179, 115.0 ] } },
{ "type": "Feature", "properties": { "value": 2.0199 }, "geometry": { "type": "Point", "coordinates": [ 129.32869, 35.466175, 115.0 ] } },
{ "type": "Feature", "properties": { "value": 0.1074 }, "geometry": { "type": "Point", "coordinates": [ 129.276917, 35.467209, 115.0 ] } },
{ "type": "Feature", "properties": { "value": 0.587 }, "geometry": { "type": "Point", "coordinates": [ 129.278015, 35.467205, 115.0 ] } },
{ "type": "Feature", "properties": { "value": 2.0337 }, "geometry": { "type": "Point", "coordinates": [ 129.279129, 35.467201, 115.0 ] } },
{ "type": "Feature", "properties": { "value": 4.788 }, "geometry": { "type": "Point", "coordinates": [ 129.280228, 35.467201, 115.0 ] } },
{ "type": "Feature", "properties": { "value": 8.3136 }, "geometry": { "type": "Point", "coordinates": [ 129.281326, 35.467197, 115.0 ] } },
{ "type": "Feature", "properties": { "value": 11.575 }, "geometry": { "type": "Point", "coordinates": [ 129.282425, 35.467194, 115.0 ] } },
{ "type": "Feature", "properties": { "value": 14.052 }, "geometry": { "type": "Point", "coordinates": [ 129.283524, 35.46719, 115.0 ] } },
{ "type": "Feature", "properties": { "value": 15.202 }, "geometry": { "type": "Point", "coordinates": [ 129.284637, 35.46719, 115.0 ] } },
{ "type": "Feature", "properties": { "value": 14.089 }, "geometry": { "type": "Point", "coordinates": [ 129.285736, 35.467186, 115.0 ] } },
{ "type": "Feature", "properties": { "value": 10.542 }, "geometry": { "type": "Point", "coordinates": [ 129.286835, 35.467182, 115.0 ] } },
{ "type": "Feature", "properties": { "value": 5.9774 }, "geometry": { "type": "Point", "coordinates": [ 129.287933, 35.467182, 115.0 ] } },
{ "type": "Feature", "properties": { "value": 2.381 }, "geometry": { "type": "Point", "coordinates": [ 129.289032, 35.467178, 115.0 ] } },
{ "type": "Feature", "properties": { "value": 0.6031 }, "geometry": { "type": "Point", "coordinates": [ 129.290146, 35.467175, 115.0 ] } },
{ "type": "Feature", "properties": { "value": 0.0226 }, "geometry": { "type": "Point", "coordinates": [ 129.291245, 35.467175, 115.0 ] } },
{ "type": "Feature", "properties": { "value": 4.8634 }, "geometry": { "type": "Point", "coordinates": [ 129.327591, 35.467079, 115.0 ] } },
{ "type": "Feature", "properties": { "value": 5.9896 }, "geometry": { "type": "Point", "coordinates": [ 129.328705, 35.467075, 115.0 ] } },
{ "type": "Feature", "properties": { "value": 0.0966 }, "geometry": { "type": "Point", "coordinates": [ 129.276917, 35.468109, 115.0 ] } },
{ "type": "Feature", "properties": { "value": 0.5278 }, "geometry": { "type": "Point", "coordinates": [ 129.27803, 35.468105, 115.0 ] } },
{ "type": "Feature", "properties": { "value": 1.8232 }, "geometry": { "type": "Point", "coordinates": [ 129.279129, 35.468102, 115.0 ] } },
{ "type": "Feature", "properties": { "value": 4.2521 }, "geometry": { "type": "Point", "coordinates": [ 129.280228, 35.468102, 115.0 ] } },
{ "type": "Feature", "properties": { "value": 7.1921 }, "geometry": { "type": "Point", "coordinates": [ 129.281326, 35.468098, 115.0 ] } },
{ "type": "Feature", "properties": { "value": 9.4747 }, "geometry": { "type": "Point", "coordinates": [ 129.282425, 35.468094, 115.0 ] } },
{ "type": "Feature", "properties": { "value": 10.413 }, "geometry": { "type": "Point", "coordinates": [ 129.283539, 35.468094, 115.0 ] } },
{ "type": "Feature", "properties": { "value": 9.726 }, "geometry": { "type": "Point", "coordinates": [ 129.284637, 35.46809, 115.0 ] } },
{ "type": "Feature", "properties": { "value": 7.5179 }, "geometry": { "type": "Point", "coordinates": [ 129.285736, 35.468086, 115.0 ] } },
{ "type": "Feature", "properties": { "value": 4.512 }, "geometry": { "type": "Point", "coordinates": [ 129.286835, 35.468086, 115.0 ] } },
{ "type": "Feature", "properties": { "value": 2.0073 }, "geometry": { "type": "Point", "coordinates": [ 129.287933, 35.468082, 115.0 ] } },
{ "type": "Feature", "properties": { "value": 0.6107 }, "geometry": { "type": "Point", "coordinates": [ 129.289047, 35.468079, 115.0 ] } },
{ "type": "Feature", "properties": { "value": 0.0657 }, "geometry": { "type": "Point", "coordinates": [ 129.290146, 35.468079, 115.0 ] } },
{ "type": "Feature", "properties": { "value": 8.1249 }, "geometry": { "type": "Point", "coordinates": [ 129.327606, 35.467983, 115.0 ] } },
{ "type": "Feature", "properties": { "value": 11.549 }, "geometry": { "type": "Point", "coordinates": [ 129.328705, 35.467979, 115.0 ] } },
{ "type": "Feature", "properties": { "value": 0.0476 }, "geometry": { "type": "Point", "coordinates": [ 129.276932, 35.469009, 115.0 ] } },
{ "type": "Feature", "properties": { "value": 0.2832 }, "geometry": { "type": "Point", "coordinates": [ 129.27803, 35.469006, 115.0 ] } },
{ "type": "Feature", "properties": { "value": 0.988 }, "geometry": { "type": "Point", "coordinates": [ 129.279129, 35.469006, 115.0 ] } },
{ "type": "Feature", "properties": { "value": 2.2851 }, "geometry": { "type": "Point", "coordinates": [ 129.280228, 35.469002, 115.0 ] } },
{ "type": "Feature", "properties": { "value": 3.7603 }, "geometry": { "type": "Point", "coordinates": [ 129.281326, 35.468998, 115.0 ] } },
{ "type": "Feature", "properties": { "value": 4.6967 }, "geometry": { "type": "Point", "coordinates": [ 129.28244, 35.468998, 115.0 ] } },
{ "type": "Feature", "properties": { "value": 4.7072 }, "geometry": { "type": "Point", "coordinates": [ 129.283539, 35.468994, 115.0 ] } },
{ "type": "Feature", "properties": { "value": 3.8803 }, "geometry": { "type": "Point", "coordinates": [ 129.284637, 35.46899, 115.0 ] } },
{ "type": "Feature", "properties": { "value": 2.5361 }, "geometry": { "type": "Point", "coordinates": [ 129.285736, 35.46899, 115.0 ] } },
{ "type": "Feature", "properties": { "value": 1.2655 }, "geometry": { "type": "Point", "coordinates": [ 129.286835, 35.468987, 115.0 ] } },
{ "type": "Feature", "properties": { "value": 0.4384 }, "geometry": { "type": "Point", "coordinates": [ 129.287949, 35.468983, 115.0 ] } },
{ "type": "Feature", "properties": { "value": 0.0402 }, "geometry": { "type": "Point", "coordinates": [ 129.289047, 35.468983, 115.0 ] } },
{ "type": "Feature", "properties": { "value": 10.694 }, "geometry": { "type": "Point", "coordinates": [ 129.327606, 35.468884, 115.0 ] } },
{ "type": "Feature", "properties": { "value": 16.455 }, "geometry": { "type": "Point", "coordinates": [ 129.328705, 35.46888, 115.0 ] } },
{ "type": "Feature", "properties": { "value": 0.0096 }, "geometry": { "type": "Point", "coordinates": [ 129.276932, 35.46991, 115.0 ] } },
{ "type": "Feature", "properties": { "value": 0.09 }, "geometry": { "type": "Point", "coordinates": [ 129.27803, 35.46991, 115.0 ] } },
{ "type": "Feature", "properties": { "value": 0.323 }, "geometry": { "type": "Point", "coordinates": [ 129.279129, 35.469906, 115.0 ] } },
{ "type": "Feature", "properties": { "value": 0.7433 }, "geometry": { "type": "Point", "coordinates": [ 129.280228, 35.469902, 115.0 ] } },
{ "type": "Feature", "properties": { "value": 1.1772 }, "geometry": { "type": "Point", "coordinates": [ 129.281342, 35.469902, 115.0 ] } },
{ "type": "Feature", "properties": { "value": 1.4014 }, "geometry": { "type": "Point", "coordinates": [ 129.28244, 35.469898, 115.0 ] } },
{ "type": "Feature", "properties": { "value": 1.2992 }, "geometry": { "type": "Point", "coordinates": [ 129.283539, 35.469894, 115.0 ] } },
{ "type": "Feature", "properties": { "value": 0.9492 }, "geometry": { "type": "Point", "coordinates": [ 129.284637, 35.469894, 115.0 ] } },
{ "type": "Feature", "properties": { "value": 0.5295 }, "geometry": { "type": "Point", "coordinates": [ 129.285736, 35.469891, 115.0 ] } },
{ "type": "Feature", "properties": { "value": 0.2078 }, "geometry": { "type": "Point", "coordinates": [ 129.28685, 35.469887, 115.0 ] } },
{ "type": "Feature", "properties": { "value": 10.404 }, "geometry": { "type": "Point", "coordinates": [ 129.327606, 35.469784, 115.0 ] } },
{ "type": "Feature", "properties": { "value": 17.443 }, "geometry": { "type": "Point", "coordinates": [ 129.328705, 35.46978, 115.0 ] } },
{ "type": "Feature", "properties": { "value": 0.3886 }, "geometry": { "type": "Point", "coordinates": [ 129.329819, 35.469776, 115.0 ] } },
{ "type": "Feature", "properties": { "value": 0.0582 }, "geometry": { "type": "Point", "coordinates": [ 129.279129, 35.470806, 115.0 ] } },
{ "type": "Feature", "properties": { "value": 0.1416 }, "geometry": { "type": "Point", "coordinates": [ 129.280243, 35.470806, 115.0 ] } },
{ "type": "Feature", "properties": { "value": 0.2148 }, "geometry": { "type": "Point", "coordinates": [ 129.281342, 35.470802, 115.0 ] } },
{ "type": "Feature", "properties": { "value": 0.2383 }, "geometry": { "type": "Point", "coordinates": [ 129.28244, 35.470798, 115.0 ] } },
{ "type": "Feature", "properties": { "value": 0.1998 }, "geometry": { "type": "Point", "coordinates": [ 129.283539, 35.470798, 115.0 ] } },
{ "type": "Feature", "properties": { "value": 0.1104 }, "geometry": { "type": "Point", "coordinates": [ 129.284637, 35.470795, 115.0 ] } },
{ "type": "Feature", "properties": { "value": 8.357 }, "geometry": { "type": "Point", "coordinates": [ 129.327606, 35.470684, 115.0 ] } },
{ "type": "Feature", "properties": { "value": 12.446 }, "geometry": { "type": "Point", "coordinates": [ 129.32872, 35.470684, 115.0 ] } },
{ "type": "Feature", "properties": { "value": 0.2996 }, "geometry": { "type": "Point", "coordinates": [ 129.329819, 35.47068, 115.0 ] } },
{ "type": "Feature", "properties": { "value": 0.1019 }, "geometry": { "type": "Point", "coordinates": [ 129.326508, 35.471588, 115.0 ] } },
{ "type": "Feature", "properties": { "value": 4.9767 }, "geometry": { "type": "Point", "coordinates": [ 129.327621, 35.471588, 115.0 ] } },
{ "type": "Feature", "properties": { "value": 4.872 }, "geometry": { "type": "Point", "coordinates": [ 129.32872, 35.471584, 115.0 ] } },
{ "type": "Feature", "properties": { "value": 0.128 }, "geometry": { "type": "Point", "coordinates": [ 129.329819, 35.471581, 115.0 ] } },
{ "type": "Feature", "properties": { "value": 0.079 }, "geometry": { "type": "Point", "coordinates": [ 129.326523, 35.472492, 115.0 ] } },
{ "type": "Feature", "properties": { "value": 2.3565 }, "geometry": { "type": "Point", "coordinates": [ 129.327621, 35.472488, 115.0 ] } },
{ "type": "Feature", "properties": { "value": 1.664 }, "geometry": { "type": "Point", "coordinates": [ 129.32872, 35.472485, 115.0 ] } },
{ "type": "Feature", "properties": { "value": 0.0813 }, "geometry": { "type": "Point", "coordinates": [ 129.329819, 35.472481, 115.0 ] } },
{ "type": "Feature", "properties": { "value": 0.0792 }, "geometry": { "type": "Point", "coordinates": [ 129.326523, 35.473392, 115.0 ] } },
{ "type": "Feature", "properties": { "value": 1.4298 }, "geometry": { "type": "Point", "coordinates": [ 129.327621, 35.473389, 115.0 ] } },
{ "type": "Feature", "properties": { "value": 1.1741 }, "geometry": { "type": "Point", "coordinates": [ 129.32872, 35.473385, 115.0 ] } },
{ "type": "Feature", "properties": { "value": 0.1492 }, "geometry": { "type": "Point", "coordinates": [ 129.329819, 35.473385, 115.0 ] } },
{ "type": "Feature", "properties": { "value": 0.0958 }, "geometry": { "type": "Point", "coordinates": [ 129.326523, 35.474293, 115.0 ] } },
{ "type": "Feature", "properties": { "value": 1.1629 }, "geometry": { "type": "Point", "coordinates": [ 129.327621, 35.474289, 115.0 ] } },
{ "type": "Feature", "properties": { "value": 1.5614 }, "geometry": { "type": "Point", "coordinates": [ 129.328735, 35.474289, 115.0 ] } },
{ "type": "Feature", "properties": { "value": 0.4579 }, "geometry": { "type": "Point", "coordinates": [ 129.329834, 35.474285, 115.0 ] } },
{ "type": "Feature", "properties": { "value": 0.1156 }, "geometry": { "type": "Point", "coordinates": [ 129.326523, 35.475193, 115.0 ] } },
{ "type": "Feature", "properties": { "value": 1.3847 }, "geometry": { "type": "Point", "coordinates": [ 129.327637, 35.475193, 115.0 ] } },
{ "type": "Feature", "properties": { "value": 2.7526 }, "geometry": { "type": "Point", "coordinates": [ 129.328735, 35.475189, 115.0 ] } },
{ "type": "Feature", "properties": { "value": 1.3153 }, "geometry": { "type": "Point", "coordinates": [ 129.329834, 35.475185, 115.0 ] } },
{ "type": "Feature", "properties": { "value": 0.1931 }, "geometry": { "type": "Point", "coordinates": [ 129.326538, 35.476097, 115.0 ] } },
{ "type": "Feature", "properties": { "value": 3.0088 }, "geometry": { "type": "Point", "coordinates": [ 129.327637, 35.476093, 115.0 ] } },
{ "type": "Feature", "properties": { "value": 6.3205 }, "geometry": { "type": "Point", "coordinates": [ 129.328735, 35.476089, 115.0 ] } },
{ "type": "Feature", "properties": { "value": 2.9203 }, "geometry": { "type": "Point", "coordinates": [ 129.329834, 35.476086, 115.0 ] } },
{ "type": "Feature", "properties": { "value": 0.5056 }, "geometry": { "type": "Point", "coordinates": [ 129.326538, 35.476997, 115.0 ] } },
{ "type": "Feature", "properties": { "value": 8.4116 }, "geometry": { "type": "Point", "coordinates": [ 129.327637, 35.476994, 115.0 ] } },
{ "type": "Feature", "properties": { "value": 15.605 }, "geometry": { "type": "Point", "coordinates": [ 129.328735, 35.47699, 115.0 ] } },
{ "type": "Feature", "properties": { "value": 5.3467 }, "geometry": { "type": "Point", "coordinates": [ 129.329834, 35.47699, 115.0 ] } },
{ "type": "Feature", "properties": { "value": 1.5278 }, "geometry": { "type": "Point", "coordinates": [ 129.326538, 35.477898, 115.0 ] } },
{ "type": "Feature", "properties": { "value": 18.34 }, "geometry": { "type": "Point", "coordinates": [ 129.327637, 35.477894, 115.0 ] } },
{ "type": "Feature", "properties": { "value": 29.085 }, "geometry": { "type": "Point", "coordinates": [ 129.328735, 35.477894, 115.0 ] } },
{ "type": "Feature", "properties": { "value": 8.1531 }, "geometry": { "type": "Point", "coordinates": [ 129.329849, 35.47789, 115.0 ] } },
{ "type": "Feature", "properties": { "value": 3.3182 }, "geometry": { "type": "Point", "coordinates": [ 129.326538, 35.478798, 115.0 ] } },
{ "type": "Feature", "properties": { "value": 26.858 }, "geometry": { "type": "Point", "coordinates": [ 129.327637, 35.478798, 115.0 ] } },
{ "type": "Feature", "properties": { "value": 38.346 }, "geometry": { "type": "Point", "coordinates": [ 129.328751, 35.478794, 115.0 ] } },
{ "type": "Feature", "properties": { "value": 10.446 }, "geometry": { "type": "Point", "coordinates": [ 129.329849, 35.47879, 115.0 ] } },
{ "type": "Feature", "properties": { "value": 0.3465 }, "geometry": { "type": "Point", "coordinates": [ 129.330948, 35.478786, 115.0 ] } },
{ "type": "Feature", "properties": { "value": 4.3764 }, "geometry": { "type": "Point", "coordinates": [ 129.326553, 35.479702, 115.0 ] } },
{ "type": "Feature", "properties": { "value": 26.176 }, "geometry": { "type": "Point", "coordinates": [ 129.327652, 35.479698, 115.0 ] } },
{ "type": "Feature", "properties": { "value": 37.042 }, "geometry": { "type": "Point", "coordinates": [ 129.328751, 35.479694, 115.0 ] } },
{ "type": "Feature", "properties": { "value": 11.648 }, "geometry": { "type": "Point", "coordinates": [ 129.329849, 35.479691, 115.0 ] } },
{ "type": "Feature", "properties": { "value": 0.5916 }, "geometry": { "type": "Point", "coordinates": [ 129.330948, 35.479691, 115.0 ] } },
{ "type": "Feature", "properties": { "value": 3.8454 }, "geometry": { "type": "Point", "coordinates": [ 129.326553, 35.480602, 115.0 ] } },
{ "type": "Feature", "properties": { "value": 19.937 }, "geometry": { "type": "Point", "coordinates": [ 129.327652, 35.480598, 115.0 ] } },
{ "type": "Feature", "properties": { "value": 30.889 }, "geometry": { "type": "Point", "coordinates": [ 129.328751, 35.480595, 115.0 ] } },
{ "type": "Feature", "properties": { "value": 11.871 }, "geometry": { "type": "Point", "coordinates": [ 129.329849, 35.480595, 115.0 ] } },
{ "type": "Feature", "properties": { "value": 0.7773 }, "geometry": { "type": "Point", "coordinates": [ 129.330963, 35.480591, 115.0 ] } },
{ "type": "Feature", "properties": { "value": 3.2976 }, "geometry": { "type": "Point", "coordinates": [ 129.326553, 35.481503, 115.0 ] } },
{ "type": "Feature", "properties": { "value": 18.436 }, "geometry": { "type": "Point", "coordinates": [ 129.327652, 35.481503, 115.0 ] } },
{ "type": "Feature", "properties": { "value": 30.402 }, "geometry": { "type": "Point", "coordinates": [ 129.328751, 35.481499, 115.0 ] } },
{ "type": "Feature", "properties": { "value": 12.25 }, "geometry": { "type": "Point", "coordinates": [ 129.329865, 35.481495, 115.0 ] } },
{ "type": "Feature", "properties": { "value": 0.9435 }, "geometry": { "type": "Point", "coordinates": [ 129.330963, 35.481491, 115.0 ] } },
{ "type": "Feature", "properties": { "value": 0.1591 }, "geometry": { "type": "Point", "coordinates": [ 129.325455, 35.482407, 115.0 ] } },
{ "type": "Feature", "properties": { "value": 3.8331 }, "geometry": { "type": "Point", "coordinates": [ 129.326553, 35.482407, 115.0 ] } },
{ "type": "Feature", "properties": { "value": 21.963 }, "geometry": { "type": "Point", "coordinates": [ 129.327652, 35.482403, 115.0 ] } },
{ "type": "Feature", "properties": { "value": 33.45 }, "geometry": { "type": "Point", "coordinates": [ 129.328766, 35.482399, 115.0 ] } },
{ "type": "Feature", "properties": { "value": 12.624 }, "geometry": { "type": "Point", "coordinates": [ 129.329865, 35.482395, 115.0 ] } },
{ "type": "Feature", "properties": { "value": 1.086 }, "geometry": { "type": "Point", "coordinates": [ 129.330963, 35.482391, 115.0 ] } },
{ "type": "Feature", "properties": { "value": 0.0 }, "geometry": { "type": "Point", "coordinates": [ 129.319946, 35.483322, 115.0 ] } },
{ "type": "Feature", "properties": { "value": 0.273 }, "geometry": { "type": "Point", "coordinates": [ 129.325455, 35.483311, 115.0 ] } },
{ "type": "Feature", "properties": { "value": 5.0137 }, "geometry": { "type": "Point", "coordinates": [ 129.326553, 35.483307, 115.0 ] } },
{ "type": "Feature", "properties": { "value": 23.453 }, "geometry": { "type": "Point", "coordinates": [ 129.327667, 35.483303, 115.0 ] } },
{ "type": "Feature", "properties": { "value": 30.695 }, "geometry": { "type": "Point", "coordinates": [ 129.328766, 35.483299, 115.0 ] } },
{ "type": "Feature", "properties": { "value": 11.91 }, "geometry": { "type": "Point", "coordinates": [ 129.329865, 35.483295, 115.0 ] } },
{ "type": "Feature", "properties": { "value": 1.1725 }, "geometry": { "type": "Point", "coordinates": [ 129.330963, 35.483295, 115.0 ] } },
{ "type": "Feature", "properties": { "value": 0.0 }, "geometry": { "type": "Point", "coordinates": [ 129.318848, 35.48423, 115.0 ] } },
{ "type": "Feature", "properties": { "value": 0.0 }, "geometry": { "type": "Point", "coordinates": [ 129.319946, 35.484226, 115.0 ] } },
{ "type": "Feature", "properties": { "value": 0.4613 }, "geometry": { "type": "Point", "coordinates": [ 129.325455, 35.484211, 115.0 ] } },
{ "type": "Feature", "properties": { "value": 6.0087 }, "geometry": { "type": "Point", "coordinates": [ 129.326569, 35.484207, 115.0 ] } },
{ "type": "Feature", "properties": { "value": 21.309 }, "geometry": { "type": "Point", "coordinates": [ 129.327667, 35.484203, 115.0 ] } },
{ "type": "Feature", "properties": { "value": 25.128 }, "geometry": { "type": "Point", "coordinates": [ 129.328766, 35.484203, 115.0 ] } },
{ "type": "Feature", "properties": { "value": 10.722 }, "geometry": { "type": "Point", "coordinates": [ 129.329865, 35.4842, 115.0 ] } },
{ "type": "Feature", "properties": { "value": 1.1944 }, "geometry": { "type": "Point", "coordinates": [ 129.330978, 35.484196, 115.0 ] } },
{ "type": "Feature", "properties": { "value": 0.0 }, "geometry": { "type": "Point", "coordinates": [ 129.317749, 35.485134, 115.0 ] } },
{ "type": "Feature", "properties": { "value": 0.0 }, "geometry": { "type": "Point", "coordinates": [ 129.318848, 35.48513, 115.0 ] } },
{ "type": "Feature", "properties": { "value": 0.0 }, "geometry": { "type": "Point", "coordinates": [ 129.319962, 35.485126, 115.0 ] } },
{ "type": "Feature", "properties": { "value": 0.8567 }, "geometry": { "type": "Point", "coordinates": [ 129.32547, 35.485111, 115.0 ] } },
{ "type": "Feature", "properties": { "value": 7.715 }, "geometry": { "type": "Point", "coordinates": [ 129.326569, 35.485107, 115.0 ] } },
{ "type": "Feature", "properties": { "value": 22.127 }, "geometry": { "type": "Point", "coordinates": [ 129.327667, 35.485107, 115.0 ] } },
{ "type": "Feature", "properties": { "value": 24.63 }, "geometry": { "type": "Point", "coordinates": [ 129.328766, 35.485104, 115.0 ] } },
{ "type": "Feature", "properties": { "value": 9.9833 }, "geometry": { "type": "Point", "coordinates": [ 129.32988, 35.4851, 115.0 ] } },
{ "type": "Feature", "properties": { "value": 1.079 }, "geometry": { "type": "Point", "coordinates": [ 129.330978, 35.485096, 115.0 ] } },
{ "type": "Feature", "properties": { "value": 0.0 }, "geometry": { "type": "Point", "coordinates": [ 129.317749, 35.486034, 115.0 ] } },
{ "type": "Feature", "properties": { "value": 0.0001 }, "geometry": { "type": "Point", "coordinates": [ 129.318863, 35.486031, 115.0 ] } },
{ "type": "Feature", "properties": { "value": 0.0 }, "geometry": { "type": "Point", "coordinates": [ 129.319962, 35.486027, 115.0 ] } },
{ "type": "Feature", "properties": { "value": 1.8411 }, "geometry": { "type": "Point", "coordinates": [ 129.32547, 35.486012, 115.0 ] } },
{ "type": "Feature", "properties": { "value": 11.712 }, "geometry": { "type": "Point", "coordinates": [ 129.326569, 35.486012, 115.0 ] } },
{ "type": "Feature", "properties": { "value": 27.904 }, "geometry": { "type": "Point", "coordinates": [ 129.327667, 35.486008, 115.0 ] } },
{ "type": "Feature", "properties": { "value": 27.13 }, "geometry": { "type": "Point", "coordinates": [ 129.328781, 35.486004, 115.0 ] } },
{ "type": "Feature", "properties": { "value": 9.2316 }, "geometry": { "type": "Point", "coordinates": [ 129.32988, 35.486, 115.0 ] } },
{ "type": "Feature", "properties": { "value": 0.9295 }, "geometry": { "type": "Point", "coordinates": [ 129.330978, 35.485996, 115.0 ] } },
{ "type": "Feature", "properties": { "value": 0.0001 }, "geometry": { "type": "Point", "coordinates": [ 129.317764, 35.486935, 115.0 ] } },
{ "type": "Feature", "properties": { "value": 0.0003 }, "geometry": { "type": "Point", "coordinates": [ 129.318863, 35.486931, 115.0 ] } },
{ "type": "Feature", "properties": { "value": 0.0 }, "geometry": { "type": "Point", "coordinates": [ 129.319962, 35.486931, 115.0 ] } },
{ "type": "Feature", "properties": { "value": 0.1465 }, "geometry": { "type": "Point", "coordinates": [ 129.324371, 35.486916, 115.0 ] } },
{ "type": "Feature", "properties": { "value": 3.8541 }, "geometry": { "type": "Point", "coordinates": [ 129.32547, 35.486916, 115.0 ] } },
{ "type": "Feature", "properties": { "value": 18.064 }, "geometry": { "type": "Point", "coordinates": [ 129.326569, 35.486912, 115.0 ] } },
{ "type": "Feature", "properties": { "value": 34.391 }, "geometry": { "type": "Point", "coordinates": [ 129.327682, 35.486908, 115.0 ] } },
{ "type": "Feature", "properties": { "value": 27.58 }, "geometry": { "type": "Point", "coordinates": [ 129.328781, 35.486904, 115.0 ] } },
{ "type": "Feature", "properties": { "value": 8.2626 }, "geometry": { "type": "Point", "coordinates": [ 129.32988, 35.486904, 115.0 ] } },
{ "type": "Feature", "properties": { "value": 0.7657 }, "geometry": { "type": "Point", "coordinates": [ 129.330978, 35.4869, 115.0 ] } },
{ "type": "Feature", "properties": { "value": 0.0001 }, "geometry": { "type": "Point", "coordinates": [ 129.316666, 35.487839, 115.0 ] } },
{ "type": "Feature", "properties": { "value": 0.0019 }, "geometry": { "type": "Point", "coordinates": [ 129.317764, 35.487835, 115.0 ] } },
{ "type": "Feature", "properties": { "value": 0.0005 }, "geometry": { "type": "Point", "coordinates": [ 129.318863, 35.487835, 115.0 ] } },
{ "type": "Feature", "properties": { "value": 0.0 }, "geometry": { "type": "Point", "coordinates": [ 129.319962, 35.487831, 115.0 ] } },
{ "type": "Feature", "properties": { "value": 0.5543 }, "geometry": { "type": "Point", "coordinates": [ 129.324371, 35.48782, 115.0 ] } },
{ "type": "Feature", "properties": { "value": 6.3081 }, "geometry": { "type": "Point", "coordinates": [ 129.32547, 35.487816, 115.0 ] } },
{ "type": "Feature", "properties": { "value": 23.92 }, "geometry": { "type": "Point", "coordinates": [ 129.326584, 35.487812, 115.0 ] } },
{ "type": "Feature", "properties": { "value": 38.581 }, "geometry": { "type": "Point", "coordinates": [ 129.327682, 35.487808, 115.0 ] } },
{ "type": "Feature", "properties": { "value": 26.808 }, "geometry": { "type": "Point", "coordinates": [ 129.328781, 35.487808, 115.0 ] } },
{ "type": "Feature", "properties": { "value": 7.4651 }, "geometry": { "type": "Point", "coordinates": [ 129.32988, 35.487804, 115.0 ] } },
{ "type": "Feature", "properties": { "value": 0.6093 }, "geometry": { "type": "Point", "coordinates": [ 129.330994, 35.487801, 115.0 ] } },
{ "type": "Feature", "properties": { "value": 0.0373 }, "geometry": { "type": "Point", "coordinates": [ 129.316666, 35.488739, 115.0 ] } },
{ "type": "Feature", "properties": { "value": 0.0801 }, "geometry": { "type": "Point", "coordinates": [ 129.317764, 35.488739, 115.0 ] } },
{ "type": "Feature", "properties": { "value": 0.0019 }, "geometry": { "type": "Point", "coordinates": [ 129.318863, 35.488735, 115.0 ] } },
{ "type": "Feature", "properties": { "value": 0.9046 }, "geometry": { "type": "Point", "coordinates": [ 129.324371, 35.48872, 115.0 ] } },
{ "type": "Feature", "properties": { "value": 7.8226 }, "geometry": { "type": "Point", "coordinates": [ 129.325485, 35.488716, 115.0 ] } },
{ "type": "Feature", "properties": { "value": 26.249 }, "geometry": { "type": "Point", "coordinates": [ 129.326584, 35.488712, 115.0 ] } },
{ "type": "Feature", "properties": { "value": 38.958 }, "geometry": { "type": "Point", "coordinates": [ 129.327682, 35.488712, 115.0 ] } },
{ "type": "Feature", "properties": { "value": 25.585 }, "geometry": { "type": "Point", "coordinates": [ 129.328781, 35.488708, 115.0 ] } },
{ "type": "Feature", "properties": { "value": 6.8908 }, "geometry": { "type": "Point", "coordinates": [ 129.329895, 35.488705, 115.0 ] } },
{ "type": "Feature", "properties": { "value": 0.5458 }, "geometry": { "type": "Point", "coordinates": [ 129.330994, 35.488701, 115.0 ] } },
{ "type": "Feature", "properties": { "value": 0.0181 }, "geometry": { "type": "Point", "coordinates": [ 129.315567, 35.489643, 115.0 ] } },
{ "type": "Feature", "properties": { "value": 0.9903 }, "geometry": { "type": "Point", "coordinates": [ 129.316666, 35.489643, 115.0 ] } },
{ "type": "Feature", "properties": { "value": 0.9855 }, "geometry": { "type": "Point", "coordinates": [ 129.317764, 35.489639, 115.0 ] } },
{ "type": "Feature", "properties": { "value": 0.0156 }, "geometry": { "type": "Point", "coordinates": [ 129.318878, 35.489635, 115.0 ] } },
{ "type": "Feature", "properties": { "value": 1.1378 }, "geometry": { "type": "Point", "coordinates": [ 129.324387, 35.48962, 115.0 ] } },
{ "type": "Feature", "properties": { "value": 7.9532 }, "geometry": { "type": "Point", "coordinates": [ 129.325485, 35.489616, 115.0 ] } },
{ "type": "Feature", "properties": { "value": 25.055 }, "geometry": { "type": "Point", "coordinates": [ 129.326584, 35.489616, 115.0 ] } },
{ "type": "Feature", "properties": { "value": 36.097 }, "geometry": { "type": "Point", "coordinates": [ 129.327682, 35.489613, 115.0 ] } },
{ "type": "Feature", "properties": { "value": 23.485 }, "geometry": { "type": "Point", "coordinates": [ 129.328796, 35.489609, 115.0 ] } },
{ "type": "Feature", "properties": { "value": 6.4011 }, "geometry": { "type": "Point", "coordinates": [ 129.329895, 35.489605, 115.0 ] } },
{ "type": "Feature", "properties": { "value": 0.5272 }, "geometry": { "type": "Point", "coordinates": [ 129.330994, 35.489605, 115.0 ] } },
{ "type": "Feature", "properties": { "value": 0.1712 }, "geometry": { "type": "Point", "coordinates": [ 129.315567, 35.490547, 115.0 ] } },
{ "type": "Feature", "properties": { "value": 2.1784 }, "geometry": { "type": "Point", "coordinates": [ 129.316666, 35.490543, 115.0 ] } },
{ "type": "Feature", "properties": { "value": 1.263 }, "geometry": { "type": "Point", "coordinates": [ 129.31778, 35.49054, 115.0 ] } },
{ "type": "Feature", "properties": { "value": 0.0136 }, "geometry": { "type": "Point", "coordinates": [ 129.318878, 35.490536, 115.0 ] } },
{ "type": "Feature", "properties": { "value": 1.6201 }, "geometry": { "type": "Point", "coordinates": [ 129.324387, 35.490524, 115.0 ] } },
{ "type": "Feature", "properties": { "value": 8.5786 }, "geometry": { "type": "Point", "coordinates": [ 129.325485, 35.49052, 115.0 ] } },
{ "type": "Feature", "properties": { "value": 23.66 }, "geometry": { "type": "Point", "coordinates": [ 129.326584, 35.490517, 115.0 ] } },
{ "type": "Feature", "properties": { "value": 32.661 }, "geometry": { "type": "Point", "coordinates": [ 129.327698, 35.490513, 115.0 ] } },
{ "type": "Feature", "properties": { "value": 21.127 }, "geometry": { "type": "Point", "coordinates": [ 129.328796, 35.490509, 115.0 ] } },
{ "type": "Feature", "properties": { "value": 5.8439 }, "geometry": { "type": "Point", "coordinates": [ 129.329895, 35.490509, 115.0 ] } },
{ "type": "Feature", "properties": { "value": 0.4646 }, "geometry": { "type": "Point", "coordinates": [ 129.330994, 35.490505, 115.0 ] } },
{ "type": "Feature", "properties": { "value": 0.0242 }, "geometry": { "type": "Point", "coordinates": [ 129.314468, 35.491451, 115.0 ] } },
{ "type": "Feature", "properties": { "value": 0.7263 }, "geometry": { "type": "Point", "coordinates": [ 129.315567, 35.491447, 115.0 ] } },
{ "type": "Feature", "properties": { "value": 1.7503 }, "geometry": { "type": "Point", "coordinates": [ 129.316681, 35.491444, 115.0 ] } },
{ "type": "Feature", "properties": { "value": 0.3433 }, "geometry": { "type": "Point", "coordinates": [ 129.31778, 35.49144, 115.0 ] } },
{ "type": "Feature", "properties": { "value": 0.1952 }, "geometry": { "type": "Point", "coordinates": [ 129.323288, 35.491428, 115.0 ] } },
{ "type": "Feature", "properties": { "value": 2.6492 }, "geometry": { "type": "Point", "coordinates": [ 129.324387, 35.491425, 115.0 ] } },
{ "type": "Feature", "properties": { "value": 11.527 }, "geometry": { "type": "Point", "coordinates": [ 129.325485, 35.491421, 115.0 ] } },
{ "type": "Feature", "properties": { "value": 25.046 }, "geometry": { "type": "Point", "coordinates": [ 129.326599, 35.491417, 115.0 ] } },
{ "type": "Feature", "properties": { "value": 30.134 }, "geometry": { "type": "Point", "coordinates": [ 129.327698, 35.491413, 115.0 ] } },
{ "type": "Feature", "properties": { "value": 18.498 }, "geometry": { "type": "Point", "coordinates": [ 129.328796, 35.491413, 115.0 ] } },
{ "type": "Feature", "properties": { "value": 4.9685 }, "geometry": { "type": "Point", "coordinates": [ 129.329895, 35.491409, 115.0 ] } },
{ "type": "Feature", "properties": { "value": 0.3374 }, "geometry": { "type": "Point", "coordinates": [ 129.331009, 35.491405, 115.0 ] } },
{ "type": "Feature", "properties": { "value": 0.1128 }, "geometry": { "type": "Point", "coordinates": [ 129.314468, 35.492352, 115.0 ] } },
{ "type": "Feature", "properties": { "value": 0.9915 }, "geometry": { "type": "Point", "coordinates": [ 129.315582, 35.492348, 115.0 ] } },
{ "type": "Feature", "properties": { "value": 0.9155 }, "geometry": { "type": "Point", "coordinates": [ 129.316681, 35.492344, 115.0 ] } },
{ "type": "Feature", "properties": { "value": 0.059 }, "geometry": { "type": "Point", "coordinates": [ 129.31778, 35.492344, 115.0 ] } },
{ "type": "Feature", "properties": { "value": 0.6881 }, "geometry": { "type": "Point", "coordinates": [ 129.323288, 35.492329, 115.0 ] } },
{ "type": "Feature", "properties": { "value": 4.8932 }, "geometry": { "type": "Point", "coordinates": [ 129.324387, 35.492325, 115.0 ] } },
{ "type": "Feature", "properties": { "value": 17.625 }, "geometry": { "type": "Point", "coordinates": [ 129.3255, 35.492321, 115.0 ] } },
{ "type": "Feature", "properties": { "value": 29.874 }, "geometry": { "type": "Point", "coordinates": [ 129.326599, 35.492317, 115.0 ] } },
{ "type": "Feature", "properties": { "value": 28.142 }, "geometry": { "type": "Point", "coordinates": [ 129.327698, 35.492317, 115.0 ] } },
{ "type": "Feature", "properties": { "value": 14.887 }, "geometry": { "type": "Point", "coordinates": [ 129.328796, 35.492313, 115.0 ] } },
{ "type": "Feature", "properties": { "value": 3.6885 }, "geometry": { "type": "Point", "coordinates": [ 129.32991, 35.49231, 115.0 ] } },
{ "type": "Feature", "properties": { "value": 0.0658 }, "geometry": { "type": "Point", "coordinates": [ 129.31337, 35.493256, 115.0 ] } },
{ "type": "Feature", "properties": { "value": 0.4787 }, "geometry": { "type": "Point", "coordinates": [ 129.314484, 35.493252, 115.0 ] } },
{ "type": "Feature", "properties": { "value": 0.6968 }, "geometry": { "type": "Point", "coordinates": [ 129.315582, 35.493248, 115.0 ] } },
{ "type": "Feature", "properties": { "value": 0.1827 }, "geometry": { "type": "Point", "coordinates": [ 129.316681, 35.493248, 115.0 ] } },
{ "type": "Feature", "properties": { "value": 0.003 }, "geometry": { "type": "Point", "coordinates": [ 129.31778, 35.493244, 115.0 ] } },
{ "type": "Feature", "properties": { "value": 1.5353 }, "geometry": { "type": "Point", "coordinates": [ 129.323288, 35.493229, 115.0 ] } },
{ "type": "Feature", "properties": { "value": 7.8565 }, "geometry": { "type": "Point", "coordinates": [ 129.324402, 35.493225, 115.0 ] } },
{ "type": "Feature", "properties": { "value": 23.557 }, "geometry": { "type": "Point", "coordinates": [ 129.3255, 35.493225, 115.0 ] } },
{ "type": "Feature", "properties": { "value": 33.133 }, "geometry": { "type": "Point", "coordinates": [ 129.326599, 35.493221, 115.0 ] } },
{ "type": "Feature", "properties": { "value": 24.495 }, "geometry": { "type": "Point", "coordinates": [ 129.327698, 35.493217, 115.0 ] } },
{ "type": "Feature", "properties": { "value": 10.494 }, "geometry": { "type": "Point", "coordinates": [ 129.328812, 35.493214, 115.0 ] } },
{ "type": "Feature", "properties": { "value": 2.3123 }, "geometry": { "type": "Point", "coordinates": [ 129.32991, 35.49321, 115.0 ] } },
{ "type": "Feature", "properties": { "value": 0.069 }, "geometry": { "type": "Point", "coordinates": [ 129.312271, 35.49416, 115.0 ] } },
{ "type": "Feature", "properties": { "value": 0.7709 }, "geometry": { "type": "Point", "coordinates": [ 129.313385, 35.494156, 115.0 ] } },
{ "type": "Feature", "properties": { "value": 1.7365 }, "geometry": { "type": "Point", "coordinates": [ 129.314484, 35.494152, 115.0 ] } },
{ "type": "Feature", "properties": { "value": 0.773 }, "geometry": { "type": "Point", "coordinates": [ 129.315582, 35.494152, 115.0 ] } },
{ "type": "Feature", "properties": { "value": 0.0498 }, "geometry": { "type": "Point", "coordinates": [ 129.316681, 35.494148, 115.0 ] } },
{ "type": "Feature", "properties": { "value": 0.4121 }, "geometry": { "type": "Point", "coordinates": [ 129.322189, 35.494133, 115.0 ] } },
{ "type": "Feature", "properties": { "value": 3.0004 }, "geometry": { "type": "Point", "coordinates": [ 129.323303, 35.494129, 115.0 ] } },
{ "type": "Feature", "properties": { "value": 11.122 }, "geometry": { "type": "Point", "coordinates": [ 129.324402, 35.494129, 115.0 ] } },
{ "type": "Feature", "properties": { "value": 26.118 }, "geometry": { "type": "Point", "coordinates": [ 129.3255, 35.494125, 115.0 ] } },
{ "type": "Feature", "properties": { "value": 31.128 }, "geometry": { "type": "Point", "coordinates": [ 129.326599, 35.494122, 115.0 ] } },
{ "type": "Feature", "properties": { "value": 19.506 }, "geometry": { "type": "Point", "coordinates": [ 129.327713, 35.494118, 115.0 ] } },
{ "type": "Feature", "properties": { "value": 6.891 }, "geometry": { "type": "Point", "coordinates": [ 129.328812, 35.494114, 115.0 ] } },
{ "type": "Feature", "properties": { "value": 1.3117 }, "geometry": { "type": "Point", "coordinates": [ 129.32991, 35.494114, 115.0 ] } },
{ "type": "Feature", "properties": { "value": 0.0277 }, "geometry": { "type": "Point", "coordinates": [ 129.311172, 35.495064, 115.0 ] } },
{ "type": "Feature", "properties": { "value": 0.9269 }, "geometry": { "type": "Point", "coordinates": [ 129.312286, 35.49506, 115.0 ] } },
{ "type": "Feature", "properties": { "value": 3.5746 }, "geometry": { "type": "Point", "coordinates": [ 129.313385, 35.495056, 115.0 ] } },
{ "type": "Feature", "properties": { "value": 3.2208 }, "geometry": { "type": "Point", "coordinates": [ 129.314484, 35.495056, 115.0 ] } },
{ "type": "Feature", "properties": { "value": 0.5875 }, "geometry": { "type": "Point", "coordinates": [ 129.315582, 35.495052, 115.0 ] } },
{ "type": "Feature", "properties": { "value": 0.0126 }, "geometry": { "type": "Point", "coordinates": [ 129.316696, 35.495049, 115.0 ] } },
{ "type": "Feature", "properties": { "value": 1.1088 }, "geometry": { "type": "Point", "coordinates": [ 129.322205, 35.495033, 115.0 ] } },
{ "type": "Feature", "properties": { "value": 5.2694 }, "geometry": { "type": "Point", "coordinates": [ 129.323303, 35.495033, 115.0 ] } },
{ "type": "Feature", "properties": { "value": 15.682 }, "geometry": { "type": "Point", "coordinates": [ 129.324402, 35.495029, 115.0 ] } },
{ "type": "Feature", "properties": { "value": 28.368 }, "geometry": { "type": "Point", "coordinates": [ 129.3255, 35.495026, 115.0 ] } },
{ "type": "Feature", "properties": { "value": 28.394 }, "geometry": { "type": "Point", "coordinates": [ 129.326614, 35.495022, 115.0 ] } },
{ "type": "Feature", "properties": { "value": 15.48 }, "geometry": { "type": "Point", "coordinates": [ 129.327713, 35.495022, 115.0 ] } },
{ "type": "Feature", "properties": { "value": 4.6966 }, "geometry": { "type": "Point", "coordinates": [ 129.328812, 35.495018, 115.0 ] } },
{ "type": "Feature", "properties": { "value": 0.7164 }, "geometry": { "type": "Point", "coordinates": [ 129.32991, 35.495014, 115.0 ] } },
{ "type": "Feature", "properties": { "value": 0.8059 }, "geometry": { "type": "Point", "coordinates": [ 129.311188, 35.495964, 115.0 ] } },
{ "type": "Feature", "properties": { "value": 5.3531 }, "geometry": { "type": "Point", "coordinates": [ 129.312286, 35.495964, 115.0 ] } },
{ "type": "Feature", "properties": { "value": 9.2045 }, "geometry": { "type": "Point", "coordinates": [ 129.313385, 35.49596, 115.0 ] } },
{ "type": "Feature", "properties": { "value": 3.7537 }, "geometry": { "type": "Point", "coordinates": [ 129.314484, 35.495956, 115.0 ] } },
{ "type": "Feature", "properties": { "value": 0.2926 }, "geometry": { "type": "Point", "coordinates": [ 129.315598, 35.495953, 115.0 ] } },
{ "type": "Feature", "properties": { "value": 0.3397 }, "geometry": { "type": "Point", "coordinates": [ 129.321106, 35.495937, 115.0 ] } },
{ "type": "Feature", "properties": { "value": 2.3604 }, "geometry": { "type": "Point", "coordinates": [ 129.322205, 35.495937, 115.0 ] } },
{ "type": "Feature", "properties": { "value": 9.1903 }, "geometry": { "type": "Point", "coordinates": [ 129.323303, 35.495934, 115.0 ] } },
{ "type": "Feature", "properties": { "value": 21.53 }, "geometry": { "type": "Point", "coordinates": [ 129.324402, 35.49593, 115.0 ] } },
{ "type": "Feature", "properties": { "value": 30.91 }, "geometry": { "type": "Point", "coordinates": [ 129.325516, 35.495926, 115.0 ] } },
{ "type": "Feature", "properties": { "value": 26.359 }, "geometry": { "type": "Point", "coordinates": [ 129.326614, 35.495926, 115.0 ] } },
{ "type": "Feature", "properties": { "value": 12.349 }, "geometry": { "type": "Point", "coordinates": [ 129.327713, 35.495922, 115.0 ] } },
{ "type": "Feature", "properties": { "value": 3.2119 }, "geometry": { "type": "Point", "coordinates": [ 129.328812, 35.495918, 115.0 ] } },
{ "type": "Feature", "properties": { "value": 0.2936 }, "geometry": { "type": "Point", "coordinates": [ 129.329926, 35.495914, 115.0 ] } },
{ "type": "Feature", "properties": { "value": 0.2771 }, "geometry": { "type": "Point", "coordinates": [ 129.310089, 35.496868, 115.0 ] } },
{ "type": "Feature", "properties": { "value": 4.7275 }, "geometry": { "type": "Point", "coordinates": [ 129.311188, 35.496868, 115.0 ] } },
{ "type": "Feature", "properties": { "value": 16.576 }, "geometry": { "type": "Point", "coordinates": [ 129.312286, 35.496864, 115.0 ] } },
{ "type": "Feature", "properties": { "value": 15.074 }, "geometry": { "type": "Point", "coordinates": [ 129.313385, 35.496861, 115.0 ] } },
{ "type": "Feature", "properties": { "value": 3.2414 }, "geometry": { "type": "Point", "coordinates": [ 129.314499, 35.496857, 115.0 ] } },
{ "type": "Feature", "properties": { "value": 0.1237 }, "geometry": { "type": "Point", "coordinates": [ 129.315598, 35.496857, 115.0 ] } },
{ "type": "Feature", "properties": { "value": 1.0808 }, "geometry": { "type": "Point", "coordinates": [ 129.321106, 35.496841, 115.0 ] } },
{ "type": "Feature", "properties": { "value": 4.8482 }, "geometry": { "type": "Point", "coordinates": [ 129.322205, 35.496838, 115.0 ] } },
{ "type": "Feature", "properties": { "value": 14.794 }, "geometry": { "type": "Point", "coordinates": [ 129.323303, 35.496834, 115.0 ] } },
{ "type": "Feature", "properties": { "value": 25.162 }, "geometry": { "type": "Point", "coordinates": [ 129.324417, 35.49683, 115.0 ] } },
{ "type": "Feature", "properties": { "value": 28.905 }, "geometry": { "type": "Point", "coordinates": [ 129.325516, 35.49683, 115.0 ] } },
{ "type": "Feature", "properties": { "value": 22.142 }, "geometry": { "type": "Point", "coordinates": [ 129.326614, 35.496826, 115.0 ] } },
{ "type": "Feature", "properties": { "value": 9.4118 }, "geometry": { "type": "Point", "coordinates": [ 129.327713, 35.496822, 115.0 ] } },
{ "type": "Feature", "properties": { "value": 2.097 }, "geometry": { "type": "Point", "coordinates": [ 129.328827, 35.496819, 115.0 ] } },
{ "type": "Feature", "properties": { "value": 2.2326 }, "geometry": { "type": "Point", "coordinates": [ 129.310089, 35.497772, 115.0 ] } },
{ "type": "Feature", "properties": { "value": 15.62 }, "geometry": { "type": "Point", "coordinates": [ 129.311188, 35.497768, 115.0 ] } },
{ "type": "Feature", "properties": { "value": 30.185 }, "geometry": { "type": "Point", "coordinates": [ 129.312286, 35.497765, 115.0 ] } },
{ "type": "Feature", "properties": { "value": 15.82 }, "geometry": { "type": "Point", "coordinates": [ 129.3134, 35.497761, 115.0 ] } },
{ "type": "Feature", "properties": { "value": 1.971 }, "geometry": { "type": "Point", "coordinates": [ 129.314499, 35.497761, 115.0 ] } },
{ "type": "Feature", "properties": { "value": 0.5371 }, "geometry": { "type": "Point", "coordinates": [ 129.320007, 35.497746, 115.0 ] } },
{ "type": "Feature", "properties": { "value": 2.5775 }, "geometry": { "type": "Point", "coordinates": [ 129.321106, 35.497742, 115.0 ] } },
{ "type": "Feature", "properties": { "value": 9.4114 }, "geometry": { "type": "Point", "coordinates": [ 129.322205, 35.497738, 115.0 ] } },
{ "type": "Feature", "properties": { "value": 19.819 }, "geometry": { "type": "Point", "coordinates": [ 129.323318, 35.497734, 115.0 ] } },
{ "type": "Feature", "properties": { "value": 25.27 }, "geometry": { "type": "Point", "coordinates": [ 129.324417, 35.497734, 115.0 ] } },
{ "type": "Feature", "properties": { "value": 24.031 }, "geometry": { "type": "Point", "coordinates": [ 129.325516, 35.49773, 115.0 ] } },
{ "type": "Feature", "properties": { "value": 16.643 }, "geometry": { "type": "Point", "coordinates": [ 129.326614, 35.497726, 115.0 ] } },
{ "type": "Feature", "properties": { "value": 6.7544 }, "geometry": { "type": "Point", "coordinates": [ 129.327728, 35.497723, 115.0 ] } },
{ "type": "Feature", "properties": { "value": 1.3083 }, "geometry": { "type": "Point", "coordinates": [ 129.328827, 35.497723, 115.0 ] } },
{ "type": "Feature", "properties": { "value": 0.6258 }, "geometry": { "type": "Point", "coordinates": [ 129.30899, 35.498676, 115.0 ] } },
{ "type": "Feature", "properties": { "value": 7.8273 }, "geometry": { "type": "Point", "coordinates": [ 129.310089, 35.498672, 115.0 ] } },
{ "type": "Feature", "properties": { "value": 30.29 }, "geometry": { "type": "Point", "coordinates": [ 129.311188, 35.498669, 115.0 ] } },
{ "type": "Feature", "properties": { "value": 34.303 }, "geometry": { "type": "Point", "coordinates": [ 129.312302, 35.498665, 115.0 ] } },
{ "type": "Feature", "properties": { "value": 10.744 }, "geometry": { "type": "Point", "coordinates": [ 129.3134, 35.498665, 115.0 ] } },
{ "type": "Feature", "properties": { "value": 0.8137 }, "geometry": { "type": "Point", "coordinates": [ 129.314499, 35.498661, 115.0 ] } },
{ "type": "Feature", "properties": { "value": 0.2514 }, "geometry": { "type": "Point", "coordinates": [ 129.318909, 35.49865, 115.0 ] } },
{ "type": "Feature", "properties": { "value": 1.3777 }, "geometry": { "type": "Point", "coordinates": [ 129.320007, 35.498646, 115.0 ] } },
{ "type": "Feature", "properties": { "value": 5.7575 }, "geometry": { "type": "Point", "coordinates": [ 129.321106, 35.498642, 115.0 ] } },
{ "type": "Feature", "properties": { "value": 15.514 }, "geometry": { "type": "Point", "coordinates": [ 129.32222, 35.498638, 115.0 ] } },
{ "type": "Feature", "properties": { "value": 23.638 }, "geometry": { "type": "Point", "coordinates": [ 129.323318, 35.498638, 115.0 ] } },
{ "type": "Feature", "properties": { "value": 25.326 }, "geometry": { "type": "Point", "coordinates": [ 129.324417, 35.498634, 115.0 ] } },
{ "type": "Feature", "properties": { "value": 20.716 }, "geometry": { "type": "Point", "coordinates": [ 129.325516, 35.498631, 115.0 ] } },
{ "type": "Feature", "properties": { "value": 12.331 }, "geometry": { "type": "Point", "coordinates": [ 129.32663, 35.498627, 115.0 ] } },
{ "type": "Feature", "properties": { "value": 4.5261 }, "geometry": { "type": "Point", "coordinates": [ 129.327728, 35.498627, 115.0 ] } },
{ "type": "Feature", "properties": { "value": 0.7696 }, "geometry": { "type": "Point", "coordinates": [ 129.328827, 35.498623, 115.0 ] } },
{ "type": "Feature", "properties": { "value": 0.4402 }, "geometry": { "type": "Point", "coordinates": [ 129.307892, 35.49958, 115.0 ] } },
{ "type": "Feature", "properties": { "value": 4.3302 }, "geometry": { "type": "Point", "coordinates": [ 129.30899, 35.499577, 115.0 ] } },
{ "type": "Feature", "properties": { "value": 18.739 }, "geometry": { "type": "Point", "coordinates": [ 129.310089, 35.499573, 115.0 ] } },
{ "type": "Feature", "properties": { "value": 35.188 }, "geometry": { "type": "Point", "coordinates": [ 129.311203, 35.499569, 115.0 ] } },
{ "type": "Feature", "properties": { "value": 23.351 }, "geometry": { "type": "Point", "coordinates": [ 129.312302, 35.499569, 115.0 ] } },
{ "type": "Feature", "properties": { "value": 4.5569 }, "geometry": { "type": "Point", "coordinates": [ 129.3134, 35.499565, 115.0 ] } },
{ "type": "Feature", "properties": { "value": 0.1386 }, "geometry": { "type": "Point", "coordinates": [ 129.314499, 35.499561, 115.0 ] } },
{ "type": "Feature", "properties": { "value": 0.7896 }, "geometry": { "type": "Point", "coordinates": [ 129.318909, 35.49955, 115.0 ] } },
{ "type": "Feature", "properties": { "value": 3.0041 }, "geometry": { "type": "Point", "coordinates": [ 129.320007, 35.499546, 115.0 ] } },
{ "type": "Feature", "properties": { "value": 10.369 }, "geometry": { "type": "Point", "coordinates": [ 129.321121, 35.499546, 115.0 ] } },
{ "type": "Feature", "properties": { "value": 20.836 }, "geometry": { "type": "Point", "coordinates": [ 129.32222, 35.499542, 115.0 ] } },
{ "type": "Feature", "properties": { "value": 25.703 }, "geometry": { "type": "Point", "coordinates": [ 129.323318, 35.499538, 115.0 ] } },
{ "type": "Feature", "properties": { "value": 24.639 }, "geometry": { "type": "Point", "coordinates": [ 129.324417, 35.499535, 115.0 ] } },
{ "type": "Feature", "properties": { "value": 17.725 }, "geometry": { "type": "Point", "coordinates": [ 129.325531, 35.499531, 115.0 ] } },
{ "type": "Feature", "properties": { "value": 8.8145 }, "geometry": { "type": "Point", "coordinates": [ 129.32663, 35.499531, 115.0 ] } },
{ "type": "Feature", "properties": { "value": 2.7819 }, "geometry": { "type": "Point", "coordinates": [ 129.327728, 35.499527, 115.0 ] } },
{ "type": "Feature", "properties": { "value": 0.3372 }, "geometry": { "type": "Point", "coordinates": [ 129.328827, 35.499523, 115.0 ] } },
{ "type": "Feature", "properties": { "value": 0.0906 }, "geometry": { "type": "Point", "coordinates": [ 129.306793, 35.500484, 115.0 ] } },
{ "type": "Feature", "properties": { "value": 2.9329 }, "geometry": { "type": "Point", "coordinates": [ 129.307892, 35.500481, 115.0 ] } },
{ "type": "Feature", "properties": { "value": 16.953 }, "geometry": { "type": "Point", "coordinates": [ 129.30899, 35.500477, 115.0 ] } },
{ "type": "Feature", "properties": { "value": 37.043 }, "geometry": { "type": "Point", "coordinates": [ 129.310104, 35.500473, 115.0 ] } },
{ "type": "Feature", "properties": { "value": 31.887 }, "geometry": { "type": "Point", "coordinates": [ 129.311203, 35.500473, 115.0 ] } },
{ "type": "Feature", "properties": { "value": 10.412 }, "geometry": { "type": "Point", "coordinates": [ 129.312302, 35.500469, 115.0 ] } },
{ "type": "Feature", "properties": { "value": 1.1703 }, "geometry": { "type": "Point", "coordinates": [ 129.3134, 35.500465, 115.0 ] } },
{ "type": "Feature", "properties": { "value": 0.1921 }, "geometry": { "type": "Point", "coordinates": [ 129.31781, 35.500454, 115.0 ] } },
{ "type": "Feature", "properties": { "value": 1.3774 }, "geometry": { "type": "Point", "coordinates": [ 129.318909, 35.50045, 115.0 ] } },
{ "type": "Feature", "properties": { "value": 5.0702 }, "geometry": { "type": "Point", "coordinates": [ 129.320023, 35.50045, 115.0 ] } },
{ "type": "Feature", "properties": { "value": 13.961 }, "geometry": { "type": "Point", "coordinates": [ 129.321121, 35.500446, 115.0 ] } },
{ "type": "Feature", "properties": { "value": 22.182 }, "geometry": { "type": "Point", "coordinates": [ 129.32222, 35.500443, 115.0 ] } },
{ "type": "Feature", "properties": { "value": 23.92 }, "geometry": { "type": "Point", "coordinates": [ 129.323318, 35.500439, 115.0 ] } },
{ "type": "Feature", "properties": { "value": 20.94 }, "geometry": { "type": "Point", "coordinates": [ 129.324432, 35.500435, 115.0 ] } },
{ "type": "Feature", "properties": { "value": 13.661 }, "geometry": { "type": "Point", "coordinates": [ 129.325531, 35.500435, 115.0 ] } },
{ "type": "Feature", "properties": { "value": 5.8728 }, "geometry": { "type": "Point", "coordinates": [ 129.32663, 35.500431, 115.0 ] } },
{ "type": "Feature", "properties": { "value": 1.5623 }, "geometry": { "type": "Point", "coordinates": [ 129.327728, 35.500427, 115.0 ] } },
{ "type": "Feature", "properties": { "value": 0.4494 }, "geometry": { "type": "Point", "coordinates": [ 129.306793, 35.501385, 115.0 ] } },
{ "type": "Feature", "properties": { "value": 6.1517 }, "geometry": { "type": "Point", "coordinates": [ 129.307892, 35.501381, 115.0 ] } },
{ "type": "Feature", "properties": { "value": 26.775 }, "geometry": { "type": "Point", "coordinates": [ 129.309006, 35.501377, 115.0 ] } },
{ "type": "Feature", "properties": { "value": 40.524 }, "geometry": { "type": "Point", "coordinates": [ 129.310104, 35.501377, 115.0 ] } },
{ "type": "Feature", "properties": { "value": 21.199 }, "geometry": { "type": "Point", "coordinates": [ 129.311203, 35.501373, 115.0 ] } },
{ "type": "Feature", "properties": { "value": 3.7342 }, "geometry": { "type": "Point", "coordinates": [ 129.312302, 35.501369, 115.0 ] } },
{ "type": "Feature", "properties": { "value": 0.103 }, "geometry": { "type": "Point", "coordinates": [ 129.3134, 35.501366, 115.0 ] } },
{ "type": "Feature", "properties": { "value": 0.2783 }, "geometry": { "type": "Point", "coordinates": [ 129.31781, 35.501354, 115.0 ] } },
{ "type": "Feature", "properties": { "value": 1.57 }, "geometry": { "type": "Point", "coordinates": [ 129.318924, 35.501354, 115.0 ] } },
{ "type": "Feature", "properties": { "value": 5.8704 }, "geometry": { "type": "Point", "coordinates": [ 129.320023, 35.50135, 115.0 ] } },
{ "type": "Feature", "properties": { "value": 13.388 }, "geometry": { "type": "Point", "coordinates": [ 129.321121, 35.501347, 115.0 ] } },
{ "type": "Feature", "properties": { "value": 18.426 }, "geometry": { "type": "Point", "coordinates": [ 129.32222, 35.501343, 115.0 ] } },
{ "type": "Feature", "properties": { "value": 18.85 }, "geometry": { "type": "Point", "coordinates": [ 129.323334, 35.501339, 115.0 ] } },
{ "type": "Feature", "properties": { "value": 15.371 }, "geometry": { "type": "Point", "coordinates": [ 129.324432, 35.501339, 115.0 ] } },
{ "type": "Feature", "properties": { "value": 9.1325 }, "geometry": { "type": "Point", "coordinates": [ 129.325531, 35.501335, 115.0 ] } },
{ "type": "Feature", "properties": { "value": 3.5124 }, "geometry": { "type": "Point", "coordinates": [ 129.32663, 35.501331, 115.0 ] } },
{ "type": "Feature", "properties": { "value": 0.7764 }, "geometry": { "type": "Point", "coordinates": [ 129.327728, 35.501328, 115.0 ] } }
]
}
