{
"type": "FeatureCollection",
"features": [
{ "type": "Feature", "properties": { "value": 0.0 }, "geometry": { "type": "Point", "coordinates": [ 129.295547, 35.43832, 115.0 ] } },
{ "type": "Feature", "properties": { "value": 0.0 }, "geometry": { "type": "Point", "coordinates": [ 129.296646, 35.43832, 115.0 ] } },
{ "type": "Feature", "properties": { "value": 0.0009 }, "geometry": { "type": "Point", "coordinates": [ 129.293335, 35.439228, 115.0 ] } },
{ "type": "Feature", "properties": { "value": 0.0072 }, "geometry": { "type": "Point", "coordinates": [ 129.294449, 35.439224, 115.0 ] } },
{ "type": "Feature", "properties": { "value": 0.0076 }, "geometry": { "type": "Point", "coordinates": [ 129.295547, 35.439224, 115.0 ] } },
{ "type": "Feature", "properties": { "value": 0.0009 }, "geometry": { "type": "Point", "coordinates": [ 129.296646, 35.43922, 115.0 ] } },
{ "type": "Feature", "properties": { "value": 0.0025 }, "geometry": { "type": "Point", "coordinates": [ 129.292252, 35.440132, 115.0 ] } },
{ "type": "Feature", "properties": { "value": 0.0278 }, "geometry": { "type": "Point", "coordinates": [ 129.29335, 35.440128, 115.0 ] } },
{ "type": "Feature", "properties": { "value": 0.1259 }, "geometry": { "type": "Point", "coordinates": [ 129.294449, 35.440128, 115.0 ] } },
{ "type": "Feature", "properties": { "value": 0.1223 }, "geometry": { "type": "Point", "coordinates": [ 129.295547, 35.440125, 115.0 ] } },
{ "type": "Feature", "properties": { "value": 0.0178 }, "geometry": { "type": "Point", "coordinates": [ 129.296646, 35.440121, 115.0 ] } },
{ "type": "Feature", "properties": { "value": 0.0 }, "geometry": { "type": "Point", "coordinates": [ 129.297745, 35.440117, 115.0 ] } },
{ "type": "Feature", "properties": { "value": 0.0136 }, "geometry": { "type": "Point", "coordinates": [ 129.292252, 35.441032, 115.0 ] } },
{ "type": "Feature", "properties": { "value": 0.2613 }, "geometry": { "type": "Point", "coordinates": [ 129.29335, 35.441029, 115.0 ] } },
{ "type": "Feature", "properties": { "value": 0.999 }, "geometry": { "type": "Point", "coordinates": [ 129.294449, 35.441029, 115.0 ] } },
{ "type": "Feature", "properties": { "value": 0.4639 }, "geometry": { "type": "Point", "coordinates": [ 129.295547, 35.441025, 115.0 ] } },
{ "type": "Feature", "properties": { "value": 0.043 }, "geometry": { "type": "Point", "coordinates": [ 129.296646, 35.441021, 115.0 ] } },
{ "type": "Feature", "properties": { "value": 0.0007 }, "geometry": { "type": "Point", "coordinates": [ 129.29776, 35.441021, 115.0 ] } },
{ "type": "Feature", "properties": { "value": 0.0074 }, "geometry": { "type": "Point", "coordinates": [ 129.292252, 35.441933, 115.0 ] } },
{ "type": "Feature", "properties": { "value": 0.1349 }, "geometry": { "type": "Point", "coordinates": [ 129.29335, 35.441933, 115.0 ] } },
{ "type": "Feature", "properties": { "value": 0.5303 }, "geometry": { "type": "Point", "coordinates": [ 129.294449, 35.441929, 115.0 ] } },
{ "type": "Feature", "properties": { "value": 0.5016 }, "geometry": { "type": "Point", "coordinates": [ 129.295547, 35.441925, 115.0 ] } },
{ "type": "Feature", "properties": { "value": 0.1075 }, "geometry": { "type": "Point", "coordinates": [ 129.296661, 35.441925, 115.0 ] } },
{ "type": "Feature", "properties": { "value": 0.0164 }, "geometry": { "type": "Point", "coordinates": [ 129.29335, 35.442833, 115.0 ] } },
{ "type": "Feature", "properties": { "value": 0.0662 }, "geometry": { "type": "Point", "coordinates": [ 129.294464, 35.442829, 115.0 ] } },
{ "type": "Feature", "properties": { "value": 0.06 }, "geometry": { "type": "Point", "coordinates": [ 129.295563, 35.442829, 115.0 ] } },
{ "type": "Feature", "properties": { "value": 0.0118 }, "geometry": { "type": "Point", "coordinates": [ 129.296661, 35.442825, 115.0 ] } },
{ "type": "Feature", "properties": { "value": 0.0018 }, "geometry": { "type": "Point", "coordinates": [ 129.294464, 35.443733, 115.0 ] } },
{ "type": "Feature", "properties": { "value": 0.0144 }, "geometry": { "type": "Point", "coordinates": [ 129.326462, 35.458069, 115.0 ] } },
{ "type": "Feature", "properties": { "value": 0.008 }, "geometry": { "type": "Point", "coordinates": [ 129.32756, 35.458069, 115.0 ] } },
{ "type": "Feature", "properties": { "value": 0.0679 }, "geometry": { "type": "Point", "coordinates": [ 129.325363, 35.458973, 115.0 ] } },
{ "type": "Feature", "properties": { "value": 1.0905 }, "geometry": { "type": "Point", "coordinates": [ 129.326462, 35.458973, 115.0 ] } },
{ "type": "Feature", "properties": { "value": 0.652 }, "geometry": { "type": "Point", "coordinates": [ 129.32756, 35.458969, 115.0 ] } },
{ "type": "Feature", "properties": { "value": 1.0965 }, "geometry": { "type": "Point", "coordinates": [ 129.325363, 35.459877, 115.0 ] } },
{ "type": "Feature", "properties": { "value": 7.3623 }, "geometry": { "type": "Point", "coordinates": [ 129.326462, 35.459873, 115.0 ] } },
{ "type": "Feature", "properties": { "value": 4.5322 }, "geometry": { "type": "Point", "coordinates": [ 129.32756, 35.459869, 115.0 ] } },
{ "type": "Feature", "properties": { "value": 0.3317 }, "geometry": { "type": "Point", "coordinates": [ 129.328674, 35.459866, 115.0 ] } },
{ "type": "Feature", "properties": { "value": 0.1766 }, "geometry": { "type": "Point", "coordinates": [ 129.324265, 35.460781, 115.0 ] } },
{ "type": "Feature", "properties": { "value": 3.7254 }, "geometry": { "type": "Point", "coordinates": [ 129.325363, 35.460777, 115.0 ] } },
{ "type": "Feature", "properties": { "value": 15.902 }, "geometry": { "type": "Point", "coordinates": [ 129.326477, 35.460773, 115.0 ] } },
{ "type": "Feature", "properties": { "value": 9.9572 }, "geometry": { "type": "Point", "coordinates": [ 129.327576, 35.46077, 115.0 ] } },
{ "type": "Feature", "properties": { "value": 1.3515 }, "geometry": { "type": "Point", "coordinates": [ 129.328674, 35.46077, 115.0 ] } },
{ "type": "Feature", "properties": { "value": 0.2939 }, "geometry": { "type": "Point", "coordinates": [ 129.324265, 35.461681, 115.0 ] } },
{ "type": "Feature", "properties": { "value": 3.4227 }, "geometry": { "type": "Point", "coordinates": [ 129.325378, 35.461678, 115.0 ] } },
{ "type": "Feature", "properties": { "value": 10.982 }, "geometry": { "type": "Point", "coordinates": [ 129.326477, 35.461674, 115.0 ] } },
{ "type": "Feature", "properties": { "value": 7.1495 }, "geometry": { "type": "Point", "coordinates": [ 129.327576, 35.461674, 115.0 ] } },
{ "type": "Feature", "properties": { "value": 1.4747 }, "geometry": { "type": "Point", "coordinates": [ 129.328674, 35.46167, 115.0 ] } },
{ "type": "Feature", "properties": { "value": 0.0917 }, "geometry": { "type": "Point", "coordinates": [ 129.32428, 35.462582, 115.0 ] } },
{ "type": "Feature", "properties": { "value": 1.1274 }, "geometry": { "type": "Point", "coordinates": [ 129.325378, 35.462578, 115.0 ] } },
{ "type": "Feature", "properties": { "value": 3.1787 }, "geometry": { "type": "Point", "coordinates": [ 129.326477, 35.462578, 115.0 ] } },
{ "type": "Feature", "properties": { "value": 2.1199 }, "geometry": { "type": "Point", "coordinates": [ 129.327576, 35.462574, 115.0 ] } },
{ "type": "Feature", "properties": { "value": 0.5072 }, "geometry": { "type": "Point", "coordinates": [ 129.328674, 35.46257, 115.0 ] } },
{ "type": "Feature", "properties": { "value": 0.1325 }, "geometry": { "type": "Point", "coordinates": [ 129.325378, 35.463482, 115.0 ] } },
{ "type": "Feature", "properties": { "value": 0.3943 }, "geometry": { "type": "Point", "coordinates": [ 129.326477, 35.463478, 115.0 ] } },
{ "type": "Feature", "properties": { "value": 0.2788 }, "geometry": { "type": "Point", "coordinates": [ 129.327576, 35.463474, 115.0 ] } },
{ "type": "Feature", "properties": { "value": 0.0591 }, "geometry": { "type": "Point", "coordinates": [ 129.32869, 35.46347, 115.0 ] } },
{ "type": "Feature", "properties": { "value": 0.0195 }, "geometry": { "type": "Point", "coordinates": [ 129.326477, 35.464378, 115.0 ] } },
{ "type": "Feature", "properties": { "value": 0.0005 }, "geometry": { "type": "Point", "coordinates": [ 129.318848, 35.481525, 115.0 ] } },
{ "type": "Feature", "properties": { "value": 0.0007 }, "geometry": { "type": "Point", "coordinates": [ 129.319946, 35.481522, 115.0 ] } },
{ "type": "Feature", "properties": { "value": 0.0001 }, "geometry": { "type": "Point", "coordinates": [ 129.321045, 35.481518, 115.0 ] } },
{ "type": "Feature", "properties": { "value": 0.0 }, "geometry": { "type": "Point", "coordinates": [ 129.322144, 35.481514, 115.0 ] } },
{ "type": "Feature", "properties": { "value": 0.0146 }, "geometry": { "type": "Point", "coordinates": [ 129.317749, 35.48243, 115.0 ] } },
{ "type": "Feature", "properties": { "value": 0.0708 }, "geometry": { "type": "Point", "coordinates": [ 129.318848, 35.482426, 115.0 ] } },
{ "type": "Feature", "properties": { "value": 0.07 }, "geometry": { "type": "Point", "coordinates": [ 129.319946, 35.482422, 115.0 ] } },
{ "type": "Feature", "properties": { "value": 0.0119 }, "geometry": { "type": "Point", "coordinates": [ 129.321045, 35.482418, 115.0 ] } },
{ "type": "Feature", "properties": { "value": 0.0001 }, "geometry": { "type": "Point", "coordinates": [ 129.322144, 35.482418, 115.0 ] } },
{ "type": "Feature", "properties": { "value": 0.0235 }, "geometry": { "type": "Point", "coordinates": [ 129.31665, 35.483334, 115.0 ] } },
{ "type": "Feature", "properties": { "value": 0.2708 }, "geometry": { "type": "Point", "coordinates": [ 129.317749, 35.48333, 115.0 ] } },
{ "type": "Feature", "properties": { "value": 0.7861 }, "geometry": { "type": "Point", "coordinates": [ 129.318848, 35.483326, 115.0 ] } },
{ "type": "Feature", "properties": { "value": 0.5948 }, "geometry": { "type": "Point", "coordinates": [ 129.319946, 35.483322, 115.0 ] } },
{ "type": "Feature", "properties": { "value": 0.1154 }, "geometry": { "type": "Point", "coordinates": [ 129.321045, 35.483322, 115.0 ] } },
{ "type": "Feature", "properties": { "value": 0.0022 }, "geometry": { "type": "Point", "coordinates": [ 129.322159, 35.483318, 115.0 ] } },
{ "type": "Feature", "properties": { "value": 0.0034 }, "geometry": { "type": "Point", "coordinates": [ 129.315552, 35.484238, 115.0 ] } },
{ "type": "Feature", "properties": { "value": 0.1383 }, "geometry": { "type": "Point", "coordinates": [ 129.31665, 35.484234, 115.0 ] } },
{ "type": "Feature", "properties": { "value": 1.0974 }, "geometry": { "type": "Point", "coordinates": [ 129.317749, 35.48423, 115.0 ] } },
{ "type": "Feature", "properties": { "value": 2.0877 }, "geometry": { "type": "Point", "coordinates": [ 129.318848, 35.48423, 115.0 ] } },
{ "type": "Feature", "properties": { "value": 1.4105 }, "geometry": { "type": "Point", "coordinates": [ 129.319946, 35.484226, 115.0 ] } },
{ "type": "Feature", "properties": { "value": 0.2503 }, "geometry": { "type": "Point", "coordinates": [ 129.32106, 35.484222, 115.0 ] } },
{ "type": "Feature", "properties": { "value": 0.0054 }, "geometry": { "type": "Point", "coordinates": [ 129.322159, 35.484219, 115.0 ] } },
{ "type": "Feature", "properties": { "value": 0.0038 }, "geometry": { "type": "Point", "coordinates": [ 129.315552, 35.485138, 115.0 ] } },
{ "type": "Feature", "properties": { "value": 0.1311 }, "geometry": { "type": "Point", "coordinates": [ 129.31665, 35.485134, 115.0 ] } },
{ "type": "Feature", "properties": { "value": 0.9532 }, "geometry": { "type": "Point", "coordinates": [ 129.317749, 35.485134, 115.0 ] } },
{ "type": "Feature", "properties": { "value": 1.9822 }, "geometry": { "type": "Point", "coordinates": [ 129.318848, 35.48513, 115.0 ] } },
{ "type": "Feature", "properties": { "value": 1.2943 }, "geometry": { "type": "Point", "coordinates": [ 129.319962, 35.485126, 115.0 ] } },
{ "type": "Feature", "properties": { "value": 0.1718 }, "geometry": { "type": "Point", "coordinates": [ 129.32106, 35.485123, 115.0 ] } },
{ "type": "Feature", "properties": { "value": 0.0031 }, "geometry": { "type": "Point", "coordinates": [ 129.322159, 35.485119, 115.0 ] } },
{ "type": "Feature", "properties": { "value": 0.001 }, "geometry": { "type": "Point", "coordinates": [ 129.315552, 35.486038, 115.0 ] } },
{ "type": "Feature", "properties": { "value": 0.0355 }, "geometry": { "type": "Point", "coordinates": [ 129.31665, 35.486038, 115.0 ] } },
{ "type": "Feature", "properties": { "value": 0.2696 }, "geometry": { "type": "Point", "coordinates": [ 129.317749, 35.486034, 115.0 ] } },
{ "type": "Feature", "properties": { "value": 0.5582 }, "geometry": { "type": "Point", "coordinates": [ 129.318863, 35.486031, 115.0 ] } },
{ "type": "Feature", "properties": { "value": 0.35 }, "geometry": { "type": "Point", "coordinates": [ 129.319962, 35.486027, 115.0 ] } },
{ "type": "Feature", "properties": { "value": 0.0557 }, "geometry": { "type": "Point", "coordinates": [ 129.32106, 35.486027, 115.0 ] } },
{ "type": "Feature", "properties": { "value": 0.0024 }, "geometry": { "type": "Point", "coordinates": [ 129.31665, 35.486938, 115.0 ] } },
{ "type": "Feature", "properties": { "value": 0.0206 }, "geometry": { "type": "Point", "coordinates": [ 129.317764, 35.486935, 115.0 ] } },
{ "type": "Feature", "properties": { "value": 0.0433 }, "geometry": { "type": "Point", "coordinates": [ 129.318863, 35.486931, 115.0 ] } },
{ "type": "Feature", "properties": { "value": 0.0241 }, "geometry": { "type": "Point", "coordinates": [ 129.319962, 35.486931, 115.0 ] } },
{ "type": "Feature", "properties": { "value": 0.0029 }, "geometry": { "type": "Point", "coordinates": [ 129.32106, 35.486927, 115.0 ] } }
]
}
