{
"type": "FeatureCollection",
"features": [
{ "type": "Feature", "properties": { "value": 0.0025 }, "geometry": { "type": "Point", "coordinates": [ 129.32756, 35.458969, 60.0 ] } },
{ "type": "Feature", "properties": { "value": 2.8048 }, "geometry": { "type": "Point", "coordinates": [ 129.32756, 35.459869, 60.0 ] } },
{ "type": "Feature", "properties": { "value": 71.272 }, "geometry": { "type": "Point", "coordinates": [ 129.327576, 35.46077, 60.0 ] } },
{ "type": "Feature", "properties": { "value": 127.85 }, "geometry": { "type": "Point", "coordinates": [ 129.327576, 35.461674, 60.0 ] } },
{ "type": "Feature", "properties": { "value": 111.66 }, "geometry": { "type": "Point", "coordinates": [ 129.327576, 35.462574, 60.0 ] } },
{ "type": "Feature", "properties": { "value": 88.116 }, "geometry": { "type": "Point", "coordinates": [ 129.327576, 35.463474, 60.0 ] } },
{ "type": "Feature", "properties": { "value": 2.5846 }, "geometry": { "type": "Point", "coordinates": [ 129.32869, 35.46347, 60.0 ] } },
{ "type": "Feature", "properties": { "value": 74.904 }, "geometry": { "type": "Point", "coordinates": [ 129.327591, 35.464375, 60.0 ] } },
{ "type": "Feature", "properties": { "value": 7.8016 }, "geometry": { "type": "Point", "coordinates": [ 129.32869, 35.464375, 60.0 ] } },
{ "type": "Feature", "properties": { "value": 73.055 }, "geometry": { "type": "Point", "coordinates": [ 129.327591, 35.465279, 60.0 ] } },
{ "type": "Feature", "properties": { "value": 19.422 }, "geometry": { "type": "Point", "coordinates": [ 129.32869, 35.465275, 60.0 ] } },
{ "type": "Feature", "properties": { "value": 68.966 }, "geometry": { "type": "Point", "coordinates": [ 129.327591, 35.466179, 60.0 ] } },
{ "type": "Feature", "properties": { "value": 35.374 }, "geometry": { "type": "Point", "coordinates": [ 129.32869, 35.466175, 60.0 ] } },
{ "type": "Feature", "properties": { "value": 65.172 }, "geometry": { "type": "Point", "coordinates": [ 129.327591, 35.467079, 60.0 ] } },
{ "type": "Feature", "properties": { "value": 48.402 }, "geometry": { "type": "Point", "coordinates": [ 129.328705, 35.467075, 60.0 ] } },
{ "type": "Feature", "properties": { "value": 60.927 }, "geometry": { "type": "Point", "coordinates": [ 129.327606, 35.467983, 60.0 ] } },
{ "type": "Feature", "properties": { "value": 56.058 }, "geometry": { "type": "Point", "coordinates": [ 129.328705, 35.467979, 60.0 ] } },
{ "type": "Feature", "properties": { "value": 57.773 }, "geometry": { "type": "Point", "coordinates": [ 129.327606, 35.468884, 60.0 ] } },
{ "type": "Feature", "properties": { "value": 59.834 }, "geometry": { "type": "Point", "coordinates": [ 129.328705, 35.46888, 60.0 ] } },
{ "type": "Feature", "properties": { "value": 55.155 }, "geometry": { "type": "Point", "coordinates": [ 129.327606, 35.469784, 60.0 ] } },
{ "type": "Feature", "properties": { "value": 60.595 }, "geometry": { "type": "Point", "coordinates": [ 129.328705, 35.46978, 60.0 ] } },
{ "type": "Feature", "properties": { "value": 0.9859 }, "geometry": { "type": "Point", "coordinates": [ 129.329819, 35.469776, 60.0 ] } },
{ "type": "Feature", "properties": { "value": 0.9845 }, "geometry": { "type": "Point", "coordinates": [ 129.326508, 35.470688, 60.0 ] } },
{ "type": "Feature", "properties": { "value": 52.099 }, "geometry": { "type": "Point", "coordinates": [ 129.327606, 35.470684, 60.0 ] } },
{ "type": "Feature", "properties": { "value": 58.368 }, "geometry": { "type": "Point", "coordinates": [ 129.32872, 35.470684, 60.0 ] } },
{ "type": "Feature", "properties": { "value": 1.5446 }, "geometry": { "type": "Point", "coordinates": [ 129.329819, 35.47068, 60.0 ] } },
{ "type": "Feature", "properties": { "value": 1.4135 }, "geometry": { "type": "Point", "coordinates": [ 129.326508, 35.471588, 60.0 ] } },
{ "type": "Feature", "properties": { "value": 45.776 }, "geometry": { "type": "Point", "coordinates": [ 129.327621, 35.471588, 60.0 ] } },
{ "type": "Feature", "properties": { "value": 46.976 }, "geometry": { "type": "Point", "coordinates": [ 129.32872, 35.471584, 60.0 ] } },
{ "type": "Feature", "properties": { "value": 1.6081 }, "geometry": { "type": "Point", "coordinates": [ 129.329819, 35.471581, 60.0 ] } },
{ "type": "Feature", "properties": { "value": 1.6627 }, "geometry": { "type": "Point", "coordinates": [ 129.326523, 35.472492, 60.0 ] } },
{ "type": "Feature", "properties": { "value": 35.827 }, "geometry": { "type": "Point", "coordinates": [ 129.327621, 35.472488, 60.0 ] } },
{ "type": "Feature", "properties": { "value": 32.064 }, "geometry": { "type": "Point", "coordinates": [ 129.32872, 35.472485, 60.0 ] } },
{ "type": "Feature", "properties": { "value": 1.62 }, "geometry": { "type": "Point", "coordinates": [ 129.329819, 35.472481, 60.0 ] } },
{ "type": "Feature", "properties": { "value": 1.8135 }, "geometry": { "type": "Point", "coordinates": [ 129.326523, 35.473392, 60.0 ] } },
{ "type": "Feature", "properties": { "value": 28.448 }, "geometry": { "type": "Point", "coordinates": [ 129.327621, 35.473389, 60.0 ] } },
{ "type": "Feature", "properties": { "value": 26.717 }, "geometry": { "type": "Point", "coordinates": [ 129.32872, 35.473385, 60.0 ] } },
{ "type": "Feature", "properties": { "value": 2.2937 }, "geometry": { "type": "Point", "coordinates": [ 129.329819, 35.473385, 60.0 ] } },
{ "type": "Feature", "properties": { "value": 2.055 }, "geometry": { "type": "Point", "coordinates": [ 129.326523, 35.474293, 60.0 ] } },
{ "type": "Feature", "properties": { "value": 24.363 }, "geometry": { "type": "Point", "coordinates": [ 129.327621, 35.474289, 60.0 ] } },
{ "type": "Feature", "properties": { "value": 27.411 }, "geometry": { "type": "Point", "coordinates": [ 129.328735, 35.474289, 60.0 ] } },
{ "type": "Feature", "properties": { "value": 3.6872 }, "geometry": { "type": "Point", "coordinates": [ 129.329834, 35.474285, 60.0 ] } },
{ "type": "Feature", "properties": { "value": 2.3395 }, "geometry": { "type": "Point", "coordinates": [ 129.326523, 35.475193, 60.0 ] } },
{ "type": "Feature", "properties": { "value": 24.059 }, "geometry": { "type": "Point", "coordinates": [ 129.327637, 35.475193, 60.0 ] } },
{ "type": "Feature", "properties": { "value": 30.706 }, "geometry": { "type": "Point", "coordinates": [ 129.328735, 35.475189, 60.0 ] } },
{ "type": "Feature", "properties": { "value": 5.3931 }, "geometry": { "type": "Point", "coordinates": [ 129.329834, 35.475185, 60.0 ] } },
{ "type": "Feature", "properties": { "value": 3.1061 }, "geometry": { "type": "Point", "coordinates": [ 129.326538, 35.476097, 60.0 ] } },
{ "type": "Feature", "properties": { "value": 29.349 }, "geometry": { "type": "Point", "coordinates": [ 129.327637, 35.476093, 60.0 ] } },
{ "type": "Feature", "properties": { "value": 36.692 }, "geometry": { "type": "Point", "coordinates": [ 129.328735, 35.476089, 60.0 ] } },
{ "type": "Feature", "properties": { "value": 6.715 }, "geometry": { "type": "Point", "coordinates": [ 129.329834, 35.476086, 60.0 ] } },
{ "type": "Feature", "properties": { "value": 4.8362 }, "geometry": { "type": "Point", "coordinates": [ 129.326538, 35.476997, 60.0 ] } },
{ "type": "Feature", "properties": { "value": 38.179 }, "geometry": { "type": "Point", "coordinates": [ 129.327637, 35.476994, 60.0 ] } },
{ "type": "Feature", "properties": { "value": 42.753 }, "geometry": { "type": "Point", "coordinates": [ 129.328735, 35.47699, 60.0 ] } },
{ "type": "Feature", "properties": { "value": 7.4072 }, "geometry": { "type": "Point", "coordinates": [ 129.329834, 35.47699, 60.0 ] } },
{ "type": "Feature", "properties": { "value": 7.7662 }, "geometry": { "type": "Point", "coordinates": [ 129.326538, 35.477898, 60.0 ] } },
{ "type": "Feature", "properties": { "value": 44.991 }, "geometry": { "type": "Point", "coordinates": [ 129.327637, 35.477894, 60.0 ] } },
{ "type": "Feature", "properties": { "value": 43.93 }, "geometry": { "type": "Point", "coordinates": [ 129.328735, 35.477894, 60.0 ] } },
{ "type": "Feature", "properties": { "value": 7.3622 }, "geometry": { "type": "Point", "coordinates": [ 129.329849, 35.47789, 60.0 ] } },
{ "type": "Feature", "properties": { "value": 11.305 }, "geometry": { "type": "Point", "coordinates": [ 129.326538, 35.478798, 60.0 ] } },
{ "type": "Feature", "properties": { "value": 48.835 }, "geometry": { "type": "Point", "coordinates": [ 129.327637, 35.478798, 60.0 ] } },
{ "type": "Feature", "properties": { "value": 41.83 }, "geometry": { "type": "Point", "coordinates": [ 129.328751, 35.478794, 60.0 ] } },
{ "type": "Feature", "properties": { "value": 6.9487 }, "geometry": { "type": "Point", "coordinates": [ 129.329849, 35.47879, 60.0 ] } },
{ "type": "Feature", "properties": { "value": 0.8224 }, "geometry": { "type": "Point", "coordinates": [ 129.325439, 35.479706, 60.0 ] } },
{ "type": "Feature", "properties": { "value": 14.979 }, "geometry": { "type": "Point", "coordinates": [ 129.326553, 35.479702, 60.0 ] } },
{ "type": "Feature", "properties": { "value": 50.972 }, "geometry": { "type": "Point", "coordinates": [ 129.327652, 35.479698, 60.0 ] } },
{ "type": "Feature", "properties": { "value": 38.855 }, "geometry": { "type": "Point", "coordinates": [ 129.328751, 35.479694, 60.0 ] } },
{ "type": "Feature", "properties": { "value": 6.3468 }, "geometry": { "type": "Point", "coordinates": [ 129.329849, 35.479691, 60.0 ] } },
{ "type": "Feature", "properties": { "value": 1.5477 }, "geometry": { "type": "Point", "coordinates": [ 129.325455, 35.480606, 60.0 ] } },
{ "type": "Feature", "properties": { "value": 17.912 }, "geometry": { "type": "Point", "coordinates": [ 129.326553, 35.480602, 60.0 ] } },
{ "type": "Feature", "properties": { "value": 49.744 }, "geometry": { "type": "Point", "coordinates": [ 129.327652, 35.480598, 60.0 ] } },
{ "type": "Feature", "properties": { "value": 34.845 }, "geometry": { "type": "Point", "coordinates": [ 129.328751, 35.480595, 60.0 ] } },
{ "type": "Feature", "properties": { "value": 5.6959 }, "geometry": { "type": "Point", "coordinates": [ 129.329849, 35.480595, 60.0 ] } },
{ "type": "Feature", "properties": { "value": 2.3097 }, "geometry": { "type": "Point", "coordinates": [ 129.325455, 35.481506, 60.0 ] } },
{ "type": "Feature", "properties": { "value": 20.187 }, "geometry": { "type": "Point", "coordinates": [ 129.326553, 35.481503, 60.0 ] } },
{ "type": "Feature", "properties": { "value": 48.212 }, "geometry": { "type": "Point", "coordinates": [ 129.327652, 35.481503, 60.0 ] } },
{ "type": "Feature", "properties": { "value": 31.025 }, "geometry": { "type": "Point", "coordinates": [ 129.328751, 35.481499, 60.0 ] } },
{ "type": "Feature", "properties": { "value": 5.0045 }, "geometry": { "type": "Point", "coordinates": [ 129.329865, 35.481495, 60.0 ] } },
{ "type": "Feature", "properties": { "value": 3.3892 }, "geometry": { "type": "Point", "coordinates": [ 129.325455, 35.482407, 60.0 ] } },
{ "type": "Feature", "properties": { "value": 23.572 }, "geometry": { "type": "Point", "coordinates": [ 129.326553, 35.482407, 60.0 ] } },
{ "type": "Feature", "properties": { "value": 48.232 }, "geometry": { "type": "Point", "coordinates": [ 129.327652, 35.482403, 60.0 ] } },
{ "type": "Feature", "properties": { "value": 27.761 }, "geometry": { "type": "Point", "coordinates": [ 129.328766, 35.482399, 60.0 ] } },
{ "type": "Feature", "properties": { "value": 4.345 }, "geometry": { "type": "Point", "coordinates": [ 129.329865, 35.482395, 60.0 ] } },
{ "type": "Feature", "properties": { "value": 5.0559 }, "geometry": { "type": "Point", "coordinates": [ 129.325455, 35.483311, 60.0 ] } },
{ "type": "Feature", "properties": { "value": 27.668 }, "geometry": { "type": "Point", "coordinates": [ 129.326553, 35.483307, 60.0 ] } },
{ "type": "Feature", "properties": { "value": 47.154 }, "geometry": { "type": "Point", "coordinates": [ 129.327667, 35.483303, 60.0 ] } },
{ "type": "Feature", "properties": { "value": 24.431 }, "geometry": { "type": "Point", "coordinates": [ 129.328766, 35.483299, 60.0 ] } },
{ "type": "Feature", "properties": { "value": 3.7471 }, "geometry": { "type": "Point", "coordinates": [ 129.329865, 35.483295, 60.0 ] } },
{ "type": "Feature", "properties": { "value": 0.443 }, "geometry": { "type": "Point", "coordinates": [ 129.324356, 35.484215, 60.0 ] } },
{ "type": "Feature", "properties": { "value": 7.3898 }, "geometry": { "type": "Point", "coordinates": [ 129.325455, 35.484211, 60.0 ] } },
{ "type": "Feature", "properties": { "value": 31.41 }, "geometry": { "type": "Point", "coordinates": [ 129.326569, 35.484207, 60.0 ] } },
{ "type": "Feature", "properties": { "value": 44.46 }, "geometry": { "type": "Point", "coordinates": [ 129.327667, 35.484203, 60.0 ] } },
{ "type": "Feature", "properties": { "value": 20.943 }, "geometry": { "type": "Point", "coordinates": [ 129.328766, 35.484203, 60.0 ] } },
{ "type": "Feature", "properties": { "value": 3.1502 }, "geometry": { "type": "Point", "coordinates": [ 129.329865, 35.4842, 60.0 ] } },
{ "type": "Feature", "properties": { "value": 1.1301 }, "geometry": { "type": "Point", "coordinates": [ 129.324371, 35.485115, 60.0 ] } },
{ "type": "Feature", "properties": { "value": 10.77 }, "geometry": { "type": "Point", "coordinates": [ 129.32547, 35.485111, 60.0 ] } },
{ "type": "Feature", "properties": { "value": 35.375 }, "geometry": { "type": "Point", "coordinates": [ 129.326569, 35.485107, 60.0 ] } },
{ "type": "Feature", "properties": { "value": 41.818 }, "geometry": { "type": "Point", "coordinates": [ 129.327667, 35.485107, 60.0 ] } },
{ "type": "Feature", "properties": { "value": 17.757 }, "geometry": { "type": "Point", "coordinates": [ 129.328766, 35.485104, 60.0 ] } },
{ "type": "Feature", "properties": { "value": 2.5059 }, "geometry": { "type": "Point", "coordinates": [ 129.32988, 35.4851, 60.0 ] } },
{ "type": "Feature", "properties": { "value": 2.4194 }, "geometry": { "type": "Point", "coordinates": [ 129.324371, 35.486015, 60.0 ] } },
{ "type": "Feature", "properties": { "value": 15.737 }, "geometry": { "type": "Point", "coordinates": [ 129.32547, 35.486012, 60.0 ] } },
{ "type": "Feature", "properties": { "value": 39.98 }, "geometry": { "type": "Point", "coordinates": [ 129.326569, 35.486012, 60.0 ] } },
{ "type": "Feature", "properties": { "value": 39.358 }, "geometry": { "type": "Point", "coordinates": [ 129.327667, 35.486008, 60.0 ] } },
{ "type": "Feature", "properties": { "value": 14.651 }, "geometry": { "type": "Point", "coordinates": [ 129.328781, 35.486004, 60.0 ] } },
{ "type": "Feature", "properties": { "value": 1.8889 }, "geometry": { "type": "Point", "coordinates": [ 129.32988, 35.486, 60.0 ] } },
{ "type": "Feature", "properties": { "value": 4.3944 }, "geometry": { "type": "Point", "coordinates": [ 129.324371, 35.486916, 60.0 ] } },
{ "type": "Feature", "properties": { "value": 21.643 }, "geometry": { "type": "Point", "coordinates": [ 129.32547, 35.486916, 60.0 ] } },
{ "type": "Feature", "properties": { "value": 43.675 }, "geometry": { "type": "Point", "coordinates": [ 129.326569, 35.486912, 60.0 ] } },
{ "type": "Feature", "properties": { "value": 35.848 }, "geometry": { "type": "Point", "coordinates": [ 129.327682, 35.486908, 60.0 ] } },
{ "type": "Feature", "properties": { "value": 11.66 }, "geometry": { "type": "Point", "coordinates": [ 129.328781, 35.486904, 60.0 ] } },
{ "type": "Feature", "properties": { "value": 1.3346 }, "geometry": { "type": "Point", "coordinates": [ 129.32988, 35.486904, 60.0 ] } },
{ "type": "Feature", "properties": { "value": 0.612 }, "geometry": { "type": "Point", "coordinates": [ 129.323273, 35.48782, 60.0 ] } },
{ "type": "Feature", "properties": { "value": 6.9226 }, "geometry": { "type": "Point", "coordinates": [ 129.324371, 35.48782, 60.0 ] } },
{ "type": "Feature", "properties": { "value": 27.101 }, "geometry": { "type": "Point", "coordinates": [ 129.32547, 35.487816, 60.0 ] } },
{ "type": "Feature", "properties": { "value": 45.293 }, "geometry": { "type": "Point", "coordinates": [ 129.326584, 35.487812, 60.0 ] } },
{ "type": "Feature", "properties": { "value": 31.915 }, "geometry": { "type": "Point", "coordinates": [ 129.327682, 35.487808, 60.0 ] } },
{ "type": "Feature", "properties": { "value": 9.2589 }, "geometry": { "type": "Point", "coordinates": [ 129.328781, 35.487808, 60.0 ] } },
{ "type": "Feature", "properties": { "value": 0.9299 }, "geometry": { "type": "Point", "coordinates": [ 129.32988, 35.487804, 60.0 ] } },
{ "type": "Feature", "properties": { "value": 1.2463 }, "geometry": { "type": "Point", "coordinates": [ 129.323273, 35.488724, 60.0 ] } },
{ "type": "Feature", "properties": { "value": 9.7329 }, "geometry": { "type": "Point", "coordinates": [ 129.324371, 35.48872, 60.0 ] } },
{ "type": "Feature", "properties": { "value": 31.491 }, "geometry": { "type": "Point", "coordinates": [ 129.325485, 35.488716, 60.0 ] } },
{ "type": "Feature", "properties": { "value": 45.182 }, "geometry": { "type": "Point", "coordinates": [ 129.326584, 35.488712, 60.0 ] } },
{ "type": "Feature", "properties": { "value": 28.282 }, "geometry": { "type": "Point", "coordinates": [ 129.327682, 35.488712, 60.0 ] } },
{ "type": "Feature", "properties": { "value": 7.5288 }, "geometry": { "type": "Point", "coordinates": [ 129.328781, 35.488708, 60.0 ] } },
{ "type": "Feature", "properties": { "value": 0.6515 }, "geometry": { "type": "Point", "coordinates": [ 129.329895, 35.488705, 60.0 ] } },
{ "type": "Feature", "properties": { "value": 2.0592 }, "geometry": { "type": "Point", "coordinates": [ 129.323273, 35.489624, 60.0 ] } },
{ "type": "Feature", "properties": { "value": 12.287 }, "geometry": { "type": "Point", "coordinates": [ 129.324387, 35.48962, 60.0 ] } },
{ "type": "Feature", "properties": { "value": 33.739 }, "geometry": { "type": "Point", "coordinates": [ 129.325485, 35.489616, 60.0 ] } },
{ "type": "Feature", "properties": { "value": 42.655 }, "geometry": { "type": "Point", "coordinates": [ 129.326584, 35.489616, 60.0 ] } },
{ "type": "Feature", "properties": { "value": 24.328 }, "geometry": { "type": "Point", "coordinates": [ 129.327682, 35.489613, 60.0 ] } },
{ "type": "Feature", "properties": { "value": 6.0973 }, "geometry": { "type": "Point", "coordinates": [ 129.328796, 35.489609, 60.0 ] } },
{ "type": "Feature", "properties": { "value": 0.4664 }, "geometry": { "type": "Point", "coordinates": [ 129.329895, 35.489605, 60.0 ] } },
{ "type": "Feature", "properties": { "value": 0.0824 }, "geometry": { "type": "Point", "coordinates": [ 129.322174, 35.490528, 60.0 ] } },
{ "type": "Feature", "properties": { "value": 2.7203 }, "geometry": { "type": "Point", "coordinates": [ 129.323288, 35.490524, 60.0 ] } },
{ "type": "Feature", "properties": { "value": 13.477 }, "geometry": { "type": "Point", "coordinates": [ 129.324387, 35.490524, 60.0 ] } },
{ "type": "Feature", "properties": { "value": 31.872 }, "geometry": { "type": "Point", "coordinates": [ 129.325485, 35.49052, 60.0 ] } },
{ "type": "Feature", "properties": { "value": 35.999 }, "geometry": { "type": "Point", "coordinates": [ 129.326584, 35.490517, 60.0 ] } },
{ "type": "Feature", "properties": { "value": 18.93 }, "geometry": { "type": "Point", "coordinates": [ 129.327698, 35.490513, 60.0 ] } },
{ "type": "Feature", "properties": { "value": 4.4992 }, "geometry": { "type": "Point", "coordinates": [ 129.328796, 35.490509, 60.0 ] } },
{ "type": "Feature", "properties": { "value": 0.2443 }, "geometry": { "type": "Point", "coordinates": [ 129.329895, 35.490509, 60.0 ] } },
{ "type": "Feature", "properties": { "value": 0.2106 }, "geometry": { "type": "Point", "coordinates": [ 129.322189, 35.491428, 60.0 ] } },
{ "type": "Feature", "properties": { "value": 2.5506 }, "geometry": { "type": "Point", "coordinates": [ 129.323288, 35.491428, 60.0 ] } },
{ "type": "Feature", "properties": { "value": 11.177 }, "geometry": { "type": "Point", "coordinates": [ 129.324387, 35.491425, 60.0 ] } },
{ "type": "Feature", "properties": { "value": 23.78 }, "geometry": { "type": "Point", "coordinates": [ 129.325485, 35.491421, 60.0 ] } },
{ "type": "Feature", "properties": { "value": 24.342 }, "geometry": { "type": "Point", "coordinates": [ 129.326599, 35.491417, 60.0 ] } },
{ "type": "Feature", "properties": { "value": 11.885 }, "geometry": { "type": "Point", "coordinates": [ 129.327698, 35.491413, 60.0 ] } },
{ "type": "Feature", "properties": { "value": 2.6693 }, "geometry": { "type": "Point", "coordinates": [ 129.328796, 35.491413, 60.0 ] } },
{ "type": "Feature", "properties": { "value": 0.1349 }, "geometry": { "type": "Point", "coordinates": [ 129.322189, 35.492332, 60.0 ] } },
{ "type": "Feature", "properties": { "value": 1.4648 }, "geometry": { "type": "Point", "coordinates": [ 129.323288, 35.492329, 60.0 ] } },
{ "type": "Feature", "properties": { "value": 6.0679 }, "geometry": { "type": "Point", "coordinates": [ 129.324387, 35.492325, 60.0 ] } },
{ "type": "Feature", "properties": { "value": 11.986 }, "geometry": { "type": "Point", "coordinates": [ 129.3255, 35.492321, 60.0 ] } },
{ "type": "Feature", "properties": { "value": 11.397 }, "geometry": { "type": "Point", "coordinates": [ 129.326599, 35.492317, 60.0 ] } },
{ "type": "Feature", "properties": { "value": 5.2421 }, "geometry": { "type": "Point", "coordinates": [ 129.327698, 35.492317, 60.0 ] } },
{ "type": "Feature", "properties": { "value": 1.1066 }, "geometry": { "type": "Point", "coordinates": [ 129.328796, 35.492313, 60.0 ] } },
{ "type": "Feature", "properties": { "value": 0.0221 }, "geometry": { "type": "Point", "coordinates": [ 129.322189, 35.493233, 60.0 ] } },
{ "type": "Feature", "properties": { "value": 0.4693 }, "geometry": { "type": "Point", "coordinates": [ 129.323288, 35.493229, 60.0 ] } },
{ "type": "Feature", "properties": { "value": 1.895 }, "geometry": { "type": "Point", "coordinates": [ 129.324402, 35.493225, 60.0 ] } },
{ "type": "Feature", "properties": { "value": 3.5979 }, "geometry": { "type": "Point", "coordinates": [ 129.3255, 35.493225, 60.0 ] } },
{ "type": "Feature", "properties": { "value": 3.259 }, "geometry": { "type": "Point", "coordinates": [ 129.326599, 35.493221, 60.0 ] } },
{ "type": "Feature", "properties": { "value": 1.4119 }, "geometry": { "type": "Point", "coordinates": [ 129.327698, 35.493217, 60.0 ] } },
{ "type": "Feature", "properties": { "value": 0.2573 }, "geometry": { "type": "Point", "coordinates": [ 129.328812, 35.493214, 60.0 ] } },
{ "type": "Feature", "properties": { "value": 0.0673 }, "geometry": { "type": "Point", "coordinates": [ 129.323303, 35.494129, 60.0 ] } },
{ "type": "Feature", "properties": { "value": 0.3063 }, "geometry": { "type": "Point", "coordinates": [ 129.324402, 35.494129, 60.0 ] } },
{ "type": "Feature", "properties": { "value": 0.5812 }, "geometry": { "type": "Point", "coordinates": [ 129.3255, 35.494125, 60.0 ] } },
{ "type": "Feature", "properties": { "value": 0.5052 }, "geometry": { "type": "Point", "coordinates": [ 129.326599, 35.494122, 60.0 ] } },
{ "type": "Feature", "properties": { "value": 0.1956 }, "geometry": { "type": "Point", "coordinates": [ 129.327713, 35.494118, 60.0 ] } },
{ "type": "Feature", "properties": { "value": 0.0147 }, "geometry": { "type": "Point", "coordinates": [ 129.324402, 35.495029, 60.0 ] } },
{ "type": "Feature", "properties": { "value": 0.0239 }, "geometry": { "type": "Point", "coordinates": [ 129.3255, 35.495026, 60.0 ] } },
{ "type": "Feature", "properties": { "value": 0.0191 }, "geometry": { "type": "Point", "coordinates": [ 129.326614, 35.495022, 60.0 ] } }
]
}
