{
"type": "FeatureCollection",
"features": [
{ "type": "Feature", "properties": { "value": 0.0024 }, "geometry": { "type": "Point", "coordinates": [ 129.32756, 35.458969, 60.0 ] } },
{ "type": "Feature", "properties": { "value": 2.7305 }, "geometry": { "type": "Point", "coordinates": [ 129.32756, 35.459869, 60.0 ] } },
{ "type": "Feature", "properties": { "value": 70.129 }, "geometry": { "type": "Point", "coordinates": [ 129.327576, 35.46077, 60.0 ] } },
{ "type": "Feature", "properties": { "value": 127.1 }, "geometry": { "type": "Point", "coordinates": [ 129.327576, 35.461674, 60.0 ] } },
{ "type": "Feature", "properties": { "value": 112.37 }, "geometry": { "type": "Point", "coordinates": [ 129.327576, 35.462574, 60.0 ] } },
{ "type": "Feature", "properties": { "value": 90.023 }, "geometry": { "type": "Point", "coordinates": [ 129.327576, 35.463474, 60.0 ] } },
{ "type": "Feature", "properties": { "value": 2.2617 }, "geometry": { "type": "Point", "coordinates": [ 129.32869, 35.46347, 60.0 ] } },
{ "type": "Feature", "properties": { "value": 78.015 }, "geometry": { "type": "Point", "coordinates": [ 129.327591, 35.464375, 60.0 ] } },
{ "type": "Feature", "properties": { "value": 6.766 }, "geometry": { "type": "Point", "coordinates": [ 129.32869, 35.464375, 60.0 ] } },
{ "type": "Feature", "properties": { "value": 77.682 }, "geometry": { "type": "Point", "coordinates": [ 129.327591, 35.465279, 60.0 ] } },
{ "type": "Feature", "properties": { "value": 16.754 }, "geometry": { "type": "Point", "coordinates": [ 129.32869, 35.465275, 60.0 ] } },
{ "type": "Feature", "properties": { "value": 74.939 }, "geometry": { "type": "Point", "coordinates": [ 129.327591, 35.466179, 60.0 ] } },
{ "type": "Feature", "properties": { "value": 30.497 }, "geometry": { "type": "Point", "coordinates": [ 129.32869, 35.466175, 60.0 ] } },
{ "type": "Feature", "properties": { "value": 72.316 }, "geometry": { "type": "Point", "coordinates": [ 129.327591, 35.467079, 60.0 ] } },
{ "type": "Feature", "properties": { "value": 41.45 }, "geometry": { "type": "Point", "coordinates": [ 129.328705, 35.467075, 60.0 ] } },
{ "type": "Feature", "properties": { "value": 68.917 }, "geometry": { "type": "Point", "coordinates": [ 129.327606, 35.467983, 60.0 ] } },
{ "type": "Feature", "properties": { "value": 47.836 }, "geometry": { "type": "Point", "coordinates": [ 129.328705, 35.467979, 60.0 ] } },
{ "type": "Feature", "properties": { "value": 65.995 }, "geometry": { "type": "Point", "coordinates": [ 129.327606, 35.468884, 60.0 ] } },
{ "type": "Feature", "properties": { "value": 50.96 }, "geometry": { "type": "Point", "coordinates": [ 129.328705, 35.46888, 60.0 ] } },
{ "type": "Feature", "properties": { "value": 1.2032 }, "geometry": { "type": "Point", "coordinates": [ 129.326508, 35.469788, 60.0 ] } },
{ "type": "Feature", "properties": { "value": 63.378 }, "geometry": { "type": "Point", "coordinates": [ 129.327606, 35.469784, 60.0 ] } },
{ "type": "Feature", "properties": { "value": 52.262 }, "geometry": { "type": "Point", "coordinates": [ 129.328705, 35.46978, 60.0 ] } },
{ "type": "Feature", "properties": { "value": 1.834 }, "geometry": { "type": "Point", "coordinates": [ 129.326508, 35.470688, 60.0 ] } },
{ "type": "Feature", "properties": { "value": 60.043 }, "geometry": { "type": "Point", "coordinates": [ 129.327606, 35.470684, 60.0 ] } },
{ "type": "Feature", "properties": { "value": 50.191 }, "geometry": { "type": "Point", "coordinates": [ 129.32872, 35.470684, 60.0 ] } },
{ "type": "Feature", "properties": { "value": 0.8437 }, "geometry": { "type": "Point", "coordinates": [ 129.329819, 35.47068, 60.0 ] } },
{ "type": "Feature", "properties": { "value": 2.4871 }, "geometry": { "type": "Point", "coordinates": [ 129.326508, 35.471588, 60.0 ] } },
{ "type": "Feature", "properties": { "value": 53.808 }, "geometry": { "type": "Point", "coordinates": [ 129.327621, 35.471588, 60.0 ] } },
{ "type": "Feature", "properties": { "value": 39.82 }, "geometry": { "type": "Point", "coordinates": [ 129.32872, 35.471584, 60.0 ] } },
{ "type": "Feature", "properties": { "value": 0.9032 }, "geometry": { "type": "Point", "coordinates": [ 129.329819, 35.471581, 60.0 ] } },
{ "type": "Feature", "properties": { "value": 3.1248 }, "geometry": { "type": "Point", "coordinates": [ 129.326523, 35.472492, 60.0 ] } },
{ "type": "Feature", "properties": { "value": 43.388 }, "geometry": { "type": "Point", "coordinates": [ 129.327621, 35.472488, 60.0 ] } },
{ "type": "Feature", "properties": { "value": 26.555 }, "geometry": { "type": "Point", "coordinates": [ 129.32872, 35.472485, 60.0 ] } },
{ "type": "Feature", "properties": { "value": 0.9095 }, "geometry": { "type": "Point", "coordinates": [ 129.329819, 35.472481, 60.0 ] } },
{ "type": "Feature", "properties": { "value": 4.1882 }, "geometry": { "type": "Point", "coordinates": [ 129.326523, 35.473392, 60.0 ] } },
{ "type": "Feature", "properties": { "value": 34.253 }, "geometry": { "type": "Point", "coordinates": [ 129.327621, 35.473389, 60.0 ] } },
{ "type": "Feature", "properties": { "value": 22.069 }, "geometry": { "type": "Point", "coordinates": [ 129.32872, 35.473385, 60.0 ] } },
{ "type": "Feature", "properties": { "value": 1.5675 }, "geometry": { "type": "Point", "coordinates": [ 129.329819, 35.473385, 60.0 ] } },
{ "type": "Feature", "properties": { "value": 5.3532 }, "geometry": { "type": "Point", "coordinates": [ 129.326523, 35.474293, 60.0 ] } },
{ "type": "Feature", "properties": { "value": 29.787 }, "geometry": { "type": "Point", "coordinates": [ 129.327621, 35.474289, 60.0 ] } },
{ "type": "Feature", "properties": { "value": 22.513 }, "geometry": { "type": "Point", "coordinates": [ 129.328735, 35.474289, 60.0 ] } },
{ "type": "Feature", "properties": { "value": 2.667 }, "geometry": { "type": "Point", "coordinates": [ 129.329834, 35.474285, 60.0 ] } },
{ "type": "Feature", "properties": { "value": 6.1174 }, "geometry": { "type": "Point", "coordinates": [ 129.326523, 35.475193, 60.0 ] } },
{ "type": "Feature", "properties": { "value": 29.668 }, "geometry": { "type": "Point", "coordinates": [ 129.327637, 35.475193, 60.0 ] } },
{ "type": "Feature", "properties": { "value": 24.105 }, "geometry": { "type": "Point", "coordinates": [ 129.328735, 35.475189, 60.0 ] } },
{ "type": "Feature", "properties": { "value": 3.4962 }, "geometry": { "type": "Point", "coordinates": [ 129.329834, 35.475185, 60.0 ] } },
{ "type": "Feature", "properties": { "value": 7.5703 }, "geometry": { "type": "Point", "coordinates": [ 129.326538, 35.476097, 60.0 ] } },
{ "type": "Feature", "properties": { "value": 34.07 }, "geometry": { "type": "Point", "coordinates": [ 129.327637, 35.476093, 60.0 ] } },
{ "type": "Feature", "properties": { "value": 26.927 }, "geometry": { "type": "Point", "coordinates": [ 129.328735, 35.476089, 60.0 ] } },
{ "type": "Feature", "properties": { "value": 4.0242 }, "geometry": { "type": "Point", "coordinates": [ 129.329834, 35.476086, 60.0 ] } },
{ "type": "Feature", "properties": { "value": 0.3888 }, "geometry": { "type": "Point", "coordinates": [ 129.325439, 35.477001, 60.0 ] } },
{ "type": "Feature", "properties": { "value": 9.5905 }, "geometry": { "type": "Point", "coordinates": [ 129.326538, 35.476997, 60.0 ] } },
{ "type": "Feature", "properties": { "value": 38.14 }, "geometry": { "type": "Point", "coordinates": [ 129.327637, 35.476994, 60.0 ] } },
{ "type": "Feature", "properties": { "value": 27.734 }, "geometry": { "type": "Point", "coordinates": [ 129.328735, 35.47699, 60.0 ] } },
{ "type": "Feature", "properties": { "value": 3.9456 }, "geometry": { "type": "Point", "coordinates": [ 129.329834, 35.47699, 60.0 ] } },
{ "type": "Feature", "properties": { "value": 0.475 }, "geometry": { "type": "Point", "coordinates": [ 129.325439, 35.477901, 60.0 ] } },
{ "type": "Feature", "properties": { "value": 8.4256 }, "geometry": { "type": "Point", "coordinates": [ 129.326538, 35.477898, 60.0 ] } },
{ "type": "Feature", "properties": { "value": 27.981 }, "geometry": { "type": "Point", "coordinates": [ 129.327637, 35.477894, 60.0 ] } },
{ "type": "Feature", "properties": { "value": 18.857 }, "geometry": { "type": "Point", "coordinates": [ 129.328735, 35.477894, 60.0 ] } },
{ "type": "Feature", "properties": { "value": 2.6457 }, "geometry": { "type": "Point", "coordinates": [ 129.329849, 35.47789, 60.0 ] } },
{ "type": "Feature", "properties": { "value": 0.1969 }, "geometry": { "type": "Point", "coordinates": [ 129.325439, 35.478802, 60.0 ] } },
{ "type": "Feature", "properties": { "value": 3.2216 }, "geometry": { "type": "Point", "coordinates": [ 129.326538, 35.478798, 60.0 ] } },
{ "type": "Feature", "properties": { "value": 9.4156 }, "geometry": { "type": "Point", "coordinates": [ 129.327637, 35.478798, 60.0 ] } },
{ "type": "Feature", "properties": { "value": 6.0462 }, "geometry": { "type": "Point", "coordinates": [ 129.328751, 35.478794, 60.0 ] } },
{ "type": "Feature", "properties": { "value": 0.8263 }, "geometry": { "type": "Point", "coordinates": [ 129.329849, 35.47879, 60.0 ] } },
{ "type": "Feature", "properties": { "value": 0.384 }, "geometry": { "type": "Point", "coordinates": [ 129.326553, 35.479702, 60.0 ] } },
{ "type": "Feature", "properties": { "value": 1.1458 }, "geometry": { "type": "Point", "coordinates": [ 129.327652, 35.479698, 60.0 ] } },
{ "type": "Feature", "properties": { "value": 0.715 }, "geometry": { "type": "Point", "coordinates": [ 129.328751, 35.479694, 60.0 ] } },
{ "type": "Feature", "properties": { "value": 0.081 }, "geometry": { "type": "Point", "coordinates": [ 129.329849, 35.479691, 60.0 ] } },
{ "type": "Feature", "properties": { "value": 0.029 }, "geometry": { "type": "Point", "coordinates": [ 129.327652, 35.480598, 60.0 ] } }
]
}
