{
"type": "FeatureCollection",
"features": [
{ "type": "Feature", "properties": { "value": 0.0003 }, "geometry": { "type": "Point", "coordinates": [ 129.314438, 35.483337, 2650.0 ] } },
{ "type": "Feature", "properties": { "value": 0.0016 }, "geometry": { "type": "Point", "coordinates": [ 129.315536, 35.483337, 2650.0 ] } },
{ "type": "Feature", "properties": { "value": 0.0023 }, "geometry": { "type": "Point", "coordinates": [ 129.31665, 35.483334, 2650.0 ] } },
{ "type": "Feature", "properties": { "value": 0.0024 }, "geometry": { "type": "Point", "coordinates": [ 129.317749, 35.48333, 2650.0 ] } },
{ "type": "Feature", "properties": { "value": 0.0025 }, "geometry": { "type": "Point", "coordinates": [ 129.318848, 35.483326, 2650.0 ] } },
{ "type": "Feature", "properties": { "value": 0.0031 }, "geometry": { "type": "Point", "coordinates": [ 129.319946, 35.483322, 2650.0 ] } },
{ "type": "Feature", "properties": { "value": 0.0025 }, "geometry": { "type": "Point", "coordinates": [ 129.321045, 35.483322, 2650.0 ] } },
{ "type": "Feature", "properties": { "value": 0.0024 }, "geometry": { "type": "Point", "coordinates": [ 129.322159, 35.483318, 2650.0 ] } },
{ "type": "Feature", "properties": { "value": 0.0023 }, "geometry": { "type": "Point", "coordinates": [ 129.323257, 35.483315, 2650.0 ] } },
{ "type": "Feature", "properties": { "value": 0.0016 }, "geometry": { "type": "Point", "coordinates": [ 129.324356, 35.483311, 2650.0 ] } },
{ "type": "Feature", "properties": { "value": 0.0009 }, "geometry": { "type": "Point", "coordinates": [ 129.325455, 35.483311, 2650.0 ] } },
{ "type": "Feature", "properties": { "value": 0.0003 }, "geometry": { "type": "Point", "coordinates": [ 129.326553, 35.483307, 2650.0 ] } },
{ "type": "Feature", "properties": { "value": 0.0016 }, "geometry": { "type": "Point", "coordinates": [ 129.312241, 35.484245, 2650.0 ] } },
{ "type": "Feature", "properties": { "value": 0.0031 }, "geometry": { "type": "Point", "coordinates": [ 129.313339, 35.484241, 2650.0 ] } },
{ "type": "Feature", "properties": { "value": 0.0042 }, "geometry": { "type": "Point", "coordinates": [ 129.314438, 35.484241, 2650.0 ] } },
{ "type": "Feature", "properties": { "value": 0.0046 }, "geometry": { "type": "Point", "coordinates": [ 129.315552, 35.484238, 2650.0 ] } },
{ "type": "Feature", "properties": { "value": 0.005 }, "geometry": { "type": "Point", "coordinates": [ 129.31665, 35.484234, 2650.0 ] } },
{ "type": "Feature", "properties": { "value": 0.0053 }, "geometry": { "type": "Point", "coordinates": [ 129.317749, 35.48423, 2650.0 ] } },
{ "type": "Feature", "properties": { "value": 0.0055 }, "geometry": { "type": "Point", "coordinates": [ 129.318848, 35.48423, 2650.0 ] } },
{ "type": "Feature", "properties": { "value": 0.0056 }, "geometry": { "type": "Point", "coordinates": [ 129.319946, 35.484226, 2650.0 ] } },
{ "type": "Feature", "properties": { "value": 0.0055 }, "geometry": { "type": "Point", "coordinates": [ 129.32106, 35.484222, 2650.0 ] } },
{ "type": "Feature", "properties": { "value": 0.0053 }, "geometry": { "type": "Point", "coordinates": [ 129.322159, 35.484219, 2650.0 ] } },
{ "type": "Feature", "properties": { "value": 0.005 }, "geometry": { "type": "Point", "coordinates": [ 129.323257, 35.484215, 2650.0 ] } },
{ "type": "Feature", "properties": { "value": 0.0046 }, "geometry": { "type": "Point", "coordinates": [ 129.324356, 35.484215, 2650.0 ] } },
{ "type": "Feature", "properties": { "value": 0.0042 }, "geometry": { "type": "Point", "coordinates": [ 129.325455, 35.484211, 2650.0 ] } },
{ "type": "Feature", "properties": { "value": 0.0032 }, "geometry": { "type": "Point", "coordinates": [ 129.326569, 35.484207, 2650.0 ] } },
{ "type": "Feature", "properties": { "value": 0.0017 }, "geometry": { "type": "Point", "coordinates": [ 129.327667, 35.484203, 2650.0 ] } },
{ "type": "Feature", "properties": { "value": 0.0009 }, "geometry": { "type": "Point", "coordinates": [ 129.328766, 35.484203, 2650.0 ] } },
{ "type": "Feature", "properties": { "value": 0.0023 }, "geometry": { "type": "Point", "coordinates": [ 129.310043, 35.485153, 2650.0 ] } },
{ "type": "Feature", "properties": { "value": 0.0041 }, "geometry": { "type": "Point", "coordinates": [ 129.311142, 35.485149, 2650.0 ] } },
{ "type": "Feature", "properties": { "value": 0.0048 }, "geometry": { "type": "Point", "coordinates": [ 129.312241, 35.485146, 2650.0 ] } },
{ "type": "Feature", "properties": { "value": 0.0056 }, "geometry": { "type": "Point", "coordinates": [ 129.313339, 35.485146, 2650.0 ] } },
{ "type": "Feature", "properties": { "value": 0.0063 }, "geometry": { "type": "Point", "coordinates": [ 129.314453, 35.485142, 2650.0 ] } },
{ "type": "Feature", "properties": { "value": 0.007 }, "geometry": { "type": "Point", "coordinates": [ 129.315552, 35.485138, 2650.0 ] } },
{ "type": "Feature", "properties": { "value": 0.0076 }, "geometry": { "type": "Point", "coordinates": [ 129.31665, 35.485134, 2650.0 ] } },
{ "type": "Feature", "properties": { "value": 0.008 }, "geometry": { "type": "Point", "coordinates": [ 129.317749, 35.485134, 2650.0 ] } },
{ "type": "Feature", "properties": { "value": 0.0083 }, "geometry": { "type": "Point", "coordinates": [ 129.318848, 35.48513, 2650.0 ] } },
{ "type": "Feature", "properties": { "value": 0.0084 }, "geometry": { "type": "Point", "coordinates": [ 129.319962, 35.485126, 2650.0 ] } },
{ "type": "Feature", "properties": { "value": 0.0083 }, "geometry": { "type": "Point", "coordinates": [ 129.32106, 35.485123, 2650.0 ] } },
{ "type": "Feature", "properties": { "value": 0.008 }, "geometry": { "type": "Point", "coordinates": [ 129.322159, 35.485119, 2650.0 ] } },
{ "type": "Feature", "properties": { "value": 0.0076 }, "geometry": { "type": "Point", "coordinates": [ 129.323257, 35.485119, 2650.0 ] } },
{ "type": "Feature", "properties": { "value": 0.007 }, "geometry": { "type": "Point", "coordinates": [ 129.324371, 35.485115, 2650.0 ] } },
{ "type": "Feature", "properties": { "value": 0.0063 }, "geometry": { "type": "Point", "coordinates": [ 129.32547, 35.485111, 2650.0 ] } },
{ "type": "Feature", "properties": { "value": 0.0056 }, "geometry": { "type": "Point", "coordinates": [ 129.326569, 35.485107, 2650.0 ] } },
{ "type": "Feature", "properties": { "value": 0.0048 }, "geometry": { "type": "Point", "coordinates": [ 129.327667, 35.485107, 2650.0 ] } },
{ "type": "Feature", "properties": { "value": 0.0035 }, "geometry": { "type": "Point", "coordinates": [ 129.328766, 35.485104, 2650.0 ] } },
{ "type": "Feature", "properties": { "value": 0.0024 }, "geometry": { "type": "Point", "coordinates": [ 129.32988, 35.4851, 2650.0 ] } },
{ "type": "Feature", "properties": { "value": 0.0009 }, "geometry": { "type": "Point", "coordinates": [ 129.330978, 35.485096, 2650.0 ] } },
{ "type": "Feature", "properties": { "value": 0.0015 }, "geometry": { "type": "Point", "coordinates": [ 129.307831, 35.486061, 2650.0 ] } },
{ "type": "Feature", "properties": { "value": 0.004 }, "geometry": { "type": "Point", "coordinates": [ 129.308945, 35.486057, 2650.0 ] } },
{ "type": "Feature", "properties": { "value": 0.005 }, "geometry": { "type": "Point", "coordinates": [ 129.310043, 35.486053, 2650.0 ] } },
{ "type": "Feature", "properties": { "value": 0.006 }, "geometry": { "type": "Point", "coordinates": [ 129.311142, 35.48605, 2650.0 ] } },
{ "type": "Feature", "properties": { "value": 0.0071 }, "geometry": { "type": "Point", "coordinates": [ 129.312241, 35.48605, 2650.0 ] } },
{ "type": "Feature", "properties": { "value": 0.0083 }, "geometry": { "type": "Point", "coordinates": [ 129.313354, 35.486046, 2650.0 ] } },
{ "type": "Feature", "properties": { "value": 0.0094 }, "geometry": { "type": "Point", "coordinates": [ 129.314453, 35.486042, 2650.0 ] } },
{ "type": "Feature", "properties": { "value": 0.0104 }, "geometry": { "type": "Point", "coordinates": [ 129.315552, 35.486038, 2650.0 ] } },
{ "type": "Feature", "properties": { "value": 0.0112 }, "geometry": { "type": "Point", "coordinates": [ 129.31665, 35.486038, 2650.0 ] } },
{ "type": "Feature", "properties": { "value": 0.0119 }, "geometry": { "type": "Point", "coordinates": [ 129.317749, 35.486034, 2650.0 ] } },
{ "type": "Feature", "properties": { "value": 0.0123 }, "geometry": { "type": "Point", "coordinates": [ 129.318863, 35.486031, 2650.0 ] } },
{ "type": "Feature", "properties": { "value": 0.0125 }, "geometry": { "type": "Point", "coordinates": [ 129.319962, 35.486027, 2650.0 ] } },
{ "type": "Feature", "properties": { "value": 0.0123 }, "geometry": { "type": "Point", "coordinates": [ 129.32106, 35.486027, 2650.0 ] } },
{ "type": "Feature", "properties": { "value": 0.0119 }, "geometry": { "type": "Point", "coordinates": [ 129.322159, 35.486023, 2650.0 ] } },
{ "type": "Feature", "properties": { "value": 0.0112 }, "geometry": { "type": "Point", "coordinates": [ 129.323273, 35.486019, 2650.0 ] } },
{ "type": "Feature", "properties": { "value": 0.0104 }, "geometry": { "type": "Point", "coordinates": [ 129.324371, 35.486015, 2650.0 ] } },
{ "type": "Feature", "properties": { "value": 0.0094 }, "geometry": { "type": "Point", "coordinates": [ 129.32547, 35.486012, 2650.0 ] } },
{ "type": "Feature", "properties": { "value": 0.0083 }, "geometry": { "type": "Point", "coordinates": [ 129.326569, 35.486012, 2650.0 ] } },
{ "type": "Feature", "properties": { "value": 0.0071 }, "geometry": { "type": "Point", "coordinates": [ 129.327667, 35.486008, 2650.0 ] } },
{ "type": "Feature", "properties": { "value": 0.006 }, "geometry": { "type": "Point", "coordinates": [ 129.328781, 35.486004, 2650.0 ] } },
{ "type": "Feature", "properties": { "value": 0.0049 }, "geometry": { "type": "Point", "coordinates": [ 129.32988, 35.486, 2650.0 ] } },
{ "type": "Feature", "properties": { "value": 0.0035 }, "geometry": { "type": "Point", "coordinates": [ 129.330978, 35.485996, 2650.0 ] } },
{ "type": "Feature", "properties": { "value": 0.0017 }, "geometry": { "type": "Point", "coordinates": [ 129.332077, 35.485996, 2650.0 ] } },
{ "type": "Feature", "properties": { "value": 0.0003 }, "geometry": { "type": "Point", "coordinates": [ 129.333176, 35.485992, 2650.0 ] } },
{ "type": "Feature", "properties": { "value": 0.0035 }, "geometry": { "type": "Point", "coordinates": [ 129.306732, 35.486965, 2650.0 ] } },
{ "type": "Feature", "properties": { "value": 0.0046 }, "geometry": { "type": "Point", "coordinates": [ 129.307846, 35.486961, 2650.0 ] } },
{ "type": "Feature", "properties": { "value": 0.0058 }, "geometry": { "type": "Point", "coordinates": [ 129.308945, 35.486958, 2650.0 ] } },
{ "type": "Feature", "properties": { "value": 0.0072 }, "geometry": { "type": "Point", "coordinates": [ 129.310043, 35.486954, 2650.0 ] } },
{ "type": "Feature", "properties": { "value": 0.0087 }, "geometry": { "type": "Point", "coordinates": [ 129.311142, 35.486954, 2650.0 ] } },
{ "type": "Feature", "properties": { "value": 0.0103 }, "geometry": { "type": "Point", "coordinates": [ 129.312256, 35.48695, 2650.0 ] } },
{ "type": "Feature", "properties": { "value": 0.012 }, "geometry": { "type": "Point", "coordinates": [ 129.313354, 35.486946, 2650.0 ] } },
{ "type": "Feature", "properties": { "value": 0.0136 }, "geometry": { "type": "Point", "coordinates": [ 129.314453, 35.486942, 2650.0 ] } },
{ "type": "Feature", "properties": { "value": 0.015 }, "geometry": { "type": "Point", "coordinates": [ 129.315552, 35.486942, 2650.0 ] } },
{ "type": "Feature", "properties": { "value": 0.0163 }, "geometry": { "type": "Point", "coordinates": [ 129.31665, 35.486938, 2650.0 ] } },
{ "type": "Feature", "properties": { "value": 0.0172 }, "geometry": { "type": "Point", "coordinates": [ 129.317764, 35.486935, 2650.0 ] } },
{ "type": "Feature", "properties": { "value": 0.0178 }, "geometry": { "type": "Point", "coordinates": [ 129.318863, 35.486931, 2650.0 ] } },
{ "type": "Feature", "properties": { "value": 0.018 }, "geometry": { "type": "Point", "coordinates": [ 129.319962, 35.486931, 2650.0 ] } },
{ "type": "Feature", "properties": { "value": 0.0178 }, "geometry": { "type": "Point", "coordinates": [ 129.32106, 35.486927, 2650.0 ] } },
{ "type": "Feature", "properties": { "value": 0.0172 }, "geometry": { "type": "Point", "coordinates": [ 129.322174, 35.486923, 2650.0 ] } },
{ "type": "Feature", "properties": { "value": 0.0163 }, "geometry": { "type": "Point", "coordinates": [ 129.323273, 35.486919, 2650.0 ] } },
{ "type": "Feature", "properties": { "value": 0.015 }, "geometry": { "type": "Point", "coordinates": [ 129.324371, 35.486916, 2650.0 ] } },
{ "type": "Feature", "properties": { "value": 0.0135 }, "geometry": { "type": "Point", "coordinates": [ 129.32547, 35.486916, 2650.0 ] } },
{ "type": "Feature", "properties": { "value": 0.0119 }, "geometry": { "type": "Point", "coordinates": [ 129.326569, 35.486912, 2650.0 ] } },
{ "type": "Feature", "properties": { "value": 0.0103 }, "geometry": { "type": "Point", "coordinates": [ 129.327682, 35.486908, 2650.0 ] } },
{ "type": "Feature", "properties": { "value": 0.0087 }, "geometry": { "type": "Point", "coordinates": [ 129.328781, 35.486904, 2650.0 ] } },
{ "type": "Feature", "properties": { "value": 0.0072 }, "geometry": { "type": "Point", "coordinates": [ 129.32988, 35.486904, 2650.0 ] } },
{ "type": "Feature", "properties": { "value": 0.0058 }, "geometry": { "type": "Point", "coordinates": [ 129.330978, 35.4869, 2650.0 ] } },
{ "type": "Feature", "properties": { "value": 0.0045 }, "geometry": { "type": "Point", "coordinates": [ 129.332092, 35.486897, 2650.0 ] } },
{ "type": "Feature", "properties": { "value": 0.0025 }, "geometry": { "type": "Point", "coordinates": [ 129.333191, 35.486893, 2650.0 ] } },
{ "type": "Feature", "properties": { "value": 0.0009 }, "geometry": { "type": "Point", "coordinates": [ 129.33429, 35.486889, 2650.0 ] } },
{ "type": "Feature", "properties": { "value": 0.0037 }, "geometry": { "type": "Point", "coordinates": [ 129.305634, 35.487869, 2650.0 ] } },
{ "type": "Feature", "properties": { "value": 0.005 }, "geometry": { "type": "Point", "coordinates": [ 129.306747, 35.487865, 2650.0 ] } },
{ "type": "Feature", "properties": { "value": 0.0064 }, "geometry": { "type": "Point", "coordinates": [ 129.307846, 35.487862, 2650.0 ] } },
{ "type": "Feature", "properties": { "value": 0.0082 }, "geometry": { "type": "Point", "coordinates": [ 129.308945, 35.487858, 2650.0 ] } },
{ "type": "Feature", "properties": { "value": 0.0101 }, "geometry": { "type": "Point", "coordinates": [ 129.310043, 35.487858, 2650.0 ] } },
{ "type": "Feature", "properties": { "value": 0.0123 }, "geometry": { "type": "Point", "coordinates": [ 129.311157, 35.487854, 2650.0 ] } },
{ "type": "Feature", "properties": { "value": 0.0146 }, "geometry": { "type": "Point", "coordinates": [ 129.312256, 35.48785, 2650.0 ] } },
{ "type": "Feature", "properties": { "value": 0.0169 }, "geometry": { "type": "Point", "coordinates": [ 129.313354, 35.487846, 2650.0 ] } },
{ "type": "Feature", "properties": { "value": 0.0192 }, "geometry": { "type": "Point", "coordinates": [ 129.314453, 35.487846, 2650.0 ] } },
{ "type": "Feature", "properties": { "value": 0.0212 }, "geometry": { "type": "Point", "coordinates": [ 129.315552, 35.487843, 2650.0 ] } },
{ "type": "Feature", "properties": { "value": 0.023 }, "geometry": { "type": "Point", "coordinates": [ 129.316666, 35.487839, 2650.0 ] } },
{ "type": "Feature", "properties": { "value": 0.0243 }, "geometry": { "type": "Point", "coordinates": [ 129.317764, 35.487835, 2650.0 ] } },
{ "type": "Feature", "properties": { "value": 0.0252 }, "geometry": { "type": "Point", "coordinates": [ 129.318863, 35.487835, 2650.0 ] } },
{ "type": "Feature", "properties": { "value": 0.0255 }, "geometry": { "type": "Point", "coordinates": [ 129.319962, 35.487831, 2650.0 ] } },
{ "type": "Feature", "properties": { "value": 0.0252 }, "geometry": { "type": "Point", "coordinates": [ 129.321075, 35.487827, 2650.0 ] } },
{ "type": "Feature", "properties": { "value": 0.0243 }, "geometry": { "type": "Point", "coordinates": [ 129.322174, 35.487823, 2650.0 ] } },
{ "type": "Feature", "properties": { "value": 0.023 }, "geometry": { "type": "Point", "coordinates": [ 129.323273, 35.48782, 2650.0 ] } },
{ "type": "Feature", "properties": { "value": 0.0212 }, "geometry": { "type": "Point", "coordinates": [ 129.324371, 35.48782, 2650.0 ] } },
{ "type": "Feature", "properties": { "value": 0.0192 }, "geometry": { "type": "Point", "coordinates": [ 129.32547, 35.487816, 2650.0 ] } },
{ "type": "Feature", "properties": { "value": 0.0169 }, "geometry": { "type": "Point", "coordinates": [ 129.326584, 35.487812, 2650.0 ] } },
{ "type": "Feature", "properties": { "value": 0.0146 }, "geometry": { "type": "Point", "coordinates": [ 129.327682, 35.487808, 2650.0 ] } },
{ "type": "Feature", "properties": { "value": 0.0123 }, "geometry": { "type": "Point", "coordinates": [ 129.328781, 35.487808, 2650.0 ] } },
{ "type": "Feature", "properties": { "value": 0.0101 }, "geometry": { "type": "Point", "coordinates": [ 129.32988, 35.487804, 2650.0 ] } },
{ "type": "Feature", "properties": { "value": 0.0081 }, "geometry": { "type": "Point", "coordinates": [ 129.330994, 35.487801, 2650.0 ] } },
{ "type": "Feature", "properties": { "value": 0.0064 }, "geometry": { "type": "Point", "coordinates": [ 129.332092, 35.487797, 2650.0 ] } },
{ "type": "Feature", "properties": { "value": 0.0049 }, "geometry": { "type": "Point", "coordinates": [ 129.333191, 35.487793, 2650.0 ] } },
{ "type": "Feature", "properties": { "value": 0.0032 }, "geometry": { "type": "Point", "coordinates": [ 129.33429, 35.487793, 2650.0 ] } },
{ "type": "Feature", "properties": { "value": 0.0009 }, "geometry": { "type": "Point", "coordinates": [ 129.335388, 35.487789, 2650.0 ] } },
{ "type": "Feature", "properties": { "value": 0.0038 }, "geometry": { "type": "Point", "coordinates": [ 129.30455, 35.488773, 2650.0 ] } },
{ "type": "Feature", "properties": { "value": 0.0052 }, "geometry": { "type": "Point", "coordinates": [ 129.305649, 35.48877, 2650.0 ] } },
{ "type": "Feature", "properties": { "value": 0.0069 }, "geometry": { "type": "Point", "coordinates": [ 129.306747, 35.488766, 2650.0 ] } },
{ "type": "Feature", "properties": { "value": 0.0089 }, "geometry": { "type": "Point", "coordinates": [ 129.307846, 35.488762, 2650.0 ] } },
{ "type": "Feature", "properties": { "value": 0.0113 }, "geometry": { "type": "Point", "coordinates": [ 129.308945, 35.488762, 2650.0 ] } },
{ "type": "Feature", "properties": { "value": 0.014 }, "geometry": { "type": "Point", "coordinates": [ 129.310059, 35.488758, 2650.0 ] } },
{ "type": "Feature", "properties": { "value": 0.017 }, "geometry": { "type": "Point", "coordinates": [ 129.311157, 35.488754, 2650.0 ] } },
{ "type": "Feature", "properties": { "value": 0.0202 }, "geometry": { "type": "Point", "coordinates": [ 129.312256, 35.48875, 2650.0 ] } },
{ "type": "Feature", "properties": { "value": 0.0234 }, "geometry": { "type": "Point", "coordinates": [ 129.313354, 35.48875, 2650.0 ] } },
{ "type": "Feature", "properties": { "value": 0.0265 }, "geometry": { "type": "Point", "coordinates": [ 129.314453, 35.488747, 2650.0 ] } },
{ "type": "Feature", "properties": { "value": 0.0294 }, "geometry": { "type": "Point", "coordinates": [ 129.315567, 35.488743, 2650.0 ] } },
{ "type": "Feature", "properties": { "value": 0.0318 }, "geometry": { "type": "Point", "coordinates": [ 129.316666, 35.488739, 2650.0 ] } },
{ "type": "Feature", "properties": { "value": 0.0337 }, "geometry": { "type": "Point", "coordinates": [ 129.317764, 35.488739, 2650.0 ] } },
{ "type": "Feature", "properties": { "value": 0.0348 }, "geometry": { "type": "Point", "coordinates": [ 129.318863, 35.488735, 2650.0 ] } },
{ "type": "Feature", "properties": { "value": 0.0352 }, "geometry": { "type": "Point", "coordinates": [ 129.319977, 35.488731, 2650.0 ] } },
{ "type": "Feature", "properties": { "value": 0.0348 }, "geometry": { "type": "Point", "coordinates": [ 129.321075, 35.488728, 2650.0 ] } },
{ "type": "Feature", "properties": { "value": 0.0336 }, "geometry": { "type": "Point", "coordinates": [ 129.322174, 35.488728, 2650.0 ] } },
{ "type": "Feature", "properties": { "value": 0.0318 }, "geometry": { "type": "Point", "coordinates": [ 129.323273, 35.488724, 2650.0 ] } },
{ "type": "Feature", "properties": { "value": 0.0293 }, "geometry": { "type": "Point", "coordinates": [ 129.324371, 35.48872, 2650.0 ] } },
{ "type": "Feature", "properties": { "value": 0.0265 }, "geometry": { "type": "Point", "coordinates": [ 129.325485, 35.488716, 2650.0 ] } },
{ "type": "Feature", "properties": { "value": 0.0234 }, "geometry": { "type": "Point", "coordinates": [ 129.326584, 35.488712, 2650.0 ] } },
{ "type": "Feature", "properties": { "value": 0.0201 }, "geometry": { "type": "Point", "coordinates": [ 129.327682, 35.488712, 2650.0 ] } },
{ "type": "Feature", "properties": { "value": 0.017 }, "geometry": { "type": "Point", "coordinates": [ 129.328781, 35.488708, 2650.0 ] } },
{ "type": "Feature", "properties": { "value": 0.014 }, "geometry": { "type": "Point", "coordinates": [ 129.329895, 35.488705, 2650.0 ] } },
{ "type": "Feature", "properties": { "value": 0.0112 }, "geometry": { "type": "Point", "coordinates": [ 129.330994, 35.488701, 2650.0 ] } },
{ "type": "Feature", "properties": { "value": 0.0089 }, "geometry": { "type": "Point", "coordinates": [ 129.332092, 35.488697, 2650.0 ] } },
{ "type": "Feature", "properties": { "value": 0.0068 }, "geometry": { "type": "Point", "coordinates": [ 129.333191, 35.488697, 2650.0 ] } },
{ "type": "Feature", "properties": { "value": 0.0051 }, "geometry": { "type": "Point", "coordinates": [ 129.33429, 35.488693, 2650.0 ] } },
{ "type": "Feature", "properties": { "value": 0.0033 }, "geometry": { "type": "Point", "coordinates": [ 129.335403, 35.488689, 2650.0 ] } },
{ "type": "Feature", "properties": { "value": 0.0009 }, "geometry": { "type": "Point", "coordinates": [ 129.336502, 35.488686, 2650.0 ] } },
{ "type": "Feature", "properties": { "value": 0.0037 }, "geometry": { "type": "Point", "coordinates": [ 129.303452, 35.489677, 2650.0 ] } },
{ "type": "Feature", "properties": { "value": 0.0052 }, "geometry": { "type": "Point", "coordinates": [ 129.30455, 35.489674, 2650.0 ] } },
{ "type": "Feature", "properties": { "value": 0.007 }, "geometry": { "type": "Point", "coordinates": [ 129.305649, 35.48967, 2650.0 ] } },
{ "type": "Feature", "properties": { "value": 0.0093 }, "geometry": { "type": "Point", "coordinates": [ 129.306747, 35.489666, 2650.0 ] } },
{ "type": "Feature", "properties": { "value": 0.0121 }, "geometry": { "type": "Point", "coordinates": [ 129.307846, 35.489666, 2650.0 ] } },
{ "type": "Feature", "properties": { "value": 0.0153 }, "geometry": { "type": "Point", "coordinates": [ 129.30896, 35.489662, 2650.0 ] } },
{ "type": "Feature", "properties": { "value": 0.019 }, "geometry": { "type": "Point", "coordinates": [ 129.310059, 35.489658, 2650.0 ] } },
{ "type": "Feature", "properties": { "value": 0.023 }, "geometry": { "type": "Point", "coordinates": [ 129.311157, 35.489655, 2650.0 ] } },
{ "type": "Feature", "properties": { "value": 0.0273 }, "geometry": { "type": "Point", "coordinates": [ 129.312256, 35.489655, 2650.0 ] } },
{ "type": "Feature", "properties": { "value": 0.0316 }, "geometry": { "type": "Point", "coordinates": [ 129.313354, 35.489651, 2650.0 ] } },
{ "type": "Feature", "properties": { "value": 0.0358 }, "geometry": { "type": "Point", "coordinates": [ 129.314468, 35.489647, 2650.0 ] } },
{ "type": "Feature", "properties": { "value": 0.0397 }, "geometry": { "type": "Point", "coordinates": [ 129.315567, 35.489643, 2650.0 ] } },
{ "type": "Feature", "properties": { "value": 0.043 }, "geometry": { "type": "Point", "coordinates": [ 129.316666, 35.489643, 2650.0 ] } },
{ "type": "Feature", "properties": { "value": 0.0455 }, "geometry": { "type": "Point", "coordinates": [ 129.317764, 35.489639, 2650.0 ] } },
{ "type": "Feature", "properties": { "value": 0.0471 }, "geometry": { "type": "Point", "coordinates": [ 129.318878, 35.489635, 2650.0 ] } },
{ "type": "Feature", "properties": { "value": 0.0476 }, "geometry": { "type": "Point", "coordinates": [ 129.319977, 35.489632, 2650.0 ] } },
{ "type": "Feature", "properties": { "value": 0.047 }, "geometry": { "type": "Point", "coordinates": [ 129.321075, 35.489632, 2650.0 ] } },
{ "type": "Feature", "properties": { "value": 0.0455 }, "geometry": { "type": "Point", "coordinates": [ 129.322174, 35.489628, 2650.0 ] } },
{ "type": "Feature", "properties": { "value": 0.0429 }, "geometry": { "type": "Point", "coordinates": [ 129.323273, 35.489624, 2650.0 ] } },
{ "type": "Feature", "properties": { "value": 0.0396 }, "geometry": { "type": "Point", "coordinates": [ 129.324387, 35.48962, 2650.0 ] } },
{ "type": "Feature", "properties": { "value": 0.0358 }, "geometry": { "type": "Point", "coordinates": [ 129.325485, 35.489616, 2650.0 ] } },
{ "type": "Feature", "properties": { "value": 0.0316 }, "geometry": { "type": "Point", "coordinates": [ 129.326584, 35.489616, 2650.0 ] } },
{ "type": "Feature", "properties": { "value": 0.0272 }, "geometry": { "type": "Point", "coordinates": [ 129.327682, 35.489613, 2650.0 ] } },
{ "type": "Feature", "properties": { "value": 0.0229 }, "geometry": { "type": "Point", "coordinates": [ 129.328796, 35.489609, 2650.0 ] } },
{ "type": "Feature", "properties": { "value": 0.0189 }, "geometry": { "type": "Point", "coordinates": [ 129.329895, 35.489605, 2650.0 ] } },
{ "type": "Feature", "properties": { "value": 0.0152 }, "geometry": { "type": "Point", "coordinates": [ 129.330994, 35.489605, 2650.0 ] } },
{ "type": "Feature", "properties": { "value": 0.012 }, "geometry": { "type": "Point", "coordinates": [ 129.332092, 35.489601, 2650.0 ] } },
{ "type": "Feature", "properties": { "value": 0.0092 }, "geometry": { "type": "Point", "coordinates": [ 129.333191, 35.489597, 2650.0 ] } },
{ "type": "Feature", "properties": { "value": 0.0069 }, "geometry": { "type": "Point", "coordinates": [ 129.334305, 35.489594, 2650.0 ] } },
{ "type": "Feature", "properties": { "value": 0.0051 }, "geometry": { "type": "Point", "coordinates": [ 129.335403, 35.48959, 2650.0 ] } },
{ "type": "Feature", "properties": { "value": 0.0032 }, "geometry": { "type": "Point", "coordinates": [ 129.336502, 35.48959, 2650.0 ] } },
{ "type": "Feature", "properties": { "value": 0.0003 }, "geometry": { "type": "Point", "coordinates": [ 129.337601, 35.489586, 2650.0 ] } },
{ "type": "Feature", "properties": { "value": 0.0026 }, "geometry": { "type": "Point", "coordinates": [ 129.302353, 35.490582, 2650.0 ] } },
{ "type": "Feature", "properties": { "value": 0.0049 }, "geometry": { "type": "Point", "coordinates": [ 129.303452, 35.490578, 2650.0 ] } },
{ "type": "Feature", "properties": { "value": 0.0068 }, "geometry": { "type": "Point", "coordinates": [ 129.30455, 35.490574, 2650.0 ] } },
{ "type": "Feature", "properties": { "value": 0.0092 }, "geometry": { "type": "Point", "coordinates": [ 129.305649, 35.49057, 2650.0 ] } },
{ "type": "Feature", "properties": { "value": 0.0123 }, "geometry": { "type": "Point", "coordinates": [ 129.306747, 35.49057, 2650.0 ] } },
{ "type": "Feature", "properties": { "value": 0.0159 }, "geometry": { "type": "Point", "coordinates": [ 129.307861, 35.490566, 2650.0 ] } },
{ "type": "Feature", "properties": { "value": 0.0202 }, "geometry": { "type": "Point", "coordinates": [ 129.30896, 35.490562, 2650.0 ] } },
{ "type": "Feature", "properties": { "value": 0.0251 }, "geometry": { "type": "Point", "coordinates": [ 129.310059, 35.490559, 2650.0 ] } },
{ "type": "Feature", "properties": { "value": 0.0304 }, "geometry": { "type": "Point", "coordinates": [ 129.311157, 35.490559, 2650.0 ] } },
{ "type": "Feature", "properties": { "value": 0.0361 }, "geometry": { "type": "Point", "coordinates": [ 129.312271, 35.490555, 2650.0 ] } },
{ "type": "Feature", "properties": { "value": 0.0418 }, "geometry": { "type": "Point", "coordinates": [ 129.31337, 35.490551, 2650.0 ] } },
{ "type": "Feature", "properties": { "value": 0.0473 }, "geometry": { "type": "Point", "coordinates": [ 129.314468, 35.490547, 2650.0 ] } },
{ "type": "Feature", "properties": { "value": 0.0524 }, "geometry": { "type": "Point", "coordinates": [ 129.315567, 35.490547, 2650.0 ] } },
{ "type": "Feature", "properties": { "value": 0.0568 }, "geometry": { "type": "Point", "coordinates": [ 129.316666, 35.490543, 2650.0 ] } },
{ "type": "Feature", "properties": { "value": 0.0601 }, "geometry": { "type": "Point", "coordinates": [ 129.31778, 35.49054, 2650.0 ] } },
{ "type": "Feature", "properties": { "value": 0.0622 }, "geometry": { "type": "Point", "coordinates": [ 129.318878, 35.490536, 2650.0 ] } },
{ "type": "Feature", "properties": { "value": 0.0629 }, "geometry": { "type": "Point", "coordinates": [ 129.319977, 35.490536, 2650.0 ] } },
{ "type": "Feature", "properties": { "value": 0.0621 }, "geometry": { "type": "Point", "coordinates": [ 129.321075, 35.490532, 2650.0 ] } },
{ "type": "Feature", "properties": { "value": 0.06 }, "geometry": { "type": "Point", "coordinates": [ 129.322174, 35.490528, 2650.0 ] } },
{ "type": "Feature", "properties": { "value": 0.0567 }, "geometry": { "type": "Point", "coordinates": [ 129.323288, 35.490524, 2650.0 ] } },
{ "type": "Feature", "properties": { "value": 0.0524 }, "geometry": { "type": "Point", "coordinates": [ 129.324387, 35.490524, 2650.0 ] } },
{ "type": "Feature", "properties": { "value": 0.0472 }, "geometry": { "type": "Point", "coordinates": [ 129.325485, 35.49052, 2650.0 ] } },
{ "type": "Feature", "properties": { "value": 0.0417 }, "geometry": { "type": "Point", "coordinates": [ 129.326584, 35.490517, 2650.0 ] } },
{ "type": "Feature", "properties": { "value": 0.0359 }, "geometry": { "type": "Point", "coordinates": [ 129.327698, 35.490513, 2650.0 ] } },
{ "type": "Feature", "properties": { "value": 0.0303 }, "geometry": { "type": "Point", "coordinates": [ 129.328796, 35.490509, 2650.0 ] } },
{ "type": "Feature", "properties": { "value": 0.0249 }, "geometry": { "type": "Point", "coordinates": [ 129.329895, 35.490509, 2650.0 ] } },
{ "type": "Feature", "properties": { "value": 0.0201 }, "geometry": { "type": "Point", "coordinates": [ 129.330994, 35.490505, 2650.0 ] } },
{ "type": "Feature", "properties": { "value": 0.0158 }, "geometry": { "type": "Point", "coordinates": [ 129.332092, 35.490501, 2650.0 ] } },
{ "type": "Feature", "properties": { "value": 0.0121 }, "geometry": { "type": "Point", "coordinates": [ 129.333206, 35.490498, 2650.0 ] } },
{ "type": "Feature", "properties": { "value": 0.0091 }, "geometry": { "type": "Point", "coordinates": [ 129.334305, 35.490494, 2650.0 ] } },
{ "type": "Feature", "properties": { "value": 0.0067 }, "geometry": { "type": "Point", "coordinates": [ 129.335403, 35.490494, 2650.0 ] } },
{ "type": "Feature", "properties": { "value": 0.0048 }, "geometry": { "type": "Point", "coordinates": [ 129.336502, 35.49049, 2650.0 ] } },
{ "type": "Feature", "properties": { "value": 0.0024 }, "geometry": { "type": "Point", "coordinates": [ 129.337616, 35.490486, 2650.0 ] } },
{ "type": "Feature", "properties": { "value": 0.0006 }, "geometry": { "type": "Point", "coordinates": [ 129.301254, 35.491486, 2650.0 ] } },
{ "type": "Feature", "properties": { "value": 0.0045 }, "geometry": { "type": "Point", "coordinates": [ 129.302353, 35.491482, 2650.0 ] } },
{ "type": "Feature", "properties": { "value": 0.0063 }, "geometry": { "type": "Point", "coordinates": [ 129.303452, 35.491478, 2650.0 ] } },
{ "type": "Feature", "properties": { "value": 0.0088 }, "geometry": { "type": "Point", "coordinates": [ 129.30455, 35.491474, 2650.0 ] } },
{ "type": "Feature", "properties": { "value": 0.012 }, "geometry": { "type": "Point", "coordinates": [ 129.305649, 35.491474, 2650.0 ] } },
{ "type": "Feature", "properties": { "value": 0.0159 }, "geometry": { "type": "Point", "coordinates": [ 129.306763, 35.49147, 2650.0 ] } },
{ "type": "Feature", "properties": { "value": 0.0206 }, "geometry": { "type": "Point", "coordinates": [ 129.307861, 35.491467, 2650.0 ] } },
{ "type": "Feature", "properties": { "value": 0.0261 }, "geometry": { "type": "Point", "coordinates": [ 129.30896, 35.491463, 2650.0 ] } },
{ "type": "Feature", "properties": { "value": 0.0324 }, "geometry": { "type": "Point", "coordinates": [ 129.310059, 35.491463, 2650.0 ] } },
{ "type": "Feature", "properties": { "value": 0.0393 }, "geometry": { "type": "Point", "coordinates": [ 129.311172, 35.491459, 2650.0 ] } },
{ "type": "Feature", "properties": { "value": 0.0466 }, "geometry": { "type": "Point", "coordinates": [ 129.312271, 35.491455, 2650.0 ] } },
{ "type": "Feature", "properties": { "value": 0.054 }, "geometry": { "type": "Point", "coordinates": [ 129.31337, 35.491451, 2650.0 ] } },
{ "type": "Feature", "properties": { "value": 0.0611 }, "geometry": { "type": "Point", "coordinates": [ 129.314468, 35.491451, 2650.0 ] } },
{ "type": "Feature", "properties": { "value": 0.0677 }, "geometry": { "type": "Point", "coordinates": [ 129.315567, 35.491447, 2650.0 ] } },
{ "type": "Feature", "properties": { "value": 0.0733 }, "geometry": { "type": "Point", "coordinates": [ 129.316681, 35.491444, 2650.0 ] } },
{ "type": "Feature", "properties": { "value": 0.0776 }, "geometry": { "type": "Point", "coordinates": [ 129.31778, 35.49144, 2650.0 ] } },
{ "type": "Feature", "properties": { "value": 0.0803 }, "geometry": { "type": "Point", "coordinates": [ 129.318878, 35.49144, 2650.0 ] } },
{ "type": "Feature", "properties": { "value": 0.0812 }, "geometry": { "type": "Point", "coordinates": [ 129.319977, 35.491436, 2650.0 ] } },
{ "type": "Feature", "properties": { "value": 0.0802 }, "geometry": { "type": "Point", "coordinates": [ 129.321091, 35.491432, 2650.0 ] } },
{ "type": "Feature", "properties": { "value": 0.0775 }, "geometry": { "type": "Point", "coordinates": [ 129.322189, 35.491428, 2650.0 ] } },
{ "type": "Feature", "properties": { "value": 0.0732 }, "geometry": { "type": "Point", "coordinates": [ 129.323288, 35.491428, 2650.0 ] } },
{ "type": "Feature", "properties": { "value": 0.0676 }, "geometry": { "type": "Point", "coordinates": [ 129.324387, 35.491425, 2650.0 ] } },
{ "type": "Feature", "properties": { "value": 0.061 }, "geometry": { "type": "Point", "coordinates": [ 129.325485, 35.491421, 2650.0 ] } },
{ "type": "Feature", "properties": { "value": 0.0538 }, "geometry": { "type": "Point", "coordinates": [ 129.326599, 35.491417, 2650.0 ] } },
{ "type": "Feature", "properties": { "value": 0.0464 }, "geometry": { "type": "Point", "coordinates": [ 129.327698, 35.491413, 2650.0 ] } },
{ "type": "Feature", "properties": { "value": 0.0391 }, "geometry": { "type": "Point", "coordinates": [ 129.328796, 35.491413, 2650.0 ] } },
{ "type": "Feature", "properties": { "value": 0.0322 }, "geometry": { "type": "Point", "coordinates": [ 129.329895, 35.491409, 2650.0 ] } },
{ "type": "Feature", "properties": { "value": 0.0259 }, "geometry": { "type": "Point", "coordinates": [ 129.331009, 35.491405, 2650.0 ] } },
{ "type": "Feature", "properties": { "value": 0.0204 }, "geometry": { "type": "Point", "coordinates": [ 129.332108, 35.491402, 2650.0 ] } },
{ "type": "Feature", "properties": { "value": 0.0157 }, "geometry": { "type": "Point", "coordinates": [ 129.333206, 35.491398, 2650.0 ] } },
{ "type": "Feature", "properties": { "value": 0.0118 }, "geometry": { "type": "Point", "coordinates": [ 129.334305, 35.491398, 2650.0 ] } },
{ "type": "Feature", "properties": { "value": 0.0087 }, "geometry": { "type": "Point", "coordinates": [ 129.335403, 35.491394, 2650.0 ] } },
{ "type": "Feature", "properties": { "value": 0.0062 }, "geometry": { "type": "Point", "coordinates": [ 129.336517, 35.49139, 2650.0 ] } },
{ "type": "Feature", "properties": { "value": 0.0044 }, "geometry": { "type": "Point", "coordinates": [ 129.337616, 35.491386, 2650.0 ] } },
{ "type": "Feature", "properties": { "value": 0.0016 }, "geometry": { "type": "Point", "coordinates": [ 129.338715, 35.491383, 2650.0 ] } },
{ "type": "Feature", "properties": { "value": 0.004 }, "geometry": { "type": "Point", "coordinates": [ 129.301254, 35.492386, 2650.0 ] } },
{ "type": "Feature", "properties": { "value": 0.0057 }, "geometry": { "type": "Point", "coordinates": [ 129.302353, 35.492382, 2650.0 ] } },
{ "type": "Feature", "properties": { "value": 0.008 }, "geometry": { "type": "Point", "coordinates": [ 129.303452, 35.492378, 2650.0 ] } },
{ "type": "Feature", "properties": { "value": 0.0111 }, "geometry": { "type": "Point", "coordinates": [ 129.30455, 35.492378, 2650.0 ] } },
{ "type": "Feature", "properties": { "value": 0.0151 }, "geometry": { "type": "Point", "coordinates": [ 129.305664, 35.492374, 2650.0 ] } },
{ "type": "Feature", "properties": { "value": 0.02 }, "geometry": { "type": "Point", "coordinates": [ 129.306763, 35.492371, 2650.0 ] } },
{ "type": "Feature", "properties": { "value": 0.026 }, "geometry": { "type": "Point", "coordinates": [ 129.307861, 35.492367, 2650.0 ] } },
{ "type": "Feature", "properties": { "value": 0.033 }, "geometry": { "type": "Point", "coordinates": [ 129.30896, 35.492367, 2650.0 ] } },
{ "type": "Feature", "properties": { "value": 0.0409 }, "geometry": { "type": "Point", "coordinates": [ 129.310074, 35.492363, 2650.0 ] } },
{ "type": "Feature", "properties": { "value": 0.0496 }, "geometry": { "type": "Point", "coordinates": [ 129.311172, 35.492359, 2650.0 ] } },
{ "type": "Feature", "properties": { "value": 0.0588 }, "geometry": { "type": "Point", "coordinates": [ 129.312271, 35.492355, 2650.0 ] } },
{ "type": "Feature", "properties": { "value": 0.0681 }, "geometry": { "type": "Point", "coordinates": [ 129.31337, 35.492355, 2650.0 ] } },
{ "type": "Feature", "properties": { "value": 0.0772 }, "geometry": { "type": "Point", "coordinates": [ 129.314468, 35.492352, 2650.0 ] } },
{ "type": "Feature", "properties": { "value": 0.0855 }, "geometry": { "type": "Point", "coordinates": [ 129.315582, 35.492348, 2650.0 ] } },
{ "type": "Feature", "properties": { "value": 0.0925 }, "geometry": { "type": "Point", "coordinates": [ 129.316681, 35.492344, 2650.0 ] } },
{ "type": "Feature", "properties": { "value": 0.0979 }, "geometry": { "type": "Point", "coordinates": [ 129.31778, 35.492344, 2650.0 ] } },
{ "type": "Feature", "properties": { "value": 0.1013 }, "geometry": { "type": "Point", "coordinates": [ 129.318878, 35.49234, 2650.0 ] } },
{ "type": "Feature", "properties": { "value": 0.1024 }, "geometry": { "type": "Point", "coordinates": [ 129.319992, 35.492336, 2650.0 ] } },
{ "type": "Feature", "properties": { "value": 0.1012 }, "geometry": { "type": "Point", "coordinates": [ 129.321091, 35.492332, 2650.0 ] } },
{ "type": "Feature", "properties": { "value": 0.0978 }, "geometry": { "type": "Point", "coordinates": [ 129.322189, 35.492332, 2650.0 ] } },
{ "type": "Feature", "properties": { "value": 0.0924 }, "geometry": { "type": "Point", "coordinates": [ 129.323288, 35.492329, 2650.0 ] } },
{ "type": "Feature", "properties": { "value": 0.0853 }, "geometry": { "type": "Point", "coordinates": [ 129.324387, 35.492325, 2650.0 ] } },
{ "type": "Feature", "properties": { "value": 0.0769 }, "geometry": { "type": "Point", "coordinates": [ 129.3255, 35.492321, 2650.0 ] } },
{ "type": "Feature", "properties": { "value": 0.0679 }, "geometry": { "type": "Point", "coordinates": [ 129.326599, 35.492317, 2650.0 ] } },
{ "type": "Feature", "properties": { "value": 0.0585 }, "geometry": { "type": "Point", "coordinates": [ 129.327698, 35.492317, 2650.0 ] } },
{ "type": "Feature", "properties": { "value": 0.0493 }, "geometry": { "type": "Point", "coordinates": [ 129.328796, 35.492313, 2650.0 ] } },
{ "type": "Feature", "properties": { "value": 0.0406 }, "geometry": { "type": "Point", "coordinates": [ 129.32991, 35.49231, 2650.0 ] } },
{ "type": "Feature", "properties": { "value": 0.0327 }, "geometry": { "type": "Point", "coordinates": [ 129.331009, 35.492306, 2650.0 ] } },
{ "type": "Feature", "properties": { "value": 0.0257 }, "geometry": { "type": "Point", "coordinates": [ 129.332108, 35.492306, 2650.0 ] } },
{ "type": "Feature", "properties": { "value": 0.0198 }, "geometry": { "type": "Point", "coordinates": [ 129.333206, 35.492302, 2650.0 ] } },
{ "type": "Feature", "properties": { "value": 0.0149 }, "geometry": { "type": "Point", "coordinates": [ 129.334305, 35.492298, 2650.0 ] } },
{ "type": "Feature", "properties": { "value": 0.0109 }, "geometry": { "type": "Point", "coordinates": [ 129.335419, 35.492294, 2650.0 ] } },
{ "type": "Feature", "properties": { "value": 0.0078 }, "geometry": { "type": "Point", "coordinates": [ 129.336517, 35.49229, 2650.0 ] } },
{ "type": "Feature", "properties": { "value": 0.0055 }, "geometry": { "type": "Point", "coordinates": [ 129.337616, 35.49229, 2650.0 ] } },
{ "type": "Feature", "properties": { "value": 0.0032 }, "geometry": { "type": "Point", "coordinates": [ 129.338715, 35.492287, 2650.0 ] } },
{ "type": "Feature", "properties": { "value": 0.0023 }, "geometry": { "type": "Point", "coordinates": [ 129.300156, 35.49329, 2650.0 ] } },
{ "type": "Feature", "properties": { "value": 0.005 }, "geometry": { "type": "Point", "coordinates": [ 129.301254, 35.493286, 2650.0 ] } },
{ "type": "Feature", "properties": { "value": 0.0072 }, "geometry": { "type": "Point", "coordinates": [ 129.302353, 35.493282, 2650.0 ] } },
{ "type": "Feature", "properties": { "value": 0.0101 }, "geometry": { "type": "Point", "coordinates": [ 129.303452, 35.493282, 2650.0 ] } },
{ "type": "Feature", "properties": { "value": 0.0139 }, "geometry": { "type": "Point", "coordinates": [ 129.304565, 35.493279, 2650.0 ] } },
{ "type": "Feature", "properties": { "value": 0.0186 }, "geometry": { "type": "Point", "coordinates": [ 129.305664, 35.493275, 2650.0 ] } },
{ "type": "Feature", "properties": { "value": 0.0247 }, "geometry": { "type": "Point", "coordinates": [ 129.306763, 35.493271, 2650.0 ] } },
{ "type": "Feature", "properties": { "value": 0.0321 }, "geometry": { "type": "Point", "coordinates": [ 129.307861, 35.493271, 2650.0 ] } },
{ "type": "Feature", "properties": { "value": 0.0407 }, "geometry": { "type": "Point", "coordinates": [ 129.308975, 35.493267, 2650.0 ] } },
{ "type": "Feature", "properties": { "value": 0.0505 }, "geometry": { "type": "Point", "coordinates": [ 129.310074, 35.493263, 2650.0 ] } },
{ "type": "Feature", "properties": { "value": 0.0612 }, "geometry": { "type": "Point", "coordinates": [ 129.311172, 35.493259, 2650.0 ] } },
{ "type": "Feature", "properties": { "value": 0.0726 }, "geometry": { "type": "Point", "coordinates": [ 129.312271, 35.493259, 2650.0 ] } },
{ "type": "Feature", "properties": { "value": 0.0841 }, "geometry": { "type": "Point", "coordinates": [ 129.31337, 35.493256, 2650.0 ] } },
{ "type": "Feature", "properties": { "value": 0.0953 }, "geometry": { "type": "Point", "coordinates": [ 129.314484, 35.493252, 2650.0 ] } },
{ "type": "Feature", "properties": { "value": 0.1055 }, "geometry": { "type": "Point", "coordinates": [ 129.315582, 35.493248, 2650.0 ] } },
{ "type": "Feature", "properties": { "value": 0.1142 }, "geometry": { "type": "Point", "coordinates": [ 129.316681, 35.493248, 2650.0 ] } },
{ "type": "Feature", "properties": { "value": 0.1208 }, "geometry": { "type": "Point", "coordinates": [ 129.31778, 35.493244, 2650.0 ] } },
{ "type": "Feature", "properties": { "value": 0.125 }, "geometry": { "type": "Point", "coordinates": [ 129.318893, 35.49324, 2650.0 ] } },
{ "type": "Feature", "properties": { "value": 0.1264 }, "geometry": { "type": "Point", "coordinates": [ 129.319992, 35.493237, 2650.0 ] } },
{ "type": "Feature", "properties": { "value": 0.1249 }, "geometry": { "type": "Point", "coordinates": [ 129.321091, 35.493237, 2650.0 ] } },
{ "type": "Feature", "properties": { "value": 0.1207 }, "geometry": { "type": "Point", "coordinates": [ 129.322189, 35.493233, 2650.0 ] } },
{ "type": "Feature", "properties": { "value": 0.1139 }, "geometry": { "type": "Point", "coordinates": [ 129.323288, 35.493229, 2650.0 ] } },
{ "type": "Feature", "properties": { "value": 0.1052 }, "geometry": { "type": "Point", "coordinates": [ 129.324402, 35.493225, 2650.0 ] } },
{ "type": "Feature", "properties": { "value": 0.0949 }, "geometry": { "type": "Point", "coordinates": [ 129.3255, 35.493225, 2650.0 ] } },
{ "type": "Feature", "properties": { "value": 0.0837 }, "geometry": { "type": "Point", "coordinates": [ 129.326599, 35.493221, 2650.0 ] } },
{ "type": "Feature", "properties": { "value": 0.0721 }, "geometry": { "type": "Point", "coordinates": [ 129.327698, 35.493217, 2650.0 ] } },
{ "type": "Feature", "properties": { "value": 0.0608 }, "geometry": { "type": "Point", "coordinates": [ 129.328812, 35.493214, 2650.0 ] } },
{ "type": "Feature", "properties": { "value": 0.0501 }, "geometry": { "type": "Point", "coordinates": [ 129.32991, 35.49321, 2650.0 ] } },
{ "type": "Feature", "properties": { "value": 0.0403 }, "geometry": { "type": "Point", "coordinates": [ 129.331009, 35.49321, 2650.0 ] } },
{ "type": "Feature", "properties": { "value": 0.0317 }, "geometry": { "type": "Point", "coordinates": [ 129.332108, 35.493206, 2650.0 ] } },
{ "type": "Feature", "properties": { "value": 0.0244 }, "geometry": { "type": "Point", "coordinates": [ 129.333206, 35.493202, 2650.0 ] } },
{ "type": "Feature", "properties": { "value": 0.0183 }, "geometry": { "type": "Point", "coordinates": [ 129.33432, 35.493198, 2650.0 ] } },
{ "type": "Feature", "properties": { "value": 0.0135 }, "geometry": { "type": "Point", "coordinates": [ 129.335419, 35.493195, 2650.0 ] } },
{ "type": "Feature", "properties": { "value": 0.0097 }, "geometry": { "type": "Point", "coordinates": [ 129.336517, 35.493195, 2650.0 ] } },
{ "type": "Feature", "properties": { "value": 0.0068 }, "geometry": { "type": "Point", "coordinates": [ 129.337616, 35.493191, 2650.0 ] } },
{ "type": "Feature", "properties": { "value": 0.0047 }, "geometry": { "type": "Point", "coordinates": [ 129.33873, 35.493187, 2650.0 ] } },
{ "type": "Feature", "properties": { "value": 0.0016 }, "geometry": { "type": "Point", "coordinates": [ 129.339828, 35.493183, 2650.0 ] } },
{ "type": "Feature", "properties": { "value": 0.0041 }, "geometry": { "type": "Point", "coordinates": [ 129.300156, 35.49419, 2650.0 ] } },
{ "type": "Feature", "properties": { "value": 0.0061 }, "geometry": { "type": "Point", "coordinates": [ 129.301254, 35.494186, 2650.0 ] } },
{ "type": "Feature", "properties": { "value": 0.0088 }, "geometry": { "type": "Point", "coordinates": [ 129.302353, 35.494186, 2650.0 ] } },
{ "type": "Feature", "properties": { "value": 0.0123 }, "geometry": { "type": "Point", "coordinates": [ 129.303467, 35.494183, 2650.0 ] } },
{ "type": "Feature", "properties": { "value": 0.0169 }, "geometry": { "type": "Point", "coordinates": [ 129.304565, 35.494179, 2650.0 ] } },
{ "type": "Feature", "properties": { "value": 0.0228 }, "geometry": { "type": "Point", "coordinates": [ 129.305664, 35.494175, 2650.0 ] } },
{ "type": "Feature", "properties": { "value": 0.03 }, "geometry": { "type": "Point", "coordinates": [ 129.306763, 35.494175, 2650.0 ] } },
{ "type": "Feature", "properties": { "value": 0.0388 }, "geometry": { "type": "Point", "coordinates": [ 129.307877, 35.494171, 2650.0 ] } },
{ "type": "Feature", "properties": { "value": 0.0492 }, "geometry": { "type": "Point", "coordinates": [ 129.308975, 35.494167, 2650.0 ] } },
{ "type": "Feature", "properties": { "value": 0.061 }, "geometry": { "type": "Point", "coordinates": [ 129.310074, 35.494164, 2650.0 ] } },
{ "type": "Feature", "properties": { "value": 0.0739 }, "geometry": { "type": "Point", "coordinates": [ 129.311172, 35.494164, 2650.0 ] } },
{ "type": "Feature", "properties": { "value": 0.0876 }, "geometry": { "type": "Point", "coordinates": [ 129.312271, 35.49416, 2650.0 ] } },
{ "type": "Feature", "properties": { "value": 0.1015 }, "geometry": { "type": "Point", "coordinates": [ 129.313385, 35.494156, 2650.0 ] } },
{ "type": "Feature", "properties": { "value": 0.1149 }, "geometry": { "type": "Point", "coordinates": [ 129.314484, 35.494152, 2650.0 ] } },
{ "type": "Feature", "properties": { "value": 0.1272 }, "geometry": { "type": "Point", "coordinates": [ 129.315582, 35.494152, 2650.0 ] } },
{ "type": "Feature", "properties": { "value": 0.1377 }, "geometry": { "type": "Point", "coordinates": [ 129.316681, 35.494148, 2650.0 ] } },
{ "type": "Feature", "properties": { "value": 0.1457 }, "geometry": { "type": "Point", "coordinates": [ 129.317795, 35.494144, 2650.0 ] } },
{ "type": "Feature", "properties": { "value": 0.1507 }, "geometry": { "type": "Point", "coordinates": [ 129.318893, 35.494141, 2650.0 ] } },
{ "type": "Feature", "properties": { "value": 0.1524 }, "geometry": { "type": "Point", "coordinates": [ 129.319992, 35.494141, 2650.0 ] } },
{ "type": "Feature", "properties": { "value": 0.1506 }, "geometry": { "type": "Point", "coordinates": [ 129.321091, 35.494137, 2650.0 ] } },
{ "type": "Feature", "properties": { "value": 0.1455 }, "geometry": { "type": "Point", "coordinates": [ 129.322189, 35.494133, 2650.0 ] } },
{ "type": "Feature", "properties": { "value": 0.1374 }, "geometry": { "type": "Point", "coordinates": [ 129.323303, 35.494129, 2650.0 ] } },
{ "type": "Feature", "properties": { "value": 0.1268 }, "geometry": { "type": "Point", "coordinates": [ 129.324402, 35.494129, 2650.0 ] } },
{ "type": "Feature", "properties": { "value": 0.1144 }, "geometry": { "type": "Point", "coordinates": [ 129.3255, 35.494125, 2650.0 ] } },
{ "type": "Feature", "properties": { "value": 0.1009 }, "geometry": { "type": "Point", "coordinates": [ 129.326599, 35.494122, 2650.0 ] } },
{ "type": "Feature", "properties": { "value": 0.087 }, "geometry": { "type": "Point", "coordinates": [ 129.327713, 35.494118, 2650.0 ] } },
{ "type": "Feature", "properties": { "value": 0.0733 }, "geometry": { "type": "Point", "coordinates": [ 129.328812, 35.494114, 2650.0 ] } },
{ "type": "Feature", "properties": { "value": 0.0604 }, "geometry": { "type": "Point", "coordinates": [ 129.32991, 35.494114, 2650.0 ] } },
{ "type": "Feature", "properties": { "value": 0.0486 }, "geometry": { "type": "Point", "coordinates": [ 129.331009, 35.49411, 2650.0 ] } },
{ "type": "Feature", "properties": { "value": 0.0382 }, "geometry": { "type": "Point", "coordinates": [ 129.332108, 35.494106, 2650.0 ] } },
{ "type": "Feature", "properties": { "value": 0.0294 }, "geometry": { "type": "Point", "coordinates": [ 129.333221, 35.494102, 2650.0 ] } },
{ "type": "Feature", "properties": { "value": 0.0221 }, "geometry": { "type": "Point", "coordinates": [ 129.33432, 35.494099, 2650.0 ] } },
{ "type": "Feature", "properties": { "value": 0.0162 }, "geometry": { "type": "Point", "coordinates": [ 129.335419, 35.494099, 2650.0 ] } },
{ "type": "Feature", "properties": { "value": 0.0117 }, "geometry": { "type": "Point", "coordinates": [ 129.336517, 35.494095, 2650.0 ] } },
{ "type": "Feature", "properties": { "value": 0.0082 }, "geometry": { "type": "Point", "coordinates": [ 129.337631, 35.494091, 2650.0 ] } },
{ "type": "Feature", "properties": { "value": 0.0056 }, "geometry": { "type": "Point", "coordinates": [ 129.33873, 35.494087, 2650.0 ] } },
{ "type": "Feature", "properties": { "value": 0.0038 }, "geometry": { "type": "Point", "coordinates": [ 129.339828, 35.494083, 2650.0 ] } },
{ "type": "Feature", "properties": { "value": 0.0019 }, "geometry": { "type": "Point", "coordinates": [ 129.299057, 35.495094, 2650.0 ] } },
{ "type": "Feature", "properties": { "value": 0.0049 }, "geometry": { "type": "Point", "coordinates": [ 129.300156, 35.49509, 2650.0 ] } },
{ "type": "Feature", "properties": { "value": 0.0072 }, "geometry": { "type": "Point", "coordinates": [ 129.301254, 35.49509, 2650.0 ] } },
{ "type": "Feature", "properties": { "value": 0.0103 }, "geometry": { "type": "Point", "coordinates": [ 129.302368, 35.495087, 2650.0 ] } },
{ "type": "Feature", "properties": { "value": 0.0146 }, "geometry": { "type": "Point", "coordinates": [ 129.303467, 35.495083, 2650.0 ] } },
{ "type": "Feature", "properties": { "value": 0.0201 }, "geometry": { "type": "Point", "coordinates": [ 129.304565, 35.495079, 2650.0 ] } },
{ "type": "Feature", "properties": { "value": 0.0271 }, "geometry": { "type": "Point", "coordinates": [ 129.305664, 35.495079, 2650.0 ] } },
{ "type": "Feature", "properties": { "value": 0.0357 }, "geometry": { "type": "Point", "coordinates": [ 129.306778, 35.495075, 2650.0 ] } },
{ "type": "Feature", "properties": { "value": 0.046 }, "geometry": { "type": "Point", "coordinates": [ 129.307877, 35.495071, 2650.0 ] } },
{ "type": "Feature", "properties": { "value": 0.058 }, "geometry": { "type": "Point", "coordinates": [ 129.308975, 35.495068, 2650.0 ] } },
{ "type": "Feature", "properties": { "value": 0.0719 }, "geometry": { "type": "Point", "coordinates": [ 129.310074, 35.495068, 2650.0 ] } },
{ "type": "Feature", "properties": { "value": 0.0872 }, "geometry": { "type": "Point", "coordinates": [ 129.311172, 35.495064, 2650.0 ] } },
{ "type": "Feature", "properties": { "value": 0.1033 }, "geometry": { "type": "Point", "coordinates": [ 129.312286, 35.49506, 2650.0 ] } },
{ "type": "Feature", "properties": { "value": 0.1197 }, "geometry": { "type": "Point", "coordinates": [ 129.313385, 35.495056, 2650.0 ] } },
{ "type": "Feature", "properties": { "value": 0.1355 }, "geometry": { "type": "Point", "coordinates": [ 129.314484, 35.495056, 2650.0 ] } },
{ "type": "Feature", "properties": { "value": 0.15 }, "geometry": { "type": "Point", "coordinates": [ 129.315582, 35.495052, 2650.0 ] } },
{ "type": "Feature", "properties": { "value": 0.1624 }, "geometry": { "type": "Point", "coordinates": [ 129.316696, 35.495049, 2650.0 ] } },
{ "type": "Feature", "properties": { "value": 0.1718 }, "geometry": { "type": "Point", "coordinates": [ 129.317795, 35.495045, 2650.0 ] } },
{ "type": "Feature", "properties": { "value": 0.1777 }, "geometry": { "type": "Point", "coordinates": [ 129.318893, 35.495045, 2650.0 ] } },
{ "type": "Feature", "properties": { "value": 0.1796 }, "geometry": { "type": "Point", "coordinates": [ 129.319992, 35.495041, 2650.0 ] } },
{ "type": "Feature", "properties": { "value": 0.1775 }, "geometry": { "type": "Point", "coordinates": [ 129.321091, 35.495037, 2650.0 ] } },
{ "type": "Feature", "properties": { "value": 0.1715 }, "geometry": { "type": "Point", "coordinates": [ 129.322205, 35.495033, 2650.0 ] } },
{ "type": "Feature", "properties": { "value": 0.1619 }, "geometry": { "type": "Point", "coordinates": [ 129.323303, 35.495033, 2650.0 ] } },
{ "type": "Feature", "properties": { "value": 0.1495 }, "geometry": { "type": "Point", "coordinates": [ 129.324402, 35.495029, 2650.0 ] } },
{ "type": "Feature", "properties": { "value": 0.1348 }, "geometry": { "type": "Point", "coordinates": [ 129.3255, 35.495026, 2650.0 ] } },
{ "type": "Feature", "properties": { "value": 0.1189 }, "geometry": { "type": "Point", "coordinates": [ 129.326614, 35.495022, 2650.0 ] } },
{ "type": "Feature", "properties": { "value": 0.1025 }, "geometry": { "type": "Point", "coordinates": [ 129.327713, 35.495022, 2650.0 ] } },
{ "type": "Feature", "properties": { "value": 0.0864 }, "geometry": { "type": "Point", "coordinates": [ 129.328812, 35.495018, 2650.0 ] } },
{ "type": "Feature", "properties": { "value": 0.0711 }, "geometry": { "type": "Point", "coordinates": [ 129.32991, 35.495014, 2650.0 ] } },
{ "type": "Feature", "properties": { "value": 0.0572 }, "geometry": { "type": "Point", "coordinates": [ 129.331009, 35.49501, 2650.0 ] } },
{ "type": "Feature", "properties": { "value": 0.045 }, "geometry": { "type": "Point", "coordinates": [ 129.332123, 35.495007, 2650.0 ] } },
{ "type": "Feature", "properties": { "value": 0.0346 }, "geometry": { "type": "Point", "coordinates": [ 129.333221, 35.495007, 2650.0 ] } },
{ "type": "Feature", "properties": { "value": 0.026 }, "geometry": { "type": "Point", "coordinates": [ 129.33432, 35.495003, 2650.0 ] } },
{ "type": "Feature", "properties": { "value": 0.0191 }, "geometry": { "type": "Point", "coordinates": [ 129.335419, 35.494999, 2650.0 ] } },
{ "type": "Feature", "properties": { "value": 0.0137 }, "geometry": { "type": "Point", "coordinates": [ 129.336533, 35.494995, 2650.0 ] } },
{ "type": "Feature", "properties": { "value": 0.0096 }, "geometry": { "type": "Point", "coordinates": [ 129.337631, 35.494991, 2650.0 ] } },
{ "type": "Feature", "properties": { "value": 0.0066 }, "geometry": { "type": "Point", "coordinates": [ 129.33873, 35.494991, 2650.0 ] } },
{ "type": "Feature", "properties": { "value": 0.0044 }, "geometry": { "type": "Point", "coordinates": [ 129.339828, 35.494987, 2650.0 ] } },
{ "type": "Feature", "properties": { "value": 0.0009 }, "geometry": { "type": "Point", "coordinates": [ 129.340942, 35.494984, 2650.0 ] } },
{ "type": "Feature", "properties": { "value": 0.0029 }, "geometry": { "type": "Point", "coordinates": [ 129.299057, 35.495995, 2650.0 ] } },
{ "type": "Feature", "properties": { "value": 0.0056 }, "geometry": { "type": "Point", "coordinates": [ 129.300156, 35.495995, 2650.0 ] } },
{ "type": "Feature", "properties": { "value": 0.0083 }, "geometry": { "type": "Point", "coordinates": [ 129.30127, 35.495991, 2650.0 ] } },
{ "type": "Feature", "properties": { "value": 0.0119 }, "geometry": { "type": "Point", "coordinates": [ 129.302368, 35.495987, 2650.0 ] } },
{ "type": "Feature", "properties": { "value": 0.0168 }, "geometry": { "type": "Point", "coordinates": [ 129.303467, 35.495983, 2650.0 ] } },
{ "type": "Feature", "properties": { "value": 0.0232 }, "geometry": { "type": "Point", "coordinates": [ 129.304565, 35.495983, 2650.0 ] } },
{ "type": "Feature", "properties": { "value": 0.0313 }, "geometry": { "type": "Point", "coordinates": [ 129.305679, 35.495979, 2650.0 ] } },
{ "type": "Feature", "properties": { "value": 0.0413 }, "geometry": { "type": "Point", "coordinates": [ 129.306778, 35.495975, 2650.0 ] } },
{ "type": "Feature", "properties": { "value": 0.0533 }, "geometry": { "type": "Point", "coordinates": [ 129.307877, 35.495972, 2650.0 ] } },
{ "type": "Feature", "properties": { "value": 0.0672 }, "geometry": { "type": "Point", "coordinates": [ 129.308975, 35.495972, 2650.0 ] } },
{ "type": "Feature", "properties": { "value": 0.0831 }, "geometry": { "type": "Point", "coordinates": [ 129.310074, 35.495968, 2650.0 ] } },
{ "type": "Feature", "properties": { "value": 0.1005 }, "geometry": { "type": "Point", "coordinates": [ 129.311188, 35.495964, 2650.0 ] } },
{ "type": "Feature", "properties": { "value": 0.1191 }, "geometry": { "type": "Point", "coordinates": [ 129.312286, 35.495964, 2650.0 ] } },
{ "type": "Feature", "properties": { "value": 0.138 }, "geometry": { "type": "Point", "coordinates": [ 129.313385, 35.49596, 2650.0 ] } },
{ "type": "Feature", "properties": { "value": 0.1562 }, "geometry": { "type": "Point", "coordinates": [ 129.314484, 35.495956, 2650.0 ] } },
{ "type": "Feature", "properties": { "value": 0.173 }, "geometry": { "type": "Point", "coordinates": [ 129.315598, 35.495953, 2650.0 ] } },
{ "type": "Feature", "properties": { "value": 0.1872 }, "geometry": { "type": "Point", "coordinates": [ 129.316696, 35.495949, 2650.0 ] } },
{ "type": "Feature", "properties": { "value": 0.198 }, "geometry": { "type": "Point", "coordinates": [ 129.317795, 35.495949, 2650.0 ] } },
{ "type": "Feature", "properties": { "value": 0.2048 }, "geometry": { "type": "Point", "coordinates": [ 129.318893, 35.495945, 2650.0 ] } },
{ "type": "Feature", "properties": { "value": 0.207 }, "geometry": { "type": "Point", "coordinates": [ 129.319992, 35.495941, 2650.0 ] } },
{ "type": "Feature", "properties": { "value": 0.2046 }, "geometry": { "type": "Point", "coordinates": [ 129.321106, 35.495937, 2650.0 ] } },
{ "type": "Feature", "properties": { "value": 0.1976 }, "geometry": { "type": "Point", "coordinates": [ 129.322205, 35.495937, 2650.0 ] } },
{ "type": "Feature", "properties": { "value": 0.1866 }, "geometry": { "type": "Point", "coordinates": [ 129.323303, 35.495934, 2650.0 ] } },
{ "type": "Feature", "properties": { "value": 0.1722 }, "geometry": { "type": "Point", "coordinates": [ 129.324402, 35.49593, 2650.0 ] } },
{ "type": "Feature", "properties": { "value": 0.1553 }, "geometry": { "type": "Point", "coordinates": [ 129.325516, 35.495926, 2650.0 ] } },
{ "type": "Feature", "properties": { "value": 0.137 }, "geometry": { "type": "Point", "coordinates": [ 129.326614, 35.495926, 2650.0 ] } },
{ "type": "Feature", "properties": { "value": 0.1181 }, "geometry": { "type": "Point", "coordinates": [ 129.327713, 35.495922, 2650.0 ] } },
{ "type": "Feature", "properties": { "value": 0.0995 }, "geometry": { "type": "Point", "coordinates": [ 129.328812, 35.495918, 2650.0 ] } },
{ "type": "Feature", "properties": { "value": 0.0819 }, "geometry": { "type": "Point", "coordinates": [ 129.329926, 35.495914, 2650.0 ] } },
{ "type": "Feature", "properties": { "value": 0.0659 }, "geometry": { "type": "Point", "coordinates": [ 129.331024, 35.495911, 2650.0 ] } },
{ "type": "Feature", "properties": { "value": 0.0519 }, "geometry": { "type": "Point", "coordinates": [ 129.332123, 35.495911, 2650.0 ] } },
{ "type": "Feature", "properties": { "value": 0.0399 }, "geometry": { "type": "Point", "coordinates": [ 129.333221, 35.495907, 2650.0 ] } },
{ "type": "Feature", "properties": { "value": 0.03 }, "geometry": { "type": "Point", "coordinates": [ 129.33432, 35.495903, 2650.0 ] } },
{ "type": "Feature", "properties": { "value": 0.022 }, "geometry": { "type": "Point", "coordinates": [ 129.335434, 35.495899, 2650.0 ] } },
{ "type": "Feature", "properties": { "value": 0.0158 }, "geometry": { "type": "Point", "coordinates": [ 129.336533, 35.495895, 2650.0 ] } },
{ "type": "Feature", "properties": { "value": 0.0111 }, "geometry": { "type": "Point", "coordinates": [ 129.337631, 35.495895, 2650.0 ] } },
{ "type": "Feature", "properties": { "value": 0.0076 }, "geometry": { "type": "Point", "coordinates": [ 129.33873, 35.495892, 2650.0 ] } },
{ "type": "Feature", "properties": { "value": 0.0051 }, "geometry": { "type": "Point", "coordinates": [ 129.339844, 35.495888, 2650.0 ] } },
{ "type": "Feature", "properties": { "value": 0.0023 }, "geometry": { "type": "Point", "coordinates": [ 129.340942, 35.495884, 2650.0 ] } },
{ "type": "Feature", "properties": { "value": 0.0006 }, "geometry": { "type": "Point", "coordinates": [ 129.297958, 35.496899, 2650.0 ] } },
{ "type": "Feature", "properties": { "value": 0.0039 }, "geometry": { "type": "Point", "coordinates": [ 129.299057, 35.496899, 2650.0 ] } },
{ "type": "Feature", "properties": { "value": 0.0063 }, "geometry": { "type": "Point", "coordinates": [ 129.300171, 35.496895, 2650.0 ] } },
{ "type": "Feature", "properties": { "value": 0.0093 }, "geometry": { "type": "Point", "coordinates": [ 129.30127, 35.496891, 2650.0 ] } },
{ "type": "Feature", "properties": { "value": 0.0134 }, "geometry": { "type": "Point", "coordinates": [ 129.302368, 35.496887, 2650.0 ] } },
{ "type": "Feature", "properties": { "value": 0.0189 }, "geometry": { "type": "Point", "coordinates": [ 129.303467, 35.496887, 2650.0 ] } },
{ "type": "Feature", "properties": { "value": 0.0261 }, "geometry": { "type": "Point", "coordinates": [ 129.304581, 35.496883, 2650.0 ] } },
{ "type": "Feature", "properties": { "value": 0.0353 }, "geometry": { "type": "Point", "coordinates": [ 129.305679, 35.49688, 2650.0 ] } },
{ "type": "Feature", "properties": { "value": 0.0466 }, "geometry": { "type": "Point", "coordinates": [ 129.306778, 35.496876, 2650.0 ] } },
{ "type": "Feature", "properties": { "value": 0.0601 }, "geometry": { "type": "Point", "coordinates": [ 129.307877, 35.496876, 2650.0 ] } },
{ "type": "Feature", "properties": { "value": 0.0759 }, "geometry": { "type": "Point", "coordinates": [ 129.308975, 35.496872, 2650.0 ] } },
{ "type": "Feature", "properties": { "value": 0.0937 }, "geometry": { "type": "Point", "coordinates": [ 129.310089, 35.496868, 2650.0 ] } },
{ "type": "Feature", "properties": { "value": 0.1133 }, "geometry": { "type": "Point", "coordinates": [ 129.311188, 35.496868, 2650.0 ] } },
{ "type": "Feature", "properties": { "value": 0.1342 }, "geometry": { "type": "Point", "coordinates": [ 129.312286, 35.496864, 2650.0 ] } },
{ "type": "Feature", "properties": { "value": 0.1555 }, "geometry": { "type": "Point", "coordinates": [ 129.313385, 35.496861, 2650.0 ] } },
{ "type": "Feature", "properties": { "value": 0.1761 }, "geometry": { "type": "Point", "coordinates": [ 129.314499, 35.496857, 2650.0 ] } },
{ "type": "Feature", "properties": { "value": 0.1949 }, "geometry": { "type": "Point", "coordinates": [ 129.315598, 35.496857, 2650.0 ] } },
{ "type": "Feature", "properties": { "value": 0.2109 }, "geometry": { "type": "Point", "coordinates": [ 129.316696, 35.496853, 2650.0 ] } },
{ "type": "Feature", "properties": { "value": 0.2231 }, "geometry": { "type": "Point", "coordinates": [ 129.317795, 35.496849, 2650.0 ] } },
{ "type": "Feature", "properties": { "value": 0.2307 }, "geometry": { "type": "Point", "coordinates": [ 129.318893, 35.496845, 2650.0 ] } },
{ "type": "Feature", "properties": { "value": 0.2332 }, "geometry": { "type": "Point", "coordinates": [ 129.320007, 35.496841, 2650.0 ] } },
{ "type": "Feature", "properties": { "value": 0.2304 }, "geometry": { "type": "Point", "coordinates": [ 129.321106, 35.496841, 2650.0 ] } },
{ "type": "Feature", "properties": { "value": 0.2226 }, "geometry": { "type": "Point", "coordinates": [ 129.322205, 35.496838, 2650.0 ] } },
{ "type": "Feature", "properties": { "value": 0.2102 }, "geometry": { "type": "Point", "coordinates": [ 129.323303, 35.496834, 2650.0 ] } },
{ "type": "Feature", "properties": { "value": 0.194 }, "geometry": { "type": "Point", "coordinates": [ 129.324417, 35.49683, 2650.0 ] } },
{ "type": "Feature", "properties": { "value": 0.175 }, "geometry": { "type": "Point", "coordinates": [ 129.325516, 35.49683, 2650.0 ] } },
{ "type": "Feature", "properties": { "value": 0.1543 }, "geometry": { "type": "Point", "coordinates": [ 129.326614, 35.496826, 2650.0 ] } },
{ "type": "Feature", "properties": { "value": 0.133 }, "geometry": { "type": "Point", "coordinates": [ 129.327713, 35.496822, 2650.0 ] } },
{ "type": "Feature", "properties": { "value": 0.112 }, "geometry": { "type": "Point", "coordinates": [ 129.328827, 35.496819, 2650.0 ] } },
{ "type": "Feature", "properties": { "value": 0.0923 }, "geometry": { "type": "Point", "coordinates": [ 129.329926, 35.496815, 2650.0 ] } },
{ "type": "Feature", "properties": { "value": 0.0743 }, "geometry": { "type": "Point", "coordinates": [ 129.331024, 35.496815, 2650.0 ] } },
{ "type": "Feature", "properties": { "value": 0.0584 }, "geometry": { "type": "Point", "coordinates": [ 129.332123, 35.496811, 2650.0 ] } },
{ "type": "Feature", "properties": { "value": 0.0449 }, "geometry": { "type": "Point", "coordinates": [ 129.333221, 35.496807, 2650.0 ] } },
{ "type": "Feature", "properties": { "value": 0.0338 }, "geometry": { "type": "Point", "coordinates": [ 129.334335, 35.496803, 2650.0 ] } },
{ "type": "Feature", "properties": { "value": 0.0248 }, "geometry": { "type": "Point", "coordinates": [ 129.335434, 35.496799, 2650.0 ] } },
{ "type": "Feature", "properties": { "value": 0.0178 }, "geometry": { "type": "Point", "coordinates": [ 129.336533, 35.496799, 2650.0 ] } },
{ "type": "Feature", "properties": { "value": 0.0125 }, "geometry": { "type": "Point", "coordinates": [ 129.337631, 35.496796, 2650.0 ] } },
{ "type": "Feature", "properties": { "value": 0.0086 }, "geometry": { "type": "Point", "coordinates": [ 129.338745, 35.496792, 2650.0 ] } },
{ "type": "Feature", "properties": { "value": 0.0058 }, "geometry": { "type": "Point", "coordinates": [ 129.339844, 35.496788, 2650.0 ] } },
{ "type": "Feature", "properties": { "value": 0.0038 }, "geometry": { "type": "Point", "coordinates": [ 129.340942, 35.496784, 2650.0 ] } },
{ "type": "Feature", "properties": { "value": 0.0013 }, "geometry": { "type": "Point", "coordinates": [ 129.297958, 35.497803, 2650.0 ] } },
{ "type": "Feature", "properties": { "value": 0.0046 }, "geometry": { "type": "Point", "coordinates": [ 129.299072, 35.497799, 2650.0 ] } },
{ "type": "Feature", "properties": { "value": 0.007 }, "geometry": { "type": "Point", "coordinates": [ 129.300171, 35.497795, 2650.0 ] } },
{ "type": "Feature", "properties": { "value": 0.0102 }, "geometry": { "type": "Point", "coordinates": [ 129.30127, 35.497791, 2650.0 ] } },
{ "type": "Feature", "properties": { "value": 0.0148 }, "geometry": { "type": "Point", "coordinates": [ 129.302368, 35.497791, 2650.0 ] } },
{ "type": "Feature", "properties": { "value": 0.0209 }, "geometry": { "type": "Point", "coordinates": [ 129.303482, 35.497787, 2650.0 ] } },
{ "type": "Feature", "properties": { "value": 0.0288 }, "geometry": { "type": "Point", "coordinates": [ 129.304581, 35.497784, 2650.0 ] } },
{ "type": "Feature", "properties": { "value": 0.0388 }, "geometry": { "type": "Point", "coordinates": [ 129.305679, 35.49778, 2650.0 ] } },
{ "type": "Feature", "properties": { "value": 0.0513 }, "geometry": { "type": "Point", "coordinates": [ 129.306778, 35.49778, 2650.0 ] } },
{ "type": "Feature", "properties": { "value": 0.0662 }, "geometry": { "type": "Point", "coordinates": [ 129.307877, 35.497776, 2650.0 ] } },
{ "type": "Feature", "properties": { "value": 0.0836 }, "geometry": { "type": "Point", "coordinates": [ 129.30899, 35.497772, 2650.0 ] } },
{ "type": "Feature", "properties": { "value": 0.1032 }, "geometry": { "type": "Point", "coordinates": [ 129.310089, 35.497772, 2650.0 ] } },
{ "type": "Feature", "properties": { "value": 0.1247 }, "geometry": { "type": "Point", "coordinates": [ 129.311188, 35.497768, 2650.0 ] } },
{ "type": "Feature", "properties": { "value": 0.1475 }, "geometry": { "type": "Point", "coordinates": [ 129.312286, 35.497765, 2650.0 ] } },
{ "type": "Feature", "properties": { "value": 0.1709 }, "geometry": { "type": "Point", "coordinates": [ 129.3134, 35.497761, 2650.0 ] } },
{ "type": "Feature", "properties": { "value": 0.1937 }, "geometry": { "type": "Point", "coordinates": [ 129.314499, 35.497761, 2650.0 ] } },
{ "type": "Feature", "properties": { "value": 0.2148 }, "geometry": { "type": "Point", "coordinates": [ 129.315598, 35.497757, 2650.0 ] } },
{ "type": "Feature", "properties": { "value": 0.2324 }, "geometry": { "type": "Point", "coordinates": [ 129.316696, 35.497753, 2650.0 ] } },
{ "type": "Feature", "properties": { "value": 0.2458 }, "geometry": { "type": "Point", "coordinates": [ 129.317795, 35.497749, 2650.0 ] } },
{ "type": "Feature", "properties": { "value": 0.2541 }, "geometry": { "type": "Point", "coordinates": [ 129.318909, 35.497749, 2650.0 ] } },
{ "type": "Feature", "properties": { "value": 0.2569 }, "geometry": { "type": "Point", "coordinates": [ 129.320007, 35.497746, 2650.0 ] } },
{ "type": "Feature", "properties": { "value": 0.2538 }, "geometry": { "type": "Point", "coordinates": [ 129.321106, 35.497742, 2650.0 ] } },
{ "type": "Feature", "properties": { "value": 0.2451 }, "geometry": { "type": "Point", "coordinates": [ 129.322205, 35.497738, 2650.0 ] } },
{ "type": "Feature", "properties": { "value": 0.2314 }, "geometry": { "type": "Point", "coordinates": [ 129.323318, 35.497734, 2650.0 ] } },
{ "type": "Feature", "properties": { "value": 0.2136 }, "geometry": { "type": "Point", "coordinates": [ 129.324417, 35.497734, 2650.0 ] } },
{ "type": "Feature", "properties": { "value": 0.1926 }, "geometry": { "type": "Point", "coordinates": [ 129.325516, 35.49773, 2650.0 ] } },
{ "type": "Feature", "properties": { "value": 0.1699 }, "geometry": { "type": "Point", "coordinates": [ 129.326614, 35.497726, 2650.0 ] } },
{ "type": "Feature", "properties": { "value": 0.1464 }, "geometry": { "type": "Point", "coordinates": [ 129.327728, 35.497723, 2650.0 ] } },
{ "type": "Feature", "properties": { "value": 0.1233 }, "geometry": { "type": "Point", "coordinates": [ 129.328827, 35.497723, 2650.0 ] } },
{ "type": "Feature", "properties": { "value": 0.1016 }, "geometry": { "type": "Point", "coordinates": [ 129.329926, 35.497719, 2650.0 ] } },
{ "type": "Feature", "properties": { "value": 0.0818 }, "geometry": { "type": "Point", "coordinates": [ 129.331024, 35.497715, 2650.0 ] } },
{ "type": "Feature", "properties": { "value": 0.0643 }, "geometry": { "type": "Point", "coordinates": [ 129.332123, 35.497711, 2650.0 ] } },
{ "type": "Feature", "properties": { "value": 0.0495 }, "geometry": { "type": "Point", "coordinates": [ 129.333237, 35.497707, 2650.0 ] } },
{ "type": "Feature", "properties": { "value": 0.0372 }, "geometry": { "type": "Point", "coordinates": [ 129.334335, 35.497707, 2650.0 ] } },
{ "type": "Feature", "properties": { "value": 0.0273 }, "geometry": { "type": "Point", "coordinates": [ 129.335434, 35.497704, 2650.0 ] } },
{ "type": "Feature", "properties": { "value": 0.0196 }, "geometry": { "type": "Point", "coordinates": [ 129.336533, 35.4977, 2650.0 ] } },
{ "type": "Feature", "properties": { "value": 0.0138 }, "geometry": { "type": "Point", "coordinates": [ 129.337646, 35.497696, 2650.0 ] } },
{ "type": "Feature", "properties": { "value": 0.0095 }, "geometry": { "type": "Point", "coordinates": [ 129.338745, 35.497692, 2650.0 ] } },
{ "type": "Feature", "properties": { "value": 0.0063 }, "geometry": { "type": "Point", "coordinates": [ 129.339844, 35.497692, 2650.0 ] } },
{ "type": "Feature", "properties": { "value": 0.0042 }, "geometry": { "type": "Point", "coordinates": [ 129.340942, 35.497688, 2650.0 ] } },
{ "type": "Feature", "properties": { "value": 0.002 }, "geometry": { "type": "Point", "coordinates": [ 129.297974, 35.498703, 2650.0 ] } },
{ "type": "Feature", "properties": { "value": 0.005 }, "geometry": { "type": "Point", "coordinates": [ 129.299072, 35.498699, 2650.0 ] } },
{ "type": "Feature", "properties": { "value": 0.0075 }, "geometry": { "type": "Point", "coordinates": [ 129.300171, 35.498695, 2650.0 ] } },
{ "type": "Feature", "properties": { "value": 0.011 }, "geometry": { "type": "Point", "coordinates": [ 129.30127, 35.498695, 2650.0 ] } },
{ "type": "Feature", "properties": { "value": 0.0159 }, "geometry": { "type": "Point", "coordinates": [ 129.302368, 35.498692, 2650.0 ] } },
{ "type": "Feature", "properties": { "value": 0.0225 }, "geometry": { "type": "Point", "coordinates": [ 129.303482, 35.498688, 2650.0 ] } },
{ "type": "Feature", "properties": { "value": 0.031 }, "geometry": { "type": "Point", "coordinates": [ 129.304581, 35.498684, 2650.0 ] } },
{ "type": "Feature", "properties": { "value": 0.0418 }, "geometry": { "type": "Point", "coordinates": [ 129.305679, 35.498684, 2650.0 ] } },
{ "type": "Feature", "properties": { "value": 0.0552 }, "geometry": { "type": "Point", "coordinates": [ 129.306778, 35.49868, 2650.0 ] } },
{ "type": "Feature", "properties": { "value": 0.0713 }, "geometry": { "type": "Point", "coordinates": [ 129.307892, 35.498676, 2650.0 ] } },
{ "type": "Feature", "properties": { "value": 0.09 }, "geometry": { "type": "Point", "coordinates": [ 129.30899, 35.498676, 2650.0 ] } },
{ "type": "Feature", "properties": { "value": 0.1111 }, "geometry": { "type": "Point", "coordinates": [ 129.310089, 35.498672, 2650.0 ] } },
{ "type": "Feature", "properties": { "value": 0.1342 }, "geometry": { "type": "Point", "coordinates": [ 129.311188, 35.498669, 2650.0 ] } },
{ "type": "Feature", "properties": { "value": 0.1585 }, "geometry": { "type": "Point", "coordinates": [ 129.312302, 35.498665, 2650.0 ] } },
{ "type": "Feature", "properties": { "value": 0.1835 }, "geometry": { "type": "Point", "coordinates": [ 129.3134, 35.498665, 2650.0 ] } },
{ "type": "Feature", "properties": { "value": 0.2077 }, "geometry": { "type": "Point", "coordinates": [ 129.314499, 35.498661, 2650.0 ] } },
{ "type": "Feature", "properties": { "value": 0.2303 }, "geometry": { "type": "Point", "coordinates": [ 129.315598, 35.498657, 2650.0 ] } },
{ "type": "Feature", "properties": { "value": 0.25 }, "geometry": { "type": "Point", "coordinates": [ 129.316696, 35.498653, 2650.0 ] } },
{ "type": "Feature", "properties": { "value": 0.2647 }, "geometry": { "type": "Point", "coordinates": [ 129.31781, 35.498653, 2650.0 ] } },
{ "type": "Feature", "properties": { "value": 0.2736 }, "geometry": { "type": "Point", "coordinates": [ 129.318909, 35.49865, 2650.0 ] } },
{ "type": "Feature", "properties": { "value": 0.2765 }, "geometry": { "type": "Point", "coordinates": [ 129.320007, 35.498646, 2650.0 ] } },
{ "type": "Feature", "properties": { "value": 0.2732 }, "geometry": { "type": "Point", "coordinates": [ 129.321106, 35.498642, 2650.0 ] } },
{ "type": "Feature", "properties": { "value": 0.2639 }, "geometry": { "type": "Point", "coordinates": [ 129.32222, 35.498638, 2650.0 ] } },
{ "type": "Feature", "properties": { "value": 0.2491 }, "geometry": { "type": "Point", "coordinates": [ 129.323318, 35.498638, 2650.0 ] } },
{ "type": "Feature", "properties": { "value": 0.2299 }, "geometry": { "type": "Point", "coordinates": [ 129.324417, 35.498634, 2650.0 ] } },
{ "type": "Feature", "properties": { "value": 0.2073 }, "geometry": { "type": "Point", "coordinates": [ 129.325516, 35.498631, 2650.0 ] } },
{ "type": "Feature", "properties": { "value": 0.1828 }, "geometry": { "type": "Point", "coordinates": [ 129.32663, 35.498627, 2650.0 ] } },
{ "type": "Feature", "properties": { "value": 0.1576 }, "geometry": { "type": "Point", "coordinates": [ 129.327728, 35.498627, 2650.0 ] } },
{ "type": "Feature", "properties": { "value": 0.1327 }, "geometry": { "type": "Point", "coordinates": [ 129.328827, 35.498623, 2650.0 ] } },
{ "type": "Feature", "properties": { "value": 0.1093 }, "geometry": { "type": "Point", "coordinates": [ 129.329926, 35.498619, 2650.0 ] } },
{ "type": "Feature", "properties": { "value": 0.088 }, "geometry": { "type": "Point", "coordinates": [ 129.331024, 35.498615, 2650.0 ] } },
{ "type": "Feature", "properties": { "value": 0.0692 }, "geometry": { "type": "Point", "coordinates": [ 129.332138, 35.498611, 2650.0 ] } },
{ "type": "Feature", "properties": { "value": 0.0532 }, "geometry": { "type": "Point", "coordinates": [ 129.333237, 35.498611, 2650.0 ] } },
{ "type": "Feature", "properties": { "value": 0.04 }, "geometry": { "type": "Point", "coordinates": [ 129.334335, 35.498608, 2650.0 ] } },
{ "type": "Feature", "properties": { "value": 0.0294 }, "geometry": { "type": "Point", "coordinates": [ 129.335434, 35.498604, 2650.0 ] } },
{ "type": "Feature", "properties": { "value": 0.0211 }, "geometry": { "type": "Point", "coordinates": [ 129.336548, 35.4986, 2650.0 ] } },
{ "type": "Feature", "properties": { "value": 0.0148 }, "geometry": { "type": "Point", "coordinates": [ 129.337646, 35.498596, 2650.0 ] } },
{ "type": "Feature", "properties": { "value": 0.0102 }, "geometry": { "type": "Point", "coordinates": [ 129.338745, 35.498596, 2650.0 ] } },
{ "type": "Feature", "properties": { "value": 0.0068 }, "geometry": { "type": "Point", "coordinates": [ 129.339844, 35.498592, 2650.0 ] } },
{ "type": "Feature", "properties": { "value": 0.0045 }, "geometry": { "type": "Point", "coordinates": [ 129.340958, 35.498589, 2650.0 ] } },
{ "type": "Feature", "properties": { "value": 0.0021 }, "geometry": { "type": "Point", "coordinates": [ 129.297974, 35.499603, 2650.0 ] } },
{ "type": "Feature", "properties": { "value": 0.0052 }, "geometry": { "type": "Point", "coordinates": [ 129.299072, 35.499599, 2650.0 ] } },
{ "type": "Feature", "properties": { "value": 0.0079 }, "geometry": { "type": "Point", "coordinates": [ 129.300171, 35.499599, 2650.0 ] } },
{ "type": "Feature", "properties": { "value": 0.0116 }, "geometry": { "type": "Point", "coordinates": [ 129.30127, 35.499596, 2650.0 ] } },
{ "type": "Feature", "properties": { "value": 0.0168 }, "geometry": { "type": "Point", "coordinates": [ 129.302383, 35.499592, 2650.0 ] } },
{ "type": "Feature", "properties": { "value": 0.0237 }, "geometry": { "type": "Point", "coordinates": [ 129.303482, 35.499588, 2650.0 ] } },
{ "type": "Feature", "properties": { "value": 0.0327 }, "geometry": { "type": "Point", "coordinates": [ 129.304581, 35.499588, 2650.0 ] } },
{ "type": "Feature", "properties": { "value": 0.0441 }, "geometry": { "type": "Point", "coordinates": [ 129.305679, 35.499584, 2650.0 ] } },
{ "type": "Feature", "properties": { "value": 0.0582 }, "geometry": { "type": "Point", "coordinates": [ 129.306793, 35.49958, 2650.0 ] } },
{ "type": "Feature", "properties": { "value": 0.0751 }, "geometry": { "type": "Point", "coordinates": [ 129.307892, 35.49958, 2650.0 ] } },
{ "type": "Feature", "properties": { "value": 0.0948 }, "geometry": { "type": "Point", "coordinates": [ 129.30899, 35.499577, 2650.0 ] } },
{ "type": "Feature", "properties": { "value": 0.117 }, "geometry": { "type": "Point", "coordinates": [ 129.310089, 35.499573, 2650.0 ] } },
{ "type": "Feature", "properties": { "value": 0.1413 }, "geometry": { "type": "Point", "coordinates": [ 129.311203, 35.499569, 2650.0 ] } },
{ "type": "Feature", "properties": { "value": 0.1669 }, "geometry": { "type": "Point", "coordinates": [ 129.312302, 35.499569, 2650.0 ] } },
{ "type": "Feature", "properties": { "value": 0.1927 }, "geometry": { "type": "Point", "coordinates": [ 129.3134, 35.499565, 2650.0 ] } },
{ "type": "Feature", "properties": { "value": 0.2179 }, "geometry": { "type": "Point", "coordinates": [ 129.314499, 35.499561, 2650.0 ] } },
{ "type": "Feature", "properties": { "value": 0.2413 }, "geometry": { "type": "Point", "coordinates": [ 129.315598, 35.499557, 2650.0 ] } },
{ "type": "Feature", "properties": { "value": 0.2616 }, "geometry": { "type": "Point", "coordinates": [ 129.316711, 35.499557, 2650.0 ] } },
{ "type": "Feature", "properties": { "value": 0.2773 }, "geometry": { "type": "Point", "coordinates": [ 129.31781, 35.499554, 2650.0 ] } },
{ "type": "Feature", "properties": { "value": 0.2878 }, "geometry": { "type": "Point", "coordinates": [ 129.318909, 35.49955, 2650.0 ] } },
{ "type": "Feature", "properties": { "value": 0.2911 }, "geometry": { "type": "Point", "coordinates": [ 129.320007, 35.499546, 2650.0 ] } },
{ "type": "Feature", "properties": { "value": 0.2876 }, "geometry": { "type": "Point", "coordinates": [ 129.321121, 35.499546, 2650.0 ] } },
{ "type": "Feature", "properties": { "value": 0.2777 }, "geometry": { "type": "Point", "coordinates": [ 129.32222, 35.499542, 2650.0 ] } },
{ "type": "Feature", "properties": { "value": 0.2621 }, "geometry": { "type": "Point", "coordinates": [ 129.323318, 35.499538, 2650.0 ] } },
{ "type": "Feature", "properties": { "value": 0.2419 }, "geometry": { "type": "Point", "coordinates": [ 129.324417, 35.499535, 2650.0 ] } },
{ "type": "Feature", "properties": { "value": 0.2182 }, "geometry": { "type": "Point", "coordinates": [ 129.325531, 35.499531, 2650.0 ] } },
{ "type": "Feature", "properties": { "value": 0.1924 }, "geometry": { "type": "Point", "coordinates": [ 129.32663, 35.499531, 2650.0 ] } },
{ "type": "Feature", "properties": { "value": 0.1658 }, "geometry": { "type": "Point", "coordinates": [ 129.327728, 35.499527, 2650.0 ] } },
{ "type": "Feature", "properties": { "value": 0.1397 }, "geometry": { "type": "Point", "coordinates": [ 129.328827, 35.499523, 2650.0 ] } },
{ "type": "Feature", "properties": { "value": 0.115 }, "geometry": { "type": "Point", "coordinates": [ 129.329926, 35.499519, 2650.0 ] } },
{ "type": "Feature", "properties": { "value": 0.0926 }, "geometry": { "type": "Point", "coordinates": [ 129.331039, 35.499516, 2650.0 ] } },
{ "type": "Feature", "properties": { "value": 0.0728 }, "geometry": { "type": "Point", "coordinates": [ 129.332138, 35.499516, 2650.0 ] } },
{ "type": "Feature", "properties": { "value": 0.056 }, "geometry": { "type": "Point", "coordinates": [ 129.333237, 35.499512, 2650.0 ] } },
{ "type": "Feature", "properties": { "value": 0.0421 }, "geometry": { "type": "Point", "coordinates": [ 129.334335, 35.499508, 2650.0 ] } },
{ "type": "Feature", "properties": { "value": 0.0309 }, "geometry": { "type": "Point", "coordinates": [ 129.335449, 35.499504, 2650.0 ] } },
{ "type": "Feature", "properties": { "value": 0.0222 }, "geometry": { "type": "Point", "coordinates": [ 129.336548, 35.4995, 2650.0 ] } },
{ "type": "Feature", "properties": { "value": 0.0156 }, "geometry": { "type": "Point", "coordinates": [ 129.337646, 35.4995, 2650.0 ] } },
{ "type": "Feature", "properties": { "value": 0.0107 }, "geometry": { "type": "Point", "coordinates": [ 129.338745, 35.499496, 2650.0 ] } },
{ "type": "Feature", "properties": { "value": 0.0072 }, "geometry": { "type": "Point", "coordinates": [ 129.339859, 35.499493, 2650.0 ] } },
{ "type": "Feature", "properties": { "value": 0.0047 }, "geometry": { "type": "Point", "coordinates": [ 129.340958, 35.499489, 2650.0 ] } },
{ "type": "Feature", "properties": { "value": 0.0025 }, "geometry": { "type": "Point", "coordinates": [ 129.297974, 35.500504, 2650.0 ] } },
{ "type": "Feature", "properties": { "value": 0.0054 }, "geometry": { "type": "Point", "coordinates": [ 129.299072, 35.500504, 2650.0 ] } },
{ "type": "Feature", "properties": { "value": 0.0081 }, "geometry": { "type": "Point", "coordinates": [ 129.300171, 35.5005, 2650.0 ] } },
{ "type": "Feature", "properties": { "value": 0.012 }, "geometry": { "type": "Point", "coordinates": [ 129.301285, 35.500496, 2650.0 ] } },
{ "type": "Feature", "properties": { "value": 0.0173 }, "geometry": { "type": "Point", "coordinates": [ 129.302383, 35.500492, 2650.0 ] } },
{ "type": "Feature", "properties": { "value": 0.0244 }, "geometry": { "type": "Point", "coordinates": [ 129.303482, 35.500492, 2650.0 ] } },
{ "type": "Feature", "properties": { "value": 0.0337 }, "geometry": { "type": "Point", "coordinates": [ 129.304581, 35.500488, 2650.0 ] } },
{ "type": "Feature", "properties": { "value": 0.0454 }, "geometry": { "type": "Point", "coordinates": [ 129.305695, 35.500484, 2650.0 ] } },
{ "type": "Feature", "properties": { "value": 0.0599 }, "geometry": { "type": "Point", "coordinates": [ 129.306793, 35.500484, 2650.0 ] } },
{ "type": "Feature", "properties": { "value": 0.0773 }, "geometry": { "type": "Point", "coordinates": [ 129.307892, 35.500481, 2650.0 ] } },
{ "type": "Feature", "properties": { "value": 0.0976 }, "geometry": { "type": "Point", "coordinates": [ 129.30899, 35.500477, 2650.0 ] } },
{ "type": "Feature", "properties": { "value": 0.1205 }, "geometry": { "type": "Point", "coordinates": [ 129.310104, 35.500473, 2650.0 ] } },
{ "type": "Feature", "properties": { "value": 0.1455 }, "geometry": { "type": "Point", "coordinates": [ 129.311203, 35.500473, 2650.0 ] } },
{ "type": "Feature", "properties": { "value": 0.1718 }, "geometry": { "type": "Point", "coordinates": [ 129.312302, 35.500469, 2650.0 ] } },
{ "type": "Feature", "properties": { "value": 0.1984 }, "geometry": { "type": "Point", "coordinates": [ 129.3134, 35.500465, 2650.0 ] } },
{ "type": "Feature", "properties": { "value": 0.224 }, "geometry": { "type": "Point", "coordinates": [ 129.314499, 35.500462, 2650.0 ] } },
{ "type": "Feature", "properties": { "value": 0.2475 }, "geometry": { "type": "Point", "coordinates": [ 129.315613, 35.500462, 2650.0 ] } },
{ "type": "Feature", "properties": { "value": 0.2679 }, "geometry": { "type": "Point", "coordinates": [ 129.316711, 35.500458, 2650.0 ] } },
{ "type": "Feature", "properties": { "value": 0.2839 }, "geometry": { "type": "Point", "coordinates": [ 129.31781, 35.500454, 2650.0 ] } },
{ "type": "Feature", "properties": { "value": 0.2942 }, "geometry": { "type": "Point", "coordinates": [ 129.318909, 35.50045, 2650.0 ] } },
{ "type": "Feature", "properties": { "value": 0.2984 }, "geometry": { "type": "Point", "coordinates": [ 129.320023, 35.50045, 2650.0 ] } },
{ "type": "Feature", "properties": { "value": 0.2957 }, "geometry": { "type": "Point", "coordinates": [ 129.321121, 35.500446, 2650.0 ] } },
{ "type": "Feature", "properties": { "value": 0.2857 }, "geometry": { "type": "Point", "coordinates": [ 129.32222, 35.500443, 2650.0 ] } },
{ "type": "Feature", "properties": { "value": 0.2697 }, "geometry": { "type": "Point", "coordinates": [ 129.323318, 35.500439, 2650.0 ] } },
{ "type": "Feature", "properties": { "value": 0.2488 }, "geometry": { "type": "Point", "coordinates": [ 129.324432, 35.500435, 2650.0 ] } },
{ "type": "Feature", "properties": { "value": 0.2244 }, "geometry": { "type": "Point", "coordinates": [ 129.325531, 35.500435, 2650.0 ] } },
{ "type": "Feature", "properties": { "value": 0.1979 }, "geometry": { "type": "Point", "coordinates": [ 129.32663, 35.500431, 2650.0 ] } },
{ "type": "Feature", "properties": { "value": 0.1705 }, "geometry": { "type": "Point", "coordinates": [ 129.327728, 35.500427, 2650.0 ] } },
{ "type": "Feature", "properties": { "value": 0.1437 }, "geometry": { "type": "Point", "coordinates": [ 129.328827, 35.500423, 2650.0 ] } },
{ "type": "Feature", "properties": { "value": 0.1183 }, "geometry": { "type": "Point", "coordinates": [ 129.329941, 35.500423, 2650.0 ] } },
{ "type": "Feature", "properties": { "value": 0.0952 }, "geometry": { "type": "Point", "coordinates": [ 129.331039, 35.50042, 2650.0 ] } },
{ "type": "Feature", "properties": { "value": 0.0749 }, "geometry": { "type": "Point", "coordinates": [ 129.332138, 35.500416, 2650.0 ] } },
{ "type": "Feature", "properties": { "value": 0.0576 }, "geometry": { "type": "Point", "coordinates": [ 129.333237, 35.500412, 2650.0 ] } },
{ "type": "Feature", "properties": { "value": 0.0433 }, "geometry": { "type": "Point", "coordinates": [ 129.334351, 35.500408, 2650.0 ] } },
{ "type": "Feature", "properties": { "value": 0.0318 }, "geometry": { "type": "Point", "coordinates": [ 129.335449, 35.500408, 2650.0 ] } },
{ "type": "Feature", "properties": { "value": 0.0229 }, "geometry": { "type": "Point", "coordinates": [ 129.336548, 35.500404, 2650.0 ] } },
{ "type": "Feature", "properties": { "value": 0.0161 }, "geometry": { "type": "Point", "coordinates": [ 129.337646, 35.500401, 2650.0 ] } },
{ "type": "Feature", "properties": { "value": 0.011 }, "geometry": { "type": "Point", "coordinates": [ 129.33876, 35.500397, 2650.0 ] } },
{ "type": "Feature", "properties": { "value": 0.0074 }, "geometry": { "type": "Point", "coordinates": [ 129.339859, 35.500393, 2650.0 ] } },
{ "type": "Feature", "properties": { "value": 0.0048 }, "geometry": { "type": "Point", "coordinates": [ 129.340958, 35.500393, 2650.0 ] } },
{ "type": "Feature", "properties": { "value": 0.0006 }, "geometry": { "type": "Point", "coordinates": [ 129.342056, 35.500389, 2650.0 ] } },
{ "type": "Feature", "properties": { "value": 0.0025 }, "geometry": { "type": "Point", "coordinates": [ 129.297974, 35.501408, 2650.0 ] } },
{ "type": "Feature", "properties": { "value": 0.0055 }, "geometry": { "type": "Point", "coordinates": [ 129.299072, 35.501404, 2650.0 ] } },
{ "type": "Feature", "properties": { "value": 0.0082 }, "geometry": { "type": "Point", "coordinates": [ 129.300186, 35.5014, 2650.0 ] } },
{ "type": "Feature", "properties": { "value": 0.0121 }, "geometry": { "type": "Point", "coordinates": [ 129.301285, 35.501396, 2650.0 ] } },
{ "type": "Feature", "properties": { "value": 0.0175 }, "geometry": { "type": "Point", "coordinates": [ 129.302383, 35.501396, 2650.0 ] } },
{ "type": "Feature", "properties": { "value": 0.0246 }, "geometry": { "type": "Point", "coordinates": [ 129.303482, 35.501392, 2650.0 ] } },
{ "type": "Feature", "properties": { "value": 0.0339 }, "geometry": { "type": "Point", "coordinates": [ 129.304596, 35.501389, 2650.0 ] } },
{ "type": "Feature", "properties": { "value": 0.0458 }, "geometry": { "type": "Point", "coordinates": [ 129.305695, 35.501389, 2650.0 ] } },
{ "type": "Feature", "properties": { "value": 0.0604 }, "geometry": { "type": "Point", "coordinates": [ 129.306793, 35.501385, 2650.0 ] } },
{ "type": "Feature", "properties": { "value": 0.0779 }, "geometry": { "type": "Point", "coordinates": [ 129.307892, 35.501381, 2650.0 ] } },
{ "type": "Feature", "properties": { "value": 0.0983 }, "geometry": { "type": "Point", "coordinates": [ 129.309006, 35.501377, 2650.0 ] } },
{ "type": "Feature", "properties": { "value": 0.1213 }, "geometry": { "type": "Point", "coordinates": [ 129.310104, 35.501377, 2650.0 ] } },
{ "type": "Feature", "properties": { "value": 0.1465 }, "geometry": { "type": "Point", "coordinates": [ 129.311203, 35.501373, 2650.0 ] } },
{ "type": "Feature", "properties": { "value": 0.173 }, "geometry": { "type": "Point", "coordinates": [ 129.312302, 35.501369, 2650.0 ] } },
{ "type": "Feature", "properties": { "value": 0.1997 }, "geometry": { "type": "Point", "coordinates": [ 129.3134, 35.501366, 2650.0 ] } },
{ "type": "Feature", "properties": { "value": 0.2255 }, "geometry": { "type": "Point", "coordinates": [ 129.314514, 35.501366, 2650.0 ] } },
{ "type": "Feature", "properties": { "value": 0.2491 }, "geometry": { "type": "Point", "coordinates": [ 129.315613, 35.501362, 2650.0 ] } },
{ "type": "Feature", "properties": { "value": 0.269 }, "geometry": { "type": "Point", "coordinates": [ 129.316711, 35.501358, 2650.0 ] } },
{ "type": "Feature", "properties": { "value": 0.2842 }, "geometry": { "type": "Point", "coordinates": [ 129.31781, 35.501354, 2650.0 ] } },
{ "type": "Feature", "properties": { "value": 0.2945 }, "geometry": { "type": "Point", "coordinates": [ 129.318924, 35.501354, 2650.0 ] } },
{ "type": "Feature", "properties": { "value": 0.2984 }, "geometry": { "type": "Point", "coordinates": [ 129.320023, 35.50135, 2650.0 ] } },
{ "type": "Feature", "properties": { "value": 0.2957 }, "geometry": { "type": "Point", "coordinates": [ 129.321121, 35.501347, 2650.0 ] } },
{ "type": "Feature", "properties": { "value": 0.2867 }, "geometry": { "type": "Point", "coordinates": [ 129.32222, 35.501343, 2650.0 ] } },
{ "type": "Feature", "properties": { "value": 0.2712 }, "geometry": { "type": "Point", "coordinates": [ 129.323334, 35.501339, 2650.0 ] } },
{ "type": "Feature", "properties": { "value": 0.2503 }, "geometry": { "type": "Point", "coordinates": [ 129.324432, 35.501339, 2650.0 ] } },
{ "type": "Feature", "properties": { "value": 0.2257 }, "geometry": { "type": "Point", "coordinates": [ 129.325531, 35.501335, 2650.0 ] } },
{ "type": "Feature", "properties": { "value": 0.199 }, "geometry": { "type": "Point", "coordinates": [ 129.32663, 35.501331, 2650.0 ] } },
{ "type": "Feature", "properties": { "value": 0.1715 }, "geometry": { "type": "Point", "coordinates": [ 129.327728, 35.501328, 2650.0 ] } },
{ "type": "Feature", "properties": { "value": 0.1445 }, "geometry": { "type": "Point", "coordinates": [ 129.328842, 35.501328, 2650.0 ] } },
{ "type": "Feature", "properties": { "value": 0.119 }, "geometry": { "type": "Point", "coordinates": [ 129.329941, 35.501324, 2650.0 ] } },
{ "type": "Feature", "properties": { "value": 0.0957 }, "geometry": { "type": "Point", "coordinates": [ 129.331039, 35.50132, 2650.0 ] } },
{ "type": "Feature", "properties": { "value": 0.0753 }, "geometry": { "type": "Point", "coordinates": [ 129.332138, 35.501316, 2650.0 ] } },
{ "type": "Feature", "properties": { "value": 0.0579 }, "geometry": { "type": "Point", "coordinates": [ 129.333252, 35.501312, 2650.0 ] } },
{ "type": "Feature", "properties": { "value": 0.0436 }, "geometry": { "type": "Point", "coordinates": [ 129.334351, 35.501312, 2650.0 ] } },
{ "type": "Feature", "properties": { "value": 0.032 }, "geometry": { "type": "Point", "coordinates": [ 129.335449, 35.501308, 2650.0 ] } },
{ "type": "Feature", "properties": { "value": 0.023 }, "geometry": { "type": "Point", "coordinates": [ 129.336548, 35.501305, 2650.0 ] } },
{ "type": "Feature", "properties": { "value": 0.0161 }, "geometry": { "type": "Point", "coordinates": [ 129.337662, 35.501301, 2650.0 ] } },
{ "type": "Feature", "properties": { "value": 0.0111 }, "geometry": { "type": "Point", "coordinates": [ 129.33876, 35.501297, 2650.0 ] } },
{ "type": "Feature", "properties": { "value": 0.0074 }, "geometry": { "type": "Point", "coordinates": [ 129.339859, 35.501297, 2650.0 ] } },
{ "type": "Feature", "properties": { "value": 0.0049 }, "geometry": { "type": "Point", "coordinates": [ 129.340958, 35.501293, 2650.0 ] } },
{ "type": "Feature", "properties": { "value": 0.0003 }, "geometry": { "type": "Point", "coordinates": [ 129.342056, 35.501289, 2650.0 ] } }
]
}
