{
"type": "FeatureCollection",
"features": [
{ "type": "Feature", "properties": { "value": 0.0 }, "geometry": { "type": "Point", "coordinates": [ 129.295547, 35.43832, 10.0 ] } },
{ "type": "Feature", "properties": { "value": 59.989 }, "geometry": { "type": "Point", "coordinates": [ 129.296646, 35.43832, 10.0 ] } },
{ "type": "Feature", "properties": { "value": 77.969 }, "geometry": { "type": "Point", "coordinates": [ 129.295547, 35.439224, 10.0 ] } },
{ "type": "Feature", "properties": { "value": 140.05 }, "geometry": { "type": "Point", "coordinates": [ 129.296646, 35.43922, 10.0 ] } },
{ "type": "Feature", "properties": { "value": 9.2218 }, "geometry": { "type": "Point", "coordinates": [ 129.32756, 35.458969, 10.0 ] } },
{ "type": "Feature", "properties": { "value": 35.132 }, "geometry": { "type": "Point", "coordinates": [ 129.32756, 35.459869, 10.0 ] } },
{ "type": "Feature", "properties": { "value": 76.529 }, "geometry": { "type": "Point", "coordinates": [ 129.321045, 35.481518, 10.0 ] } },
{ "type": "Feature", "properties": { "value": 0.0 }, "geometry": { "type": "Point", "coordinates": [ 129.319946, 35.482422, 10.0 ] } },
{ "type": "Feature", "properties": { "value": 401.49 }, "geometry": { "type": "Point", "coordinates": [ 129.321045, 35.482418, 10.0 ] } },
{ "type": "Feature", "properties": { "value": 0.0 }, "geometry": { "type": "Point", "coordinates": [ 129.321045, 35.483322, 10.0 ] } }
]
}
