{
"type": "FeatureCollection",
"features": [
{ "type": "Feature", "properties": { "value": 1.8674 }, "geometry": { "type": "Point", "coordinates": [ 129.32756, 35.458969, 30.0 ] } },
{ "type": "Feature", "properties": { "value": 50.294 }, "geometry": { "type": "Point", "coordinates": [ 129.32756, 35.459869, 30.0 ] } },
{ "type": "Feature", "properties": { "value": 88.755 }, "geometry": { "type": "Point", "coordinates": [ 129.327576, 35.46077, 30.0 ] } },
{ "type": "Feature", "properties": { "value": 81.753 }, "geometry": { "type": "Point", "coordinates": [ 129.327576, 35.461674, 30.0 ] } },
{ "type": "Feature", "properties": { "value": 74.788 }, "geometry": { "type": "Point", "coordinates": [ 129.327576, 35.462574, 30.0 ] } },
{ "type": "Feature", "properties": { "value": 59.959 }, "geometry": { "type": "Point", "coordinates": [ 129.327576, 35.463474, 30.0 ] } },
{ "type": "Feature", "properties": { "value": 1.3852 }, "geometry": { "type": "Point", "coordinates": [ 129.32869, 35.46347, 30.0 ] } },
{ "type": "Feature", "properties": { "value": 46.411 }, "geometry": { "type": "Point", "coordinates": [ 129.327591, 35.464375, 30.0 ] } },
{ "type": "Feature", "properties": { "value": 5.6328 }, "geometry": { "type": "Point", "coordinates": [ 129.32869, 35.464375, 30.0 ] } },
{ "type": "Feature", "properties": { "value": 31.985 }, "geometry": { "type": "Point", "coordinates": [ 129.327591, 35.465279, 30.0 ] } },
{ "type": "Feature", "properties": { "value": 10.086 }, "geometry": { "type": "Point", "coordinates": [ 129.32869, 35.465275, 30.0 ] } },
{ "type": "Feature", "properties": { "value": 21.575 }, "geometry": { "type": "Point", "coordinates": [ 129.327591, 35.466179, 30.0 ] } },
{ "type": "Feature", "properties": { "value": 12.331 }, "geometry": { "type": "Point", "coordinates": [ 129.32869, 35.466175, 30.0 ] } },
{ "type": "Feature", "properties": { "value": 135.69 }, "geometry": { "type": "Point", "coordinates": [ 129.317688, 35.467106, 30.0 ] } },
{ "type": "Feature", "properties": { "value": 17.011 }, "geometry": { "type": "Point", "coordinates": [ 129.327591, 35.467079, 30.0 ] } },
{ "type": "Feature", "properties": { "value": 14.727 }, "geometry": { "type": "Point", "coordinates": [ 129.328705, 35.467075, 30.0 ] } },
{ "type": "Feature", "properties": { "value": 984.79 }, "geometry": { "type": "Point", "coordinates": [ 129.317688, 35.468006, 30.0 ] } },
{ "type": "Feature", "properties": { "value": 14.564 }, "geometry": { "type": "Point", "coordinates": [ 129.327606, 35.467983, 30.0 ] } },
{ "type": "Feature", "properties": { "value": 16.489 }, "geometry": { "type": "Point", "coordinates": [ 129.328705, 35.467979, 30.0 ] } },
{ "type": "Feature", "properties": { "value": 1004.0 }, "geometry": { "type": "Point", "coordinates": [ 129.317688, 35.46891, 30.0 ] } },
{ "type": "Feature", "properties": { "value": 50.005 }, "geometry": { "type": "Point", "coordinates": [ 129.318787, 35.468906, 30.0 ] } },
{ "type": "Feature", "properties": { "value": 13.915 }, "geometry": { "type": "Point", "coordinates": [ 129.327606, 35.468884, 30.0 ] } },
{ "type": "Feature", "properties": { "value": 18.417 }, "geometry": { "type": "Point", "coordinates": [ 129.328705, 35.46888, 30.0 ] } },
{ "type": "Feature", "properties": { "value": 0.1885 }, "geometry": { "type": "Point", "coordinates": [ 129.329803, 35.468876, 30.0 ] } },
{ "type": "Feature", "properties": { "value": 15.724 }, "geometry": { "type": "Point", "coordinates": [ 129.316589, 35.469814, 30.0 ] } },
{ "type": "Feature", "properties": { "value": 896.66 }, "geometry": { "type": "Point", "coordinates": [ 129.317688, 35.46981, 30.0 ] } },
{ "type": "Feature", "properties": { "value": 134.86 }, "geometry": { "type": "Point", "coordinates": [ 129.318787, 35.469807, 30.0 ] } },
{ "type": "Feature", "properties": { "value": 14.868 }, "geometry": { "type": "Point", "coordinates": [ 129.327606, 35.469784, 30.0 ] } },
{ "type": "Feature", "properties": { "value": 21.459 }, "geometry": { "type": "Point", "coordinates": [ 129.328705, 35.46978, 30.0 ] } },
{ "type": "Feature", "properties": { "value": 0.6023 }, "geometry": { "type": "Point", "coordinates": [ 129.329819, 35.469776, 30.0 ] } },
{ "type": "Feature", "properties": { "value": 63.843 }, "geometry": { "type": "Point", "coordinates": [ 129.316589, 35.470715, 30.0 ] } },
{ "type": "Feature", "properties": { "value": 775.16 }, "geometry": { "type": "Point", "coordinates": [ 129.317688, 35.470711, 30.0 ] } },
{ "type": "Feature", "properties": { "value": 193.12 }, "geometry": { "type": "Point", "coordinates": [ 129.318802, 35.470707, 30.0 ] } },
{ "type": "Feature", "properties": { "value": 16.307 }, "geometry": { "type": "Point", "coordinates": [ 129.327606, 35.470684, 30.0 ] } },
{ "type": "Feature", "properties": { "value": 26.894 }, "geometry": { "type": "Point", "coordinates": [ 129.32872, 35.470684, 30.0 ] } },
{ "type": "Feature", "properties": { "value": 1.4564 }, "geometry": { "type": "Point", "coordinates": [ 129.329819, 35.47068, 30.0 ] } },
{ "type": "Feature", "properties": { "value": 134.8 }, "geometry": { "type": "Point", "coordinates": [ 129.316605, 35.471615, 30.0 ] } },
{ "type": "Feature", "properties": { "value": 655.85 }, "geometry": { "type": "Point", "coordinates": [ 129.317703, 35.471615, 30.0 ] } },
{ "type": "Feature", "properties": { "value": 193.28 }, "geometry": { "type": "Point", "coordinates": [ 129.318802, 35.471611, 30.0 ] } },
{ "type": "Feature", "properties": { "value": 18.207 }, "geometry": { "type": "Point", "coordinates": [ 129.327621, 35.471588, 30.0 ] } },
{ "type": "Feature", "properties": { "value": 35.169 }, "geometry": { "type": "Point", "coordinates": [ 129.32872, 35.471584, 30.0 ] } },
{ "type": "Feature", "properties": { "value": 2.7608 }, "geometry": { "type": "Point", "coordinates": [ 129.329819, 35.471581, 30.0 ] } },
{ "type": "Feature", "properties": { "value": 11.056 }, "geometry": { "type": "Point", "coordinates": [ 129.315506, 35.472519, 30.0 ] } },
{ "type": "Feature", "properties": { "value": 205.1 }, "geometry": { "type": "Point", "coordinates": [ 129.316605, 35.472519, 30.0 ] } },
{ "type": "Feature", "properties": { "value": 536.57 }, "geometry": { "type": "Point", "coordinates": [ 129.317703, 35.472515, 30.0 ] } },
{ "type": "Feature", "properties": { "value": 163.15 }, "geometry": { "type": "Point", "coordinates": [ 129.318802, 35.472511, 30.0 ] } },
{ "type": "Feature", "properties": { "value": 0.4471 }, "geometry": { "type": "Point", "coordinates": [ 129.326523, 35.472492, 30.0 ] } },
{ "type": "Feature", "properties": { "value": 19.659 }, "geometry": { "type": "Point", "coordinates": [ 129.327621, 35.472488, 30.0 ] } },
{ "type": "Feature", "properties": { "value": 39.855 }, "geometry": { "type": "Point", "coordinates": [ 129.32872, 35.472485, 30.0 ] } },
{ "type": "Feature", "properties": { "value": 4.1851 }, "geometry": { "type": "Point", "coordinates": [ 129.329819, 35.472481, 30.0 ] } },
{ "type": "Feature", "properties": { "value": 29.026 }, "geometry": { "type": "Point", "coordinates": [ 129.315506, 35.473423, 30.0 ] } },
{ "type": "Feature", "properties": { "value": 247.92 }, "geometry": { "type": "Point", "coordinates": [ 129.316605, 35.473419, 30.0 ] } },
{ "type": "Feature", "properties": { "value": 437.74 }, "geometry": { "type": "Point", "coordinates": [ 129.317703, 35.473415, 30.0 ] } },
{ "type": "Feature", "properties": { "value": 139.76 }, "geometry": { "type": "Point", "coordinates": [ 129.318802, 35.473412, 30.0 ] } },
{ "type": "Feature", "properties": { "value": 5.8948 }, "geometry": { "type": "Point", "coordinates": [ 129.319916, 35.473412, 30.0 ] } },
{ "type": "Feature", "properties": { "value": 0.5585 }, "geometry": { "type": "Point", "coordinates": [ 129.326523, 35.473392, 30.0 ] } },
{ "type": "Feature", "properties": { "value": 19.554 }, "geometry": { "type": "Point", "coordinates": [ 129.327621, 35.473389, 30.0 ] } },
{ "type": "Feature", "properties": { "value": 40.701 }, "geometry": { "type": "Point", "coordinates": [ 129.32872, 35.473385, 30.0 ] } },
{ "type": "Feature", "properties": { "value": 5.7986 }, "geometry": { "type": "Point", "coordinates": [ 129.329819, 35.473385, 30.0 ] } },
{ "type": "Feature", "properties": { "value": 52.116 }, "geometry": { "type": "Point", "coordinates": [ 129.315506, 35.474323, 30.0 ] } },
{ "type": "Feature", "properties": { "value": 265.97 }, "geometry": { "type": "Point", "coordinates": [ 129.316605, 35.474319, 30.0 ] } },
{ "type": "Feature", "properties": { "value": 365.85 }, "geometry": { "type": "Point", "coordinates": [ 129.317703, 35.474316, 30.0 ] } },
{ "type": "Feature", "properties": { "value": 124.24 }, "geometry": { "type": "Point", "coordinates": [ 129.318817, 35.474316, 30.0 ] } },
{ "type": "Feature", "properties": { "value": 9.4023 }, "geometry": { "type": "Point", "coordinates": [ 129.319916, 35.474312, 30.0 ] } },
{ "type": "Feature", "properties": { "value": 0.6657 }, "geometry": { "type": "Point", "coordinates": [ 129.326523, 35.474293, 30.0 ] } },
{ "type": "Feature", "properties": { "value": 19.056 }, "geometry": { "type": "Point", "coordinates": [ 129.327621, 35.474289, 30.0 ] } },
{ "type": "Feature", "properties": { "value": 40.499 }, "geometry": { "type": "Point", "coordinates": [ 129.328735, 35.474289, 30.0 ] } },
{ "type": "Feature", "properties": { "value": 7.2926 }, "geometry": { "type": "Point", "coordinates": [ 129.329834, 35.474285, 30.0 ] } },
{ "type": "Feature", "properties": { "value": 6.5037 }, "geometry": { "type": "Point", "coordinates": [ 129.314407, 35.475227, 30.0 ] } },
{ "type": "Feature", "properties": { "value": 74.351 }, "geometry": { "type": "Point", "coordinates": [ 129.315506, 35.475224, 30.0 ] } },
{ "type": "Feature", "properties": { "value": 266.86 }, "geometry": { "type": "Point", "coordinates": [ 129.316605, 35.47522, 30.0 ] } },
{ "type": "Feature", "properties": { "value": 313.65 }, "geometry": { "type": "Point", "coordinates": [ 129.317719, 35.47522, 30.0 ] } },
{ "type": "Feature", "properties": { "value": 114.1 }, "geometry": { "type": "Point", "coordinates": [ 129.318817, 35.475216, 30.0 ] } },
{ "type": "Feature", "properties": { "value": 12.607 }, "geometry": { "type": "Point", "coordinates": [ 129.319916, 35.475212, 30.0 ] } },
{ "type": "Feature", "properties": { "value": 0.8099 }, "geometry": { "type": "Point", "coordinates": [ 129.326523, 35.475193, 30.0 ] } },
{ "type": "Feature", "properties": { "value": 18.676 }, "geometry": { "type": "Point", "coordinates": [ 129.327637, 35.475193, 30.0 ] } },
{ "type": "Feature", "properties": { "value": 39.605 }, "geometry": { "type": "Point", "coordinates": [ 129.328735, 35.475189, 30.0 ] } },
{ "type": "Feature", "properties": { "value": 8.3305 }, "geometry": { "type": "Point", "coordinates": [ 129.329834, 35.475185, 30.0 ] } },
{ "type": "Feature", "properties": { "value": 12.232 }, "geometry": { "type": "Point", "coordinates": [ 129.314407, 35.476128, 30.0 ] } },
{ "type": "Feature", "properties": { "value": 91.432 }, "geometry": { "type": "Point", "coordinates": [ 129.315506, 35.476124, 30.0 ] } },
{ "type": "Feature", "properties": { "value": 256.77 }, "geometry": { "type": "Point", "coordinates": [ 129.31662, 35.476124, 30.0 ] } },
{ "type": "Feature", "properties": { "value": 274.23 }, "geometry": { "type": "Point", "coordinates": [ 129.317719, 35.47612, 30.0 ] } },
{ "type": "Feature", "properties": { "value": 108.52 }, "geometry": { "type": "Point", "coordinates": [ 129.318817, 35.476116, 30.0 ] } },
{ "type": "Feature", "properties": { "value": 15.503 }, "geometry": { "type": "Point", "coordinates": [ 129.319916, 35.476112, 30.0 ] } },
{ "type": "Feature", "properties": { "value": 1.0438 }, "geometry": { "type": "Point", "coordinates": [ 129.326538, 35.476097, 30.0 ] } },
{ "type": "Feature", "properties": { "value": 18.186 }, "geometry": { "type": "Point", "coordinates": [ 129.327637, 35.476093, 30.0 ] } },
{ "type": "Feature", "properties": { "value": 37.222 }, "geometry": { "type": "Point", "coordinates": [ 129.328735, 35.476089, 30.0 ] } },
{ "type": "Feature", "properties": { "value": 8.8339 }, "geometry": { "type": "Point", "coordinates": [ 129.329834, 35.476086, 30.0 ] } },
{ "type": "Feature", "properties": { "value": 19.359 }, "geometry": { "type": "Point", "coordinates": [ 129.314407, 35.477028, 30.0 ] } },
{ "type": "Feature", "properties": { "value": 103.96 }, "geometry": { "type": "Point", "coordinates": [ 129.315521, 35.477028, 30.0 ] } },
{ "type": "Feature", "properties": { "value": 242.39 }, "geometry": { "type": "Point", "coordinates": [ 129.31662, 35.477024, 30.0 ] } },
{ "type": "Feature", "properties": { "value": 244.11 }, "geometry": { "type": "Point", "coordinates": [ 129.317719, 35.47702, 30.0 ] } },
{ "type": "Feature", "properties": { "value": 104.13 }, "geometry": { "type": "Point", "coordinates": [ 129.318817, 35.477016, 30.0 ] } },
{ "type": "Feature", "properties": { "value": 18.752 }, "geometry": { "type": "Point", "coordinates": [ 129.319931, 35.477016, 30.0 ] } },
{ "type": "Feature", "properties": { "value": 1.343 }, "geometry": { "type": "Point", "coordinates": [ 129.326538, 35.476997, 30.0 ] } },
{ "type": "Feature", "properties": { "value": 16.795 }, "geometry": { "type": "Point", "coordinates": [ 129.327637, 35.476994, 30.0 ] } },
{ "type": "Feature", "properties": { "value": 32.201 }, "geometry": { "type": "Point", "coordinates": [ 129.328735, 35.47699, 30.0 ] } },
{ "type": "Feature", "properties": { "value": 8.6927 }, "geometry": { "type": "Point", "coordinates": [ 129.329834, 35.47699, 30.0 ] } },
{ "type": "Feature", "properties": { "value": 0.2491 }, "geometry": { "type": "Point", "coordinates": [ 129.330948, 35.476986, 30.0 ] } },
{ "type": "Feature", "properties": { "value": 2.6995 }, "geometry": { "type": "Point", "coordinates": [ 129.313324, 35.477932, 30.0 ] } },
{ "type": "Feature", "properties": { "value": 25.713 }, "geometry": { "type": "Point", "coordinates": [ 129.314423, 35.477932, 30.0 ] } },
{ "type": "Feature", "properties": { "value": 109.43 }, "geometry": { "type": "Point", "coordinates": [ 129.315521, 35.477928, 30.0 ] } },
{ "type": "Feature", "properties": { "value": 222.63 }, "geometry": { "type": "Point", "coordinates": [ 129.31662, 35.477924, 30.0 ] } },
{ "type": "Feature", "properties": { "value": 215.01 }, "geometry": { "type": "Point", "coordinates": [ 129.317719, 35.477921, 30.0 ] } },
{ "type": "Feature", "properties": { "value": 97.503 }, "geometry": { "type": "Point", "coordinates": [ 129.318832, 35.477921, 30.0 ] } },
{ "type": "Feature", "properties": { "value": 20.583 }, "geometry": { "type": "Point", "coordinates": [ 129.319931, 35.477917, 30.0 ] } },
{ "type": "Feature", "properties": { "value": 1.3803 }, "geometry": { "type": "Point", "coordinates": [ 129.326538, 35.477898, 30.0 ] } },
{ "type": "Feature", "properties": { "value": 13.473 }, "geometry": { "type": "Point", "coordinates": [ 129.327637, 35.477894, 30.0 ] } },
{ "type": "Feature", "properties": { "value": 24.368 }, "geometry": { "type": "Point", "coordinates": [ 129.328735, 35.477894, 30.0 ] } },
{ "type": "Feature", "properties": { "value": 7.4472 }, "geometry": { "type": "Point", "coordinates": [ 129.329849, 35.47789, 30.0 ] } },
{ "type": "Feature", "properties": { "value": 0.3428 }, "geometry": { "type": "Point", "coordinates": [ 129.330948, 35.477886, 30.0 ] } },
{ "type": "Feature", "properties": { "value": 3.7713 }, "geometry": { "type": "Point", "coordinates": [ 129.313324, 35.478836, 30.0 ] } },
{ "type": "Feature", "properties": { "value": 28.023 }, "geometry": { "type": "Point", "coordinates": [ 129.314423, 35.478832, 30.0 ] } },
{ "type": "Feature", "properties": { "value": 101.79 }, "geometry": { "type": "Point", "coordinates": [ 129.315521, 35.478828, 30.0 ] } },
{ "type": "Feature", "properties": { "value": 186.81 }, "geometry": { "type": "Point", "coordinates": [ 129.31662, 35.478825, 30.0 ] } },
{ "type": "Feature", "properties": { "value": 174.78 }, "geometry": { "type": "Point", "coordinates": [ 129.317734, 35.478825, 30.0 ] } },
{ "type": "Feature", "properties": { "value": 82.49 }, "geometry": { "type": "Point", "coordinates": [ 129.318832, 35.478821, 30.0 ] } },
{ "type": "Feature", "properties": { "value": 19.594 }, "geometry": { "type": "Point", "coordinates": [ 129.319931, 35.478817, 30.0 ] } },
{ "type": "Feature", "properties": { "value": 1.7254 }, "geometry": { "type": "Point", "coordinates": [ 129.32103, 35.478813, 30.0 ] } },
{ "type": "Feature", "properties": { "value": 0.8085 }, "geometry": { "type": "Point", "coordinates": [ 129.326538, 35.478798, 30.0 ] } },
{ "type": "Feature", "properties": { "value": 7.1963 }, "geometry": { "type": "Point", "coordinates": [ 129.327637, 35.478798, 30.0 ] } },
{ "type": "Feature", "properties": { "value": 12.482 }, "geometry": { "type": "Point", "coordinates": [ 129.328751, 35.478794, 30.0 ] } },
{ "type": "Feature", "properties": { "value": 4.1212 }, "geometry": { "type": "Point", "coordinates": [ 129.329849, 35.47879, 30.0 ] } },
{ "type": "Feature", "properties": { "value": 0.2207 }, "geometry": { "type": "Point", "coordinates": [ 129.330948, 35.478786, 30.0 ] } },
{ "type": "Feature", "properties": { "value": 3.6944 }, "geometry": { "type": "Point", "coordinates": [ 129.313324, 35.479736, 30.0 ] } },
{ "type": "Feature", "properties": { "value": 23.147 }, "geometry": { "type": "Point", "coordinates": [ 129.314423, 35.479733, 30.0 ] } },
{ "type": "Feature", "properties": { "value": 74.629 }, "geometry": { "type": "Point", "coordinates": [ 129.315521, 35.479729, 30.0 ] } },
{ "type": "Feature", "properties": { "value": 128.44 }, "geometry": { "type": "Point", "coordinates": [ 129.316635, 35.479729, 30.0 ] } },
{ "type": "Feature", "properties": { "value": 117.76 }, "geometry": { "type": "Point", "coordinates": [ 129.317734, 35.479725, 30.0 ] } },
{ "type": "Feature", "properties": { "value": 56.927 }, "geometry": { "type": "Point", "coordinates": [ 129.318832, 35.479721, 30.0 ] } },
{ "type": "Feature", "properties": { "value": 14.458 }, "geometry": { "type": "Point", "coordinates": [ 129.319931, 35.479717, 30.0 ] } },
{ "type": "Feature", "properties": { "value": 1.5503 }, "geometry": { "type": "Point", "coordinates": [ 129.32103, 35.479717, 30.0 ] } },
{ "type": "Feature", "properties": { "value": 0.1915 }, "geometry": { "type": "Point", "coordinates": [ 129.326553, 35.479702, 30.0 ] } },
{ "type": "Feature", "properties": { "value": 1.8732 }, "geometry": { "type": "Point", "coordinates": [ 129.327652, 35.479698, 30.0 ] } },
{ "type": "Feature", "properties": { "value": 3.1197 }, "geometry": { "type": "Point", "coordinates": [ 129.328751, 35.479694, 30.0 ] } },
{ "type": "Feature", "properties": { "value": 0.9891 }, "geometry": { "type": "Point", "coordinates": [ 129.329849, 35.479691, 30.0 ] } },
{ "type": "Feature", "properties": { "value": 0.0289 }, "geometry": { "type": "Point", "coordinates": [ 129.330948, 35.479691, 30.0 ] } },
{ "type": "Feature", "properties": { "value": 2.2916 }, "geometry": { "type": "Point", "coordinates": [ 129.313324, 35.480637, 30.0 ] } },
{ "type": "Feature", "properties": { "value": 13.366 }, "geometry": { "type": "Point", "coordinates": [ 129.314423, 35.480633, 30.0 ] } },
{ "type": "Feature", "properties": { "value": 39.852 }, "geometry": { "type": "Point", "coordinates": [ 129.315536, 35.480633, 30.0 ] } },
{ "type": "Feature", "properties": { "value": 65.35 }, "geometry": { "type": "Point", "coordinates": [ 129.316635, 35.480629, 30.0 ] } },
{ "type": "Feature", "properties": { "value": 58.911 }, "geometry": { "type": "Point", "coordinates": [ 129.317734, 35.480625, 30.0 ] } },
{ "type": "Feature", "properties": { "value": 29.101 }, "geometry": { "type": "Point", "coordinates": [ 129.318832, 35.480621, 30.0 ] } },
{ "type": "Feature", "properties": { "value": 7.5849 }, "geometry": { "type": "Point", "coordinates": [ 129.319931, 35.480621, 30.0 ] } },
{ "type": "Feature", "properties": { "value": 0.6338 }, "geometry": { "type": "Point", "coordinates": [ 129.321045, 35.480618, 30.0 ] } },
{ "type": "Feature", "properties": { "value": 0.1548 }, "geometry": { "type": "Point", "coordinates": [ 129.327652, 35.480598, 30.0 ] } },
{ "type": "Feature", "properties": { "value": 0.2562 }, "geometry": { "type": "Point", "coordinates": [ 129.328751, 35.480595, 30.0 ] } },
{ "type": "Feature", "properties": { "value": 0.0662 }, "geometry": { "type": "Point", "coordinates": [ 129.329849, 35.480595, 30.0 ] } },
{ "type": "Feature", "properties": { "value": 0.7088 }, "geometry": { "type": "Point", "coordinates": [ 129.313324, 35.481537, 30.0 ] } },
{ "type": "Feature", "properties": { "value": 4.8623 }, "geometry": { "type": "Point", "coordinates": [ 129.314438, 35.481537, 30.0 ] } },
{ "type": "Feature", "properties": { "value": 14.269 }, "geometry": { "type": "Point", "coordinates": [ 129.315536, 35.481533, 30.0 ] } },
{ "type": "Feature", "properties": { "value": 22.774 }, "geometry": { "type": "Point", "coordinates": [ 129.316635, 35.481529, 30.0 ] } },
{ "type": "Feature", "properties": { "value": 20.303 }, "geometry": { "type": "Point", "coordinates": [ 129.317734, 35.481525, 30.0 ] } },
{ "type": "Feature", "properties": { "value": 10.091 }, "geometry": { "type": "Point", "coordinates": [ 129.318848, 35.481525, 30.0 ] } },
{ "type": "Feature", "properties": { "value": 2.7061 }, "geometry": { "type": "Point", "coordinates": [ 129.319946, 35.481522, 30.0 ] } },
{ "type": "Feature", "properties": { "value": 0.1335 }, "geometry": { "type": "Point", "coordinates": [ 129.321045, 35.481518, 30.0 ] } },
{ "type": "Feature", "properties": { "value": 0.1079 }, "geometry": { "type": "Point", "coordinates": [ 129.313339, 35.482441, 30.0 ] } },
{ "type": "Feature", "properties": { "value": 0.9596 }, "geometry": { "type": "Point", "coordinates": [ 129.314438, 35.482437, 30.0 ] } },
{ "type": "Feature", "properties": { "value": 3.143 }, "geometry": { "type": "Point", "coordinates": [ 129.315536, 35.482433, 30.0 ] } },
{ "type": "Feature", "properties": { "value": 5.1748 }, "geometry": { "type": "Point", "coordinates": [ 129.316635, 35.48243, 30.0 ] } },
{ "type": "Feature", "properties": { "value": 4.5785 }, "geometry": { "type": "Point", "coordinates": [ 129.317749, 35.48243, 30.0 ] } },
{ "type": "Feature", "properties": { "value": 2.1607 }, "geometry": { "type": "Point", "coordinates": [ 129.318848, 35.482426, 30.0 ] } },
{ "type": "Feature", "properties": { "value": 0.5084 }, "geometry": { "type": "Point", "coordinates": [ 129.319946, 35.482422, 30.0 ] } },
{ "type": "Feature", "properties": { "value": 0.2506 }, "geometry": { "type": "Point", "coordinates": [ 129.315536, 35.483337, 30.0 ] } },
{ "type": "Feature", "properties": { "value": 0.6522 }, "geometry": { "type": "Point", "coordinates": [ 129.31665, 35.483334, 30.0 ] } },
{ "type": "Feature", "properties": { "value": 0.5715 }, "geometry": { "type": "Point", "coordinates": [ 129.317749, 35.48333, 30.0 ] } },
{ "type": "Feature", "properties": { "value": 0.1643 }, "geometry": { "type": "Point", "coordinates": [ 129.318848, 35.483326, 30.0 ] } }
]
}
