{
"type": "FeatureCollection",
"features": [
{ "type": "Feature", "properties": { "value": 0.0025 }, "geometry": { "type": "Point", "coordinates": [ 129.32756, 35.458969, 60.0 ] } },
{ "type": "Feature", "properties": { "value": 2.743 }, "geometry": { "type": "Point", "coordinates": [ 129.32756, 35.459869, 60.0 ] } },
{ "type": "Feature", "properties": { "value": 70.318 }, "geometry": { "type": "Point", "coordinates": [ 129.327576, 35.46077, 60.0 ] } },
{ "type": "Feature", "properties": { "value": 127.23 }, "geometry": { "type": "Point", "coordinates": [ 129.327576, 35.461674, 60.0 ] } },
{ "type": "Feature", "properties": { "value": 112.27 }, "geometry": { "type": "Point", "coordinates": [ 129.327576, 35.462574, 60.0 ] } },
{ "type": "Feature", "properties": { "value": 89.746 }, "geometry": { "type": "Point", "coordinates": [ 129.327576, 35.463474, 60.0 ] } },
{ "type": "Feature", "properties": { "value": 2.3095 }, "geometry": { "type": "Point", "coordinates": [ 129.32869, 35.46347, 60.0 ] } },
{ "type": "Feature", "properties": { "value": 77.55 }, "geometry": { "type": "Point", "coordinates": [ 129.327591, 35.464375, 60.0 ] } },
{ "type": "Feature", "properties": { "value": 6.9198 }, "geometry": { "type": "Point", "coordinates": [ 129.32869, 35.464375, 60.0 ] } },
{ "type": "Feature", "properties": { "value": 76.989 }, "geometry": { "type": "Point", "coordinates": [ 129.327591, 35.465279, 60.0 ] } },
{ "type": "Feature", "properties": { "value": 17.151 }, "geometry": { "type": "Point", "coordinates": [ 129.32869, 35.465275, 60.0 ] } },
{ "type": "Feature", "properties": { "value": 74.038 }, "geometry": { "type": "Point", "coordinates": [ 129.327591, 35.466179, 60.0 ] } },
{ "type": "Feature", "properties": { "value": 31.227 }, "geometry": { "type": "Point", "coordinates": [ 129.32869, 35.466175, 60.0 ] } },
{ "type": "Feature", "properties": { "value": 71.237 }, "geometry": { "type": "Point", "coordinates": [ 129.327591, 35.467079, 60.0 ] } },
{ "type": "Feature", "properties": { "value": 42.472 }, "geometry": { "type": "Point", "coordinates": [ 129.328705, 35.467075, 60.0 ] } },
{ "type": "Feature", "properties": { "value": 67.706 }, "geometry": { "type": "Point", "coordinates": [ 129.327606, 35.467983, 60.0 ] } },
{ "type": "Feature", "properties": { "value": 49.086 }, "geometry": { "type": "Point", "coordinates": [ 129.328705, 35.467979, 60.0 ] } },
{ "type": "Feature", "properties": { "value": 64.679 }, "geometry": { "type": "Point", "coordinates": [ 129.327606, 35.468884, 60.0 ] } },
{ "type": "Feature", "properties": { "value": 52.381 }, "geometry": { "type": "Point", "coordinates": [ 129.328705, 35.46888, 60.0 ] } },
{ "type": "Feature", "properties": { "value": 1.0241 }, "geometry": { "type": "Point", "coordinates": [ 129.326508, 35.469788, 60.0 ] } },
{ "type": "Feature", "properties": { "value": 61.995 }, "geometry": { "type": "Point", "coordinates": [ 129.327606, 35.469784, 60.0 ] } },
{ "type": "Feature", "properties": { "value": 53.802 }, "geometry": { "type": "Point", "coordinates": [ 129.328705, 35.46978, 60.0 ] } },
{ "type": "Feature", "properties": { "value": 1.6206 }, "geometry": { "type": "Point", "coordinates": [ 129.326508, 35.470688, 60.0 ] } },
{ "type": "Feature", "properties": { "value": 58.615 }, "geometry": { "type": "Point", "coordinates": [ 129.327606, 35.470684, 60.0 ] } },
{ "type": "Feature", "properties": { "value": 51.778 }, "geometry": { "type": "Point", "coordinates": [ 129.32872, 35.470684, 60.0 ] } },
{ "type": "Feature", "properties": { "value": 1.0174 }, "geometry": { "type": "Point", "coordinates": [ 129.329819, 35.47068, 60.0 ] } },
{ "type": "Feature", "properties": { "value": 2.2683 }, "geometry": { "type": "Point", "coordinates": [ 129.326508, 35.471588, 60.0 ] } },
{ "type": "Feature", "properties": { "value": 52.355 }, "geometry": { "type": "Point", "coordinates": [ 129.327621, 35.471588, 60.0 ] } },
{ "type": "Feature", "properties": { "value": 41.299 }, "geometry": { "type": "Point", "coordinates": [ 129.32872, 35.471584, 60.0 ] } },
{ "type": "Feature", "properties": { "value": 1.002 }, "geometry": { "type": "Point", "coordinates": [ 129.329819, 35.471581, 60.0 ] } },
{ "type": "Feature", "properties": { "value": 2.7794 }, "geometry": { "type": "Point", "coordinates": [ 129.326523, 35.472492, 60.0 ] } },
{ "type": "Feature", "properties": { "value": 42.138 }, "geometry": { "type": "Point", "coordinates": [ 129.327621, 35.472488, 60.0 ] } },
{ "type": "Feature", "properties": { "value": 27.877 }, "geometry": { "type": "Point", "coordinates": [ 129.32872, 35.472485, 60.0 ] } },
{ "type": "Feature", "properties": { "value": 1.0327 }, "geometry": { "type": "Point", "coordinates": [ 129.329819, 35.472481, 60.0 ] } },
{ "type": "Feature", "properties": { "value": 3.7996 }, "geometry": { "type": "Point", "coordinates": [ 129.326523, 35.473392, 60.0 ] } },
{ "type": "Feature", "properties": { "value": 33.259 }, "geometry": { "type": "Point", "coordinates": [ 129.327621, 35.473389, 60.0 ] } },
{ "type": "Feature", "properties": { "value": 23.216 }, "geometry": { "type": "Point", "coordinates": [ 129.32872, 35.473385, 60.0 ] } },
{ "type": "Feature", "properties": { "value": 1.7955 }, "geometry": { "type": "Point", "coordinates": [ 129.329819, 35.473385, 60.0 ] } },
{ "type": "Feature", "properties": { "value": 4.8446 }, "geometry": { "type": "Point", "coordinates": [ 129.326523, 35.474293, 60.0 ] } },
{ "type": "Feature", "properties": { "value": 29.056 }, "geometry": { "type": "Point", "coordinates": [ 129.327621, 35.474289, 60.0 ] } },
{ "type": "Feature", "properties": { "value": 23.63 }, "geometry": { "type": "Point", "coordinates": [ 129.328735, 35.474289, 60.0 ] } },
{ "type": "Feature", "properties": { "value": 3.0009 }, "geometry": { "type": "Point", "coordinates": [ 129.329834, 35.474285, 60.0 ] } },
{ "type": "Feature", "properties": { "value": 5.5398 }, "geometry": { "type": "Point", "coordinates": [ 129.326523, 35.475193, 60.0 ] } },
{ "type": "Feature", "properties": { "value": 29.007 }, "geometry": { "type": "Point", "coordinates": [ 129.327637, 35.475193, 60.0 ] } },
{ "type": "Feature", "properties": { "value": 25.385 }, "geometry": { "type": "Point", "coordinates": [ 129.328735, 35.475189, 60.0 ] } },
{ "type": "Feature", "properties": { "value": 3.9491 }, "geometry": { "type": "Point", "coordinates": [ 129.329834, 35.475185, 60.0 ] } },
{ "type": "Feature", "properties": { "value": 6.9078 }, "geometry": { "type": "Point", "coordinates": [ 129.326538, 35.476097, 60.0 ] } },
{ "type": "Feature", "properties": { "value": 33.504 }, "geometry": { "type": "Point", "coordinates": [ 129.327637, 35.476093, 60.0 ] } },
{ "type": "Feature", "properties": { "value": 28.52 }, "geometry": { "type": "Point", "coordinates": [ 129.328735, 35.476089, 60.0 ] } },
{ "type": "Feature", "properties": { "value": 4.5651 }, "geometry": { "type": "Point", "coordinates": [ 129.329834, 35.476086, 60.0 ] } },
{ "type": "Feature", "properties": { "value": 0.2216 }, "geometry": { "type": "Point", "coordinates": [ 129.325439, 35.477001, 60.0 ] } },
{ "type": "Feature", "properties": { "value": 9.7399 }, "geometry": { "type": "Point", "coordinates": [ 129.326538, 35.476997, 60.0 ] } },
{ "type": "Feature", "properties": { "value": 40.548 }, "geometry": { "type": "Point", "coordinates": [ 129.327637, 35.476994, 60.0 ] } },
{ "type": "Feature", "properties": { "value": 31.381 }, "geometry": { "type": "Point", "coordinates": [ 129.328735, 35.47699, 60.0 ] } },
{ "type": "Feature", "properties": { "value": 4.7536 }, "geometry": { "type": "Point", "coordinates": [ 129.329834, 35.47699, 60.0 ] } },
{ "type": "Feature", "properties": { "value": 0.8549 }, "geometry": { "type": "Point", "coordinates": [ 129.325439, 35.477901, 60.0 ] } },
{ "type": "Feature", "properties": { "value": 14.101 }, "geometry": { "type": "Point", "coordinates": [ 129.326538, 35.477898, 60.0 ] } },
{ "type": "Feature", "properties": { "value": 45.343 }, "geometry": { "type": "Point", "coordinates": [ 129.327637, 35.477894, 60.0 ] } },
{ "type": "Feature", "properties": { "value": 31.095 }, "geometry": { "type": "Point", "coordinates": [ 129.328735, 35.477894, 60.0 ] } },
{ "type": "Feature", "properties": { "value": 4.5479 }, "geometry": { "type": "Point", "coordinates": [ 129.329849, 35.47789, 60.0 ] } },
{ "type": "Feature", "properties": { "value": 1.8498 }, "geometry": { "type": "Point", "coordinates": [ 129.325439, 35.478802, 60.0 ] } },
{ "type": "Feature", "properties": { "value": 19.126 }, "geometry": { "type": "Point", "coordinates": [ 129.326538, 35.478798, 60.0 ] } },
{ "type": "Feature", "properties": { "value": 47.561 }, "geometry": { "type": "Point", "coordinates": [ 129.327637, 35.478798, 60.0 ] } },
{ "type": "Feature", "properties": { "value": 28.762 }, "geometry": { "type": "Point", "coordinates": [ 129.328751, 35.478794, 60.0 ] } },
{ "type": "Feature", "properties": { "value": 4.1051 }, "geometry": { "type": "Point", "coordinates": [ 129.329849, 35.47879, 60.0 ] } },
{ "type": "Feature", "properties": { "value": 3.2199 }, "geometry": { "type": "Point", "coordinates": [ 129.325439, 35.479706, 60.0 ] } },
{ "type": "Feature", "properties": { "value": 24.023 }, "geometry": { "type": "Point", "coordinates": [ 129.326553, 35.479702, 60.0 ] } },
{ "type": "Feature", "properties": { "value": 48.374 }, "geometry": { "type": "Point", "coordinates": [ 129.327652, 35.479698, 60.0 ] } },
{ "type": "Feature", "properties": { "value": 25.981 }, "geometry": { "type": "Point", "coordinates": [ 129.328751, 35.479694, 60.0 ] } },
{ "type": "Feature", "properties": { "value": 3.5967 }, "geometry": { "type": "Point", "coordinates": [ 129.329849, 35.479691, 60.0 ] } },
{ "type": "Feature", "properties": { "value": 4.8403 }, "geometry": { "type": "Point", "coordinates": [ 129.325455, 35.480606, 60.0 ] } },
{ "type": "Feature", "properties": { "value": 27.568 }, "geometry": { "type": "Point", "coordinates": [ 129.326553, 35.480602, 60.0 ] } },
{ "type": "Feature", "properties": { "value": 46.17 }, "geometry": { "type": "Point", "coordinates": [ 129.327652, 35.480598, 60.0 ] } },
{ "type": "Feature", "properties": { "value": 22.585 }, "geometry": { "type": "Point", "coordinates": [ 129.328751, 35.480595, 60.0 ] } },
{ "type": "Feature", "properties": { "value": 3.0425 }, "geometry": { "type": "Point", "coordinates": [ 129.329849, 35.480595, 60.0 ] } },
{ "type": "Feature", "properties": { "value": 0.1042 }, "geometry": { "type": "Point", "coordinates": [ 129.324356, 35.48151, 60.0 ] } },
{ "type": "Feature", "properties": { "value": 6.5964 }, "geometry": { "type": "Point", "coordinates": [ 129.325455, 35.481506, 60.0 ] } },
{ "type": "Feature", "properties": { "value": 29.723 }, "geometry": { "type": "Point", "coordinates": [ 129.326553, 35.481503, 60.0 ] } },
{ "type": "Feature", "properties": { "value": 43.115 }, "geometry": { "type": "Point", "coordinates": [ 129.327652, 35.481503, 60.0 ] } },
{ "type": "Feature", "properties": { "value": 19.356 }, "geometry": { "type": "Point", "coordinates": [ 129.328751, 35.481499, 60.0 ] } },
{ "type": "Feature", "properties": { "value": 2.5216 }, "geometry": { "type": "Point", "coordinates": [ 129.329865, 35.481495, 60.0 ] } },
{ "type": "Feature", "properties": { "value": 0.742 }, "geometry": { "type": "Point", "coordinates": [ 129.324356, 35.48241, 60.0 ] } },
{ "type": "Feature", "properties": { "value": 8.8718 }, "geometry": { "type": "Point", "coordinates": [ 129.325455, 35.482407, 60.0 ] } },
{ "type": "Feature", "properties": { "value": 32.587 }, "geometry": { "type": "Point", "coordinates": [ 129.326553, 35.482407, 60.0 ] } },
{ "type": "Feature", "properties": { "value": 40.78 }, "geometry": { "type": "Point", "coordinates": [ 129.327652, 35.482403, 60.0 ] } },
{ "type": "Feature", "properties": { "value": 16.496 }, "geometry": { "type": "Point", "coordinates": [ 129.328766, 35.482399, 60.0 ] } },
{ "type": "Feature", "properties": { "value": 2.0642 }, "geometry": { "type": "Point", "coordinates": [ 129.329865, 35.482395, 60.0 ] } },
{ "type": "Feature", "properties": { "value": 1.4835 }, "geometry": { "type": "Point", "coordinates": [ 129.324356, 35.483311, 60.0 ] } },
{ "type": "Feature", "properties": { "value": 12.089 }, "geometry": { "type": "Point", "coordinates": [ 129.325455, 35.483311, 60.0 ] } },
{ "type": "Feature", "properties": { "value": 35.749 }, "geometry": { "type": "Point", "coordinates": [ 129.326553, 35.483307, 60.0 ] } },
{ "type": "Feature", "properties": { "value": 37.692 }, "geometry": { "type": "Point", "coordinates": [ 129.327667, 35.483303, 60.0 ] } },
{ "type": "Feature", "properties": { "value": 13.78 }, "geometry": { "type": "Point", "coordinates": [ 129.328766, 35.483299, 60.0 ] } },
{ "type": "Feature", "properties": { "value": 1.6706 }, "geometry": { "type": "Point", "coordinates": [ 129.329865, 35.483295, 60.0 ] } },
{ "type": "Feature", "properties": { "value": 2.7838 }, "geometry": { "type": "Point", "coordinates": [ 129.324356, 35.484215, 60.0 ] } },
{ "type": "Feature", "properties": { "value": 16.347 }, "geometry": { "type": "Point", "coordinates": [ 129.325455, 35.484211, 60.0 ] } },
{ "type": "Feature", "properties": { "value": 37.983 }, "geometry": { "type": "Point", "coordinates": [ 129.326569, 35.484207, 60.0 ] } },
{ "type": "Feature", "properties": { "value": 33.537 }, "geometry": { "type": "Point", "coordinates": [ 129.327667, 35.484203, 60.0 ] } },
{ "type": "Feature", "properties": { "value": 11.05 }, "geometry": { "type": "Point", "coordinates": [ 129.328766, 35.484203, 60.0 ] } },
{ "type": "Feature", "properties": { "value": 1.2682 }, "geometry": { "type": "Point", "coordinates": [ 129.329865, 35.4842, 60.0 ] } },
{ "type": "Feature", "properties": { "value": 0.3336 }, "geometry": { "type": "Point", "coordinates": [ 129.323257, 35.485119, 60.0 ] } },
{ "type": "Feature", "properties": { "value": 5.0586 }, "geometry": { "type": "Point", "coordinates": [ 129.324371, 35.485115, 60.0 ] } },
{ "type": "Feature", "properties": { "value": 21.741 }, "geometry": { "type": "Point", "coordinates": [ 129.32547, 35.485111, 60.0 ] } },
{ "type": "Feature", "properties": { "value": 39.44 }, "geometry": { "type": "Point", "coordinates": [ 129.326569, 35.485107, 60.0 ] } },
{ "type": "Feature", "properties": { "value": 29.003 }, "geometry": { "type": "Point", "coordinates": [ 129.327667, 35.485107, 60.0 ] } },
{ "type": "Feature", "properties": { "value": 8.468 }, "geometry": { "type": "Point", "coordinates": [ 129.328766, 35.485104, 60.0 ] } },
{ "type": "Feature", "properties": { "value": 0.8649 }, "geometry": { "type": "Point", "coordinates": [ 129.32988, 35.4851, 60.0 ] } },
{ "type": "Feature", "properties": { "value": 1.1219 }, "geometry": { "type": "Point", "coordinates": [ 129.323273, 35.486019, 60.0 ] } },
{ "type": "Feature", "properties": { "value": 8.7561 }, "geometry": { "type": "Point", "coordinates": [ 129.324371, 35.486015, 60.0 ] } },
{ "type": "Feature", "properties": { "value": 28.125 }, "geometry": { "type": "Point", "coordinates": [ 129.32547, 35.486012, 60.0 ] } },
{ "type": "Feature", "properties": { "value": 39.93 }, "geometry": { "type": "Point", "coordinates": [ 129.326569, 35.486012, 60.0 ] } },
{ "type": "Feature", "properties": { "value": 24.308 }, "geometry": { "type": "Point", "coordinates": [ 129.327667, 35.486008, 60.0 ] } },
{ "type": "Feature", "properties": { "value": 6.147 }, "geometry": { "type": "Point", "coordinates": [ 129.328781, 35.486004, 60.0 ] } },
{ "type": "Feature", "properties": { "value": 0.4793 }, "geometry": { "type": "Point", "coordinates": [ 129.32988, 35.486, 60.0 ] } },
{ "type": "Feature", "properties": { "value": 2.5922 }, "geometry": { "type": "Point", "coordinates": [ 129.323273, 35.486919, 60.0 ] } },
{ "type": "Feature", "properties": { "value": 13.929 }, "geometry": { "type": "Point", "coordinates": [ 129.324371, 35.486916, 60.0 ] } },
{ "type": "Feature", "properties": { "value": 34.247 }, "geometry": { "type": "Point", "coordinates": [ 129.32547, 35.486916, 60.0 ] } },
{ "type": "Feature", "properties": { "value": 38.658 }, "geometry": { "type": "Point", "coordinates": [ 129.326569, 35.486912, 60.0 ] } },
{ "type": "Feature", "properties": { "value": 19.56 }, "geometry": { "type": "Point", "coordinates": [ 129.327682, 35.486908, 60.0 ] } },
{ "type": "Feature", "properties": { "value": 4.2521 }, "geometry": { "type": "Point", "coordinates": [ 129.328781, 35.486904, 60.0 ] } },
{ "type": "Feature", "properties": { "value": 0.1352 }, "geometry": { "type": "Point", "coordinates": [ 129.32988, 35.486904, 60.0 ] } },
{ "type": "Feature", "properties": { "value": 0.4804 }, "geometry": { "type": "Point", "coordinates": [ 129.322174, 35.487823, 60.0 ] } },
{ "type": "Feature", "properties": { "value": 5.0858 }, "geometry": { "type": "Point", "coordinates": [ 129.323273, 35.48782, 60.0 ] } },
{ "type": "Feature", "properties": { "value": 20.2 }, "geometry": { "type": "Point", "coordinates": [ 129.324371, 35.48782, 60.0 ] } },
{ "type": "Feature", "properties": { "value": 38.954 }, "geometry": { "type": "Point", "coordinates": [ 129.32547, 35.487816, 60.0 ] } },
{ "type": "Feature", "properties": { "value": 35.842 }, "geometry": { "type": "Point", "coordinates": [ 129.326584, 35.487812, 60.0 ] } },
{ "type": "Feature", "properties": { "value": 15.276 }, "geometry": { "type": "Point", "coordinates": [ 129.327682, 35.487808, 60.0 ] } },
{ "type": "Feature", "properties": { "value": 2.8725 }, "geometry": { "type": "Point", "coordinates": [ 129.328781, 35.487808, 60.0 ] } },
{ "type": "Feature", "properties": { "value": 1.3285 }, "geometry": { "type": "Point", "coordinates": [ 129.322174, 35.488728, 60.0 ] } },
{ "type": "Feature", "properties": { "value": 8.6326 }, "geometry": { "type": "Point", "coordinates": [ 129.323273, 35.488724, 60.0 ] } },
{ "type": "Feature", "properties": { "value": 26.775 }, "geometry": { "type": "Point", "coordinates": [ 129.324371, 35.48872, 60.0 ] } },
{ "type": "Feature", "properties": { "value": 41.666 }, "geometry": { "type": "Point", "coordinates": [ 129.325485, 35.488716, 60.0 ] } },
{ "type": "Feature", "properties": { "value": 31.8 }, "geometry": { "type": "Point", "coordinates": [ 129.326584, 35.488712, 60.0 ] } },
{ "type": "Feature", "properties": { "value": 11.588 }, "geometry": { "type": "Point", "coordinates": [ 129.327682, 35.488712, 60.0 ] } },
{ "type": "Feature", "properties": { "value": 1.9141 }, "geometry": { "type": "Point", "coordinates": [ 129.328781, 35.488708, 60.0 ] } },
{ "type": "Feature", "properties": { "value": 2.8358 }, "geometry": { "type": "Point", "coordinates": [ 129.322174, 35.489628, 60.0 ] } },
{ "type": "Feature", "properties": { "value": 13.158 }, "geometry": { "type": "Point", "coordinates": [ 129.323273, 35.489624, 60.0 ] } },
{ "type": "Feature", "properties": { "value": 32.207 }, "geometry": { "type": "Point", "coordinates": [ 129.324387, 35.48962, 60.0 ] } },
{ "type": "Feature", "properties": { "value": 41.0 }, "geometry": { "type": "Point", "coordinates": [ 129.325485, 35.489616, 60.0 ] } },
{ "type": "Feature", "properties": { "value": 26.352 }, "geometry": { "type": "Point", "coordinates": [ 129.326584, 35.489616, 60.0 ] } },
{ "type": "Feature", "properties": { "value": 8.3332 }, "geometry": { "type": "Point", "coordinates": [ 129.327682, 35.489613, 60.0 ] } },
{ "type": "Feature", "properties": { "value": 1.1869 }, "geometry": { "type": "Point", "coordinates": [ 129.328796, 35.489609, 60.0 ] } },
{ "type": "Feature", "properties": { "value": 0.8027 }, "geometry": { "type": "Point", "coordinates": [ 129.321075, 35.490532, 60.0 ] } },
{ "type": "Feature", "properties": { "value": 5.4239 }, "geometry": { "type": "Point", "coordinates": [ 129.322174, 35.490528, 60.0 ] } },
{ "type": "Feature", "properties": { "value": 18.594 }, "geometry": { "type": "Point", "coordinates": [ 129.323288, 35.490524, 60.0 ] } },
{ "type": "Feature", "properties": { "value": 35.646 }, "geometry": { "type": "Point", "coordinates": [ 129.324387, 35.490524, 60.0 ] } },
{ "type": "Feature", "properties": { "value": 36.985 }, "geometry": { "type": "Point", "coordinates": [ 129.325485, 35.49052, 60.0 ] } },
{ "type": "Feature", "properties": { "value": 20.134 }, "geometry": { "type": "Point", "coordinates": [ 129.326584, 35.490517, 60.0 ] } },
{ "type": "Feature", "properties": { "value": 5.5281 }, "geometry": { "type": "Point", "coordinates": [ 129.327698, 35.490513, 60.0 ] } },
{ "type": "Feature", "properties": { "value": 0.6105 }, "geometry": { "type": "Point", "coordinates": [ 129.328796, 35.490509, 60.0 ] } },
{ "type": "Feature", "properties": { "value": 2.1757 }, "geometry": { "type": "Point", "coordinates": [ 129.321091, 35.491432, 60.0 ] } },
{ "type": "Feature", "properties": { "value": 9.5852 }, "geometry": { "type": "Point", "coordinates": [ 129.322189, 35.491428, 60.0 ] } },
{ "type": "Feature", "properties": { "value": 24.742 }, "geometry": { "type": "Point", "coordinates": [ 129.323288, 35.491428, 60.0 ] } },
{ "type": "Feature", "properties": { "value": 37.076 }, "geometry": { "type": "Point", "coordinates": [ 129.324387, 35.491425, 60.0 ] } },
{ "type": "Feature", "properties": { "value": 31.203 }, "geometry": { "type": "Point", "coordinates": [ 129.325485, 35.491421, 60.0 ] } },
{ "type": "Feature", "properties": { "value": 14.251 }, "geometry": { "type": "Point", "coordinates": [ 129.326599, 35.491417, 60.0 ] } },
{ "type": "Feature", "properties": { "value": 3.3876 }, "geometry": { "type": "Point", "coordinates": [ 129.327698, 35.491413, 60.0 ] } },
{ "type": "Feature", "properties": { "value": 0.1394 }, "geometry": { "type": "Point", "coordinates": [ 129.328796, 35.491413, 60.0 ] } },
{ "type": "Feature", "properties": { "value": 0.852 }, "geometry": { "type": "Point", "coordinates": [ 129.319992, 35.492336, 60.0 ] } },
{ "type": "Feature", "properties": { "value": 4.8217 }, "geometry": { "type": "Point", "coordinates": [ 129.321091, 35.492332, 60.0 ] } },
{ "type": "Feature", "properties": { "value": 15.494 }, "geometry": { "type": "Point", "coordinates": [ 129.322189, 35.492332, 60.0 ] } },
{ "type": "Feature", "properties": { "value": 30.582 }, "geometry": { "type": "Point", "coordinates": [ 129.323288, 35.492329, 60.0 ] } },
{ "type": "Feature", "properties": { "value": 36.085 }, "geometry": { "type": "Point", "coordinates": [ 129.324387, 35.492325, 60.0 ] } },
{ "type": "Feature", "properties": { "value": 24.522 }, "geometry": { "type": "Point", "coordinates": [ 129.3255, 35.492321, 60.0 ] } },
{ "type": "Feature", "properties": { "value": 9.3329 }, "geometry": { "type": "Point", "coordinates": [ 129.326599, 35.492317, 60.0 ] } },
{ "type": "Feature", "properties": { "value": 1.8878 }, "geometry": { "type": "Point", "coordinates": [ 129.327698, 35.492317, 60.0 ] } },
{ "type": "Feature", "properties": { "value": 0.2692 }, "geometry": { "type": "Point", "coordinates": [ 129.318893, 35.49324, 60.0 ] } },
{ "type": "Feature", "properties": { "value": 2.4776 }, "geometry": { "type": "Point", "coordinates": [ 129.319992, 35.493237, 60.0 ] } },
{ "type": "Feature", "properties": { "value": 9.3074 }, "geometry": { "type": "Point", "coordinates": [ 129.321091, 35.493237, 60.0 ] } },
{ "type": "Feature", "properties": { "value": 22.494 }, "geometry": { "type": "Point", "coordinates": [ 129.322189, 35.493233, 60.0 ] } },
{ "type": "Feature", "properties": { "value": 34.418 }, "geometry": { "type": "Point", "coordinates": [ 129.323288, 35.493229, 60.0 ] } },
{ "type": "Feature", "properties": { "value": 32.253 }, "geometry": { "type": "Point", "coordinates": [ 129.324402, 35.493225, 60.0 ] } },
{ "type": "Feature", "properties": { "value": 17.794 }, "geometry": { "type": "Point", "coordinates": [ 129.3255, 35.493225, 60.0 ] } },
{ "type": "Feature", "properties": { "value": 5.6292 }, "geometry": { "type": "Point", "coordinates": [ 129.326599, 35.493221, 60.0 ] } },
{ "type": "Feature", "properties": { "value": 0.9262 }, "geometry": { "type": "Point", "coordinates": [ 129.327698, 35.493217, 60.0 ] } },
{ "type": "Feature", "properties": { "value": 1.4 }, "geometry": { "type": "Point", "coordinates": [ 129.318893, 35.494141, 60.0 ] } },
{ "type": "Feature", "properties": { "value": 5.7163 }, "geometry": { "type": "Point", "coordinates": [ 129.319992, 35.494141, 60.0 ] } },
{ "type": "Feature", "properties": { "value": 15.77 }, "geometry": { "type": "Point", "coordinates": [ 129.321091, 35.494137, 60.0 ] } },
{ "type": "Feature", "properties": { "value": 29.097 }, "geometry": { "type": "Point", "coordinates": [ 129.322189, 35.494133, 60.0 ] } },
{ "type": "Feature", "properties": { "value": 34.872 }, "geometry": { "type": "Point", "coordinates": [ 129.323303, 35.494129, 60.0 ] } },
{ "type": "Feature", "properties": { "value": 26.171 }, "geometry": { "type": "Point", "coordinates": [ 129.324402, 35.494129, 60.0 ] } },
{ "type": "Feature", "properties": { "value": 11.872 }, "geometry": { "type": "Point", "coordinates": [ 129.3255, 35.494125, 60.0 ] } },
{ "type": "Feature", "properties": { "value": 3.1411 }, "geometry": { "type": "Point", "coordinates": [ 129.326599, 35.494122, 60.0 ] } },
{ "type": "Feature", "properties": { "value": 0.2793 }, "geometry": { "type": "Point", "coordinates": [ 129.327713, 35.494118, 60.0 ] } },
{ "type": "Feature", "properties": { "value": 0.8584 }, "geometry": { "type": "Point", "coordinates": [ 129.317795, 35.495045, 60.0 ] } },
{ "type": "Feature", "properties": { "value": 3.8125 }, "geometry": { "type": "Point", "coordinates": [ 129.318893, 35.495045, 60.0 ] } },
{ "type": "Feature", "properties": { "value": 11.241 }, "geometry": { "type": "Point", "coordinates": [ 129.319992, 35.495041, 60.0 ] } },
{ "type": "Feature", "properties": { "value": 23.367 }, "geometry": { "type": "Point", "coordinates": [ 129.321091, 35.495037, 60.0 ] } },
{ "type": "Feature", "properties": { "value": 33.343 }, "geometry": { "type": "Point", "coordinates": [ 129.322205, 35.495033, 60.0 ] } },
{ "type": "Feature", "properties": { "value": 31.527 }, "geometry": { "type": "Point", "coordinates": [ 129.323303, 35.495033, 60.0 ] } },
{ "type": "Feature", "properties": { "value": 19.078 }, "geometry": { "type": "Point", "coordinates": [ 129.324402, 35.495029, 60.0 ] } },
{ "type": "Feature", "properties": { "value": 7.1146 }, "geometry": { "type": "Point", "coordinates": [ 129.3255, 35.495026, 60.0 ] } },
{ "type": "Feature", "properties": { "value": 1.5513 }, "geometry": { "type": "Point", "coordinates": [ 129.326614, 35.495022, 60.0 ] } },
{ "type": "Feature", "properties": { "value": 0.6159 }, "geometry": { "type": "Point", "coordinates": [ 129.316696, 35.495949, 60.0 ] } },
{ "type": "Feature", "properties": { "value": 2.7613 }, "geometry": { "type": "Point", "coordinates": [ 129.317795, 35.495949, 60.0 ] } },
{ "type": "Feature", "properties": { "value": 8.4505 }, "geometry": { "type": "Point", "coordinates": [ 129.318893, 35.495945, 60.0 ] } },
{ "type": "Feature", "properties": { "value": 18.873 }, "geometry": { "type": "Point", "coordinates": [ 129.319992, 35.495941, 60.0 ] } },
{ "type": "Feature", "properties": { "value": 30.182 }, "geometry": { "type": "Point", "coordinates": [ 129.321106, 35.495937, 60.0 ] } },
{ "type": "Feature", "properties": { "value": 33.622 }, "geometry": { "type": "Point", "coordinates": [ 129.322205, 35.495937, 60.0 ] } },
{ "type": "Feature", "properties": { "value": 25.277 }, "geometry": { "type": "Point", "coordinates": [ 129.323303, 35.495934, 60.0 ] } },
{ "type": "Feature", "properties": { "value": 12.373 }, "geometry": { "type": "Point", "coordinates": [ 129.324402, 35.49593, 60.0 ] } },
{ "type": "Feature", "properties": { "value": 3.7777 }, "geometry": { "type": "Point", "coordinates": [ 129.325516, 35.495926, 60.0 ] } },
{ "type": "Feature", "properties": { "value": 0.6079 }, "geometry": { "type": "Point", "coordinates": [ 129.326614, 35.495926, 60.0 ] } },
{ "type": "Feature", "properties": { "value": 0.3242 }, "geometry": { "type": "Point", "coordinates": [ 129.315598, 35.496857, 60.0 ] } },
{ "type": "Feature", "properties": { "value": 1.8463 }, "geometry": { "type": "Point", "coordinates": [ 129.316696, 35.496853, 60.0 ] } },
{ "type": "Feature", "properties": { "value": 6.2587 }, "geometry": { "type": "Point", "coordinates": [ 129.317795, 35.496849, 60.0 ] } },
{ "type": "Feature", "properties": { "value": 15.213 }, "geometry": { "type": "Point", "coordinates": [ 129.318893, 35.496845, 60.0 ] } },
{ "type": "Feature", "properties": { "value": 26.747 }, "geometry": { "type": "Point", "coordinates": [ 129.320007, 35.496841, 60.0 ] } },
{ "type": "Feature", "properties": { "value": 33.645 }, "geometry": { "type": "Point", "coordinates": [ 129.321106, 35.496841, 60.0 ] } },
{ "type": "Feature", "properties": { "value": 29.674 }, "geometry": { "type": "Point", "coordinates": [ 129.322205, 35.496838, 60.0 ] } },
{ "type": "Feature", "properties": { "value": 17.816 }, "geometry": { "type": "Point", "coordinates": [ 129.323303, 35.496834, 60.0 ] } },
{ "type": "Feature", "properties": { "value": 7.0943 }, "geometry": { "type": "Point", "coordinates": [ 129.324417, 35.49683, 60.0 ] } },
{ "type": "Feature", "properties": { "value": 1.7457 }, "geometry": { "type": "Point", "coordinates": [ 129.325516, 35.49683, 60.0 ] } },
{ "type": "Feature", "properties": { "value": 0.084 }, "geometry": { "type": "Point", "coordinates": [ 129.326614, 35.496826, 60.0 ] } },
{ "type": "Feature", "properties": { "value": 0.0893 }, "geometry": { "type": "Point", "coordinates": [ 129.314499, 35.497761, 60.0 ] } },
{ "type": "Feature", "properties": { "value": 0.9048 }, "geometry": { "type": "Point", "coordinates": [ 129.315598, 35.497757, 60.0 ] } },
{ "type": "Feature", "properties": { "value": 3.8006 }, "geometry": { "type": "Point", "coordinates": [ 129.316696, 35.497753, 60.0 ] } },
{ "type": "Feature", "properties": { "value": 10.852 }, "geometry": { "type": "Point", "coordinates": [ 129.317795, 35.497749, 60.0 ] } },
{ "type": "Feature", "properties": { "value": 21.935 }, "geometry": { "type": "Point", "coordinates": [ 129.318909, 35.497749, 60.0 ] } },
{ "type": "Feature", "properties": { "value": 31.496 }, "geometry": { "type": "Point", "coordinates": [ 129.320007, 35.497746, 60.0 ] } },
{ "type": "Feature", "properties": { "value": 31.984 }, "geometry": { "type": "Point", "coordinates": [ 129.321106, 35.497742, 60.0 ] } },
{ "type": "Feature", "properties": { "value": 22.596 }, "geometry": { "type": "Point", "coordinates": [ 129.322205, 35.497738, 60.0 ] } },
{ "type": "Feature", "properties": { "value": 11.036 }, "geometry": { "type": "Point", "coordinates": [ 129.323318, 35.497734, 60.0 ] } },
{ "type": "Feature", "properties": { "value": 3.5683 }, "geometry": { "type": "Point", "coordinates": [ 129.324417, 35.497734, 60.0 ] } },
{ "type": "Feature", "properties": { "value": 0.6633 }, "geometry": { "type": "Point", "coordinates": [ 129.325516, 35.49773, 60.0 ] } },
{ "type": "Feature", "properties": { "value": 0.2285 }, "geometry": { "type": "Point", "coordinates": [ 129.314499, 35.498661, 60.0 ] } },
{ "type": "Feature", "properties": { "value": 1.4756 }, "geometry": { "type": "Point", "coordinates": [ 129.315598, 35.498657, 60.0 ] } },
{ "type": "Feature", "properties": { "value": 5.484 }, "geometry": { "type": "Point", "coordinates": [ 129.316696, 35.498653, 60.0 ] } },
{ "type": "Feature", "properties": { "value": 13.898 }, "geometry": { "type": "Point", "coordinates": [ 129.31781, 35.498653, 60.0 ] } },
{ "type": "Feature", "properties": { "value": 24.252 }, "geometry": { "type": "Point", "coordinates": [ 129.318909, 35.49865, 60.0 ] } },
{ "type": "Feature", "properties": { "value": 29.929 }, "geometry": { "type": "Point", "coordinates": [ 129.320007, 35.498646, 60.0 ] } },
{ "type": "Feature", "properties": { "value": 25.174 }, "geometry": { "type": "Point", "coordinates": [ 129.321106, 35.498642, 60.0 ] } },
{ "type": "Feature", "properties": { "value": 14.689 }, "geometry": { "type": "Point", "coordinates": [ 129.32222, 35.498638, 60.0 ] } },
{ "type": "Feature", "properties": { "value": 5.9702 }, "geometry": { "type": "Point", "coordinates": [ 129.323318, 35.498638, 60.0 ] } },
{ "type": "Feature", "properties": { "value": 1.5564 }, "geometry": { "type": "Point", "coordinates": [ 129.324417, 35.498634, 60.0 ] } },
{ "type": "Feature", "properties": { "value": 0.076 }, "geometry": { "type": "Point", "coordinates": [ 129.325516, 35.498631, 60.0 ] } },
{ "type": "Feature", "properties": { "value": 0.0105 }, "geometry": { "type": "Point", "coordinates": [ 129.3134, 35.499565, 60.0 ] } },
{ "type": "Feature", "properties": { "value": 0.2811 }, "geometry": { "type": "Point", "coordinates": [ 129.314499, 35.499561, 60.0 ] } },
{ "type": "Feature", "properties": { "value": 1.5923 }, "geometry": { "type": "Point", "coordinates": [ 129.315598, 35.499557, 60.0 ] } },
{ "type": "Feature", "properties": { "value": 5.5084 }, "geometry": { "type": "Point", "coordinates": [ 129.316711, 35.499557, 60.0 ] } },
{ "type": "Feature", "properties": { "value": 12.625 }, "geometry": { "type": "Point", "coordinates": [ 129.31781, 35.499554, 60.0 ] } },
{ "type": "Feature", "properties": { "value": 19.642 }, "geometry": { "type": "Point", "coordinates": [ 129.318909, 35.49955, 60.0 ] } },
{ "type": "Feature", "properties": { "value": 21.838 }, "geometry": { "type": "Point", "coordinates": [ 129.320007, 35.499546, 60.0 ] } },
{ "type": "Feature", "properties": { "value": 15.781 }, "geometry": { "type": "Point", "coordinates": [ 129.321121, 35.499546, 60.0 ] } },
{ "type": "Feature", "properties": { "value": 7.9851 }, "geometry": { "type": "Point", "coordinates": [ 129.32222, 35.499542, 60.0 ] } },
{ "type": "Feature", "properties": { "value": 2.7502 }, "geometry": { "type": "Point", "coordinates": [ 129.323318, 35.499538, 60.0 ] } },
{ "type": "Feature", "properties": { "value": 0.5034 }, "geometry": { "type": "Point", "coordinates": [ 129.324417, 35.499535, 60.0 ] } },
{ "type": "Feature", "properties": { "value": 0.0102 }, "geometry": { "type": "Point", "coordinates": [ 129.3134, 35.500465, 60.0 ] } },
{ "type": "Feature", "properties": { "value": 0.2121 }, "geometry": { "type": "Point", "coordinates": [ 129.314499, 35.500462, 60.0 ] } },
{ "type": "Feature", "properties": { "value": 1.1545 }, "geometry": { "type": "Point", "coordinates": [ 129.315613, 35.500462, 60.0 ] } },
{ "type": "Feature", "properties": { "value": 3.7427 }, "geometry": { "type": "Point", "coordinates": [ 129.316711, 35.500458, 60.0 ] } },
{ "type": "Feature", "properties": { "value": 7.968 }, "geometry": { "type": "Point", "coordinates": [ 129.31781, 35.500454, 60.0 ] } },
{ "type": "Feature", "properties": { "value": 11.508 }, "geometry": { "type": "Point", "coordinates": [ 129.318909, 35.50045, 60.0 ] } },
{ "type": "Feature", "properties": { "value": 11.574 }, "geometry": { "type": "Point", "coordinates": [ 129.320023, 35.50045, 60.0 ] } },
{ "type": "Feature", "properties": { "value": 7.6389 }, "geometry": { "type": "Point", "coordinates": [ 129.321121, 35.500446, 60.0 ] } },
{ "type": "Feature", "properties": { "value": 3.4887 }, "geometry": { "type": "Point", "coordinates": [ 129.32222, 35.500443, 60.0 ] } },
{ "type": "Feature", "properties": { "value": 1.024 }, "geometry": { "type": "Point", "coordinates": [ 129.323318, 35.500439, 60.0 ] } },
{ "type": "Feature", "properties": { "value": 0.0128 }, "geometry": { "type": "Point", "coordinates": [ 129.324432, 35.500435, 60.0 ] } },
{ "type": "Feature", "properties": { "value": 0.0958 }, "geometry": { "type": "Point", "coordinates": [ 129.314514, 35.501366, 60.0 ] } },
{ "type": "Feature", "properties": { "value": 0.5637 }, "geometry": { "type": "Point", "coordinates": [ 129.315613, 35.501362, 60.0 ] } },
{ "type": "Feature", "properties": { "value": 1.7268 }, "geometry": { "type": "Point", "coordinates": [ 129.316711, 35.501358, 60.0 ] } },
{ "type": "Feature", "properties": { "value": 3.4815 }, "geometry": { "type": "Point", "coordinates": [ 129.31781, 35.501354, 60.0 ] } },
{ "type": "Feature", "properties": { "value": 4.9025 }, "geometry": { "type": "Point", "coordinates": [ 129.318924, 35.501354, 60.0 ] } },
{ "type": "Feature", "properties": { "value": 4.4599 }, "geometry": { "type": "Point", "coordinates": [ 129.320023, 35.50135, 60.0 ] } },
{ "type": "Feature", "properties": { "value": 2.802 }, "geometry": { "type": "Point", "coordinates": [ 129.321121, 35.501347, 60.0 ] } },
{ "type": "Feature", "properties": { "value": 1.1652 }, "geometry": { "type": "Point", "coordinates": [ 129.32222, 35.501343, 60.0 ] } },
{ "type": "Feature", "properties": { "value": 0.1642 }, "geometry": { "type": "Point", "coordinates": [ 129.323334, 35.501339, 60.0 ] } }
]
}
