{
"type": "FeatureCollection",
"features": [
{ "type": "Feature", "properties": { "value": 0.0035 }, "geometry": { "type": "Point", "coordinates": [ 129.32756, 35.458969, 60.0 ] } },
{ "type": "Feature", "properties": { "value": 3.6258 }, "geometry": { "type": "Point", "coordinates": [ 129.32756, 35.459869, 60.0 ] } },
{ "type": "Feature", "properties": { "value": 81.614 }, "geometry": { "type": "Point", "coordinates": [ 129.327576, 35.46077, 60.0 ] } },
{ "type": "Feature", "properties": { "value": 127.86 }, "geometry": { "type": "Point", "coordinates": [ 129.327576, 35.461674, 60.0 ] } },
{ "type": "Feature", "properties": { "value": 92.043 }, "geometry": { "type": "Point", "coordinates": [ 129.327576, 35.462574, 60.0 ] } },
{ "type": "Feature", "properties": { "value": 2.0006 }, "geometry": { "type": "Point", "coordinates": [ 129.328674, 35.46257, 60.0 ] } },
{ "type": "Feature", "properties": { "value": 55.731 }, "geometry": { "type": "Point", "coordinates": [ 129.327576, 35.463474, 60.0 ] } },
{ "type": "Feature", "properties": { "value": 11.419 }, "geometry": { "type": "Point", "coordinates": [ 129.32869, 35.46347, 60.0 ] } },
{ "type": "Feature", "properties": { "value": 33.822 }, "geometry": { "type": "Point", "coordinates": [ 129.327591, 35.464375, 60.0 ] } },
{ "type": "Feature", "properties": { "value": 31.774 }, "geometry": { "type": "Point", "coordinates": [ 129.32869, 35.464375, 60.0 ] } },
{ "type": "Feature", "properties": { "value": 22.005 }, "geometry": { "type": "Point", "coordinates": [ 129.327591, 35.465279, 60.0 ] } },
{ "type": "Feature", "properties": { "value": 71.613 }, "geometry": { "type": "Point", "coordinates": [ 129.32869, 35.465275, 60.0 ] } },
{ "type": "Feature", "properties": { "value": 13.217 }, "geometry": { "type": "Point", "coordinates": [ 129.327591, 35.466179, 60.0 ] } },
{ "type": "Feature", "properties": { "value": 108.5 }, "geometry": { "type": "Point", "coordinates": [ 129.32869, 35.466175, 60.0 ] } },
{ "type": "Feature", "properties": { "value": 7.1734 }, "geometry": { "type": "Point", "coordinates": [ 129.327591, 35.467079, 60.0 ] } },
{ "type": "Feature", "properties": { "value": 118.24 }, "geometry": { "type": "Point", "coordinates": [ 129.328705, 35.467075, 60.0 ] } },
{ "type": "Feature", "properties": { "value": 6.7565 }, "geometry": { "type": "Point", "coordinates": [ 129.329803, 35.467075, 60.0 ] } },
{ "type": "Feature", "properties": { "value": 3.385 }, "geometry": { "type": "Point", "coordinates": [ 129.327606, 35.467983, 60.0 ] } },
{ "type": "Feature", "properties": { "value": 103.46 }, "geometry": { "type": "Point", "coordinates": [ 129.328705, 35.467979, 60.0 ] } },
{ "type": "Feature", "properties": { "value": 20.448 }, "geometry": { "type": "Point", "coordinates": [ 129.329803, 35.467976, 60.0 ] } },
{ "type": "Feature", "properties": { "value": 1.4981 }, "geometry": { "type": "Point", "coordinates": [ 129.327606, 35.468884, 60.0 ] } },
{ "type": "Feature", "properties": { "value": 77.255 }, "geometry": { "type": "Point", "coordinates": [ 129.328705, 35.46888, 60.0 ] } },
{ "type": "Feature", "properties": { "value": 42.824 }, "geometry": { "type": "Point", "coordinates": [ 129.329803, 35.468876, 60.0 ] } },
{ "type": "Feature", "properties": { "value": 50.355 }, "geometry": { "type": "Point", "coordinates": [ 129.328705, 35.46978, 60.0 ] } },
{ "type": "Feature", "properties": { "value": 66.785 }, "geometry": { "type": "Point", "coordinates": [ 129.329819, 35.469776, 60.0 ] } },
{ "type": "Feature", "properties": { "value": 2.1097 }, "geometry": { "type": "Point", "coordinates": [ 129.330917, 35.469776, 60.0 ] } },
{ "type": "Feature", "properties": { "value": 28.686 }, "geometry": { "type": "Point", "coordinates": [ 129.32872, 35.470684, 60.0 ] } },
{ "type": "Feature", "properties": { "value": 73.05 }, "geometry": { "type": "Point", "coordinates": [ 129.329819, 35.47068, 60.0 ] } },
{ "type": "Feature", "properties": { "value": 5.8242 }, "geometry": { "type": "Point", "coordinates": [ 129.330917, 35.470676, 60.0 ] } },
{ "type": "Feature", "properties": { "value": 12.17 }, "geometry": { "type": "Point", "coordinates": [ 129.32872, 35.471584, 60.0 ] } },
{ "type": "Feature", "properties": { "value": 49.758 }, "geometry": { "type": "Point", "coordinates": [ 129.329819, 35.471581, 60.0 ] } },
{ "type": "Feature", "properties": { "value": 9.9751 }, "geometry": { "type": "Point", "coordinates": [ 129.330917, 35.471577, 60.0 ] } },
{ "type": "Feature", "properties": { "value": 3.8181 }, "geometry": { "type": "Point", "coordinates": [ 129.32872, 35.472485, 60.0 ] } },
{ "type": "Feature", "properties": { "value": 30.026 }, "geometry": { "type": "Point", "coordinates": [ 129.329819, 35.472481, 60.0 ] } },
{ "type": "Feature", "properties": { "value": 18.911 }, "geometry": { "type": "Point", "coordinates": [ 129.330917, 35.472477, 60.0 ] } },
{ "type": "Feature", "properties": { "value": 1.1084 }, "geometry": { "type": "Point", "coordinates": [ 129.332031, 35.472477, 60.0 ] } },
{ "type": "Feature", "properties": { "value": 1.2949 }, "geometry": { "type": "Point", "coordinates": [ 129.32872, 35.473385, 60.0 ] } },
{ "type": "Feature", "properties": { "value": 22.81 }, "geometry": { "type": "Point", "coordinates": [ 129.329819, 35.473385, 60.0 ] } },
{ "type": "Feature", "properties": { "value": 37.387 }, "geometry": { "type": "Point", "coordinates": [ 129.330933, 35.473381, 60.0 ] } },
{ "type": "Feature", "properties": { "value": 6.512 }, "geometry": { "type": "Point", "coordinates": [ 129.332031, 35.473377, 60.0 ] } },
{ "type": "Feature", "properties": { "value": 0.5121 }, "geometry": { "type": "Point", "coordinates": [ 129.328735, 35.474289, 60.0 ] } },
{ "type": "Feature", "properties": { "value": 17.604 }, "geometry": { "type": "Point", "coordinates": [ 129.329834, 35.474285, 60.0 ] } },
{ "type": "Feature", "properties": { "value": 50.544 }, "geometry": { "type": "Point", "coordinates": [ 129.330933, 35.474281, 60.0 ] } },
{ "type": "Feature", "properties": { "value": 18.326 }, "geometry": { "type": "Point", "coordinates": [ 129.332031, 35.474277, 60.0 ] } },
{ "type": "Feature", "properties": { "value": 1.0007 }, "geometry": { "type": "Point", "coordinates": [ 129.33313, 35.474274, 60.0 ] } },
{ "type": "Feature", "properties": { "value": 10.64 }, "geometry": { "type": "Point", "coordinates": [ 129.329834, 35.475185, 60.0 ] } },
{ "type": "Feature", "properties": { "value": 47.375 }, "geometry": { "type": "Point", "coordinates": [ 129.330933, 35.475182, 60.0 ] } },
{ "type": "Feature", "properties": { "value": 32.619 }, "geometry": { "type": "Point", "coordinates": [ 129.332031, 35.475178, 60.0 ] } },
{ "type": "Feature", "properties": { "value": 4.2024 }, "geometry": { "type": "Point", "coordinates": [ 129.333145, 35.475178, 60.0 ] } },
{ "type": "Feature", "properties": { "value": 5.4742 }, "geometry": { "type": "Point", "coordinates": [ 129.329834, 35.476086, 60.0 ] } },
{ "type": "Feature", "properties": { "value": 37.171 }, "geometry": { "type": "Point", "coordinates": [ 129.330933, 35.476086, 60.0 ] } },
{ "type": "Feature", "properties": { "value": 44.603 }, "geometry": { "type": "Point", "coordinates": [ 129.332047, 35.476082, 60.0 ] } },
{ "type": "Feature", "properties": { "value": 11.285 }, "geometry": { "type": "Point", "coordinates": [ 129.333145, 35.476078, 60.0 ] } },
{ "type": "Feature", "properties": { "value": 0.5173 }, "geometry": { "type": "Point", "coordinates": [ 129.334244, 35.476074, 60.0 ] } },
{ "type": "Feature", "properties": { "value": 2.425 }, "geometry": { "type": "Point", "coordinates": [ 129.329834, 35.47699, 60.0 ] } },
{ "type": "Feature", "properties": { "value": 24.359 }, "geometry": { "type": "Point", "coordinates": [ 129.330948, 35.476986, 60.0 ] } },
{ "type": "Feature", "properties": { "value": 48.633 }, "geometry": { "type": "Point", "coordinates": [ 129.332047, 35.476982, 60.0 ] } },
{ "type": "Feature", "properties": { "value": 22.605 }, "geometry": { "type": "Point", "coordinates": [ 129.333145, 35.476978, 60.0 ] } },
{ "type": "Feature", "properties": { "value": 2.7247 }, "geometry": { "type": "Point", "coordinates": [ 129.334244, 35.476974, 60.0 ] } },
{ "type": "Feature", "properties": { "value": 0.8805 }, "geometry": { "type": "Point", "coordinates": [ 129.329849, 35.47789, 60.0 ] } },
{ "type": "Feature", "properties": { "value": 13.553 }, "geometry": { "type": "Point", "coordinates": [ 129.330948, 35.477886, 60.0 ] } },
{ "type": "Feature", "properties": { "value": 43.264 }, "geometry": { "type": "Point", "coordinates": [ 129.332047, 35.477882, 60.0 ] } },
{ "type": "Feature", "properties": { "value": 35.1 }, "geometry": { "type": "Point", "coordinates": [ 129.333145, 35.477879, 60.0 ] } },
{ "type": "Feature", "properties": { "value": 8.1278 }, "geometry": { "type": "Point", "coordinates": [ 129.334259, 35.477879, 60.0 ] } },
{ "type": "Feature", "properties": { "value": 0.3183 }, "geometry": { "type": "Point", "coordinates": [ 129.335358, 35.477875, 60.0 ] } },
{ "type": "Feature", "properties": { "value": 6.4123 }, "geometry": { "type": "Point", "coordinates": [ 129.330948, 35.478786, 60.0 ] } },
{ "type": "Feature", "properties": { "value": 31.724 }, "geometry": { "type": "Point", "coordinates": [ 129.332047, 35.478786, 60.0 ] } },
{ "type": "Feature", "properties": { "value": 43.035 }, "geometry": { "type": "Point", "coordinates": [ 129.33316, 35.478783, 60.0 ] } },
{ "type": "Feature", "properties": { "value": 17.868 }, "geometry": { "type": "Point", "coordinates": [ 129.334259, 35.478779, 60.0 ] } },
{ "type": "Feature", "properties": { "value": 2.4892 }, "geometry": { "type": "Point", "coordinates": [ 129.335358, 35.478775, 60.0 ] } },
{ "type": "Feature", "properties": { "value": 2.5447 }, "geometry": { "type": "Point", "coordinates": [ 129.330948, 35.479691, 60.0 ] } },
{ "type": "Feature", "properties": { "value": 19.204 }, "geometry": { "type": "Point", "coordinates": [ 129.332062, 35.479687, 60.0 ] } },
{ "type": "Feature", "properties": { "value": 41.991 }, "geometry": { "type": "Point", "coordinates": [ 129.33316, 35.479683, 60.0 ] } },
{ "type": "Feature", "properties": { "value": 29.981 }, "geometry": { "type": "Point", "coordinates": [ 129.334259, 35.479679, 60.0 ] } },
{ "type": "Feature", "properties": { "value": 7.8294 }, "geometry": { "type": "Point", "coordinates": [ 129.335358, 35.479675, 60.0 ] } },
{ "type": "Feature", "properties": { "value": 0.7509 }, "geometry": { "type": "Point", "coordinates": [ 129.336456, 35.479675, 60.0 ] } },
{ "type": "Feature", "properties": { "value": 0.7693 }, "geometry": { "type": "Point", "coordinates": [ 129.330963, 35.480591, 60.0 ] } },
{ "type": "Feature", "properties": { "value": 9.6839 }, "geometry": { "type": "Point", "coordinates": [ 129.332062, 35.480587, 60.0 ] } },
{ "type": "Feature", "properties": { "value": 33.047 }, "geometry": { "type": "Point", "coordinates": [ 129.33316, 35.480583, 60.0 ] } },
{ "type": "Feature", "properties": { "value": 38.728 }, "geometry": { "type": "Point", "coordinates": [ 129.334259, 35.480579, 60.0 ] } },
{ "type": "Feature", "properties": { "value": 17.55 }, "geometry": { "type": "Point", "coordinates": [ 129.335358, 35.480579, 60.0 ] } },
{ "type": "Feature", "properties": { "value": 3.6209 }, "geometry": { "type": "Point", "coordinates": [ 129.336472, 35.480576, 60.0 ] } },
{ "type": "Feature", "properties": { "value": 0.2104 }, "geometry": { "type": "Point", "coordinates": [ 129.33757, 35.480572, 60.0 ] } },
{ "type": "Feature", "properties": { "value": 4.1235 }, "geometry": { "type": "Point", "coordinates": [ 129.332062, 35.481487, 60.0 ] } },
{ "type": "Feature", "properties": { "value": 20.994 }, "geometry": { "type": "Point", "coordinates": [ 129.33316, 35.481487, 60.0 ] } },
{ "type": "Feature", "properties": { "value": 37.478 }, "geometry": { "type": "Point", "coordinates": [ 129.334259, 35.481483, 60.0 ] } },
{ "type": "Feature", "properties": { "value": 27.484 }, "geometry": { "type": "Point", "coordinates": [ 129.335373, 35.48148, 60.0 ] } },
{ "type": "Feature", "properties": { "value": 9.8917 }, "geometry": { "type": "Point", "coordinates": [ 129.336472, 35.481476, 60.0 ] } },
{ "type": "Feature", "properties": { "value": 2.0481 }, "geometry": { "type": "Point", "coordinates": [ 129.33757, 35.481472, 60.0 ] } },
{ "type": "Feature", "properties": { "value": 0.068 }, "geometry": { "type": "Point", "coordinates": [ 129.338669, 35.481472, 60.0 ] } },
{ "type": "Feature", "properties": { "value": 1.5873 }, "geometry": { "type": "Point", "coordinates": [ 129.332062, 35.482391, 60.0 ] } },
{ "type": "Feature", "properties": { "value": 11.188 }, "geometry": { "type": "Point", "coordinates": [ 129.333176, 35.482388, 60.0 ] } },
{ "type": "Feature", "properties": { "value": 28.62 }, "geometry": { "type": "Point", "coordinates": [ 129.334274, 35.482384, 60.0 ] } },
{ "type": "Feature", "properties": { "value": 32.124 }, "geometry": { "type": "Point", "coordinates": [ 129.335373, 35.48238, 60.0 ] } },
{ "type": "Feature", "properties": { "value": 18.357 }, "geometry": { "type": "Point", "coordinates": [ 129.336472, 35.482376, 60.0 ] } },
{ "type": "Feature", "properties": { "value": 6.2245 }, "geometry": { "type": "Point", "coordinates": [ 129.33757, 35.482376, 60.0 ] } },
{ "type": "Feature", "properties": { "value": 1.4217 }, "geometry": { "type": "Point", "coordinates": [ 129.338684, 35.482372, 60.0 ] } },
{ "type": "Feature", "properties": { "value": 0.0972 }, "geometry": { "type": "Point", "coordinates": [ 129.339783, 35.482368, 60.0 ] } },
{ "type": "Feature", "properties": { "value": 0.5545 }, "geometry": { "type": "Point", "coordinates": [ 129.332077, 35.483292, 60.0 ] } },
{ "type": "Feature", "properties": { "value": 5.4664 }, "geometry": { "type": "Point", "coordinates": [ 129.333176, 35.483288, 60.0 ] } },
{ "type": "Feature", "properties": { "value": 18.642 }, "geometry": { "type": "Point", "coordinates": [ 129.334274, 35.483284, 60.0 ] } },
{ "type": "Feature", "properties": { "value": 29.513 }, "geometry": { "type": "Point", "coordinates": [ 129.335373, 35.48328, 60.0 ] } },
{ "type": "Feature", "properties": { "value": 24.841 }, "geometry": { "type": "Point", "coordinates": [ 129.336472, 35.48328, 60.0 ] } },
{ "type": "Feature", "properties": { "value": 12.705 }, "geometry": { "type": "Point", "coordinates": [ 129.337585, 35.483276, 60.0 ] } },
{ "type": "Feature", "properties": { "value": 4.4917 }, "geometry": { "type": "Point", "coordinates": [ 129.338684, 35.483273, 60.0 ] } },
{ "type": "Feature", "properties": { "value": 1.1972 }, "geometry": { "type": "Point", "coordinates": [ 129.339783, 35.483269, 60.0 ] } },
{ "type": "Feature", "properties": { "value": 0.1544 }, "geometry": { "type": "Point", "coordinates": [ 129.340881, 35.483265, 60.0 ] } },
{ "type": "Feature", "properties": { "value": 2.4829 }, "geometry": { "type": "Point", "coordinates": [ 129.333176, 35.484188, 60.0 ] } },
{ "type": "Feature", "properties": { "value": 10.615 }, "geometry": { "type": "Point", "coordinates": [ 129.334274, 35.484188, 60.0 ] } },
{ "type": "Feature", "properties": { "value": 22.332 }, "geometry": { "type": "Point", "coordinates": [ 129.335373, 35.484184, 60.0 ] } },
{ "type": "Feature", "properties": { "value": 26.123 }, "geometry": { "type": "Point", "coordinates": [ 129.336487, 35.48418, 60.0 ] } },
{ "type": "Feature", "properties": { "value": 19.028 }, "geometry": { "type": "Point", "coordinates": [ 129.337585, 35.484177, 60.0 ] } },
{ "type": "Feature", "properties": { "value": 9.61 }, "geometry": { "type": "Point", "coordinates": [ 129.338684, 35.484173, 60.0 ] } },
{ "type": "Feature", "properties": { "value": 3.7009 }, "geometry": { "type": "Point", "coordinates": [ 129.339783, 35.484173, 60.0 ] } },
{ "type": "Feature", "properties": { "value": 1.1672 }, "geometry": { "type": "Point", "coordinates": [ 129.340897, 35.484169, 60.0 ] } },
{ "type": "Feature", "properties": { "value": 0.2499 }, "geometry": { "type": "Point", "coordinates": [ 129.341995, 35.484165, 60.0 ] } },
{ "type": "Feature", "properties": { "value": 0.9943 }, "geometry": { "type": "Point", "coordinates": [ 129.333176, 35.485092, 60.0 ] } },
{ "type": "Feature", "properties": { "value": 5.3591 }, "geometry": { "type": "Point", "coordinates": [ 129.334274, 35.485088, 60.0 ] } },
{ "type": "Feature", "properties": { "value": 14.428 }, "geometry": { "type": "Point", "coordinates": [ 129.335388, 35.485085, 60.0 ] } },
{ "type": "Feature", "properties": { "value": 22.436 }, "geometry": { "type": "Point", "coordinates": [ 129.336487, 35.485081, 60.0 ] } },
{ "type": "Feature", "properties": { "value": 22.187 }, "geometry": { "type": "Point", "coordinates": [ 129.337585, 35.485077, 60.0 ] } },
{ "type": "Feature", "properties": { "value": 15.273 }, "geometry": { "type": "Point", "coordinates": [ 129.338684, 35.485077, 60.0 ] } },
{ "type": "Feature", "properties": { "value": 7.9755 }, "geometry": { "type": "Point", "coordinates": [ 129.339798, 35.485073, 60.0 ] } },
{ "type": "Feature", "properties": { "value": 3.3646 }, "geometry": { "type": "Point", "coordinates": [ 129.340897, 35.485069, 60.0 ] } },
{ "type": "Feature", "properties": { "value": 1.18 }, "geometry": { "type": "Point", "coordinates": [ 129.341995, 35.485065, 60.0 ] } },
{ "type": "Feature", "properties": { "value": 0.3438 }, "geometry": { "type": "Point", "coordinates": [ 129.343094, 35.485062, 60.0 ] } },
{ "type": "Feature", "properties": { "value": 0.3137 }, "geometry": { "type": "Point", "coordinates": [ 129.333176, 35.485992, 60.0 ] } },
{ "type": "Feature", "properties": { "value": 2.4076 }, "geometry": { "type": "Point", "coordinates": [ 129.33429, 35.485989, 60.0 ] } },
{ "type": "Feature", "properties": { "value": 8.1317 }, "geometry": { "type": "Point", "coordinates": [ 129.335388, 35.485985, 60.0 ] } },
{ "type": "Feature", "properties": { "value": 16.259 }, "geometry": { "type": "Point", "coordinates": [ 129.336487, 35.485981, 60.0 ] } },
{ "type": "Feature", "properties": { "value": 21.038 }, "geometry": { "type": "Point", "coordinates": [ 129.337585, 35.485981, 60.0 ] } },
{ "type": "Feature", "properties": { "value": 19.034 }, "geometry": { "type": "Point", "coordinates": [ 129.338699, 35.485977, 60.0 ] } },
{ "type": "Feature", "properties": { "value": 12.941 }, "geometry": { "type": "Point", "coordinates": [ 129.339798, 35.485973, 60.0 ] } },
{ "type": "Feature", "properties": { "value": 7.0285 }, "geometry": { "type": "Point", "coordinates": [ 129.340897, 35.48597, 60.0 ] } },
{ "type": "Feature", "properties": { "value": 3.2156 }, "geometry": { "type": "Point", "coordinates": [ 129.341995, 35.485966, 60.0 ] } },
{ "type": "Feature", "properties": { "value": 1.3024 }, "geometry": { "type": "Point", "coordinates": [ 129.343094, 35.485966, 60.0 ] } },
{ "type": "Feature", "properties": { "value": 0.4683 }, "geometry": { "type": "Point", "coordinates": [ 129.344208, 35.485962, 60.0 ] } },
{ "type": "Feature", "properties": { "value": 0.0887 }, "geometry": { "type": "Point", "coordinates": [ 129.345306, 35.485958, 60.0 ] } },
{ "type": "Feature", "properties": { "value": 0.9634 }, "geometry": { "type": "Point", "coordinates": [ 129.33429, 35.486889, 60.0 ] } },
{ "type": "Feature", "properties": { "value": 4.0622 }, "geometry": { "type": "Point", "coordinates": [ 129.335388, 35.486889, 60.0 ] } },
{ "type": "Feature", "properties": { "value": 10.155 }, "geometry": { "type": "Point", "coordinates": [ 129.336487, 35.486885, 60.0 ] } },
{ "type": "Feature", "properties": { "value": 16.693 }, "geometry": { "type": "Point", "coordinates": [ 129.337601, 35.486881, 60.0 ] } },
{ "type": "Feature", "properties": { "value": 19.218 }, "geometry": { "type": "Point", "coordinates": [ 129.338699, 35.486877, 60.0 ] } },
{ "type": "Feature", "properties": { "value": 16.562 }, "geometry": { "type": "Point", "coordinates": [ 129.339798, 35.486874, 60.0 ] } },
{ "type": "Feature", "properties": { "value": 11.342 }, "geometry": { "type": "Point", "coordinates": [ 129.340897, 35.486874, 60.0 ] } },
{ "type": "Feature", "properties": { "value": 6.5128 }, "geometry": { "type": "Point", "coordinates": [ 129.341995, 35.48687, 60.0 ] } },
{ "type": "Feature", "properties": { "value": 3.2888 }, "geometry": { "type": "Point", "coordinates": [ 129.343109, 35.486866, 60.0 ] } },
{ "type": "Feature", "properties": { "value": 1.5169 }, "geometry": { "type": "Point", "coordinates": [ 129.344208, 35.486862, 60.0 ] } },
{ "type": "Feature", "properties": { "value": 0.6415 }, "geometry": { "type": "Point", "coordinates": [ 129.345306, 35.486858, 60.0 ] } },
{ "type": "Feature", "properties": { "value": 0.2342 }, "geometry": { "type": "Point", "coordinates": [ 129.346405, 35.486855, 60.0 ] } },
{ "type": "Feature", "properties": { "value": 0.3109 }, "geometry": { "type": "Point", "coordinates": [ 129.33429, 35.487793, 60.0 ] } },
{ "type": "Feature", "properties": { "value": 1.8311 }, "geometry": { "type": "Point", "coordinates": [ 129.335388, 35.487789, 60.0 ] } },
{ "type": "Feature", "properties": { "value": 5.5938 }, "geometry": { "type": "Point", "coordinates": [ 129.336502, 35.487785, 60.0 ] } },
{ "type": "Feature", "properties": { "value": 11.307 }, "geometry": { "type": "Point", "coordinates": [ 129.337601, 35.487782, 60.0 ] } },
{ "type": "Feature", "properties": { "value": 16.118 }, "geometry": { "type": "Point", "coordinates": [ 129.338699, 35.487778, 60.0 ] } },
{ "type": "Feature", "properties": { "value": 17.22 }, "geometry": { "type": "Point", "coordinates": [ 129.339798, 35.487778, 60.0 ] } },
{ "type": "Feature", "properties": { "value": 14.607 }, "geometry": { "type": "Point", "coordinates": [ 129.340912, 35.487774, 60.0 ] } },
{ "type": "Feature", "properties": { "value": 10.305 }, "geometry": { "type": "Point", "coordinates": [ 129.34201, 35.48777, 60.0 ] } },
{ "type": "Feature", "properties": { "value": 6.3402 }, "geometry": { "type": "Point", "coordinates": [ 129.343109, 35.487766, 60.0 ] } },
{ "type": "Feature", "properties": { "value": 3.5128 }, "geometry": { "type": "Point", "coordinates": [ 129.344208, 35.487762, 60.0 ] } },
{ "type": "Feature", "properties": { "value": 1.8077 }, "geometry": { "type": "Point", "coordinates": [ 129.345306, 35.487759, 60.0 ] } },
{ "type": "Feature", "properties": { "value": 0.8834 }, "geometry": { "type": "Point", "coordinates": [ 129.34642, 35.487759, 60.0 ] } },
{ "type": "Feature", "properties": { "value": 0.4036 }, "geometry": { "type": "Point", "coordinates": [ 129.347519, 35.487755, 60.0 ] } },
{ "type": "Feature", "properties": { "value": 0.1472 }, "geometry": { "type": "Point", "coordinates": [ 129.348618, 35.487751, 60.0 ] } },
{ "type": "Feature", "properties": { "value": 0.0021 }, "geometry": { "type": "Point", "coordinates": [ 129.379471, 35.487659, 60.0 ] } },
{ "type": "Feature", "properties": { "value": 0.0044 }, "geometry": { "type": "Point", "coordinates": [ 129.380569, 35.487656, 60.0 ] } },
{ "type": "Feature", "properties": { "value": 0.0056 }, "geometry": { "type": "Point", "coordinates": [ 129.381683, 35.487652, 60.0 ] } },
{ "type": "Feature", "properties": { "value": 0.7345 }, "geometry": { "type": "Point", "coordinates": [ 129.335403, 35.488689, 60.0 ] } },
{ "type": "Feature", "properties": { "value": 2.7414 }, "geometry": { "type": "Point", "coordinates": [ 129.336502, 35.488686, 60.0 ] } },
{ "type": "Feature", "properties": { "value": 6.6977 }, "geometry": { "type": "Point", "coordinates": [ 129.337601, 35.488682, 60.0 ] } },
{ "type": "Feature", "properties": { "value": 11.552 }, "geometry": { "type": "Point", "coordinates": [ 129.338699, 35.488682, 60.0 ] } },
{ "type": "Feature", "properties": { "value": 15.013 }, "geometry": { "type": "Point", "coordinates": [ 129.339813, 35.488678, 60.0 ] } },
{ "type": "Feature", "properties": { "value": 15.494 }, "geometry": { "type": "Point", "coordinates": [ 129.340912, 35.488674, 60.0 ] } },
{ "type": "Feature", "properties": { "value": 13.243 }, "geometry": { "type": "Point", "coordinates": [ 129.34201, 35.48867, 60.0 ] } },
{ "type": "Feature", "properties": { "value": 9.7645 }, "geometry": { "type": "Point", "coordinates": [ 129.343109, 35.488667, 60.0 ] } },
{ "type": "Feature", "properties": { "value": 6.4238 }, "geometry": { "type": "Point", "coordinates": [ 129.344208, 35.488667, 60.0 ] } },
{ "type": "Feature", "properties": { "value": 3.8934 }, "geometry": { "type": "Point", "coordinates": [ 129.345322, 35.488663, 60.0 ] } },
{ "type": "Feature", "properties": { "value": 2.2081 }, "geometry": { "type": "Point", "coordinates": [ 129.34642, 35.488659, 60.0 ] } },
{ "type": "Feature", "properties": { "value": 1.1824 }, "geometry": { "type": "Point", "coordinates": [ 129.347519, 35.488655, 60.0 ] } },
{ "type": "Feature", "properties": { "value": 0.5908 }, "geometry": { "type": "Point", "coordinates": [ 129.348618, 35.488651, 60.0 ] } },
{ "type": "Feature", "properties": { "value": 0.2757 }, "geometry": { "type": "Point", "coordinates": [ 129.349731, 35.488647, 60.0 ] } },
{ "type": "Feature", "properties": { "value": 0.0902 }, "geometry": { "type": "Point", "coordinates": [ 129.35083, 35.488647, 60.0 ] } },
{ "type": "Feature", "properties": { "value": 0.0156 }, "geometry": { "type": "Point", "coordinates": [ 129.377274, 35.488567, 60.0 ] } },
{ "type": "Feature", "properties": { "value": 0.0246 }, "geometry": { "type": "Point", "coordinates": [ 129.378372, 35.488564, 60.0 ] } },
{ "type": "Feature", "properties": { "value": 0.0294 }, "geometry": { "type": "Point", "coordinates": [ 129.379471, 35.48856, 60.0 ] } },
{ "type": "Feature", "properties": { "value": 0.0299 }, "geometry": { "type": "Point", "coordinates": [ 129.380585, 35.488556, 60.0 ] } },
{ "type": "Feature", "properties": { "value": 0.0276 }, "geometry": { "type": "Point", "coordinates": [ 129.381683, 35.488552, 60.0 ] } },
{ "type": "Feature", "properties": { "value": 0.2271 }, "geometry": { "type": "Point", "coordinates": [ 129.335403, 35.48959, 60.0 ] } },
{ "type": "Feature", "properties": { "value": 1.1996 }, "geometry": { "type": "Point", "coordinates": [ 129.336502, 35.48959, 60.0 ] } },
{ "type": "Feature", "properties": { "value": 3.5106 }, "geometry": { "type": "Point", "coordinates": [ 129.337601, 35.489586, 60.0 ] } },
{ "type": "Feature", "properties": { "value": 7.247 }, "geometry": { "type": "Point", "coordinates": [ 129.338715, 35.489582, 60.0 ] } },
{ "type": "Feature", "properties": { "value": 11.261 }, "geometry": { "type": "Point", "coordinates": [ 129.339813, 35.489578, 60.0 ] } },
{ "type": "Feature", "properties": { "value": 13.931 }, "geometry": { "type": "Point", "coordinates": [ 129.340912, 35.489574, 60.0 ] } },
{ "type": "Feature", "properties": { "value": 14.266 }, "geometry": { "type": "Point", "coordinates": [ 129.34201, 35.489571, 60.0 ] } },
{ "type": "Feature", "properties": { "value": 12.476 }, "geometry": { "type": "Point", "coordinates": [ 129.343109, 35.489571, 60.0 ] } },
{ "type": "Feature", "properties": { "value": 9.6352 }, "geometry": { "type": "Point", "coordinates": [ 129.344223, 35.489567, 60.0 ] } },
{ "type": "Feature", "properties": { "value": 6.7708 }, "geometry": { "type": "Point", "coordinates": [ 129.345322, 35.489563, 60.0 ] } },
{ "type": "Feature", "properties": { "value": 4.3958 }, "geometry": { "type": "Point", "coordinates": [ 129.34642, 35.489559, 60.0 ] } },
{ "type": "Feature", "properties": { "value": 2.6709 }, "geometry": { "type": "Point", "coordinates": [ 129.347519, 35.489555, 60.0 ] } },
{ "type": "Feature", "properties": { "value": 1.5418 }, "geometry": { "type": "Point", "coordinates": [ 129.348633, 35.489555, 60.0 ] } },
{ "type": "Feature", "properties": { "value": 0.8524 }, "geometry": { "type": "Point", "coordinates": [ 129.349731, 35.489552, 60.0 ] } },
{ "type": "Feature", "properties": { "value": 0.4498 }, "geometry": { "type": "Point", "coordinates": [ 129.35083, 35.489548, 60.0 ] } },
{ "type": "Feature", "properties": { "value": 0.2252 }, "geometry": { "type": "Point", "coordinates": [ 129.351929, 35.489544, 60.0 ] } },
{ "type": "Feature", "properties": { "value": 0.0779 }, "geometry": { "type": "Point", "coordinates": [ 129.353027, 35.48954, 60.0 ] } },
{ "type": "Feature", "properties": { "value": 0.0033 }, "geometry": { "type": "Point", "coordinates": [ 129.373978, 35.489479, 60.0 ] } },
{ "type": "Feature", "properties": { "value": 0.0453 }, "geometry": { "type": "Point", "coordinates": [ 129.375076, 35.489475, 60.0 ] } },
{ "type": "Feature", "properties": { "value": 0.0597 }, "geometry": { "type": "Point", "coordinates": [ 129.376175, 35.489471, 60.0 ] } },
{ "type": "Feature", "properties": { "value": 0.0706 }, "geometry": { "type": "Point", "coordinates": [ 129.377274, 35.489468, 60.0 ] } },
{ "type": "Feature", "properties": { "value": 0.0777 }, "geometry": { "type": "Point", "coordinates": [ 129.378387, 35.489464, 60.0 ] } },
{ "type": "Feature", "properties": { "value": 0.0811 }, "geometry": { "type": "Point", "coordinates": [ 129.379486, 35.48946, 60.0 ] } },
{ "type": "Feature", "properties": { "value": 0.0784 }, "geometry": { "type": "Point", "coordinates": [ 129.380585, 35.489456, 60.0 ] } },
{ "type": "Feature", "properties": { "value": 0.0724 }, "geometry": { "type": "Point", "coordinates": [ 129.381683, 35.489452, 60.0 ] } },
{ "type": "Feature", "properties": { "value": 0.4569 }, "geometry": { "type": "Point", "coordinates": [ 129.336502, 35.49049, 60.0 ] } },
{ "type": "Feature", "properties": { "value": 1.6412 }, "geometry": { "type": "Point", "coordinates": [ 129.337616, 35.490486, 60.0 ] } },
{ "type": "Feature", "properties": { "value": 3.9867 }, "geometry": { "type": "Point", "coordinates": [ 129.338715, 35.490482, 60.0 ] } },
{ "type": "Feature", "properties": { "value": 7.3407 }, "geometry": { "type": "Point", "coordinates": [ 129.339813, 35.490479, 60.0 ] } },
{ "type": "Feature", "properties": { "value": 10.787 }, "geometry": { "type": "Point", "coordinates": [ 129.340912, 35.490479, 60.0 ] } },
{ "type": "Feature", "properties": { "value": 13.048 }, "geometry": { "type": "Point", "coordinates": [ 129.34201, 35.490475, 60.0 ] } },
{ "type": "Feature", "properties": { "value": 13.391 }, "geometry": { "type": "Point", "coordinates": [ 129.343124, 35.490471, 60.0 ] } },
{ "type": "Feature", "properties": { "value": 12.055 }, "geometry": { "type": "Point", "coordinates": [ 129.344223, 35.490467, 60.0 ] } },
{ "type": "Feature", "properties": { "value": 9.7558 }, "geometry": { "type": "Point", "coordinates": [ 129.345322, 35.490463, 60.0 ] } },
{ "type": "Feature", "properties": { "value": 7.238 }, "geometry": { "type": "Point", "coordinates": [ 129.34642, 35.490459, 60.0 ] } },
{ "type": "Feature", "properties": { "value": 4.9864 }, "geometry": { "type": "Point", "coordinates": [ 129.347534, 35.490459, 60.0 ] } },
{ "type": "Feature", "properties": { "value": 3.229 }, "geometry": { "type": "Point", "coordinates": [ 129.348633, 35.490456, 60.0 ] } },
{ "type": "Feature", "properties": { "value": 2.0029 }, "geometry": { "type": "Point", "coordinates": [ 129.349731, 35.490452, 60.0 ] } },
{ "type": "Feature", "properties": { "value": 1.2093 }, "geometry": { "type": "Point", "coordinates": [ 129.35083, 35.490448, 60.0 ] } },
{ "type": "Feature", "properties": { "value": 0.723 }, "geometry": { "type": "Point", "coordinates": [ 129.351929, 35.490444, 60.0 ] } },
{ "type": "Feature", "properties": { "value": 0.4236 }, "geometry": { "type": "Point", "coordinates": [ 129.353043, 35.49044, 60.0 ] } },
{ "type": "Feature", "properties": { "value": 0.2426 }, "geometry": { "type": "Point", "coordinates": [ 129.354141, 35.49044, 60.0 ] } },
{ "type": "Feature", "properties": { "value": 0.1281 }, "geometry": { "type": "Point", "coordinates": [ 129.35524, 35.490437, 60.0 ] } },
{ "type": "Feature", "properties": { "value": 0.0527 }, "geometry": { "type": "Point", "coordinates": [ 129.356339, 35.490433, 60.0 ] } },
{ "type": "Feature", "properties": { "value": 0.0024 }, "geometry": { "type": "Point", "coordinates": [ 129.357452, 35.490429, 60.0 ] } },
{ "type": "Feature", "properties": { "value": 0.016 }, "geometry": { "type": "Point", "coordinates": [ 129.370667, 35.490391, 60.0 ] } },
{ "type": "Feature", "properties": { "value": 0.0506 }, "geometry": { "type": "Point", "coordinates": [ 129.371765, 35.490387, 60.0 ] } },
{ "type": "Feature", "properties": { "value": 0.0804 }, "geometry": { "type": "Point", "coordinates": [ 129.372879, 35.490383, 60.0 ] } },
{ "type": "Feature", "properties": { "value": 0.1072 }, "geometry": { "type": "Point", "coordinates": [ 129.373978, 35.490379, 60.0 ] } },
{ "type": "Feature", "properties": { "value": 0.1292 }, "geometry": { "type": "Point", "coordinates": [ 129.375076, 35.490376, 60.0 ] } },
{ "type": "Feature", "properties": { "value": 0.1487 }, "geometry": { "type": "Point", "coordinates": [ 129.376175, 35.490372, 60.0 ] } },
{ "type": "Feature", "properties": { "value": 0.1646 }, "geometry": { "type": "Point", "coordinates": [ 129.377289, 35.490368, 60.0 ] } },
{ "type": "Feature", "properties": { "value": 0.1744 }, "geometry": { "type": "Point", "coordinates": [ 129.378387, 35.490364, 60.0 ] } },
{ "type": "Feature", "properties": { "value": 0.1764 }, "geometry": { "type": "Point", "coordinates": [ 129.379486, 35.49036, 60.0 ] } },
{ "type": "Feature", "properties": { "value": 0.169 }, "geometry": { "type": "Point", "coordinates": [ 129.380585, 35.490356, 60.0 ] } },
{ "type": "Feature", "properties": { "value": 0.1509 }, "geometry": { "type": "Point", "coordinates": [ 129.381683, 35.490356, 60.0 ] } },
{ "type": "Feature", "properties": { "value": 0.1036 }, "geometry": { "type": "Point", "coordinates": [ 129.336517, 35.49139, 60.0 ] } },
{ "type": "Feature", "properties": { "value": 0.6688 }, "geometry": { "type": "Point", "coordinates": [ 129.337616, 35.491386, 60.0 ] } },
{ "type": "Feature", "properties": { "value": 1.9434 }, "geometry": { "type": "Point", "coordinates": [ 129.338715, 35.491383, 60.0 ] } },
{ "type": "Feature", "properties": { "value": 4.19 }, "geometry": { "type": "Point", "coordinates": [ 129.339813, 35.491383, 60.0 ] } },
{ "type": "Feature", "properties": { "value": 7.2084 }, "geometry": { "type": "Point", "coordinates": [ 129.340927, 35.491379, 60.0 ] } },
{ "type": "Feature", "properties": { "value": 10.186 }, "geometry": { "type": "Point", "coordinates": [ 129.342026, 35.491375, 60.0 ] } },
{ "type": "Feature", "properties": { "value": 12.166 }, "geometry": { "type": "Point", "coordinates": [ 129.343124, 35.491371, 60.0 ] } },
{ "type": "Feature", "properties": { "value": 12.653 }, "geometry": { "type": "Point", "coordinates": [ 129.344223, 35.491367, 60.0 ] } },
{ "type": "Feature", "properties": { "value": 11.746 }, "geometry": { "type": "Point", "coordinates": [ 129.345322, 35.491367, 60.0 ] } },
{ "type": "Feature", "properties": { "value": 9.9277 }, "geometry": { "type": "Point", "coordinates": [ 129.346436, 35.491364, 60.0 ] } },
{ "type": "Feature", "properties": { "value": 7.7286 }, "geometry": { "type": "Point", "coordinates": [ 129.347534, 35.49136, 60.0 ] } },
{ "type": "Feature", "properties": { "value": 5.609 }, "geometry": { "type": "Point", "coordinates": [ 129.348633, 35.491356, 60.0 ] } },
{ "type": "Feature", "properties": { "value": 3.8642 }, "geometry": { "type": "Point", "coordinates": [ 129.349731, 35.491352, 60.0 ] } },
{ "type": "Feature", "properties": { "value": 2.5914 }, "geometry": { "type": "Point", "coordinates": [ 129.350845, 35.491348, 60.0 ] } },
{ "type": "Feature", "properties": { "value": 1.7103 }, "geometry": { "type": "Point", "coordinates": [ 129.351944, 35.491348, 60.0 ] } },
{ "type": "Feature", "properties": { "value": 1.1122 }, "geometry": { "type": "Point", "coordinates": [ 129.353043, 35.491344, 60.0 ] } },
{ "type": "Feature", "properties": { "value": 0.732 }, "geometry": { "type": "Point", "coordinates": [ 129.354141, 35.491341, 60.0 ] } },
{ "type": "Feature", "properties": { "value": 0.4857 }, "geometry": { "type": "Point", "coordinates": [ 129.35524, 35.491337, 60.0 ] } },
{ "type": "Feature", "properties": { "value": 0.3345 }, "geometry": { "type": "Point", "coordinates": [ 129.356354, 35.491333, 60.0 ] } },
{ "type": "Feature", "properties": { "value": 0.2366 }, "geometry": { "type": "Point", "coordinates": [ 129.357452, 35.491329, 60.0 ] } },
{ "type": "Feature", "properties": { "value": 0.1738 }, "geometry": { "type": "Point", "coordinates": [ 129.358551, 35.491325, 60.0 ] } },
{ "type": "Feature", "properties": { "value": 0.1263 }, "geometry": { "type": "Point", "coordinates": [ 129.35965, 35.491325, 60.0 ] } },
{ "type": "Feature", "properties": { "value": 0.097 }, "geometry": { "type": "Point", "coordinates": [ 129.360764, 35.491322, 60.0 ] } },
{ "type": "Feature", "properties": { "value": 0.0752 }, "geometry": { "type": "Point", "coordinates": [ 129.361862, 35.491318, 60.0 ] } },
{ "type": "Feature", "properties": { "value": 0.0614 }, "geometry": { "type": "Point", "coordinates": [ 129.362961, 35.491314, 60.0 ] } },
{ "type": "Feature", "properties": { "value": 0.0576 }, "geometry": { "type": "Point", "coordinates": [ 129.364059, 35.49131, 60.0 ] } },
{ "type": "Feature", "properties": { "value": 0.0521 }, "geometry": { "type": "Point", "coordinates": [ 129.365158, 35.491306, 60.0 ] } },
{ "type": "Feature", "properties": { "value": 0.0581 }, "geometry": { "type": "Point", "coordinates": [ 129.366272, 35.491302, 60.0 ] } },
{ "type": "Feature", "properties": { "value": 0.0721 }, "geometry": { "type": "Point", "coordinates": [ 129.367371, 35.491299, 60.0 ] } },
{ "type": "Feature", "properties": { "value": 0.0847 }, "geometry": { "type": "Point", "coordinates": [ 129.368469, 35.491299, 60.0 ] } },
{ "type": "Feature", "properties": { "value": 0.1074 }, "geometry": { "type": "Point", "coordinates": [ 129.369568, 35.491295, 60.0 ] } },
{ "type": "Feature", "properties": { "value": 0.1336 }, "geometry": { "type": "Point", "coordinates": [ 129.370682, 35.491291, 60.0 ] } },
{ "type": "Feature", "properties": { "value": 0.1677 }, "geometry": { "type": "Point", "coordinates": [ 129.37178, 35.491287, 60.0 ] } },
{ "type": "Feature", "properties": { "value": 0.2055 }, "geometry": { "type": "Point", "coordinates": [ 129.372879, 35.491283, 60.0 ] } },
{ "type": "Feature", "properties": { "value": 0.2419 }, "geometry": { "type": "Point", "coordinates": [ 129.373978, 35.49128, 60.0 ] } },
{ "type": "Feature", "properties": { "value": 0.2778 }, "geometry": { "type": "Point", "coordinates": [ 129.375076, 35.491276, 60.0 ] } },
{ "type": "Feature", "properties": { "value": 0.3099 }, "geometry": { "type": "Point", "coordinates": [ 129.37619, 35.491272, 60.0 ] } },
{ "type": "Feature", "properties": { "value": 0.3341 }, "geometry": { "type": "Point", "coordinates": [ 129.377289, 35.491268, 60.0 ] } },
{ "type": "Feature", "properties": { "value": 0.344 }, "geometry": { "type": "Point", "coordinates": [ 129.378387, 35.491268, 60.0 ] } },
{ "type": "Feature", "properties": { "value": 0.3403 }, "geometry": { "type": "Point", "coordinates": [ 129.379486, 35.491264, 60.0 ] } },
{ "type": "Feature", "properties": { "value": 0.3218 }, "geometry": { "type": "Point", "coordinates": [ 129.3806, 35.491261, 60.0 ] } },
{ "type": "Feature", "properties": { "value": 0.2875 }, "geometry": { "type": "Point", "coordinates": [ 129.381699, 35.491257, 60.0 ] } },
{ "type": "Feature", "properties": { "value": 0.2175 }, "geometry": { "type": "Point", "coordinates": [ 129.337616, 35.49229, 60.0 ] } },
{ "type": "Feature", "properties": { "value": 0.8348 }, "geometry": { "type": "Point", "coordinates": [ 129.338715, 35.492287, 60.0 ] } },
{ "type": "Feature", "properties": { "value": 2.1198 }, "geometry": { "type": "Point", "coordinates": [ 129.339828, 35.492283, 60.0 ] } },
{ "type": "Feature", "properties": { "value": 4.2175 }, "geometry": { "type": "Point", "coordinates": [ 129.340927, 35.492279, 60.0 ] } },
{ "type": "Feature", "properties": { "value": 6.8773 }, "geometry": { "type": "Point", "coordinates": [ 129.342026, 35.492275, 60.0 ] } },
{ "type": "Feature", "properties": { "value": 9.4708 }, "geometry": { "type": "Point", "coordinates": [ 129.343124, 35.492271, 60.0 ] } },
{ "type": "Feature", "properties": { "value": 11.287 }, "geometry": { "type": "Point", "coordinates": [ 129.344223, 35.492271, 60.0 ] } },
{ "type": "Feature", "properties": { "value": 11.92 }, "geometry": { "type": "Point", "coordinates": [ 129.345337, 35.492268, 60.0 ] } },
{ "type": "Feature", "properties": { "value": 11.405 }, "geometry": { "type": "Point", "coordinates": [ 129.346436, 35.492264, 60.0 ] } },
{ "type": "Feature", "properties": { "value": 9.9911 }, "geometry": { "type": "Point", "coordinates": [ 129.347534, 35.49226, 60.0 ] } },
{ "type": "Feature", "properties": { "value": 8.1109 }, "geometry": { "type": "Point", "coordinates": [ 129.348633, 35.492256, 60.0 ] } },
{ "type": "Feature", "properties": { "value": 6.2353 }, "geometry": { "type": "Point", "coordinates": [ 129.349747, 35.492252, 60.0 ] } },
{ "type": "Feature", "properties": { "value": 4.6161 }, "geometry": { "type": "Point", "coordinates": [ 129.350845, 35.492252, 60.0 ] } },
{ "type": "Feature", "properties": { "value": 3.3311 }, "geometry": { "type": "Point", "coordinates": [ 129.351944, 35.492249, 60.0 ] } },
{ "type": "Feature", "properties": { "value": 2.3682 }, "geometry": { "type": "Point", "coordinates": [ 129.353043, 35.492245, 60.0 ] } },
{ "type": "Feature", "properties": { "value": 1.6838 }, "geometry": { "type": "Point", "coordinates": [ 129.354141, 35.492241, 60.0 ] } },
{ "type": "Feature", "properties": { "value": 1.2124 }, "geometry": { "type": "Point", "coordinates": [ 129.355255, 35.492237, 60.0 ] } },
{ "type": "Feature", "properties": { "value": 0.8879 }, "geometry": { "type": "Point", "coordinates": [ 129.356354, 35.492233, 60.0 ] } },
{ "type": "Feature", "properties": { "value": 0.6675 }, "geometry": { "type": "Point", "coordinates": [ 129.357452, 35.492233, 60.0 ] } },
{ "type": "Feature", "properties": { "value": 0.5177 }, "geometry": { "type": "Point", "coordinates": [ 129.358551, 35.492229, 60.0 ] } },
{ "type": "Feature", "properties": { "value": 0.4121 }, "geometry": { "type": "Point", "coordinates": [ 129.359665, 35.492226, 60.0 ] } },
{ "type": "Feature", "properties": { "value": 0.3392 }, "geometry": { "type": "Point", "coordinates": [ 129.360764, 35.492222, 60.0 ] } },
{ "type": "Feature", "properties": { "value": 0.286 }, "geometry": { "type": "Point", "coordinates": [ 129.361862, 35.492218, 60.0 ] } },
{ "type": "Feature", "properties": { "value": 0.2547 }, "geometry": { "type": "Point", "coordinates": [ 129.362961, 35.492214, 60.0 ] } },
{ "type": "Feature", "properties": { "value": 0.2296 }, "geometry": { "type": "Point", "coordinates": [ 129.364059, 35.49221, 60.0 ] } },
{ "type": "Feature", "properties": { "value": 0.2221 }, "geometry": { "type": "Point", "coordinates": [ 129.365173, 35.49221, 60.0 ] } },
{ "type": "Feature", "properties": { "value": 0.2229 }, "geometry": { "type": "Point", "coordinates": [ 129.366272, 35.492207, 60.0 ] } },
{ "type": "Feature", "properties": { "value": 0.2318 }, "geometry": { "type": "Point", "coordinates": [ 129.367371, 35.492203, 60.0 ] } },
{ "type": "Feature", "properties": { "value": 0.2518 }, "geometry": { "type": "Point", "coordinates": [ 129.368469, 35.492199, 60.0 ] } },
{ "type": "Feature", "properties": { "value": 0.2833 }, "geometry": { "type": "Point", "coordinates": [ 129.369583, 35.492195, 60.0 ] } },
{ "type": "Feature", "properties": { "value": 0.3222 }, "geometry": { "type": "Point", "coordinates": [ 129.370682, 35.492191, 60.0 ] } },
{ "type": "Feature", "properties": { "value": 0.375 }, "geometry": { "type": "Point", "coordinates": [ 129.37178, 35.492188, 60.0 ] } },
{ "type": "Feature", "properties": { "value": 0.4265 }, "geometry": { "type": "Point", "coordinates": [ 129.372879, 35.492184, 60.0 ] } },
{ "type": "Feature", "properties": { "value": 0.4824 }, "geometry": { "type": "Point", "coordinates": [ 129.373978, 35.49218, 60.0 ] } },
{ "type": "Feature", "properties": { "value": 0.5351 }, "geometry": { "type": "Point", "coordinates": [ 129.375092, 35.49218, 60.0 ] } },
{ "type": "Feature", "properties": { "value": 0.5819 }, "geometry": { "type": "Point", "coordinates": [ 129.37619, 35.492176, 60.0 ] } },
{ "type": "Feature", "properties": { "value": 0.6135 }, "geometry": { "type": "Point", "coordinates": [ 129.377289, 35.492172, 60.0 ] } },
{ "type": "Feature", "properties": { "value": 0.6216 }, "geometry": { "type": "Point", "coordinates": [ 129.378387, 35.492168, 60.0 ] } },
{ "type": "Feature", "properties": { "value": 0.6056 }, "geometry": { "type": "Point", "coordinates": [ 129.379501, 35.492165, 60.0 ] } },
{ "type": "Feature", "properties": { "value": 0.5647 }, "geometry": { "type": "Point", "coordinates": [ 129.3806, 35.492161, 60.0 ] } },
{ "type": "Feature", "properties": { "value": 0.4975 }, "geometry": { "type": "Point", "coordinates": [ 129.381699, 35.492157, 60.0 ] } },
{ "type": "Feature", "properties": { "value": 0.3045 }, "geometry": { "type": "Point", "coordinates": [ 129.33873, 35.493187, 60.0 ] } },
{ "type": "Feature", "properties": { "value": 0.9472 }, "geometry": { "type": "Point", "coordinates": [ 129.339828, 35.493183, 60.0 ] } },
{ "type": "Feature", "properties": { "value": 2.185 }, "geometry": { "type": "Point", "coordinates": [ 129.340927, 35.493179, 60.0 ] } },
{ "type": "Feature", "properties": { "value": 4.086 }, "geometry": { "type": "Point", "coordinates": [ 129.342026, 35.493179, 60.0 ] } },
{ "type": "Feature", "properties": { "value": 6.4371 }, "geometry": { "type": "Point", "coordinates": [ 129.343124, 35.493176, 60.0 ] } },
{ "type": "Feature", "properties": { "value": 8.7261 }, "geometry": { "type": "Point", "coordinates": [ 129.344238, 35.493172, 60.0 ] } },
{ "type": "Feature", "properties": { "value": 10.421 }, "geometry": { "type": "Point", "coordinates": [ 129.345337, 35.493168, 60.0 ] } },
{ "type": "Feature", "properties": { "value": 11.19 }, "geometry": { "type": "Point", "coordinates": [ 129.346436, 35.493164, 60.0 ] } },
{ "type": "Feature", "properties": { "value": 10.98 }, "geometry": { "type": "Point", "coordinates": [ 129.347534, 35.49316, 60.0 ] } },
{ "type": "Feature", "properties": { "value": 9.9886 }, "geometry": { "type": "Point", "coordinates": [ 129.348648, 35.49316, 60.0 ] } },
{ "type": "Feature", "properties": { "value": 8.552 }, "geometry": { "type": "Point", "coordinates": [ 129.349747, 35.493156, 60.0 ] } },
{ "type": "Feature", "properties": { "value": 6.9815 }, "geometry": { "type": "Point", "coordinates": [ 129.350845, 35.493153, 60.0 ] } },
{ "type": "Feature", "properties": { "value": 5.4922 }, "geometry": { "type": "Point", "coordinates": [ 129.351944, 35.493149, 60.0 ] } },
{ "type": "Feature", "properties": { "value": 4.2276 }, "geometry": { "type": "Point", "coordinates": [ 129.353043, 35.493145, 60.0 ] } },
{ "type": "Feature", "properties": { "value": 3.2254 }, "geometry": { "type": "Point", "coordinates": [ 129.354156, 35.493141, 60.0 ] } },
{ "type": "Feature", "properties": { "value": 2.4626 }, "geometry": { "type": "Point", "coordinates": [ 129.355255, 35.493141, 60.0 ] } },
{ "type": "Feature", "properties": { "value": 1.9002 }, "geometry": { "type": "Point", "coordinates": [ 129.356354, 35.493137, 60.0 ] } },
{ "type": "Feature", "properties": { "value": 1.4894 }, "geometry": { "type": "Point", "coordinates": [ 129.357452, 35.493134, 60.0 ] } },
{ "type": "Feature", "properties": { "value": 1.1906 }, "geometry": { "type": "Point", "coordinates": [ 129.358566, 35.49313, 60.0 ] } },
{ "type": "Feature", "properties": { "value": 0.9781 }, "geometry": { "type": "Point", "coordinates": [ 129.359665, 35.493126, 60.0 ] } },
{ "type": "Feature", "properties": { "value": 0.8196 }, "geometry": { "type": "Point", "coordinates": [ 129.360764, 35.493122, 60.0 ] } },
{ "type": "Feature", "properties": { "value": 0.7045 }, "geometry": { "type": "Point", "coordinates": [ 129.361862, 35.493118, 60.0 ] } },
{ "type": "Feature", "properties": { "value": 0.6235 }, "geometry": { "type": "Point", "coordinates": [ 129.362961, 35.493118, 60.0 ] } },
{ "type": "Feature", "properties": { "value": 0.5689 }, "geometry": { "type": "Point", "coordinates": [ 129.364075, 35.493114, 60.0 ] } },
{ "type": "Feature", "properties": { "value": 0.5393 }, "geometry": { "type": "Point", "coordinates": [ 129.365173, 35.493111, 60.0 ] } },
{ "type": "Feature", "properties": { "value": 0.5281 }, "geometry": { "type": "Point", "coordinates": [ 129.366272, 35.493107, 60.0 ] } },
{ "type": "Feature", "properties": { "value": 0.5342 }, "geometry": { "type": "Point", "coordinates": [ 129.367371, 35.493103, 60.0 ] } },
{ "type": "Feature", "properties": { "value": 0.5566 }, "geometry": { "type": "Point", "coordinates": [ 129.368484, 35.493099, 60.0 ] } },
{ "type": "Feature", "properties": { "value": 0.5968 }, "geometry": { "type": "Point", "coordinates": [ 129.369583, 35.493095, 60.0 ] } },
{ "type": "Feature", "properties": { "value": 0.6551 }, "geometry": { "type": "Point", "coordinates": [ 129.370682, 35.493092, 60.0 ] } },
{ "type": "Feature", "properties": { "value": 0.7235 }, "geometry": { "type": "Point", "coordinates": [ 129.37178, 35.493088, 60.0 ] } },
{ "type": "Feature", "properties": { "value": 0.7979 }, "geometry": { "type": "Point", "coordinates": [ 129.372894, 35.493088, 60.0 ] } },
{ "type": "Feature", "properties": { "value": 0.8761 }, "geometry": { "type": "Point", "coordinates": [ 129.373993, 35.493084, 60.0 ] } },
{ "type": "Feature", "properties": { "value": 0.9478 }, "geometry": { "type": "Point", "coordinates": [ 129.375092, 35.49308, 60.0 ] } },
{ "type": "Feature", "properties": { "value": 1.0041 }, "geometry": { "type": "Point", "coordinates": [ 129.37619, 35.493076, 60.0 ] } },
{ "type": "Feature", "properties": { "value": 1.0364 }, "geometry": { "type": "Point", "coordinates": [ 129.377289, 35.493073, 60.0 ] } },
{ "type": "Feature", "properties": { "value": 1.0354 }, "geometry": { "type": "Point", "coordinates": [ 129.378403, 35.493069, 60.0 ] } },
{ "type": "Feature", "properties": { "value": 0.9926 }, "geometry": { "type": "Point", "coordinates": [ 129.379501, 35.493065, 60.0 ] } },
{ "type": "Feature", "properties": { "value": 0.912 }, "geometry": { "type": "Point", "coordinates": [ 129.3806, 35.493061, 60.0 ] } },
{ "type": "Feature", "properties": { "value": 0.7999 }, "geometry": { "type": "Point", "coordinates": [ 129.381699, 35.493057, 60.0 ] } },
{ "type": "Feature", "properties": { "value": 0.3694 }, "geometry": { "type": "Point", "coordinates": [ 129.339828, 35.494083, 60.0 ] } },
{ "type": "Feature", "properties": { "value": 1.0103 }, "geometry": { "type": "Point", "coordinates": [ 129.340927, 35.494083, 60.0 ] } },
{ "type": "Feature", "properties": { "value": 2.1705 }, "geometry": { "type": "Point", "coordinates": [ 129.342026, 35.49408, 60.0 ] } },
{ "type": "Feature", "properties": { "value": 3.8708 }, "geometry": { "type": "Point", "coordinates": [ 129.34314, 35.494076, 60.0 ] } },
{ "type": "Feature", "properties": { "value": 5.9322 }, "geometry": { "type": "Point", "coordinates": [ 129.344238, 35.494072, 60.0 ] } },
{ "type": "Feature", "properties": { "value": 7.9771 }, "geometry": { "type": "Point", "coordinates": [ 129.345337, 35.494068, 60.0 ] } },
{ "type": "Feature", "properties": { "value": 9.5848 }, "geometry": { "type": "Point", "coordinates": [ 129.346436, 35.494068, 60.0 ] } },
{ "type": "Feature", "properties": { "value": 10.502 }, "geometry": { "type": "Point", "coordinates": [ 129.347549, 35.494064, 60.0 ] } },
{ "type": "Feature", "properties": { "value": 10.65 }, "geometry": { "type": "Point", "coordinates": [ 129.348648, 35.494061, 60.0 ] } },
{ "type": "Feature", "properties": { "value": 10.072 }, "geometry": { "type": "Point", "coordinates": [ 129.349747, 35.494057, 60.0 ] } },
{ "type": "Feature", "properties": { "value": 9.0177 }, "geometry": { "type": "Point", "coordinates": [ 129.350845, 35.494053, 60.0 ] } },
{ "type": "Feature", "properties": { "value": 7.7357 }, "geometry": { "type": "Point", "coordinates": [ 129.351959, 35.494049, 60.0 ] } },
{ "type": "Feature", "properties": { "value": 6.4102 }, "geometry": { "type": "Point", "coordinates": [ 129.353058, 35.494049, 60.0 ] } },
{ "type": "Feature", "properties": { "value": 5.221 }, "geometry": { "type": "Point", "coordinates": [ 129.354156, 35.494045, 60.0 ] } },
{ "type": "Feature", "properties": { "value": 4.2235 }, "geometry": { "type": "Point", "coordinates": [ 129.355255, 35.494041, 60.0 ] } },
{ "type": "Feature", "properties": { "value": 3.4202 }, "geometry": { "type": "Point", "coordinates": [ 129.356354, 35.494038, 60.0 ] } },
{ "type": "Feature", "properties": { "value": 2.7916 }, "geometry": { "type": "Point", "coordinates": [ 129.357468, 35.494034, 60.0 ] } },
{ "type": "Feature", "properties": { "value": 2.3102 }, "geometry": { "type": "Point", "coordinates": [ 129.358566, 35.49403, 60.0 ] } },
{ "type": "Feature", "properties": { "value": 1.9438 }, "geometry": { "type": "Point", "coordinates": [ 129.359665, 35.494026, 60.0 ] } },
{ "type": "Feature", "properties": { "value": 1.6629 }, "geometry": { "type": "Point", "coordinates": [ 129.360764, 35.494026, 60.0 ] } },
{ "type": "Feature", "properties": { "value": 1.4462 }, "geometry": { "type": "Point", "coordinates": [ 129.361877, 35.494022, 60.0 ] } },
{ "type": "Feature", "properties": { "value": 1.2848 }, "geometry": { "type": "Point", "coordinates": [ 129.362976, 35.494019, 60.0 ] } },
{ "type": "Feature", "properties": { "value": 1.171 }, "geometry": { "type": "Point", "coordinates": [ 129.364075, 35.494015, 60.0 ] } },
{ "type": "Feature", "properties": { "value": 1.0999 }, "geometry": { "type": "Point", "coordinates": [ 129.365173, 35.494011, 60.0 ] } },
{ "type": "Feature", "properties": { "value": 1.0605 }, "geometry": { "type": "Point", "coordinates": [ 129.366272, 35.494007, 60.0 ] } },
{ "type": "Feature", "properties": { "value": 1.0518 }, "geometry": { "type": "Point", "coordinates": [ 129.367386, 35.494003, 60.0 ] } },
{ "type": "Feature", "properties": { "value": 1.0715 }, "geometry": { "type": "Point", "coordinates": [ 129.368484, 35.493999, 60.0 ] } },
{ "type": "Feature", "properties": { "value": 1.1185 }, "geometry": { "type": "Point", "coordinates": [ 129.369583, 35.493999, 60.0 ] } },
{ "type": "Feature", "properties": { "value": 1.1883 }, "geometry": { "type": "Point", "coordinates": [ 129.370682, 35.493996, 60.0 ] } },
{ "type": "Feature", "properties": { "value": 1.2716 }, "geometry": { "type": "Point", "coordinates": [ 129.371796, 35.493992, 60.0 ] } },
{ "type": "Feature", "properties": { "value": 1.3652 }, "geometry": { "type": "Point", "coordinates": [ 129.372894, 35.493988, 60.0 ] } },
{ "type": "Feature", "properties": { "value": 1.4598 }, "geometry": { "type": "Point", "coordinates": [ 129.373993, 35.493984, 60.0 ] } },
{ "type": "Feature", "properties": { "value": 1.5431 }, "geometry": { "type": "Point", "coordinates": [ 129.375092, 35.49398, 60.0 ] } },
{ "type": "Feature", "properties": { "value": 1.6028 }, "geometry": { "type": "Point", "coordinates": [ 129.37619, 35.493977, 60.0 ] } },
{ "type": "Feature", "properties": { "value": 1.6224 }, "geometry": { "type": "Point", "coordinates": [ 129.377304, 35.493973, 60.0 ] } },
{ "type": "Feature", "properties": { "value": 1.593 }, "geometry": { "type": "Point", "coordinates": [ 129.378403, 35.493969, 60.0 ] } },
{ "type": "Feature", "properties": { "value": 1.5085 }, "geometry": { "type": "Point", "coordinates": [ 129.379501, 35.493965, 60.0 ] } },
{ "type": "Feature", "properties": { "value": 1.3667 }, "geometry": { "type": "Point", "coordinates": [ 129.3806, 35.493965, 60.0 ] } },
{ "type": "Feature", "properties": { "value": 1.1857 }, "geometry": { "type": "Point", "coordinates": [ 129.381714, 35.493961, 60.0 ] } },
{ "type": "Feature", "properties": { "value": 0.0756 }, "geometry": { "type": "Point", "coordinates": [ 129.339828, 35.494987, 60.0 ] } },
{ "type": "Feature", "properties": { "value": 0.4084 }, "geometry": { "type": "Point", "coordinates": [ 129.340942, 35.494984, 60.0 ] } },
{ "type": "Feature", "properties": { "value": 1.0253 }, "geometry": { "type": "Point", "coordinates": [ 129.342041, 35.49498, 60.0 ] } },
{ "type": "Feature", "properties": { "value": 2.0649 }, "geometry": { "type": "Point", "coordinates": [ 129.34314, 35.494976, 60.0 ] } },
{ "type": "Feature", "properties": { "value": 3.5566 }, "geometry": { "type": "Point", "coordinates": [ 129.344238, 35.494972, 60.0 ] } },
{ "type": "Feature", "properties": { "value": 5.3603 }, "geometry": { "type": "Point", "coordinates": [ 129.345337, 35.494972, 60.0 ] } },
{ "type": "Feature", "properties": { "value": 7.1865 }, "geometry": { "type": "Point", "coordinates": [ 129.346451, 35.494968, 60.0 ] } },
{ "type": "Feature", "properties": { "value": 8.7576 }, "geometry": { "type": "Point", "coordinates": [ 129.347549, 35.494965, 60.0 ] } },
{ "type": "Feature", "properties": { "value": 9.8338 }, "geometry": { "type": "Point", "coordinates": [ 129.348648, 35.494961, 60.0 ] } },
{ "type": "Feature", "properties": { "value": 10.23 }, "geometry": { "type": "Point", "coordinates": [ 129.349747, 35.494957, 60.0 ] } },
{ "type": "Feature", "properties": { "value": 9.9904 }, "geometry": { "type": "Point", "coordinates": [ 129.350861, 35.494953, 60.0 ] } },
{ "type": "Feature", "properties": { "value": 9.2933 }, "geometry": { "type": "Point", "coordinates": [ 129.351959, 35.494953, 60.0 ] } },
{ "type": "Feature", "properties": { "value": 8.2776 }, "geometry": { "type": "Point", "coordinates": [ 129.353058, 35.494949, 60.0 ] } },
{ "type": "Feature", "properties": { "value": 7.1899 }, "geometry": { "type": "Point", "coordinates": [ 129.354156, 35.494946, 60.0 ] } },
{ "type": "Feature", "properties": { "value": 6.1623 }, "geometry": { "type": "Point", "coordinates": [ 129.355255, 35.494942, 60.0 ] } },
{ "type": "Feature", "properties": { "value": 5.2531 }, "geometry": { "type": "Point", "coordinates": [ 129.356369, 35.494938, 60.0 ] } },
{ "type": "Feature", "properties": { "value": 4.4759 }, "geometry": { "type": "Point", "coordinates": [ 129.357468, 35.494934, 60.0 ] } },
{ "type": "Feature", "properties": { "value": 3.8303 }, "geometry": { "type": "Point", "coordinates": [ 129.358566, 35.494934, 60.0 ] } },
{ "type": "Feature", "properties": { "value": 3.3111 }, "geometry": { "type": "Point", "coordinates": [ 129.359665, 35.49493, 60.0 ] } },
{ "type": "Feature", "properties": { "value": 2.8891 }, "geometry": { "type": "Point", "coordinates": [ 129.360779, 35.494926, 60.0 ] } },
{ "type": "Feature", "properties": { "value": 2.5533 }, "geometry": { "type": "Point", "coordinates": [ 129.361877, 35.494923, 60.0 ] } },
{ "type": "Feature", "properties": { "value": 2.2915 }, "geometry": { "type": "Point", "coordinates": [ 129.362976, 35.494919, 60.0 ] } },
{ "type": "Feature", "properties": { "value": 2.1003 }, "geometry": { "type": "Point", "coordinates": [ 129.364075, 35.494915, 60.0 ] } },
{ "type": "Feature", "properties": { "value": 1.9648 }, "geometry": { "type": "Point", "coordinates": [ 129.365173, 35.494911, 60.0 ] } },
{ "type": "Feature", "properties": { "value": 1.8814 }, "geometry": { "type": "Point", "coordinates": [ 129.366287, 35.494907, 60.0 ] } },
{ "type": "Feature", "properties": { "value": 1.842 }, "geometry": { "type": "Point", "coordinates": [ 129.367386, 35.494907, 60.0 ] } },
{ "type": "Feature", "properties": { "value": 1.8423 }, "geometry": { "type": "Point", "coordinates": [ 129.368484, 35.494904, 60.0 ] } },
{ "type": "Feature", "properties": { "value": 1.8793 }, "geometry": { "type": "Point", "coordinates": [ 129.369583, 35.4949, 60.0 ] } },
{ "type": "Feature", "properties": { "value": 1.9482 }, "geometry": { "type": "Point", "coordinates": [ 129.370697, 35.494896, 60.0 ] } },
{ "type": "Feature", "properties": { "value": 2.0366 }, "geometry": { "type": "Point", "coordinates": [ 129.371796, 35.494892, 60.0 ] } },
{ "type": "Feature", "properties": { "value": 2.1368 }, "geometry": { "type": "Point", "coordinates": [ 129.372894, 35.494888, 60.0 ] } },
{ "type": "Feature", "properties": { "value": 2.2348 }, "geometry": { "type": "Point", "coordinates": [ 129.373993, 35.494884, 60.0 ] } },
{ "type": "Feature", "properties": { "value": 2.3154 }, "geometry": { "type": "Point", "coordinates": [ 129.375107, 35.494881, 60.0 ] } },
{ "type": "Feature", "properties": { "value": 2.3579 }, "geometry": { "type": "Point", "coordinates": [ 129.376205, 35.494877, 60.0 ] } },
{ "type": "Feature", "properties": { "value": 2.3463 }, "geometry": { "type": "Point", "coordinates": [ 129.377304, 35.494877, 60.0 ] } },
{ "type": "Feature", "properties": { "value": 2.2688 }, "geometry": { "type": "Point", "coordinates": [ 129.378403, 35.494873, 60.0 ] } },
{ "type": "Feature", "properties": { "value": 2.1173 }, "geometry": { "type": "Point", "coordinates": [ 129.379501, 35.494869, 60.0 ] } },
{ "type": "Feature", "properties": { "value": 1.8989 }, "geometry": { "type": "Point", "coordinates": [ 129.380615, 35.494865, 60.0 ] } },
{ "type": "Feature", "properties": { "value": 1.6296 }, "geometry": { "type": "Point", "coordinates": [ 129.381714, 35.494862, 60.0 ] } },
{ "type": "Feature", "properties": { "value": 0.1206 }, "geometry": { "type": "Point", "coordinates": [ 129.340942, 35.495884, 60.0 ] } },
{ "type": "Feature", "properties": { "value": 0.4142 }, "geometry": { "type": "Point", "coordinates": [ 129.342041, 35.49588, 60.0 ] } },
{ "type": "Feature", "properties": { "value": 0.9705 }, "geometry": { "type": "Point", "coordinates": [ 129.34314, 35.49588, 60.0 ] } },
{ "type": "Feature", "properties": { "value": 1.8819 }, "geometry": { "type": "Point", "coordinates": [ 129.344238, 35.495876, 60.0 ] } },
{ "type": "Feature", "properties": { "value": 3.1638 }, "geometry": { "type": "Point", "coordinates": [ 129.345352, 35.495872, 60.0 ] } },
{ "type": "Feature", "properties": { "value": 4.712 }, "geometry": { "type": "Point", "coordinates": [ 129.346451, 35.495869, 60.0 ] } },
{ "type": "Feature", "properties": { "value": 6.3423 }, "geometry": { "type": "Point", "coordinates": [ 129.347549, 35.495865, 60.0 ] } },
{ "type": "Feature", "properties": { "value": 7.8468 }, "geometry": { "type": "Point", "coordinates": [ 129.348648, 35.495861, 60.0 ] } },
{ "type": "Feature", "properties": { "value": 8.9723 }, "geometry": { "type": "Point", "coordinates": [ 129.349762, 35.495861, 60.0 ] } },
{ "type": "Feature", "properties": { "value": 9.5347 }, "geometry": { "type": "Point", "coordinates": [ 129.350861, 35.495857, 60.0 ] } },
{ "type": "Feature", "properties": { "value": 9.5418 }, "geometry": { "type": "Point", "coordinates": [ 129.351959, 35.495853, 60.0 ] } },
{ "type": "Feature", "properties": { "value": 9.1308 }, "geometry": { "type": "Point", "coordinates": [ 129.353058, 35.49585, 60.0 ] } },
{ "type": "Feature", "properties": { "value": 8.4793 }, "geometry": { "type": "Point", "coordinates": [ 129.354156, 35.495846, 60.0 ] } },
{ "type": "Feature", "properties": { "value": 7.7145 }, "geometry": { "type": "Point", "coordinates": [ 129.35527, 35.495842, 60.0 ] } },
{ "type": "Feature", "properties": { "value": 6.9294 }, "geometry": { "type": "Point", "coordinates": [ 129.356369, 35.495838, 60.0 ] } },
{ "type": "Feature", "properties": { "value": 6.1743 }, "geometry": { "type": "Point", "coordinates": [ 129.357468, 35.495838, 60.0 ] } },
{ "type": "Feature", "properties": { "value": 5.4876 }, "geometry": { "type": "Point", "coordinates": [ 129.358566, 35.495834, 60.0 ] } },
{ "type": "Feature", "properties": { "value": 4.8848 }, "geometry": { "type": "Point", "coordinates": [ 129.35968, 35.495831, 60.0 ] } },
{ "type": "Feature", "properties": { "value": 4.3662 }, "geometry": { "type": "Point", "coordinates": [ 129.360779, 35.495827, 60.0 ] } },
{ "type": "Feature", "properties": { "value": 3.9316 }, "geometry": { "type": "Point", "coordinates": [ 129.361877, 35.495823, 60.0 ] } },
{ "type": "Feature", "properties": { "value": 3.5825 }, "geometry": { "type": "Point", "coordinates": [ 129.362976, 35.495819, 60.0 ] } },
{ "type": "Feature", "properties": { "value": 3.3089 }, "geometry": { "type": "Point", "coordinates": [ 129.36409, 35.495815, 60.0 ] } },
{ "type": "Feature", "properties": { "value": 3.1021 }, "geometry": { "type": "Point", "coordinates": [ 129.365189, 35.495815, 60.0 ] } },
{ "type": "Feature", "properties": { "value": 2.9618 }, "geometry": { "type": "Point", "coordinates": [ 129.366287, 35.495811, 60.0 ] } },
{ "type": "Feature", "properties": { "value": 2.8737 }, "geometry": { "type": "Point", "coordinates": [ 129.367386, 35.495808, 60.0 ] } },
{ "type": "Feature", "properties": { "value": 2.8416 }, "geometry": { "type": "Point", "coordinates": [ 129.368484, 35.495804, 60.0 ] } },
{ "type": "Feature", "properties": { "value": 2.8538 }, "geometry": { "type": "Point", "coordinates": [ 129.369598, 35.4958, 60.0 ] } },
{ "type": "Feature", "properties": { "value": 2.902 }, "geometry": { "type": "Point", "coordinates": [ 129.370697, 35.495796, 60.0 ] } },
{ "type": "Feature", "properties": { "value": 2.9758 }, "geometry": { "type": "Point", "coordinates": [ 129.371796, 35.495792, 60.0 ] } },
{ "type": "Feature", "properties": { "value": 3.0616 }, "geometry": { "type": "Point", "coordinates": [ 129.372894, 35.495789, 60.0 ] } },
{ "type": "Feature", "properties": { "value": 3.1412 }, "geometry": { "type": "Point", "coordinates": [ 129.374008, 35.495785, 60.0 ] } },
{ "type": "Feature", "properties": { "value": 3.1937 }, "geometry": { "type": "Point", "coordinates": [ 129.375107, 35.495785, 60.0 ] } },
{ "type": "Feature", "properties": { "value": 3.1976 }, "geometry": { "type": "Point", "coordinates": [ 129.376205, 35.495781, 60.0 ] } },
{ "type": "Feature", "properties": { "value": 3.133 }, "geometry": { "type": "Point", "coordinates": [ 129.377304, 35.495777, 60.0 ] } },
{ "type": "Feature", "properties": { "value": 2.9871 }, "geometry": { "type": "Point", "coordinates": [ 129.378403, 35.495773, 60.0 ] } },
{ "type": "Feature", "properties": { "value": 2.7537 }, "geometry": { "type": "Point", "coordinates": [ 129.379517, 35.49577, 60.0 ] } },
{ "type": "Feature", "properties": { "value": 2.4438 }, "geometry": { "type": "Point", "coordinates": [ 129.380615, 35.495766, 60.0 ] } },
{ "type": "Feature", "properties": { "value": 2.0742 }, "geometry": { "type": "Point", "coordinates": [ 129.381714, 35.495762, 60.0 ] } },
{ "type": "Feature", "properties": { "value": 0.126 }, "geometry": { "type": "Point", "coordinates": [ 129.342041, 35.496784, 60.0 ] } },
{ "type": "Feature", "properties": { "value": 0.3939 }, "geometry": { "type": "Point", "coordinates": [ 129.34314, 35.49678, 60.0 ] } },
{ "type": "Feature", "properties": { "value": 0.8726 }, "geometry": { "type": "Point", "coordinates": [ 129.344254, 35.496777, 60.0 ] } },
{ "type": "Feature", "properties": { "value": 1.6357 }, "geometry": { "type": "Point", "coordinates": [ 129.345352, 35.496773, 60.0 ] } },
{ "type": "Feature", "properties": { "value": 2.6922 }, "geometry": { "type": "Point", "coordinates": [ 129.346451, 35.496769, 60.0 ] } },
{ "type": "Feature", "properties": { "value": 3.997 }, "geometry": { "type": "Point", "coordinates": [ 129.347549, 35.496765, 60.0 ] } },
{ "type": "Feature", "properties": { "value": 5.4235 }, "geometry": { "type": "Point", "coordinates": [ 129.348663, 35.496765, 60.0 ] } },
{ "type": "Feature", "properties": { "value": 6.7862 }, "geometry": { "type": "Point", "coordinates": [ 129.349762, 35.496761, 60.0 ] } },
{ "type": "Feature", "properties": { "value": 7.8403 }, "geometry": { "type": "Point", "coordinates": [ 129.350861, 35.496758, 60.0 ] } },
{ "type": "Feature", "properties": { "value": 8.4443 }, "geometry": { "type": "Point", "coordinates": [ 129.351959, 35.496754, 60.0 ] } },
{ "type": "Feature", "properties": { "value": 8.6786 }, "geometry": { "type": "Point", "coordinates": [ 129.353073, 35.49675, 60.0 ] } },
{ "type": "Feature", "properties": { "value": 8.62 }, "geometry": { "type": "Point", "coordinates": [ 129.354172, 35.496746, 60.0 ] } },
{ "type": "Feature", "properties": { "value": 8.34 }, "geometry": { "type": "Point", "coordinates": [ 129.35527, 35.496746, 60.0 ] } },
{ "type": "Feature", "properties": { "value": 7.9062 }, "geometry": { "type": "Point", "coordinates": [ 129.356369, 35.496742, 60.0 ] } },
{ "type": "Feature", "properties": { "value": 7.3761 }, "geometry": { "type": "Point", "coordinates": [ 129.357468, 35.496738, 60.0 ] } },
{ "type": "Feature", "properties": { "value": 6.8227 }, "geometry": { "type": "Point", "coordinates": [ 129.358582, 35.496735, 60.0 ] } },
{ "type": "Feature", "properties": { "value": 6.2764 }, "geometry": { "type": "Point", "coordinates": [ 129.35968, 35.496731, 60.0 ] } },
{ "type": "Feature", "properties": { "value": 5.7695 }, "geometry": { "type": "Point", "coordinates": [ 129.360779, 35.496727, 60.0 ] } },
{ "type": "Feature", "properties": { "value": 5.3141 }, "geometry": { "type": "Point", "coordinates": [ 129.361877, 35.496723, 60.0 ] } },
{ "type": "Feature", "properties": { "value": 4.9204 }, "geometry": { "type": "Point", "coordinates": [ 129.362991, 35.496723, 60.0 ] } },
{ "type": "Feature", "properties": { "value": 4.5944 }, "geometry": { "type": "Point", "coordinates": [ 129.36409, 35.496719, 60.0 ] } },
{ "type": "Feature", "properties": { "value": 4.3375 }, "geometry": { "type": "Point", "coordinates": [ 129.365189, 35.496716, 60.0 ] } },
{ "type": "Feature", "properties": { "value": 4.1423 }, "geometry": { "type": "Point", "coordinates": [ 129.366287, 35.496712, 60.0 ] } },
{ "type": "Feature", "properties": { "value": 4.0108 }, "geometry": { "type": "Point", "coordinates": [ 129.367386, 35.496708, 60.0 ] } },
{ "type": "Feature", "properties": { "value": 3.9316 }, "geometry": { "type": "Point", "coordinates": [ 129.3685, 35.496704, 60.0 ] } },
{ "type": "Feature", "properties": { "value": 3.9052 }, "geometry": { "type": "Point", "coordinates": [ 129.369598, 35.4967, 60.0 ] } },
{ "type": "Feature", "properties": { "value": 3.9191 }, "geometry": { "type": "Point", "coordinates": [ 129.370697, 35.496696, 60.0 ] } },
{ "type": "Feature", "properties": { "value": 3.958 }, "geometry": { "type": "Point", "coordinates": [ 129.371796, 35.496696, 60.0 ] } },
{ "type": "Feature", "properties": { "value": 4.0059 }, "geometry": { "type": "Point", "coordinates": [ 129.37291, 35.496693, 60.0 ] } },
{ "type": "Feature", "properties": { "value": 4.0456 }, "geometry": { "type": "Point", "coordinates": [ 129.374008, 35.496689, 60.0 ] } },
{ "type": "Feature", "properties": { "value": 4.0491 }, "geometry": { "type": "Point", "coordinates": [ 129.375107, 35.496685, 60.0 ] } },
{ "type": "Feature", "properties": { "value": 3.994 }, "geometry": { "type": "Point", "coordinates": [ 129.376205, 35.496681, 60.0 ] } },
{ "type": "Feature", "properties": { "value": 3.8596 }, "geometry": { "type": "Point", "coordinates": [ 129.377319, 35.496677, 60.0 ] } },
{ "type": "Feature", "properties": { "value": 3.6323 }, "geometry": { "type": "Point", "coordinates": [ 129.378418, 35.496674, 60.0 ] } },
{ "type": "Feature", "properties": { "value": 3.3129 }, "geometry": { "type": "Point", "coordinates": [ 129.379517, 35.49667, 60.0 ] } },
{ "type": "Feature", "properties": { "value": 2.9079 }, "geometry": { "type": "Point", "coordinates": [ 129.380615, 35.496666, 60.0 ] } },
{ "type": "Feature", "properties": { "value": 2.449 }, "geometry": { "type": "Point", "coordinates": [ 129.381714, 35.496662, 60.0 ] } },
{ "type": "Feature", "properties": { "value": 0.1166 }, "geometry": { "type": "Point", "coordinates": [ 129.343155, 35.497681, 60.0 ] } },
{ "type": "Feature", "properties": { "value": 0.339 }, "geometry": { "type": "Point", "coordinates": [ 129.344254, 35.497677, 60.0 ] } },
{ "type": "Feature", "properties": { "value": 0.732 }, "geometry": { "type": "Point", "coordinates": [ 129.345352, 35.497673, 60.0 ] } },
{ "type": "Feature", "properties": { "value": 1.3398 }, "geometry": { "type": "Point", "coordinates": [ 129.346451, 35.497673, 60.0 ] } },
{ "type": "Feature", "properties": { "value": 2.1899 }, "geometry": { "type": "Point", "coordinates": [ 129.347565, 35.497669, 60.0 ] } },
{ "type": "Feature", "properties": { "value": 3.2475 }, "geometry": { "type": "Point", "coordinates": [ 129.348663, 35.497665, 60.0 ] } },
{ "type": "Feature", "properties": { "value": 4.4164 }, "geometry": { "type": "Point", "coordinates": [ 129.349762, 35.497662, 60.0 ] } },
{ "type": "Feature", "properties": { "value": 5.5371 }, "geometry": { "type": "Point", "coordinates": [ 129.350861, 35.497658, 60.0 ] } },
{ "type": "Feature", "properties": { "value": 6.4578 }, "geometry": { "type": "Point", "coordinates": [ 129.351974, 35.497654, 60.0 ] } },
{ "type": "Feature", "properties": { "value": 7.1601 }, "geometry": { "type": "Point", "coordinates": [ 129.353073, 35.497654, 60.0 ] } },
{ "type": "Feature", "properties": { "value": 7.6228 }, "geometry": { "type": "Point", "coordinates": [ 129.354172, 35.49765, 60.0 ] } },
{ "type": "Feature", "properties": { "value": 7.8386 }, "geometry": { "type": "Point", "coordinates": [ 129.35527, 35.497646, 60.0 ] } },
{ "type": "Feature", "properties": { "value": 7.8388 }, "geometry": { "type": "Point", "coordinates": [ 129.356369, 35.497643, 60.0 ] } },
{ "type": "Feature", "properties": { "value": 7.6603 }, "geometry": { "type": "Point", "coordinates": [ 129.357483, 35.497639, 60.0 ] } },
{ "type": "Feature", "properties": { "value": 7.3839 }, "geometry": { "type": "Point", "coordinates": [ 129.358582, 35.497635, 60.0 ] } },
{ "type": "Feature", "properties": { "value": 7.0452 }, "geometry": { "type": "Point", "coordinates": [ 129.35968, 35.497631, 60.0 ] } },
{ "type": "Feature", "properties": { "value": 6.6726 }, "geometry": { "type": "Point", "coordinates": [ 129.360779, 35.497631, 60.0 ] } },
{ "type": "Feature", "properties": { "value": 6.3033 }, "geometry": { "type": "Point", "coordinates": [ 129.361893, 35.497627, 60.0 ] } },
{ "type": "Feature", "properties": { "value": 5.9539 }, "geometry": { "type": "Point", "coordinates": [ 129.362991, 35.497623, 60.0 ] } },
{ "type": "Feature", "properties": { "value": 5.6422 }, "geometry": { "type": "Point", "coordinates": [ 129.36409, 35.49762, 60.0 ] } },
{ "type": "Feature", "properties": { "value": 5.3782 }, "geometry": { "type": "Point", "coordinates": [ 129.365189, 35.497616, 60.0 ] } },
{ "type": "Feature", "properties": { "value": 5.1638 }, "geometry": { "type": "Point", "coordinates": [ 129.366302, 35.497612, 60.0 ] } },
{ "type": "Feature", "properties": { "value": 5.0006 }, "geometry": { "type": "Point", "coordinates": [ 129.367401, 35.497608, 60.0 ] } },
{ "type": "Feature", "properties": { "value": 4.8879 }, "geometry": { "type": "Point", "coordinates": [ 129.3685, 35.497604, 60.0 ] } },
{ "type": "Feature", "properties": { "value": 4.8236 }, "geometry": { "type": "Point", "coordinates": [ 129.369598, 35.497604, 60.0 ] } },
{ "type": "Feature", "properties": { "value": 4.7942 }, "geometry": { "type": "Point", "coordinates": [ 129.370697, 35.497601, 60.0 ] } },
{ "type": "Feature", "properties": { "value": 4.7854 }, "geometry": { "type": "Point", "coordinates": [ 129.371811, 35.497597, 60.0 ] } },
{ "type": "Feature", "properties": { "value": 4.7856 }, "geometry": { "type": "Point", "coordinates": [ 129.37291, 35.497593, 60.0 ] } },
{ "type": "Feature", "properties": { "value": 4.7685 }, "geometry": { "type": "Point", "coordinates": [ 129.374008, 35.497589, 60.0 ] } },
{ "type": "Feature", "properties": { "value": 4.7102 }, "geometry": { "type": "Point", "coordinates": [ 129.375107, 35.497585, 60.0 ] } },
{ "type": "Feature", "properties": { "value": 4.5877 }, "geometry": { "type": "Point", "coordinates": [ 129.376221, 35.497581, 60.0 ] } },
{ "type": "Feature", "properties": { "value": 4.3805 }, "geometry": { "type": "Point", "coordinates": [ 129.377319, 35.497578, 60.0 ] } },
{ "type": "Feature", "properties": { "value": 4.0782 }, "geometry": { "type": "Point", "coordinates": [ 129.378418, 35.497574, 60.0 ] } },
{ "type": "Feature", "properties": { "value": 3.6801 }, "geometry": { "type": "Point", "coordinates": [ 129.379517, 35.497574, 60.0 ] } },
{ "type": "Feature", "properties": { "value": 3.2038 }, "geometry": { "type": "Point", "coordinates": [ 129.380615, 35.49757, 60.0 ] } },
{ "type": "Feature", "properties": { "value": 2.6747 }, "geometry": { "type": "Point", "coordinates": [ 129.381729, 35.497566, 60.0 ] } },
{ "type": "Feature", "properties": { "value": 0.0841 }, "geometry": { "type": "Point", "coordinates": [ 129.344254, 35.498581, 60.0 ] } },
{ "type": "Feature", "properties": { "value": 0.2707 }, "geometry": { "type": "Point", "coordinates": [ 129.345352, 35.498577, 60.0 ] } },
{ "type": "Feature", "properties": { "value": 0.5695 }, "geometry": { "type": "Point", "coordinates": [ 129.346466, 35.498573, 60.0 ] } },
{ "type": "Feature", "properties": { "value": 1.0379 }, "geometry": { "type": "Point", "coordinates": [ 129.347565, 35.498569, 60.0 ] } },
{ "type": "Feature", "properties": { "value": 1.6855 }, "geometry": { "type": "Point", "coordinates": [ 129.348663, 35.498566, 60.0 ] } },
{ "type": "Feature", "properties": { "value": 2.4852 }, "geometry": { "type": "Point", "coordinates": [ 129.349762, 35.498562, 60.0 ] } },
{ "type": "Feature", "properties": { "value": 3.3793 }, "geometry": { "type": "Point", "coordinates": [ 129.350876, 35.498562, 60.0 ] } },
{ "type": "Feature", "properties": { "value": 4.2847 }, "geometry": { "type": "Point", "coordinates": [ 129.351974, 35.498558, 60.0 ] } },
{ "type": "Feature", "properties": { "value": 5.1339 }, "geometry": { "type": "Point", "coordinates": [ 129.353073, 35.498554, 60.0 ] } },
{ "type": "Feature", "properties": { "value": 5.8586 }, "geometry": { "type": "Point", "coordinates": [ 129.354172, 35.49855, 60.0 ] } },
{ "type": "Feature", "properties": { "value": 6.3997 }, "geometry": { "type": "Point", "coordinates": [ 129.35527, 35.498547, 60.0 ] } },
{ "type": "Feature", "properties": { "value": 6.755 }, "geometry": { "type": "Point", "coordinates": [ 129.356384, 35.498543, 60.0 ] } },
{ "type": "Feature", "properties": { "value": 6.9308 }, "geometry": { "type": "Point", "coordinates": [ 129.357483, 35.498539, 60.0 ] } },
{ "type": "Feature", "properties": { "value": 6.9809 }, "geometry": { "type": "Point", "coordinates": [ 129.358582, 35.498539, 60.0 ] } },
{ "type": "Feature", "properties": { "value": 6.9178 }, "geometry": { "type": "Point", "coordinates": [ 129.35968, 35.498535, 60.0 ] } },
{ "type": "Feature", "properties": { "value": 6.7776 }, "geometry": { "type": "Point", "coordinates": [ 129.360794, 35.498531, 60.0 ] } },
{ "type": "Feature", "properties": { "value": 6.578 }, "geometry": { "type": "Point", "coordinates": [ 129.361893, 35.498528, 60.0 ] } },
{ "type": "Feature", "properties": { "value": 6.3581 }, "geometry": { "type": "Point", "coordinates": [ 129.362991, 35.498524, 60.0 ] } },
{ "type": "Feature", "properties": { "value": 6.1324 }, "geometry": { "type": "Point", "coordinates": [ 129.36409, 35.49852, 60.0 ] } },
{ "type": "Feature", "properties": { "value": 5.9212 }, "geometry": { "type": "Point", "coordinates": [ 129.365204, 35.498516, 60.0 ] } },
{ "type": "Feature", "properties": { "value": 5.7354 }, "geometry": { "type": "Point", "coordinates": [ 129.366302, 35.498512, 60.0 ] } },
{ "type": "Feature", "properties": { "value": 5.5792 }, "geometry": { "type": "Point", "coordinates": [ 129.367401, 35.498512, 60.0 ] } },
{ "type": "Feature", "properties": { "value": 5.4572 }, "geometry": { "type": "Point", "coordinates": [ 129.3685, 35.498508, 60.0 ] } },
{ "type": "Feature", "properties": { "value": 5.3694 }, "geometry": { "type": "Point", "coordinates": [ 129.369598, 35.498505, 60.0 ] } },
{ "type": "Feature", "properties": { "value": 5.3075 }, "geometry": { "type": "Point", "coordinates": [ 129.370712, 35.498501, 60.0 ] } },
{ "type": "Feature", "properties": { "value": 5.2583 }, "geometry": { "type": "Point", "coordinates": [ 129.371811, 35.498497, 60.0 ] } },
{ "type": "Feature", "properties": { "value": 5.2085 }, "geometry": { "type": "Point", "coordinates": [ 129.37291, 35.498493, 60.0 ] } },
{ "type": "Feature", "properties": { "value": 5.1378 }, "geometry": { "type": "Point", "coordinates": [ 129.374008, 35.498489, 60.0 ] } },
{ "type": "Feature", "properties": { "value": 5.0236 }, "geometry": { "type": "Point", "coordinates": [ 129.375122, 35.498486, 60.0 ] } },
{ "type": "Feature", "properties": { "value": 4.8422 }, "geometry": { "type": "Point", "coordinates": [ 129.376221, 35.498482, 60.0 ] } },
{ "type": "Feature", "properties": { "value": 4.5771 }, "geometry": { "type": "Point", "coordinates": [ 129.377319, 35.498482, 60.0 ] } },
{ "type": "Feature", "properties": { "value": 4.2201 }, "geometry": { "type": "Point", "coordinates": [ 129.378418, 35.498478, 60.0 ] } },
{ "type": "Feature", "properties": { "value": 3.7749 }, "geometry": { "type": "Point", "coordinates": [ 129.379532, 35.498474, 60.0 ] } },
{ "type": "Feature", "properties": { "value": 3.2617 }, "geometry": { "type": "Point", "coordinates": [ 129.38063, 35.49847, 60.0 ] } },
{ "type": "Feature", "properties": { "value": 2.7033 }, "geometry": { "type": "Point", "coordinates": [ 129.381729, 35.498466, 60.0 ] } },
{ "type": "Feature", "properties": { "value": 0.0186 }, "geometry": { "type": "Point", "coordinates": [ 129.345367, 35.499477, 60.0 ] } },
{ "type": "Feature", "properties": { "value": 0.1901 }, "geometry": { "type": "Point", "coordinates": [ 129.346466, 35.499474, 60.0 ] } },
{ "type": "Feature", "properties": { "value": 0.4177 }, "geometry": { "type": "Point", "coordinates": [ 129.347565, 35.49947, 60.0 ] } },
{ "type": "Feature", "properties": { "value": 0.756 }, "geometry": { "type": "Point", "coordinates": [ 129.348663, 35.499466, 60.0 ] } },
{ "type": "Feature", "properties": { "value": 1.2205 }, "geometry": { "type": "Point", "coordinates": [ 129.349777, 35.499466, 60.0 ] } },
{ "type": "Feature", "properties": { "value": 1.8039 }, "geometry": { "type": "Point", "coordinates": [ 129.350876, 35.499462, 60.0 ] } },
{ "type": "Feature", "properties": { "value": 2.4813 }, "geometry": { "type": "Point", "coordinates": [ 129.351974, 35.499458, 60.0 ] } },
{ "type": "Feature", "properties": { "value": 3.2016 }, "geometry": { "type": "Point", "coordinates": [ 129.353073, 35.499454, 60.0 ] } },
{ "type": "Feature", "properties": { "value": 3.9074 }, "geometry": { "type": "Point", "coordinates": [ 129.354187, 35.499451, 60.0 ] } },
{ "type": "Feature", "properties": { "value": 4.5448 }, "geometry": { "type": "Point", "coordinates": [ 129.355286, 35.499447, 60.0 ] } },
{ "type": "Feature", "properties": { "value": 5.0748 }, "geometry": { "type": "Point", "coordinates": [ 129.356384, 35.499447, 60.0 ] } },
{ "type": "Feature", "properties": { "value": 5.4826 }, "geometry": { "type": "Point", "coordinates": [ 129.357483, 35.499443, 60.0 ] } },
{ "type": "Feature", "properties": { "value": 5.7835 }, "geometry": { "type": "Point", "coordinates": [ 129.358582, 35.499439, 60.0 ] } },
{ "type": "Feature", "properties": { "value": 5.9699 }, "geometry": { "type": "Point", "coordinates": [ 129.359695, 35.499435, 60.0 ] } },
{ "type": "Feature", "properties": { "value": 6.0528 }, "geometry": { "type": "Point", "coordinates": [ 129.360794, 35.499432, 60.0 ] } },
{ "type": "Feature", "properties": { "value": 6.0564 }, "geometry": { "type": "Point", "coordinates": [ 129.361893, 35.499428, 60.0 ] } },
{ "type": "Feature", "properties": { "value": 5.9994 }, "geometry": { "type": "Point", "coordinates": [ 129.362991, 35.499424, 60.0 ] } },
{ "type": "Feature", "properties": { "value": 5.9075 }, "geometry": { "type": "Point", "coordinates": [ 129.364105, 35.499424, 60.0 ] } },
{ "type": "Feature", "properties": { "value": 5.7954 }, "geometry": { "type": "Point", "coordinates": [ 129.365204, 35.49942, 60.0 ] } },
{ "type": "Feature", "properties": { "value": 5.6803 }, "geometry": { "type": "Point", "coordinates": [ 129.366302, 35.499416, 60.0 ] } },
{ "type": "Feature", "properties": { "value": 5.5701 }, "geometry": { "type": "Point", "coordinates": [ 129.367401, 35.499413, 60.0 ] } },
{ "type": "Feature", "properties": { "value": 5.4711 }, "geometry": { "type": "Point", "coordinates": [ 129.368515, 35.499409, 60.0 ] } },
{ "type": "Feature", "properties": { "value": 5.387 }, "geometry": { "type": "Point", "coordinates": [ 129.369614, 35.499405, 60.0 ] } },
{ "type": "Feature", "properties": { "value": 5.3155 }, "geometry": { "type": "Point", "coordinates": [ 129.370712, 35.499401, 60.0 ] } },
{ "type": "Feature", "properties": { "value": 5.2423 }, "geometry": { "type": "Point", "coordinates": [ 129.371811, 35.499397, 60.0 ] } },
{ "type": "Feature", "properties": { "value": 5.163 }, "geometry": { "type": "Point", "coordinates": [ 129.37291, 35.499393, 60.0 ] } },
{ "type": "Feature", "properties": { "value": 5.0566 }, "geometry": { "type": "Point", "coordinates": [ 129.374023, 35.499393, 60.0 ] } },
{ "type": "Feature", "properties": { "value": 4.9057 }, "geometry": { "type": "Point", "coordinates": [ 129.375122, 35.49939, 60.0 ] } },
{ "type": "Feature", "properties": { "value": 4.6903 }, "geometry": { "type": "Point", "coordinates": [ 129.376221, 35.499386, 60.0 ] } },
{ "type": "Feature", "properties": { "value": 4.3978 }, "geometry": { "type": "Point", "coordinates": [ 129.377319, 35.499382, 60.0 ] } },
{ "type": "Feature", "properties": { "value": 4.0246 }, "geometry": { "type": "Point", "coordinates": [ 129.378433, 35.499378, 60.0 ] } },
{ "type": "Feature", "properties": { "value": 3.5728 }, "geometry": { "type": "Point", "coordinates": [ 129.379532, 35.499374, 60.0 ] } },
{ "type": "Feature", "properties": { "value": 3.0668 }, "geometry": { "type": "Point", "coordinates": [ 129.38063, 35.499371, 60.0 ] } },
{ "type": "Feature", "properties": { "value": 2.5264 }, "geometry": { "type": "Point", "coordinates": [ 129.381729, 35.499367, 60.0 ] } },
{ "type": "Feature", "properties": { "value": 0.1244 }, "geometry": { "type": "Point", "coordinates": [ 129.347565, 35.500374, 60.0 ] } },
{ "type": "Feature", "properties": { "value": 0.2859 }, "geometry": { "type": "Point", "coordinates": [ 129.348679, 35.50037, 60.0 ] } },
{ "type": "Feature", "properties": { "value": 0.5208 }, "geometry": { "type": "Point", "coordinates": [ 129.349777, 35.500366, 60.0 ] } },
{ "type": "Feature", "properties": { "value": 0.8436 }, "geometry": { "type": "Point", "coordinates": [ 129.350876, 35.500362, 60.0 ] } },
{ "type": "Feature", "properties": { "value": 1.2561 }, "geometry": { "type": "Point", "coordinates": [ 129.351974, 35.500359, 60.0 ] } },
{ "type": "Feature", "properties": { "value": 1.7496 }, "geometry": { "type": "Point", "coordinates": [ 129.353088, 35.500355, 60.0 ] } },
{ "type": "Feature", "properties": { "value": 2.2857 }, "geometry": { "type": "Point", "coordinates": [ 129.354187, 35.500355, 60.0 ] } },
{ "type": "Feature", "properties": { "value": 2.8302 }, "geometry": { "type": "Point", "coordinates": [ 129.355286, 35.500351, 60.0 ] } },
{ "type": "Feature", "properties": { "value": 3.341 }, "geometry": { "type": "Point", "coordinates": [ 129.356384, 35.500347, 60.0 ] } },
{ "type": "Feature", "properties": { "value": 3.8107 }, "geometry": { "type": "Point", "coordinates": [ 129.357483, 35.500343, 60.0 ] } },
{ "type": "Feature", "properties": { "value": 4.2146 }, "geometry": { "type": "Point", "coordinates": [ 129.358597, 35.50034, 60.0 ] } },
{ "type": "Feature", "properties": { "value": 4.5346 }, "geometry": { "type": "Point", "coordinates": [ 129.359695, 35.500336, 60.0 ] } },
{ "type": "Feature", "properties": { "value": 4.7689 }, "geometry": { "type": "Point", "coordinates": [ 129.360794, 35.500332, 60.0 ] } },
{ "type": "Feature", "properties": { "value": 4.926 }, "geometry": { "type": "Point", "coordinates": [ 129.361893, 35.500332, 60.0 ] } },
{ "type": "Feature", "properties": { "value": 5.0118 }, "geometry": { "type": "Point", "coordinates": [ 129.363007, 35.500328, 60.0 ] } },
{ "type": "Feature", "properties": { "value": 5.0516 }, "geometry": { "type": "Point", "coordinates": [ 129.364105, 35.500324, 60.0 ] } },
{ "type": "Feature", "properties": { "value": 5.0489 }, "geometry": { "type": "Point", "coordinates": [ 129.365204, 35.50032, 60.0 ] } },
{ "type": "Feature", "properties": { "value": 5.022 }, "geometry": { "type": "Point", "coordinates": [ 129.366302, 35.500317, 60.0 ] } },
{ "type": "Feature", "properties": { "value": 4.9782 }, "geometry": { "type": "Point", "coordinates": [ 129.367416, 35.500313, 60.0 ] } },
{ "type": "Feature", "properties": { "value": 4.9256 }, "geometry": { "type": "Point", "coordinates": [ 129.368515, 35.500309, 60.0 ] } },
{ "type": "Feature", "properties": { "value": 4.8714 }, "geometry": { "type": "Point", "coordinates": [ 129.369614, 35.500305, 60.0 ] } },
{ "type": "Feature", "properties": { "value": 4.8128 }, "geometry": { "type": "Point", "coordinates": [ 129.370712, 35.500301, 60.0 ] } },
{ "type": "Feature", "properties": { "value": 4.7428 }, "geometry": { "type": "Point", "coordinates": [ 129.371811, 35.500301, 60.0 ] } },
{ "type": "Feature", "properties": { "value": 4.6563 }, "geometry": { "type": "Point", "coordinates": [ 129.372925, 35.500298, 60.0 ] } },
{ "type": "Feature", "properties": { "value": 4.5422 }, "geometry": { "type": "Point", "coordinates": [ 129.374023, 35.500294, 60.0 ] } },
{ "type": "Feature", "properties": { "value": 4.3811 }, "geometry": { "type": "Point", "coordinates": [ 129.375122, 35.50029, 60.0 ] } },
{ "type": "Feature", "properties": { "value": 4.1658 }, "geometry": { "type": "Point", "coordinates": [ 129.376221, 35.500286, 60.0 ] } },
{ "type": "Feature", "properties": { "value": 3.8825 }, "geometry": { "type": "Point", "coordinates": [ 129.377335, 35.500282, 60.0 ] } },
{ "type": "Feature", "properties": { "value": 3.5317 }, "geometry": { "type": "Point", "coordinates": [ 129.378433, 35.500278, 60.0 ] } },
{ "type": "Feature", "properties": { "value": 3.118 }, "geometry": { "type": "Point", "coordinates": [ 129.379532, 35.500275, 60.0 ] } },
{ "type": "Feature", "properties": { "value": 2.6605 }, "geometry": { "type": "Point", "coordinates": [ 129.38063, 35.500271, 60.0 ] } },
{ "type": "Feature", "properties": { "value": 2.1821 }, "geometry": { "type": "Point", "coordinates": [ 129.381744, 35.500267, 60.0 ] } },
{ "type": "Feature", "properties": { "value": 0.0487 }, "geometry": { "type": "Point", "coordinates": [ 129.348679, 35.50127, 60.0 ] } },
{ "type": "Feature", "properties": { "value": 0.1748 }, "geometry": { "type": "Point", "coordinates": [ 129.349777, 35.501266, 60.0 ] } },
{ "type": "Feature", "properties": { "value": 0.3324 }, "geometry": { "type": "Point", "coordinates": [ 129.350876, 35.501263, 60.0 ] } },
{ "type": "Feature", "properties": { "value": 0.5535 }, "geometry": { "type": "Point", "coordinates": [ 129.35199, 35.501259, 60.0 ] } },
{ "type": "Feature", "properties": { "value": 0.8336 }, "geometry": { "type": "Point", "coordinates": [ 129.353088, 35.501259, 60.0 ] } },
{ "type": "Feature", "properties": { "value": 1.1746 }, "geometry": { "type": "Point", "coordinates": [ 129.354187, 35.501255, 60.0 ] } },
{ "type": "Feature", "properties": { "value": 1.5513 }, "geometry": { "type": "Point", "coordinates": [ 129.355286, 35.501251, 60.0 ] } },
{ "type": "Feature", "properties": { "value": 1.9461 }, "geometry": { "type": "Point", "coordinates": [ 129.3564, 35.501247, 60.0 ] } },
{ "type": "Feature", "properties": { "value": 2.342 }, "geometry": { "type": "Point", "coordinates": [ 129.357498, 35.501244, 60.0 ] } },
{ "type": "Feature", "properties": { "value": 2.7217 }, "geometry": { "type": "Point", "coordinates": [ 129.358597, 35.50124, 60.0 ] } },
{ "type": "Feature", "properties": { "value": 3.0606 }, "geometry": { "type": "Point", "coordinates": [ 129.359695, 35.50124, 60.0 ] } },
{ "type": "Feature", "properties": { "value": 3.3373 }, "geometry": { "type": "Point", "coordinates": [ 129.360794, 35.501236, 60.0 ] } },
{ "type": "Feature", "properties": { "value": 3.5552 }, "geometry": { "type": "Point", "coordinates": [ 129.361908, 35.501232, 60.0 ] } },
{ "type": "Feature", "properties": { "value": 3.7186 }, "geometry": { "type": "Point", "coordinates": [ 129.363007, 35.501228, 60.0 ] } },
{ "type": "Feature", "properties": { "value": 3.838 }, "geometry": { "type": "Point", "coordinates": [ 129.364105, 35.501225, 60.0 ] } },
{ "type": "Feature", "properties": { "value": 3.9189 }, "geometry": { "type": "Point", "coordinates": [ 129.365204, 35.501221, 60.0 ] } },
{ "type": "Feature", "properties": { "value": 3.9662 }, "geometry": { "type": "Point", "coordinates": [ 129.366318, 35.501217, 60.0 ] } },
{ "type": "Feature", "properties": { "value": 3.9864 }, "geometry": { "type": "Point", "coordinates": [ 129.367416, 35.501213, 60.0 ] } },
{ "type": "Feature", "properties": { "value": 3.9846 }, "geometry": { "type": "Point", "coordinates": [ 129.368515, 35.501213, 60.0 ] } },
{ "type": "Feature", "properties": { "value": 3.9688 }, "geometry": { "type": "Point", "coordinates": [ 129.369614, 35.501209, 60.0 ] } },
{ "type": "Feature", "properties": { "value": 3.939 }, "geometry": { "type": "Point", "coordinates": [ 129.370728, 35.501205, 60.0 ] } },
{ "type": "Feature", "properties": { "value": 3.8907 }, "geometry": { "type": "Point", "coordinates": [ 129.371826, 35.501202, 60.0 ] } },
{ "type": "Feature", "properties": { "value": 3.8203 }, "geometry": { "type": "Point", "coordinates": [ 129.372925, 35.501198, 60.0 ] } },
{ "type": "Feature", "properties": { "value": 3.721 }, "geometry": { "type": "Point", "coordinates": [ 129.374023, 35.501194, 60.0 ] } },
{ "type": "Feature", "properties": { "value": 3.5804 }, "geometry": { "type": "Point", "coordinates": [ 129.375122, 35.50119, 60.0 ] } },
{ "type": "Feature", "properties": { "value": 3.3926 }, "geometry": { "type": "Point", "coordinates": [ 129.376236, 35.501186, 60.0 ] } },
{ "type": "Feature", "properties": { "value": 3.1494 }, "geometry": { "type": "Point", "coordinates": [ 129.377335, 35.501183, 60.0 ] } },
{ "type": "Feature", "properties": { "value": 2.8515 }, "geometry": { "type": "Point", "coordinates": [ 129.378433, 35.501179, 60.0 ] } },
{ "type": "Feature", "properties": { "value": 2.5077 }, "geometry": { "type": "Point", "coordinates": [ 129.379532, 35.501179, 60.0 ] } },
{ "type": "Feature", "properties": { "value": 2.1297 }, "geometry": { "type": "Point", "coordinates": [ 129.380646, 35.501175, 60.0 ] } },
{ "type": "Feature", "properties": { "value": 1.741 }, "geometry": { "type": "Point", "coordinates": [ 129.381744, 35.501171, 60.0 ] } }
]
}
