{
"type": "FeatureCollection",
"features": [
{ "type": "Feature", "properties": { "value": 98.688 }, "geometry": { "type": "Point", "coordinates": [ 129.326462, 35.458069, 30.0 ] } },
{ "type": "Feature", "properties": { "value": 45.377 }, "geometry": { "type": "Point", "coordinates": [ 129.32756, 35.458069, 30.0 ] } },
{ "type": "Feature", "properties": { "value": 2.1019 }, "geometry": { "type": "Point", "coordinates": [ 129.325363, 35.458973, 30.0 ] } },
{ "type": "Feature", "properties": { "value": 101.94 }, "geometry": { "type": "Point", "coordinates": [ 129.326462, 35.458973, 30.0 ] } },
{ "type": "Feature", "properties": { "value": 61.927 }, "geometry": { "type": "Point", "coordinates": [ 129.32756, 35.458969, 30.0 ] } },
{ "type": "Feature", "properties": { "value": 9.8207 }, "geometry": { "type": "Point", "coordinates": [ 129.325363, 35.459877, 30.0 ] } },
{ "type": "Feature", "properties": { "value": 81.502 }, "geometry": { "type": "Point", "coordinates": [ 129.326462, 35.459873, 30.0 ] } },
{ "type": "Feature", "properties": { "value": 56.41 }, "geometry": { "type": "Point", "coordinates": [ 129.32756, 35.459869, 30.0 ] } },
{ "type": "Feature", "properties": { "value": 2.9881 }, "geometry": { "type": "Point", "coordinates": [ 129.328674, 35.459866, 30.0 ] } },
{ "type": "Feature", "properties": { "value": 1.0568 }, "geometry": { "type": "Point", "coordinates": [ 129.324265, 35.460781, 30.0 ] } },
{ "type": "Feature", "properties": { "value": 15.861 }, "geometry": { "type": "Point", "coordinates": [ 129.325363, 35.460777, 30.0 ] } },
{ "type": "Feature", "properties": { "value": 59.319 }, "geometry": { "type": "Point", "coordinates": [ 129.326477, 35.460773, 30.0 ] } },
{ "type": "Feature", "properties": { "value": 44.593 }, "geometry": { "type": "Point", "coordinates": [ 129.327576, 35.46077, 30.0 ] } },
{ "type": "Feature", "properties": { "value": 5.9103 }, "geometry": { "type": "Point", "coordinates": [ 129.328674, 35.46077, 30.0 ] } },
{ "type": "Feature", "properties": { "value": 2.6636 }, "geometry": { "type": "Point", "coordinates": [ 129.324265, 35.461681, 30.0 ] } },
{ "type": "Feature", "properties": { "value": 18.458 }, "geometry": { "type": "Point", "coordinates": [ 129.325378, 35.461678, 30.0 ] } },
{ "type": "Feature", "properties": { "value": 44.666 }, "geometry": { "type": "Point", "coordinates": [ 129.326477, 35.461674, 30.0 ] } },
{ "type": "Feature", "properties": { "value": 35.509 }, "geometry": { "type": "Point", "coordinates": [ 129.327576, 35.461674, 30.0 ] } },
{ "type": "Feature", "properties": { "value": 7.9088 }, "geometry": { "type": "Point", "coordinates": [ 129.328674, 35.46167, 30.0 ] } },
{ "type": "Feature", "properties": { "value": 0.4613 }, "geometry": { "type": "Point", "coordinates": [ 129.329773, 35.461666, 30.0 ] } },
{ "type": "Feature", "properties": { "value": 0.3874 }, "geometry": { "type": "Point", "coordinates": [ 129.323166, 35.462585, 30.0 ] } },
{ "type": "Feature", "properties": { "value": 4.3704 }, "geometry": { "type": "Point", "coordinates": [ 129.32428, 35.462582, 30.0 ] } },
{ "type": "Feature", "properties": { "value": 18.539 }, "geometry": { "type": "Point", "coordinates": [ 129.325378, 35.462578, 30.0 ] } },
{ "type": "Feature", "properties": { "value": 35.005 }, "geometry": { "type": "Point", "coordinates": [ 129.326477, 35.462578, 30.0 ] } },
{ "type": "Feature", "properties": { "value": 28.719 }, "geometry": { "type": "Point", "coordinates": [ 129.327576, 35.462574, 30.0 ] } },
{ "type": "Feature", "properties": { "value": 8.9532 }, "geometry": { "type": "Point", "coordinates": [ 129.328674, 35.46257, 30.0 ] } },
{ "type": "Feature", "properties": { "value": 1.2231 }, "geometry": { "type": "Point", "coordinates": [ 129.329788, 35.462566, 30.0 ] } },
{ "type": "Feature", "properties": { "value": 1.0488 }, "geometry": { "type": "Point", "coordinates": [ 129.323181, 35.463486, 30.0 ] } },
{ "type": "Feature", "properties": { "value": 5.6097 }, "geometry": { "type": "Point", "coordinates": [ 129.32428, 35.463486, 30.0 ] } },
{ "type": "Feature", "properties": { "value": 17.338 }, "geometry": { "type": "Point", "coordinates": [ 129.325378, 35.463482, 30.0 ] } },
{ "type": "Feature", "properties": { "value": 28.238 }, "geometry": { "type": "Point", "coordinates": [ 129.326477, 35.463478, 30.0 ] } },
{ "type": "Feature", "properties": { "value": 23.353 }, "geometry": { "type": "Point", "coordinates": [ 129.327576, 35.463474, 30.0 ] } },
{ "type": "Feature", "properties": { "value": 9.2857 }, "geometry": { "type": "Point", "coordinates": [ 129.32869, 35.46347, 30.0 ] } },
{ "type": "Feature", "properties": { "value": 1.9679 }, "geometry": { "type": "Point", "coordinates": [ 129.329788, 35.46347, 30.0 ] } },
{ "type": "Feature", "properties": { "value": 0.1 }, "geometry": { "type": "Point", "coordinates": [ 129.330887, 35.463467, 30.0 ] } },
{ "type": "Feature", "properties": { "value": 0.1847 }, "geometry": { "type": "Point", "coordinates": [ 129.322083, 35.46439, 30.0 ] } },
{ "type": "Feature", "properties": { "value": 1.6089 }, "geometry": { "type": "Point", "coordinates": [ 129.323181, 35.46439, 30.0 ] } },
{ "type": "Feature", "properties": { "value": 6.2816 }, "geometry": { "type": "Point", "coordinates": [ 129.32428, 35.464386, 30.0 ] } },
{ "type": "Feature", "properties": { "value": 15.594 }, "geometry": { "type": "Point", "coordinates": [ 129.325378, 35.464382, 30.0 ] } },
{ "type": "Feature", "properties": { "value": 22.877 }, "geometry": { "type": "Point", "coordinates": [ 129.326477, 35.464378, 30.0 ] } },
{ "type": "Feature", "properties": { "value": 19.089 }, "geometry": { "type": "Point", "coordinates": [ 129.327591, 35.464375, 30.0 ] } },
{ "type": "Feature", "properties": { "value": 9.0364 }, "geometry": { "type": "Point", "coordinates": [ 129.32869, 35.464375, 30.0 ] } },
{ "type": "Feature", "properties": { "value": 2.5207 }, "geometry": { "type": "Point", "coordinates": [ 129.329788, 35.464371, 30.0 ] } },
{ "type": "Feature", "properties": { "value": 0.3897 }, "geometry": { "type": "Point", "coordinates": [ 129.330887, 35.464367, 30.0 ] } },
{ "type": "Feature", "properties": { "value": 0.4665 }, "geometry": { "type": "Point", "coordinates": [ 129.322083, 35.465294, 30.0 ] } },
{ "type": "Feature", "properties": { "value": 2.1187 }, "geometry": { "type": "Point", "coordinates": [ 129.323181, 35.46529, 30.0 ] } },
{ "type": "Feature", "properties": { "value": 6.5466 }, "geometry": { "type": "Point", "coordinates": [ 129.32428, 35.465286, 30.0 ] } },
{ "type": "Feature", "properties": { "value": 13.706 }, "geometry": { "type": "Point", "coordinates": [ 129.325394, 35.465282, 30.0 ] } },
{ "type": "Feature", "properties": { "value": 18.522 }, "geometry": { "type": "Point", "coordinates": [ 129.326492, 35.465279, 30.0 ] } },
{ "type": "Feature", "properties": { "value": 15.75 }, "geometry": { "type": "Point", "coordinates": [ 129.327591, 35.465279, 30.0 ] } },
{ "type": "Feature", "properties": { "value": 8.3717 }, "geometry": { "type": "Point", "coordinates": [ 129.32869, 35.465275, 30.0 ] } },
{ "type": "Feature", "properties": { "value": 2.8751 }, "geometry": { "type": "Point", "coordinates": [ 129.329788, 35.465271, 30.0 ] } },
{ "type": "Feature", "properties": { "value": 0.6532 }, "geometry": { "type": "Point", "coordinates": [ 129.330887, 35.465267, 30.0 ] } },
{ "type": "Feature", "properties": { "value": 0.0952 }, "geometry": { "type": "Point", "coordinates": [ 129.320984, 35.466198, 30.0 ] } },
{ "type": "Feature", "properties": { "value": 0.6961 }, "geometry": { "type": "Point", "coordinates": [ 129.322083, 35.466194, 30.0 ] } },
{ "type": "Feature", "properties": { "value": 2.5153 }, "geometry": { "type": "Point", "coordinates": [ 129.323181, 35.46619, 30.0 ] } },
{ "type": "Feature", "properties": { "value": 6.5055 }, "geometry": { "type": "Point", "coordinates": [ 129.324295, 35.466187, 30.0 ] } },
{ "type": "Feature", "properties": { "value": 11.975 }, "geometry": { "type": "Point", "coordinates": [ 129.325394, 35.466187, 30.0 ] } },
{ "type": "Feature", "properties": { "value": 15.191 }, "geometry": { "type": "Point", "coordinates": [ 129.326492, 35.466183, 30.0 ] } },
{ "type": "Feature", "properties": { "value": 13.154 }, "geometry": { "type": "Point", "coordinates": [ 129.327591, 35.466179, 30.0 ] } },
{ "type": "Feature", "properties": { "value": 7.5897 }, "geometry": { "type": "Point", "coordinates": [ 129.32869, 35.466175, 30.0 ] } },
{ "type": "Feature", "properties": { "value": 3.0724 }, "geometry": { "type": "Point", "coordinates": [ 129.329803, 35.466171, 30.0 ] } },
{ "type": "Feature", "properties": { "value": 0.875 }, "geometry": { "type": "Point", "coordinates": [ 129.330902, 35.466171, 30.0 ] } },
{ "type": "Feature", "properties": { "value": 0.1301 }, "geometry": { "type": "Point", "coordinates": [ 129.332001, 35.466167, 30.0 ] } },
{ "type": "Feature", "properties": { "value": 0.2272 }, "geometry": { "type": "Point", "coordinates": [ 129.320984, 35.467098, 30.0 ] } },
{ "type": "Feature", "properties": { "value": 0.938 }, "geometry": { "type": "Point", "coordinates": [ 129.322083, 35.467094, 30.0 ] } },
{ "type": "Feature", "properties": { "value": 2.7573 }, "geometry": { "type": "Point", "coordinates": [ 129.323196, 35.467091, 30.0 ] } },
{ "type": "Feature", "properties": { "value": 6.2341 }, "geometry": { "type": "Point", "coordinates": [ 129.324295, 35.467091, 30.0 ] } },
{ "type": "Feature", "properties": { "value": 10.47 }, "geometry": { "type": "Point", "coordinates": [ 129.325394, 35.467087, 30.0 ] } },
{ "type": "Feature", "properties": { "value": 12.714 }, "geometry": { "type": "Point", "coordinates": [ 129.326492, 35.467083, 30.0 ] } },
{ "type": "Feature", "properties": { "value": 11.147 }, "geometry": { "type": "Point", "coordinates": [ 129.327591, 35.467079, 30.0 ] } },
{ "type": "Feature", "properties": { "value": 6.9107 }, "geometry": { "type": "Point", "coordinates": [ 129.328705, 35.467075, 30.0 ] } },
{ "type": "Feature", "properties": { "value": 3.1281 }, "geometry": { "type": "Point", "coordinates": [ 129.329803, 35.467075, 30.0 ] } },
{ "type": "Feature", "properties": { "value": 1.0707 }, "geometry": { "type": "Point", "coordinates": [ 129.330902, 35.467072, 30.0 ] } },
{ "type": "Feature", "properties": { "value": 0.2715 }, "geometry": { "type": "Point", "coordinates": [ 129.332001, 35.467068, 30.0 ] } },
{ "type": "Feature", "properties": { "value": 0.0461 }, "geometry": { "type": "Point", "coordinates": [ 129.319885, 35.468002, 30.0 ] } },
{ "type": "Feature", "properties": { "value": 0.3385 }, "geometry": { "type": "Point", "coordinates": [ 129.320984, 35.467999, 30.0 ] } },
{ "type": "Feature", "properties": { "value": 1.1053 }, "geometry": { "type": "Point", "coordinates": [ 129.322098, 35.467995, 30.0 ] } },
{ "type": "Feature", "properties": { "value": 2.8632 }, "geometry": { "type": "Point", "coordinates": [ 129.323196, 35.467995, 30.0 ] } },
{ "type": "Feature", "properties": { "value": 5.8378 }, "geometry": { "type": "Point", "coordinates": [ 129.324295, 35.467991, 30.0 ] } },
{ "type": "Feature", "properties": { "value": 9.1817 }, "geometry": { "type": "Point", "coordinates": [ 129.325394, 35.467987, 30.0 ] } },
{ "type": "Feature", "properties": { "value": 10.833 }, "geometry": { "type": "Point", "coordinates": [ 129.326492, 35.467983, 30.0 ] } },
{ "type": "Feature", "properties": { "value": 9.5311 }, "geometry": { "type": "Point", "coordinates": [ 129.327606, 35.467983, 30.0 ] } },
{ "type": "Feature", "properties": { "value": 6.2628 }, "geometry": { "type": "Point", "coordinates": [ 129.328705, 35.467979, 30.0 ] } },
{ "type": "Feature", "properties": { "value": 3.1188 }, "geometry": { "type": "Point", "coordinates": [ 129.329803, 35.467976, 30.0 ] } },
{ "type": "Feature", "properties": { "value": 1.2111 }, "geometry": { "type": "Point", "coordinates": [ 129.330902, 35.467972, 30.0 ] } },
{ "type": "Feature", "properties": { "value": 0.366 }, "geometry": { "type": "Point", "coordinates": [ 129.332001, 35.467968, 30.0 ] } },
{ "type": "Feature", "properties": { "value": 0.0536 }, "geometry": { "type": "Point", "coordinates": [ 129.333115, 35.467968, 30.0 ] } },
{ "type": "Feature", "properties": { "value": 0.1057 }, "geometry": { "type": "Point", "coordinates": [ 129.319885, 35.468903, 30.0 ] } },
{ "type": "Feature", "properties": { "value": 0.418 }, "geometry": { "type": "Point", "coordinates": [ 129.320999, 35.468899, 30.0 ] } },
{ "type": "Feature", "properties": { "value": 1.2197 }, "geometry": { "type": "Point", "coordinates": [ 129.322098, 35.468899, 30.0 ] } },
{ "type": "Feature", "properties": { "value": 2.8569 }, "geometry": { "type": "Point", "coordinates": [ 129.323196, 35.468895, 30.0 ] } },
{ "type": "Feature", "properties": { "value": 5.3664 }, "geometry": { "type": "Point", "coordinates": [ 129.324295, 35.468891, 30.0 ] } },
{ "type": "Feature", "properties": { "value": 7.9712 }, "geometry": { "type": "Point", "coordinates": [ 129.325394, 35.468887, 30.0 ] } },
{ "type": "Feature", "properties": { "value": 9.166 }, "geometry": { "type": "Point", "coordinates": [ 129.326508, 35.468887, 30.0 ] } },
{ "type": "Feature", "properties": { "value": 8.1532 }, "geometry": { "type": "Point", "coordinates": [ 129.327606, 35.468884, 30.0 ] } },
{ "type": "Feature", "properties": { "value": 5.6199 }, "geometry": { "type": "Point", "coordinates": [ 129.328705, 35.46888, 30.0 ] } },
{ "type": "Feature", "properties": { "value": 3.0261 }, "geometry": { "type": "Point", "coordinates": [ 129.329803, 35.468876, 30.0 ] } },
{ "type": "Feature", "properties": { "value": 1.3019 }, "geometry": { "type": "Point", "coordinates": [ 129.330902, 35.468872, 30.0 ] } },
{ "type": "Feature", "properties": { "value": 0.4456 }, "geometry": { "type": "Point", "coordinates": [ 129.332016, 35.468872, 30.0 ] } },
{ "type": "Feature", "properties": { "value": 0.1107 }, "geometry": { "type": "Point", "coordinates": [ 129.333115, 35.468868, 30.0 ] } },
{ "type": "Feature", "properties": { "value": 0.0054 }, "geometry": { "type": "Point", "coordinates": [ 129.318787, 35.469807, 30.0 ] } },
{ "type": "Feature", "properties": { "value": 0.1436 }, "geometry": { "type": "Point", "coordinates": [ 129.319901, 35.469803, 30.0 ] } },
{ "type": "Feature", "properties": { "value": 0.4732 }, "geometry": { "type": "Point", "coordinates": [ 129.320999, 35.469803, 30.0 ] } },
{ "type": "Feature", "properties": { "value": 1.2618 }, "geometry": { "type": "Point", "coordinates": [ 129.322098, 35.469799, 30.0 ] } },
{ "type": "Feature", "properties": { "value": 2.7293 }, "geometry": { "type": "Point", "coordinates": [ 129.323196, 35.469795, 30.0 ] } },
{ "type": "Feature", "properties": { "value": 4.8093 }, "geometry": { "type": "Point", "coordinates": [ 129.324295, 35.469791, 30.0 ] } },
{ "type": "Feature", "properties": { "value": 6.8403 }, "geometry": { "type": "Point", "coordinates": [ 129.325409, 35.469791, 30.0 ] } },
{ "type": "Feature", "properties": { "value": 7.7297 }, "geometry": { "type": "Point", "coordinates": [ 129.326508, 35.469788, 30.0 ] } },
{ "type": "Feature", "properties": { "value": 6.9319 }, "geometry": { "type": "Point", "coordinates": [ 129.327606, 35.469784, 30.0 ] } },
{ "type": "Feature", "properties": { "value": 4.9515 }, "geometry": { "type": "Point", "coordinates": [ 129.328705, 35.46978, 30.0 ] } },
{ "type": "Feature", "properties": { "value": 2.8419 }, "geometry": { "type": "Point", "coordinates": [ 129.329819, 35.469776, 30.0 ] } },
{ "type": "Feature", "properties": { "value": 1.3298 }, "geometry": { "type": "Point", "coordinates": [ 129.330917, 35.469776, 30.0 ] } },
{ "type": "Feature", "properties": { "value": 0.501 }, "geometry": { "type": "Point", "coordinates": [ 129.332016, 35.469772, 30.0 ] } },
{ "type": "Feature", "properties": { "value": 0.1518 }, "geometry": { "type": "Point", "coordinates": [ 129.333115, 35.469769, 30.0 ] } },
{ "type": "Feature", "properties": { "value": 0.0142 }, "geometry": { "type": "Point", "coordinates": [ 129.334213, 35.469765, 30.0 ] } },
{ "type": "Feature", "properties": { "value": 0.0277 }, "geometry": { "type": "Point", "coordinates": [ 129.318802, 35.470707, 30.0 ] } },
{ "type": "Feature", "properties": { "value": 0.1602 }, "geometry": { "type": "Point", "coordinates": [ 129.319901, 35.470707, 30.0 ] } },
{ "type": "Feature", "properties": { "value": 0.4907 }, "geometry": { "type": "Point", "coordinates": [ 129.320999, 35.470703, 30.0 ] } },
{ "type": "Feature", "properties": { "value": 1.2155 }, "geometry": { "type": "Point", "coordinates": [ 129.322098, 35.470699, 30.0 ] } },
{ "type": "Feature", "properties": { "value": 2.4682 }, "geometry": { "type": "Point", "coordinates": [ 129.323212, 35.470695, 30.0 ] } },
{ "type": "Feature", "properties": { "value": 4.127 }, "geometry": { "type": "Point", "coordinates": [ 129.32431, 35.470695, 30.0 ] } },
{ "type": "Feature", "properties": { "value": 5.6959 }, "geometry": { "type": "Point", "coordinates": [ 129.325409, 35.470692, 30.0 ] } },
{ "type": "Feature", "properties": { "value": 6.3537 }, "geometry": { "type": "Point", "coordinates": [ 129.326508, 35.470688, 30.0 ] } },
{ "type": "Feature", "properties": { "value": 5.7437 }, "geometry": { "type": "Point", "coordinates": [ 129.327606, 35.470684, 30.0 ] } },
{ "type": "Feature", "properties": { "value": 4.217 }, "geometry": { "type": "Point", "coordinates": [ 129.32872, 35.470684, 30.0 ] } },
{ "type": "Feature", "properties": { "value": 2.5553 }, "geometry": { "type": "Point", "coordinates": [ 129.329819, 35.47068, 30.0 ] } },
{ "type": "Feature", "properties": { "value": 1.2731 }, "geometry": { "type": "Point", "coordinates": [ 129.330917, 35.470676, 30.0 ] } },
{ "type": "Feature", "properties": { "value": 0.5144 }, "geometry": { "type": "Point", "coordinates": [ 129.332016, 35.470673, 30.0 ] } },
{ "type": "Feature", "properties": { "value": 0.1672 }, "geometry": { "type": "Point", "coordinates": [ 129.333115, 35.470669, 30.0 ] } },
{ "type": "Feature", "properties": { "value": 0.0289 }, "geometry": { "type": "Point", "coordinates": [ 129.334229, 35.470669, 30.0 ] } },
{ "type": "Feature", "properties": { "value": 0.0425 }, "geometry": { "type": "Point", "coordinates": [ 129.318802, 35.471611, 30.0 ] } },
{ "type": "Feature", "properties": { "value": 0.1593 }, "geometry": { "type": "Point", "coordinates": [ 129.319901, 35.471607, 30.0 ] } },
{ "type": "Feature", "properties": { "value": 0.4621 }, "geometry": { "type": "Point", "coordinates": [ 129.320999, 35.471603, 30.0 ] } },
{ "type": "Feature", "properties": { "value": 1.083 }, "geometry": { "type": "Point", "coordinates": [ 129.322113, 35.4716, 30.0 ] } },
{ "type": "Feature", "properties": { "value": 2.0928 }, "geometry": { "type": "Point", "coordinates": [ 129.323212, 35.4716, 30.0 ] } },
{ "type": "Feature", "properties": { "value": 3.3659 }, "geometry": { "type": "Point", "coordinates": [ 129.32431, 35.471596, 30.0 ] } },
{ "type": "Feature", "properties": { "value": 4.5333 }, "geometry": { "type": "Point", "coordinates": [ 129.325409, 35.471592, 30.0 ] } },
{ "type": "Feature", "properties": { "value": 5.0032 }, "geometry": { "type": "Point", "coordinates": [ 129.326508, 35.471588, 30.0 ] } },
{ "type": "Feature", "properties": { "value": 4.5631 }, "geometry": { "type": "Point", "coordinates": [ 129.327621, 35.471588, 30.0 ] } },
{ "type": "Feature", "properties": { "value": 3.4403 }, "geometry": { "type": "Point", "coordinates": [ 129.32872, 35.471584, 30.0 ] } },
{ "type": "Feature", "properties": { "value": 2.1605 }, "geometry": { "type": "Point", "coordinates": [ 129.329819, 35.471581, 30.0 ] } },
{ "type": "Feature", "properties": { "value": 1.122 }, "geometry": { "type": "Point", "coordinates": [ 129.330917, 35.471577, 30.0 ] } },
{ "type": "Feature", "properties": { "value": 0.479 }, "geometry": { "type": "Point", "coordinates": [ 129.332016, 35.471573, 30.0 ] } },
{ "type": "Feature", "properties": { "value": 0.1747 }, "geometry": { "type": "Point", "coordinates": [ 129.33313, 35.471573, 30.0 ] } },
{ "type": "Feature", "properties": { "value": 0.044 }, "geometry": { "type": "Point", "coordinates": [ 129.334229, 35.471569, 30.0 ] } },
{ "type": "Feature", "properties": { "value": 0.0382 }, "geometry": { "type": "Point", "coordinates": [ 129.318802, 35.472511, 30.0 ] } },
{ "type": "Feature", "properties": { "value": 0.1499 }, "geometry": { "type": "Point", "coordinates": [ 129.319901, 35.472507, 30.0 ] } },
{ "type": "Feature", "properties": { "value": 0.3927 }, "geometry": { "type": "Point", "coordinates": [ 129.321014, 35.472507, 30.0 ] } },
{ "type": "Feature", "properties": { "value": 0.8723 }, "geometry": { "type": "Point", "coordinates": [ 129.322113, 35.472504, 30.0 ] } },
{ "type": "Feature", "properties": { "value": 1.6352 }, "geometry": { "type": "Point", "coordinates": [ 129.323212, 35.4725, 30.0 ] } },
{ "type": "Feature", "properties": { "value": 2.564 }, "geometry": { "type": "Point", "coordinates": [ 129.32431, 35.472496, 30.0 ] } },
{ "type": "Feature", "properties": { "value": 3.3821 }, "geometry": { "type": "Point", "coordinates": [ 129.325409, 35.472492, 30.0 ] } },
{ "type": "Feature", "properties": { "value": 3.7001 }, "geometry": { "type": "Point", "coordinates": [ 129.326523, 35.472492, 30.0 ] } },
{ "type": "Feature", "properties": { "value": 3.3986 }, "geometry": { "type": "Point", "coordinates": [ 129.327621, 35.472488, 30.0 ] } },
{ "type": "Feature", "properties": { "value": 2.6136 }, "geometry": { "type": "Point", "coordinates": [ 129.32872, 35.472485, 30.0 ] } },
{ "type": "Feature", "properties": { "value": 1.6709 }, "geometry": { "type": "Point", "coordinates": [ 129.329819, 35.472481, 30.0 ] } },
{ "type": "Feature", "properties": { "value": 0.9068 }, "geometry": { "type": "Point", "coordinates": [ 129.330917, 35.472477, 30.0 ] } },
{ "type": "Feature", "properties": { "value": 0.4055 }, "geometry": { "type": "Point", "coordinates": [ 129.332031, 35.472477, 30.0 ] } },
{ "type": "Feature", "properties": { "value": 0.1553 }, "geometry": { "type": "Point", "coordinates": [ 129.33313, 35.472473, 30.0 ] } },
{ "type": "Feature", "properties": { "value": 0.0396 }, "geometry": { "type": "Point", "coordinates": [ 129.334229, 35.472469, 30.0 ] } },
{ "type": "Feature", "properties": { "value": 0.0028 }, "geometry": { "type": "Point", "coordinates": [ 129.317703, 35.473415, 30.0 ] } },
{ "type": "Feature", "properties": { "value": 0.0361 }, "geometry": { "type": "Point", "coordinates": [ 129.318802, 35.473412, 30.0 ] } },
{ "type": "Feature", "properties": { "value": 0.119 }, "geometry": { "type": "Point", "coordinates": [ 129.319916, 35.473412, 30.0 ] } },
{ "type": "Feature", "properties": { "value": 0.2994 }, "geometry": { "type": "Point", "coordinates": [ 129.321014, 35.473408, 30.0 ] } },
{ "type": "Feature", "properties": { "value": 0.641 }, "geometry": { "type": "Point", "coordinates": [ 129.322113, 35.473404, 30.0 ] } },
{ "type": "Feature", "properties": { "value": 1.165 }, "geometry": { "type": "Point", "coordinates": [ 129.323212, 35.4734, 30.0 ] } },
{ "type": "Feature", "properties": { "value": 1.7887 }, "geometry": { "type": "Point", "coordinates": [ 129.32431, 35.473396, 30.0 ] } },
{ "type": "Feature", "properties": { "value": 2.3183 }, "geometry": { "type": "Point", "coordinates": [ 129.325424, 35.473396, 30.0 ] } },
{ "type": "Feature", "properties": { "value": 2.5292 }, "geometry": { "type": "Point", "coordinates": [ 129.326523, 35.473392, 30.0 ] } },
{ "type": "Feature", "properties": { "value": 2.3332 }, "geometry": { "type": "Point", "coordinates": [ 129.327621, 35.473389, 30.0 ] } },
{ "type": "Feature", "properties": { "value": 1.8142 }, "geometry": { "type": "Point", "coordinates": [ 129.32872, 35.473385, 30.0 ] } },
{ "type": "Feature", "properties": { "value": 1.1869 }, "geometry": { "type": "Point", "coordinates": [ 129.329819, 35.473385, 30.0 ] } },
{ "type": "Feature", "properties": { "value": 0.6566 }, "geometry": { "type": "Point", "coordinates": [ 129.330933, 35.473381, 30.0 ] } },
{ "type": "Feature", "properties": { "value": 0.3072 }, "geometry": { "type": "Point", "coordinates": [ 129.332031, 35.473377, 30.0 ] } },
{ "type": "Feature", "properties": { "value": 0.1223 }, "geometry": { "type": "Point", "coordinates": [ 129.33313, 35.473373, 30.0 ] } },
{ "type": "Feature", "properties": { "value": 0.0372 }, "geometry": { "type": "Point", "coordinates": [ 129.334229, 35.47337, 30.0 ] } },
{ "type": "Feature", "properties": { "value": 0.0029 }, "geometry": { "type": "Point", "coordinates": [ 129.335342, 35.47337, 30.0 ] } },
{ "type": "Feature", "properties": { "value": 0.0025 }, "geometry": { "type": "Point", "coordinates": [ 129.317703, 35.474316, 30.0 ] } },
{ "type": "Feature", "properties": { "value": 0.0238 }, "geometry": { "type": "Point", "coordinates": [ 129.318817, 35.474316, 30.0 ] } },
{ "type": "Feature", "properties": { "value": 0.0826 }, "geometry": { "type": "Point", "coordinates": [ 129.319916, 35.474312, 30.0 ] } },
{ "type": "Feature", "properties": { "value": 0.2047 }, "geometry": { "type": "Point", "coordinates": [ 129.321014, 35.474308, 30.0 ] } },
{ "type": "Feature", "properties": { "value": 0.4304 }, "geometry": { "type": "Point", "coordinates": [ 129.322113, 35.474304, 30.0 ] } },
{ "type": "Feature", "properties": { "value": 0.7681 }, "geometry": { "type": "Point", "coordinates": [ 129.323212, 35.4743, 30.0 ] } },
{ "type": "Feature", "properties": { "value": 1.1636 }, "geometry": { "type": "Point", "coordinates": [ 129.324326, 35.4743, 30.0 ] } },
{ "type": "Feature", "properties": { "value": 1.4911 }, "geometry": { "type": "Point", "coordinates": [ 129.325424, 35.474297, 30.0 ] } },
{ "type": "Feature", "properties": { "value": 1.6233 }, "geometry": { "type": "Point", "coordinates": [ 129.326523, 35.474293, 30.0 ] } },
{ "type": "Feature", "properties": { "value": 1.5002 }, "geometry": { "type": "Point", "coordinates": [ 129.327621, 35.474289, 30.0 ] } },
{ "type": "Feature", "properties": { "value": 1.1777 }, "geometry": { "type": "Point", "coordinates": [ 129.328735, 35.474289, 30.0 ] } },
{ "type": "Feature", "properties": { "value": 0.7819 }, "geometry": { "type": "Point", "coordinates": [ 129.329834, 35.474285, 30.0 ] } },
{ "type": "Feature", "properties": { "value": 0.4391 }, "geometry": { "type": "Point", "coordinates": [ 129.330933, 35.474281, 30.0 ] } },
{ "type": "Feature", "properties": { "value": 0.2089 }, "geometry": { "type": "Point", "coordinates": [ 129.332031, 35.474277, 30.0 ] } },
{ "type": "Feature", "properties": { "value": 0.0845 }, "geometry": { "type": "Point", "coordinates": [ 129.33313, 35.474274, 30.0 ] } },
{ "type": "Feature", "properties": { "value": 0.0244 }, "geometry": { "type": "Point", "coordinates": [ 129.334244, 35.474274, 30.0 ] } },
{ "type": "Feature", "properties": { "value": 0.0026 }, "geometry": { "type": "Point", "coordinates": [ 129.335342, 35.47427, 30.0 ] } },
{ "type": "Feature", "properties": { "value": 0.0124 }, "geometry": { "type": "Point", "coordinates": [ 129.318817, 35.475216, 30.0 ] } },
{ "type": "Feature", "properties": { "value": 0.0504 }, "geometry": { "type": "Point", "coordinates": [ 129.319916, 35.475212, 30.0 ] } },
{ "type": "Feature", "properties": { "value": 0.1249 }, "geometry": { "type": "Point", "coordinates": [ 129.321014, 35.475208, 30.0 ] } },
{ "type": "Feature", "properties": { "value": 0.2601 }, "geometry": { "type": "Point", "coordinates": [ 129.322113, 35.475208, 30.0 ] } },
{ "type": "Feature", "properties": { "value": 0.4587 }, "geometry": { "type": "Point", "coordinates": [ 129.323227, 35.475204, 30.0 ] } },
{ "type": "Feature", "properties": { "value": 0.6814 }, "geometry": { "type": "Point", "coordinates": [ 129.324326, 35.475201, 30.0 ] } },
{ "type": "Feature", "properties": { "value": 0.8742 }, "geometry": { "type": "Point", "coordinates": [ 129.325424, 35.475197, 30.0 ] } },
{ "type": "Feature", "properties": { "value": 0.9491 }, "geometry": { "type": "Point", "coordinates": [ 129.326523, 35.475193, 30.0 ] } },
{ "type": "Feature", "properties": { "value": 0.8793 }, "geometry": { "type": "Point", "coordinates": [ 129.327637, 35.475193, 30.0 ] } },
{ "type": "Feature", "properties": { "value": 0.6892 }, "geometry": { "type": "Point", "coordinates": [ 129.328735, 35.475189, 30.0 ] } },
{ "type": "Feature", "properties": { "value": 0.4658 }, "geometry": { "type": "Point", "coordinates": [ 129.329834, 35.475185, 30.0 ] } },
{ "type": "Feature", "properties": { "value": 0.2641 }, "geometry": { "type": "Point", "coordinates": [ 129.330933, 35.475182, 30.0 ] } },
{ "type": "Feature", "properties": { "value": 0.127 }, "geometry": { "type": "Point", "coordinates": [ 129.332031, 35.475178, 30.0 ] } },
{ "type": "Feature", "properties": { "value": 0.0515 }, "geometry": { "type": "Point", "coordinates": [ 129.333145, 35.475178, 30.0 ] } },
{ "type": "Feature", "properties": { "value": 0.0127 }, "geometry": { "type": "Point", "coordinates": [ 129.334244, 35.475174, 30.0 ] } },
{ "type": "Feature", "properties": { "value": 0.0037 }, "geometry": { "type": "Point", "coordinates": [ 129.318817, 35.476116, 30.0 ] } },
{ "type": "Feature", "properties": { "value": 0.0264 }, "geometry": { "type": "Point", "coordinates": [ 129.319916, 35.476112, 30.0 ] } },
{ "type": "Feature", "properties": { "value": 0.0672 }, "geometry": { "type": "Point", "coordinates": [ 129.32103, 35.476112, 30.0 ] } },
{ "type": "Feature", "properties": { "value": 0.1405 }, "geometry": { "type": "Point", "coordinates": [ 129.322128, 35.476109, 30.0 ] } },
{ "type": "Feature", "properties": { "value": 0.2464 }, "geometry": { "type": "Point", "coordinates": [ 129.323227, 35.476105, 30.0 ] } },
{ "type": "Feature", "properties": { "value": 0.3624 }, "geometry": { "type": "Point", "coordinates": [ 129.324326, 35.476101, 30.0 ] } },
{ "type": "Feature", "properties": { "value": 0.4576 }, "geometry": { "type": "Point", "coordinates": [ 129.325424, 35.476097, 30.0 ] } },
{ "type": "Feature", "properties": { "value": 0.5021 }, "geometry": { "type": "Point", "coordinates": [ 129.326538, 35.476097, 30.0 ] } },
{ "type": "Feature", "properties": { "value": 0.4602 }, "geometry": { "type": "Point", "coordinates": [ 129.327637, 35.476093, 30.0 ] } },
{ "type": "Feature", "properties": { "value": 0.3665 }, "geometry": { "type": "Point", "coordinates": [ 129.328735, 35.476089, 30.0 ] } },
{ "type": "Feature", "properties": { "value": 0.2494 }, "geometry": { "type": "Point", "coordinates": [ 129.329834, 35.476086, 30.0 ] } },
{ "type": "Feature", "properties": { "value": 0.1421 }, "geometry": { "type": "Point", "coordinates": [ 129.330933, 35.476086, 30.0 ] } },
{ "type": "Feature", "properties": { "value": 0.0683 }, "geometry": { "type": "Point", "coordinates": [ 129.332047, 35.476082, 30.0 ] } },
{ "type": "Feature", "properties": { "value": 0.0269 }, "geometry": { "type": "Point", "coordinates": [ 129.333145, 35.476078, 30.0 ] } },
{ "type": "Feature", "properties": { "value": 0.0038 }, "geometry": { "type": "Point", "coordinates": [ 129.334244, 35.476074, 30.0 ] } },
{ "type": "Feature", "properties": { "value": 0.0022 }, "geometry": { "type": "Point", "coordinates": [ 129.318817, 35.477016, 30.0 ] } },
{ "type": "Feature", "properties": { "value": 0.0111 }, "geometry": { "type": "Point", "coordinates": [ 129.319931, 35.477016, 30.0 ] } },
{ "type": "Feature", "properties": { "value": 0.0313 }, "geometry": { "type": "Point", "coordinates": [ 129.32103, 35.477013, 30.0 ] } },
{ "type": "Feature", "properties": { "value": 0.0671 }, "geometry": { "type": "Point", "coordinates": [ 129.322128, 35.477009, 30.0 ] } },
{ "type": "Feature", "properties": { "value": 0.113 }, "geometry": { "type": "Point", "coordinates": [ 129.323227, 35.477005, 30.0 ] } },
{ "type": "Feature", "properties": { "value": 0.1726 }, "geometry": { "type": "Point", "coordinates": [ 129.324326, 35.477005, 30.0 ] } },
{ "type": "Feature", "properties": { "value": 0.2168 }, "geometry": { "type": "Point", "coordinates": [ 129.325439, 35.477001, 30.0 ] } },
{ "type": "Feature", "properties": { "value": 0.2343 }, "geometry": { "type": "Point", "coordinates": [ 129.326538, 35.476997, 30.0 ] } },
{ "type": "Feature", "properties": { "value": 0.2174 }, "geometry": { "type": "Point", "coordinates": [ 129.327637, 35.476994, 30.0 ] } },
{ "type": "Feature", "properties": { "value": 0.1738 }, "geometry": { "type": "Point", "coordinates": [ 129.328735, 35.47699, 30.0 ] } },
{ "type": "Feature", "properties": { "value": 0.114 }, "geometry": { "type": "Point", "coordinates": [ 129.329834, 35.47699, 30.0 ] } },
{ "type": "Feature", "properties": { "value": 0.0678 }, "geometry": { "type": "Point", "coordinates": [ 129.330948, 35.476986, 30.0 ] } },
{ "type": "Feature", "properties": { "value": 0.0317 }, "geometry": { "type": "Point", "coordinates": [ 129.332047, 35.476982, 30.0 ] } },
{ "type": "Feature", "properties": { "value": 0.0114 }, "geometry": { "type": "Point", "coordinates": [ 129.333145, 35.476978, 30.0 ] } },
{ "type": "Feature", "properties": { "value": 0.0023 }, "geometry": { "type": "Point", "coordinates": [ 129.334244, 35.476974, 30.0 ] } },
{ "type": "Feature", "properties": { "value": 0.0028 }, "geometry": { "type": "Point", "coordinates": [ 129.319931, 35.477917, 30.0 ] } },
{ "type": "Feature", "properties": { "value": 0.0118 }, "geometry": { "type": "Point", "coordinates": [ 129.32103, 35.477913, 30.0 ] } },
{ "type": "Feature", "properties": { "value": 0.0278 }, "geometry": { "type": "Point", "coordinates": [ 129.322128, 35.477909, 30.0 ] } },
{ "type": "Feature", "properties": { "value": 0.0463 }, "geometry": { "type": "Point", "coordinates": [ 129.323227, 35.477909, 30.0 ] } },
{ "type": "Feature", "properties": { "value": 0.0729 }, "geometry": { "type": "Point", "coordinates": [ 129.324341, 35.477905, 30.0 ] } },
{ "type": "Feature", "properties": { "value": 0.0911 }, "geometry": { "type": "Point", "coordinates": [ 129.325439, 35.477901, 30.0 ] } },
{ "type": "Feature", "properties": { "value": 0.098 }, "geometry": { "type": "Point", "coordinates": [ 129.326538, 35.477898, 30.0 ] } },
{ "type": "Feature", "properties": { "value": 0.0909 }, "geometry": { "type": "Point", "coordinates": [ 129.327637, 35.477894, 30.0 ] } },
{ "type": "Feature", "properties": { "value": 0.0731 }, "geometry": { "type": "Point", "coordinates": [ 129.328735, 35.477894, 30.0 ] } },
{ "type": "Feature", "properties": { "value": 0.0466 }, "geometry": { "type": "Point", "coordinates": [ 129.329849, 35.47789, 30.0 ] } },
{ "type": "Feature", "properties": { "value": 0.0281 }, "geometry": { "type": "Point", "coordinates": [ 129.330948, 35.477886, 30.0 ] } },
{ "type": "Feature", "properties": { "value": 0.012 }, "geometry": { "type": "Point", "coordinates": [ 129.332047, 35.477882, 30.0 ] } },
{ "type": "Feature", "properties": { "value": 0.0029 }, "geometry": { "type": "Point", "coordinates": [ 129.333145, 35.477879, 30.0 ] } },
{ "type": "Feature", "properties": { "value": 0.0027 }, "geometry": { "type": "Point", "coordinates": [ 129.32103, 35.478813, 30.0 ] } },
{ "type": "Feature", "properties": { "value": 0.0094 }, "geometry": { "type": "Point", "coordinates": [ 129.322128, 35.478813, 30.0 ] } },
{ "type": "Feature", "properties": { "value": 0.0154 }, "geometry": { "type": "Point", "coordinates": [ 129.323242, 35.478809, 30.0 ] } },
{ "type": "Feature", "properties": { "value": 0.0268 }, "geometry": { "type": "Point", "coordinates": [ 129.324341, 35.478806, 30.0 ] } },
{ "type": "Feature", "properties": { "value": 0.0333 }, "geometry": { "type": "Point", "coordinates": [ 129.325439, 35.478802, 30.0 ] } },
{ "type": "Feature", "properties": { "value": 0.0357 }, "geometry": { "type": "Point", "coordinates": [ 129.326538, 35.478798, 30.0 ] } },
{ "type": "Feature", "properties": { "value": 0.0333 }, "geometry": { "type": "Point", "coordinates": [ 129.327637, 35.478798, 30.0 ] } },
{ "type": "Feature", "properties": { "value": 0.0269 }, "geometry": { "type": "Point", "coordinates": [ 129.328751, 35.478794, 30.0 ] } },
{ "type": "Feature", "properties": { "value": 0.0156 }, "geometry": { "type": "Point", "coordinates": [ 129.329849, 35.47879, 30.0 ] } },
{ "type": "Feature", "properties": { "value": 0.0096 }, "geometry": { "type": "Point", "coordinates": [ 129.330948, 35.478786, 30.0 ] } },
{ "type": "Feature", "properties": { "value": 0.0028 }, "geometry": { "type": "Point", "coordinates": [ 129.332047, 35.478786, 30.0 ] } },
{ "type": "Feature", "properties": { "value": 0.002 }, "geometry": { "type": "Point", "coordinates": [ 129.322144, 35.479713, 30.0 ] } },
{ "type": "Feature", "properties": { "value": 0.0032 }, "geometry": { "type": "Point", "coordinates": [ 129.323242, 35.47971, 30.0 ] } },
{ "type": "Feature", "properties": { "value": 0.0045 }, "geometry": { "type": "Point", "coordinates": [ 129.324341, 35.479706, 30.0 ] } },
{ "type": "Feature", "properties": { "value": 0.0101 }, "geometry": { "type": "Point", "coordinates": [ 129.325439, 35.479706, 30.0 ] } },
{ "type": "Feature", "properties": { "value": 0.0108 }, "geometry": { "type": "Point", "coordinates": [ 129.326553, 35.479702, 30.0 ] } },
{ "type": "Feature", "properties": { "value": 0.0101 }, "geometry": { "type": "Point", "coordinates": [ 129.327652, 35.479698, 30.0 ] } },
{ "type": "Feature", "properties": { "value": 0.0046 }, "geometry": { "type": "Point", "coordinates": [ 129.328751, 35.479694, 30.0 ] } },
{ "type": "Feature", "properties": { "value": 0.0033 }, "geometry": { "type": "Point", "coordinates": [ 129.329849, 35.479691, 30.0 ] } },
{ "type": "Feature", "properties": { "value": 0.0021 }, "geometry": { "type": "Point", "coordinates": [ 129.330948, 35.479691, 30.0 ] } },
{ "type": "Feature", "properties": { "value": 0.002 }, "geometry": { "type": "Point", "coordinates": [ 129.325455, 35.480606, 30.0 ] } },
{ "type": "Feature", "properties": { "value": 0.0021 }, "geometry": { "type": "Point", "coordinates": [ 129.326553, 35.480602, 30.0 ] } },
{ "type": "Feature", "properties": { "value": 0.002 }, "geometry": { "type": "Point", "coordinates": [ 129.327652, 35.480598, 30.0 ] } }
]
}
