{
"type": "FeatureCollection",
"features": [
{ "type": "Feature", "properties": { "value": 68.688 }, "geometry": { "type": "Point", "coordinates": [ 129.296646, 35.43832, 10.0 ] } },
{ "type": "Feature", "properties": { "value": 247.5 }, "geometry": { "type": "Point", "coordinates": [ 129.295547, 35.439224, 10.0 ] } },
{ "type": "Feature", "properties": { "value": 341.02 }, "geometry": { "type": "Point", "coordinates": [ 129.296646, 35.43922, 10.0 ] } },
{ "type": "Feature", "properties": { "value": 0.0145 }, "geometry": { "type": "Point", "coordinates": [ 129.29335, 35.440128, 10.0 ] } },
{ "type": "Feature", "properties": { "value": 227.75 }, "geometry": { "type": "Point", "coordinates": [ 129.294449, 35.440128, 10.0 ] } },
{ "type": "Feature", "properties": { "value": 628.17 }, "geometry": { "type": "Point", "coordinates": [ 129.295547, 35.440125, 10.0 ] } },
{ "type": "Feature", "properties": { "value": 27.122 }, "geometry": { "type": "Point", "coordinates": [ 129.296646, 35.440121, 10.0 ] } },
{ "type": "Feature", "properties": { "value": 0.0075 }, "geometry": { "type": "Point", "coordinates": [ 129.292252, 35.441032, 10.0 ] } },
{ "type": "Feature", "properties": { "value": 58.33 }, "geometry": { "type": "Point", "coordinates": [ 129.29335, 35.441029, 10.0 ] } },
{ "type": "Feature", "properties": { "value": 571.5 }, "geometry": { "type": "Point", "coordinates": [ 129.294449, 35.441029, 10.0 ] } },
{ "type": "Feature", "properties": { "value": 85.799 }, "geometry": { "type": "Point", "coordinates": [ 129.295547, 35.441025, 10.0 ] } },
{ "type": "Feature", "properties": { "value": 0.0261 }, "geometry": { "type": "Point", "coordinates": [ 129.292252, 35.441933, 10.0 ] } },
{ "type": "Feature", "properties": { "value": 51.803 }, "geometry": { "type": "Point", "coordinates": [ 129.29335, 35.441933, 10.0 ] } },
{ "type": "Feature", "properties": { "value": 134.93 }, "geometry": { "type": "Point", "coordinates": [ 129.294449, 35.441929, 10.0 ] } },
{ "type": "Feature", "properties": { "value": 0.2825 }, "geometry": { "type": "Point", "coordinates": [ 129.295547, 35.441925, 10.0 ] } },
{ "type": "Feature", "properties": { "value": 0.2046 }, "geometry": { "type": "Point", "coordinates": [ 129.29335, 35.442833, 10.0 ] } },
{ "type": "Feature", "properties": { "value": 0.4557 }, "geometry": { "type": "Point", "coordinates": [ 129.294464, 35.442829, 10.0 ] } },
{ "type": "Feature", "properties": { "value": 14.747 }, "geometry": { "type": "Point", "coordinates": [ 129.32756, 35.458969, 10.0 ] } },
{ "type": "Feature", "properties": { "value": 113.49 }, "geometry": { "type": "Point", "coordinates": [ 129.32756, 35.459869, 10.0 ] } },
{ "type": "Feature", "properties": { "value": 72.76 }, "geometry": { "type": "Point", "coordinates": [ 129.327576, 35.46077, 10.0 ] } },
{ "type": "Feature", "properties": { "value": 63.668 }, "geometry": { "type": "Point", "coordinates": [ 129.327576, 35.461674, 10.0 ] } },
{ "type": "Feature", "properties": { "value": 76.841 }, "geometry": { "type": "Point", "coordinates": [ 129.327576, 35.462574, 10.0 ] } },
{ "type": "Feature", "properties": { "value": 77.823 }, "geometry": { "type": "Point", "coordinates": [ 129.327576, 35.463474, 10.0 ] } },
{ "type": "Feature", "properties": { "value": 1.3275 }, "geometry": { "type": "Point", "coordinates": [ 129.32869, 35.46347, 10.0 ] } },
{ "type": "Feature", "properties": { "value": 69.37 }, "geometry": { "type": "Point", "coordinates": [ 129.327591, 35.464375, 10.0 ] } },
{ "type": "Feature", "properties": { "value": 8.0366 }, "geometry": { "type": "Point", "coordinates": [ 129.32869, 35.464375, 10.0 ] } },
{ "type": "Feature", "properties": { "value": 45.015 }, "geometry": { "type": "Point", "coordinates": [ 129.327591, 35.465279, 10.0 ] } },
{ "type": "Feature", "properties": { "value": 13.337 }, "geometry": { "type": "Point", "coordinates": [ 129.32869, 35.465275, 10.0 ] } },
{ "type": "Feature", "properties": { "value": 28.444 }, "geometry": { "type": "Point", "coordinates": [ 129.327591, 35.466179, 10.0 ] } },
{ "type": "Feature", "properties": { "value": 14.208 }, "geometry": { "type": "Point", "coordinates": [ 129.32869, 35.466175, 10.0 ] } },
{ "type": "Feature", "properties": { "value": 23.062 }, "geometry": { "type": "Point", "coordinates": [ 129.327591, 35.467079, 10.0 ] } },
{ "type": "Feature", "properties": { "value": 17.543 }, "geometry": { "type": "Point", "coordinates": [ 129.328705, 35.467075, 10.0 ] } },
{ "type": "Feature", "properties": { "value": 21.239 }, "geometry": { "type": "Point", "coordinates": [ 129.327606, 35.467983, 10.0 ] } },
{ "type": "Feature", "properties": { "value": 21.602 }, "geometry": { "type": "Point", "coordinates": [ 129.328705, 35.467979, 10.0 ] } },
{ "type": "Feature", "properties": { "value": 23.029 }, "geometry": { "type": "Point", "coordinates": [ 129.327606, 35.468884, 10.0 ] } },
{ "type": "Feature", "properties": { "value": 27.688 }, "geometry": { "type": "Point", "coordinates": [ 129.328705, 35.46888, 10.0 ] } },
{ "type": "Feature", "properties": { "value": 0.0943 }, "geometry": { "type": "Point", "coordinates": [ 129.329803, 35.468876, 10.0 ] } },
{ "type": "Feature", "properties": { "value": 29.515 }, "geometry": { "type": "Point", "coordinates": [ 129.327606, 35.469784, 10.0 ] } },
{ "type": "Feature", "properties": { "value": 38.429 }, "geometry": { "type": "Point", "coordinates": [ 129.328705, 35.46978, 10.0 ] } },
{ "type": "Feature", "properties": { "value": 1.0846 }, "geometry": { "type": "Point", "coordinates": [ 129.329819, 35.469776, 10.0 ] } },
{ "type": "Feature", "properties": { "value": 38.253 }, "geometry": { "type": "Point", "coordinates": [ 129.327606, 35.470684, 10.0 ] } },
{ "type": "Feature", "properties": { "value": 60.661 }, "geometry": { "type": "Point", "coordinates": [ 129.32872, 35.470684, 10.0 ] } },
{ "type": "Feature", "properties": { "value": 3.775 }, "geometry": { "type": "Point", "coordinates": [ 129.329819, 35.47068, 10.0 ] } },
{ "type": "Feature", "properties": { "value": 0.5306 }, "geometry": { "type": "Point", "coordinates": [ 129.326508, 35.471588, 10.0 ] } },
{ "type": "Feature", "properties": { "value": 52.888 }, "geometry": { "type": "Point", "coordinates": [ 129.327621, 35.471588, 10.0 ] } },
{ "type": "Feature", "properties": { "value": 113.6 }, "geometry": { "type": "Point", "coordinates": [ 129.32872, 35.471584, 10.0 ] } },
{ "type": "Feature", "properties": { "value": 10.856 }, "geometry": { "type": "Point", "coordinates": [ 129.329819, 35.471581, 10.0 ] } },
{ "type": "Feature", "properties": { "value": 1.4966 }, "geometry": { "type": "Point", "coordinates": [ 129.326523, 35.472492, 10.0 ] } },
{ "type": "Feature", "properties": { "value": 65.946 }, "geometry": { "type": "Point", "coordinates": [ 129.327621, 35.472488, 10.0 ] } },
{ "type": "Feature", "properties": { "value": 156.59 }, "geometry": { "type": "Point", "coordinates": [ 129.32872, 35.472485, 10.0 ] } },
{ "type": "Feature", "properties": { "value": 17.296 }, "geometry": { "type": "Point", "coordinates": [ 129.329819, 35.472481, 10.0 ] } },
{ "type": "Feature", "properties": { "value": 0.9225 }, "geometry": { "type": "Point", "coordinates": [ 129.326523, 35.473392, 10.0 ] } },
{ "type": "Feature", "properties": { "value": 37.505 }, "geometry": { "type": "Point", "coordinates": [ 129.327621, 35.473389, 10.0 ] } },
{ "type": "Feature", "properties": { "value": 84.128 }, "geometry": { "type": "Point", "coordinates": [ 129.32872, 35.473385, 10.0 ] } },
{ "type": "Feature", "properties": { "value": 10.3 }, "geometry": { "type": "Point", "coordinates": [ 129.329819, 35.473385, 10.0 ] } },
{ "type": "Feature", "properties": { "value": 5.6814 }, "geometry": { "type": "Point", "coordinates": [ 129.327621, 35.474289, 10.0 ] } },
{ "type": "Feature", "properties": { "value": 11.591 }, "geometry": { "type": "Point", "coordinates": [ 129.328735, 35.474289, 10.0 ] } },
{ "type": "Feature", "properties": { "value": 1.2994 }, "geometry": { "type": "Point", "coordinates": [ 129.329834, 35.474285, 10.0 ] } },
{ "type": "Feature", "properties": { "value": 0.1228 }, "geometry": { "type": "Point", "coordinates": [ 129.327637, 35.475193, 10.0 ] } },
{ "type": "Feature", "properties": { "value": 0.2324 }, "geometry": { "type": "Point", "coordinates": [ 129.328735, 35.475189, 10.0 ] } },
{ "type": "Feature", "properties": { "value": 399.48 }, "geometry": { "type": "Point", "coordinates": [ 129.321045, 35.481518, 10.0 ] } },
{ "type": "Feature", "properties": { "value": 1205.8 }, "geometry": { "type": "Point", "coordinates": [ 129.319946, 35.482422, 10.0 ] } },
{ "type": "Feature", "properties": { "value": 1216.2 }, "geometry": { "type": "Point", "coordinates": [ 129.321045, 35.482418, 10.0 ] } },
{ "type": "Feature", "properties": { "value": 1.057 }, "geometry": { "type": "Point", "coordinates": [ 129.318848, 35.483326, 10.0 ] } },
{ "type": "Feature", "properties": { "value": 1082.6 }, "geometry": { "type": "Point", "coordinates": [ 129.319946, 35.483322, 10.0 ] } },
{ "type": "Feature", "properties": { "value": 53.568 }, "geometry": { "type": "Point", "coordinates": [ 129.321045, 35.483322, 10.0 ] } },
{ "type": "Feature", "properties": { "value": 159.81 }, "geometry": { "type": "Point", "coordinates": [ 129.318848, 35.48423, 10.0 ] } },
{ "type": "Feature", "properties": { "value": 733.65 }, "geometry": { "type": "Point", "coordinates": [ 129.319946, 35.484226, 10.0 ] } },
{ "type": "Feature", "properties": { "value": 0.0107 }, "geometry": { "type": "Point", "coordinates": [ 129.32106, 35.484222, 10.0 ] } },
{ "type": "Feature", "properties": { "value": 0.0168 }, "geometry": { "type": "Point", "coordinates": [ 129.317749, 35.485134, 10.0 ] } },
{ "type": "Feature", "properties": { "value": 361.44 }, "geometry": { "type": "Point", "coordinates": [ 129.318848, 35.48513, 10.0 ] } },
{ "type": "Feature", "properties": { "value": 301.02 }, "geometry": { "type": "Point", "coordinates": [ 129.319962, 35.485126, 10.0 ] } },
{ "type": "Feature", "properties": { "value": 0.0058 }, "geometry": { "type": "Point", "coordinates": [ 129.317749, 35.486034, 10.0 ] } },
{ "type": "Feature", "properties": { "value": 51.799 }, "geometry": { "type": "Point", "coordinates": [ 129.318863, 35.486031, 10.0 ] } },
{ "type": "Feature", "properties": { "value": 15.306 }, "geometry": { "type": "Point", "coordinates": [ 129.319962, 35.486027, 10.0 ] } }
]
}
