{
"type": "FeatureCollection",
"features": [
{ "type": "Feature", "properties": { "value": 0.0 }, "geometry": { "type": "Point", "coordinates": [ 129.328705, 35.467979, 225.0 ] } },
{ "type": "Feature", "properties": { "value": 0.0 }, "geometry": { "type": "Point", "coordinates": [ 129.329803, 35.467976, 225.0 ] } },
{ "type": "Feature", "properties": { "value": 0.0 }, "geometry": { "type": "Point", "coordinates": [ 129.327606, 35.468884, 225.0 ] } },
{ "type": "Feature", "properties": { "value": 0.0 }, "geometry": { "type": "Point", "coordinates": [ 129.328705, 35.46888, 225.0 ] } },
{ "type": "Feature", "properties": { "value": 0.0 }, "geometry": { "type": "Point", "coordinates": [ 129.329803, 35.468876, 225.0 ] } },
{ "type": "Feature", "properties": { "value": 0.0 }, "geometry": { "type": "Point", "coordinates": [ 129.328705, 35.46978, 225.0 ] } },
{ "type": "Feature", "properties": { "value": 0.0 }, "geometry": { "type": "Point", "coordinates": [ 129.329819, 35.469776, 225.0 ] } },
{ "type": "Feature", "properties": { "value": 0.0 }, "geometry": { "type": "Point", "coordinates": [ 129.330917, 35.469776, 225.0 ] } },
{ "type": "Feature", "properties": { "value": 0.0 }, "geometry": { "type": "Point", "coordinates": [ 129.32872, 35.470684, 225.0 ] } },
{ "type": "Feature", "properties": { "value": 0.0 }, "geometry": { "type": "Point", "coordinates": [ 129.329819, 35.47068, 225.0 ] } },
{ "type": "Feature", "properties": { "value": 0.0 }, "geometry": { "type": "Point", "coordinates": [ 129.32872, 35.471584, 225.0 ] } },
{ "type": "Feature", "properties": { "value": 0.0 }, "geometry": { "type": "Point", "coordinates": [ 129.329819, 35.471581, 225.0 ] } },
{ "type": "Feature", "properties": { "value": 0.0 }, "geometry": { "type": "Point", "coordinates": [ 129.329819, 35.472481, 225.0 ] } },
{ "type": "Feature", "properties": { "value": 0.0 }, "geometry": { "type": "Point", "coordinates": [ 129.330917, 35.472477, 225.0 ] } },
{ "type": "Feature", "properties": { "value": 0.0 }, "geometry": { "type": "Point", "coordinates": [ 129.332031, 35.472477, 225.0 ] } },
{ "type": "Feature", "properties": { "value": 0.0 }, "geometry": { "type": "Point", "coordinates": [ 129.32872, 35.473385, 225.0 ] } },
{ "type": "Feature", "properties": { "value": 0.0 }, "geometry": { "type": "Point", "coordinates": [ 129.329819, 35.473385, 225.0 ] } },
{ "type": "Feature", "properties": { "value": 0.0 }, "geometry": { "type": "Point", "coordinates": [ 129.330933, 35.473381, 225.0 ] } },
{ "type": "Feature", "properties": { "value": 0.0 }, "geometry": { "type": "Point", "coordinates": [ 129.332031, 35.473377, 225.0 ] } },
{ "type": "Feature", "properties": { "value": 0.0 }, "geometry": { "type": "Point", "coordinates": [ 129.328735, 35.474289, 225.0 ] } },
{ "type": "Feature", "properties": { "value": 0.0 }, "geometry": { "type": "Point", "coordinates": [ 129.329834, 35.474285, 225.0 ] } },
{ "type": "Feature", "properties": { "value": 0.0002 }, "geometry": { "type": "Point", "coordinates": [ 129.330933, 35.474281, 225.0 ] } },
{ "type": "Feature", "properties": { "value": 0.0005 }, "geometry": { "type": "Point", "coordinates": [ 129.332031, 35.474277, 225.0 ] } },
{ "type": "Feature", "properties": { "value": 0.0001 }, "geometry": { "type": "Point", "coordinates": [ 129.33313, 35.474274, 225.0 ] } },
{ "type": "Feature", "properties": { "value": 0.0001 }, "geometry": { "type": "Point", "coordinates": [ 129.329834, 35.475185, 225.0 ] } },
{ "type": "Feature", "properties": { "value": 0.0019 }, "geometry": { "type": "Point", "coordinates": [ 129.330933, 35.475182, 225.0 ] } },
{ "type": "Feature", "properties": { "value": 0.0041 }, "geometry": { "type": "Point", "coordinates": [ 129.332031, 35.475178, 225.0 ] } },
{ "type": "Feature", "properties": { "value": 0.0011 }, "geometry": { "type": "Point", "coordinates": [ 129.333145, 35.475178, 225.0 ] } },
{ "type": "Feature", "properties": { "value": 0.0002 }, "geometry": { "type": "Point", "coordinates": [ 129.329834, 35.476086, 225.0 ] } },
{ "type": "Feature", "properties": { "value": 0.0065 }, "geometry": { "type": "Point", "coordinates": [ 129.330933, 35.476086, 225.0 ] } },
{ "type": "Feature", "properties": { "value": 0.0167 }, "geometry": { "type": "Point", "coordinates": [ 129.332047, 35.476082, 225.0 ] } },
{ "type": "Feature", "properties": { "value": 0.0072 }, "geometry": { "type": "Point", "coordinates": [ 129.333145, 35.476078, 225.0 ] } },
{ "type": "Feature", "properties": { "value": 0.0006 }, "geometry": { "type": "Point", "coordinates": [ 129.334244, 35.476074, 225.0 ] } },
{ "type": "Feature", "properties": { "value": 0.0004 }, "geometry": { "type": "Point", "coordinates": [ 129.329834, 35.47699, 225.0 ] } },
{ "type": "Feature", "properties": { "value": 0.0108 }, "geometry": { "type": "Point", "coordinates": [ 129.330948, 35.476986, 225.0 ] } },
{ "type": "Feature", "properties": { "value": 0.0374 }, "geometry": { "type": "Point", "coordinates": [ 129.332047, 35.476982, 225.0 ] } },
{ "type": "Feature", "properties": { "value": 0.0275 }, "geometry": { "type": "Point", "coordinates": [ 129.333145, 35.476978, 225.0 ] } },
{ "type": "Feature", "properties": { "value": 0.0053 }, "geometry": { "type": "Point", "coordinates": [ 129.334244, 35.476974, 225.0 ] } },
{ "type": "Feature", "properties": { "value": 0.0003 }, "geometry": { "type": "Point", "coordinates": [ 129.329849, 35.47789, 225.0 ] } },
{ "type": "Feature", "properties": { "value": 0.0113 }, "geometry": { "type": "Point", "coordinates": [ 129.330948, 35.477886, 225.0 ] } },
{ "type": "Feature", "properties": { "value": 0.0554 }, "geometry": { "type": "Point", "coordinates": [ 129.332047, 35.477882, 225.0 ] } },
{ "type": "Feature", "properties": { "value": 0.0696 }, "geometry": { "type": "Point", "coordinates": [ 129.333145, 35.477879, 225.0 ] } },
{ "type": "Feature", "properties": { "value": 0.026 }, "geometry": { "type": "Point", "coordinates": [ 129.334259, 35.477879, 225.0 ] } },
{ "type": "Feature", "properties": { "value": 0.0026 }, "geometry": { "type": "Point", "coordinates": [ 129.335358, 35.477875, 225.0 ] } },
{ "type": "Feature", "properties": { "value": 0.0092 }, "geometry": { "type": "Point", "coordinates": [ 129.330948, 35.478786, 225.0 ] } },
{ "type": "Feature", "properties": { "value": 0.0662 }, "geometry": { "type": "Point", "coordinates": [ 129.332047, 35.478786, 225.0 ] } },
{ "type": "Feature", "properties": { "value": 0.1365 }, "geometry": { "type": "Point", "coordinates": [ 129.33316, 35.478783, 225.0 ] } },
{ "type": "Feature", "properties": { "value": 0.0887 }, "geometry": { "type": "Point", "coordinates": [ 129.334259, 35.478779, 225.0 ] } },
{ "type": "Feature", "properties": { "value": 0.0183 }, "geometry": { "type": "Point", "coordinates": [ 129.335358, 35.478775, 225.0 ] } },
{ "type": "Feature", "properties": { "value": 0.0055 }, "geometry": { "type": "Point", "coordinates": [ 129.330948, 35.479691, 225.0 ] } },
{ "type": "Feature", "properties": { "value": 0.0616 }, "geometry": { "type": "Point", "coordinates": [ 129.332062, 35.479687, 225.0 ] } },
{ "type": "Feature", "properties": { "value": 0.2041 }, "geometry": { "type": "Point", "coordinates": [ 129.33316, 35.479683, 225.0 ] } },
{ "type": "Feature", "properties": { "value": 0.2274 }, "geometry": { "type": "Point", "coordinates": [ 129.334259, 35.479679, 225.0 ] } },
{ "type": "Feature", "properties": { "value": 0.0922 }, "geometry": { "type": "Point", "coordinates": [ 129.335358, 35.479675, 225.0 ] } },
{ "type": "Feature", "properties": { "value": 0.0152 }, "geometry": { "type": "Point", "coordinates": [ 129.336456, 35.479675, 225.0 ] } },
{ "type": "Feature", "properties": { "value": 0.0019 }, "geometry": { "type": "Point", "coordinates": [ 129.330963, 35.480591, 225.0 ] } },
{ "type": "Feature", "properties": { "value": 0.047 }, "geometry": { "type": "Point", "coordinates": [ 129.332062, 35.480587, 225.0 ] } },
{ "type": "Feature", "properties": { "value": 0.25 }, "geometry": { "type": "Point", "coordinates": [ 129.33316, 35.480583, 225.0 ] } },
{ "type": "Feature", "properties": { "value": 0.4531 }, "geometry": { "type": "Point", "coordinates": [ 129.334259, 35.480579, 225.0 ] } },
{ "type": "Feature", "properties": { "value": 0.3297 }, "geometry": { "type": "Point", "coordinates": [ 129.335358, 35.480579, 225.0 ] } },
{ "type": "Feature", "properties": { "value": 0.1245 }, "geometry": { "type": "Point", "coordinates": [ 129.336472, 35.480576, 225.0 ] } },
{ "type": "Feature", "properties": { "value": 0.0279 }, "geometry": { "type": "Point", "coordinates": [ 129.33757, 35.480572, 225.0 ] } },
{ "type": "Feature", "properties": { "value": 0.0332 }, "geometry": { "type": "Point", "coordinates": [ 129.332062, 35.481487, 225.0 ] } },
{ "type": "Feature", "properties": { "value": 0.2544 }, "geometry": { "type": "Point", "coordinates": [ 129.33316, 35.481487, 225.0 ] } },
{ "type": "Feature", "properties": { "value": 0.7329 }, "geometry": { "type": "Point", "coordinates": [ 129.334259, 35.481483, 225.0 ] } },
{ "type": "Feature", "properties": { "value": 0.8793 }, "geometry": { "type": "Point", "coordinates": [ 129.335373, 35.48148, 225.0 ] } },
{ "type": "Feature", "properties": { "value": 0.5392 }, "geometry": { "type": "Point", "coordinates": [ 129.336472, 35.481476, 225.0 ] } },
{ "type": "Feature", "properties": { "value": 0.2027 }, "geometry": { "type": "Point", "coordinates": [ 129.33757, 35.481472, 225.0 ] } },
{ "type": "Feature", "properties": { "value": 0.0463 }, "geometry": { "type": "Point", "coordinates": [ 129.338669, 35.481472, 225.0 ] } },
{ "type": "Feature", "properties": { "value": 0.0221 }, "geometry": { "type": "Point", "coordinates": [ 129.332062, 35.482391, 225.0 ] } },
{ "type": "Feature", "properties": { "value": 0.2391 }, "geometry": { "type": "Point", "coordinates": [ 129.333176, 35.482388, 225.0 ] } },
{ "type": "Feature", "properties": { "value": 0.9136 }, "geometry": { "type": "Point", "coordinates": [ 129.334274, 35.482384, 225.0 ] } },
{ "type": "Feature", "properties": { "value": 1.5267 }, "geometry": { "type": "Point", "coordinates": [ 129.335373, 35.48238, 225.0 ] } },
{ "type": "Feature", "properties": { "value": 1.3086 }, "geometry": { "type": "Point", "coordinates": [ 129.336472, 35.482376, 225.0 ] } },
{ "type": "Feature", "properties": { "value": 0.7019 }, "geometry": { "type": "Point", "coordinates": [ 129.33757, 35.482376, 225.0 ] } },
{ "type": "Feature", "properties": { "value": 0.2655 }, "geometry": { "type": "Point", "coordinates": [ 129.338684, 35.482372, 225.0 ] } },
{ "type": "Feature", "properties": { "value": 0.0672 }, "geometry": { "type": "Point", "coordinates": [ 129.339783, 35.482368, 225.0 ] } },
{ "type": "Feature", "properties": { "value": 0.0128 }, "geometry": { "type": "Point", "coordinates": [ 129.332077, 35.483292, 225.0 ] } },
{ "type": "Feature", "properties": { "value": 0.1873 }, "geometry": { "type": "Point", "coordinates": [ 129.333176, 35.483288, 225.0 ] } },
{ "type": "Feature", "properties": { "value": 0.8665 }, "geometry": { "type": "Point", "coordinates": [ 129.334274, 35.483284, 225.0 ] } },
{ "type": "Feature", "properties": { "value": 1.8927 }, "geometry": { "type": "Point", "coordinates": [ 129.335373, 35.48328, 225.0 ] } },
{ "type": "Feature", "properties": { "value": 2.1926 }, "geometry": { "type": "Point", "coordinates": [ 129.336472, 35.48328, 225.0 ] } },
{ "type": "Feature", "properties": { "value": 1.6113 }, "geometry": { "type": "Point", "coordinates": [ 129.337585, 35.483276, 225.0 ] } },
{ "type": "Feature", "properties": { "value": 0.8488 }, "geometry": { "type": "Point", "coordinates": [ 129.338684, 35.483273, 225.0 ] } },
{ "type": "Feature", "properties": { "value": 0.3303 }, "geometry": { "type": "Point", "coordinates": [ 129.339783, 35.483269, 225.0 ] } },
{ "type": "Feature", "properties": { "value": 0.0956 }, "geometry": { "type": "Point", "coordinates": [ 129.340881, 35.483265, 225.0 ] } },
{ "type": "Feature", "properties": { "value": 0.1166 }, "geometry": { "type": "Point", "coordinates": [ 129.333176, 35.484188, 225.0 ] } },
{ "type": "Feature", "properties": { "value": 0.6455 }, "geometry": { "type": "Point", "coordinates": [ 129.334274, 35.484188, 225.0 ] } },
{ "type": "Feature", "properties": { "value": 1.7872 }, "geometry": { "type": "Point", "coordinates": [ 129.335373, 35.484184, 225.0 ] } },
{ "type": "Feature", "properties": { "value": 2.7573 }, "geometry": { "type": "Point", "coordinates": [ 129.336487, 35.48418, 225.0 ] } },
{ "type": "Feature", "properties": { "value": 2.7252 }, "geometry": { "type": "Point", "coordinates": [ 129.337585, 35.484177, 225.0 ] } },
{ "type": "Feature", "properties": { "value": 1.9013 }, "geometry": { "type": "Point", "coordinates": [ 129.338684, 35.484173, 225.0 ] } },
{ "type": "Feature", "properties": { "value": 0.9833 }, "geometry": { "type": "Point", "coordinates": [ 129.339783, 35.484173, 225.0 ] } },
{ "type": "Feature", "properties": { "value": 0.4037 }, "geometry": { "type": "Point", "coordinates": [ 129.340897, 35.484169, 225.0 ] } },
{ "type": "Feature", "properties": { "value": 0.1373 }, "geometry": { "type": "Point", "coordinates": [ 129.341995, 35.484165, 225.0 ] } },
{ "type": "Feature", "properties": { "value": 0.0066 }, "geometry": { "type": "Point", "coordinates": [ 129.343094, 35.484161, 225.0 ] } },
{ "type": "Feature", "properties": { "value": 0.0548 }, "geometry": { "type": "Point", "coordinates": [ 129.333176, 35.485092, 225.0 ] } },
{ "type": "Feature", "properties": { "value": 0.388 }, "geometry": { "type": "Point", "coordinates": [ 129.334274, 35.485088, 225.0 ] } },
{ "type": "Feature", "properties": { "value": 1.3246 }, "geometry": { "type": "Point", "coordinates": [ 129.335388, 35.485085, 225.0 ] } },
{ "type": "Feature", "properties": { "value": 2.6669 }, "geometry": { "type": "Point", "coordinates": [ 129.336487, 35.485081, 225.0 ] } },
{ "type": "Feature", "properties": { "value": 3.4815 }, "geometry": { "type": "Point", "coordinates": [ 129.337585, 35.485077, 225.0 ] } },
{ "type": "Feature", "properties": { "value": 3.1644 }, "geometry": { "type": "Point", "coordinates": [ 129.338684, 35.485077, 225.0 ] } },
{ "type": "Feature", "properties": { "value": 2.1078 }, "geometry": { "type": "Point", "coordinates": [ 129.339798, 35.485073, 225.0 ] } },
{ "type": "Feature", "properties": { "value": 1.1122 }, "geometry": { "type": "Point", "coordinates": [ 129.340897, 35.485069, 225.0 ] } },
{ "type": "Feature", "properties": { "value": 0.5024 }, "geometry": { "type": "Point", "coordinates": [ 129.341995, 35.485065, 225.0 ] } },
{ "type": "Feature", "properties": { "value": 0.1988 }, "geometry": { "type": "Point", "coordinates": [ 129.343094, 35.485062, 225.0 ] } },
{ "type": "Feature", "properties": { "value": 0.0509 }, "geometry": { "type": "Point", "coordinates": [ 129.344193, 35.485062, 225.0 ] } },
{ "type": "Feature", "properties": { "value": 0.008 }, "geometry": { "type": "Point", "coordinates": [ 129.333176, 35.485992, 225.0 ] } },
{ "type": "Feature", "properties": { "value": 0.1992 }, "geometry": { "type": "Point", "coordinates": [ 129.33429, 35.485989, 225.0 ] } },
{ "type": "Feature", "properties": { "value": 0.833 }, "geometry": { "type": "Point", "coordinates": [ 129.335388, 35.485985, 225.0 ] } },
{ "type": "Feature", "properties": { "value": 2.1084 }, "geometry": { "type": "Point", "coordinates": [ 129.336487, 35.485981, 225.0 ] } },
{ "type": "Feature", "properties": { "value": 3.4905 }, "geometry": { "type": "Point", "coordinates": [ 129.337585, 35.485981, 225.0 ] } },
{ "type": "Feature", "properties": { "value": 4.0338 }, "geometry": { "type": "Point", "coordinates": [ 129.338699, 35.485977, 225.0 ] } },
{ "type": "Feature", "properties": { "value": 3.4274 }, "geometry": { "type": "Point", "coordinates": [ 129.339798, 35.485973, 225.0 ] } },
{ "type": "Feature", "properties": { "value": 2.296 }, "geometry": { "type": "Point", "coordinates": [ 129.340897, 35.48597, 225.0 ] } },
{ "type": "Feature", "properties": { "value": 1.2991 }, "geometry": { "type": "Point", "coordinates": [ 129.341995, 35.485966, 225.0 ] } },
{ "type": "Feature", "properties": { "value": 0.6498 }, "geometry": { "type": "Point", "coordinates": [ 129.343094, 35.485966, 225.0 ] } },
{ "type": "Feature", "properties": { "value": 0.2967 }, "geometry": { "type": "Point", "coordinates": [ 129.344208, 35.485962, 225.0 ] } },
{ "type": "Feature", "properties": { "value": 0.1229 }, "geometry": { "type": "Point", "coordinates": [ 129.345306, 35.485958, 225.0 ] } },
{ "type": "Feature", "properties": { "value": 0.0138 }, "geometry": { "type": "Point", "coordinates": [ 129.346405, 35.485954, 225.0 ] } },
{ "type": "Feature", "properties": { "value": 0.0902 }, "geometry": { "type": "Point", "coordinates": [ 129.33429, 35.486889, 225.0 ] } },
{ "type": "Feature", "properties": { "value": 0.4677 }, "geometry": { "type": "Point", "coordinates": [ 129.335388, 35.486889, 225.0 ] } },
{ "type": "Feature", "properties": { "value": 1.4329 }, "geometry": { "type": "Point", "coordinates": [ 129.336487, 35.486885, 225.0 ] } },
{ "type": "Feature", "properties": { "value": 2.8999 }, "geometry": { "type": "Point", "coordinates": [ 129.337601, 35.486881, 225.0 ] } },
{ "type": "Feature", "properties": { "value": 4.1772 }, "geometry": { "type": "Point", "coordinates": [ 129.338699, 35.486877, 225.0 ] } },
{ "type": "Feature", "properties": { "value": 4.4706 }, "geometry": { "type": "Point", "coordinates": [ 129.339798, 35.486874, 225.0 ] } },
{ "type": "Feature", "properties": { "value": 3.727 }, "geometry": { "type": "Point", "coordinates": [ 129.340897, 35.486874, 225.0 ] } },
{ "type": "Feature", "properties": { "value": 2.5714 }, "geometry": { "type": "Point", "coordinates": [ 129.341995, 35.48687, 225.0 ] } },
{ "type": "Feature", "properties": { "value": 1.5528 }, "geometry": { "type": "Point", "coordinates": [ 129.343109, 35.486866, 225.0 ] } },
{ "type": "Feature", "properties": { "value": 0.8683 }, "geometry": { "type": "Point", "coordinates": [ 129.344208, 35.486862, 225.0 ] } },
{ "type": "Feature", "properties": { "value": 0.4561 }, "geometry": { "type": "Point", "coordinates": [ 129.345306, 35.486858, 225.0 ] } },
{ "type": "Feature", "properties": { "value": 0.219 }, "geometry": { "type": "Point", "coordinates": [ 129.346405, 35.486855, 225.0 ] } },
{ "type": "Feature", "properties": { "value": 0.0909 }, "geometry": { "type": "Point", "coordinates": [ 129.347519, 35.486855, 225.0 ] } },
{ "type": "Feature", "properties": { "value": 0.0085 }, "geometry": { "type": "Point", "coordinates": [ 129.379471, 35.486755, 225.0 ] } },
{ "type": "Feature", "properties": { "value": 0.0118 }, "geometry": { "type": "Point", "coordinates": [ 129.380569, 35.486752, 225.0 ] } },
{ "type": "Feature", "properties": { "value": 0.0112 }, "geometry": { "type": "Point", "coordinates": [ 129.381668, 35.486752, 225.0 ] } },
{ "type": "Feature", "properties": { "value": 0.0203 }, "geometry": { "type": "Point", "coordinates": [ 129.33429, 35.487793, 225.0 ] } },
{ "type": "Feature", "properties": { "value": 0.2342 }, "geometry": { "type": "Point", "coordinates": [ 129.335388, 35.487789, 225.0 ] } },
{ "type": "Feature", "properties": { "value": 0.8534 }, "geometry": { "type": "Point", "coordinates": [ 129.336502, 35.487785, 225.0 ] } },
{ "type": "Feature", "properties": { "value": 2.0833 }, "geometry": { "type": "Point", "coordinates": [ 129.337601, 35.487782, 225.0 ] } },
{ "type": "Feature", "properties": { "value": 3.6844 }, "geometry": { "type": "Point", "coordinates": [ 129.338699, 35.487778, 225.0 ] } },
{ "type": "Feature", "properties": { "value": 4.8487 }, "geometry": { "type": "Point", "coordinates": [ 129.339798, 35.487778, 225.0 ] } },
{ "type": "Feature", "properties": { "value": 4.9221 }, "geometry": { "type": "Point", "coordinates": [ 129.340912, 35.487774, 225.0 ] } },
{ "type": "Feature", "properties": { "value": 4.1161 }, "geometry": { "type": "Point", "coordinates": [ 129.34201, 35.48777, 225.0 ] } },
{ "type": "Feature", "properties": { "value": 2.9762 }, "geometry": { "type": "Point", "coordinates": [ 129.343109, 35.487766, 225.0 ] } },
{ "type": "Feature", "properties": { "value": 1.9525 }, "geometry": { "type": "Point", "coordinates": [ 129.344208, 35.487762, 225.0 ] } },
{ "type": "Feature", "properties": { "value": 1.1844 }, "geometry": { "type": "Point", "coordinates": [ 129.345306, 35.487759, 225.0 ] } },
{ "type": "Feature", "properties": { "value": 0.6665 }, "geometry": { "type": "Point", "coordinates": [ 129.34642, 35.487759, 225.0 ] } },
{ "type": "Feature", "properties": { "value": 0.3507 }, "geometry": { "type": "Point", "coordinates": [ 129.347519, 35.487755, 225.0 ] } },
{ "type": "Feature", "properties": { "value": 0.1708 }, "geometry": { "type": "Point", "coordinates": [ 129.348618, 35.487751, 225.0 ] } },
{ "type": "Feature", "properties": { "value": 0.0742 }, "geometry": { "type": "Point", "coordinates": [ 129.349716, 35.487747, 225.0 ] } },
{ "type": "Feature", "properties": { "value": 0.0082 }, "geometry": { "type": "Point", "coordinates": [ 129.376175, 35.487667, 225.0 ] } },
{ "type": "Feature", "properties": { "value": 0.0322 }, "geometry": { "type": "Point", "coordinates": [ 129.377274, 35.487663, 225.0 ] } },
{ "type": "Feature", "properties": { "value": 0.039 }, "geometry": { "type": "Point", "coordinates": [ 129.378372, 35.487663, 225.0 ] } },
{ "type": "Feature", "properties": { "value": 0.0441 }, "geometry": { "type": "Point", "coordinates": [ 129.379471, 35.487659, 225.0 ] } },
{ "type": "Feature", "properties": { "value": 0.0438 }, "geometry": { "type": "Point", "coordinates": [ 129.380569, 35.487656, 225.0 ] } },
{ "type": "Feature", "properties": { "value": 0.0421 }, "geometry": { "type": "Point", "coordinates": [ 129.381683, 35.487652, 225.0 ] } },
{ "type": "Feature", "properties": { "value": 0.0985 }, "geometry": { "type": "Point", "coordinates": [ 129.335403, 35.488689, 225.0 ] } },
{ "type": "Feature", "properties": { "value": 0.449 }, "geometry": { "type": "Point", "coordinates": [ 129.336502, 35.488686, 225.0 ] } },
{ "type": "Feature", "properties": { "value": 1.3032 }, "geometry": { "type": "Point", "coordinates": [ 129.337601, 35.488682, 225.0 ] } },
{ "type": "Feature", "properties": { "value": 2.7542 }, "geometry": { "type": "Point", "coordinates": [ 129.338699, 35.488682, 225.0 ] } },
{ "type": "Feature", "properties": { "value": 4.3617 }, "geometry": { "type": "Point", "coordinates": [ 129.339813, 35.488678, 225.0 ] } },
{ "type": "Feature", "properties": { "value": 5.335 }, "geometry": { "type": "Point", "coordinates": [ 129.340912, 35.488674, 225.0 ] } },
{ "type": "Feature", "properties": { "value": 5.3461 }, "geometry": { "type": "Point", "coordinates": [ 129.34201, 35.48867, 225.0 ] } },
{ "type": "Feature", "properties": { "value": 4.5895 }, "geometry": { "type": "Point", "coordinates": [ 129.343109, 35.488667, 225.0 ] } },
{ "type": "Feature", "properties": { "value": 3.4998 }, "geometry": { "type": "Point", "coordinates": [ 129.344208, 35.488667, 225.0 ] } },
{ "type": "Feature", "properties": { "value": 2.4133 }, "geometry": { "type": "Point", "coordinates": [ 129.345322, 35.488663, 225.0 ] } },
{ "type": "Feature", "properties": { "value": 1.5372 }, "geometry": { "type": "Point", "coordinates": [ 129.34642, 35.488659, 225.0 ] } },
{ "type": "Feature", "properties": { "value": 0.926 }, "geometry": { "type": "Point", "coordinates": [ 129.347519, 35.488655, 225.0 ] } },
{ "type": "Feature", "properties": { "value": 0.5374 }, "geometry": { "type": "Point", "coordinates": [ 129.348618, 35.488651, 225.0 ] } },
{ "type": "Feature", "properties": { "value": 0.3037 }, "geometry": { "type": "Point", "coordinates": [ 129.349731, 35.488647, 225.0 ] } },
{ "type": "Feature", "properties": { "value": 0.166 }, "geometry": { "type": "Point", "coordinates": [ 129.35083, 35.488647, 225.0 ] } },
{ "type": "Feature", "properties": { "value": 0.08 }, "geometry": { "type": "Point", "coordinates": [ 129.351929, 35.488644, 225.0 ] } },
{ "type": "Feature", "properties": { "value": 0.0156 }, "geometry": { "type": "Point", "coordinates": [ 129.353027, 35.48864, 225.0 ] } },
{ "type": "Feature", "properties": { "value": 0.0338 }, "geometry": { "type": "Point", "coordinates": [ 129.373962, 35.488575, 225.0 ] } },
{ "type": "Feature", "properties": { "value": 0.0669 }, "geometry": { "type": "Point", "coordinates": [ 129.375076, 35.488571, 225.0 ] } },
{ "type": "Feature", "properties": { "value": 0.0825 }, "geometry": { "type": "Point", "coordinates": [ 129.376175, 35.488571, 225.0 ] } },
{ "type": "Feature", "properties": { "value": 0.0953 }, "geometry": { "type": "Point", "coordinates": [ 129.377274, 35.488567, 225.0 ] } },
{ "type": "Feature", "properties": { "value": 0.1048 }, "geometry": { "type": "Point", "coordinates": [ 129.378372, 35.488564, 225.0 ] } },
{ "type": "Feature", "properties": { "value": 0.1084 }, "geometry": { "type": "Point", "coordinates": [ 129.379471, 35.48856, 225.0 ] } },
{ "type": "Feature", "properties": { "value": 0.1068 }, "geometry": { "type": "Point", "coordinates": [ 129.380585, 35.488556, 225.0 ] } },
{ "type": "Feature", "properties": { "value": 0.0983 }, "geometry": { "type": "Point", "coordinates": [ 129.381683, 35.488552, 225.0 ] } },
{ "type": "Feature", "properties": { "value": 0.0086 }, "geometry": { "type": "Point", "coordinates": [ 129.335403, 35.48959, 225.0 ] } },
{ "type": "Feature", "properties": { "value": 0.205 }, "geometry": { "type": "Point", "coordinates": [ 129.336502, 35.48959, 225.0 ] } },
{ "type": "Feature", "properties": { "value": 0.705 }, "geometry": { "type": "Point", "coordinates": [ 129.337601, 35.489586, 225.0 ] } },
{ "type": "Feature", "properties": { "value": 1.7459 }, "geometry": { "type": "Point", "coordinates": [ 129.338715, 35.489582, 225.0 ] } },
{ "type": "Feature", "properties": { "value": 3.2666 }, "geometry": { "type": "Point", "coordinates": [ 129.339813, 35.489578, 225.0 ] } },
{ "type": "Feature", "properties": { "value": 4.7384 }, "geometry": { "type": "Point", "coordinates": [ 129.340912, 35.489574, 225.0 ] } },
{ "type": "Feature", "properties": { "value": 5.5857 }, "geometry": { "type": "Point", "coordinates": [ 129.34201, 35.489571, 225.0 ] } },
{ "type": "Feature", "properties": { "value": 5.6236 }, "geometry": { "type": "Point", "coordinates": [ 129.343109, 35.489571, 225.0 ] } },
{ "type": "Feature", "properties": { "value": 4.9652 }, "geometry": { "type": "Point", "coordinates": [ 129.344223, 35.489567, 225.0 ] } },
{ "type": "Feature", "properties": { "value": 3.9035 }, "geometry": { "type": "Point", "coordinates": [ 129.345322, 35.489563, 225.0 ] } },
{ "type": "Feature", "properties": { "value": 2.81 }, "geometry": { "type": "Point", "coordinates": [ 129.34642, 35.489559, 225.0 ] } },
{ "type": "Feature", "properties": { "value": 1.8999 }, "geometry": { "type": "Point", "coordinates": [ 129.347519, 35.489555, 225.0 ] } },
{ "type": "Feature", "properties": { "value": 1.2347 }, "geometry": { "type": "Point", "coordinates": [ 129.348633, 35.489555, 225.0 ] } },
{ "type": "Feature", "properties": { "value": 0.7847 }, "geometry": { "type": "Point", "coordinates": [ 129.349731, 35.489552, 225.0 ] } },
{ "type": "Feature", "properties": { "value": 0.4898 }, "geometry": { "type": "Point", "coordinates": [ 129.35083, 35.489548, 225.0 ] } },
{ "type": "Feature", "properties": { "value": 0.3072 }, "geometry": { "type": "Point", "coordinates": [ 129.351929, 35.489544, 225.0 ] } },
{ "type": "Feature", "properties": { "value": 0.1911 }, "geometry": { "type": "Point", "coordinates": [ 129.353027, 35.48954, 225.0 ] } },
{ "type": "Feature", "properties": { "value": 0.12 }, "geometry": { "type": "Point", "coordinates": [ 129.354141, 35.489536, 225.0 ] } },
{ "type": "Feature", "properties": { "value": 0.0721 }, "geometry": { "type": "Point", "coordinates": [ 129.35524, 35.489532, 225.0 ] } },
{ "type": "Feature", "properties": { "value": 0.0273 }, "geometry": { "type": "Point", "coordinates": [ 129.356339, 35.489532, 225.0 ] } },
{ "type": "Feature", "properties": { "value": 0.0099 }, "geometry": { "type": "Point", "coordinates": [ 129.369568, 35.489491, 225.0 ] } },
{ "type": "Feature", "properties": { "value": 0.0456 }, "geometry": { "type": "Point", "coordinates": [ 129.370667, 35.489487, 225.0 ] } },
{ "type": "Feature", "properties": { "value": 0.0762 }, "geometry": { "type": "Point", "coordinates": [ 129.371765, 35.489483, 225.0 ] } },
{ "type": "Feature", "properties": { "value": 0.1079 }, "geometry": { "type": "Point", "coordinates": [ 129.372864, 35.489483, 225.0 ] } },
{ "type": "Feature", "properties": { "value": 0.1391 }, "geometry": { "type": "Point", "coordinates": [ 129.373978, 35.489479, 225.0 ] } },
{ "type": "Feature", "properties": { "value": 0.1665 }, "geometry": { "type": "Point", "coordinates": [ 129.375076, 35.489475, 225.0 ] } },
{ "type": "Feature", "properties": { "value": 0.1913 }, "geometry": { "type": "Point", "coordinates": [ 129.376175, 35.489471, 225.0 ] } },
{ "type": "Feature", "properties": { "value": 0.2118 }, "geometry": { "type": "Point", "coordinates": [ 129.377274, 35.489468, 225.0 ] } },
{ "type": "Feature", "properties": { "value": 0.2237 }, "geometry": { "type": "Point", "coordinates": [ 129.378387, 35.489464, 225.0 ] } },
{ "type": "Feature", "properties": { "value": 0.2261 }, "geometry": { "type": "Point", "coordinates": [ 129.379486, 35.48946, 225.0 ] } },
{ "type": "Feature", "properties": { "value": 0.2183 }, "geometry": { "type": "Point", "coordinates": [ 129.380585, 35.489456, 225.0 ] } },
{ "type": "Feature", "properties": { "value": 0.1994 }, "geometry": { "type": "Point", "coordinates": [ 129.381683, 35.489452, 225.0 ] } },
{ "type": "Feature", "properties": { "value": 0.0742 }, "geometry": { "type": "Point", "coordinates": [ 129.336502, 35.49049, 225.0 ] } },
{ "type": "Feature", "properties": { "value": 0.3331 }, "geometry": { "type": "Point", "coordinates": [ 129.337616, 35.490486, 225.0 ] } },
{ "type": "Feature", "properties": { "value": 0.9674 }, "geometry": { "type": "Point", "coordinates": [ 129.338715, 35.490482, 225.0 ] } },
{ "type": "Feature", "properties": { "value": 2.1003 }, "geometry": { "type": "Point", "coordinates": [ 129.339813, 35.490479, 225.0 ] } },
{ "type": "Feature", "properties": { "value": 3.5277 }, "geometry": { "type": "Point", "coordinates": [ 129.340912, 35.490479, 225.0 ] } },
{ "type": "Feature", "properties": { "value": 4.837 }, "geometry": { "type": "Point", "coordinates": [ 129.34201, 35.490475, 225.0 ] } },
{ "type": "Feature", "properties": { "value": 5.653 }, "geometry": { "type": "Point", "coordinates": [ 129.343124, 35.490471, 225.0 ] } },
{ "type": "Feature", "properties": { "value": 5.7156 }, "geometry": { "type": "Point", "coordinates": [ 129.344223, 35.490467, 225.0 ] } },
{ "type": "Feature", "properties": { "value": 5.101 }, "geometry": { "type": "Point", "coordinates": [ 129.345322, 35.490463, 225.0 ] } },
{ "type": "Feature", "properties": { "value": 4.1222 }, "geometry": { "type": "Point", "coordinates": [ 129.34642, 35.490459, 225.0 ] } },
{ "type": "Feature", "properties": { "value": 3.1109 }, "geometry": { "type": "Point", "coordinates": [ 129.347534, 35.490459, 225.0 ] } },
{ "type": "Feature", "properties": { "value": 2.2595 }, "geometry": { "type": "Point", "coordinates": [ 129.348633, 35.490456, 225.0 ] } },
{ "type": "Feature", "properties": { "value": 1.6075 }, "geometry": { "type": "Point", "coordinates": [ 129.349731, 35.490452, 225.0 ] } },
{ "type": "Feature", "properties": { "value": 1.1203 }, "geometry": { "type": "Point", "coordinates": [ 129.35083, 35.490448, 225.0 ] } },
{ "type": "Feature", "properties": { "value": 0.7707 }, "geometry": { "type": "Point", "coordinates": [ 129.351929, 35.490444, 225.0 ] } },
{ "type": "Feature", "properties": { "value": 0.5401 }, "geometry": { "type": "Point", "coordinates": [ 129.353043, 35.49044, 225.0 ] } },
{ "type": "Feature", "properties": { "value": 0.3791 }, "geometry": { "type": "Point", "coordinates": [ 129.354141, 35.49044, 225.0 ] } },
{ "type": "Feature", "properties": { "value": 0.2723 }, "geometry": { "type": "Point", "coordinates": [ 129.35524, 35.490437, 225.0 ] } },
{ "type": "Feature", "properties": { "value": 0.1984 }, "geometry": { "type": "Point", "coordinates": [ 129.356339, 35.490433, 225.0 ] } },
{ "type": "Feature", "properties": { "value": 0.1463 }, "geometry": { "type": "Point", "coordinates": [ 129.357452, 35.490429, 225.0 ] } },
{ "type": "Feature", "properties": { "value": 0.1126 }, "geometry": { "type": "Point", "coordinates": [ 129.358551, 35.490425, 225.0 ] } },
{ "type": "Feature", "properties": { "value": 0.0881 }, "geometry": { "type": "Point", "coordinates": [ 129.35965, 35.490421, 225.0 ] } },
{ "type": "Feature", "properties": { "value": 0.0724 }, "geometry": { "type": "Point", "coordinates": [ 129.360748, 35.490417, 225.0 ] } },
{ "type": "Feature", "properties": { "value": 0.0636 }, "geometry": { "type": "Point", "coordinates": [ 129.361847, 35.490417, 225.0 ] } },
{ "type": "Feature", "properties": { "value": 0.059 }, "geometry": { "type": "Point", "coordinates": [ 129.362961, 35.490414, 225.0 ] } },
{ "type": "Feature", "properties": { "value": 0.0611 }, "geometry": { "type": "Point", "coordinates": [ 129.364059, 35.49041, 225.0 ] } },
{ "type": "Feature", "properties": { "value": 0.065 }, "geometry": { "type": "Point", "coordinates": [ 129.365158, 35.490406, 225.0 ] } },
{ "type": "Feature", "properties": { "value": 0.0759 }, "geometry": { "type": "Point", "coordinates": [ 129.366257, 35.490402, 225.0 ] } },
{ "type": "Feature", "properties": { "value": 0.0897 }, "geometry": { "type": "Point", "coordinates": [ 129.367371, 35.490398, 225.0 ] } },
{ "type": "Feature", "properties": { "value": 0.1096 }, "geometry": { "type": "Point", "coordinates": [ 129.368469, 35.490395, 225.0 ] } },
{ "type": "Feature", "properties": { "value": 0.1351 }, "geometry": { "type": "Point", "coordinates": [ 129.369568, 35.490391, 225.0 ] } },
{ "type": "Feature", "properties": { "value": 0.1676 }, "geometry": { "type": "Point", "coordinates": [ 129.370667, 35.490391, 225.0 ] } },
{ "type": "Feature", "properties": { "value": 0.2086 }, "geometry": { "type": "Point", "coordinates": [ 129.371765, 35.490387, 225.0 ] } },
{ "type": "Feature", "properties": { "value": 0.2544 }, "geometry": { "type": "Point", "coordinates": [ 129.372879, 35.490383, 225.0 ] } },
{ "type": "Feature", "properties": { "value": 0.2981 }, "geometry": { "type": "Point", "coordinates": [ 129.373978, 35.490379, 225.0 ] } },
{ "type": "Feature", "properties": { "value": 0.3429 }, "geometry": { "type": "Point", "coordinates": [ 129.375076, 35.490376, 225.0 ] } },
{ "type": "Feature", "properties": { "value": 0.3817 }, "geometry": { "type": "Point", "coordinates": [ 129.376175, 35.490372, 225.0 ] } },
{ "type": "Feature", "properties": { "value": 0.4129 }, "geometry": { "type": "Point", "coordinates": [ 129.377289, 35.490368, 225.0 ] } },
{ "type": "Feature", "properties": { "value": 0.4286 }, "geometry": { "type": "Point", "coordinates": [ 129.378387, 35.490364, 225.0 ] } },
{ "type": "Feature", "properties": { "value": 0.4279 }, "geometry": { "type": "Point", "coordinates": [ 129.379486, 35.49036, 225.0 ] } },
{ "type": "Feature", "properties": { "value": 0.4054 }, "geometry": { "type": "Point", "coordinates": [ 129.380585, 35.490356, 225.0 ] } },
{ "type": "Feature", "properties": { "value": 0.3669 }, "geometry": { "type": "Point", "coordinates": [ 129.381683, 35.490356, 225.0 ] } },
{ "type": "Feature", "properties": { "value": 0.1311 }, "geometry": { "type": "Point", "coordinates": [ 129.337616, 35.491386, 225.0 ] } },
{ "type": "Feature", "properties": { "value": 0.4699 }, "geometry": { "type": "Point", "coordinates": [ 129.338715, 35.491383, 225.0 ] } },
{ "type": "Feature", "properties": { "value": 1.1782 }, "geometry": { "type": "Point", "coordinates": [ 129.339813, 35.491383, 225.0 ] } },
{ "type": "Feature", "properties": { "value": 2.2766 }, "geometry": { "type": "Point", "coordinates": [ 129.340927, 35.491379, 225.0 ] } },
{ "type": "Feature", "properties": { "value": 3.6058 }, "geometry": { "type": "Point", "coordinates": [ 129.342026, 35.491375, 225.0 ] } },
{ "type": "Feature", "properties": { "value": 4.8256 }, "geometry": { "type": "Point", "coordinates": [ 129.343124, 35.491371, 225.0 ] } },
{ "type": "Feature", "properties": { "value": 5.5504 }, "geometry": { "type": "Point", "coordinates": [ 129.344223, 35.491367, 225.0 ] } },
{ "type": "Feature", "properties": { "value": 5.5974 }, "geometry": { "type": "Point", "coordinates": [ 129.345322, 35.491367, 225.0 ] } },
{ "type": "Feature", "properties": { "value": 5.0627 }, "geometry": { "type": "Point", "coordinates": [ 129.346436, 35.491364, 225.0 ] } },
{ "type": "Feature", "properties": { "value": 4.2567 }, "geometry": { "type": "Point", "coordinates": [ 129.347534, 35.49136, 225.0 ] } },
{ "type": "Feature", "properties": { "value": 3.4572 }, "geometry": { "type": "Point", "coordinates": [ 129.348633, 35.491356, 225.0 ] } },
{ "type": "Feature", "properties": { "value": 2.7429 }, "geometry": { "type": "Point", "coordinates": [ 129.349731, 35.491352, 225.0 ] } },
{ "type": "Feature", "properties": { "value": 2.1104 }, "geometry": { "type": "Point", "coordinates": [ 129.350845, 35.491348, 225.0 ] } },
{ "type": "Feature", "properties": { "value": 1.5907 }, "geometry": { "type": "Point", "coordinates": [ 129.351944, 35.491348, 225.0 ] } },
{ "type": "Feature", "properties": { "value": 1.1962 }, "geometry": { "type": "Point", "coordinates": [ 129.353043, 35.491344, 225.0 ] } },
{ "type": "Feature", "properties": { "value": 0.901 }, "geometry": { "type": "Point", "coordinates": [ 129.354141, 35.491341, 225.0 ] } },
{ "type": "Feature", "properties": { "value": 0.6837 }, "geometry": { "type": "Point", "coordinates": [ 129.35524, 35.491337, 225.0 ] } },
{ "type": "Feature", "properties": { "value": 0.5253 }, "geometry": { "type": "Point", "coordinates": [ 129.356354, 35.491333, 225.0 ] } },
{ "type": "Feature", "properties": { "value": 0.4137 }, "geometry": { "type": "Point", "coordinates": [ 129.357452, 35.491329, 225.0 ] } },
{ "type": "Feature", "properties": { "value": 0.3345 }, "geometry": { "type": "Point", "coordinates": [ 129.358551, 35.491325, 225.0 ] } },
{ "type": "Feature", "properties": { "value": 0.2806 }, "geometry": { "type": "Point", "coordinates": [ 129.35965, 35.491325, 225.0 ] } },
{ "type": "Feature", "properties": { "value": 0.2459 }, "geometry": { "type": "Point", "coordinates": [ 129.360764, 35.491322, 225.0 ] } },
{ "type": "Feature", "properties": { "value": 0.2217 }, "geometry": { "type": "Point", "coordinates": [ 129.361862, 35.491318, 225.0 ] } },
{ "type": "Feature", "properties": { "value": 0.2107 }, "geometry": { "type": "Point", "coordinates": [ 129.362961, 35.491314, 225.0 ] } },
{ "type": "Feature", "properties": { "value": 0.2081 }, "geometry": { "type": "Point", "coordinates": [ 129.364059, 35.49131, 225.0 ] } },
{ "type": "Feature", "properties": { "value": 0.2142 }, "geometry": { "type": "Point", "coordinates": [ 129.365158, 35.491306, 225.0 ] } },
{ "type": "Feature", "properties": { "value": 0.2296 }, "geometry": { "type": "Point", "coordinates": [ 129.366272, 35.491302, 225.0 ] } },
{ "type": "Feature", "properties": { "value": 0.2507 }, "geometry": { "type": "Point", "coordinates": [ 129.367371, 35.491299, 225.0 ] } },
{ "type": "Feature", "properties": { "value": 0.2824 }, "geometry": { "type": "Point", "coordinates": [ 129.368469, 35.491299, 225.0 ] } },
{ "type": "Feature", "properties": { "value": 0.3248 }, "geometry": { "type": "Point", "coordinates": [ 129.369568, 35.491295, 225.0 ] } },
{ "type": "Feature", "properties": { "value": 0.3769 }, "geometry": { "type": "Point", "coordinates": [ 129.370682, 35.491291, 225.0 ] } },
{ "type": "Feature", "properties": { "value": 0.4402 }, "geometry": { "type": "Point", "coordinates": [ 129.37178, 35.491287, 225.0 ] } },
{ "type": "Feature", "properties": { "value": 0.5045 }, "geometry": { "type": "Point", "coordinates": [ 129.372879, 35.491283, 225.0 ] } },
{ "type": "Feature", "properties": { "value": 0.5738 }, "geometry": { "type": "Point", "coordinates": [ 129.373978, 35.49128, 225.0 ] } },
{ "type": "Feature", "properties": { "value": 0.6407 }, "geometry": { "type": "Point", "coordinates": [ 129.375076, 35.491276, 225.0 ] } },
{ "type": "Feature", "properties": { "value": 0.6983 }, "geometry": { "type": "Point", "coordinates": [ 129.37619, 35.491272, 225.0 ] } },
{ "type": "Feature", "properties": { "value": 0.7385 }, "geometry": { "type": "Point", "coordinates": [ 129.377289, 35.491268, 225.0 ] } },
{ "type": "Feature", "properties": { "value": 0.755 }, "geometry": { "type": "Point", "coordinates": [ 129.378387, 35.491268, 225.0 ] } },
{ "type": "Feature", "properties": { "value": 0.7406 }, "geometry": { "type": "Point", "coordinates": [ 129.379486, 35.491264, 225.0 ] } },
{ "type": "Feature", "properties": { "value": 0.6952 }, "geometry": { "type": "Point", "coordinates": [ 129.3806, 35.491261, 225.0 ] } },
{ "type": "Feature", "properties": { "value": 0.6213 }, "geometry": { "type": "Point", "coordinates": [ 129.381699, 35.491257, 225.0 ] } },
{ "type": "Feature", "properties": { "value": 0.0137 }, "geometry": { "type": "Point", "coordinates": [ 129.337616, 35.49229, 225.0 ] } },
{ "type": "Feature", "properties": { "value": 0.1919 }, "geometry": { "type": "Point", "coordinates": [ 129.338715, 35.492287, 225.0 ] } },
{ "type": "Feature", "properties": { "value": 0.5712 }, "geometry": { "type": "Point", "coordinates": [ 129.339828, 35.492283, 225.0 ] } },
{ "type": "Feature", "properties": { "value": 1.2828 }, "geometry": { "type": "Point", "coordinates": [ 129.340927, 35.492279, 225.0 ] } },
{ "type": "Feature", "properties": { "value": 2.3265 }, "geometry": { "type": "Point", "coordinates": [ 129.342026, 35.492275, 225.0 ] } },
{ "type": "Feature", "properties": { "value": 3.5464 }, "geometry": { "type": "Point", "coordinates": [ 129.343124, 35.492271, 225.0 ] } },
{ "type": "Feature", "properties": { "value": 4.6406 }, "geometry": { "type": "Point", "coordinates": [ 129.344223, 35.492271, 225.0 ] } },
{ "type": "Feature", "properties": { "value": 5.3 }, "geometry": { "type": "Point", "coordinates": [ 129.345337, 35.492268, 225.0 ] } },
{ "type": "Feature", "properties": { "value": 5.3933 }, "geometry": { "type": "Point", "coordinates": [ 129.346436, 35.492264, 225.0 ] } },
{ "type": "Feature", "properties": { "value": 5.0811 }, "geometry": { "type": "Point", "coordinates": [ 129.347534, 35.49226, 225.0 ] } },
{ "type": "Feature", "properties": { "value": 4.5872 }, "geometry": { "type": "Point", "coordinates": [ 129.348633, 35.492256, 225.0 ] } },
{ "type": "Feature", "properties": { "value": 3.995 }, "geometry": { "type": "Point", "coordinates": [ 129.349747, 35.492252, 225.0 ] } },
{ "type": "Feature", "properties": { "value": 3.361 }, "geometry": { "type": "Point", "coordinates": [ 129.350845, 35.492252, 225.0 ] } },
{ "type": "Feature", "properties": { "value": 2.7568 }, "geometry": { "type": "Point", "coordinates": [ 129.351944, 35.492249, 225.0 ] } },
{ "type": "Feature", "properties": { "value": 2.221 }, "geometry": { "type": "Point", "coordinates": [ 129.353043, 35.492245, 225.0 ] } },
{ "type": "Feature", "properties": { "value": 1.769 }, "geometry": { "type": "Point", "coordinates": [ 129.354141, 35.492241, 225.0 ] } },
{ "type": "Feature", "properties": { "value": 1.4104 }, "geometry": { "type": "Point", "coordinates": [ 129.355255, 35.492237, 225.0 ] } },
{ "type": "Feature", "properties": { "value": 1.1316 }, "geometry": { "type": "Point", "coordinates": [ 129.356354, 35.492233, 225.0 ] } },
{ "type": "Feature", "properties": { "value": 0.9253 }, "geometry": { "type": "Point", "coordinates": [ 129.357452, 35.492233, 225.0 ] } },
{ "type": "Feature", "properties": { "value": 0.7728 }, "geometry": { "type": "Point", "coordinates": [ 129.358551, 35.492229, 225.0 ] } },
{ "type": "Feature", "properties": { "value": 0.6613 }, "geometry": { "type": "Point", "coordinates": [ 129.359665, 35.492226, 225.0 ] } },
{ "type": "Feature", "properties": { "value": 0.5806 }, "geometry": { "type": "Point", "coordinates": [ 129.360764, 35.492222, 225.0 ] } },
{ "type": "Feature", "properties": { "value": 0.5289 }, "geometry": { "type": "Point", "coordinates": [ 129.361862, 35.492218, 225.0 ] } },
{ "type": "Feature", "properties": { "value": 0.4995 }, "geometry": { "type": "Point", "coordinates": [ 129.362961, 35.492214, 225.0 ] } },
{ "type": "Feature", "properties": { "value": 0.4888 }, "geometry": { "type": "Point", "coordinates": [ 129.364059, 35.49221, 225.0 ] } },
{ "type": "Feature", "properties": { "value": 0.4928 }, "geometry": { "type": "Point", "coordinates": [ 129.365173, 35.49221, 225.0 ] } },
{ "type": "Feature", "properties": { "value": 0.5114 }, "geometry": { "type": "Point", "coordinates": [ 129.366272, 35.492207, 225.0 ] } },
{ "type": "Feature", "properties": { "value": 0.5433 }, "geometry": { "type": "Point", "coordinates": [ 129.367371, 35.492203, 225.0 ] } },
{ "type": "Feature", "properties": { "value": 0.5913 }, "geometry": { "type": "Point", "coordinates": [ 129.368469, 35.492199, 225.0 ] } },
{ "type": "Feature", "properties": { "value": 0.6543 }, "geometry": { "type": "Point", "coordinates": [ 129.369583, 35.492195, 225.0 ] } },
{ "type": "Feature", "properties": { "value": 0.7337 }, "geometry": { "type": "Point", "coordinates": [ 129.370682, 35.492191, 225.0 ] } },
{ "type": "Feature", "properties": { "value": 0.8214 }, "geometry": { "type": "Point", "coordinates": [ 129.37178, 35.492188, 225.0 ] } },
{ "type": "Feature", "properties": { "value": 0.9157 }, "geometry": { "type": "Point", "coordinates": [ 129.372879, 35.492184, 225.0 ] } },
{ "type": "Feature", "properties": { "value": 1.0126 }, "geometry": { "type": "Point", "coordinates": [ 129.373978, 35.49218, 225.0 ] } },
{ "type": "Feature", "properties": { "value": 1.1042 }, "geometry": { "type": "Point", "coordinates": [ 129.375092, 35.49218, 225.0 ] } },
{ "type": "Feature", "properties": { "value": 1.1782 }, "geometry": { "type": "Point", "coordinates": [ 129.37619, 35.492176, 225.0 ] } },
{ "type": "Feature", "properties": { "value": 1.2233 }, "geometry": { "type": "Point", "coordinates": [ 129.377289, 35.492172, 225.0 ] } },
{ "type": "Feature", "properties": { "value": 1.2276 }, "geometry": { "type": "Point", "coordinates": [ 129.378387, 35.492168, 225.0 ] } },
{ "type": "Feature", "properties": { "value": 1.1883 }, "geometry": { "type": "Point", "coordinates": [ 129.379501, 35.492165, 225.0 ] } },
{ "type": "Feature", "properties": { "value": 1.1014 }, "geometry": { "type": "Point", "coordinates": [ 129.3806, 35.492161, 225.0 ] } },
{ "type": "Feature", "properties": { "value": 0.9747 }, "geometry": { "type": "Point", "coordinates": [ 129.381699, 35.492157, 225.0 ] } },
{ "type": "Feature", "properties": { "value": 0.0542 }, "geometry": { "type": "Point", "coordinates": [ 129.33873, 35.493187, 225.0 ] } },
{ "type": "Feature", "properties": { "value": 0.236 }, "geometry": { "type": "Point", "coordinates": [ 129.339828, 35.493183, 225.0 ] } },
{ "type": "Feature", "properties": { "value": 0.6244 }, "geometry": { "type": "Point", "coordinates": [ 129.340927, 35.493179, 225.0 ] } },
{ "type": "Feature", "properties": { "value": 1.3003 }, "geometry": { "type": "Point", "coordinates": [ 129.342026, 35.493179, 225.0 ] } },
{ "type": "Feature", "properties": { "value": 2.2526 }, "geometry": { "type": "Point", "coordinates": [ 129.343124, 35.493176, 225.0 ] } },
{ "type": "Feature", "properties": { "value": 3.3336 }, "geometry": { "type": "Point", "coordinates": [ 129.344238, 35.493172, 225.0 ] } },
{ "type": "Feature", "properties": { "value": 4.3083 }, "geometry": { "type": "Point", "coordinates": [ 129.345337, 35.493168, 225.0 ] } },
{ "type": "Feature", "properties": { "value": 4.9637 }, "geometry": { "type": "Point", "coordinates": [ 129.346436, 35.493164, 225.0 ] } },
{ "type": "Feature", "properties": { "value": 5.2443 }, "geometry": { "type": "Point", "coordinates": [ 129.347534, 35.49316, 225.0 ] } },
{ "type": "Feature", "properties": { "value": 5.2258 }, "geometry": { "type": "Point", "coordinates": [ 129.348648, 35.49316, 225.0 ] } },
{ "type": "Feature", "properties": { "value": 4.976 }, "geometry": { "type": "Point", "coordinates": [ 129.349747, 35.493156, 225.0 ] } },
{ "type": "Feature", "properties": { "value": 4.5499 }, "geometry": { "type": "Point", "coordinates": [ 129.350845, 35.493153, 225.0 ] } },
{ "type": "Feature", "properties": { "value": 4.0324 }, "geometry": { "type": "Point", "coordinates": [ 129.351944, 35.493149, 225.0 ] } },
{ "type": "Feature", "properties": { "value": 3.4762 }, "geometry": { "type": "Point", "coordinates": [ 129.353043, 35.493145, 225.0 ] } },
{ "type": "Feature", "properties": { "value": 2.9359 }, "geometry": { "type": "Point", "coordinates": [ 129.354156, 35.493141, 225.0 ] } },
{ "type": "Feature", "properties": { "value": 2.4609 }, "geometry": { "type": "Point", "coordinates": [ 129.355255, 35.493141, 225.0 ] } },
{ "type": "Feature", "properties": { "value": 2.067 }, "geometry": { "type": "Point", "coordinates": [ 129.356354, 35.493137, 225.0 ] } },
{ "type": "Feature", "properties": { "value": 1.7498 }, "geometry": { "type": "Point", "coordinates": [ 129.357452, 35.493134, 225.0 ] } },
{ "type": "Feature", "properties": { "value": 1.4992 }, "geometry": { "type": "Point", "coordinates": [ 129.358566, 35.49313, 225.0 ] } },
{ "type": "Feature", "properties": { "value": 1.306 }, "geometry": { "type": "Point", "coordinates": [ 129.359665, 35.493126, 225.0 ] } },
{ "type": "Feature", "properties": { "value": 1.1645 }, "geometry": { "type": "Point", "coordinates": [ 129.360764, 35.493122, 225.0 ] } },
{ "type": "Feature", "properties": { "value": 1.067 }, "geometry": { "type": "Point", "coordinates": [ 129.361862, 35.493118, 225.0 ] } },
{ "type": "Feature", "properties": { "value": 1.0073 }, "geometry": { "type": "Point", "coordinates": [ 129.362961, 35.493118, 225.0 ] } },
{ "type": "Feature", "properties": { "value": 0.9768 }, "geometry": { "type": "Point", "coordinates": [ 129.364075, 35.493114, 225.0 ] } },
{ "type": "Feature", "properties": { "value": 0.9747 }, "geometry": { "type": "Point", "coordinates": [ 129.365173, 35.493111, 225.0 ] } },
{ "type": "Feature", "properties": { "value": 0.994 }, "geometry": { "type": "Point", "coordinates": [ 129.366272, 35.493107, 225.0 ] } },
{ "type": "Feature", "properties": { "value": 1.0345 }, "geometry": { "type": "Point", "coordinates": [ 129.367371, 35.493103, 225.0 ] } },
{ "type": "Feature", "properties": { "value": 1.096 }, "geometry": { "type": "Point", "coordinates": [ 129.368484, 35.493099, 225.0 ] } },
{ "type": "Feature", "properties": { "value": 1.18 }, "geometry": { "type": "Point", "coordinates": [ 129.369583, 35.493095, 225.0 ] } },
{ "type": "Feature", "properties": { "value": 1.2839 }, "geometry": { "type": "Point", "coordinates": [ 129.370682, 35.493092, 225.0 ] } },
{ "type": "Feature", "properties": { "value": 1.4007 }, "geometry": { "type": "Point", "coordinates": [ 129.37178, 35.493088, 225.0 ] } },
{ "type": "Feature", "properties": { "value": 1.5245 }, "geometry": { "type": "Point", "coordinates": [ 129.372894, 35.493088, 225.0 ] } },
{ "type": "Feature", "properties": { "value": 1.6486 }, "geometry": { "type": "Point", "coordinates": [ 129.373993, 35.493084, 225.0 ] } },
{ "type": "Feature", "properties": { "value": 1.7577 }, "geometry": { "type": "Point", "coordinates": [ 129.375092, 35.49308, 225.0 ] } },
{ "type": "Feature", "properties": { "value": 1.8379 }, "geometry": { "type": "Point", "coordinates": [ 129.37619, 35.493076, 225.0 ] } },
{ "type": "Feature", "properties": { "value": 1.8748 }, "geometry": { "type": "Point", "coordinates": [ 129.377289, 35.493073, 225.0 ] } },
{ "type": "Feature", "properties": { "value": 1.8544 }, "geometry": { "type": "Point", "coordinates": [ 129.378403, 35.493069, 225.0 ] } },
{ "type": "Feature", "properties": { "value": 1.7691 }, "geometry": { "type": "Point", "coordinates": [ 129.379501, 35.493065, 225.0 ] } },
{ "type": "Feature", "properties": { "value": 1.6202 }, "geometry": { "type": "Point", "coordinates": [ 129.3806, 35.493061, 225.0 ] } },
{ "type": "Feature", "properties": { "value": 1.4191 }, "geometry": { "type": "Point", "coordinates": [ 129.381699, 35.493057, 225.0 ] } },
{ "type": "Feature", "properties": { "value": 0.075 }, "geometry": { "type": "Point", "coordinates": [ 129.339828, 35.494083, 225.0 ] } },
{ "type": "Feature", "properties": { "value": 0.2595 }, "geometry": { "type": "Point", "coordinates": [ 129.340927, 35.494083, 225.0 ] } },
{ "type": "Feature", "properties": { "value": 0.6308 }, "geometry": { "type": "Point", "coordinates": [ 129.342026, 35.49408, 225.0 ] } },
{ "type": "Feature", "properties": { "value": 1.2384 }, "geometry": { "type": "Point", "coordinates": [ 129.34314, 35.494076, 225.0 ] } },
{ "type": "Feature", "properties": { "value": 2.0701 }, "geometry": { "type": "Point", "coordinates": [ 129.344238, 35.494072, 225.0 ] } },
{ "type": "Feature", "properties": { "value": 3.0067 }, "geometry": { "type": "Point", "coordinates": [ 129.345337, 35.494068, 225.0 ] } },
{ "type": "Feature", "properties": { "value": 3.897 }, "geometry": { "type": "Point", "coordinates": [ 129.346436, 35.494068, 225.0 ] } },
{ "type": "Feature", "properties": { "value": 4.5984 }, "geometry": { "type": "Point", "coordinates": [ 129.347549, 35.494064, 225.0 ] } },
{ "type": "Feature", "properties": { "value": 5.0552 }, "geometry": { "type": "Point", "coordinates": [ 129.348648, 35.494061, 225.0 ] } },
{ "type": "Feature", "properties": { "value": 5.2804 }, "geometry": { "type": "Point", "coordinates": [ 129.349747, 35.494057, 225.0 ] } },
{ "type": "Feature", "properties": { "value": 5.248 }, "geometry": { "type": "Point", "coordinates": [ 129.350845, 35.494053, 225.0 ] } },
{ "type": "Feature", "properties": { "value": 5.0084 }, "geometry": { "type": "Point", "coordinates": [ 129.351959, 35.494049, 225.0 ] } },
{ "type": "Feature", "properties": { "value": 4.6219 }, "geometry": { "type": "Point", "coordinates": [ 129.353058, 35.494049, 225.0 ] } },
{ "type": "Feature", "properties": { "value": 4.153 }, "geometry": { "type": "Point", "coordinates": [ 129.354156, 35.494045, 225.0 ] } },
{ "type": "Feature", "properties": { "value": 3.6755 }, "geometry": { "type": "Point", "coordinates": [ 129.355255, 35.494041, 225.0 ] } },
{ "type": "Feature", "properties": { "value": 3.2286 }, "geometry": { "type": "Point", "coordinates": [ 129.356354, 35.494038, 225.0 ] } },
{ "type": "Feature", "properties": { "value": 2.8357 }, "geometry": { "type": "Point", "coordinates": [ 129.357468, 35.494034, 225.0 ] } },
{ "type": "Feature", "properties": { "value": 2.5022 }, "geometry": { "type": "Point", "coordinates": [ 129.358566, 35.49403, 225.0 ] } },
{ "type": "Feature", "properties": { "value": 2.2286 }, "geometry": { "type": "Point", "coordinates": [ 129.359665, 35.494026, 225.0 ] } },
{ "type": "Feature", "properties": { "value": 2.0176 }, "geometry": { "type": "Point", "coordinates": [ 129.360764, 35.494026, 225.0 ] } },
{ "type": "Feature", "properties": { "value": 1.8678 }, "geometry": { "type": "Point", "coordinates": [ 129.361877, 35.494022, 225.0 ] } },
{ "type": "Feature", "properties": { "value": 1.7702 }, "geometry": { "type": "Point", "coordinates": [ 129.362976, 35.494019, 225.0 ] } },
{ "type": "Feature", "properties": { "value": 1.7148 }, "geometry": { "type": "Point", "coordinates": [ 129.364075, 35.494015, 225.0 ] } },
{ "type": "Feature", "properties": { "value": 1.6986 }, "geometry": { "type": "Point", "coordinates": [ 129.365173, 35.494011, 225.0 ] } },
{ "type": "Feature", "properties": { "value": 1.7124 }, "geometry": { "type": "Point", "coordinates": [ 129.366272, 35.494007, 225.0 ] } },
{ "type": "Feature", "properties": { "value": 1.7558 }, "geometry": { "type": "Point", "coordinates": [ 129.367386, 35.494003, 225.0 ] } },
{ "type": "Feature", "properties": { "value": 1.8267 }, "geometry": { "type": "Point", "coordinates": [ 129.368484, 35.493999, 225.0 ] } },
{ "type": "Feature", "properties": { "value": 1.9267 }, "geometry": { "type": "Point", "coordinates": [ 129.369583, 35.493999, 225.0 ] } },
{ "type": "Feature", "properties": { "value": 2.052 }, "geometry": { "type": "Point", "coordinates": [ 129.370682, 35.493996, 225.0 ] } },
{ "type": "Feature", "properties": { "value": 2.1883 }, "geometry": { "type": "Point", "coordinates": [ 129.371796, 35.493992, 225.0 ] } },
{ "type": "Feature", "properties": { "value": 2.3326 }, "geometry": { "type": "Point", "coordinates": [ 129.372894, 35.493988, 225.0 ] } },
{ "type": "Feature", "properties": { "value": 2.4709 }, "geometry": { "type": "Point", "coordinates": [ 129.373993, 35.493984, 225.0 ] } },
{ "type": "Feature", "properties": { "value": 2.5841 }, "geometry": { "type": "Point", "coordinates": [ 129.375092, 35.49398, 225.0 ] } },
{ "type": "Feature", "properties": { "value": 2.6552 }, "geometry": { "type": "Point", "coordinates": [ 129.37619, 35.493977, 225.0 ] } },
{ "type": "Feature", "properties": { "value": 2.6635 }, "geometry": { "type": "Point", "coordinates": [ 129.377304, 35.493973, 225.0 ] } },
{ "type": "Feature", "properties": { "value": 2.5961 }, "geometry": { "type": "Point", "coordinates": [ 129.378403, 35.493969, 225.0 ] } },
{ "type": "Feature", "properties": { "value": 2.4443 }, "geometry": { "type": "Point", "coordinates": [ 129.379501, 35.493965, 225.0 ] } },
{ "type": "Feature", "properties": { "value": 2.2133 }, "geometry": { "type": "Point", "coordinates": [ 129.3806, 35.493965, 225.0 ] } },
{ "type": "Feature", "properties": { "value": 1.9189 }, "geometry": { "type": "Point", "coordinates": [ 129.381714, 35.493961, 225.0 ] } },
{ "type": "Feature", "properties": { "value": 0.0866 }, "geometry": { "type": "Point", "coordinates": [ 129.340942, 35.494984, 225.0 ] } },
{ "type": "Feature", "properties": { "value": 0.2635 }, "geometry": { "type": "Point", "coordinates": [ 129.342041, 35.49498, 225.0 ] } },
{ "type": "Feature", "properties": { "value": 0.598 }, "geometry": { "type": "Point", "coordinates": [ 129.34314, 35.494976, 225.0 ] } },
{ "type": "Feature", "properties": { "value": 1.1267 }, "geometry": { "type": "Point", "coordinates": [ 129.344238, 35.494972, 225.0 ] } },
{ "type": "Feature", "properties": { "value": 1.8275 }, "geometry": { "type": "Point", "coordinates": [ 129.345337, 35.494972, 225.0 ] } },
{ "type": "Feature", "properties": { "value": 2.6494 }, "geometry": { "type": "Point", "coordinates": [ 129.346451, 35.494968, 225.0 ] } },
{ "type": "Feature", "properties": { "value": 3.473 }, "geometry": { "type": "Point", "coordinates": [ 129.347549, 35.494965, 225.0 ] } },
{ "type": "Feature", "properties": { "value": 4.204 }, "geometry": { "type": "Point", "coordinates": [ 129.348648, 35.494961, 225.0 ] } },
{ "type": "Feature", "properties": { "value": 4.7977 }, "geometry": { "type": "Point", "coordinates": [ 129.349747, 35.494957, 225.0 ] } },
{ "type": "Feature", "properties": { "value": 5.1944 }, "geometry": { "type": "Point", "coordinates": [ 129.350861, 35.494953, 225.0 ] } },
{ "type": "Feature", "properties": { "value": 5.3418 }, "geometry": { "type": "Point", "coordinates": [ 129.351959, 35.494953, 225.0 ] } },
{ "type": "Feature", "properties": { "value": 5.2811 }, "geometry": { "type": "Point", "coordinates": [ 129.353058, 35.494949, 225.0 ] } },
{ "type": "Feature", "properties": { "value": 5.0579 }, "geometry": { "type": "Point", "coordinates": [ 129.354156, 35.494946, 225.0 ] } },
{ "type": "Feature", "properties": { "value": 4.7215 }, "geometry": { "type": "Point", "coordinates": [ 129.355255, 35.494942, 225.0 ] } },
{ "type": "Feature", "properties": { "value": 4.3479 }, "geometry": { "type": "Point", "coordinates": [ 129.356369, 35.494938, 225.0 ] } },
{ "type": "Feature", "properties": { "value": 3.9741 }, "geometry": { "type": "Point", "coordinates": [ 129.357468, 35.494934, 225.0 ] } },
{ "type": "Feature", "properties": { "value": 3.624 }, "geometry": { "type": "Point", "coordinates": [ 129.358566, 35.494934, 225.0 ] } },
{ "type": "Feature", "properties": { "value": 3.3156 }, "geometry": { "type": "Point", "coordinates": [ 129.359665, 35.49493, 225.0 ] } },
{ "type": "Feature", "properties": { "value": 3.0654 }, "geometry": { "type": "Point", "coordinates": [ 129.360779, 35.494926, 225.0 ] } },
{ "type": "Feature", "properties": { "value": 2.879 }, "geometry": { "type": "Point", "coordinates": [ 129.361877, 35.494923, 225.0 ] } },
{ "type": "Feature", "properties": { "value": 2.7482 }, "geometry": { "type": "Point", "coordinates": [ 129.362976, 35.494919, 225.0 ] } },
{ "type": "Feature", "properties": { "value": 2.6678 }, "geometry": { "type": "Point", "coordinates": [ 129.364075, 35.494915, 225.0 ] } },
{ "type": "Feature", "properties": { "value": 2.6311 }, "geometry": { "type": "Point", "coordinates": [ 129.365173, 35.494911, 225.0 ] } },
{ "type": "Feature", "properties": { "value": 2.6349 }, "geometry": { "type": "Point", "coordinates": [ 129.366287, 35.494907, 225.0 ] } },
{ "type": "Feature", "properties": { "value": 2.6763 }, "geometry": { "type": "Point", "coordinates": [ 129.367386, 35.494907, 225.0 ] } },
{ "type": "Feature", "properties": { "value": 2.7506 }, "geometry": { "type": "Point", "coordinates": [ 129.368484, 35.494904, 225.0 ] } },
{ "type": "Feature", "properties": { "value": 2.8567 }, "geometry": { "type": "Point", "coordinates": [ 129.369583, 35.4949, 225.0 ] } },
{ "type": "Feature", "properties": { "value": 2.9858 }, "geometry": { "type": "Point", "coordinates": [ 129.370697, 35.494896, 225.0 ] } },
{ "type": "Feature", "properties": { "value": 3.1306 }, "geometry": { "type": "Point", "coordinates": [ 129.371796, 35.494892, 225.0 ] } },
{ "type": "Feature", "properties": { "value": 3.2776 }, "geometry": { "type": "Point", "coordinates": [ 129.372894, 35.494888, 225.0 ] } },
{ "type": "Feature", "properties": { "value": 3.4105 }, "geometry": { "type": "Point", "coordinates": [ 129.373993, 35.494884, 225.0 ] } },
{ "type": "Feature", "properties": { "value": 3.5049 }, "geometry": { "type": "Point", "coordinates": [ 129.375107, 35.494881, 225.0 ] } },
{ "type": "Feature", "properties": { "value": 3.5423 }, "geometry": { "type": "Point", "coordinates": [ 129.376205, 35.494877, 225.0 ] } },
{ "type": "Feature", "properties": { "value": 3.5022 }, "geometry": { "type": "Point", "coordinates": [ 129.377304, 35.494877, 225.0 ] } },
{ "type": "Feature", "properties": { "value": 3.3676 }, "geometry": { "type": "Point", "coordinates": [ 129.378403, 35.494873, 225.0 ] } },
{ "type": "Feature", "properties": { "value": 3.1342 }, "geometry": { "type": "Point", "coordinates": [ 129.379501, 35.494869, 225.0 ] } },
{ "type": "Feature", "properties": { "value": 2.8074 }, "geometry": { "type": "Point", "coordinates": [ 129.380615, 35.494865, 225.0 ] } },
{ "type": "Feature", "properties": { "value": 2.4109 }, "geometry": { "type": "Point", "coordinates": [ 129.381714, 35.494862, 225.0 ] } },
{ "type": "Feature", "properties": { "value": 0.0839 }, "geometry": { "type": "Point", "coordinates": [ 129.342041, 35.49588, 225.0 ] } },
{ "type": "Feature", "properties": { "value": 0.2498 }, "geometry": { "type": "Point", "coordinates": [ 129.34314, 35.49588, 225.0 ] } },
{ "type": "Feature", "properties": { "value": 0.54 }, "geometry": { "type": "Point", "coordinates": [ 129.344238, 35.495876, 225.0 ] } },
{ "type": "Feature", "properties": { "value": 0.9774 }, "geometry": { "type": "Point", "coordinates": [ 129.345352, 35.495872, 225.0 ] } },
{ "type": "Feature", "properties": { "value": 1.5749 }, "geometry": { "type": "Point", "coordinates": [ 129.346451, 35.495869, 225.0 ] } },
{ "type": "Feature", "properties": { "value": 2.2864 }, "geometry": { "type": "Point", "coordinates": [ 129.347549, 35.495865, 225.0 ] } },
{ "type": "Feature", "properties": { "value": 3.0348 }, "geometry": { "type": "Point", "coordinates": [ 129.348648, 35.495861, 225.0 ] } },
{ "type": "Feature", "properties": { "value": 3.7618 }, "geometry": { "type": "Point", "coordinates": [ 129.349762, 35.495861, 225.0 ] } },
{ "type": "Feature", "properties": { "value": 4.424 }, "geometry": { "type": "Point", "coordinates": [ 129.350861, 35.495857, 225.0 ] } },
{ "type": "Feature", "properties": { "value": 4.9285 }, "geometry": { "type": "Point", "coordinates": [ 129.351959, 35.495853, 225.0 ] } },
{ "type": "Feature", "properties": { "value": 5.2253 }, "geometry": { "type": "Point", "coordinates": [ 129.353058, 35.49585, 225.0 ] } },
{ "type": "Feature", "properties": { "value": 5.3188 }, "geometry": { "type": "Point", "coordinates": [ 129.354156, 35.495846, 225.0 ] } },
{ "type": "Feature", "properties": { "value": 5.251 }, "geometry": { "type": "Point", "coordinates": [ 129.35527, 35.495842, 225.0 ] } },
{ "type": "Feature", "properties": { "value": 5.0723 }, "geometry": { "type": "Point", "coordinates": [ 129.356369, 35.495838, 225.0 ] } },
{ "type": "Feature", "properties": { "value": 4.8361 }, "geometry": { "type": "Point", "coordinates": [ 129.357468, 35.495838, 225.0 ] } },
{ "type": "Feature", "properties": { "value": 4.5708 }, "geometry": { "type": "Point", "coordinates": [ 129.358566, 35.495834, 225.0 ] } },
{ "type": "Feature", "properties": { "value": 4.3106 }, "geometry": { "type": "Point", "coordinates": [ 129.35968, 35.495831, 225.0 ] } },
{ "type": "Feature", "properties": { "value": 4.0809 }, "geometry": { "type": "Point", "coordinates": [ 129.360779, 35.495827, 225.0 ] } },
{ "type": "Feature", "properties": { "value": 3.9003 }, "geometry": { "type": "Point", "coordinates": [ 129.361877, 35.495823, 225.0 ] } },
{ "type": "Feature", "properties": { "value": 3.7649 }, "geometry": { "type": "Point", "coordinates": [ 129.362976, 35.495819, 225.0 ] } },
{ "type": "Feature", "properties": { "value": 3.6782 }, "geometry": { "type": "Point", "coordinates": [ 129.36409, 35.495815, 225.0 ] } },
{ "type": "Feature", "properties": { "value": 3.6376 }, "geometry": { "type": "Point", "coordinates": [ 129.365189, 35.495815, 225.0 ] } },
{ "type": "Feature", "properties": { "value": 3.6362 }, "geometry": { "type": "Point", "coordinates": [ 129.366287, 35.495811, 225.0 ] } },
{ "type": "Feature", "properties": { "value": 3.6703 }, "geometry": { "type": "Point", "coordinates": [ 129.367386, 35.495808, 225.0 ] } },
{ "type": "Feature", "properties": { "value": 3.7392 }, "geometry": { "type": "Point", "coordinates": [ 129.368484, 35.495804, 225.0 ] } },
{ "type": "Feature", "properties": { "value": 3.8414 }, "geometry": { "type": "Point", "coordinates": [ 129.369598, 35.4958, 225.0 ] } },
{ "type": "Feature", "properties": { "value": 3.9619 }, "geometry": { "type": "Point", "coordinates": [ 129.370697, 35.495796, 225.0 ] } },
{ "type": "Feature", "properties": { "value": 4.0931 }, "geometry": { "type": "Point", "coordinates": [ 129.371796, 35.495792, 225.0 ] } },
{ "type": "Feature", "properties": { "value": 4.2223 }, "geometry": { "type": "Point", "coordinates": [ 129.372894, 35.495789, 225.0 ] } },
{ "type": "Feature", "properties": { "value": 4.3262 }, "geometry": { "type": "Point", "coordinates": [ 129.374008, 35.495785, 225.0 ] } },
{ "type": "Feature", "properties": { "value": 4.383 }, "geometry": { "type": "Point", "coordinates": [ 129.375107, 35.495785, 225.0 ] } },
{ "type": "Feature", "properties": { "value": 4.3672 }, "geometry": { "type": "Point", "coordinates": [ 129.376205, 35.495781, 225.0 ] } },
{ "type": "Feature", "properties": { "value": 4.258 }, "geometry": { "type": "Point", "coordinates": [ 129.377304, 35.495777, 225.0 ] } },
{ "type": "Feature", "properties": { "value": 4.0447 }, "geometry": { "type": "Point", "coordinates": [ 129.378403, 35.495773, 225.0 ] } },
{ "type": "Feature", "properties": { "value": 3.7229 }, "geometry": { "type": "Point", "coordinates": [ 129.379517, 35.49577, 225.0 ] } },
{ "type": "Feature", "properties": { "value": 3.3039 }, "geometry": { "type": "Point", "coordinates": [ 129.380615, 35.495766, 225.0 ] } },
{ "type": "Feature", "properties": { "value": 2.8134 }, "geometry": { "type": "Point", "coordinates": [ 129.381714, 35.495762, 225.0 ] } },
{ "type": "Feature", "properties": { "value": 0.082 }, "geometry": { "type": "Point", "coordinates": [ 129.34314, 35.49678, 225.0 ] } },
{ "type": "Feature", "properties": { "value": 0.2226 }, "geometry": { "type": "Point", "coordinates": [ 129.344254, 35.496777, 225.0 ] } },
{ "type": "Feature", "properties": { "value": 0.4589 }, "geometry": { "type": "Point", "coordinates": [ 129.345352, 35.496773, 225.0 ] } },
{ "type": "Feature", "properties": { "value": 0.8233 }, "geometry": { "type": "Point", "coordinates": [ 129.346451, 35.496769, 225.0 ] } },
{ "type": "Feature", "properties": { "value": 1.3157 }, "geometry": { "type": "Point", "coordinates": [ 129.347549, 35.496765, 225.0 ] } },
{ "type": "Feature", "properties": { "value": 1.9167 }, "geometry": { "type": "Point", "coordinates": [ 129.348663, 35.496765, 225.0 ] } },
{ "type": "Feature", "properties": { "value": 2.5758 }, "geometry": { "type": "Point", "coordinates": [ 129.349762, 35.496761, 225.0 ] } },
{ "type": "Feature", "properties": { "value": 3.2712 }, "geometry": { "type": "Point", "coordinates": [ 129.350861, 35.496758, 225.0 ] } },
{ "type": "Feature", "properties": { "value": 3.939 }, "geometry": { "type": "Point", "coordinates": [ 129.351959, 35.496754, 225.0 ] } },
{ "type": "Feature", "properties": { "value": 4.4768 }, "geometry": { "type": "Point", "coordinates": [ 129.353073, 35.49675, 225.0 ] } },
{ "type": "Feature", "properties": { "value": 4.8474 }, "geometry": { "type": "Point", "coordinates": [ 129.354172, 35.496746, 225.0 ] } },
{ "type": "Feature", "properties": { "value": 5.0604 }, "geometry": { "type": "Point", "coordinates": [ 129.35527, 35.496746, 225.0 ] } },
{ "type": "Feature", "properties": { "value": 5.1405 }, "geometry": { "type": "Point", "coordinates": [ 129.356369, 35.496742, 225.0 ] } },
{ "type": "Feature", "properties": { "value": 5.1252 }, "geometry": { "type": "Point", "coordinates": [ 129.357468, 35.496738, 225.0 ] } },
{ "type": "Feature", "properties": { "value": 5.0331 }, "geometry": { "type": "Point", "coordinates": [ 129.358582, 35.496735, 225.0 ] } },
{ "type": "Feature", "properties": { "value": 4.9069 }, "geometry": { "type": "Point", "coordinates": [ 129.35968, 35.496731, 225.0 ] } },
{ "type": "Feature", "properties": { "value": 4.7715 }, "geometry": { "type": "Point", "coordinates": [ 129.360779, 35.496727, 225.0 ] } },
{ "type": "Feature", "properties": { "value": 4.6564 }, "geometry": { "type": "Point", "coordinates": [ 129.361877, 35.496723, 225.0 ] } },
{ "type": "Feature", "properties": { "value": 4.566 }, "geometry": { "type": "Point", "coordinates": [ 129.362991, 35.496723, 225.0 ] } },
{ "type": "Feature", "properties": { "value": 4.5099 }, "geometry": { "type": "Point", "coordinates": [ 129.36409, 35.496719, 225.0 ] } },
{ "type": "Feature", "properties": { "value": 4.4865 }, "geometry": { "type": "Point", "coordinates": [ 129.365189, 35.496716, 225.0 ] } },
{ "type": "Feature", "properties": { "value": 4.494 }, "geometry": { "type": "Point", "coordinates": [ 129.366287, 35.496712, 225.0 ] } },
{ "type": "Feature", "properties": { "value": 4.5292 }, "geometry": { "type": "Point", "coordinates": [ 129.367386, 35.496708, 225.0 ] } },
{ "type": "Feature", "properties": { "value": 4.5927 }, "geometry": { "type": "Point", "coordinates": [ 129.3685, 35.496704, 225.0 ] } },
{ "type": "Feature", "properties": { "value": 4.6831 }, "geometry": { "type": "Point", "coordinates": [ 129.369598, 35.4967, 225.0 ] } },
{ "type": "Feature", "properties": { "value": 4.7841 }, "geometry": { "type": "Point", "coordinates": [ 129.370697, 35.496696, 225.0 ] } },
{ "type": "Feature", "properties": { "value": 4.8891 }, "geometry": { "type": "Point", "coordinates": [ 129.371796, 35.496696, 225.0 ] } },
{ "type": "Feature", "properties": { "value": 4.9806 }, "geometry": { "type": "Point", "coordinates": [ 129.37291, 35.496693, 225.0 ] } },
{ "type": "Feature", "properties": { "value": 5.0397 }, "geometry": { "type": "Point", "coordinates": [ 129.374008, 35.496689, 225.0 ] } },
{ "type": "Feature", "properties": { "value": 5.042 }, "geometry": { "type": "Point", "coordinates": [ 129.375107, 35.496685, 225.0 ] } },
{ "type": "Feature", "properties": { "value": 4.9625 }, "geometry": { "type": "Point", "coordinates": [ 129.376205, 35.496681, 225.0 ] } },
{ "type": "Feature", "properties": { "value": 4.7845 }, "geometry": { "type": "Point", "coordinates": [ 129.377319, 35.496677, 225.0 ] } },
{ "type": "Feature", "properties": { "value": 4.4948 }, "geometry": { "type": "Point", "coordinates": [ 129.378418, 35.496674, 225.0 ] } },
{ "type": "Feature", "properties": { "value": 4.0965 }, "geometry": { "type": "Point", "coordinates": [ 129.379517, 35.49667, 225.0 ] } },
{ "type": "Feature", "properties": { "value": 3.6025 }, "geometry": { "type": "Point", "coordinates": [ 129.380615, 35.496666, 225.0 ] } },
{ "type": "Feature", "properties": { "value": 3.0456 }, "geometry": { "type": "Point", "coordinates": [ 129.381714, 35.496662, 225.0 ] } },
{ "type": "Feature", "properties": { "value": 0.0705 }, "geometry": { "type": "Point", "coordinates": [ 129.344254, 35.497677, 225.0 ] } },
{ "type": "Feature", "properties": { "value": 0.185 }, "geometry": { "type": "Point", "coordinates": [ 129.345352, 35.497673, 225.0 ] } },
{ "type": "Feature", "properties": { "value": 0.3749 }, "geometry": { "type": "Point", "coordinates": [ 129.346451, 35.497673, 225.0 ] } },
{ "type": "Feature", "properties": { "value": 0.6624 }, "geometry": { "type": "Point", "coordinates": [ 129.347565, 35.497669, 225.0 ] } },
{ "type": "Feature", "properties": { "value": 1.0577 }, "geometry": { "type": "Point", "coordinates": [ 129.348663, 35.497665, 225.0 ] } },
{ "type": "Feature", "properties": { "value": 1.5514 }, "geometry": { "type": "Point", "coordinates": [ 129.349762, 35.497662, 225.0 ] } },
{ "type": "Feature", "properties": { "value": 2.1306 }, "geometry": { "type": "Point", "coordinates": [ 129.350861, 35.497658, 225.0 ] } },
{ "type": "Feature", "properties": { "value": 2.7493 }, "geometry": { "type": "Point", "coordinates": [ 129.351974, 35.497654, 225.0 ] } },
{ "type": "Feature", "properties": { "value": 3.3343 }, "geometry": { "type": "Point", "coordinates": [ 129.353073, 35.497654, 225.0 ] } },
{ "type": "Feature", "properties": { "value": 3.8341 }, "geometry": { "type": "Point", "coordinates": [ 129.354172, 35.49765, 225.0 ] } },
{ "type": "Feature", "properties": { "value": 4.2396 }, "geometry": { "type": "Point", "coordinates": [ 129.35527, 35.497646, 225.0 ] } },
{ "type": "Feature", "properties": { "value": 4.5445 }, "geometry": { "type": "Point", "coordinates": [ 129.356369, 35.497643, 225.0 ] } },
{ "type": "Feature", "properties": { "value": 4.7477 }, "geometry": { "type": "Point", "coordinates": [ 129.357483, 35.497639, 225.0 ] } },
{ "type": "Feature", "properties": { "value": 4.8606 }, "geometry": { "type": "Point", "coordinates": [ 129.358582, 35.497635, 225.0 ] } },
{ "type": "Feature", "properties": { "value": 4.9036 }, "geometry": { "type": "Point", "coordinates": [ 129.35968, 35.497631, 225.0 ] } },
{ "type": "Feature", "properties": { "value": 4.9151 }, "geometry": { "type": "Point", "coordinates": [ 129.360779, 35.497631, 225.0 ] } },
{ "type": "Feature", "properties": { "value": 4.9111 }, "geometry": { "type": "Point", "coordinates": [ 129.361893, 35.497627, 225.0 ] } },
{ "type": "Feature", "properties": { "value": 4.9123 }, "geometry": { "type": "Point", "coordinates": [ 129.362991, 35.497623, 225.0 ] } },
{ "type": "Feature", "properties": { "value": 4.9212 }, "geometry": { "type": "Point", "coordinates": [ 129.36409, 35.49762, 225.0 ] } },
{ "type": "Feature", "properties": { "value": 4.942 }, "geometry": { "type": "Point", "coordinates": [ 129.365189, 35.497616, 225.0 ] } },
{ "type": "Feature", "properties": { "value": 4.9801 }, "geometry": { "type": "Point", "coordinates": [ 129.366302, 35.497612, 225.0 ] } },
{ "type": "Feature", "properties": { "value": 5.0296 }, "geometry": { "type": "Point", "coordinates": [ 129.367401, 35.497608, 225.0 ] } },
{ "type": "Feature", "properties": { "value": 5.0941 }, "geometry": { "type": "Point", "coordinates": [ 129.3685, 35.497604, 225.0 ] } },
{ "type": "Feature", "properties": { "value": 5.1738 }, "geometry": { "type": "Point", "coordinates": [ 129.369598, 35.497604, 225.0 ] } },
{ "type": "Feature", "properties": { "value": 5.253 }, "geometry": { "type": "Point", "coordinates": [ 129.370697, 35.497601, 225.0 ] } },
{ "type": "Feature", "properties": { "value": 5.326 }, "geometry": { "type": "Point", "coordinates": [ 129.371811, 35.497597, 225.0 ] } },
{ "type": "Feature", "properties": { "value": 5.3775 }, "geometry": { "type": "Point", "coordinates": [ 129.37291, 35.497593, 225.0 ] } },
{ "type": "Feature", "properties": { "value": 5.3886 }, "geometry": { "type": "Point", "coordinates": [ 129.374008, 35.497589, 225.0 ] } },
{ "type": "Feature", "properties": { "value": 5.3352 }, "geometry": { "type": "Point", "coordinates": [ 129.375107, 35.497585, 225.0 ] } },
{ "type": "Feature", "properties": { "value": 5.1986 }, "geometry": { "type": "Point", "coordinates": [ 129.376221, 35.497581, 225.0 ] } },
{ "type": "Feature", "properties": { "value": 4.9615 }, "geometry": { "type": "Point", "coordinates": [ 129.377319, 35.497578, 225.0 ] } },
{ "type": "Feature", "properties": { "value": 4.6175 }, "geometry": { "type": "Point", "coordinates": [ 129.378418, 35.497574, 225.0 ] } },
{ "type": "Feature", "properties": { "value": 4.172 }, "geometry": { "type": "Point", "coordinates": [ 129.379517, 35.497574, 225.0 ] } },
{ "type": "Feature", "properties": { "value": 3.6405 }, "geometry": { "type": "Point", "coordinates": [ 129.380615, 35.49757, 225.0 ] } },
{ "type": "Feature", "properties": { "value": 3.0559 }, "geometry": { "type": "Point", "coordinates": [ 129.381729, 35.497566, 225.0 ] } },
{ "type": "Feature", "properties": { "value": 0.0513 }, "geometry": { "type": "Point", "coordinates": [ 129.345352, 35.498577, 225.0 ] } },
{ "type": "Feature", "properties": { "value": 0.1434 }, "geometry": { "type": "Point", "coordinates": [ 129.346466, 35.498573, 225.0 ] } },
{ "type": "Feature", "properties": { "value": 0.2888 }, "geometry": { "type": "Point", "coordinates": [ 129.347565, 35.498569, 225.0 ] } },
{ "type": "Feature", "properties": { "value": 0.5124 }, "geometry": { "type": "Point", "coordinates": [ 129.348663, 35.498566, 225.0 ] } },
{ "type": "Feature", "properties": { "value": 0.824 }, "geometry": { "type": "Point", "coordinates": [ 129.349762, 35.498562, 225.0 ] } },
{ "type": "Feature", "properties": { "value": 1.2233 }, "geometry": { "type": "Point", "coordinates": [ 129.350876, 35.498562, 225.0 ] } },
{ "type": "Feature", "properties": { "value": 1.6848 }, "geometry": { "type": "Point", "coordinates": [ 129.351974, 35.498558, 225.0 ] } },
{ "type": "Feature", "properties": { "value": 2.1728 }, "geometry": { "type": "Point", "coordinates": [ 129.353073, 35.498554, 225.0 ] } },
{ "type": "Feature", "properties": { "value": 2.6603 }, "geometry": { "type": "Point", "coordinates": [ 129.354172, 35.49855, 225.0 ] } },
{ "type": "Feature", "properties": { "value": 3.1189 }, "geometry": { "type": "Point", "coordinates": [ 129.35527, 35.498547, 225.0 ] } },
{ "type": "Feature", "properties": { "value": 3.5267 }, "geometry": { "type": "Point", "coordinates": [ 129.356384, 35.498543, 225.0 ] } },
{ "type": "Feature", "properties": { "value": 3.8635 }, "geometry": { "type": "Point", "coordinates": [ 129.357483, 35.498539, 225.0 ] } },
{ "type": "Feature", "properties": { "value": 4.1253 }, "geometry": { "type": "Point", "coordinates": [ 129.358582, 35.498539, 225.0 ] } },
{ "type": "Feature", "properties": { "value": 4.3218 }, "geometry": { "type": "Point", "coordinates": [ 129.35968, 35.498535, 225.0 ] } },
{ "type": "Feature", "properties": { "value": 4.4699 }, "geometry": { "type": "Point", "coordinates": [ 129.360794, 35.498531, 225.0 ] } },
{ "type": "Feature", "properties": { "value": 4.5921 }, "geometry": { "type": "Point", "coordinates": [ 129.361893, 35.498528, 225.0 ] } },
{ "type": "Feature", "properties": { "value": 4.6926 }, "geometry": { "type": "Point", "coordinates": [ 129.362991, 35.498524, 225.0 ] } },
{ "type": "Feature", "properties": { "value": 4.7869 }, "geometry": { "type": "Point", "coordinates": [ 129.36409, 35.49852, 225.0 ] } },
{ "type": "Feature", "properties": { "value": 4.8693 }, "geometry": { "type": "Point", "coordinates": [ 129.365204, 35.498516, 225.0 ] } },
{ "type": "Feature", "properties": { "value": 4.9495 }, "geometry": { "type": "Point", "coordinates": [ 129.366302, 35.498512, 225.0 ] } },
{ "type": "Feature", "properties": { "value": 5.0268 }, "geometry": { "type": "Point", "coordinates": [ 129.367401, 35.498512, 225.0 ] } },
{ "type": "Feature", "properties": { "value": 5.0999 }, "geometry": { "type": "Point", "coordinates": [ 129.3685, 35.498508, 225.0 ] } },
{ "type": "Feature", "properties": { "value": 5.178 }, "geometry": { "type": "Point", "coordinates": [ 129.369598, 35.498505, 225.0 ] } },
{ "type": "Feature", "properties": { "value": 5.2425 }, "geometry": { "type": "Point", "coordinates": [ 129.370712, 35.498501, 225.0 ] } },
{ "type": "Feature", "properties": { "value": 5.2896 }, "geometry": { "type": "Point", "coordinates": [ 129.371811, 35.498497, 225.0 ] } },
{ "type": "Feature", "properties": { "value": 5.307 }, "geometry": { "type": "Point", "coordinates": [ 129.37291, 35.498493, 225.0 ] } },
{ "type": "Feature", "properties": { "value": 5.2792 }, "geometry": { "type": "Point", "coordinates": [ 129.374008, 35.498489, 225.0 ] } },
{ "type": "Feature", "properties": { "value": 5.1857 }, "geometry": { "type": "Point", "coordinates": [ 129.375122, 35.498486, 225.0 ] } },
{ "type": "Feature", "properties": { "value": 5.0116 }, "geometry": { "type": "Point", "coordinates": [ 129.376221, 35.498482, 225.0 ] } },
{ "type": "Feature", "properties": { "value": 4.7441 }, "geometry": { "type": "Point", "coordinates": [ 129.377319, 35.498482, 225.0 ] } },
{ "type": "Feature", "properties": { "value": 4.3806 }, "geometry": { "type": "Point", "coordinates": [ 129.378418, 35.498478, 225.0 ] } },
{ "type": "Feature", "properties": { "value": 3.9289 }, "geometry": { "type": "Point", "coordinates": [ 129.379532, 35.498474, 225.0 ] } },
{ "type": "Feature", "properties": { "value": 3.4055 }, "geometry": { "type": "Point", "coordinates": [ 129.38063, 35.49847, 225.0 ] } },
{ "type": "Feature", "properties": { "value": 2.8416 }, "geometry": { "type": "Point", "coordinates": [ 129.381729, 35.498466, 225.0 ] } },
{ "type": "Feature", "properties": { "value": 0.0256 }, "geometry": { "type": "Point", "coordinates": [ 129.346466, 35.499474, 225.0 ] } },
{ "type": "Feature", "properties": { "value": 0.1013 }, "geometry": { "type": "Point", "coordinates": [ 129.347565, 35.49947, 225.0 ] } },
{ "type": "Feature", "properties": { "value": 0.2133 }, "geometry": { "type": "Point", "coordinates": [ 129.348663, 35.499466, 225.0 ] } },
{ "type": "Feature", "properties": { "value": 0.3787 }, "geometry": { "type": "Point", "coordinates": [ 129.349777, 35.499466, 225.0 ] } },
{ "type": "Feature", "properties": { "value": 0.6122 }, "geometry": { "type": "Point", "coordinates": [ 129.350876, 35.499462, 225.0 ] } },
{ "type": "Feature", "properties": { "value": 0.9053 }, "geometry": { "type": "Point", "coordinates": [ 129.351974, 35.499458, 225.0 ] } },
{ "type": "Feature", "properties": { "value": 1.2493 }, "geometry": { "type": "Point", "coordinates": [ 129.353073, 35.499454, 225.0 ] } },
{ "type": "Feature", "properties": { "value": 1.6307 }, "geometry": { "type": "Point", "coordinates": [ 129.354187, 35.499451, 225.0 ] } },
{ "type": "Feature", "properties": { "value": 2.026 }, "geometry": { "type": "Point", "coordinates": [ 129.355286, 35.499447, 225.0 ] } },
{ "type": "Feature", "properties": { "value": 2.4111 }, "geometry": { "type": "Point", "coordinates": [ 129.356384, 35.499447, 225.0 ] } },
{ "type": "Feature", "properties": { "value": 2.7719 }, "geometry": { "type": "Point", "coordinates": [ 129.357483, 35.499443, 225.0 ] } },
{ "type": "Feature", "properties": { "value": 3.0895 }, "geometry": { "type": "Point", "coordinates": [ 129.358582, 35.499439, 225.0 ] } },
{ "type": "Feature", "properties": { "value": 3.3646 }, "geometry": { "type": "Point", "coordinates": [ 129.359695, 35.499435, 225.0 ] } },
{ "type": "Feature", "properties": { "value": 3.5991 }, "geometry": { "type": "Point", "coordinates": [ 129.360794, 35.499432, 225.0 ] } },
{ "type": "Feature", "properties": { "value": 3.8088 }, "geometry": { "type": "Point", "coordinates": [ 129.361893, 35.499428, 225.0 ] } },
{ "type": "Feature", "properties": { "value": 3.9901 }, "geometry": { "type": "Point", "coordinates": [ 129.362991, 35.499424, 225.0 ] } },
{ "type": "Feature", "properties": { "value": 4.1528 }, "geometry": { "type": "Point", "coordinates": [ 129.364105, 35.499424, 225.0 ] } },
{ "type": "Feature", "properties": { "value": 4.2933 }, "geometry": { "type": "Point", "coordinates": [ 129.365204, 35.49942, 225.0 ] } },
{ "type": "Feature", "properties": { "value": 4.417 }, "geometry": { "type": "Point", "coordinates": [ 129.366302, 35.499416, 225.0 ] } },
{ "type": "Feature", "properties": { "value": 4.5216 }, "geometry": { "type": "Point", "coordinates": [ 129.367401, 35.499413, 225.0 ] } },
{ "type": "Feature", "properties": { "value": 4.6142 }, "geometry": { "type": "Point", "coordinates": [ 129.368515, 35.499409, 225.0 ] } },
{ "type": "Feature", "properties": { "value": 4.6915 }, "geometry": { "type": "Point", "coordinates": [ 129.369614, 35.499405, 225.0 ] } },
{ "type": "Feature", "properties": { "value": 4.7524 }, "geometry": { "type": "Point", "coordinates": [ 129.370712, 35.499401, 225.0 ] } },
{ "type": "Feature", "properties": { "value": 4.7847 }, "geometry": { "type": "Point", "coordinates": [ 129.371811, 35.499397, 225.0 ] } },
{ "type": "Feature", "properties": { "value": 4.7843 }, "geometry": { "type": "Point", "coordinates": [ 129.37291, 35.499393, 225.0 ] } },
{ "type": "Feature", "properties": { "value": 4.7353 }, "geometry": { "type": "Point", "coordinates": [ 129.374023, 35.499393, 225.0 ] } },
{ "type": "Feature", "properties": { "value": 4.6261 }, "geometry": { "type": "Point", "coordinates": [ 129.375122, 35.49939, 225.0 ] } },
{ "type": "Feature", "properties": { "value": 4.4425 }, "geometry": { "type": "Point", "coordinates": [ 129.376221, 35.499386, 225.0 ] } },
{ "type": "Feature", "properties": { "value": 4.1796 }, "geometry": { "type": "Point", "coordinates": [ 129.377319, 35.499382, 225.0 ] } },
{ "type": "Feature", "properties": { "value": 3.836 }, "geometry": { "type": "Point", "coordinates": [ 129.378433, 35.499378, 225.0 ] } },
{ "type": "Feature", "properties": { "value": 3.4189 }, "geometry": { "type": "Point", "coordinates": [ 129.379532, 35.499374, 225.0 ] } },
{ "type": "Feature", "properties": { "value": 2.9479 }, "geometry": { "type": "Point", "coordinates": [ 129.38063, 35.499371, 225.0 ] } },
{ "type": "Feature", "properties": { "value": 2.4476 }, "geometry": { "type": "Point", "coordinates": [ 129.381729, 35.499367, 225.0 ] } },
{ "type": "Feature", "properties": { "value": 0.066 }, "geometry": { "type": "Point", "coordinates": [ 129.348679, 35.50037, 225.0 ] } },
{ "type": "Feature", "properties": { "value": 0.1463 }, "geometry": { "type": "Point", "coordinates": [ 129.349777, 35.500366, 225.0 ] } },
{ "type": "Feature", "properties": { "value": 0.2645 }, "geometry": { "type": "Point", "coordinates": [ 129.350876, 35.500362, 225.0 ] } },
{ "type": "Feature", "properties": { "value": 0.4266 }, "geometry": { "type": "Point", "coordinates": [ 129.351974, 35.500359, 225.0 ] } },
{ "type": "Feature", "properties": { "value": 0.6342 }, "geometry": { "type": "Point", "coordinates": [ 129.353088, 35.500355, 225.0 ] } },
{ "type": "Feature", "properties": { "value": 0.8815 }, "geometry": { "type": "Point", "coordinates": [ 129.354187, 35.500355, 225.0 ] } },
{ "type": "Feature", "properties": { "value": 1.1587 }, "geometry": { "type": "Point", "coordinates": [ 129.355286, 35.500351, 225.0 ] } },
{ "type": "Feature", "properties": { "value": 1.4569 }, "geometry": { "type": "Point", "coordinates": [ 129.356384, 35.500347, 225.0 ] } },
{ "type": "Feature", "properties": { "value": 1.7575 }, "geometry": { "type": "Point", "coordinates": [ 129.357483, 35.500343, 225.0 ] } },
{ "type": "Feature", "properties": { "value": 2.0471 }, "geometry": { "type": "Point", "coordinates": [ 129.358597, 35.50034, 225.0 ] } },
{ "type": "Feature", "properties": { "value": 2.3185 }, "geometry": { "type": "Point", "coordinates": [ 129.359695, 35.500336, 225.0 ] } },
{ "type": "Feature", "properties": { "value": 2.572 }, "geometry": { "type": "Point", "coordinates": [ 129.360794, 35.500332, 225.0 ] } },
{ "type": "Feature", "properties": { "value": 2.8098 }, "geometry": { "type": "Point", "coordinates": [ 129.361893, 35.500332, 225.0 ] } },
{ "type": "Feature", "properties": { "value": 3.0271 }, "geometry": { "type": "Point", "coordinates": [ 129.363007, 35.500328, 225.0 ] } },
{ "type": "Feature", "properties": { "value": 3.2192 }, "geometry": { "type": "Point", "coordinates": [ 129.364105, 35.500324, 225.0 ] } },
{ "type": "Feature", "properties": { "value": 3.3924 }, "geometry": { "type": "Point", "coordinates": [ 129.365204, 35.50032, 225.0 ] } },
{ "type": "Feature", "properties": { "value": 3.5383 }, "geometry": { "type": "Point", "coordinates": [ 129.366302, 35.500317, 225.0 ] } },
{ "type": "Feature", "properties": { "value": 3.6644 }, "geometry": { "type": "Point", "coordinates": [ 129.367416, 35.500313, 225.0 ] } },
{ "type": "Feature", "properties": { "value": 3.7666 }, "geometry": { "type": "Point", "coordinates": [ 129.368515, 35.500309, 225.0 ] } },
{ "type": "Feature", "properties": { "value": 3.8505 }, "geometry": { "type": "Point", "coordinates": [ 129.369614, 35.500305, 225.0 ] } },
{ "type": "Feature", "properties": { "value": 3.9115 }, "geometry": { "type": "Point", "coordinates": [ 129.370712, 35.500301, 225.0 ] } },
{ "type": "Feature", "properties": { "value": 3.9428 }, "geometry": { "type": "Point", "coordinates": [ 129.371811, 35.500301, 225.0 ] } },
{ "type": "Feature", "properties": { "value": 3.9395 }, "geometry": { "type": "Point", "coordinates": [ 129.372925, 35.500298, 225.0 ] } },
{ "type": "Feature", "properties": { "value": 3.89 }, "geometry": { "type": "Point", "coordinates": [ 129.374023, 35.500294, 225.0 ] } },
{ "type": "Feature", "properties": { "value": 3.7873 }, "geometry": { "type": "Point", "coordinates": [ 129.375122, 35.50029, 225.0 ] } },
{ "type": "Feature", "properties": { "value": 3.622 }, "geometry": { "type": "Point", "coordinates": [ 129.376221, 35.500286, 225.0 ] } },
{ "type": "Feature", "properties": { "value": 3.3913 }, "geometry": { "type": "Point", "coordinates": [ 129.377335, 35.500282, 225.0 ] } },
{ "type": "Feature", "properties": { "value": 3.0981 }, "geometry": { "type": "Point", "coordinates": [ 129.378433, 35.500278, 225.0 ] } },
{ "type": "Feature", "properties": { "value": 2.7483 }, "geometry": { "type": "Point", "coordinates": [ 129.379532, 35.500275, 225.0 ] } },
{ "type": "Feature", "properties": { "value": 2.3594 }, "geometry": { "type": "Point", "coordinates": [ 129.38063, 35.500271, 225.0 ] } },
{ "type": "Feature", "properties": { "value": 1.9509 }, "geometry": { "type": "Point", "coordinates": [ 129.381744, 35.500267, 225.0 ] } },
{ "type": "Feature", "properties": { "value": 0.0301 }, "geometry": { "type": "Point", "coordinates": [ 129.349777, 35.501266, 225.0 ] } },
{ "type": "Feature", "properties": { "value": 0.089 }, "geometry": { "type": "Point", "coordinates": [ 129.350876, 35.501263, 225.0 ] } },
{ "type": "Feature", "properties": { "value": 0.1699 }, "geometry": { "type": "Point", "coordinates": [ 129.35199, 35.501259, 225.0 ] } },
{ "type": "Feature", "properties": { "value": 0.2771 }, "geometry": { "type": "Point", "coordinates": [ 129.353088, 35.501259, 225.0 ] } },
{ "type": "Feature", "properties": { "value": 0.4171 }, "geometry": { "type": "Point", "coordinates": [ 129.354187, 35.501255, 225.0 ] } },
{ "type": "Feature", "properties": { "value": 0.5825 }, "geometry": { "type": "Point", "coordinates": [ 129.355286, 35.501251, 225.0 ] } },
{ "type": "Feature", "properties": { "value": 0.7727 }, "geometry": { "type": "Point", "coordinates": [ 129.3564, 35.501247, 225.0 ] } },
{ "type": "Feature", "properties": { "value": 0.9804 }, "geometry": { "type": "Point", "coordinates": [ 129.357498, 35.501244, 225.0 ] } },
{ "type": "Feature", "properties": { "value": 1.1948 }, "geometry": { "type": "Point", "coordinates": [ 129.358597, 35.50124, 225.0 ] } },
{ "type": "Feature", "properties": { "value": 1.4126 }, "geometry": { "type": "Point", "coordinates": [ 129.359695, 35.50124, 225.0 ] } },
{ "type": "Feature", "properties": { "value": 1.6299 }, "geometry": { "type": "Point", "coordinates": [ 129.360794, 35.501236, 225.0 ] } },
{ "type": "Feature", "properties": { "value": 1.8446 }, "geometry": { "type": "Point", "coordinates": [ 129.361908, 35.501232, 225.0 ] } },
{ "type": "Feature", "properties": { "value": 2.0485 }, "geometry": { "type": "Point", "coordinates": [ 129.363007, 35.501228, 225.0 ] } },
{ "type": "Feature", "properties": { "value": 2.2333 }, "geometry": { "type": "Point", "coordinates": [ 129.364105, 35.501225, 225.0 ] } },
{ "type": "Feature", "properties": { "value": 2.4021 }, "geometry": { "type": "Point", "coordinates": [ 129.365204, 35.501221, 225.0 ] } },
{ "type": "Feature", "properties": { "value": 2.5491 }, "geometry": { "type": "Point", "coordinates": [ 129.366318, 35.501217, 225.0 ] } },
{ "type": "Feature", "properties": { "value": 2.6748 }, "geometry": { "type": "Point", "coordinates": [ 129.367416, 35.501213, 225.0 ] } },
{ "type": "Feature", "properties": { "value": 2.7811 }, "geometry": { "type": "Point", "coordinates": [ 129.368515, 35.501213, 225.0 ] } },
{ "type": "Feature", "properties": { "value": 2.8635 }, "geometry": { "type": "Point", "coordinates": [ 129.369614, 35.501209, 225.0 ] } },
{ "type": "Feature", "properties": { "value": 2.9251 }, "geometry": { "type": "Point", "coordinates": [ 129.370728, 35.501205, 225.0 ] } },
{ "type": "Feature", "properties": { "value": 2.958 }, "geometry": { "type": "Point", "coordinates": [ 129.371826, 35.501202, 225.0 ] } },
{ "type": "Feature", "properties": { "value": 2.9593 }, "geometry": { "type": "Point", "coordinates": [ 129.372925, 35.501198, 225.0 ] } },
{ "type": "Feature", "properties": { "value": 2.9237 }, "geometry": { "type": "Point", "coordinates": [ 129.374023, 35.501194, 225.0 ] } },
{ "type": "Feature", "properties": { "value": 2.842 }, "geometry": { "type": "Point", "coordinates": [ 129.375122, 35.50119, 225.0 ] } },
{ "type": "Feature", "properties": { "value": 2.713 }, "geometry": { "type": "Point", "coordinates": [ 129.376236, 35.501186, 225.0 ] } },
{ "type": "Feature", "properties": { "value": 2.5333 }, "geometry": { "type": "Point", "coordinates": [ 129.377335, 35.501183, 225.0 ] } },
{ "type": "Feature", "properties": { "value": 2.307 }, "geometry": { "type": "Point", "coordinates": [ 129.378433, 35.501179, 225.0 ] } },
{ "type": "Feature", "properties": { "value": 2.0397 }, "geometry": { "type": "Point", "coordinates": [ 129.379532, 35.501179, 225.0 ] } },
{ "type": "Feature", "properties": { "value": 1.7453 }, "geometry": { "type": "Point", "coordinates": [ 129.380646, 35.501175, 225.0 ] } },
{ "type": "Feature", "properties": { "value": 1.4377 }, "geometry": { "type": "Point", "coordinates": [ 129.381744, 35.501171, 225.0 ] } }
]
}
