{
"type": "FeatureCollection",
"features": [
{ "type": "Feature", "properties": { "value": 37.369 }, "geometry": { "type": "Point", "coordinates": [ 129.32756, 35.458969, 10.0 ] } },
{ "type": "Feature", "properties": { "value": 293.14 }, "geometry": { "type": "Point", "coordinates": [ 129.32756, 35.459869, 10.0 ] } },
{ "type": "Feature", "properties": { "value": 192.38 }, "geometry": { "type": "Point", "coordinates": [ 129.327576, 35.46077, 10.0 ] } },
{ "type": "Feature", "properties": { "value": 171.25 }, "geometry": { "type": "Point", "coordinates": [ 129.327576, 35.461674, 10.0 ] } },
{ "type": "Feature", "properties": { "value": 213.44 }, "geometry": { "type": "Point", "coordinates": [ 129.327576, 35.462574, 10.0 ] } },
{ "type": "Feature", "properties": { "value": 225.16 }, "geometry": { "type": "Point", "coordinates": [ 129.327576, 35.463474, 10.0 ] } },
{ "type": "Feature", "properties": { "value": 2.5126 }, "geometry": { "type": "Point", "coordinates": [ 129.32869, 35.46347, 10.0 ] } },
{ "type": "Feature", "properties": { "value": 211.04 }, "geometry": { "type": "Point", "coordinates": [ 129.327591, 35.464375, 10.0 ] } },
{ "type": "Feature", "properties": { "value": 14.871 }, "geometry": { "type": "Point", "coordinates": [ 129.32869, 35.464375, 10.0 ] } },
{ "type": "Feature", "properties": { "value": 144.64 }, "geometry": { "type": "Point", "coordinates": [ 129.327591, 35.465279, 10.0 ] } },
{ "type": "Feature", "properties": { "value": 24.202 }, "geometry": { "type": "Point", "coordinates": [ 129.32869, 35.465275, 10.0 ] } },
{ "type": "Feature", "properties": { "value": 99.252 }, "geometry": { "type": "Point", "coordinates": [ 129.327591, 35.466179, 10.0 ] } },
{ "type": "Feature", "properties": { "value": 25.147 }, "geometry": { "type": "Point", "coordinates": [ 129.32869, 35.466175, 10.0 ] } },
{ "type": "Feature", "properties": { "value": 82.627 }, "geometry": { "type": "Point", "coordinates": [ 129.327591, 35.467079, 10.0 ] } },
{ "type": "Feature", "properties": { "value": 29.394 }, "geometry": { "type": "Point", "coordinates": [ 129.328705, 35.467075, 10.0 ] } },
{ "type": "Feature", "properties": { "value": 78.179 }, "geometry": { "type": "Point", "coordinates": [ 129.327606, 35.467983, 10.0 ] } },
{ "type": "Feature", "properties": { "value": 35.279 }, "geometry": { "type": "Point", "coordinates": [ 129.328705, 35.467979, 10.0 ] } },
{ "type": "Feature", "properties": { "value": 1.1859 }, "geometry": { "type": "Point", "coordinates": [ 129.326508, 35.468887, 10.0 ] } },
{ "type": "Feature", "properties": { "value": 86.162 }, "geometry": { "type": "Point", "coordinates": [ 129.327606, 35.468884, 10.0 ] } },
{ "type": "Feature", "properties": { "value": 43.155 }, "geometry": { "type": "Point", "coordinates": [ 129.328705, 35.46888, 10.0 ] } },
{ "type": "Feature", "properties": { "value": 3.6977 }, "geometry": { "type": "Point", "coordinates": [ 129.326508, 35.469788, 10.0 ] } },
{ "type": "Feature", "properties": { "value": 113.79 }, "geometry": { "type": "Point", "coordinates": [ 129.327606, 35.469784, 10.0 ] } },
{ "type": "Feature", "properties": { "value": 57.873 }, "geometry": { "type": "Point", "coordinates": [ 129.328705, 35.46978, 10.0 ] } },
{ "type": "Feature", "properties": { "value": 8.6017 }, "geometry": { "type": "Point", "coordinates": [ 129.326508, 35.470688, 10.0 ] } },
{ "type": "Feature", "properties": { "value": 155.62 }, "geometry": { "type": "Point", "coordinates": [ 129.327606, 35.470684, 10.0 ] } },
{ "type": "Feature", "properties": { "value": 91.306 }, "geometry": { "type": "Point", "coordinates": [ 129.32872, 35.470684, 10.0 ] } },
{ "type": "Feature", "properties": { "value": 16.434 }, "geometry": { "type": "Point", "coordinates": [ 129.326508, 35.471588, 10.0 ] } },
{ "type": "Feature", "properties": { "value": 233.32 }, "geometry": { "type": "Point", "coordinates": [ 129.327621, 35.471588, 10.0 ] } },
{ "type": "Feature", "properties": { "value": 174.38 }, "geometry": { "type": "Point", "coordinates": [ 129.32872, 35.471584, 10.0 ] } },
{ "type": "Feature", "properties": { "value": 3.9435 }, "geometry": { "type": "Point", "coordinates": [ 129.329819, 35.471581, 10.0 ] } },
{ "type": "Feature", "properties": { "value": 31.58 }, "geometry": { "type": "Point", "coordinates": [ 129.326523, 35.472492, 10.0 ] } },
{ "type": "Feature", "properties": { "value": 356.88 }, "geometry": { "type": "Point", "coordinates": [ 129.327621, 35.472488, 10.0 ] } },
{ "type": "Feature", "properties": { "value": 274.7 }, "geometry": { "type": "Point", "coordinates": [ 129.32872, 35.472485, 10.0 ] } },
{ "type": "Feature", "properties": { "value": 8.5024 }, "geometry": { "type": "Point", "coordinates": [ 129.329819, 35.472481, 10.0 ] } },
{ "type": "Feature", "properties": { "value": 58.264 }, "geometry": { "type": "Point", "coordinates": [ 129.326523, 35.473392, 10.0 ] } },
{ "type": "Feature", "properties": { "value": 418.57 }, "geometry": { "type": "Point", "coordinates": [ 129.327621, 35.473389, 10.0 ] } },
{ "type": "Feature", "properties": { "value": 297.52 }, "geometry": { "type": "Point", "coordinates": [ 129.32872, 35.473385, 10.0 ] } },
{ "type": "Feature", "properties": { "value": 15.527 }, "geometry": { "type": "Point", "coordinates": [ 129.329819, 35.473385, 10.0 ] } },
{ "type": "Feature", "properties": { "value": 83.722 }, "geometry": { "type": "Point", "coordinates": [ 129.326523, 35.474293, 10.0 ] } },
{ "type": "Feature", "properties": { "value": 428.14 }, "geometry": { "type": "Point", "coordinates": [ 129.327621, 35.474289, 10.0 ] } },
{ "type": "Feature", "properties": { "value": 277.36 }, "geometry": { "type": "Point", "coordinates": [ 129.328735, 35.474289, 10.0 ] } },
{ "type": "Feature", "properties": { "value": 20.2 }, "geometry": { "type": "Point", "coordinates": [ 129.329834, 35.474285, 10.0 ] } },
{ "type": "Feature", "properties": { "value": 2.8398 }, "geometry": { "type": "Point", "coordinates": [ 129.325424, 35.475197, 10.0 ] } },
{ "type": "Feature", "properties": { "value": 109.11 }, "geometry": { "type": "Point", "coordinates": [ 129.326523, 35.475193, 10.0 ] } },
{ "type": "Feature", "properties": { "value": 438.62 }, "geometry": { "type": "Point", "coordinates": [ 129.327637, 35.475193, 10.0 ] } },
{ "type": "Feature", "properties": { "value": 257.57 }, "geometry": { "type": "Point", "coordinates": [ 129.328735, 35.475189, 10.0 ] } },
{ "type": "Feature", "properties": { "value": 19.133 }, "geometry": { "type": "Point", "coordinates": [ 129.329834, 35.475185, 10.0 ] } },
{ "type": "Feature", "properties": { "value": 7.4961 }, "geometry": { "type": "Point", "coordinates": [ 129.325424, 35.476097, 10.0 ] } },
{ "type": "Feature", "properties": { "value": 133.66 }, "geometry": { "type": "Point", "coordinates": [ 129.326538, 35.476097, 10.0 ] } },
{ "type": "Feature", "properties": { "value": 400.64 }, "geometry": { "type": "Point", "coordinates": [ 129.327637, 35.476093, 10.0 ] } },
{ "type": "Feature", "properties": { "value": 216.43 }, "geometry": { "type": "Point", "coordinates": [ 129.328735, 35.476089, 10.0 ] } },
{ "type": "Feature", "properties": { "value": 16.65 }, "geometry": { "type": "Point", "coordinates": [ 129.329834, 35.476086, 10.0 ] } },
{ "type": "Feature", "properties": { "value": 13.393 }, "geometry": { "type": "Point", "coordinates": [ 129.325439, 35.477001, 10.0 ] } },
{ "type": "Feature", "properties": { "value": 150.54 }, "geometry": { "type": "Point", "coordinates": [ 129.326538, 35.476997, 10.0 ] } },
{ "type": "Feature", "properties": { "value": 326.61 }, "geometry": { "type": "Point", "coordinates": [ 129.327637, 35.476994, 10.0 ] } },
{ "type": "Feature", "properties": { "value": 161.32 }, "geometry": { "type": "Point", "coordinates": [ 129.328735, 35.47699, 10.0 ] } },
{ "type": "Feature", "properties": { "value": 14.315 }, "geometry": { "type": "Point", "coordinates": [ 129.329834, 35.47699, 10.0 ] } },
{ "type": "Feature", "properties": { "value": 20.977 }, "geometry": { "type": "Point", "coordinates": [ 129.325439, 35.477901, 10.0 ] } },
{ "type": "Feature", "properties": { "value": 153.38 }, "geometry": { "type": "Point", "coordinates": [ 129.326538, 35.477898, 10.0 ] } },
{ "type": "Feature", "properties": { "value": 258.55 }, "geometry": { "type": "Point", "coordinates": [ 129.327637, 35.477894, 10.0 ] } },
{ "type": "Feature", "properties": { "value": 116.31 }, "geometry": { "type": "Point", "coordinates": [ 129.328735, 35.477894, 10.0 ] } },
{ "type": "Feature", "properties": { "value": 11.498 }, "geometry": { "type": "Point", "coordinates": [ 129.329849, 35.47789, 10.0 ] } },
{ "type": "Feature", "properties": { "value": 28.2 }, "geometry": { "type": "Point", "coordinates": [ 129.325439, 35.478802, 10.0 ] } },
{ "type": "Feature", "properties": { "value": 154.62 }, "geometry": { "type": "Point", "coordinates": [ 129.326538, 35.478798, 10.0 ] } },
{ "type": "Feature", "properties": { "value": 226.17 }, "geometry": { "type": "Point", "coordinates": [ 129.327637, 35.478798, 10.0 ] } },
{ "type": "Feature", "properties": { "value": 91.398 }, "geometry": { "type": "Point", "coordinates": [ 129.328751, 35.478794, 10.0 ] } },
{ "type": "Feature", "properties": { "value": 9.0362 }, "geometry": { "type": "Point", "coordinates": [ 129.329849, 35.47879, 10.0 ] } },
{ "type": "Feature", "properties": { "value": 0.9957 }, "geometry": { "type": "Point", "coordinates": [ 129.324341, 35.479706, 10.0 ] } },
{ "type": "Feature", "properties": { "value": 40.408 }, "geometry": { "type": "Point", "coordinates": [ 129.325439, 35.479706, 10.0 ] } },
{ "type": "Feature", "properties": { "value": 181.94 }, "geometry": { "type": "Point", "coordinates": [ 129.326553, 35.479702, 10.0 ] } },
{ "type": "Feature", "properties": { "value": 240.96 }, "geometry": { "type": "Point", "coordinates": [ 129.327652, 35.479698, 10.0 ] } },
{ "type": "Feature", "properties": { "value": 83.701 }, "geometry": { "type": "Point", "coordinates": [ 129.328751, 35.479694, 10.0 ] } },
{ "type": "Feature", "properties": { "value": 7.2497 }, "geometry": { "type": "Point", "coordinates": [ 129.329849, 35.479691, 10.0 ] } },
{ "type": "Feature", "properties": { "value": 5.755 }, "geometry": { "type": "Point", "coordinates": [ 129.324341, 35.48061, 10.0 ] } },
{ "type": "Feature", "properties": { "value": 68.097 }, "geometry": { "type": "Point", "coordinates": [ 129.325455, 35.480606, 10.0 ] } },
{ "type": "Feature", "properties": { "value": 247.98 }, "geometry": { "type": "Point", "coordinates": [ 129.326553, 35.480602, 10.0 ] } },
{ "type": "Feature", "properties": { "value": 271.3 }, "geometry": { "type": "Point", "coordinates": [ 129.327652, 35.480598, 10.0 ] } },
{ "type": "Feature", "properties": { "value": 78.615 }, "geometry": { "type": "Point", "coordinates": [ 129.328751, 35.480595, 10.0 ] } },
{ "type": "Feature", "properties": { "value": 5.6608 }, "geometry": { "type": "Point", "coordinates": [ 129.329849, 35.480595, 10.0 ] } },
{ "type": "Feature", "properties": { "value": 14.052 }, "geometry": { "type": "Point", "coordinates": [ 129.324356, 35.48151, 10.0 ] } },
{ "type": "Feature", "properties": { "value": 115.76 }, "geometry": { "type": "Point", "coordinates": [ 129.325455, 35.481506, 10.0 ] } },
{ "type": "Feature", "properties": { "value": 308.74 }, "geometry": { "type": "Point", "coordinates": [ 129.326553, 35.481503, 10.0 ] } },
{ "type": "Feature", "properties": { "value": 255.54 }, "geometry": { "type": "Point", "coordinates": [ 129.327652, 35.481503, 10.0 ] } },
{ "type": "Feature", "properties": { "value": 62.287 }, "geometry": { "type": "Point", "coordinates": [ 129.328751, 35.481499, 10.0 ] } },
{ "type": "Feature", "properties": { "value": 3.9825 }, "geometry": { "type": "Point", "coordinates": [ 129.329865, 35.481495, 10.0 ] } },
{ "type": "Feature", "properties": { "value": 29.59 }, "geometry": { "type": "Point", "coordinates": [ 129.324356, 35.48241, 10.0 ] } },
{ "type": "Feature", "properties": { "value": 167.14 }, "geometry": { "type": "Point", "coordinates": [ 129.325455, 35.482407, 10.0 ] } },
{ "type": "Feature", "properties": { "value": 322.6 }, "geometry": { "type": "Point", "coordinates": [ 129.326553, 35.482407, 10.0 ] } },
{ "type": "Feature", "properties": { "value": 205.58 }, "geometry": { "type": "Point", "coordinates": [ 129.327652, 35.482403, 10.0 ] } },
{ "type": "Feature", "properties": { "value": 44.092 }, "geometry": { "type": "Point", "coordinates": [ 129.328766, 35.482399, 10.0 ] } },
{ "type": "Feature", "properties": { "value": 2.5575 }, "geometry": { "type": "Point", "coordinates": [ 129.329865, 35.482395, 10.0 ] } },
{ "type": "Feature", "properties": { "value": 2.6909 }, "geometry": { "type": "Point", "coordinates": [ 129.323257, 35.483315, 10.0 ] } },
{ "type": "Feature", "properties": { "value": 52.12 }, "geometry": { "type": "Point", "coordinates": [ 129.324356, 35.483311, 10.0 ] } },
{ "type": "Feature", "properties": { "value": 211.69 }, "geometry": { "type": "Point", "coordinates": [ 129.325455, 35.483311, 10.0 ] } },
{ "type": "Feature", "properties": { "value": 310.13 }, "geometry": { "type": "Point", "coordinates": [ 129.326553, 35.483307, 10.0 ] } },
{ "type": "Feature", "properties": { "value": 168.46 }, "geometry": { "type": "Point", "coordinates": [ 129.327667, 35.483303, 10.0 ] } },
{ "type": "Feature", "properties": { "value": 33.76 }, "geometry": { "type": "Point", "coordinates": [ 129.328766, 35.483299, 10.0 ] } },
{ "type": "Feature", "properties": { "value": 1.0531 }, "geometry": { "type": "Point", "coordinates": [ 129.329865, 35.483295, 10.0 ] } },
{ "type": "Feature", "properties": { "value": 10.693 }, "geometry": { "type": "Point", "coordinates": [ 129.323257, 35.484215, 10.0 ] } },
{ "type": "Feature", "properties": { "value": 84.677 }, "geometry": { "type": "Point", "coordinates": [ 129.324356, 35.484215, 10.0 ] } },
{ "type": "Feature", "properties": { "value": 253.54 }, "geometry": { "type": "Point", "coordinates": [ 129.325455, 35.484211, 10.0 ] } },
{ "type": "Feature", "properties": { "value": 298.86 }, "geometry": { "type": "Point", "coordinates": [ 129.326569, 35.484207, 10.0 ] } },
{ "type": "Feature", "properties": { "value": 144.66 }, "geometry": { "type": "Point", "coordinates": [ 129.327667, 35.484203, 10.0 ] } },
{ "type": "Feature", "properties": { "value": 26.279 }, "geometry": { "type": "Point", "coordinates": [ 129.328766, 35.484203, 10.0 ] } },
{ "type": "Feature", "properties": { "value": 24.001 }, "geometry": { "type": "Point", "coordinates": [ 129.323257, 35.485119, 10.0 ] } },
{ "type": "Feature", "properties": { "value": 126.75 }, "geometry": { "type": "Point", "coordinates": [ 129.324371, 35.485115, 10.0 ] } },
{ "type": "Feature", "properties": { "value": 286.1 }, "geometry": { "type": "Point", "coordinates": [ 129.32547, 35.485111, 10.0 ] } },
{ "type": "Feature", "properties": { "value": 272.94 }, "geometry": { "type": "Point", "coordinates": [ 129.326569, 35.485107, 10.0 ] } },
{ "type": "Feature", "properties": { "value": 111.83 }, "geometry": { "type": "Point", "coordinates": [ 129.327667, 35.485107, 10.0 ] } },
{ "type": "Feature", "properties": { "value": 17.254 }, "geometry": { "type": "Point", "coordinates": [ 129.328766, 35.485104, 10.0 ] } },
{ "type": "Feature", "properties": { "value": 4.4149 }, "geometry": { "type": "Point", "coordinates": [ 129.322159, 35.486023, 10.0 ] } },
{ "type": "Feature", "properties": { "value": 46.722 }, "geometry": { "type": "Point", "coordinates": [ 129.323273, 35.486019, 10.0 ] } },
{ "type": "Feature", "properties": { "value": 169.06 }, "geometry": { "type": "Point", "coordinates": [ 129.324371, 35.486015, 10.0 ] } },
{ "type": "Feature", "properties": { "value": 287.99 }, "geometry": { "type": "Point", "coordinates": [ 129.32547, 35.486012, 10.0 ] } },
{ "type": "Feature", "properties": { "value": 222.76 }, "geometry": { "type": "Point", "coordinates": [ 129.326569, 35.486012, 10.0 ] } },
{ "type": "Feature", "properties": { "value": 75.5 }, "geometry": { "type": "Point", "coordinates": [ 129.327667, 35.486008, 10.0 ] } },
{ "type": "Feature", "properties": { "value": 9.7094 }, "geometry": { "type": "Point", "coordinates": [ 129.328781, 35.486004, 10.0 ] } },
{ "type": "Feature", "properties": { "value": 12.77 }, "geometry": { "type": "Point", "coordinates": [ 129.322174, 35.486923, 10.0 ] } },
{ "type": "Feature", "properties": { "value": 80.208 }, "geometry": { "type": "Point", "coordinates": [ 129.323273, 35.486919, 10.0 ] } },
{ "type": "Feature", "properties": { "value": 203.07 }, "geometry": { "type": "Point", "coordinates": [ 129.324371, 35.486916, 10.0 ] } },
{ "type": "Feature", "properties": { "value": 261.16 }, "geometry": { "type": "Point", "coordinates": [ 129.32547, 35.486916, 10.0 ] } },
{ "type": "Feature", "properties": { "value": 165.88 }, "geometry": { "type": "Point", "coordinates": [ 129.326569, 35.486912, 10.0 ] } },
{ "type": "Feature", "properties": { "value": 47.712 }, "geometry": { "type": "Point", "coordinates": [ 129.327682, 35.486908, 10.0 ] } },
{ "type": "Feature", "properties": { "value": 5.2727 }, "geometry": { "type": "Point", "coordinates": [ 129.328781, 35.486904, 10.0 ] } },
{ "type": "Feature", "properties": { "value": 0.5376 }, "geometry": { "type": "Point", "coordinates": [ 129.317764, 35.487835, 10.0 ] } },
{ "type": "Feature", "properties": { "value": 2.0896 }, "geometry": { "type": "Point", "coordinates": [ 129.318863, 35.487835, 10.0 ] } },
{ "type": "Feature", "properties": { "value": 3.1183 }, "geometry": { "type": "Point", "coordinates": [ 129.319962, 35.487831, 10.0 ] } },
{ "type": "Feature", "properties": { "value": 5.1997 }, "geometry": { "type": "Point", "coordinates": [ 129.321075, 35.487827, 10.0 ] } },
{ "type": "Feature", "properties": { "value": 28.642 }, "geometry": { "type": "Point", "coordinates": [ 129.322174, 35.487823, 10.0 ] } },
{ "type": "Feature", "properties": { "value": 124.04 }, "geometry": { "type": "Point", "coordinates": [ 129.323273, 35.48782, 10.0 ] } },
{ "type": "Feature", "properties": { "value": 231.6 }, "geometry": { "type": "Point", "coordinates": [ 129.324371, 35.48782, 10.0 ] } },
{ "type": "Feature", "properties": { "value": 231.95 }, "geometry": { "type": "Point", "coordinates": [ 129.32547, 35.487816, 10.0 ] } },
{ "type": "Feature", "properties": { "value": 120.2 }, "geometry": { "type": "Point", "coordinates": [ 129.326584, 35.487812, 10.0 ] } },
{ "type": "Feature", "properties": { "value": 29.012 }, "geometry": { "type": "Point", "coordinates": [ 129.327682, 35.487808, 10.0 ] } },
{ "type": "Feature", "properties": { "value": 2.2291 }, "geometry": { "type": "Point", "coordinates": [ 129.328781, 35.487808, 10.0 ] } },
{ "type": "Feature", "properties": { "value": 0.546 }, "geometry": { "type": "Point", "coordinates": [ 129.316666, 35.488739, 10.0 ] } },
{ "type": "Feature", "properties": { "value": 4.832 }, "geometry": { "type": "Point", "coordinates": [ 129.317764, 35.488739, 10.0 ] } },
{ "type": "Feature", "properties": { "value": 12.978 }, "geometry": { "type": "Point", "coordinates": [ 129.318863, 35.488735, 10.0 ] } },
{ "type": "Feature", "properties": { "value": 18.243 }, "geometry": { "type": "Point", "coordinates": [ 129.319977, 35.488731, 10.0 ] } },
{ "type": "Feature", "properties": { "value": 25.668 }, "geometry": { "type": "Point", "coordinates": [ 129.321075, 35.488728, 10.0 ] } },
{ "type": "Feature", "properties": { "value": 73.16 }, "geometry": { "type": "Point", "coordinates": [ 129.322174, 35.488728, 10.0 ] } },
{ "type": "Feature", "properties": { "value": 183.42 }, "geometry": { "type": "Point", "coordinates": [ 129.323273, 35.488724, 10.0 ] } },
{ "type": "Feature", "properties": { "value": 266.15 }, "geometry": { "type": "Point", "coordinates": [ 129.324371, 35.48872, 10.0 ] } },
{ "type": "Feature", "properties": { "value": 211.4 }, "geometry": { "type": "Point", "coordinates": [ 129.325485, 35.488716, 10.0 ] } },
{ "type": "Feature", "properties": { "value": 87.051 }, "geometry": { "type": "Point", "coordinates": [ 129.326584, 35.488712, 10.0 ] } },
{ "type": "Feature", "properties": { "value": 17.03 }, "geometry": { "type": "Point", "coordinates": [ 129.327682, 35.488712, 10.0 ] } },
{ "type": "Feature", "properties": { "value": 3.7 }, "geometry": { "type": "Point", "coordinates": [ 129.316666, 35.489643, 10.0 ] } },
{ "type": "Feature", "properties": { "value": 16.692 }, "geometry": { "type": "Point", "coordinates": [ 129.317764, 35.489639, 10.0 ] } },
{ "type": "Feature", "properties": { "value": 41.972 }, "geometry": { "type": "Point", "coordinates": [ 129.318878, 35.489635, 10.0 ] } },
{ "type": "Feature", "properties": { "value": 61.906 }, "geometry": { "type": "Point", "coordinates": [ 129.319977, 35.489632, 10.0 ] } },
{ "type": "Feature", "properties": { "value": 74.782 }, "geometry": { "type": "Point", "coordinates": [ 129.321075, 35.489632, 10.0 ] } },
{ "type": "Feature", "properties": { "value": 135.27 }, "geometry": { "type": "Point", "coordinates": [ 129.322174, 35.489628, 10.0 ] } },
{ "type": "Feature", "properties": { "value": 255.05 }, "geometry": { "type": "Point", "coordinates": [ 129.323273, 35.489624, 10.0 ] } },
{ "type": "Feature", "properties": { "value": 296.4 }, "geometry": { "type": "Point", "coordinates": [ 129.324387, 35.48962, 10.0 ] } },
{ "type": "Feature", "properties": { "value": 187.62 }, "geometry": { "type": "Point", "coordinates": [ 129.325485, 35.489616, 10.0 ] } },
{ "type": "Feature", "properties": { "value": 60.581 }, "geometry": { "type": "Point", "coordinates": [ 129.326584, 35.489616, 10.0 ] } },
{ "type": "Feature", "properties": { "value": 9.1623 }, "geometry": { "type": "Point", "coordinates": [ 129.327682, 35.489613, 10.0 ] } },
{ "type": "Feature", "properties": { "value": 0.1963 }, "geometry": { "type": "Point", "coordinates": [ 129.315567, 35.490547, 10.0 ] } },
{ "type": "Feature", "properties": { "value": 8.1705 }, "geometry": { "type": "Point", "coordinates": [ 129.316666, 35.490543, 10.0 ] } },
{ "type": "Feature", "properties": { "value": 33.294 }, "geometry": { "type": "Point", "coordinates": [ 129.31778, 35.49054, 10.0 ] } },
{ "type": "Feature", "properties": { "value": 79.197 }, "geometry": { "type": "Point", "coordinates": [ 129.318878, 35.490536, 10.0 ] } },
{ "type": "Feature", "properties": { "value": 121.58 }, "geometry": { "type": "Point", "coordinates": [ 129.319977, 35.490536, 10.0 ] } },
{ "type": "Feature", "properties": { "value": 145.88 }, "geometry": { "type": "Point", "coordinates": [ 129.321075, 35.490532, 10.0 ] } },
{ "type": "Feature", "properties": { "value": 211.56 }, "geometry": { "type": "Point", "coordinates": [ 129.322174, 35.490528, 10.0 ] } },
{ "type": "Feature", "properties": { "value": 298.56 }, "geometry": { "type": "Point", "coordinates": [ 129.323288, 35.490524, 10.0 ] } },
{ "type": "Feature", "properties": { "value": 274.42 }, "geometry": { "type": "Point", "coordinates": [ 129.324387, 35.490524, 10.0 ] } },
{ "type": "Feature", "properties": { "value": 141.85 }, "geometry": { "type": "Point", "coordinates": [ 129.325485, 35.49052, 10.0 ] } },
{ "type": "Feature", "properties": { "value": 37.252 }, "geometry": { "type": "Point", "coordinates": [ 129.326584, 35.490517, 10.0 ] } },
{ "type": "Feature", "properties": { "value": 3.8895 }, "geometry": { "type": "Point", "coordinates": [ 129.327698, 35.490513, 10.0 ] } },
{ "type": "Feature", "properties": { "value": 1.7739 }, "geometry": { "type": "Point", "coordinates": [ 129.315567, 35.491447, 10.0 ] } },
{ "type": "Feature", "properties": { "value": 12.194 }, "geometry": { "type": "Point", "coordinates": [ 129.316681, 35.491444, 10.0 ] } },
{ "type": "Feature", "properties": { "value": 44.124 }, "geometry": { "type": "Point", "coordinates": [ 129.31778, 35.49144, 10.0 ] } },
{ "type": "Feature", "properties": { "value": 104.13 }, "geometry": { "type": "Point", "coordinates": [ 129.318878, 35.49144, 10.0 ] } },
{ "type": "Feature", "properties": { "value": 162.37 }, "geometry": { "type": "Point", "coordinates": [ 129.319977, 35.491436, 10.0 ] } },
{ "type": "Feature", "properties": { "value": 210.98 }, "geometry": { "type": "Point", "coordinates": [ 129.321091, 35.491432, 10.0 ] } },
{ "type": "Feature", "properties": { "value": 277.96 }, "geometry": { "type": "Point", "coordinates": [ 129.322189, 35.491428, 10.0 ] } },
{ "type": "Feature", "properties": { "value": 306.53 }, "geometry": { "type": "Point", "coordinates": [ 129.323288, 35.491428, 10.0 ] } },
{ "type": "Feature", "properties": { "value": 218.22 }, "geometry": { "type": "Point", "coordinates": [ 129.324387, 35.491425, 10.0 ] } },
{ "type": "Feature", "properties": { "value": 88.051 }, "geometry": { "type": "Point", "coordinates": [ 129.325485, 35.491421, 10.0 ] } },
{ "type": "Feature", "properties": { "value": 19.403 }, "geometry": { "type": "Point", "coordinates": [ 129.326599, 35.491417, 10.0 ] } },
{ "type": "Feature", "properties": { "value": 3.0567 }, "geometry": { "type": "Point", "coordinates": [ 129.315582, 35.492348, 10.0 ] } },
{ "type": "Feature", "properties": { "value": 14.832 }, "geometry": { "type": "Point", "coordinates": [ 129.316681, 35.492344, 10.0 ] } },
{ "type": "Feature", "properties": { "value": 47.629 }, "geometry": { "type": "Point", "coordinates": [ 129.31778, 35.492344, 10.0 ] } },
{ "type": "Feature", "properties": { "value": 108.01 }, "geometry": { "type": "Point", "coordinates": [ 129.318878, 35.49234, 10.0 ] } },
{ "type": "Feature", "properties": { "value": 180.12 }, "geometry": { "type": "Point", "coordinates": [ 129.319992, 35.492336, 10.0 ] } },
{ "type": "Feature", "properties": { "value": 255.25 }, "geometry": { "type": "Point", "coordinates": [ 129.321091, 35.492332, 10.0 ] } },
{ "type": "Feature", "properties": { "value": 310.14 }, "geometry": { "type": "Point", "coordinates": [ 129.322189, 35.492332, 10.0 ] } },
{ "type": "Feature", "properties": { "value": 276.78 }, "geometry": { "type": "Point", "coordinates": [ 129.323288, 35.492329, 10.0 ] } },
{ "type": "Feature", "properties": { "value": 148.38 }, "geometry": { "type": "Point", "coordinates": [ 129.324387, 35.492325, 10.0 ] } },
{ "type": "Feature", "properties": { "value": 46.177 }, "geometry": { "type": "Point", "coordinates": [ 129.3255, 35.492321, 10.0 ] } },
{ "type": "Feature", "properties": { "value": 8.2065 }, "geometry": { "type": "Point", "coordinates": [ 129.326599, 35.492317, 10.0 ] } },
{ "type": "Feature", "properties": { "value": 0.4681 }, "geometry": { "type": "Point", "coordinates": [ 129.314484, 35.493252, 10.0 ] } },
{ "type": "Feature", "properties": { "value": 4.2374 }, "geometry": { "type": "Point", "coordinates": [ 129.315582, 35.493248, 10.0 ] } },
{ "type": "Feature", "properties": { "value": 16.54 }, "geometry": { "type": "Point", "coordinates": [ 129.316681, 35.493248, 10.0 ] } },
{ "type": "Feature", "properties": { "value": 48.52 }, "geometry": { "type": "Point", "coordinates": [ 129.31778, 35.493244, 10.0 ] } },
{ "type": "Feature", "properties": { "value": 105.44 }, "geometry": { "type": "Point", "coordinates": [ 129.318893, 35.49324, 10.0 ] } },
{ "type": "Feature", "properties": { "value": 184.51 }, "geometry": { "type": "Point", "coordinates": [ 129.319992, 35.493237, 10.0 ] } },
{ "type": "Feature", "properties": { "value": 265.71 }, "geometry": { "type": "Point", "coordinates": [ 129.321091, 35.493237, 10.0 ] } },
{ "type": "Feature", "properties": { "value": 290.26 }, "geometry": { "type": "Point", "coordinates": [ 129.322189, 35.493233, 10.0 ] } },
{ "type": "Feature", "properties": { "value": 214.77 }, "geometry": { "type": "Point", "coordinates": [ 129.323288, 35.493229, 10.0 ] } },
{ "type": "Feature", "properties": { "value": 93.71 }, "geometry": { "type": "Point", "coordinates": [ 129.324402, 35.493225, 10.0 ] } },
{ "type": "Feature", "properties": { "value": 22.788 }, "geometry": { "type": "Point", "coordinates": [ 129.3255, 35.493225, 10.0 ] } },
{ "type": "Feature", "properties": { "value": 2.4828 }, "geometry": { "type": "Point", "coordinates": [ 129.326599, 35.493221, 10.0 ] } },
{ "type": "Feature", "properties": { "value": 1.1818 }, "geometry": { "type": "Point", "coordinates": [ 129.314484, 35.494152, 10.0 ] } },
{ "type": "Feature", "properties": { "value": 5.6704 }, "geometry": { "type": "Point", "coordinates": [ 129.315582, 35.494152, 10.0 ] } },
{ "type": "Feature", "properties": { "value": 18.528 }, "geometry": { "type": "Point", "coordinates": [ 129.316681, 35.494148, 10.0 ] } },
{ "type": "Feature", "properties": { "value": 47.616 }, "geometry": { "type": "Point", "coordinates": [ 129.317795, 35.494144, 10.0 ] } },
{ "type": "Feature", "properties": { "value": 97.368 }, "geometry": { "type": "Point", "coordinates": [ 129.318893, 35.494141, 10.0 ] } },
{ "type": "Feature", "properties": { "value": 165.25 }, "geometry": { "type": "Point", "coordinates": [ 129.319992, 35.494141, 10.0 ] } },
{ "type": "Feature", "properties": { "value": 223.8 }, "geometry": { "type": "Point", "coordinates": [ 129.321091, 35.494137, 10.0 ] } },
{ "type": "Feature", "properties": { "value": 217.2 }, "geometry": { "type": "Point", "coordinates": [ 129.322189, 35.494133, 10.0 ] } },
{ "type": "Feature", "properties": { "value": 137.42 }, "geometry": { "type": "Point", "coordinates": [ 129.323303, 35.494129, 10.0 ] } },
{ "type": "Feature", "properties": { "value": 51.857 }, "geometry": { "type": "Point", "coordinates": [ 129.324402, 35.494129, 10.0 ] } },
{ "type": "Feature", "properties": { "value": 10.59 }, "geometry": { "type": "Point", "coordinates": [ 129.3255, 35.494125, 10.0 ] } },
{ "type": "Feature", "properties": { "value": 1.8747 }, "geometry": { "type": "Point", "coordinates": [ 129.314484, 35.495056, 10.0 ] } },
{ "type": "Feature", "properties": { "value": 7.1976 }, "geometry": { "type": "Point", "coordinates": [ 129.315582, 35.495052, 10.0 ] } },
{ "type": "Feature", "properties": { "value": 20.001 }, "geometry": { "type": "Point", "coordinates": [ 129.316696, 35.495049, 10.0 ] } },
{ "type": "Feature", "properties": { "value": 45.104 }, "geometry": { "type": "Point", "coordinates": [ 129.317795, 35.495045, 10.0 ] } },
{ "type": "Feature", "properties": { "value": 81.449 }, "geometry": { "type": "Point", "coordinates": [ 129.318893, 35.495045, 10.0 ] } },
{ "type": "Feature", "properties": { "value": 122.86 }, "geometry": { "type": "Point", "coordinates": [ 129.319992, 35.495041, 10.0 ] } },
{ "type": "Feature", "properties": { "value": 147.02 }, "geometry": { "type": "Point", "coordinates": [ 129.321091, 35.495037, 10.0 ] } },
{ "type": "Feature", "properties": { "value": 125.37 }, "geometry": { "type": "Point", "coordinates": [ 129.322205, 35.495033, 10.0 ] } },
{ "type": "Feature", "properties": { "value": 69.587 }, "geometry": { "type": "Point", "coordinates": [ 129.323303, 35.495033, 10.0 ] } },
{ "type": "Feature", "properties": { "value": 22.838 }, "geometry": { "type": "Point", "coordinates": [ 129.324402, 35.495029, 10.0 ] } },
{ "type": "Feature", "properties": { "value": 3.7139 }, "geometry": { "type": "Point", "coordinates": [ 129.3255, 35.495026, 10.0 ] } },
{ "type": "Feature", "properties": { "value": 0.4168 }, "geometry": { "type": "Point", "coordinates": [ 129.313385, 35.49596, 10.0 ] } },
{ "type": "Feature", "properties": { "value": 2.7621 }, "geometry": { "type": "Point", "coordinates": [ 129.314484, 35.495956, 10.0 ] } },
{ "type": "Feature", "properties": { "value": 8.614 }, "geometry": { "type": "Point", "coordinates": [ 129.315598, 35.495953, 10.0 ] } },
{ "type": "Feature", "properties": { "value": 21.219 }, "geometry": { "type": "Point", "coordinates": [ 129.316696, 35.495949, 10.0 ] } },
{ "type": "Feature", "properties": { "value": 41.593 }, "geometry": { "type": "Point", "coordinates": [ 129.317795, 35.495949, 10.0 ] } },
{ "type": "Feature", "properties": { "value": 64.466 }, "geometry": { "type": "Point", "coordinates": [ 129.318893, 35.495945, 10.0 ] } },
{ "type": "Feature", "properties": { "value": 81.501 }, "geometry": { "type": "Point", "coordinates": [ 129.319992, 35.495941, 10.0 ] } },
{ "type": "Feature", "properties": { "value": 81.376 }, "geometry": { "type": "Point", "coordinates": [ 129.321106, 35.495937, 10.0 ] } },
{ "type": "Feature", "properties": { "value": 59.633 }, "geometry": { "type": "Point", "coordinates": [ 129.322205, 35.495937, 10.0 ] } },
{ "type": "Feature", "properties": { "value": 28.401 }, "geometry": { "type": "Point", "coordinates": [ 129.323303, 35.495934, 10.0 ] } },
{ "type": "Feature", "properties": { "value": 8.4256 }, "geometry": { "type": "Point", "coordinates": [ 129.324402, 35.49593, 10.0 ] } },
{ "type": "Feature", "properties": { "value": 0.4041 }, "geometry": { "type": "Point", "coordinates": [ 129.325516, 35.495926, 10.0 ] } },
{ "type": "Feature", "properties": { "value": 1.0095 }, "geometry": { "type": "Point", "coordinates": [ 129.313385, 35.496861, 10.0 ] } },
{ "type": "Feature", "properties": { "value": 3.66 }, "geometry": { "type": "Point", "coordinates": [ 129.314499, 35.496857, 10.0 ] } },
{ "type": "Feature", "properties": { "value": 10.009 }, "geometry": { "type": "Point", "coordinates": [ 129.315598, 35.496857, 10.0 ] } },
{ "type": "Feature", "properties": { "value": 22.065 }, "geometry": { "type": "Point", "coordinates": [ 129.316696, 35.496853, 10.0 ] } },
{ "type": "Feature", "properties": { "value": 38.579 }, "geometry": { "type": "Point", "coordinates": [ 129.317795, 35.496849, 10.0 ] } },
{ "type": "Feature", "properties": { "value": 53.115 }, "geometry": { "type": "Point", "coordinates": [ 129.318893, 35.496845, 10.0 ] } },
{ "type": "Feature", "properties": { "value": 57.343 }, "geometry": { "type": "Point", "coordinates": [ 129.320007, 35.496841, 10.0 ] } },
{ "type": "Feature", "properties": { "value": 47.969 }, "geometry": { "type": "Point", "coordinates": [ 129.321106, 35.496841, 10.0 ] } },
{ "type": "Feature", "properties": { "value": 29.961 }, "geometry": { "type": "Point", "coordinates": [ 129.322205, 35.496838, 10.0 ] } },
{ "type": "Feature", "properties": { "value": 13.053 }, "geometry": { "type": "Point", "coordinates": [ 129.323303, 35.496834, 10.0 ] } },
{ "type": "Feature", "properties": { "value": 3.744 }, "geometry": { "type": "Point", "coordinates": [ 129.324417, 35.49683, 10.0 ] } },
{ "type": "Feature", "properties": { "value": 0.5762 }, "geometry": { "type": "Point", "coordinates": [ 129.325516, 35.49683, 10.0 ] } },
{ "type": "Feature", "properties": { "value": 0.3128 }, "geometry": { "type": "Point", "coordinates": [ 129.312286, 35.497765, 10.0 ] } },
{ "type": "Feature", "properties": { "value": 1.5116 }, "geometry": { "type": "Point", "coordinates": [ 129.3134, 35.497761, 10.0 ] } },
{ "type": "Feature", "properties": { "value": 4.58 }, "geometry": { "type": "Point", "coordinates": [ 129.314499, 35.497761, 10.0 ] } },
{ "type": "Feature", "properties": { "value": 11.188 }, "geometry": { "type": "Point", "coordinates": [ 129.315598, 35.497757, 10.0 ] } },
{ "type": "Feature", "properties": { "value": 22.492 }, "geometry": { "type": "Point", "coordinates": [ 129.316696, 35.497753, 10.0 ] } },
{ "type": "Feature", "properties": { "value": 36.384 }, "geometry": { "type": "Point", "coordinates": [ 129.317795, 35.497749, 10.0 ] } },
{ "type": "Feature", "properties": { "value": 46.265 }, "geometry": { "type": "Point", "coordinates": [ 129.318909, 35.497749, 10.0 ] } },
{ "type": "Feature", "properties": { "value": 46.142 }, "geometry": { "type": "Point", "coordinates": [ 129.320007, 35.497746, 10.0 ] } },
{ "type": "Feature", "properties": { "value": 35.566 }, "geometry": { "type": "Point", "coordinates": [ 129.321106, 35.497742, 10.0 ] } },
{ "type": "Feature", "properties": { "value": 20.895 }, "geometry": { "type": "Point", "coordinates": [ 129.322205, 35.497738, 10.0 ] } },
{ "type": "Feature", "properties": { "value": 9.1019 }, "geometry": { "type": "Point", "coordinates": [ 129.323318, 35.497734, 10.0 ] } },
{ "type": "Feature", "properties": { "value": 3.0578 }, "geometry": { "type": "Point", "coordinates": [ 129.324417, 35.497734, 10.0 ] } },
{ "type": "Feature", "properties": { "value": 0.7121 }, "geometry": { "type": "Point", "coordinates": [ 129.325516, 35.49773, 10.0 ] } },
{ "type": "Feature", "properties": { "value": 0.0653 }, "geometry": { "type": "Point", "coordinates": [ 129.311188, 35.498669, 10.0 ] } },
{ "type": "Feature", "properties": { "value": 0.564 }, "geometry": { "type": "Point", "coordinates": [ 129.312302, 35.498665, 10.0 ] } },
{ "type": "Feature", "properties": { "value": 1.957 }, "geometry": { "type": "Point", "coordinates": [ 129.3134, 35.498665, 10.0 ] } },
{ "type": "Feature", "properties": { "value": 5.3243 }, "geometry": { "type": "Point", "coordinates": [ 129.314499, 35.498661, 10.0 ] } },
{ "type": "Feature", "properties": { "value": 12.006 }, "geometry": { "type": "Point", "coordinates": [ 129.315598, 35.498657, 10.0 ] } },
{ "type": "Feature", "properties": { "value": 22.341 }, "geometry": { "type": "Point", "coordinates": [ 129.316696, 35.498653, 10.0 ] } },
{ "type": "Feature", "properties": { "value": 33.802 }, "geometry": { "type": "Point", "coordinates": [ 129.31781, 35.498653, 10.0 ] } },
{ "type": "Feature", "properties": { "value": 41.142 }, "geometry": { "type": "Point", "coordinates": [ 129.318909, 35.49865, 10.0 ] } },
{ "type": "Feature", "properties": { "value": 39.58 }, "geometry": { "type": "Point", "coordinates": [ 129.320007, 35.498646, 10.0 ] } },
{ "type": "Feature", "properties": { "value": 29.916 }, "geometry": { "type": "Point", "coordinates": [ 129.321106, 35.498642, 10.0 ] } },
{ "type": "Feature", "properties": { "value": 17.78 }, "geometry": { "type": "Point", "coordinates": [ 129.32222, 35.498638, 10.0 ] } },
{ "type": "Feature", "properties": { "value": 8.3808 }, "geometry": { "type": "Point", "coordinates": [ 129.323318, 35.498638, 10.0 ] } },
{ "type": "Feature", "properties": { "value": 2.9925 }, "geometry": { "type": "Point", "coordinates": [ 129.324417, 35.498634, 10.0 ] } },
{ "type": "Feature", "properties": { "value": 0.8725 }, "geometry": { "type": "Point", "coordinates": [ 129.325516, 35.498631, 10.0 ] } },
{ "type": "Feature", "properties": { "value": 0.145 }, "geometry": { "type": "Point", "coordinates": [ 129.311203, 35.499569, 10.0 ] } },
{ "type": "Feature", "properties": { "value": 0.75 }, "geometry": { "type": "Point", "coordinates": [ 129.312302, 35.499569, 10.0 ] } },
{ "type": "Feature", "properties": { "value": 2.2939 }, "geometry": { "type": "Point", "coordinates": [ 129.3134, 35.499565, 10.0 ] } },
{ "type": "Feature", "properties": { "value": 5.7491 }, "geometry": { "type": "Point", "coordinates": [ 129.314499, 35.499561, 10.0 ] } },
{ "type": "Feature", "properties": { "value": 12.091 }, "geometry": { "type": "Point", "coordinates": [ 129.315598, 35.499557, 10.0 ] } },
{ "type": "Feature", "properties": { "value": 21.112 }, "geometry": { "type": "Point", "coordinates": [ 129.316711, 35.499557, 10.0 ] } },
{ "type": "Feature", "properties": { "value": 30.431 }, "geometry": { "type": "Point", "coordinates": [ 129.31781, 35.499554, 10.0 ] } },
{ "type": "Feature", "properties": { "value": 35.509 }, "geometry": { "type": "Point", "coordinates": [ 129.318909, 35.49955, 10.0 ] } },
{ "type": "Feature", "properties": { "value": 33.725 }, "geometry": { "type": "Point", "coordinates": [ 129.320007, 35.499546, 10.0 ] } },
{ "type": "Feature", "properties": { "value": 25.332 }, "geometry": { "type": "Point", "coordinates": [ 129.321121, 35.499546, 10.0 ] } },
{ "type": "Feature", "properties": { "value": 15.252 }, "geometry": { "type": "Point", "coordinates": [ 129.32222, 35.499542, 10.0 ] } },
{ "type": "Feature", "properties": { "value": 7.3678 }, "geometry": { "type": "Point", "coordinates": [ 129.323318, 35.499538, 10.0 ] } },
{ "type": "Feature", "properties": { "value": 2.7821 }, "geometry": { "type": "Point", "coordinates": [ 129.324417, 35.499535, 10.0 ] } },
{ "type": "Feature", "properties": { "value": 0.8458 }, "geometry": { "type": "Point", "coordinates": [ 129.325531, 35.499531, 10.0 ] } },
{ "type": "Feature", "properties": { "value": 0.0515 }, "geometry": { "type": "Point", "coordinates": [ 129.32663, 35.499531, 10.0 ] } },
{ "type": "Feature", "properties": { "value": 0.2257 }, "geometry": { "type": "Point", "coordinates": [ 129.311203, 35.500473, 10.0 ] } },
{ "type": "Feature", "properties": { "value": 0.8204 }, "geometry": { "type": "Point", "coordinates": [ 129.312302, 35.500469, 10.0 ] } },
{ "type": "Feature", "properties": { "value": 2.384 }, "geometry": { "type": "Point", "coordinates": [ 129.3134, 35.500465, 10.0 ] } },
{ "type": "Feature", "properties": { "value": 5.6802 }, "geometry": { "type": "Point", "coordinates": [ 129.314499, 35.500462, 10.0 ] } },
{ "type": "Feature", "properties": { "value": 11.265 }, "geometry": { "type": "Point", "coordinates": [ 129.315613, 35.500462, 10.0 ] } },
{ "type": "Feature", "properties": { "value": 18.717 }, "geometry": { "type": "Point", "coordinates": [ 129.316711, 35.500458, 10.0 ] } },
{ "type": "Feature", "properties": { "value": 25.717 }, "geometry": { "type": "Point", "coordinates": [ 129.31781, 35.500454, 10.0 ] } },
{ "type": "Feature", "properties": { "value": 29.155 }, "geometry": { "type": "Point", "coordinates": [ 129.318909, 35.50045, 10.0 ] } },
{ "type": "Feature", "properties": { "value": 27.161 }, "geometry": { "type": "Point", "coordinates": [ 129.320023, 35.50045, 10.0 ] } },
{ "type": "Feature", "properties": { "value": 20.375 }, "geometry": { "type": "Point", "coordinates": [ 129.321121, 35.500446, 10.0 ] } },
{ "type": "Feature", "properties": { "value": 12.499 }, "geometry": { "type": "Point", "coordinates": [ 129.32222, 35.500443, 10.0 ] } },
{ "type": "Feature", "properties": { "value": 6.1687 }, "geometry": { "type": "Point", "coordinates": [ 129.323318, 35.500439, 10.0 ] } },
{ "type": "Feature", "properties": { "value": 2.4846 }, "geometry": { "type": "Point", "coordinates": [ 129.324432, 35.500435, 10.0 ] } },
{ "type": "Feature", "properties": { "value": 0.7574 }, "geometry": { "type": "Point", "coordinates": [ 129.325531, 35.500435, 10.0 ] } },
{ "type": "Feature", "properties": { "value": 0.0887 }, "geometry": { "type": "Point", "coordinates": [ 129.32663, 35.500431, 10.0 ] } },
{ "type": "Feature", "properties": { "value": 0.0291 }, "geometry": { "type": "Point", "coordinates": [ 129.310104, 35.501377, 10.0 ] } },
{ "type": "Feature", "properties": { "value": 0.225 }, "geometry": { "type": "Point", "coordinates": [ 129.311203, 35.501373, 10.0 ] } },
{ "type": "Feature", "properties": { "value": 0.8238 }, "geometry": { "type": "Point", "coordinates": [ 129.312302, 35.501369, 10.0 ] } },
{ "type": "Feature", "properties": { "value": 2.1976 }, "geometry": { "type": "Point", "coordinates": [ 129.3134, 35.501366, 10.0 ] } },
{ "type": "Feature", "properties": { "value": 5.0165 }, "geometry": { "type": "Point", "coordinates": [ 129.314514, 35.501366, 10.0 ] } },
{ "type": "Feature", "properties": { "value": 9.5644 }, "geometry": { "type": "Point", "coordinates": [ 129.315613, 35.501362, 10.0 ] } },
{ "type": "Feature", "properties": { "value": 15.187 }, "geometry": { "type": "Point", "coordinates": [ 129.316711, 35.501358, 10.0 ] } },
{ "type": "Feature", "properties": { "value": 20.189 }, "geometry": { "type": "Point", "coordinates": [ 129.31781, 35.501354, 10.0 ] } },
{ "type": "Feature", "properties": { "value": 22.485 }, "geometry": { "type": "Point", "coordinates": [ 129.318924, 35.501354, 10.0 ] } },
{ "type": "Feature", "properties": { "value": 20.479 }, "geometry": { "type": "Point", "coordinates": [ 129.320023, 35.50135, 10.0 ] } },
{ "type": "Feature", "properties": { "value": 15.428 }, "geometry": { "type": "Point", "coordinates": [ 129.321121, 35.501347, 10.0 ] } },
{ "type": "Feature", "properties": { "value": 9.5475 }, "geometry": { "type": "Point", "coordinates": [ 129.32222, 35.501343, 10.0 ] } },
{ "type": "Feature", "properties": { "value": 4.8164 }, "geometry": { "type": "Point", "coordinates": [ 129.323334, 35.501339, 10.0 ] } },
{ "type": "Feature", "properties": { "value": 1.9693 }, "geometry": { "type": "Point", "coordinates": [ 129.324432, 35.501339, 10.0 ] } },
{ "type": "Feature", "properties": { "value": 0.62 }, "geometry": { "type": "Point", "coordinates": [ 129.325531, 35.501335, 10.0 ] } },
{ "type": "Feature", "properties": { "value": 0.069 }, "geometry": { "type": "Point", "coordinates": [ 129.32663, 35.501331, 10.0 ] } }
]
}
