{
"type": "FeatureCollection",
"features": [
{ "type": "Feature", "properties": { "value": 147.33 }, "geometry": { "type": "Point", "coordinates": [ 129.326462, 35.458069, 30.0 ] } },
{ "type": "Feature", "properties": { "value": 65.175 }, "geometry": { "type": "Point", "coordinates": [ 129.32756, 35.458069, 30.0 ] } },
{ "type": "Feature", "properties": { "value": 1.7463 }, "geometry": { "type": "Point", "coordinates": [ 129.325363, 35.458973, 30.0 ] } },
{ "type": "Feature", "properties": { "value": 131.21 }, "geometry": { "type": "Point", "coordinates": [ 129.326462, 35.458973, 30.0 ] } },
{ "type": "Feature", "properties": { "value": 77.259 }, "geometry": { "type": "Point", "coordinates": [ 129.32756, 35.458969, 30.0 ] } },
{ "type": "Feature", "properties": { "value": 2.5194 }, "geometry": { "type": "Point", "coordinates": [ 129.325363, 35.459877, 30.0 ] } },
{ "type": "Feature", "properties": { "value": 35.306 }, "geometry": { "type": "Point", "coordinates": [ 129.326462, 35.459873, 30.0 ] } },
{ "type": "Feature", "properties": { "value": 23.425 }, "geometry": { "type": "Point", "coordinates": [ 129.32756, 35.459869, 30.0 ] } },
{ "type": "Feature", "properties": { "value": 0.5801 }, "geometry": { "type": "Point", "coordinates": [ 129.328674, 35.459866, 30.0 ] } },
{ "type": "Feature", "properties": { "value": 0.239 }, "geometry": { "type": "Point", "coordinates": [ 129.325363, 35.460777, 30.0 ] } },
{ "type": "Feature", "properties": { "value": 2.3498 }, "geometry": { "type": "Point", "coordinates": [ 129.326477, 35.460773, 30.0 ] } },
{ "type": "Feature", "properties": { "value": 1.6428 }, "geometry": { "type": "Point", "coordinates": [ 129.327576, 35.46077, 30.0 ] } }
]
}
