{
"type": "FeatureCollection",
"features": [
{ "type": "Feature", "properties": { "value": 15.891 }, "geometry": { "type": "Point", "coordinates": [ 129.295547, 35.43832, 10.0 ] } },
{ "type": "Feature", "properties": { "value": 104.69 }, "geometry": { "type": "Point", "coordinates": [ 129.296646, 35.43832, 10.0 ] } },
{ "type": "Feature", "properties": { "value": 0.6882 }, "geometry": { "type": "Point", "coordinates": [ 129.294449, 35.439224, 10.0 ] } },
{ "type": "Feature", "properties": { "value": 330.64 }, "geometry": { "type": "Point", "coordinates": [ 129.295547, 35.439224, 10.0 ] } },
{ "type": "Feature", "properties": { "value": 336.68 }, "geometry": { "type": "Point", "coordinates": [ 129.296646, 35.43922, 10.0 ] } },
{ "type": "Feature", "properties": { "value": 0.0 }, "geometry": { "type": "Point", "coordinates": [ 129.297745, 35.439217, 10.0 ] } },
{ "type": "Feature", "properties": { "value": 0.6548 }, "geometry": { "type": "Point", "coordinates": [ 129.29335, 35.440128, 10.0 ] } },
{ "type": "Feature", "properties": { "value": 52.502 }, "geometry": { "type": "Point", "coordinates": [ 129.294449, 35.440128, 10.0 ] } },
{ "type": "Feature", "properties": { "value": 270.39 }, "geometry": { "type": "Point", "coordinates": [ 129.295547, 35.440125, 10.0 ] } },
{ "type": "Feature", "properties": { "value": 47.018 }, "geometry": { "type": "Point", "coordinates": [ 129.296646, 35.440121, 10.0 ] } },
{ "type": "Feature", "properties": { "value": 0.0 }, "geometry": { "type": "Point", "coordinates": [ 129.297745, 35.440117, 10.0 ] } },
{ "type": "Feature", "properties": { "value": 0.021 }, "geometry": { "type": "Point", "coordinates": [ 129.291153, 35.441036, 10.0 ] } },
{ "type": "Feature", "properties": { "value": 0.8291 }, "geometry": { "type": "Point", "coordinates": [ 129.292252, 35.441032, 10.0 ] } },
{ "type": "Feature", "properties": { "value": 10.593 }, "geometry": { "type": "Point", "coordinates": [ 129.29335, 35.441029, 10.0 ] } },
{ "type": "Feature", "properties": { "value": 91.875 }, "geometry": { "type": "Point", "coordinates": [ 129.294449, 35.441029, 10.0 ] } },
{ "type": "Feature", "properties": { "value": 138.5 }, "geometry": { "type": "Point", "coordinates": [ 129.295547, 35.441025, 10.0 ] } },
{ "type": "Feature", "properties": { "value": 6.6829 }, "geometry": { "type": "Point", "coordinates": [ 129.296646, 35.441021, 10.0 ] } },
{ "type": "Feature", "properties": { "value": 0.68 }, "geometry": { "type": "Point", "coordinates": [ 129.291153, 35.441936, 10.0 ] } },
{ "type": "Feature", "properties": { "value": 4.2348 }, "geometry": { "type": "Point", "coordinates": [ 129.292252, 35.441933, 10.0 ] } },
{ "type": "Feature", "properties": { "value": 22.185 }, "geometry": { "type": "Point", "coordinates": [ 129.29335, 35.441933, 10.0 ] } },
{ "type": "Feature", "properties": { "value": 61.073 }, "geometry": { "type": "Point", "coordinates": [ 129.294449, 35.441929, 10.0 ] } },
{ "type": "Feature", "properties": { "value": 41.76 }, "geometry": { "type": "Point", "coordinates": [ 129.295547, 35.441925, 10.0 ] } },
{ "type": "Feature", "properties": { "value": 2.8129 }, "geometry": { "type": "Point", "coordinates": [ 129.296661, 35.441925, 10.0 ] } },
{ "type": "Feature", "properties": { "value": 0.4205 }, "geometry": { "type": "Point", "coordinates": [ 129.290054, 35.442841, 10.0 ] } },
{ "type": "Feature", "properties": { "value": 2.2639 }, "geometry": { "type": "Point", "coordinates": [ 129.291153, 35.442837, 10.0 ] } },
{ "type": "Feature", "properties": { "value": 8.8146 }, "geometry": { "type": "Point", "coordinates": [ 129.292252, 35.442837, 10.0 ] } },
{ "type": "Feature", "properties": { "value": 23.148 }, "geometry": { "type": "Point", "coordinates": [ 129.29335, 35.442833, 10.0 ] } },
{ "type": "Feature", "properties": { "value": 32.545 }, "geometry": { "type": "Point", "coordinates": [ 129.294464, 35.442829, 10.0 ] } },
{ "type": "Feature", "properties": { "value": 15.745 }, "geometry": { "type": "Point", "coordinates": [ 129.295563, 35.442829, 10.0 ] } },
{ "type": "Feature", "properties": { "value": 1.8847 }, "geometry": { "type": "Point", "coordinates": [ 129.296661, 35.442825, 10.0 ] } },
{ "type": "Feature", "properties": { "value": 0.018 }, "geometry": { "type": "Point", "coordinates": [ 129.29776, 35.442822, 10.0 ] } },
{ "type": "Feature", "properties": { "value": 0.182 }, "geometry": { "type": "Point", "coordinates": [ 129.288956, 35.443745, 10.0 ] } },
{ "type": "Feature", "properties": { "value": 1.1031 }, "geometry": { "type": "Point", "coordinates": [ 129.290054, 35.443741, 10.0 ] } },
{ "type": "Feature", "properties": { "value": 4.4195 }, "geometry": { "type": "Point", "coordinates": [ 129.291153, 35.443741, 10.0 ] } },
{ "type": "Feature", "properties": { "value": 12.246 }, "geometry": { "type": "Point", "coordinates": [ 129.292252, 35.443737, 10.0 ] } },
{ "type": "Feature", "properties": { "value": 21.122 }, "geometry": { "type": "Point", "coordinates": [ 129.293365, 35.443733, 10.0 ] } },
{ "type": "Feature", "properties": { "value": 19.753 }, "geometry": { "type": "Point", "coordinates": [ 129.294464, 35.443733, 10.0 ] } },
{ "type": "Feature", "properties": { "value": 8.4445 }, "geometry": { "type": "Point", "coordinates": [ 129.295563, 35.443729, 10.0 ] } },
{ "type": "Feature", "properties": { "value": 1.4889 }, "geometry": { "type": "Point", "coordinates": [ 129.296661, 35.443726, 10.0 ] } },
{ "type": "Feature", "properties": { "value": 0.0172 }, "geometry": { "type": "Point", "coordinates": [ 129.29776, 35.443722, 10.0 ] } },
{ "type": "Feature", "properties": { "value": 0.0522 }, "geometry": { "type": "Point", "coordinates": [ 129.287857, 35.444649, 10.0 ] } },
{ "type": "Feature", "properties": { "value": 0.4224 }, "geometry": { "type": "Point", "coordinates": [ 129.288956, 35.444645, 10.0 ] } },
{ "type": "Feature", "properties": { "value": 1.8859 }, "geometry": { "type": "Point", "coordinates": [ 129.290054, 35.444645, 10.0 ] } },
{ "type": "Feature", "properties": { "value": 5.9736 }, "geometry": { "type": "Point", "coordinates": [ 129.291153, 35.444641, 10.0 ] } },
{ "type": "Feature", "properties": { "value": 12.956 }, "geometry": { "type": "Point", "coordinates": [ 129.292267, 35.444637, 10.0 ] } },
{ "type": "Feature", "properties": { "value": 17.598 }, "geometry": { "type": "Point", "coordinates": [ 129.293365, 35.444637, 10.0 ] } },
{ "type": "Feature", "properties": { "value": 13.665 }, "geometry": { "type": "Point", "coordinates": [ 129.294464, 35.444633, 10.0 ] } },
{ "type": "Feature", "properties": { "value": 5.5932 }, "geometry": { "type": "Point", "coordinates": [ 129.295563, 35.44463, 10.0 ] } },
{ "type": "Feature", "properties": { "value": 1.1575 }, "geometry": { "type": "Point", "coordinates": [ 129.296661, 35.444626, 10.0 ] } },
{ "type": "Feature", "properties": { "value": 0.0506 }, "geometry": { "type": "Point", "coordinates": [ 129.297775, 35.444626, 10.0 ] } },
{ "type": "Feature", "properties": { "value": 0.1098 }, "geometry": { "type": "Point", "coordinates": [ 129.287857, 35.445549, 10.0 ] } },
{ "type": "Feature", "properties": { "value": 0.5895 }, "geometry": { "type": "Point", "coordinates": [ 129.288956, 35.445549, 10.0 ] } },
{ "type": "Feature", "properties": { "value": 2.2505 }, "geometry": { "type": "Point", "coordinates": [ 129.290054, 35.445545, 10.0 ] } },
{ "type": "Feature", "properties": { "value": 6.0474 }, "geometry": { "type": "Point", "coordinates": [ 129.291168, 35.445541, 10.0 ] } },
{ "type": "Feature", "properties": { "value": 10.953 }, "geometry": { "type": "Point", "coordinates": [ 129.292267, 35.445541, 10.0 ] } },
{ "type": "Feature", "properties": { "value": 12.754 }, "geometry": { "type": "Point", "coordinates": [ 129.293365, 35.445538, 10.0 ] } },
{ "type": "Feature", "properties": { "value": 8.9637 }, "geometry": { "type": "Point", "coordinates": [ 129.294464, 35.445534, 10.0 ] } },
{ "type": "Feature", "properties": { "value": 3.6235 }, "geometry": { "type": "Point", "coordinates": [ 129.295563, 35.44553, 10.0 ] } },
{ "type": "Feature", "properties": { "value": 0.8254 }, "geometry": { "type": "Point", "coordinates": [ 129.296677, 35.44553, 10.0 ] } },
{ "type": "Feature", "properties": { "value": 0.0614 }, "geometry": { "type": "Point", "coordinates": [ 129.297775, 35.445526, 10.0 ] } },
{ "type": "Feature", "properties": { "value": 0.0093 }, "geometry": { "type": "Point", "coordinates": [ 129.286758, 35.446453, 10.0 ] } },
{ "type": "Feature", "properties": { "value": 0.1213 }, "geometry": { "type": "Point", "coordinates": [ 129.287857, 35.446453, 10.0 ] } },
{ "type": "Feature", "properties": { "value": 0.5893 }, "geometry": { "type": "Point", "coordinates": [ 129.288956, 35.446449, 10.0 ] } },
{ "type": "Feature", "properties": { "value": 1.9898 }, "geometry": { "type": "Point", "coordinates": [ 129.29007, 35.446445, 10.0 ] } },
{ "type": "Feature", "properties": { "value": 4.6753 }, "geometry": { "type": "Point", "coordinates": [ 129.291168, 35.446442, 10.0 ] } },
{ "type": "Feature", "properties": { "value": 7.5294 }, "geometry": { "type": "Point", "coordinates": [ 129.292267, 35.446442, 10.0 ] } },
{ "type": "Feature", "properties": { "value": 7.9425 }, "geometry": { "type": "Point", "coordinates": [ 129.293365, 35.446438, 10.0 ] } },
{ "type": "Feature", "properties": { "value": 5.2777 }, "geometry": { "type": "Point", "coordinates": [ 129.294464, 35.446434, 10.0 ] } },
{ "type": "Feature", "properties": { "value": 2.1486 }, "geometry": { "type": "Point", "coordinates": [ 129.295578, 35.446434, 10.0 ] } },
{ "type": "Feature", "properties": { "value": 0.5321 }, "geometry": { "type": "Point", "coordinates": [ 129.296677, 35.44643, 10.0 ] } },
{ "type": "Feature", "properties": { "value": 0.0618 }, "geometry": { "type": "Point", "coordinates": [ 129.297775, 35.446426, 10.0 ] } },
{ "type": "Feature", "properties": { "value": 0.0872 }, "geometry": { "type": "Point", "coordinates": [ 129.287872, 35.447353, 10.0 ] } },
{ "type": "Feature", "properties": { "value": 0.4152 }, "geometry": { "type": "Point", "coordinates": [ 129.288971, 35.44735, 10.0 ] } },
{ "type": "Feature", "properties": { "value": 1.2988 }, "geometry": { "type": "Point", "coordinates": [ 129.29007, 35.447346, 10.0 ] } },
{ "type": "Feature", "properties": { "value": 2.8171 }, "geometry": { "type": "Point", "coordinates": [ 129.291168, 35.447346, 10.0 ] } },
{ "type": "Feature", "properties": { "value": 4.1714 }, "geometry": { "type": "Point", "coordinates": [ 129.292267, 35.447342, 10.0 ] } },
{ "type": "Feature", "properties": { "value": 4.1089 }, "geometry": { "type": "Point", "coordinates": [ 129.293365, 35.447338, 10.0 ] } },
{ "type": "Feature", "properties": { "value": 2.6554 }, "geometry": { "type": "Point", "coordinates": [ 129.294479, 35.447338, 10.0 ] } },
{ "type": "Feature", "properties": { "value": 1.0992 }, "geometry": { "type": "Point", "coordinates": [ 129.295578, 35.447334, 10.0 ] } },
{ "type": "Feature", "properties": { "value": 0.2877 }, "geometry": { "type": "Point", "coordinates": [ 129.296677, 35.44733, 10.0 ] } },
{ "type": "Feature", "properties": { "value": 0.0274 }, "geometry": { "type": "Point", "coordinates": [ 129.297775, 35.44733, 10.0 ] } },
{ "type": "Feature", "properties": { "value": 0.0437 }, "geometry": { "type": "Point", "coordinates": [ 129.287872, 35.448254, 10.0 ] } },
{ "type": "Feature", "properties": { "value": 0.2124 }, "geometry": { "type": "Point", "coordinates": [ 129.288971, 35.44825, 10.0 ] } },
{ "type": "Feature", "properties": { "value": 0.632 }, "geometry": { "type": "Point", "coordinates": [ 129.29007, 35.44825, 10.0 ] } },
{ "type": "Feature", "properties": { "value": 1.3011 }, "geometry": { "type": "Point", "coordinates": [ 129.291168, 35.448246, 10.0 ] } },
{ "type": "Feature", "properties": { "value": 1.8217 }, "geometry": { "type": "Point", "coordinates": [ 129.292267, 35.448242, 10.0 ] } },
{ "type": "Feature", "properties": { "value": 1.7256 }, "geometry": { "type": "Point", "coordinates": [ 129.293381, 35.448242, 10.0 ] } },
{ "type": "Feature", "properties": { "value": 1.0963 }, "geometry": { "type": "Point", "coordinates": [ 129.294479, 35.448238, 10.0 ] } },
{ "type": "Feature", "properties": { "value": 0.4544 }, "geometry": { "type": "Point", "coordinates": [ 129.295578, 35.448235, 10.0 ] } },
{ "type": "Feature", "properties": { "value": 0.1242 }, "geometry": { "type": "Point", "coordinates": [ 129.296677, 35.448235, 10.0 ] } },
{ "type": "Feature", "properties": { "value": 0.0122 }, "geometry": { "type": "Point", "coordinates": [ 129.287872, 35.449154, 10.0 ] } },
{ "type": "Feature", "properties": { "value": 0.0699 }, "geometry": { "type": "Point", "coordinates": [ 129.288971, 35.449154, 10.0 ] } },
{ "type": "Feature", "properties": { "value": 0.2264 }, "geometry": { "type": "Point", "coordinates": [ 129.29007, 35.44915, 10.0 ] } },
{ "type": "Feature", "properties": { "value": 0.4439 }, "geometry": { "type": "Point", "coordinates": [ 129.291168, 35.449146, 10.0 ] } },
{ "type": "Feature", "properties": { "value": 0.61 }, "geometry": { "type": "Point", "coordinates": [ 129.292282, 35.449146, 10.0 ] } },
{ "type": "Feature", "properties": { "value": 0.565 }, "geometry": { "type": "Point", "coordinates": [ 129.293381, 35.449142, 10.0 ] } },
{ "type": "Feature", "properties": { "value": 0.3478 }, "geometry": { "type": "Point", "coordinates": [ 129.294479, 35.449139, 10.0 ] } },
{ "type": "Feature", "properties": { "value": 0.1491 }, "geometry": { "type": "Point", "coordinates": [ 129.295578, 35.449135, 10.0 ] } },
{ "type": "Feature", "properties": { "value": 0.0344 }, "geometry": { "type": "Point", "coordinates": [ 129.296677, 35.449135, 10.0 ] } },
{ "type": "Feature", "properties": { "value": 0.0139 }, "geometry": { "type": "Point", "coordinates": [ 129.288971, 35.450054, 10.0 ] } },
{ "type": "Feature", "properties": { "value": 0.0538 }, "geometry": { "type": "Point", "coordinates": [ 129.290085, 35.45005, 10.0 ] } },
{ "type": "Feature", "properties": { "value": 0.1111 }, "geometry": { "type": "Point", "coordinates": [ 129.291183, 35.45005, 10.0 ] } },
{ "type": "Feature", "properties": { "value": 0.1465 }, "geometry": { "type": "Point", "coordinates": [ 129.292282, 35.450047, 10.0 ] } },
{ "type": "Feature", "properties": { "value": 0.1331 }, "geometry": { "type": "Point", "coordinates": [ 129.293381, 35.450043, 10.0 ] } },
{ "type": "Feature", "properties": { "value": 0.0741 }, "geometry": { "type": "Point", "coordinates": [ 129.294479, 35.450039, 10.0 ] } },
{ "type": "Feature", "properties": { "value": 0.0321 }, "geometry": { "type": "Point", "coordinates": [ 129.295578, 35.450039, 10.0 ] } },
{ "type": "Feature", "properties": { "value": 0.0077 }, "geometry": { "type": "Point", "coordinates": [ 129.290085, 35.450954, 10.0 ] } },
{ "type": "Feature", "properties": { "value": 0.0141 }, "geometry": { "type": "Point", "coordinates": [ 129.291183, 35.450951, 10.0 ] } },
{ "type": "Feature", "properties": { "value": 0.0259 }, "geometry": { "type": "Point", "coordinates": [ 129.292282, 35.450947, 10.0 ] } },
{ "type": "Feature", "properties": { "value": 0.0159 }, "geometry": { "type": "Point", "coordinates": [ 129.293381, 35.450943, 10.0 ] } },
{ "type": "Feature", "properties": { "value": 0.0098 }, "geometry": { "type": "Point", "coordinates": [ 129.294479, 35.450943, 10.0 ] } },
{ "type": "Feature", "properties": { "value": 108.31 }, "geometry": { "type": "Point", "coordinates": [ 129.326462, 35.458069, 10.0 ] } },
{ "type": "Feature", "properties": { "value": 17.959 }, "geometry": { "type": "Point", "coordinates": [ 129.32756, 35.458069, 10.0 ] } },
{ "type": "Feature", "properties": { "value": 267.47 }, "geometry": { "type": "Point", "coordinates": [ 129.326462, 35.458973, 10.0 ] } },
{ "type": "Feature", "properties": { "value": 81.245 }, "geometry": { "type": "Point", "coordinates": [ 129.32756, 35.458969, 10.0 ] } },
{ "type": "Feature", "properties": { "value": 268.05 }, "geometry": { "type": "Point", "coordinates": [ 129.326462, 35.459873, 10.0 ] } },
{ "type": "Feature", "properties": { "value": 113.65 }, "geometry": { "type": "Point", "coordinates": [ 129.32756, 35.459869, 10.0 ] } },
{ "type": "Feature", "properties": { "value": 12.03 }, "geometry": { "type": "Point", "coordinates": [ 129.325363, 35.460777, 10.0 ] } },
{ "type": "Feature", "properties": { "value": 200.81 }, "geometry": { "type": "Point", "coordinates": [ 129.326477, 35.460773, 10.0 ] } },
{ "type": "Feature", "properties": { "value": 102.65 }, "geometry": { "type": "Point", "coordinates": [ 129.327576, 35.46077, 10.0 ] } },
{ "type": "Feature", "properties": { "value": 27.654 }, "geometry": { "type": "Point", "coordinates": [ 129.325378, 35.461678, 10.0 ] } },
{ "type": "Feature", "properties": { "value": 167.58 }, "geometry": { "type": "Point", "coordinates": [ 129.326477, 35.461674, 10.0 ] } },
{ "type": "Feature", "properties": { "value": 94.701 }, "geometry": { "type": "Point", "coordinates": [ 129.327576, 35.461674, 10.0 ] } },
{ "type": "Feature", "properties": { "value": 2.749 }, "geometry": { "type": "Point", "coordinates": [ 129.328674, 35.46167, 10.0 ] } },
{ "type": "Feature", "properties": { "value": 1.3563 }, "geometry": { "type": "Point", "coordinates": [ 129.32428, 35.462582, 10.0 ] } },
{ "type": "Feature", "properties": { "value": 44.392 }, "geometry": { "type": "Point", "coordinates": [ 129.325378, 35.462578, 10.0 ] } },
{ "type": "Feature", "properties": { "value": 147.71 }, "geometry": { "type": "Point", "coordinates": [ 129.326477, 35.462578, 10.0 ] } },
{ "type": "Feature", "properties": { "value": 86.998 }, "geometry": { "type": "Point", "coordinates": [ 129.327576, 35.462574, 10.0 ] } },
{ "type": "Feature", "properties": { "value": 5.7865 }, "geometry": { "type": "Point", "coordinates": [ 129.328674, 35.46257, 10.0 ] } },
{ "type": "Feature", "properties": { "value": 6.8995 }, "geometry": { "type": "Point", "coordinates": [ 129.32428, 35.463486, 10.0 ] } },
{ "type": "Feature", "properties": { "value": 55.121 }, "geometry": { "type": "Point", "coordinates": [ 129.325378, 35.463482, 10.0 ] } },
{ "type": "Feature", "properties": { "value": 129.64 }, "geometry": { "type": "Point", "coordinates": [ 129.326477, 35.463478, 10.0 ] } },
{ "type": "Feature", "properties": { "value": 76.193 }, "geometry": { "type": "Point", "coordinates": [ 129.327576, 35.463474, 10.0 ] } },
{ "type": "Feature", "properties": { "value": 9.5252 }, "geometry": { "type": "Point", "coordinates": [ 129.32869, 35.46347, 10.0 ] } },
{ "type": "Feature", "properties": { "value": 0.9964 }, "geometry": { "type": "Point", "coordinates": [ 129.323181, 35.46439, 10.0 ] } },
{ "type": "Feature", "properties": { "value": 12.224 }, "geometry": { "type": "Point", "coordinates": [ 129.32428, 35.464386, 10.0 ] } },
{ "type": "Feature", "properties": { "value": 56.49 }, "geometry": { "type": "Point", "coordinates": [ 129.325378, 35.464382, 10.0 ] } },
{ "type": "Feature", "properties": { "value": 103.15 }, "geometry": { "type": "Point", "coordinates": [ 129.326477, 35.464378, 10.0 ] } },
{ "type": "Feature", "properties": { "value": 62.392 }, "geometry": { "type": "Point", "coordinates": [ 129.327591, 35.464375, 10.0 ] } },
{ "type": "Feature", "properties": { "value": 12.543 }, "geometry": { "type": "Point", "coordinates": [ 129.32869, 35.464375, 10.0 ] } },
{ "type": "Feature", "properties": { "value": 0.6373 }, "geometry": { "type": "Point", "coordinates": [ 129.329788, 35.464371, 10.0 ] } },
{ "type": "Feature", "properties": { "value": 2.9132 }, "geometry": { "type": "Point", "coordinates": [ 129.323181, 35.46529, 10.0 ] } },
{ "type": "Feature", "properties": { "value": 16.485 }, "geometry": { "type": "Point", "coordinates": [ 129.32428, 35.465286, 10.0 ] } },
{ "type": "Feature", "properties": { "value": 51.091 }, "geometry": { "type": "Point", "coordinates": [ 129.325394, 35.465282, 10.0 ] } },
{ "type": "Feature", "properties": { "value": 76.21 }, "geometry": { "type": "Point", "coordinates": [ 129.326492, 35.465279, 10.0 ] } },
{ "type": "Feature", "properties": { "value": 49.483 }, "geometry": { "type": "Point", "coordinates": [ 129.327591, 35.465279, 10.0 ] } },
{ "type": "Feature", "properties": { "value": 13.898 }, "geometry": { "type": "Point", "coordinates": [ 129.32869, 35.465275, 10.0 ] } },
{ "type": "Feature", "properties": { "value": 1.824 }, "geometry": { "type": "Point", "coordinates": [ 129.329788, 35.465271, 10.0 ] } },
{ "type": "Feature", "properties": { "value": 0.6816 }, "geometry": { "type": "Point", "coordinates": [ 129.322083, 35.466194, 10.0 ] } },
{ "type": "Feature", "properties": { "value": 4.6393 }, "geometry": { "type": "Point", "coordinates": [ 129.323181, 35.46619, 10.0 ] } },
{ "type": "Feature", "properties": { "value": 18.622 }, "geometry": { "type": "Point", "coordinates": [ 129.324295, 35.466187, 10.0 ] } },
{ "type": "Feature", "properties": { "value": 44.051 }, "geometry": { "type": "Point", "coordinates": [ 129.325394, 35.466187, 10.0 ] } },
{ "type": "Feature", "properties": { "value": 57.314 }, "geometry": { "type": "Point", "coordinates": [ 129.326492, 35.466183, 10.0 ] } },
{ "type": "Feature", "properties": { "value": 39.483 }, "geometry": { "type": "Point", "coordinates": [ 129.327591, 35.466179, 10.0 ] } },
{ "type": "Feature", "properties": { "value": 13.806 }, "geometry": { "type": "Point", "coordinates": [ 129.32869, 35.466175, 10.0 ] } },
{ "type": "Feature", "properties": { "value": 2.6587 }, "geometry": { "type": "Point", "coordinates": [ 129.329803, 35.466171, 10.0 ] } },
{ "type": "Feature", "properties": { "value": 0.0586 }, "geometry": { "type": "Point", "coordinates": [ 129.330902, 35.466171, 10.0 ] } },
{ "type": "Feature", "properties": { "value": 0.0184 }, "geometry": { "type": "Point", "coordinates": [ 129.320984, 35.467098, 10.0 ] } },
{ "type": "Feature", "properties": { "value": 1.2501 }, "geometry": { "type": "Point", "coordinates": [ 129.322083, 35.467094, 10.0 ] } },
{ "type": "Feature", "properties": { "value": 5.95 }, "geometry": { "type": "Point", "coordinates": [ 129.323196, 35.467091, 10.0 ] } },
{ "type": "Feature", "properties": { "value": 18.619 }, "geometry": { "type": "Point", "coordinates": [ 129.324295, 35.467091, 10.0 ] } },
{ "type": "Feature", "properties": { "value": 36.995 }, "geometry": { "type": "Point", "coordinates": [ 129.325394, 35.467087, 10.0 ] } },
{ "type": "Feature", "properties": { "value": 44.419 }, "geometry": { "type": "Point", "coordinates": [ 129.326492, 35.467083, 10.0 ] } },
{ "type": "Feature", "properties": { "value": 31.622 }, "geometry": { "type": "Point", "coordinates": [ 129.327591, 35.467079, 10.0 ] } },
{ "type": "Feature", "properties": { "value": 12.956 }, "geometry": { "type": "Point", "coordinates": [ 129.328705, 35.467075, 10.0 ] } },
{ "type": "Feature", "properties": { "value": 3.1873 }, "geometry": { "type": "Point", "coordinates": [ 129.329803, 35.467075, 10.0 ] } },
{ "type": "Feature", "properties": { "value": 0.4064 }, "geometry": { "type": "Point", "coordinates": [ 129.330902, 35.467072, 10.0 ] } },
{ "type": "Feature", "properties": { "value": 0.2356 }, "geometry": { "type": "Point", "coordinates": [ 129.320984, 35.467999, 10.0 ] } },
{ "type": "Feature", "properties": { "value": 1.6399 }, "geometry": { "type": "Point", "coordinates": [ 129.322098, 35.467995, 10.0 ] } },
{ "type": "Feature", "properties": { "value": 6.3731 }, "geometry": { "type": "Point", "coordinates": [ 129.323196, 35.467995, 10.0 ] } },
{ "type": "Feature", "properties": { "value": 16.85 }, "geometry": { "type": "Point", "coordinates": [ 129.324295, 35.467991, 10.0 ] } },
{ "type": "Feature", "properties": { "value": 30.278 }, "geometry": { "type": "Point", "coordinates": [ 129.325394, 35.467987, 10.0 ] } },
{ "type": "Feature", "properties": { "value": 34.466 }, "geometry": { "type": "Point", "coordinates": [ 129.326492, 35.467983, 10.0 ] } },
{ "type": "Feature", "properties": { "value": 24.819 }, "geometry": { "type": "Point", "coordinates": [ 129.327606, 35.467983, 10.0 ] } },
{ "type": "Feature", "properties": { "value": 11.275 }, "geometry": { "type": "Point", "coordinates": [ 129.328705, 35.467979, 10.0 ] } },
{ "type": "Feature", "properties": { "value": 3.2833 }, "geometry": { "type": "Point", "coordinates": [ 129.329803, 35.467976, 10.0 ] } },
{ "type": "Feature", "properties": { "value": 0.5984 }, "geometry": { "type": "Point", "coordinates": [ 129.330902, 35.467972, 10.0 ] } },
{ "type": "Feature", "properties": { "value": 0.3236 }, "geometry": { "type": "Point", "coordinates": [ 129.320999, 35.468899, 10.0 ] } },
{ "type": "Feature", "properties": { "value": 1.6838 }, "geometry": { "type": "Point", "coordinates": [ 129.322098, 35.468899, 10.0 ] } },
{ "type": "Feature", "properties": { "value": 5.7704 }, "geometry": { "type": "Point", "coordinates": [ 129.323196, 35.468895, 10.0 ] } },
{ "type": "Feature", "properties": { "value": 13.604 }, "geometry": { "type": "Point", "coordinates": [ 129.324295, 35.468891, 10.0 ] } },
{ "type": "Feature", "properties": { "value": 22.503 }, "geometry": { "type": "Point", "coordinates": [ 129.325394, 35.468887, 10.0 ] } },
{ "type": "Feature", "properties": { "value": 24.781 }, "geometry": { "type": "Point", "coordinates": [ 129.326508, 35.468887, 10.0 ] } },
{ "type": "Feature", "properties": { "value": 18.206 }, "geometry": { "type": "Point", "coordinates": [ 129.327606, 35.468884, 10.0 ] } },
{ "type": "Feature", "properties": { "value": 8.8754 }, "geometry": { "type": "Point", "coordinates": [ 129.328705, 35.46888, 10.0 ] } },
{ "type": "Feature", "properties": { "value": 2.9196 }, "geometry": { "type": "Point", "coordinates": [ 129.329803, 35.468876, 10.0 ] } },
{ "type": "Feature", "properties": { "value": 0.6394 }, "geometry": { "type": "Point", "coordinates": [ 129.330902, 35.468872, 10.0 ] } },
{ "type": "Feature", "properties": { "value": 0.3041 }, "geometry": { "type": "Point", "coordinates": [ 129.320999, 35.469803, 10.0 ] } },
{ "type": "Feature", "properties": { "value": 1.3906 }, "geometry": { "type": "Point", "coordinates": [ 129.322098, 35.469799, 10.0 ] } },
{ "type": "Feature", "properties": { "value": 4.3645 }, "geometry": { "type": "Point", "coordinates": [ 129.323196, 35.469795, 10.0 ] } },
{ "type": "Feature", "properties": { "value": 9.4869 }, "geometry": { "type": "Point", "coordinates": [ 129.324295, 35.469791, 10.0 ] } },
{ "type": "Feature", "properties": { "value": 14.856 }, "geometry": { "type": "Point", "coordinates": [ 129.325409, 35.469791, 10.0 ] } },
{ "type": "Feature", "properties": { "value": 15.99 }, "geometry": { "type": "Point", "coordinates": [ 129.326508, 35.469788, 10.0 ] } },
{ "type": "Feature", "properties": { "value": 11.889 }, "geometry": { "type": "Point", "coordinates": [ 129.327606, 35.469784, 10.0 ] } },
{ "type": "Feature", "properties": { "value": 6.1076 }, "geometry": { "type": "Point", "coordinates": [ 129.328705, 35.46978, 10.0 ] } },
{ "type": "Feature", "properties": { "value": 2.1964 }, "geometry": { "type": "Point", "coordinates": [ 129.329819, 35.469776, 10.0 ] } },
{ "type": "Feature", "properties": { "value": 0.5339 }, "geometry": { "type": "Point", "coordinates": [ 129.330917, 35.469776, 10.0 ] } },
{ "type": "Feature", "properties": { "value": 0.0197 }, "geometry": { "type": "Point", "coordinates": [ 129.332016, 35.469772, 10.0 ] } },
{ "type": "Feature", "properties": { "value": 0.2164 }, "geometry": { "type": "Point", "coordinates": [ 129.320999, 35.470703, 10.0 ] } },
{ "type": "Feature", "properties": { "value": 0.9219 }, "geometry": { "type": "Point", "coordinates": [ 129.322098, 35.470699, 10.0 ] } },
{ "type": "Feature", "properties": { "value": 2.6805 }, "geometry": { "type": "Point", "coordinates": [ 129.323212, 35.470695, 10.0 ] } },
{ "type": "Feature", "properties": { "value": 5.585 }, "geometry": { "type": "Point", "coordinates": [ 129.32431, 35.470695, 10.0 ] } },
{ "type": "Feature", "properties": { "value": 8.4321 }, "geometry": { "type": "Point", "coordinates": [ 129.325409, 35.470692, 10.0 ] } },
{ "type": "Feature", "properties": { "value": 8.9351 }, "geometry": { "type": "Point", "coordinates": [ 129.326508, 35.470688, 10.0 ] } },
{ "type": "Feature", "properties": { "value": 6.6739 }, "geometry": { "type": "Point", "coordinates": [ 129.327606, 35.470684, 10.0 ] } },
{ "type": "Feature", "properties": { "value": 3.5695 }, "geometry": { "type": "Point", "coordinates": [ 129.32872, 35.470684, 10.0 ] } },
{ "type": "Feature", "properties": { "value": 1.3639 }, "geometry": { "type": "Point", "coordinates": [ 129.329819, 35.47068, 10.0 ] } },
{ "type": "Feature", "properties": { "value": 0.3493 }, "geometry": { "type": "Point", "coordinates": [ 129.330917, 35.470676, 10.0 ] } },
{ "type": "Feature", "properties": { "value": 0.0216 }, "geometry": { "type": "Point", "coordinates": [ 129.332016, 35.470673, 10.0 ] } },
{ "type": "Feature", "properties": { "value": 0.1019 }, "geometry": { "type": "Point", "coordinates": [ 129.320999, 35.471603, 10.0 ] } },
{ "type": "Feature", "properties": { "value": 0.4697 }, "geometry": { "type": "Point", "coordinates": [ 129.322113, 35.4716, 10.0 ] } },
{ "type": "Feature", "properties": { "value": 1.3145 }, "geometry": { "type": "Point", "coordinates": [ 129.323212, 35.4716, 10.0 ] } },
{ "type": "Feature", "properties": { "value": 2.6915 }, "geometry": { "type": "Point", "coordinates": [ 129.32431, 35.471596, 10.0 ] } },
{ "type": "Feature", "properties": { "value": 3.948 }, "geometry": { "type": "Point", "coordinates": [ 129.325409, 35.471592, 10.0 ] } },
{ "type": "Feature", "properties": { "value": 4.1527 }, "geometry": { "type": "Point", "coordinates": [ 129.326508, 35.471588, 10.0 ] } },
{ "type": "Feature", "properties": { "value": 3.1307 }, "geometry": { "type": "Point", "coordinates": [ 129.327621, 35.471588, 10.0 ] } },
{ "type": "Feature", "properties": { "value": 1.731 }, "geometry": { "type": "Point", "coordinates": [ 129.32872, 35.471584, 10.0 ] } },
{ "type": "Feature", "properties": { "value": 0.6758 }, "geometry": { "type": "Point", "coordinates": [ 129.329819, 35.471581, 10.0 ] } },
{ "type": "Feature", "properties": { "value": 0.1637 }, "geometry": { "type": "Point", "coordinates": [ 129.330917, 35.471577, 10.0 ] } },
{ "type": "Feature", "properties": { "value": 0.0249 }, "geometry": { "type": "Point", "coordinates": [ 129.321014, 35.472507, 10.0 ] } },
{ "type": "Feature", "properties": { "value": 0.163 }, "geometry": { "type": "Point", "coordinates": [ 129.322113, 35.472504, 10.0 ] } },
{ "type": "Feature", "properties": { "value": 0.5085 }, "geometry": { "type": "Point", "coordinates": [ 129.323212, 35.4725, 10.0 ] } },
{ "type": "Feature", "properties": { "value": 1.0388 }, "geometry": { "type": "Point", "coordinates": [ 129.32431, 35.472496, 10.0 ] } },
{ "type": "Feature", "properties": { "value": 1.5026 }, "geometry": { "type": "Point", "coordinates": [ 129.325409, 35.472492, 10.0 ] } },
{ "type": "Feature", "properties": { "value": 1.5562 }, "geometry": { "type": "Point", "coordinates": [ 129.326523, 35.472492, 10.0 ] } },
{ "type": "Feature", "properties": { "value": 1.1897 }, "geometry": { "type": "Point", "coordinates": [ 129.327621, 35.472488, 10.0 ] } },
{ "type": "Feature", "properties": { "value": 0.6466 }, "geometry": { "type": "Point", "coordinates": [ 129.32872, 35.472485, 10.0 ] } },
{ "type": "Feature", "properties": { "value": 0.2561 }, "geometry": { "type": "Point", "coordinates": [ 129.329819, 35.472481, 10.0 ] } },
{ "type": "Feature", "properties": { "value": 0.0496 }, "geometry": { "type": "Point", "coordinates": [ 129.330917, 35.472477, 10.0 ] } },
{ "type": "Feature", "properties": { "value": 0.0318 }, "geometry": { "type": "Point", "coordinates": [ 129.322113, 35.473404, 10.0 ] } },
{ "type": "Feature", "properties": { "value": 0.1435 }, "geometry": { "type": "Point", "coordinates": [ 129.323212, 35.4734, 10.0 ] } },
{ "type": "Feature", "properties": { "value": 0.3123 }, "geometry": { "type": "Point", "coordinates": [ 129.32431, 35.473396, 10.0 ] } },
{ "type": "Feature", "properties": { "value": 0.4431 }, "geometry": { "type": "Point", "coordinates": [ 129.325424, 35.473396, 10.0 ] } },
{ "type": "Feature", "properties": { "value": 0.4594 }, "geometry": { "type": "Point", "coordinates": [ 129.326523, 35.473392, 10.0 ] } },
{ "type": "Feature", "properties": { "value": 0.3521 }, "geometry": { "type": "Point", "coordinates": [ 129.327621, 35.473389, 10.0 ] } },
{ "type": "Feature", "properties": { "value": 0.1711 }, "geometry": { "type": "Point", "coordinates": [ 129.32872, 35.473385, 10.0 ] } },
{ "type": "Feature", "properties": { "value": 0.0564 }, "geometry": { "type": "Point", "coordinates": [ 129.329819, 35.473385, 10.0 ] } },
{ "type": "Feature", "properties": { "value": 0.0227 }, "geometry": { "type": "Point", "coordinates": [ 129.323212, 35.4743, 10.0 ] } },
{ "type": "Feature", "properties": { "value": 0.0567 }, "geometry": { "type": "Point", "coordinates": [ 129.324326, 35.4743, 10.0 ] } },
{ "type": "Feature", "properties": { "value": 0.0975 }, "geometry": { "type": "Point", "coordinates": [ 129.325424, 35.474297, 10.0 ] } },
{ "type": "Feature", "properties": { "value": 0.101 }, "geometry": { "type": "Point", "coordinates": [ 129.326523, 35.474293, 10.0 ] } },
{ "type": "Feature", "properties": { "value": 0.0773 }, "geometry": { "type": "Point", "coordinates": [ 129.327621, 35.474289, 10.0 ] } },
{ "type": "Feature", "properties": { "value": 0.026 }, "geometry": { "type": "Point", "coordinates": [ 129.328735, 35.474289, 10.0 ] } },
{ "type": "Feature", "properties": { "value": 0.0124 }, "geometry": { "type": "Point", "coordinates": [ 129.325424, 35.475197, 10.0 ] } },
{ "type": "Feature", "properties": { "value": 0.0128 }, "geometry": { "type": "Point", "coordinates": [ 129.326523, 35.475193, 10.0 ] } },
{ "type": "Feature", "properties": { "value": 0.0003 }, "geometry": { "type": "Point", "coordinates": [ 129.318848, 35.481525, 10.0 ] } },
{ "type": "Feature", "properties": { "value": 125.67 }, "geometry": { "type": "Point", "coordinates": [ 129.319946, 35.481522, 10.0 ] } },
{ "type": "Feature", "properties": { "value": 111.12 }, "geometry": { "type": "Point", "coordinates": [ 129.321045, 35.481518, 10.0 ] } },
{ "type": "Feature", "properties": { "value": 0.0 }, "geometry": { "type": "Point", "coordinates": [ 129.322144, 35.481514, 10.0 ] } },
{ "type": "Feature", "properties": { "value": 0.0093 }, "geometry": { "type": "Point", "coordinates": [ 129.317749, 35.48243, 10.0 ] } },
{ "type": "Feature", "properties": { "value": 11.006 }, "geometry": { "type": "Point", "coordinates": [ 129.318848, 35.482426, 10.0 ] } },
{ "type": "Feature", "properties": { "value": 406.1 }, "geometry": { "type": "Point", "coordinates": [ 129.319946, 35.482422, 10.0 ] } },
{ "type": "Feature", "properties": { "value": 378.02 }, "geometry": { "type": "Point", "coordinates": [ 129.321045, 35.482418, 10.0 ] } },
{ "type": "Feature", "properties": { "value": 0.0299 }, "geometry": { "type": "Point", "coordinates": [ 129.322144, 35.482418, 10.0 ] } },
{ "type": "Feature", "properties": { "value": 0.0381 }, "geometry": { "type": "Point", "coordinates": [ 129.31665, 35.483334, 10.0 ] } },
{ "type": "Feature", "properties": { "value": 4.5897 }, "geometry": { "type": "Point", "coordinates": [ 129.317749, 35.48333, 10.0 ] } },
{ "type": "Feature", "properties": { "value": 134.96 }, "geometry": { "type": "Point", "coordinates": [ 129.318848, 35.483326, 10.0 ] } },
{ "type": "Feature", "properties": { "value": 328.37 }, "geometry": { "type": "Point", "coordinates": [ 129.319946, 35.483322, 10.0 ] } },
{ "type": "Feature", "properties": { "value": 212.22 }, "geometry": { "type": "Point", "coordinates": [ 129.321045, 35.483322, 10.0 ] } },
{ "type": "Feature", "properties": { "value": 0.0397 }, "geometry": { "type": "Point", "coordinates": [ 129.322159, 35.483318, 10.0 ] } },
{ "type": "Feature", "properties": { "value": 0.1194 }, "geometry": { "type": "Point", "coordinates": [ 129.315552, 35.484238, 10.0 ] } },
{ "type": "Feature", "properties": { "value": 3.1142 }, "geometry": { "type": "Point", "coordinates": [ 129.31665, 35.484234, 10.0 ] } },
{ "type": "Feature", "properties": { "value": 49.148 }, "geometry": { "type": "Point", "coordinates": [ 129.317749, 35.48423, 10.0 ] } },
{ "type": "Feature", "properties": { "value": 196.6 }, "geometry": { "type": "Point", "coordinates": [ 129.318848, 35.48423, 10.0 ] } },
{ "type": "Feature", "properties": { "value": 217.44 }, "geometry": { "type": "Point", "coordinates": [ 129.319946, 35.484226, 10.0 ] } },
{ "type": "Feature", "properties": { "value": 30.761 }, "geometry": { "type": "Point", "coordinates": [ 129.32106, 35.484222, 10.0 ] } },
{ "type": "Feature", "properties": { "value": 0.0076 }, "geometry": { "type": "Point", "coordinates": [ 129.322159, 35.484219, 10.0 ] } },
{ "type": "Feature", "properties": { "value": 0.2888 }, "geometry": { "type": "Point", "coordinates": [ 129.314453, 35.485142, 10.0 ] } },
{ "type": "Feature", "properties": { "value": 2.8675 }, "geometry": { "type": "Point", "coordinates": [ 129.315552, 35.485138, 10.0 ] } },
{ "type": "Feature", "properties": { "value": 23.446 }, "geometry": { "type": "Point", "coordinates": [ 129.31665, 35.485134, 10.0 ] } },
{ "type": "Feature", "properties": { "value": 105.17 }, "geometry": { "type": "Point", "coordinates": [ 129.317749, 35.485134, 10.0 ] } },
{ "type": "Feature", "properties": { "value": 171.72 }, "geometry": { "type": "Point", "coordinates": [ 129.318848, 35.48513, 10.0 ] } },
{ "type": "Feature", "properties": { "value": 94.293 }, "geometry": { "type": "Point", "coordinates": [ 129.319962, 35.485126, 10.0 ] } },
{ "type": "Feature", "properties": { "value": 4.0713 }, "geometry": { "type": "Point", "coordinates": [ 129.32106, 35.485123, 10.0 ] } },
{ "type": "Feature", "properties": { "value": 0.3951 }, "geometry": { "type": "Point", "coordinates": [ 129.313354, 35.486046, 10.0 ] } },
{ "type": "Feature", "properties": { "value": 2.755 }, "geometry": { "type": "Point", "coordinates": [ 129.314453, 35.486042, 10.0 ] } },
{ "type": "Feature", "properties": { "value": 14.439 }, "geometry": { "type": "Point", "coordinates": [ 129.315552, 35.486038, 10.0 ] } },
{ "type": "Feature", "properties": { "value": 56.156 }, "geometry": { "type": "Point", "coordinates": [ 129.31665, 35.486038, 10.0 ] } },
{ "type": "Feature", "properties": { "value": 117.24 }, "geometry": { "type": "Point", "coordinates": [ 129.317749, 35.486034, 10.0 ] } },
{ "type": "Feature", "properties": { "value": 107.61 }, "geometry": { "type": "Point", "coordinates": [ 129.318863, 35.486031, 10.0 ] } },
{ "type": "Feature", "properties": { "value": 28.236 }, "geometry": { "type": "Point", "coordinates": [ 129.319962, 35.486027, 10.0 ] } },
{ "type": "Feature", "properties": { "value": 0.7106 }, "geometry": { "type": "Point", "coordinates": [ 129.32106, 35.486027, 10.0 ] } },
{ "type": "Feature", "properties": { "value": 0.2572 }, "geometry": { "type": "Point", "coordinates": [ 129.312256, 35.48695, 10.0 ] } },
{ "type": "Feature", "properties": { "value": 2.0019 }, "geometry": { "type": "Point", "coordinates": [ 129.313354, 35.486946, 10.0 ] } },
{ "type": "Feature", "properties": { "value": 9.647 }, "geometry": { "type": "Point", "coordinates": [ 129.314453, 35.486942, 10.0 ] } },
{ "type": "Feature", "properties": { "value": 32.496 }, "geometry": { "type": "Point", "coordinates": [ 129.315552, 35.486942, 10.0 ] } },
{ "type": "Feature", "properties": { "value": 72.138 }, "geometry": { "type": "Point", "coordinates": [ 129.31665, 35.486938, 10.0 ] } },
{ "type": "Feature", "properties": { "value": 90.652 }, "geometry": { "type": "Point", "coordinates": [ 129.317764, 35.486935, 10.0 ] } },
{ "type": "Feature", "properties": { "value": 51.119 }, "geometry": { "type": "Point", "coordinates": [ 129.318863, 35.486931, 10.0 ] } },
{ "type": "Feature", "properties": { "value": 8.1516 }, "geometry": { "type": "Point", "coordinates": [ 129.319962, 35.486931, 10.0 ] } },
{ "type": "Feature", "properties": { "value": 0.1999 }, "geometry": { "type": "Point", "coordinates": [ 129.32106, 35.486927, 10.0 ] } },
{ "type": "Feature", "properties": { "value": 0.0746 }, "geometry": { "type": "Point", "coordinates": [ 129.311157, 35.487854, 10.0 ] } },
{ "type": "Feature", "properties": { "value": 0.8518 }, "geometry": { "type": "Point", "coordinates": [ 129.312256, 35.48785, 10.0 ] } },
{ "type": "Feature", "properties": { "value": 4.9312 }, "geometry": { "type": "Point", "coordinates": [ 129.313354, 35.487846, 10.0 ] } },
{ "type": "Feature", "properties": { "value": 18.275 }, "geometry": { "type": "Point", "coordinates": [ 129.314453, 35.487846, 10.0 ] } },
{ "type": "Feature", "properties": { "value": 44.137 }, "geometry": { "type": "Point", "coordinates": [ 129.315552, 35.487843, 10.0 ] } },
{ "type": "Feature", "properties": { "value": 65.752 }, "geometry": { "type": "Point", "coordinates": [ 129.316666, 35.487839, 10.0 ] } },
{ "type": "Feature", "properties": { "value": 55.049 }, "geometry": { "type": "Point", "coordinates": [ 129.317764, 35.487835, 10.0 ] } },
{ "type": "Feature", "properties": { "value": 21.385 }, "geometry": { "type": "Point", "coordinates": [ 129.318863, 35.487835, 10.0 ] } },
{ "type": "Feature", "properties": { "value": 2.797 }, "geometry": { "type": "Point", "coordinates": [ 129.319962, 35.487831, 10.0 ] } },
{ "type": "Feature", "properties": { "value": 0.141 }, "geometry": { "type": "Point", "coordinates": [ 129.311157, 35.488754, 10.0 ] } },
{ "type": "Feature", "properties": { "value": 1.3897 }, "geometry": { "type": "Point", "coordinates": [ 129.312256, 35.48875, 10.0 ] } },
{ "type": "Feature", "properties": { "value": 6.9209 }, "geometry": { "type": "Point", "coordinates": [ 129.313354, 35.48875, 10.0 ] } },
{ "type": "Feature", "properties": { "value": 21.064 }, "geometry": { "type": "Point", "coordinates": [ 129.314453, 35.488747, 10.0 ] } },
{ "type": "Feature", "properties": { "value": 39.969 }, "geometry": { "type": "Point", "coordinates": [ 129.315567, 35.488743, 10.0 ] } },
{ "type": "Feature", "properties": { "value": 45.684 }, "geometry": { "type": "Point", "coordinates": [ 129.316666, 35.488739, 10.0 ] } },
{ "type": "Feature", "properties": { "value": 28.887 }, "geometry": { "type": "Point", "coordinates": [ 129.317764, 35.488739, 10.0 ] } },
{ "type": "Feature", "properties": { "value": 8.8114 }, "geometry": { "type": "Point", "coordinates": [ 129.318863, 35.488735, 10.0 ] } },
{ "type": "Feature", "properties": { "value": 1.0862 }, "geometry": { "type": "Point", "coordinates": [ 129.319977, 35.488731, 10.0 ] } },
{ "type": "Feature", "properties": { "value": 0.1508 }, "geometry": { "type": "Point", "coordinates": [ 129.311157, 35.489655, 10.0 ] } },
{ "type": "Feature", "properties": { "value": 1.292 }, "geometry": { "type": "Point", "coordinates": [ 129.312256, 35.489655, 10.0 ] } },
{ "type": "Feature", "properties": { "value": 5.8383 }, "geometry": { "type": "Point", "coordinates": [ 129.313354, 35.489651, 10.0 ] } },
{ "type": "Feature", "properties": { "value": 15.565 }, "geometry": { "type": "Point", "coordinates": [ 129.314468, 35.489647, 10.0 ] } },
{ "type": "Feature", "properties": { "value": 24.923 }, "geometry": { "type": "Point", "coordinates": [ 129.315567, 35.489643, 10.0 ] } },
{ "type": "Feature", "properties": { "value": 23.666 }, "geometry": { "type": "Point", "coordinates": [ 129.316666, 35.489643, 10.0 ] } },
{ "type": "Feature", "properties": { "value": 12.403 }, "geometry": { "type": "Point", "coordinates": [ 129.317764, 35.489639, 10.0 ] } },
{ "type": "Feature", "properties": { "value": 3.2521 }, "geometry": { "type": "Point", "coordinates": [ 129.318878, 35.489635, 10.0 ] } },
{ "type": "Feature", "properties": { "value": 0.3593 }, "geometry": { "type": "Point", "coordinates": [ 129.319977, 35.489632, 10.0 ] } },
{ "type": "Feature", "properties": { "value": 0.0918 }, "geometry": { "type": "Point", "coordinates": [ 129.311157, 35.490559, 10.0 ] } },
{ "type": "Feature", "properties": { "value": 0.7202 }, "geometry": { "type": "Point", "coordinates": [ 129.312271, 35.490555, 10.0 ] } },
{ "type": "Feature", "properties": { "value": 3.0159 }, "geometry": { "type": "Point", "coordinates": [ 129.31337, 35.490551, 10.0 ] } },
{ "type": "Feature", "properties": { "value": 7.3748 }, "geometry": { "type": "Point", "coordinates": [ 129.314468, 35.490547, 10.0 ] } },
{ "type": "Feature", "properties": { "value": 10.592 }, "geometry": { "type": "Point", "coordinates": [ 129.315567, 35.490547, 10.0 ] } },
{ "type": "Feature", "properties": { "value": 8.8268 }, "geometry": { "type": "Point", "coordinates": [ 129.316666, 35.490543, 10.0 ] } },
{ "type": "Feature", "properties": { "value": 4.0853 }, "geometry": { "type": "Point", "coordinates": [ 129.31778, 35.49054, 10.0 ] } },
{ "type": "Feature", "properties": { "value": 0.9469 }, "geometry": { "type": "Point", "coordinates": [ 129.318878, 35.490536, 10.0 ] } },
{ "type": "Feature", "properties": { "value": 0.0272 }, "geometry": { "type": "Point", "coordinates": [ 129.319977, 35.490536, 10.0 ] } },
{ "type": "Feature", "properties": { "value": 0.0239 }, "geometry": { "type": "Point", "coordinates": [ 129.311172, 35.491459, 10.0 ] } },
{ "type": "Feature", "properties": { "value": 0.2168 }, "geometry": { "type": "Point", "coordinates": [ 129.312271, 35.491455, 10.0 ] } },
{ "type": "Feature", "properties": { "value": 0.9406 }, "geometry": { "type": "Point", "coordinates": [ 129.31337, 35.491451, 10.0 ] } },
{ "type": "Feature", "properties": { "value": 2.1831 }, "geometry": { "type": "Point", "coordinates": [ 129.314468, 35.491451, 10.0 ] } },
{ "type": "Feature", "properties": { "value": 2.9127 }, "geometry": { "type": "Point", "coordinates": [ 129.315567, 35.491447, 10.0 ] } },
{ "type": "Feature", "properties": { "value": 2.2444 }, "geometry": { "type": "Point", "coordinates": [ 129.316681, 35.491444, 10.0 ] } },
{ "type": "Feature", "properties": { "value": 0.9469 }, "geometry": { "type": "Point", "coordinates": [ 129.31778, 35.49144, 10.0 ] } },
{ "type": "Feature", "properties": { "value": 0.204 }, "geometry": { "type": "Point", "coordinates": [ 129.318878, 35.49144, 10.0 ] } },
{ "type": "Feature", "properties": { "value": 0.0322 }, "geometry": { "type": "Point", "coordinates": [ 129.312271, 35.492355, 10.0 ] } },
{ "type": "Feature", "properties": { "value": 0.1624 }, "geometry": { "type": "Point", "coordinates": [ 129.31337, 35.492355, 10.0 ] } },
{ "type": "Feature", "properties": { "value": 0.3806 }, "geometry": { "type": "Point", "coordinates": [ 129.314468, 35.492352, 10.0 ] } },
{ "type": "Feature", "properties": { "value": 0.481 }, "geometry": { "type": "Point", "coordinates": [ 129.315582, 35.492348, 10.0 ] } },
{ "type": "Feature", "properties": { "value": 0.344 }, "geometry": { "type": "Point", "coordinates": [ 129.316681, 35.492344, 10.0 ] } },
{ "type": "Feature", "properties": { "value": 0.1201 }, "geometry": { "type": "Point", "coordinates": [ 129.31778, 35.492344, 10.0 ] } },
{ "type": "Feature", "properties": { "value": 0.0288 }, "geometry": { "type": "Point", "coordinates": [ 129.314484, 35.493252, 10.0 ] } },
{ "type": "Feature", "properties": { "value": 0.0339 }, "geometry": { "type": "Point", "coordinates": [ 129.315582, 35.493248, 10.0 ] } },
{ "type": "Feature", "properties": { "value": 0.0225 }, "geometry": { "type": "Point", "coordinates": [ 129.316681, 35.493248, 10.0 ] } }
]
}
