{
"type": "FeatureCollection",
"features": [
{ "type": "Feature", "properties": { "value": 0.0 }, "geometry": { "type": "Point", "coordinates": [ 129.325363, 35.460777, 225.0 ] } },
{ "type": "Feature", "properties": { "value": 0.0 }, "geometry": { "type": "Point", "coordinates": [ 129.326477, 35.460773, 225.0 ] } },
{ "type": "Feature", "properties": { "value": 0.0 }, "geometry": { "type": "Point", "coordinates": [ 129.327576, 35.46077, 225.0 ] } },
{ "type": "Feature", "properties": { "value": 0.0001 }, "geometry": { "type": "Point", "coordinates": [ 129.325378, 35.461678, 225.0 ] } },
{ "type": "Feature", "properties": { "value": 0.0005 }, "geometry": { "type": "Point", "coordinates": [ 129.326477, 35.461674, 225.0 ] } },
{ "type": "Feature", "properties": { "value": 0.0002 }, "geometry": { "type": "Point", "coordinates": [ 129.327576, 35.461674, 225.0 ] } },
{ "type": "Feature", "properties": { "value": 0.0 }, "geometry": { "type": "Point", "coordinates": [ 129.328674, 35.46167, 225.0 ] } },
{ "type": "Feature", "properties": { "value": 0.0 }, "geometry": { "type": "Point", "coordinates": [ 129.32428, 35.462582, 225.0 ] } },
{ "type": "Feature", "properties": { "value": 0.0013 }, "geometry": { "type": "Point", "coordinates": [ 129.325378, 35.462578, 225.0 ] } },
{ "type": "Feature", "properties": { "value": 0.0055 }, "geometry": { "type": "Point", "coordinates": [ 129.326477, 35.462578, 225.0 ] } },
{ "type": "Feature", "properties": { "value": 0.0017 }, "geometry": { "type": "Point", "coordinates": [ 129.327576, 35.462574, 225.0 ] } },
{ "type": "Feature", "properties": { "value": 0.0003 }, "geometry": { "type": "Point", "coordinates": [ 129.328674, 35.46257, 225.0 ] } },
{ "type": "Feature", "properties": { "value": 0.001 }, "geometry": { "type": "Point", "coordinates": [ 129.32428, 35.463486, 225.0 ] } },
{ "type": "Feature", "properties": { "value": 0.0094 }, "geometry": { "type": "Point", "coordinates": [ 129.325378, 35.463482, 225.0 ] } },
{ "type": "Feature", "properties": { "value": 0.0223 }, "geometry": { "type": "Point", "coordinates": [ 129.326477, 35.463478, 225.0 ] } },
{ "type": "Feature", "properties": { "value": 0.0096 }, "geometry": { "type": "Point", "coordinates": [ 129.327576, 35.463474, 225.0 ] } },
{ "type": "Feature", "properties": { "value": 0.0015 }, "geometry": { "type": "Point", "coordinates": [ 129.32869, 35.46347, 225.0 ] } },
{ "type": "Feature", "properties": { "value": 0.008 }, "geometry": { "type": "Point", "coordinates": [ 129.32428, 35.464386, 225.0 ] } },
{ "type": "Feature", "properties": { "value": 0.0393 }, "geometry": { "type": "Point", "coordinates": [ 129.325378, 35.464382, 225.0 ] } },
{ "type": "Feature", "properties": { "value": 0.0637 }, "geometry": { "type": "Point", "coordinates": [ 129.326477, 35.464378, 225.0 ] } },
{ "type": "Feature", "properties": { "value": 0.0337 }, "geometry": { "type": "Point", "coordinates": [ 129.327591, 35.464375, 225.0 ] } },
{ "type": "Feature", "properties": { "value": 0.0064 }, "geometry": { "type": "Point", "coordinates": [ 129.32869, 35.464375, 225.0 ] } },
{ "type": "Feature", "properties": { "value": 0.0031 }, "geometry": { "type": "Point", "coordinates": [ 129.323181, 35.46529, 225.0 ] } },
{ "type": "Feature", "properties": { "value": 0.0335 }, "geometry": { "type": "Point", "coordinates": [ 129.32428, 35.465286, 225.0 ] } },
{ "type": "Feature", "properties": { "value": 0.1218 }, "geometry": { "type": "Point", "coordinates": [ 129.325394, 35.465282, 225.0 ] } },
{ "type": "Feature", "properties": { "value": 0.1746 }, "geometry": { "type": "Point", "coordinates": [ 129.326492, 35.465279, 225.0 ] } },
{ "type": "Feature", "properties": { "value": 0.0952 }, "geometry": { "type": "Point", "coordinates": [ 129.327591, 35.465279, 225.0 ] } },
{ "type": "Feature", "properties": { "value": 0.0217 }, "geometry": { "type": "Point", "coordinates": [ 129.32869, 35.465275, 225.0 ] } },
{ "type": "Feature", "properties": { "value": 0.0162 }, "geometry": { "type": "Point", "coordinates": [ 129.323181, 35.46619, 225.0 ] } },
{ "type": "Feature", "properties": { "value": 0.0945 }, "geometry": { "type": "Point", "coordinates": [ 129.324295, 35.466187, 225.0 ] } },
{ "type": "Feature", "properties": { "value": 0.2808 }, "geometry": { "type": "Point", "coordinates": [ 129.325394, 35.466187, 225.0 ] } },
{ "type": "Feature", "properties": { "value": 0.3762 }, "geometry": { "type": "Point", "coordinates": [ 129.326492, 35.466183, 225.0 ] } },
{ "type": "Feature", "properties": { "value": 0.2013 }, "geometry": { "type": "Point", "coordinates": [ 129.327591, 35.466179, 225.0 ] } },
{ "type": "Feature", "properties": { "value": 0.0567 }, "geometry": { "type": "Point", "coordinates": [ 129.32869, 35.466175, 225.0 ] } },
{ "type": "Feature", "properties": { "value": 0.0054 }, "geometry": { "type": "Point", "coordinates": [ 129.329803, 35.466171, 225.0 ] } },
{ "type": "Feature", "properties": { "value": 0.0003 }, "geometry": { "type": "Point", "coordinates": [ 129.316574, 35.46711, 225.0 ] } },
{ "type": "Feature", "properties": { "value": 0.0006 }, "geometry": { "type": "Point", "coordinates": [ 129.317688, 35.467106, 225.0 ] } },
{ "type": "Feature", "properties": { "value": 0.0034 }, "geometry": { "type": "Point", "coordinates": [ 129.322083, 35.467094, 225.0 ] } },
{ "type": "Feature", "properties": { "value": 0.0504 }, "geometry": { "type": "Point", "coordinates": [ 129.323196, 35.467091, 225.0 ] } },
{ "type": "Feature", "properties": { "value": 0.2125 }, "geometry": { "type": "Point", "coordinates": [ 129.324295, 35.467091, 225.0 ] } },
{ "type": "Feature", "properties": { "value": 0.4922 }, "geometry": { "type": "Point", "coordinates": [ 129.325394, 35.467087, 225.0 ] } },
{ "type": "Feature", "properties": { "value": 0.5984 }, "geometry": { "type": "Point", "coordinates": [ 129.326492, 35.467083, 225.0 ] } },
{ "type": "Feature", "properties": { "value": 0.3302 }, "geometry": { "type": "Point", "coordinates": [ 129.327591, 35.467079, 225.0 ] } },
{ "type": "Feature", "properties": { "value": 0.1028 }, "geometry": { "type": "Point", "coordinates": [ 129.328705, 35.467075, 225.0 ] } },
{ "type": "Feature", "properties": { "value": 0.0145 }, "geometry": { "type": "Point", "coordinates": [ 129.329803, 35.467075, 225.0 ] } },
{ "type": "Feature", "properties": { "value": 0.0594 }, "geometry": { "type": "Point", "coordinates": [ 129.315475, 35.468014, 225.0 ] } },
{ "type": "Feature", "properties": { "value": 0.291 }, "geometry": { "type": "Point", "coordinates": [ 129.316589, 35.46801, 225.0 ] } },
{ "type": "Feature", "properties": { "value": 0.2794 }, "geometry": { "type": "Point", "coordinates": [ 129.317688, 35.468006, 225.0 ] } },
{ "type": "Feature", "properties": { "value": 0.0342 }, "geometry": { "type": "Point", "coordinates": [ 129.318787, 35.468006, 225.0 ] } },
{ "type": "Feature", "properties": { "value": 0.0206 }, "geometry": { "type": "Point", "coordinates": [ 129.322098, 35.467995, 225.0 ] } },
{ "type": "Feature", "properties": { "value": 0.1167 }, "geometry": { "type": "Point", "coordinates": [ 129.323196, 35.467995, 225.0 ] } },
{ "type": "Feature", "properties": { "value": 0.3779 }, "geometry": { "type": "Point", "coordinates": [ 129.324295, 35.467991, 225.0 ] } },
{ "type": "Feature", "properties": { "value": 0.6732 }, "geometry": { "type": "Point", "coordinates": [ 129.325394, 35.467987, 225.0 ] } },
{ "type": "Feature", "properties": { "value": 0.7467 }, "geometry": { "type": "Point", "coordinates": [ 129.326492, 35.467983, 225.0 ] } },
{ "type": "Feature", "properties": { "value": 0.4555 }, "geometry": { "type": "Point", "coordinates": [ 129.327606, 35.467983, 225.0 ] } },
{ "type": "Feature", "properties": { "value": 0.1548 }, "geometry": { "type": "Point", "coordinates": [ 129.328705, 35.467979, 225.0 ] } },
{ "type": "Feature", "properties": { "value": 0.0267 }, "geometry": { "type": "Point", "coordinates": [ 129.329803, 35.467976, 225.0 ] } },
{ "type": "Feature", "properties": { "value": 0.1681 }, "geometry": { "type": "Point", "coordinates": [ 129.314377, 35.468918, 225.0 ] } },
{ "type": "Feature", "properties": { "value": 1.2449 }, "geometry": { "type": "Point", "coordinates": [ 129.315491, 35.468914, 225.0 ] } },
{ "type": "Feature", "properties": { "value": 3.3562 }, "geometry": { "type": "Point", "coordinates": [ 129.316589, 35.46891, 225.0 ] } },
{ "type": "Feature", "properties": { "value": 2.8385 }, "geometry": { "type": "Point", "coordinates": [ 129.317688, 35.46891, 225.0 ] } },
{ "type": "Feature", "properties": { "value": 0.5851 }, "geometry": { "type": "Point", "coordinates": [ 129.318787, 35.468906, 225.0 ] } },
{ "type": "Feature", "properties": { "value": 0.0507 }, "geometry": { "type": "Point", "coordinates": [ 129.322098, 35.468899, 225.0 ] } },
{ "type": "Feature", "properties": { "value": 0.2064 }, "geometry": { "type": "Point", "coordinates": [ 129.323196, 35.468895, 225.0 ] } },
{ "type": "Feature", "properties": { "value": 0.5501 }, "geometry": { "type": "Point", "coordinates": [ 129.324295, 35.468891, 225.0 ] } },
{ "type": "Feature", "properties": { "value": 0.8789 }, "geometry": { "type": "Point", "coordinates": [ 129.325394, 35.468887, 225.0 ] } },
{ "type": "Feature", "properties": { "value": 0.9051 }, "geometry": { "type": "Point", "coordinates": [ 129.326508, 35.468887, 225.0 ] } },
{ "type": "Feature", "properties": { "value": 0.5544 }, "geometry": { "type": "Point", "coordinates": [ 129.327606, 35.468884, 225.0 ] } },
{ "type": "Feature", "properties": { "value": 0.2022 }, "geometry": { "type": "Point", "coordinates": [ 129.328705, 35.46888, 225.0 ] } },
{ "type": "Feature", "properties": { "value": 0.042 }, "geometry": { "type": "Point", "coordinates": [ 129.329803, 35.468876, 225.0 ] } },
{ "type": "Feature", "properties": { "value": 0.1848 }, "geometry": { "type": "Point", "coordinates": [ 129.313278, 35.469822, 225.0 ] } },
{ "type": "Feature", "properties": { "value": 1.585 }, "geometry": { "type": "Point", "coordinates": [ 129.314392, 35.469818, 225.0 ] } },
{ "type": "Feature", "properties": { "value": 5.9249 }, "geometry": { "type": "Point", "coordinates": [ 129.315491, 35.469818, 225.0 ] } },
{ "type": "Feature", "properties": { "value": 11.899 }, "geometry": { "type": "Point", "coordinates": [ 129.316589, 35.469814, 225.0 ] } },
{ "type": "Feature", "properties": { "value": 9.2724 }, "geometry": { "type": "Point", "coordinates": [ 129.317688, 35.46981, 225.0 ] } },
{ "type": "Feature", "properties": { "value": 2.4441 }, "geometry": { "type": "Point", "coordinates": [ 129.318787, 35.469807, 225.0 ] } },
{ "type": "Feature", "properties": { "value": 0.181 }, "geometry": { "type": "Point", "coordinates": [ 129.319901, 35.469803, 225.0 ] } },
{ "type": "Feature", "properties": { "value": 0.0171 }, "geometry": { "type": "Point", "coordinates": [ 129.320999, 35.469803, 225.0 ] } },
{ "type": "Feature", "properties": { "value": 0.0946 }, "geometry": { "type": "Point", "coordinates": [ 129.322098, 35.469799, 225.0 ] } },
{ "type": "Feature", "properties": { "value": 0.3084 }, "geometry": { "type": "Point", "coordinates": [ 129.323196, 35.469795, 225.0 ] } },
{ "type": "Feature", "properties": { "value": 0.6984 }, "geometry": { "type": "Point", "coordinates": [ 129.324295, 35.469791, 225.0 ] } },
{ "type": "Feature", "properties": { "value": 1.0108 }, "geometry": { "type": "Point", "coordinates": [ 129.325409, 35.469791, 225.0 ] } },
{ "type": "Feature", "properties": { "value": 0.9835 }, "geometry": { "type": "Point", "coordinates": [ 129.326508, 35.469788, 225.0 ] } },
{ "type": "Feature", "properties": { "value": 0.6148 }, "geometry": { "type": "Point", "coordinates": [ 129.327606, 35.469784, 225.0 ] } },
{ "type": "Feature", "properties": { "value": 0.2405 }, "geometry": { "type": "Point", "coordinates": [ 129.328705, 35.46978, 225.0 ] } },
{ "type": "Feature", "properties": { "value": 0.056 }, "geometry": { "type": "Point", "coordinates": [ 129.329819, 35.469776, 225.0 ] } },
{ "type": "Feature", "properties": { "value": 0.1456 }, "geometry": { "type": "Point", "coordinates": [ 129.31218, 35.470726, 225.0 ] } },
{ "type": "Feature", "properties": { "value": 1.2902 }, "geometry": { "type": "Point", "coordinates": [ 129.313293, 35.470722, 225.0 ] } },
{ "type": "Feature", "properties": { "value": 5.0396 }, "geometry": { "type": "Point", "coordinates": [ 129.314392, 35.470722, 225.0 ] } },
{ "type": "Feature", "properties": { "value": 13.641 }, "geometry": { "type": "Point", "coordinates": [ 129.315491, 35.470718, 225.0 ] } },
{ "type": "Feature", "properties": { "value": 21.228 }, "geometry": { "type": "Point", "coordinates": [ 129.316589, 35.470715, 225.0 ] } },
{ "type": "Feature", "properties": { "value": 15.735 }, "geometry": { "type": "Point", "coordinates": [ 129.317688, 35.470711, 225.0 ] } },
{ "type": "Feature", "properties": { "value": 5.1076 }, "geometry": { "type": "Point", "coordinates": [ 129.318802, 35.470707, 225.0 ] } },
{ "type": "Feature", "properties": { "value": 0.7852 }, "geometry": { "type": "Point", "coordinates": [ 129.319901, 35.470707, 225.0 ] } },
{ "type": "Feature", "properties": { "value": 0.0387 }, "geometry": { "type": "Point", "coordinates": [ 129.320999, 35.470703, 225.0 ] } },
{ "type": "Feature", "properties": { "value": 0.1537 }, "geometry": { "type": "Point", "coordinates": [ 129.322098, 35.470699, 225.0 ] } },
{ "type": "Feature", "properties": { "value": 0.4225 }, "geometry": { "type": "Point", "coordinates": [ 129.323212, 35.470695, 225.0 ] } },
{ "type": "Feature", "properties": { "value": 0.8367 }, "geometry": { "type": "Point", "coordinates": [ 129.32431, 35.470695, 225.0 ] } },
{ "type": "Feature", "properties": { "value": 1.1132 }, "geometry": { "type": "Point", "coordinates": [ 129.325409, 35.470692, 225.0 ] } },
{ "type": "Feature", "properties": { "value": 1.039 }, "geometry": { "type": "Point", "coordinates": [ 129.326508, 35.470688, 225.0 ] } },
{ "type": "Feature", "properties": { "value": 0.6539 }, "geometry": { "type": "Point", "coordinates": [ 129.327606, 35.470684, 225.0 ] } },
{ "type": "Feature", "properties": { "value": 0.2677 }, "geometry": { "type": "Point", "coordinates": [ 129.32872, 35.470684, 225.0 ] } },
{ "type": "Feature", "properties": { "value": 0.0685 }, "geometry": { "type": "Point", "coordinates": [ 129.329819, 35.47068, 225.0 ] } },
{ "type": "Feature", "properties": { "value": 0.0014 }, "geometry": { "type": "Point", "coordinates": [ 129.330917, 35.470676, 225.0 ] } },
{ "type": "Feature", "properties": { "value": 0.9336 }, "geometry": { "type": "Point", "coordinates": [ 129.312195, 35.471626, 225.0 ] } },
{ "type": "Feature", "properties": { "value": 3.4266 }, "geometry": { "type": "Point", "coordinates": [ 129.313293, 35.471626, 225.0 ] } },
{ "type": "Feature", "properties": { "value": 10.004 }, "geometry": { "type": "Point", "coordinates": [ 129.314392, 35.471622, 225.0 ] } },
{ "type": "Feature", "properties": { "value": 20.801 }, "geometry": { "type": "Point", "coordinates": [ 129.315491, 35.471619, 225.0 ] } },
{ "type": "Feature", "properties": { "value": 26.926 }, "geometry": { "type": "Point", "coordinates": [ 129.316605, 35.471615, 225.0 ] } },
{ "type": "Feature", "properties": { "value": 19.351 }, "geometry": { "type": "Point", "coordinates": [ 129.317703, 35.471615, 225.0 ] } },
{ "type": "Feature", "properties": { "value": 7.3631 }, "geometry": { "type": "Point", "coordinates": [ 129.318802, 35.471611, 225.0 ] } },
{ "type": "Feature", "properties": { "value": 1.5454 }, "geometry": { "type": "Point", "coordinates": [ 129.319901, 35.471607, 225.0 ] } },
{ "type": "Feature", "properties": { "value": 0.0736 }, "geometry": { "type": "Point", "coordinates": [ 129.320999, 35.471603, 225.0 ] } },
{ "type": "Feature", "properties": { "value": 0.2273 }, "geometry": { "type": "Point", "coordinates": [ 129.322113, 35.4716, 225.0 ] } },
{ "type": "Feature", "properties": { "value": 0.5406 }, "geometry": { "type": "Point", "coordinates": [ 129.323212, 35.4716, 225.0 ] } },
{ "type": "Feature", "properties": { "value": 0.9639 }, "geometry": { "type": "Point", "coordinates": [ 129.32431, 35.471596, 225.0 ] } },
{ "type": "Feature", "properties": { "value": 1.1848 }, "geometry": { "type": "Point", "coordinates": [ 129.325409, 35.471592, 225.0 ] } },
{ "type": "Feature", "properties": { "value": 1.0818 }, "geometry": { "type": "Point", "coordinates": [ 129.326508, 35.471588, 225.0 ] } },
{ "type": "Feature", "properties": { "value": 0.6776 }, "geometry": { "type": "Point", "coordinates": [ 129.327621, 35.471588, 225.0 ] } },
{ "type": "Feature", "properties": { "value": 0.2878 }, "geometry": { "type": "Point", "coordinates": [ 129.32872, 35.471584, 225.0 ] } },
{ "type": "Feature", "properties": { "value": 0.0855 }, "geometry": { "type": "Point", "coordinates": [ 129.329819, 35.471581, 225.0 ] } },
{ "type": "Feature", "properties": { "value": 0.0131 }, "geometry": { "type": "Point", "coordinates": [ 129.330917, 35.471577, 225.0 ] } },
{ "type": "Feature", "properties": { "value": 0.6108 }, "geometry": { "type": "Point", "coordinates": [ 129.311096, 35.47253, 225.0 ] } },
{ "type": "Feature", "properties": { "value": 2.2196 }, "geometry": { "type": "Point", "coordinates": [ 129.312195, 35.47253, 225.0 ] } },
{ "type": "Feature", "properties": { "value": 6.4085 }, "geometry": { "type": "Point", "coordinates": [ 129.313293, 35.472527, 225.0 ] } },
{ "type": "Feature", "properties": { "value": 14.917 }, "geometry": { "type": "Point", "coordinates": [ 129.314392, 35.472523, 225.0 ] } },
{ "type": "Feature", "properties": { "value": 25.379 }, "geometry": { "type": "Point", "coordinates": [ 129.315506, 35.472519, 225.0 ] } },
{ "type": "Feature", "properties": { "value": 28.852 }, "geometry": { "type": "Point", "coordinates": [ 129.316605, 35.472519, 225.0 ] } },
{ "type": "Feature", "properties": { "value": 20.388 }, "geometry": { "type": "Point", "coordinates": [ 129.317703, 35.472515, 225.0 ] } },
{ "type": "Feature", "properties": { "value": 8.7113 }, "geometry": { "type": "Point", "coordinates": [ 129.318802, 35.472511, 225.0 ] } },
{ "type": "Feature", "properties": { "value": 2.342 }, "geometry": { "type": "Point", "coordinates": [ 129.319901, 35.472507, 225.0 ] } },
{ "type": "Feature", "properties": { "value": 0.4331 }, "geometry": { "type": "Point", "coordinates": [ 129.321014, 35.472507, 225.0 ] } },
{ "type": "Feature", "properties": { "value": 0.3183 }, "geometry": { "type": "Point", "coordinates": [ 129.322113, 35.472504, 225.0 ] } },
{ "type": "Feature", "properties": { "value": 0.6519 }, "geometry": { "type": "Point", "coordinates": [ 129.323212, 35.4725, 225.0 ] } },
{ "type": "Feature", "properties": { "value": 1.0612 }, "geometry": { "type": "Point", "coordinates": [ 129.32431, 35.472496, 225.0 ] } },
{ "type": "Feature", "properties": { "value": 1.2256 }, "geometry": { "type": "Point", "coordinates": [ 129.325409, 35.472492, 225.0 ] } },
{ "type": "Feature", "properties": { "value": 1.1035 }, "geometry": { "type": "Point", "coordinates": [ 129.326523, 35.472492, 225.0 ] } },
{ "type": "Feature", "properties": { "value": 0.6992 }, "geometry": { "type": "Point", "coordinates": [ 129.327621, 35.472488, 225.0 ] } },
{ "type": "Feature", "properties": { "value": 0.3229 }, "geometry": { "type": "Point", "coordinates": [ 129.32872, 35.472485, 225.0 ] } },
{ "type": "Feature", "properties": { "value": 0.113 }, "geometry": { "type": "Point", "coordinates": [ 129.329819, 35.472481, 225.0 ] } },
{ "type": "Feature", "properties": { "value": 0.0264 }, "geometry": { "type": "Point", "coordinates": [ 129.330917, 35.472477, 225.0 ] } },
{ "type": "Feature", "properties": { "value": 0.374 }, "geometry": { "type": "Point", "coordinates": [ 129.309998, 35.473434, 225.0 ] } },
{ "type": "Feature", "properties": { "value": 1.4374 }, "geometry": { "type": "Point", "coordinates": [ 129.311096, 35.473434, 225.0 ] } },
{ "type": "Feature", "properties": { "value": 4.0397 }, "geometry": { "type": "Point", "coordinates": [ 129.312195, 35.473431, 225.0 ] } },
{ "type": "Feature", "properties": { "value": 9.6775 }, "geometry": { "type": "Point", "coordinates": [ 129.313293, 35.473427, 225.0 ] } },
{ "type": "Feature", "properties": { "value": 18.728 }, "geometry": { "type": "Point", "coordinates": [ 129.314407, 35.473423, 225.0 ] } },
{ "type": "Feature", "properties": { "value": 27.38 }, "geometry": { "type": "Point", "coordinates": [ 129.315506, 35.473423, 225.0 ] } },
{ "type": "Feature", "properties": { "value": 28.386 }, "geometry": { "type": "Point", "coordinates": [ 129.316605, 35.473419, 225.0 ] } },
{ "type": "Feature", "properties": { "value": 19.878 }, "geometry": { "type": "Point", "coordinates": [ 129.317703, 35.473415, 225.0 ] } },
{ "type": "Feature", "properties": { "value": 9.2832 }, "geometry": { "type": "Point", "coordinates": [ 129.318802, 35.473412, 225.0 ] } },
{ "type": "Feature", "properties": { "value": 2.9871 }, "geometry": { "type": "Point", "coordinates": [ 129.319916, 35.473412, 225.0 ] } },
{ "type": "Feature", "properties": { "value": 0.701 }, "geometry": { "type": "Point", "coordinates": [ 129.321014, 35.473408, 225.0 ] } },
{ "type": "Feature", "properties": { "value": 0.4161 }, "geometry": { "type": "Point", "coordinates": [ 129.322113, 35.473404, 225.0 ] } },
{ "type": "Feature", "properties": { "value": 0.7735 }, "geometry": { "type": "Point", "coordinates": [ 129.323212, 35.4734, 225.0 ] } },
{ "type": "Feature", "properties": { "value": 1.1437 }, "geometry": { "type": "Point", "coordinates": [ 129.32431, 35.473396, 225.0 ] } },
{ "type": "Feature", "properties": { "value": 1.2905 }, "geometry": { "type": "Point", "coordinates": [ 129.325424, 35.473396, 225.0 ] } },
{ "type": "Feature", "properties": { "value": 1.1255 }, "geometry": { "type": "Point", "coordinates": [ 129.326523, 35.473392, 225.0 ] } },
{ "type": "Feature", "properties": { "value": 0.7345 }, "geometry": { "type": "Point", "coordinates": [ 129.327621, 35.473389, 225.0 ] } },
{ "type": "Feature", "properties": { "value": 0.3694 }, "geometry": { "type": "Point", "coordinates": [ 129.32872, 35.473385, 225.0 ] } },
{ "type": "Feature", "properties": { "value": 0.1452 }, "geometry": { "type": "Point", "coordinates": [ 129.329819, 35.473385, 225.0 ] } },
{ "type": "Feature", "properties": { "value": 0.0432 }, "geometry": { "type": "Point", "coordinates": [ 129.330933, 35.473381, 225.0 ] } },
{ "type": "Feature", "properties": { "value": 0.0008 }, "geometry": { "type": "Point", "coordinates": [ 129.332031, 35.473377, 225.0 ] } },
{ "type": "Feature", "properties": { "value": 0.2582 }, "geometry": { "type": "Point", "coordinates": [ 129.308899, 35.474339, 225.0 ] } },
{ "type": "Feature", "properties": { "value": 0.9438 }, "geometry": { "type": "Point", "coordinates": [ 129.309998, 35.474339, 225.0 ] } },
{ "type": "Feature", "properties": { "value": 2.5958 }, "geometry": { "type": "Point", "coordinates": [ 129.311096, 35.474335, 225.0 ] } },
{ "type": "Feature", "properties": { "value": 6.1426 }, "geometry": { "type": "Point", "coordinates": [ 129.312195, 35.474331, 225.0 ] } },
{ "type": "Feature", "properties": { "value": 12.599 }, "geometry": { "type": "Point", "coordinates": [ 129.313309, 35.474327, 225.0 ] } },
{ "type": "Feature", "properties": { "value": 21.115 }, "geometry": { "type": "Point", "coordinates": [ 129.314407, 35.474327, 225.0 ] } },
{ "type": "Feature", "properties": { "value": 27.532 }, "geometry": { "type": "Point", "coordinates": [ 129.315506, 35.474323, 225.0 ] } },
{ "type": "Feature", "properties": { "value": 26.708 }, "geometry": { "type": "Point", "coordinates": [ 129.316605, 35.474319, 225.0 ] } },
{ "type": "Feature", "properties": { "value": 18.663 }, "geometry": { "type": "Point", "coordinates": [ 129.317703, 35.474316, 225.0 ] } },
{ "type": "Feature", "properties": { "value": 9.3494 }, "geometry": { "type": "Point", "coordinates": [ 129.318817, 35.474316, 225.0 ] } },
{ "type": "Feature", "properties": { "value": 3.4119 }, "geometry": { "type": "Point", "coordinates": [ 129.319916, 35.474312, 225.0 ] } },
{ "type": "Feature", "properties": { "value": 1.0752 }, "geometry": { "type": "Point", "coordinates": [ 129.321014, 35.474308, 225.0 ] } },
{ "type": "Feature", "properties": { "value": 0.5105 }, "geometry": { "type": "Point", "coordinates": [ 129.322113, 35.474304, 225.0 ] } },
{ "type": "Feature", "properties": { "value": 0.8734 }, "geometry": { "type": "Point", "coordinates": [ 129.323212, 35.4743, 225.0 ] } },
{ "type": "Feature", "properties": { "value": 1.2077 }, "geometry": { "type": "Point", "coordinates": [ 129.324326, 35.4743, 225.0 ] } },
{ "type": "Feature", "properties": { "value": 1.3253 }, "geometry": { "type": "Point", "coordinates": [ 129.325424, 35.474297, 225.0 ] } },
{ "type": "Feature", "properties": { "value": 1.1427 }, "geometry": { "type": "Point", "coordinates": [ 129.326523, 35.474293, 225.0 ] } },
{ "type": "Feature", "properties": { "value": 0.7727 }, "geometry": { "type": "Point", "coordinates": [ 129.327621, 35.474289, 225.0 ] } },
{ "type": "Feature", "properties": { "value": 0.4123 }, "geometry": { "type": "Point", "coordinates": [ 129.328735, 35.474289, 225.0 ] } },
{ "type": "Feature", "properties": { "value": 0.1754 }, "geometry": { "type": "Point", "coordinates": [ 129.329834, 35.474285, 225.0 ] } },
{ "type": "Feature", "properties": { "value": 0.061 }, "geometry": { "type": "Point", "coordinates": [ 129.330933, 35.474281, 225.0 ] } },
{ "type": "Feature", "properties": { "value": 0.0128 }, "geometry": { "type": "Point", "coordinates": [ 129.332031, 35.474277, 225.0 ] } },
{ "type": "Feature", "properties": { "value": 0.1728 }, "geometry": { "type": "Point", "coordinates": [ 129.3078, 35.475243, 225.0 ] } },
{ "type": "Feature", "properties": { "value": 0.674 }, "geometry": { "type": "Point", "coordinates": [ 129.308899, 35.475243, 225.0 ] } },
{ "type": "Feature", "properties": { "value": 1.7085 }, "geometry": { "type": "Point", "coordinates": [ 129.309998, 35.475239, 225.0 ] } },
{ "type": "Feature", "properties": { "value": 3.9869 }, "geometry": { "type": "Point", "coordinates": [ 129.311096, 35.475235, 225.0 ] } },
{ "type": "Feature", "properties": { "value": 8.2977 }, "geometry": { "type": "Point", "coordinates": [ 129.31221, 35.475231, 225.0 ] } },
{ "type": "Feature", "properties": { "value": 14.906 }, "geometry": { "type": "Point", "coordinates": [ 129.313309, 35.475231, 225.0 ] } },
{ "type": "Feature", "properties": { "value": 22.252 }, "geometry": { "type": "Point", "coordinates": [ 129.314407, 35.475227, 225.0 ] } },
{ "type": "Feature", "properties": { "value": 26.601 }, "geometry": { "type": "Point", "coordinates": [ 129.315506, 35.475224, 225.0 ] } },
{ "type": "Feature", "properties": { "value": 24.581 }, "geometry": { "type": "Point", "coordinates": [ 129.316605, 35.47522, 225.0 ] } },
{ "type": "Feature", "properties": { "value": 17.206 }, "geometry": { "type": "Point", "coordinates": [ 129.317719, 35.47522, 225.0 ] } },
{ "type": "Feature", "properties": { "value": 9.072 }, "geometry": { "type": "Point", "coordinates": [ 129.318817, 35.475216, 225.0 ] } },
{ "type": "Feature", "properties": { "value": 3.7192 }, "geometry": { "type": "Point", "coordinates": [ 129.319916, 35.475212, 225.0 ] } },
{ "type": "Feature", "properties": { "value": 1.3635 }, "geometry": { "type": "Point", "coordinates": [ 129.321014, 35.475208, 225.0 ] } },
{ "type": "Feature", "properties": { "value": 0.7108 }, "geometry": { "type": "Point", "coordinates": [ 129.322113, 35.475208, 225.0 ] } },
{ "type": "Feature", "properties": { "value": 0.9409 }, "geometry": { "type": "Point", "coordinates": [ 129.323227, 35.475204, 225.0 ] } },
{ "type": "Feature", "properties": { "value": 1.24 }, "geometry": { "type": "Point", "coordinates": [ 129.324326, 35.475201, 225.0 ] } },
{ "type": "Feature", "properties": { "value": 1.3271 }, "geometry": { "type": "Point", "coordinates": [ 129.325424, 35.475197, 225.0 ] } },
{ "type": "Feature", "properties": { "value": 1.1431 }, "geometry": { "type": "Point", "coordinates": [ 129.326523, 35.475193, 225.0 ] } },
{ "type": "Feature", "properties": { "value": 0.7913 }, "geometry": { "type": "Point", "coordinates": [ 129.327637, 35.475193, 225.0 ] } },
{ "type": "Feature", "properties": { "value": 0.4426 }, "geometry": { "type": "Point", "coordinates": [ 129.328735, 35.475189, 225.0 ] } },
{ "type": "Feature", "properties": { "value": 0.2034 }, "geometry": { "type": "Point", "coordinates": [ 129.329834, 35.475185, 225.0 ] } },
{ "type": "Feature", "properties": { "value": 0.0773 }, "geometry": { "type": "Point", "coordinates": [ 129.330933, 35.475182, 225.0 ] } },
{ "type": "Feature", "properties": { "value": 0.0214 }, "geometry": { "type": "Point", "coordinates": [ 129.332031, 35.475178, 225.0 ] } },
{ "type": "Feature", "properties": { "value": 0.1138 }, "geometry": { "type": "Point", "coordinates": [ 129.306702, 35.476147, 225.0 ] } },
{ "type": "Feature", "properties": { "value": 0.4792 }, "geometry": { "type": "Point", "coordinates": [ 129.3078, 35.476147, 225.0 ] } },
{ "type": "Feature", "properties": { "value": 1.1875 }, "geometry": { "type": "Point", "coordinates": [ 129.308899, 35.476143, 225.0 ] } },
{ "type": "Feature", "properties": { "value": 2.6608 }, "geometry": { "type": "Point", "coordinates": [ 129.309998, 35.476139, 225.0 ] } },
{ "type": "Feature", "properties": { "value": 5.4777 }, "geometry": { "type": "Point", "coordinates": [ 129.311111, 35.476135, 225.0 ] } },
{ "type": "Feature", "properties": { "value": 10.209 }, "geometry": { "type": "Point", "coordinates": [ 129.31221, 35.476135, 225.0 ] } },
{ "type": "Feature", "properties": { "value": 16.506 }, "geometry": { "type": "Point", "coordinates": [ 129.313309, 35.476131, 225.0 ] } },
{ "type": "Feature", "properties": { "value": 22.485 }, "geometry": { "type": "Point", "coordinates": [ 129.314407, 35.476128, 225.0 ] } },
{ "type": "Feature", "properties": { "value": 25.107 }, "geometry": { "type": "Point", "coordinates": [ 129.315506, 35.476124, 225.0 ] } },
{ "type": "Feature", "properties": { "value": 22.376 }, "geometry": { "type": "Point", "coordinates": [ 129.31662, 35.476124, 225.0 ] } },
{ "type": "Feature", "properties": { "value": 15.707 }, "geometry": { "type": "Point", "coordinates": [ 129.317719, 35.47612, 225.0 ] } },
{ "type": "Feature", "properties": { "value": 8.6744 }, "geometry": { "type": "Point", "coordinates": [ 129.318817, 35.476116, 225.0 ] } },
{ "type": "Feature", "properties": { "value": 3.8838 }, "geometry": { "type": "Point", "coordinates": [ 129.319916, 35.476112, 225.0 ] } },
{ "type": "Feature", "properties": { "value": 1.5968 }, "geometry": { "type": "Point", "coordinates": [ 129.32103, 35.476112, 225.0 ] } },
{ "type": "Feature", "properties": { "value": 0.8899 }, "geometry": { "type": "Point", "coordinates": [ 129.322128, 35.476109, 225.0 ] } },
{ "type": "Feature", "properties": { "value": 0.9608 }, "geometry": { "type": "Point", "coordinates": [ 129.323227, 35.476105, 225.0 ] } },
{ "type": "Feature", "properties": { "value": 1.2218 }, "geometry": { "type": "Point", "coordinates": [ 129.324326, 35.476101, 225.0 ] } },
{ "type": "Feature", "properties": { "value": 1.2824 }, "geometry": { "type": "Point", "coordinates": [ 129.325424, 35.476097, 225.0 ] } },
{ "type": "Feature", "properties": { "value": 1.105 }, "geometry": { "type": "Point", "coordinates": [ 129.326538, 35.476097, 225.0 ] } },
{ "type": "Feature", "properties": { "value": 0.7811 }, "geometry": { "type": "Point", "coordinates": [ 129.327637, 35.476093, 225.0 ] } },
{ "type": "Feature", "properties": { "value": 0.4541 }, "geometry": { "type": "Point", "coordinates": [ 129.328735, 35.476089, 225.0 ] } },
{ "type": "Feature", "properties": { "value": 0.2213 }, "geometry": { "type": "Point", "coordinates": [ 129.329834, 35.476086, 225.0 ] } },
{ "type": "Feature", "properties": { "value": 0.0892 }, "geometry": { "type": "Point", "coordinates": [ 129.330933, 35.476086, 225.0 ] } },
{ "type": "Feature", "properties": { "value": 0.0292 }, "geometry": { "type": "Point", "coordinates": [ 129.332047, 35.476082, 225.0 ] } },
{ "type": "Feature", "properties": { "value": 0.0963 }, "geometry": { "type": "Point", "coordinates": [ 129.305603, 35.477051, 225.0 ] } },
{ "type": "Feature", "properties": { "value": 0.329 }, "geometry": { "type": "Point", "coordinates": [ 129.306702, 35.477051, 225.0 ] } },
{ "type": "Feature", "properties": { "value": 0.8221 }, "geometry": { "type": "Point", "coordinates": [ 129.3078, 35.477047, 225.0 ] } },
{ "type": "Feature", "properties": { "value": 1.7958 }, "geometry": { "type": "Point", "coordinates": [ 129.308899, 35.477043, 225.0 ] } },
{ "type": "Feature", "properties": { "value": 3.6871 }, "geometry": { "type": "Point", "coordinates": [ 129.310013, 35.477039, 225.0 ] } },
{ "type": "Feature", "properties": { "value": 6.954 }, "geometry": { "type": "Point", "coordinates": [ 129.311111, 35.477039, 225.0 ] } },
{ "type": "Feature", "properties": { "value": 11.754 }, "geometry": { "type": "Point", "coordinates": [ 129.31221, 35.477036, 225.0 ] } },
{ "type": "Feature", "properties": { "value": 17.425 }, "geometry": { "type": "Point", "coordinates": [ 129.313309, 35.477032, 225.0 ] } },
{ "type": "Feature", "properties": { "value": 22.056 }, "geometry": { "type": "Point", "coordinates": [ 129.314407, 35.477028, 225.0 ] } },
{ "type": "Feature", "properties": { "value": 23.315 }, "geometry": { "type": "Point", "coordinates": [ 129.315521, 35.477028, 225.0 ] } },
{ "type": "Feature", "properties": { "value": 20.251 }, "geometry": { "type": "Point", "coordinates": [ 129.31662, 35.477024, 225.0 ] } },
{ "type": "Feature", "properties": { "value": 14.256 }, "geometry": { "type": "Point", "coordinates": [ 129.317719, 35.47702, 225.0 ] } },
{ "type": "Feature", "properties": { "value": 8.1924 }, "geometry": { "type": "Point", "coordinates": [ 129.318817, 35.477016, 225.0 ] } },
{ "type": "Feature", "properties": { "value": 3.9392 }, "geometry": { "type": "Point", "coordinates": [ 129.319931, 35.477016, 225.0 ] } },
{ "type": "Feature", "properties": { "value": 1.7735 }, "geometry": { "type": "Point", "coordinates": [ 129.32103, 35.477013, 225.0 ] } },
{ "type": "Feature", "properties": { "value": 0.9856 }, "geometry": { "type": "Point", "coordinates": [ 129.322128, 35.477009, 225.0 ] } },
{ "type": "Feature", "properties": { "value": 0.9202 }, "geometry": { "type": "Point", "coordinates": [ 129.323227, 35.477005, 225.0 ] } },
{ "type": "Feature", "properties": { "value": 1.1406 }, "geometry": { "type": "Point", "coordinates": [ 129.324326, 35.477005, 225.0 ] } },
{ "type": "Feature", "properties": { "value": 1.1811 }, "geometry": { "type": "Point", "coordinates": [ 129.325439, 35.477001, 225.0 ] } },
{ "type": "Feature", "properties": { "value": 1.0185 }, "geometry": { "type": "Point", "coordinates": [ 129.326538, 35.476997, 225.0 ] } },
{ "type": "Feature", "properties": { "value": 0.7347 }, "geometry": { "type": "Point", "coordinates": [ 129.327637, 35.476994, 225.0 ] } },
{ "type": "Feature", "properties": { "value": 0.4409 }, "geometry": { "type": "Point", "coordinates": [ 129.328735, 35.47699, 225.0 ] } },
{ "type": "Feature", "properties": { "value": 0.2222 }, "geometry": { "type": "Point", "coordinates": [ 129.329834, 35.47699, 225.0 ] } },
{ "type": "Feature", "properties": { "value": 0.0936 }, "geometry": { "type": "Point", "coordinates": [ 129.330948, 35.476986, 225.0 ] } },
{ "type": "Feature", "properties": { "value": 0.032 }, "geometry": { "type": "Point", "coordinates": [ 129.332047, 35.476982, 225.0 ] } },
{ "type": "Feature", "properties": { "value": 0.0054 }, "geometry": { "type": "Point", "coordinates": [ 129.333145, 35.476978, 225.0 ] } },
{ "type": "Feature", "properties": { "value": 0.0493 }, "geometry": { "type": "Point", "coordinates": [ 129.304504, 35.477955, 225.0 ] } },
{ "type": "Feature", "properties": { "value": 0.2117 }, "geometry": { "type": "Point", "coordinates": [ 129.305603, 35.477955, 225.0 ] } },
{ "type": "Feature", "properties": { "value": 0.5679 }, "geometry": { "type": "Point", "coordinates": [ 129.306702, 35.477951, 225.0 ] } },
{ "type": "Feature", "properties": { "value": 1.2428 }, "geometry": { "type": "Point", "coordinates": [ 129.3078, 35.477947, 225.0 ] } },
{ "type": "Feature", "properties": { "value": 2.5141 }, "geometry": { "type": "Point", "coordinates": [ 129.308914, 35.477943, 225.0 ] } },
{ "type": "Feature", "properties": { "value": 4.7248 }, "geometry": { "type": "Point", "coordinates": [ 129.310013, 35.477943, 225.0 ] } },
{ "type": "Feature", "properties": { "value": 8.2186 }, "geometry": { "type": "Point", "coordinates": [ 129.311111, 35.47794, 225.0 ] } },
{ "type": "Feature", "properties": { "value": 12.844 }, "geometry": { "type": "Point", "coordinates": [ 129.31221, 35.477936, 225.0 ] } },
{ "type": "Feature", "properties": { "value": 17.701 }, "geometry": { "type": "Point", "coordinates": [ 129.313324, 35.477932, 225.0 ] } },
{ "type": "Feature", "properties": { "value": 21.153 }, "geometry": { "type": "Point", "coordinates": [ 129.314423, 35.477932, 225.0 ] } },
{ "type": "Feature", "properties": { "value": 21.443 }, "geometry": { "type": "Point", "coordinates": [ 129.315521, 35.477928, 225.0 ] } },
{ "type": "Feature", "properties": { "value": 18.228 }, "geometry": { "type": "Point", "coordinates": [ 129.31662, 35.477924, 225.0 ] } },
{ "type": "Feature", "properties": { "value": 12.911 }, "geometry": { "type": "Point", "coordinates": [ 129.317719, 35.477921, 225.0 ] } },
{ "type": "Feature", "properties": { "value": 7.624 }, "geometry": { "type": "Point", "coordinates": [ 129.318832, 35.477921, 225.0 ] } },
{ "type": "Feature", "properties": { "value": 3.8635 }, "geometry": { "type": "Point", "coordinates": [ 129.319931, 35.477917, 225.0 ] } },
{ "type": "Feature", "properties": { "value": 1.8619 }, "geometry": { "type": "Point", "coordinates": [ 129.32103, 35.477913, 225.0 ] } },
{ "type": "Feature", "properties": { "value": 1.065 }, "geometry": { "type": "Point", "coordinates": [ 129.322128, 35.477909, 225.0 ] } },
{ "type": "Feature", "properties": { "value": 0.82 }, "geometry": { "type": "Point", "coordinates": [ 129.323227, 35.477909, 225.0 ] } },
{ "type": "Feature", "properties": { "value": 0.9946 }, "geometry": { "type": "Point", "coordinates": [ 129.324341, 35.477905, 225.0 ] } },
{ "type": "Feature", "properties": { "value": 1.0209 }, "geometry": { "type": "Point", "coordinates": [ 129.325439, 35.477901, 225.0 ] } },
{ "type": "Feature", "properties": { "value": 0.8864 }, "geometry": { "type": "Point", "coordinates": [ 129.326538, 35.477898, 225.0 ] } },
{ "type": "Feature", "properties": { "value": 0.6488 }, "geometry": { "type": "Point", "coordinates": [ 129.327637, 35.477894, 225.0 ] } },
{ "type": "Feature", "properties": { "value": 0.3971 }, "geometry": { "type": "Point", "coordinates": [ 129.328735, 35.477894, 225.0 ] } },
{ "type": "Feature", "properties": { "value": 0.2057 }, "geometry": { "type": "Point", "coordinates": [ 129.329849, 35.47789, 225.0 ] } },
{ "type": "Feature", "properties": { "value": 0.0894 }, "geometry": { "type": "Point", "coordinates": [ 129.330948, 35.477886, 225.0 ] } },
{ "type": "Feature", "properties": { "value": 0.0315 }, "geometry": { "type": "Point", "coordinates": [ 129.332047, 35.477882, 225.0 ] } },
{ "type": "Feature", "properties": { "value": 0.0064 }, "geometry": { "type": "Point", "coordinates": [ 129.333145, 35.477879, 225.0 ] } },
{ "type": "Feature", "properties": { "value": 0.1438 }, "geometry": { "type": "Point", "coordinates": [ 129.304504, 35.478859, 225.0 ] } },
{ "type": "Feature", "properties": { "value": 0.3802 }, "geometry": { "type": "Point", "coordinates": [ 129.305603, 35.478855, 225.0 ] } },
{ "type": "Feature", "properties": { "value": 0.8395 }, "geometry": { "type": "Point", "coordinates": [ 129.306702, 35.478851, 225.0 ] } },
{ "type": "Feature", "properties": { "value": 1.6946 }, "geometry": { "type": "Point", "coordinates": [ 129.307816, 35.478848, 225.0 ] } },
{ "type": "Feature", "properties": { "value": 3.2204 }, "geometry": { "type": "Point", "coordinates": [ 129.308914, 35.478848, 225.0 ] } },
{ "type": "Feature", "properties": { "value": 5.685 }, "geometry": { "type": "Point", "coordinates": [ 129.310013, 35.478844, 225.0 ] } },
{ "type": "Feature", "properties": { "value": 9.1885 }, "geometry": { "type": "Point", "coordinates": [ 129.311111, 35.47884, 225.0 ] } },
{ "type": "Feature", "properties": { "value": 13.445 }, "geometry": { "type": "Point", "coordinates": [ 129.312225, 35.478836, 225.0 ] } },
{ "type": "Feature", "properties": { "value": 17.471 }, "geometry": { "type": "Point", "coordinates": [ 129.313324, 35.478836, 225.0 ] } },
{ "type": "Feature", "properties": { "value": 19.892 }, "geometry": { "type": "Point", "coordinates": [ 129.314423, 35.478832, 225.0 ] } },
{ "type": "Feature", "properties": { "value": 19.513 }, "geometry": { "type": "Point", "coordinates": [ 129.315521, 35.478828, 225.0 ] } },
{ "type": "Feature", "properties": { "value": 16.342 }, "geometry": { "type": "Point", "coordinates": [ 129.31662, 35.478825, 225.0 ] } },
{ "type": "Feature", "properties": { "value": 11.636 }, "geometry": { "type": "Point", "coordinates": [ 129.317734, 35.478825, 225.0 ] } },
{ "type": "Feature", "properties": { "value": 7.0536 }, "geometry": { "type": "Point", "coordinates": [ 129.318832, 35.478821, 225.0 ] } },
{ "type": "Feature", "properties": { "value": 3.7344 }, "geometry": { "type": "Point", "coordinates": [ 129.319931, 35.478817, 225.0 ] } },
{ "type": "Feature", "properties": { "value": 1.8754 }, "geometry": { "type": "Point", "coordinates": [ 129.32103, 35.478813, 225.0 ] } },
{ "type": "Feature", "properties": { "value": 1.0514 }, "geometry": { "type": "Point", "coordinates": [ 129.322128, 35.478813, 225.0 ] } },
{ "type": "Feature", "properties": { "value": 0.7695 }, "geometry": { "type": "Point", "coordinates": [ 129.323242, 35.478809, 225.0 ] } },
{ "type": "Feature", "properties": { "value": 0.8053 }, "geometry": { "type": "Point", "coordinates": [ 129.324341, 35.478806, 225.0 ] } },
{ "type": "Feature", "properties": { "value": 0.8226 }, "geometry": { "type": "Point", "coordinates": [ 129.325439, 35.478802, 225.0 ] } },
{ "type": "Feature", "properties": { "value": 0.7143 }, "geometry": { "type": "Point", "coordinates": [ 129.326538, 35.478798, 225.0 ] } },
{ "type": "Feature", "properties": { "value": 0.5261 }, "geometry": { "type": "Point", "coordinates": [ 129.327637, 35.478798, 225.0 ] } },
{ "type": "Feature", "properties": { "value": 0.3276 }, "geometry": { "type": "Point", "coordinates": [ 129.328751, 35.478794, 225.0 ] } },
{ "type": "Feature", "properties": { "value": 0.173 }, "geometry": { "type": "Point", "coordinates": [ 129.329849, 35.47879, 225.0 ] } },
{ "type": "Feature", "properties": { "value": 0.0775 }, "geometry": { "type": "Point", "coordinates": [ 129.330948, 35.478786, 225.0 ] } },
{ "type": "Feature", "properties": { "value": 0.0288 }, "geometry": { "type": "Point", "coordinates": [ 129.332047, 35.478786, 225.0 ] } },
{ "type": "Feature", "properties": { "value": 0.0066 }, "geometry": { "type": "Point", "coordinates": [ 129.33316, 35.478783, 225.0 ] } },
{ "type": "Feature", "properties": { "value": 0.0765 }, "geometry": { "type": "Point", "coordinates": [ 129.303406, 35.479763, 225.0 ] } },
{ "type": "Feature", "properties": { "value": 0.2357 }, "geometry": { "type": "Point", "coordinates": [ 129.304504, 35.479759, 225.0 ] } },
{ "type": "Feature", "properties": { "value": 0.5436 }, "geometry": { "type": "Point", "coordinates": [ 129.305603, 35.479755, 225.0 ] } },
{ "type": "Feature", "properties": { "value": 1.1344 }, "geometry": { "type": "Point", "coordinates": [ 129.306717, 35.479752, 225.0 ] } },
{ "type": "Feature", "properties": { "value": 2.1687 }, "geometry": { "type": "Point", "coordinates": [ 129.307816, 35.479752, 225.0 ] } },
{ "type": "Feature", "properties": { "value": 3.8621 }, "geometry": { "type": "Point", "coordinates": [ 129.308914, 35.479748, 225.0 ] } },
{ "type": "Feature", "properties": { "value": 6.4277 }, "geometry": { "type": "Point", "coordinates": [ 129.310013, 35.479744, 225.0 ] } },
{ "type": "Feature", "properties": { "value": 9.8006 }, "geometry": { "type": "Point", "coordinates": [ 129.311127, 35.47974, 225.0 ] } },
{ "type": "Feature", "properties": { "value": 13.563 }, "geometry": { "type": "Point", "coordinates": [ 129.312225, 35.47974, 225.0 ] } },
{ "type": "Feature", "properties": { "value": 16.776 }, "geometry": { "type": "Point", "coordinates": [ 129.313324, 35.479736, 225.0 ] } },
{ "type": "Feature", "properties": { "value": 18.362 }, "geometry": { "type": "Point", "coordinates": [ 129.314423, 35.479733, 225.0 ] } },
{ "type": "Feature", "properties": { "value": 17.545 }, "geometry": { "type": "Point", "coordinates": [ 129.315521, 35.479729, 225.0 ] } },
{ "type": "Feature", "properties": { "value": 14.534 }, "geometry": { "type": "Point", "coordinates": [ 129.316635, 35.479729, 225.0 ] } },
{ "type": "Feature", "properties": { "value": 10.384 }, "geometry": { "type": "Point", "coordinates": [ 129.317734, 35.479725, 225.0 ] } },
{ "type": "Feature", "properties": { "value": 6.4512 }, "geometry": { "type": "Point", "coordinates": [ 129.318832, 35.479721, 225.0 ] } },
{ "type": "Feature", "properties": { "value": 3.5323 }, "geometry": { "type": "Point", "coordinates": [ 129.319931, 35.479717, 225.0 ] } },
{ "type": "Feature", "properties": { "value": 1.7973 }, "geometry": { "type": "Point", "coordinates": [ 129.32103, 35.479717, 225.0 ] } },
{ "type": "Feature", "properties": { "value": 0.9937 }, "geometry": { "type": "Point", "coordinates": [ 129.322144, 35.479713, 225.0 ] } },
{ "type": "Feature", "properties": { "value": 0.6616 }, "geometry": { "type": "Point", "coordinates": [ 129.323242, 35.47971, 225.0 ] } },
{ "type": "Feature", "properties": { "value": 0.5975 }, "geometry": { "type": "Point", "coordinates": [ 129.324341, 35.479706, 225.0 ] } },
{ "type": "Feature", "properties": { "value": 0.6059 }, "geometry": { "type": "Point", "coordinates": [ 129.325439, 35.479706, 225.0 ] } },
{ "type": "Feature", "properties": { "value": 0.5246 }, "geometry": { "type": "Point", "coordinates": [ 129.326553, 35.479702, 225.0 ] } },
{ "type": "Feature", "properties": { "value": 0.3884 }, "geometry": { "type": "Point", "coordinates": [ 129.327652, 35.479698, 225.0 ] } },
{ "type": "Feature", "properties": { "value": 0.2455 }, "geometry": { "type": "Point", "coordinates": [ 129.328751, 35.479694, 225.0 ] } },
{ "type": "Feature", "properties": { "value": 0.1325 }, "geometry": { "type": "Point", "coordinates": [ 129.329849, 35.479691, 225.0 ] } },
{ "type": "Feature", "properties": { "value": 0.0607 }, "geometry": { "type": "Point", "coordinates": [ 129.330948, 35.479691, 225.0 ] } },
{ "type": "Feature", "properties": { "value": 0.0229 }, "geometry": { "type": "Point", "coordinates": [ 129.332062, 35.479687, 225.0 ] } },
{ "type": "Feature", "properties": { "value": 0.0055 }, "geometry": { "type": "Point", "coordinates": [ 129.33316, 35.479683, 225.0 ] } },
{ "type": "Feature", "properties": { "value": 0.0198 }, "geometry": { "type": "Point", "coordinates": [ 129.302307, 35.480667, 225.0 ] } },
{ "type": "Feature", "properties": { "value": 0.1401 }, "geometry": { "type": "Point", "coordinates": [ 129.303406, 35.480663, 225.0 ] } },
{ "type": "Feature", "properties": { "value": 0.3265 }, "geometry": { "type": "Point", "coordinates": [ 129.304504, 35.480659, 225.0 ] } },
{ "type": "Feature", "properties": { "value": 0.7147 }, "geometry": { "type": "Point", "coordinates": [ 129.305618, 35.480656, 225.0 ] } },
{ "type": "Feature", "properties": { "value": 1.4017 }, "geometry": { "type": "Point", "coordinates": [ 129.306717, 35.480656, 225.0 ] } },
{ "type": "Feature", "properties": { "value": 2.5686 }, "geometry": { "type": "Point", "coordinates": [ 129.307816, 35.480652, 225.0 ] } },
{ "type": "Feature", "properties": { "value": 4.365 }, "geometry": { "type": "Point", "coordinates": [ 129.308914, 35.480648, 225.0 ] } },
{ "type": "Feature", "properties": { "value": 6.9108 }, "geometry": { "type": "Point", "coordinates": [ 129.310028, 35.480644, 225.0 ] } },
{ "type": "Feature", "properties": { "value": 10.025 }, "geometry": { "type": "Point", "coordinates": [ 129.311127, 35.480644, 225.0 ] } },
{ "type": "Feature", "properties": { "value": 13.22 }, "geometry": { "type": "Point", "coordinates": [ 129.312225, 35.48064, 225.0 ] } },
{ "type": "Feature", "properties": { "value": 15.718 }, "geometry": { "type": "Point", "coordinates": [ 129.313324, 35.480637, 225.0 ] } },
{ "type": "Feature", "properties": { "value": 16.643 }, "geometry": { "type": "Point", "coordinates": [ 129.314423, 35.480633, 225.0 ] } },
{ "type": "Feature", "properties": { "value": 15.566 }, "geometry": { "type": "Point", "coordinates": [ 129.315536, 35.480633, 225.0 ] } },
{ "type": "Feature", "properties": { "value": 12.789 }, "geometry": { "type": "Point", "coordinates": [ 129.316635, 35.480629, 225.0 ] } },
{ "type": "Feature", "properties": { "value": 9.206 }, "geometry": { "type": "Point", "coordinates": [ 129.317734, 35.480625, 225.0 ] } },
{ "type": "Feature", "properties": { "value": 5.807 }, "geometry": { "type": "Point", "coordinates": [ 129.318832, 35.480621, 225.0 ] } },
{ "type": "Feature", "properties": { "value": 3.2836 }, "geometry": { "type": "Point", "coordinates": [ 129.319931, 35.480621, 225.0 ] } },
{ "type": "Feature", "properties": { "value": 1.7049 }, "geometry": { "type": "Point", "coordinates": [ 129.321045, 35.480618, 225.0 ] } },
{ "type": "Feature", "properties": { "value": 0.9091 }, "geometry": { "type": "Point", "coordinates": [ 129.322144, 35.480614, 225.0 ] } },
{ "type": "Feature", "properties": { "value": 0.5547 }, "geometry": { "type": "Point", "coordinates": [ 129.323242, 35.48061, 225.0 ] } },
{ "type": "Feature", "properties": { "value": 0.404 }, "geometry": { "type": "Point", "coordinates": [ 129.324341, 35.48061, 225.0 ] } },
{ "type": "Feature", "properties": { "value": 0.407 }, "geometry": { "type": "Point", "coordinates": [ 129.325455, 35.480606, 225.0 ] } },
{ "type": "Feature", "properties": { "value": 0.3518 }, "geometry": { "type": "Point", "coordinates": [ 129.326553, 35.480602, 225.0 ] } },
{ "type": "Feature", "properties": { "value": 0.261 }, "geometry": { "type": "Point", "coordinates": [ 129.327652, 35.480598, 225.0 ] } },
{ "type": "Feature", "properties": { "value": 0.1669 }, "geometry": { "type": "Point", "coordinates": [ 129.328751, 35.480595, 225.0 ] } },
{ "type": "Feature", "properties": { "value": 0.0913 }, "geometry": { "type": "Point", "coordinates": [ 129.329849, 35.480595, 225.0 ] } },
{ "type": "Feature", "properties": { "value": 0.0426 }, "geometry": { "type": "Point", "coordinates": [ 129.330963, 35.480591, 225.0 ] } },
{ "type": "Feature", "properties": { "value": 0.0161 }, "geometry": { "type": "Point", "coordinates": [ 129.332062, 35.480587, 225.0 ] } },
{ "type": "Feature", "properties": { "value": 0.004 }, "geometry": { "type": "Point", "coordinates": [ 129.33316, 35.480583, 225.0 ] } },
{ "type": "Feature", "properties": { "value": 0.0651 }, "geometry": { "type": "Point", "coordinates": [ 129.302307, 35.481567, 225.0 ] } },
{ "type": "Feature", "properties": { "value": 0.1853 }, "geometry": { "type": "Point", "coordinates": [ 129.303421, 35.481564, 225.0 ] } },
{ "type": "Feature", "properties": { "value": 0.4152 }, "geometry": { "type": "Point", "coordinates": [ 129.30452, 35.48156, 225.0 ] } },
{ "type": "Feature", "properties": { "value": 0.8675 }, "geometry": { "type": "Point", "coordinates": [ 129.305618, 35.48156, 225.0 ] } },
{ "type": "Feature", "properties": { "value": 1.6361 }, "geometry": { "type": "Point", "coordinates": [ 129.306717, 35.481556, 225.0 ] } },
{ "type": "Feature", "properties": { "value": 2.8636 }, "geometry": { "type": "Point", "coordinates": [ 129.307816, 35.481552, 225.0 ] } },
{ "type": "Feature", "properties": { "value": 4.6937 }, "geometry": { "type": "Point", "coordinates": [ 129.308929, 35.481548, 225.0 ] } },
{ "type": "Feature", "properties": { "value": 7.0996 }, "geometry": { "type": "Point", "coordinates": [ 129.310028, 35.481548, 225.0 ] } },
{ "type": "Feature", "properties": { "value": 9.8831 }, "geometry": { "type": "Point", "coordinates": [ 129.311127, 35.481544, 225.0 ] } },
{ "type": "Feature", "properties": { "value": 12.535 }, "geometry": { "type": "Point", "coordinates": [ 129.312225, 35.481541, 225.0 ] } },
{ "type": "Feature", "properties": { "value": 14.404 }, "geometry": { "type": "Point", "coordinates": [ 129.313324, 35.481537, 225.0 ] } },
{ "type": "Feature", "properties": { "value": 14.841 }, "geometry": { "type": "Point", "coordinates": [ 129.314438, 35.481537, 225.0 ] } },
{ "type": "Feature", "properties": { "value": 13.652 }, "geometry": { "type": "Point", "coordinates": [ 129.315536, 35.481533, 225.0 ] } },
{ "type": "Feature", "properties": { "value": 11.147 }, "geometry": { "type": "Point", "coordinates": [ 129.316635, 35.481529, 225.0 ] } },
{ "type": "Feature", "properties": { "value": 8.0704 }, "geometry": { "type": "Point", "coordinates": [ 129.317734, 35.481525, 225.0 ] } },
{ "type": "Feature", "properties": { "value": 5.1791 }, "geometry": { "type": "Point", "coordinates": [ 129.318848, 35.481525, 225.0 ] } },
{ "type": "Feature", "properties": { "value": 2.9785 }, "geometry": { "type": "Point", "coordinates": [ 129.319946, 35.481522, 225.0 ] } },
{ "type": "Feature", "properties": { "value": 1.5801 }, "geometry": { "type": "Point", "coordinates": [ 129.321045, 35.481518, 225.0 ] } },
{ "type": "Feature", "properties": { "value": 0.8185 }, "geometry": { "type": "Point", "coordinates": [ 129.322144, 35.481514, 225.0 ] } },
{ "type": "Feature", "properties": { "value": 0.4527 }, "geometry": { "type": "Point", "coordinates": [ 129.323242, 35.481514, 225.0 ] } },
{ "type": "Feature", "properties": { "value": 0.2665 }, "geometry": { "type": "Point", "coordinates": [ 129.324356, 35.48151, 225.0 ] } },
{ "type": "Feature", "properties": { "value": 0.2475 }, "geometry": { "type": "Point", "coordinates": [ 129.325455, 35.481506, 225.0 ] } },
{ "type": "Feature", "properties": { "value": 0.2142 }, "geometry": { "type": "Point", "coordinates": [ 129.326553, 35.481503, 225.0 ] } },
{ "type": "Feature", "properties": { "value": 0.159 }, "geometry": { "type": "Point", "coordinates": [ 129.327652, 35.481503, 225.0 ] } },
{ "type": "Feature", "properties": { "value": 0.1027 }, "geometry": { "type": "Point", "coordinates": [ 129.328751, 35.481499, 225.0 ] } },
{ "type": "Feature", "properties": { "value": 0.0564 }, "geometry": { "type": "Point", "coordinates": [ 129.329865, 35.481495, 225.0 ] } },
{ "type": "Feature", "properties": { "value": 0.0263 }, "geometry": { "type": "Point", "coordinates": [ 129.330963, 35.481491, 225.0 ] } },
{ "type": "Feature", "properties": { "value": 0.0096 }, "geometry": { "type": "Point", "coordinates": [ 129.332062, 35.481487, 225.0 ] } },
{ "type": "Feature", "properties": { "value": 0.0017 }, "geometry": { "type": "Point", "coordinates": [ 129.33316, 35.481487, 225.0 ] } },
{ "type": "Feature", "properties": { "value": 0.0184 }, "geometry": { "type": "Point", "coordinates": [ 129.301208, 35.482471, 225.0 ] } },
{ "type": "Feature", "properties": { "value": 0.0924 }, "geometry": { "type": "Point", "coordinates": [ 129.302322, 35.482468, 225.0 ] } },
{ "type": "Feature", "properties": { "value": 0.225 }, "geometry": { "type": "Point", "coordinates": [ 129.303421, 35.482464, 225.0 ] } },
{ "type": "Feature", "properties": { "value": 0.4882 }, "geometry": { "type": "Point", "coordinates": [ 129.30452, 35.482464, 225.0 ] } },
{ "type": "Feature", "properties": { "value": 0.9683 }, "geometry": { "type": "Point", "coordinates": [ 129.305618, 35.48246, 225.0 ] } },
{ "type": "Feature", "properties": { "value": 1.7757 }, "geometry": { "type": "Point", "coordinates": [ 129.306717, 35.482456, 225.0 ] } },
{ "type": "Feature", "properties": { "value": 3.0123 }, "geometry": { "type": "Point", "coordinates": [ 129.307831, 35.482452, 225.0 ] } },
{ "type": "Feature", "properties": { "value": 4.7738 }, "geometry": { "type": "Point", "coordinates": [ 129.308929, 35.482452, 225.0 ] } },
{ "type": "Feature", "properties": { "value": 6.9756 }, "geometry": { "type": "Point", "coordinates": [ 129.310028, 35.482449, 225.0 ] } },
{ "type": "Feature", "properties": { "value": 9.367 }, "geometry": { "type": "Point", "coordinates": [ 129.311127, 35.482445, 225.0 ] } },
{ "type": "Feature", "properties": { "value": 11.532 }, "geometry": { "type": "Point", "coordinates": [ 129.312225, 35.482445, 225.0 ] } },
{ "type": "Feature", "properties": { "value": 12.9 }, "geometry": { "type": "Point", "coordinates": [ 129.313339, 35.482441, 225.0 ] } },
{ "type": "Feature", "properties": { "value": 13.021 }, "geometry": { "type": "Point", "coordinates": [ 129.314438, 35.482437, 225.0 ] } },
{ "type": "Feature", "properties": { "value": 11.812 }, "geometry": { "type": "Point", "coordinates": [ 129.315536, 35.482433, 225.0 ] } },
{ "type": "Feature", "properties": { "value": 9.5942 }, "geometry": { "type": "Point", "coordinates": [ 129.316635, 35.48243, 225.0 ] } },
{ "type": "Feature", "properties": { "value": 6.9615 }, "geometry": { "type": "Point", "coordinates": [ 129.317749, 35.48243, 225.0 ] } },
{ "type": "Feature", "properties": { "value": 4.5435 }, "geometry": { "type": "Point", "coordinates": [ 129.318848, 35.482426, 225.0 ] } },
{ "type": "Feature", "properties": { "value": 2.6656 }, "geometry": { "type": "Point", "coordinates": [ 129.319946, 35.482422, 225.0 ] } },
{ "type": "Feature", "properties": { "value": 1.4173 }, "geometry": { "type": "Point", "coordinates": [ 129.321045, 35.482418, 225.0 ] } },
{ "type": "Feature", "properties": { "value": 0.7134 }, "geometry": { "type": "Point", "coordinates": [ 129.322144, 35.482418, 225.0 ] } },
{ "type": "Feature", "properties": { "value": 0.3759 }, "geometry": { "type": "Point", "coordinates": [ 129.323257, 35.482414, 225.0 ] } },
{ "type": "Feature", "properties": { "value": 0.1958 }, "geometry": { "type": "Point", "coordinates": [ 129.324356, 35.48241, 225.0 ] } },
{ "type": "Feature", "properties": { "value": 0.136 }, "geometry": { "type": "Point", "coordinates": [ 129.325455, 35.482407, 225.0 ] } },
{ "type": "Feature", "properties": { "value": 0.1172 }, "geometry": { "type": "Point", "coordinates": [ 129.326553, 35.482407, 225.0 ] } },
{ "type": "Feature", "properties": { "value": 0.0874 }, "geometry": { "type": "Point", "coordinates": [ 129.327652, 35.482403, 225.0 ] } },
{ "type": "Feature", "properties": { "value": 0.0567 }, "geometry": { "type": "Point", "coordinates": [ 129.328766, 35.482399, 225.0 ] } },
{ "type": "Feature", "properties": { "value": 0.0311 }, "geometry": { "type": "Point", "coordinates": [ 129.329865, 35.482395, 225.0 ] } },
{ "type": "Feature", "properties": { "value": 0.0143 }, "geometry": { "type": "Point", "coordinates": [ 129.330963, 35.482391, 225.0 ] } },
{ "type": "Feature", "properties": { "value": 0.0047 }, "geometry": { "type": "Point", "coordinates": [ 129.332062, 35.482391, 225.0 ] } },
{ "type": "Feature", "properties": { "value": 0.0223 }, "geometry": { "type": "Point", "coordinates": [ 129.301224, 35.483372, 225.0 ] } },
{ "type": "Feature", "properties": { "value": 0.1058 }, "geometry": { "type": "Point", "coordinates": [ 129.302322, 35.483368, 225.0 ] } },
{ "type": "Feature", "properties": { "value": 0.2503 }, "geometry": { "type": "Point", "coordinates": [ 129.303421, 35.483368, 225.0 ] } },
{ "type": "Feature", "properties": { "value": 0.5294 }, "geometry": { "type": "Point", "coordinates": [ 129.30452, 35.483364, 225.0 ] } },
{ "type": "Feature", "properties": { "value": 1.0222 }, "geometry": { "type": "Point", "coordinates": [ 129.305618, 35.48336, 225.0 ] } },
{ "type": "Feature", "properties": { "value": 1.812 }, "geometry": { "type": "Point", "coordinates": [ 129.306732, 35.483356, 225.0 ] } },
{ "type": "Feature", "properties": { "value": 2.9937 }, "geometry": { "type": "Point", "coordinates": [ 129.307831, 35.483356, 225.0 ] } },
{ "type": "Feature", "properties": { "value": 4.6134 }, "geometry": { "type": "Point", "coordinates": [ 129.308929, 35.483353, 225.0 ] } },
{ "type": "Feature", "properties": { "value": 6.5526 }, "geometry": { "type": "Point", "coordinates": [ 129.310028, 35.483349, 225.0 ] } },
{ "type": "Feature", "properties": { "value": 8.5603 }, "geometry": { "type": "Point", "coordinates": [ 129.311127, 35.483349, 225.0 ] } },
{ "type": "Feature", "properties": { "value": 10.272 }, "geometry": { "type": "Point", "coordinates": [ 129.312241, 35.483345, 225.0 ] } },
{ "type": "Feature", "properties": { "value": 11.227 }, "geometry": { "type": "Point", "coordinates": [ 129.313339, 35.483341, 225.0 ] } },
{ "type": "Feature", "properties": { "value": 11.16 }, "geometry": { "type": "Point", "coordinates": [ 129.314438, 35.483337, 225.0 ] } },
{ "type": "Feature", "properties": { "value": 10.017 }, "geometry": { "type": "Point", "coordinates": [ 129.315536, 35.483337, 225.0 ] } },
{ "type": "Feature", "properties": { "value": 8.1007 }, "geometry": { "type": "Point", "coordinates": [ 129.31665, 35.483334, 225.0 ] } },
{ "type": "Feature", "properties": { "value": 5.9174 }, "geometry": { "type": "Point", "coordinates": [ 129.317749, 35.48333, 225.0 ] } },
{ "type": "Feature", "properties": { "value": 3.8873 }, "geometry": { "type": "Point", "coordinates": [ 129.318848, 35.483326, 225.0 ] } },
{ "type": "Feature", "properties": { "value": 2.3114 }, "geometry": { "type": "Point", "coordinates": [ 129.319946, 35.483322, 225.0 ] } },
{ "type": "Feature", "properties": { "value": 1.2568 }, "geometry": { "type": "Point", "coordinates": [ 129.321045, 35.483322, 225.0 ] } },
{ "type": "Feature", "properties": { "value": 0.6305 }, "geometry": { "type": "Point", "coordinates": [ 129.322159, 35.483318, 225.0 ] } },
{ "type": "Feature", "properties": { "value": 0.294 }, "geometry": { "type": "Point", "coordinates": [ 129.323257, 35.483315, 225.0 ] } },
{ "type": "Feature", "properties": { "value": 0.1337 }, "geometry": { "type": "Point", "coordinates": [ 129.324356, 35.483311, 225.0 ] } },
{ "type": "Feature", "properties": { "value": 0.0664 }, "geometry": { "type": "Point", "coordinates": [ 129.325455, 35.483311, 225.0 ] } },
{ "type": "Feature", "properties": { "value": 0.0569 }, "geometry": { "type": "Point", "coordinates": [ 129.326553, 35.483307, 225.0 ] } },
{ "type": "Feature", "properties": { "value": 0.0428 }, "geometry": { "type": "Point", "coordinates": [ 129.327667, 35.483303, 225.0 ] } },
{ "type": "Feature", "properties": { "value": 0.0273 }, "geometry": { "type": "Point", "coordinates": [ 129.328766, 35.483299, 225.0 ] } },
{ "type": "Feature", "properties": { "value": 0.0151 }, "geometry": { "type": "Point", "coordinates": [ 129.329865, 35.483295, 225.0 ] } },
{ "type": "Feature", "properties": { "value": 0.0067 }, "geometry": { "type": "Point", "coordinates": [ 129.330963, 35.483295, 225.0 ] } },
{ "type": "Feature", "properties": { "value": 0.001 }, "geometry": { "type": "Point", "coordinates": [ 129.332077, 35.483292, 225.0 ] } },
{ "type": "Feature", "properties": { "value": 0.0343 }, "geometry": { "type": "Point", "coordinates": [ 129.301224, 35.484272, 225.0 ] } },
{ "type": "Feature", "properties": { "value": 0.1123 }, "geometry": { "type": "Point", "coordinates": [ 129.302322, 35.484272, 225.0 ] } },
{ "type": "Feature", "properties": { "value": 0.2587 }, "geometry": { "type": "Point", "coordinates": [ 129.303421, 35.484268, 225.0 ] } },
{ "type": "Feature", "properties": { "value": 0.5335 }, "geometry": { "type": "Point", "coordinates": [ 129.30452, 35.484264, 225.0 ] } },
{ "type": "Feature", "properties": { "value": 0.9978 }, "geometry": { "type": "Point", "coordinates": [ 129.305634, 35.484261, 225.0 ] } },
{ "type": "Feature", "properties": { "value": 1.7381 }, "geometry": { "type": "Point", "coordinates": [ 129.306732, 35.484261, 225.0 ] } },
{ "type": "Feature", "properties": { "value": 2.8114 }, "geometry": { "type": "Point", "coordinates": [ 129.307831, 35.484257, 225.0 ] } },
{ "type": "Feature", "properties": { "value": 4.2183 }, "geometry": { "type": "Point", "coordinates": [ 129.308929, 35.484253, 225.0 ] } },
{ "type": "Feature", "properties": { "value": 5.8607 }, "geometry": { "type": "Point", "coordinates": [ 129.310028, 35.484253, 225.0 ] } },
{ "type": "Feature", "properties": { "value": 7.5063 }, "geometry": { "type": "Point", "coordinates": [ 129.311142, 35.484249, 225.0 ] } },
{ "type": "Feature", "properties": { "value": 8.8254 }, "geometry": { "type": "Point", "coordinates": [ 129.312241, 35.484245, 225.0 ] } },
{ "type": "Feature", "properties": { "value": 9.4829 }, "geometry": { "type": "Point", "coordinates": [ 129.313339, 35.484241, 225.0 ] } },
{ "type": "Feature", "properties": { "value": 9.2907 }, "geometry": { "type": "Point", "coordinates": [ 129.314438, 35.484241, 225.0 ] } },
{ "type": "Feature", "properties": { "value": 8.2735 }, "geometry": { "type": "Point", "coordinates": [ 129.315552, 35.484238, 225.0 ] } },
{ "type": "Feature", "properties": { "value": 6.6897 }, "geometry": { "type": "Point", "coordinates": [ 129.31665, 35.484234, 225.0 ] } },
{ "type": "Feature", "properties": { "value": 4.9056 }, "geometry": { "type": "Point", "coordinates": [ 129.317749, 35.48423, 225.0 ] } },
{ "type": "Feature", "properties": { "value": 3.2541 }, "geometry": { "type": "Point", "coordinates": [ 129.318848, 35.48423, 225.0 ] } },
{ "type": "Feature", "properties": { "value": 1.9598 }, "geometry": { "type": "Point", "coordinates": [ 129.319946, 35.484226, 225.0 ] } },
{ "type": "Feature", "properties": { "value": 1.0793 }, "geometry": { "type": "Point", "coordinates": [ 129.32106, 35.484222, 225.0 ] } },
{ "type": "Feature", "properties": { "value": 0.541 }, "geometry": { "type": "Point", "coordinates": [ 129.322159, 35.484219, 225.0 ] } },
{ "type": "Feature", "properties": { "value": 0.2529 }, "geometry": { "type": "Point", "coordinates": [ 129.323257, 35.484215, 225.0 ] } },
{ "type": "Feature", "properties": { "value": 0.0989 }, "geometry": { "type": "Point", "coordinates": [ 129.324356, 35.484215, 225.0 ] } },
{ "type": "Feature", "properties": { "value": 0.0284 }, "geometry": { "type": "Point", "coordinates": [ 129.325455, 35.484211, 225.0 ] } },
{ "type": "Feature", "properties": { "value": 0.0246 }, "geometry": { "type": "Point", "coordinates": [ 129.326569, 35.484207, 225.0 ] } },
{ "type": "Feature", "properties": { "value": 0.0185 }, "geometry": { "type": "Point", "coordinates": [ 129.327667, 35.484203, 225.0 ] } },
{ "type": "Feature", "properties": { "value": 0.011 }, "geometry": { "type": "Point", "coordinates": [ 129.328766, 35.484203, 225.0 ] } },
{ "type": "Feature", "properties": { "value": 0.0057 }, "geometry": { "type": "Point", "coordinates": [ 129.329865, 35.4842, 225.0 ] } },
{ "type": "Feature", "properties": { "value": 0.0019 }, "geometry": { "type": "Point", "coordinates": [ 129.330978, 35.484196, 225.0 ] } },
{ "type": "Feature", "properties": { "value": 0.0352 }, "geometry": { "type": "Point", "coordinates": [ 129.301224, 35.485176, 225.0 ] } },
{ "type": "Feature", "properties": { "value": 0.1024 }, "geometry": { "type": "Point", "coordinates": [ 129.302322, 35.485172, 225.0 ] } },
{ "type": "Feature", "properties": { "value": 0.24 }, "geometry": { "type": "Point", "coordinates": [ 129.303421, 35.485168, 225.0 ] } },
{ "type": "Feature", "properties": { "value": 0.4942 }, "geometry": { "type": "Point", "coordinates": [ 129.304535, 35.485165, 225.0 ] } },
{ "type": "Feature", "properties": { "value": 0.9146 }, "geometry": { "type": "Point", "coordinates": [ 129.305634, 35.485165, 225.0 ] } },
{ "type": "Feature", "properties": { "value": 1.5681 }, "geometry": { "type": "Point", "coordinates": [ 129.306732, 35.485161, 225.0 ] } },
{ "type": "Feature", "properties": { "value": 2.4959 }, "geometry": { "type": "Point", "coordinates": [ 129.307831, 35.485157, 225.0 ] } },
{ "type": "Feature", "properties": { "value": 3.6776 }, "geometry": { "type": "Point", "coordinates": [ 129.308929, 35.485157, 225.0 ] } },
{ "type": "Feature", "properties": { "value": 5.0099 }, "geometry": { "type": "Point", "coordinates": [ 129.310043, 35.485153, 225.0 ] } },
{ "type": "Feature", "properties": { "value": 6.2936 }, "geometry": { "type": "Point", "coordinates": [ 129.311142, 35.485149, 225.0 ] } },
{ "type": "Feature", "properties": { "value": 7.269 }, "geometry": { "type": "Point", "coordinates": [ 129.312241, 35.485146, 225.0 ] } },
{ "type": "Feature", "properties": { "value": 7.7216 }, "geometry": { "type": "Point", "coordinates": [ 129.313339, 35.485146, 225.0 ] } },
{ "type": "Feature", "properties": { "value": 7.4876 }, "geometry": { "type": "Point", "coordinates": [ 129.314453, 35.485142, 225.0 ] } },
{ "type": "Feature", "properties": { "value": 6.6328 }, "geometry": { "type": "Point", "coordinates": [ 129.315552, 35.485138, 225.0 ] } },
{ "type": "Feature", "properties": { "value": 5.3566 }, "geometry": { "type": "Point", "coordinates": [ 129.31665, 35.485134, 225.0 ] } },
{ "type": "Feature", "properties": { "value": 3.9283 }, "geometry": { "type": "Point", "coordinates": [ 129.317749, 35.485134, 225.0 ] } },
{ "type": "Feature", "properties": { "value": 2.6205 }, "geometry": { "type": "Point", "coordinates": [ 129.318848, 35.48513, 225.0 ] } },
{ "type": "Feature", "properties": { "value": 1.5909 }, "geometry": { "type": "Point", "coordinates": [ 129.319962, 35.485126, 225.0 ] } },
{ "type": "Feature", "properties": { "value": 0.8827 }, "geometry": { "type": "Point", "coordinates": [ 129.32106, 35.485123, 225.0 ] } },
{ "type": "Feature", "properties": { "value": 0.4369 }, "geometry": { "type": "Point", "coordinates": [ 129.322159, 35.485119, 225.0 ] } },
{ "type": "Feature", "properties": { "value": 0.1929 }, "geometry": { "type": "Point", "coordinates": [ 129.323257, 35.485119, 225.0 ] } },
{ "type": "Feature", "properties": { "value": 0.059 }, "geometry": { "type": "Point", "coordinates": [ 129.324371, 35.485115, 225.0 ] } },
{ "type": "Feature", "properties": { "value": 0.0106 }, "geometry": { "type": "Point", "coordinates": [ 129.32547, 35.485111, 225.0 ] } },
{ "type": "Feature", "properties": { "value": 0.0091 }, "geometry": { "type": "Point", "coordinates": [ 129.326569, 35.485107, 225.0 ] } },
{ "type": "Feature", "properties": { "value": 0.0063 }, "geometry": { "type": "Point", "coordinates": [ 129.327667, 35.485107, 225.0 ] } },
{ "type": "Feature", "properties": { "value": 0.0037 }, "geometry": { "type": "Point", "coordinates": [ 129.328766, 35.485104, 225.0 ] } },
{ "type": "Feature", "properties": { "value": 0.001 }, "geometry": { "type": "Point", "coordinates": [ 129.32988, 35.4851, 225.0 ] } },
{ "type": "Feature", "properties": { "value": 0.0254 }, "geometry": { "type": "Point", "coordinates": [ 129.301224, 35.486076, 225.0 ] } },
{ "type": "Feature", "properties": { "value": 0.0948 }, "geometry": { "type": "Point", "coordinates": [ 129.302322, 35.486073, 225.0 ] } },
{ "type": "Feature", "properties": { "value": 0.2074 }, "geometry": { "type": "Point", "coordinates": [ 129.303436, 35.486069, 225.0 ] } },
{ "type": "Feature", "properties": { "value": 0.4291 }, "geometry": { "type": "Point", "coordinates": [ 129.304535, 35.486069, 225.0 ] } },
{ "type": "Feature", "properties": { "value": 0.7844 }, "geometry": { "type": "Point", "coordinates": [ 129.305634, 35.486065, 225.0 ] } },
{ "type": "Feature", "properties": { "value": 1.3316 }, "geometry": { "type": "Point", "coordinates": [ 129.306732, 35.486061, 225.0 ] } },
{ "type": "Feature", "properties": { "value": 2.09 }, "geometry": { "type": "Point", "coordinates": [ 129.307831, 35.486061, 225.0 ] } },
{ "type": "Feature", "properties": { "value": 3.0373 }, "geometry": { "type": "Point", "coordinates": [ 129.308945, 35.486057, 225.0 ] } },
{ "type": "Feature", "properties": { "value": 4.077 }, "geometry": { "type": "Point", "coordinates": [ 129.310043, 35.486053, 225.0 ] } },
{ "type": "Feature", "properties": { "value": 5.0495 }, "geometry": { "type": "Point", "coordinates": [ 129.311142, 35.48605, 225.0 ] } },
{ "type": "Feature", "properties": { "value": 5.7496 }, "geometry": { "type": "Point", "coordinates": [ 129.312241, 35.48605, 225.0 ] } },
{ "type": "Feature", "properties": { "value": 6.0193 }, "geometry": { "type": "Point", "coordinates": [ 129.313354, 35.486046, 225.0 ] } },
{ "type": "Feature", "properties": { "value": 5.7899 }, "geometry": { "type": "Point", "coordinates": [ 129.314453, 35.486042, 225.0 ] } },
{ "type": "Feature", "properties": { "value": 5.1068 }, "geometry": { "type": "Point", "coordinates": [ 129.315552, 35.486038, 225.0 ] } },
{ "type": "Feature", "properties": { "value": 4.1206 }, "geometry": { "type": "Point", "coordinates": [ 129.31665, 35.486038, 225.0 ] } },
{ "type": "Feature", "properties": { "value": 3.0403 }, "geometry": { "type": "Point", "coordinates": [ 129.317749, 35.486034, 225.0 ] } },
{ "type": "Feature", "properties": { "value": 2.0421 }, "geometry": { "type": "Point", "coordinates": [ 129.318863, 35.486031, 225.0 ] } },
{ "type": "Feature", "properties": { "value": 1.2516 }, "geometry": { "type": "Point", "coordinates": [ 129.319962, 35.486027, 225.0 ] } },
{ "type": "Feature", "properties": { "value": 0.7006 }, "geometry": { "type": "Point", "coordinates": [ 129.32106, 35.486027, 225.0 ] } },
{ "type": "Feature", "properties": { "value": 0.3584 }, "geometry": { "type": "Point", "coordinates": [ 129.322159, 35.486023, 225.0 ] } },
{ "type": "Feature", "properties": { "value": 0.1614 }, "geometry": { "type": "Point", "coordinates": [ 129.323273, 35.486019, 225.0 ] } },
{ "type": "Feature", "properties": { "value": 0.0481 }, "geometry": { "type": "Point", "coordinates": [ 129.324371, 35.486015, 225.0 ] } },
{ "type": "Feature", "properties": { "value": 0.0032 }, "geometry": { "type": "Point", "coordinates": [ 129.32547, 35.486012, 225.0 ] } },
{ "type": "Feature", "properties": { "value": 0.0028 }, "geometry": { "type": "Point", "coordinates": [ 129.326569, 35.486012, 225.0 ] } },
{ "type": "Feature", "properties": { "value": 0.0011 }, "geometry": { "type": "Point", "coordinates": [ 129.327667, 35.486008, 225.0 ] } },
{ "type": "Feature", "properties": { "value": 0.0007 }, "geometry": { "type": "Point", "coordinates": [ 129.328781, 35.486004, 225.0 ] } },
{ "type": "Feature", "properties": { "value": 0.0229 }, "geometry": { "type": "Point", "coordinates": [ 129.301224, 35.486977, 225.0 ] } },
{ "type": "Feature", "properties": { "value": 0.0746 }, "geometry": { "type": "Point", "coordinates": [ 129.302338, 35.486973, 225.0 ] } },
{ "type": "Feature", "properties": { "value": 0.1759 }, "geometry": { "type": "Point", "coordinates": [ 129.303436, 35.486973, 225.0 ] } },
{ "type": "Feature", "properties": { "value": 0.3466 }, "geometry": { "type": "Point", "coordinates": [ 129.304535, 35.486969, 225.0 ] } },
{ "type": "Feature", "properties": { "value": 0.6316 }, "geometry": { "type": "Point", "coordinates": [ 129.305634, 35.486965, 225.0 ] } },
{ "type": "Feature", "properties": { "value": 1.0728 }, "geometry": { "type": "Point", "coordinates": [ 129.306732, 35.486965, 225.0 ] } },
{ "type": "Feature", "properties": { "value": 1.6501 }, "geometry": { "type": "Point", "coordinates": [ 129.307846, 35.486961, 225.0 ] } },
{ "type": "Feature", "properties": { "value": 2.3698 }, "geometry": { "type": "Point", "coordinates": [ 129.308945, 35.486958, 225.0 ] } },
{ "type": "Feature", "properties": { "value": 3.1457 }, "geometry": { "type": "Point", "coordinates": [ 129.310043, 35.486954, 225.0 ] } },
{ "type": "Feature", "properties": { "value": 3.8417 }, "geometry": { "type": "Point", "coordinates": [ 129.311142, 35.486954, 225.0 ] } },
{ "type": "Feature", "properties": { "value": 4.342 }, "geometry": { "type": "Point", "coordinates": [ 129.312256, 35.48695, 225.0 ] } },
{ "type": "Feature", "properties": { "value": 4.5076 }, "geometry": { "type": "Point", "coordinates": [ 129.313354, 35.486946, 225.0 ] } },
{ "type": "Feature", "properties": { "value": 4.3044 }, "geometry": { "type": "Point", "coordinates": [ 129.314453, 35.486942, 225.0 ] } },
{ "type": "Feature", "properties": { "value": 3.777 }, "geometry": { "type": "Point", "coordinates": [ 129.315552, 35.486942, 225.0 ] } },
{ "type": "Feature", "properties": { "value": 3.0446 }, "geometry": { "type": "Point", "coordinates": [ 129.31665, 35.486938, 225.0 ] } },
{ "type": "Feature", "properties": { "value": 2.2428 }, "geometry": { "type": "Point", "coordinates": [ 129.317764, 35.486935, 225.0 ] } },
{ "type": "Feature", "properties": { "value": 1.5221 }, "geometry": { "type": "Point", "coordinates": [ 129.318863, 35.486931, 225.0 ] } },
{ "type": "Feature", "properties": { "value": 0.9399 }, "geometry": { "type": "Point", "coordinates": [ 129.319962, 35.486931, 225.0 ] } },
{ "type": "Feature", "properties": { "value": 0.5302 }, "geometry": { "type": "Point", "coordinates": [ 129.32106, 35.486927, 225.0 ] } },
{ "type": "Feature", "properties": { "value": 0.2625 }, "geometry": { "type": "Point", "coordinates": [ 129.322174, 35.486923, 225.0 ] } },
{ "type": "Feature", "properties": { "value": 0.1118 }, "geometry": { "type": "Point", "coordinates": [ 129.323273, 35.486919, 225.0 ] } },
{ "type": "Feature", "properties": { "value": 0.0219 }, "geometry": { "type": "Point", "coordinates": [ 129.324371, 35.486916, 225.0 ] } },
{ "type": "Feature", "properties": { "value": 0.0192 }, "geometry": { "type": "Point", "coordinates": [ 129.301239, 35.487877, 225.0 ] } },
{ "type": "Feature", "properties": { "value": 0.0604 }, "geometry": { "type": "Point", "coordinates": [ 129.302338, 35.487877, 225.0 ] } },
{ "type": "Feature", "properties": { "value": 0.1315 }, "geometry": { "type": "Point", "coordinates": [ 129.303436, 35.487873, 225.0 ] } },
{ "type": "Feature", "properties": { "value": 0.2614 }, "geometry": { "type": "Point", "coordinates": [ 129.304535, 35.487869, 225.0 ] } },
{ "type": "Feature", "properties": { "value": 0.4852 }, "geometry": { "type": "Point", "coordinates": [ 129.305634, 35.487869, 225.0 ] } },
{ "type": "Feature", "properties": { "value": 0.7941 }, "geometry": { "type": "Point", "coordinates": [ 129.306747, 35.487865, 225.0 ] } },
{ "type": "Feature", "properties": { "value": 1.2353 }, "geometry": { "type": "Point", "coordinates": [ 129.307846, 35.487862, 225.0 ] } },
{ "type": "Feature", "properties": { "value": 1.7451 }, "geometry": { "type": "Point", "coordinates": [ 129.308945, 35.487858, 225.0 ] } },
{ "type": "Feature", "properties": { "value": 2.2945 }, "geometry": { "type": "Point", "coordinates": [ 129.310043, 35.487858, 225.0 ] } },
{ "type": "Feature", "properties": { "value": 2.7763 }, "geometry": { "type": "Point", "coordinates": [ 129.311157, 35.487854, 225.0 ] } },
{ "type": "Feature", "properties": { "value": 3.1146 }, "geometry": { "type": "Point", "coordinates": [ 129.312256, 35.48785, 225.0 ] } },
{ "type": "Feature", "properties": { "value": 3.2117 }, "geometry": { "type": "Point", "coordinates": [ 129.313354, 35.487846, 225.0 ] } },
{ "type": "Feature", "properties": { "value": 3.0515 }, "geometry": { "type": "Point", "coordinates": [ 129.314453, 35.487846, 225.0 ] } },
{ "type": "Feature", "properties": { "value": 2.6695 }, "geometry": { "type": "Point", "coordinates": [ 129.315552, 35.487843, 225.0 ] } },
{ "type": "Feature", "properties": { "value": 2.1493 }, "geometry": { "type": "Point", "coordinates": [ 129.316666, 35.487839, 225.0 ] } },
{ "type": "Feature", "properties": { "value": 1.5837 }, "geometry": { "type": "Point", "coordinates": [ 129.317764, 35.487835, 225.0 ] } },
{ "type": "Feature", "properties": { "value": 1.0701 }, "geometry": { "type": "Point", "coordinates": [ 129.318863, 35.487835, 225.0 ] } },
{ "type": "Feature", "properties": { "value": 0.6711 }, "geometry": { "type": "Point", "coordinates": [ 129.319962, 35.487831, 225.0 ] } },
{ "type": "Feature", "properties": { "value": 0.3696 }, "geometry": { "type": "Point", "coordinates": [ 129.321075, 35.487827, 225.0 ] } },
{ "type": "Feature", "properties": { "value": 0.188 }, "geometry": { "type": "Point", "coordinates": [ 129.322174, 35.487823, 225.0 ] } },
{ "type": "Feature", "properties": { "value": 0.0782 }, "geometry": { "type": "Point", "coordinates": [ 129.323273, 35.48782, 225.0 ] } },
{ "type": "Feature", "properties": { "value": 0.009 }, "geometry": { "type": "Point", "coordinates": [ 129.324371, 35.48782, 225.0 ] } },
{ "type": "Feature", "properties": { "value": 0.0088 }, "geometry": { "type": "Point", "coordinates": [ 129.301239, 35.488781, 225.0 ] } },
{ "type": "Feature", "properties": { "value": 0.0398 }, "geometry": { "type": "Point", "coordinates": [ 129.302338, 35.488777, 225.0 ] } },
{ "type": "Feature", "properties": { "value": 0.0906 }, "geometry": { "type": "Point", "coordinates": [ 129.303436, 35.488773, 225.0 ] } },
{ "type": "Feature", "properties": { "value": 0.1912 }, "geometry": { "type": "Point", "coordinates": [ 129.30455, 35.488773, 225.0 ] } },
{ "type": "Feature", "properties": { "value": 0.3424 }, "geometry": { "type": "Point", "coordinates": [ 129.305649, 35.48877, 225.0 ] } },
{ "type": "Feature", "properties": { "value": 0.5663 }, "geometry": { "type": "Point", "coordinates": [ 129.306747, 35.488766, 225.0 ] } },
{ "type": "Feature", "properties": { "value": 0.8541 }, "geometry": { "type": "Point", "coordinates": [ 129.307846, 35.488762, 225.0 ] } },
{ "type": "Feature", "properties": { "value": 1.2084 }, "geometry": { "type": "Point", "coordinates": [ 129.308945, 35.488762, 225.0 ] } },
{ "type": "Feature", "properties": { "value": 1.5797 }, "geometry": { "type": "Point", "coordinates": [ 129.310059, 35.488758, 225.0 ] } },
{ "type": "Feature", "properties": { "value": 1.8971 }, "geometry": { "type": "Point", "coordinates": [ 129.311157, 35.488754, 225.0 ] } },
{ "type": "Feature", "properties": { "value": 2.1055 }, "geometry": { "type": "Point", "coordinates": [ 129.312256, 35.48875, 225.0 ] } },
{ "type": "Feature", "properties": { "value": 2.158 }, "geometry": { "type": "Point", "coordinates": [ 129.313354, 35.48875, 225.0 ] } },
{ "type": "Feature", "properties": { "value": 2.0411 }, "geometry": { "type": "Point", "coordinates": [ 129.314453, 35.488747, 225.0 ] } },
{ "type": "Feature", "properties": { "value": 1.7806 }, "geometry": { "type": "Point", "coordinates": [ 129.315567, 35.488743, 225.0 ] } },
{ "type": "Feature", "properties": { "value": 1.4323 }, "geometry": { "type": "Point", "coordinates": [ 129.316666, 35.488739, 225.0 ] } },
{ "type": "Feature", "properties": { "value": 1.0622 }, "geometry": { "type": "Point", "coordinates": [ 129.317764, 35.488739, 225.0 ] } },
{ "type": "Feature", "properties": { "value": 0.7169 }, "geometry": { "type": "Point", "coordinates": [ 129.318863, 35.488735, 225.0 ] } },
{ "type": "Feature", "properties": { "value": 0.4439 }, "geometry": { "type": "Point", "coordinates": [ 129.319977, 35.488731, 225.0 ] } },
{ "type": "Feature", "properties": { "value": 0.2495 }, "geometry": { "type": "Point", "coordinates": [ 129.321075, 35.488728, 225.0 ] } },
{ "type": "Feature", "properties": { "value": 0.1276 }, "geometry": { "type": "Point", "coordinates": [ 129.322174, 35.488728, 225.0 ] } },
{ "type": "Feature", "properties": { "value": 0.0512 }, "geometry": { "type": "Point", "coordinates": [ 129.323273, 35.488724, 225.0 ] } },
{ "type": "Feature", "properties": { "value": 0.0226 }, "geometry": { "type": "Point", "coordinates": [ 129.302338, 35.489677, 225.0 ] } },
{ "type": "Feature", "properties": { "value": 0.0556 }, "geometry": { "type": "Point", "coordinates": [ 129.303452, 35.489677, 225.0 ] } },
{ "type": "Feature", "properties": { "value": 0.1252 }, "geometry": { "type": "Point", "coordinates": [ 129.30455, 35.489674, 225.0 ] } },
{ "type": "Feature", "properties": { "value": 0.2259 }, "geometry": { "type": "Point", "coordinates": [ 129.305649, 35.48967, 225.0 ] } },
{ "type": "Feature", "properties": { "value": 0.3724 }, "geometry": { "type": "Point", "coordinates": [ 129.306747, 35.489666, 225.0 ] } },
{ "type": "Feature", "properties": { "value": 0.5665 }, "geometry": { "type": "Point", "coordinates": [ 129.307846, 35.489666, 225.0 ] } },
{ "type": "Feature", "properties": { "value": 0.7874 }, "geometry": { "type": "Point", "coordinates": [ 129.30896, 35.489662, 225.0 ] } },
{ "type": "Feature", "properties": { "value": 1.0136 }, "geometry": { "type": "Point", "coordinates": [ 129.310059, 35.489658, 225.0 ] } },
{ "type": "Feature", "properties": { "value": 1.2207 }, "geometry": { "type": "Point", "coordinates": [ 129.311157, 35.489655, 225.0 ] } },
{ "type": "Feature", "properties": { "value": 1.3473 }, "geometry": { "type": "Point", "coordinates": [ 129.312256, 35.489655, 225.0 ] } },
{ "type": "Feature", "properties": { "value": 1.3745 }, "geometry": { "type": "Point", "coordinates": [ 129.313354, 35.489651, 225.0 ] } },
{ "type": "Feature", "properties": { "value": 1.2955 }, "geometry": { "type": "Point", "coordinates": [ 129.314468, 35.489647, 225.0 ] } },
{ "type": "Feature", "properties": { "value": 1.1277 }, "geometry": { "type": "Point", "coordinates": [ 129.315567, 35.489643, 225.0 ] } },
{ "type": "Feature", "properties": { "value": 0.9063 }, "geometry": { "type": "Point", "coordinates": [ 129.316666, 35.489643, 225.0 ] } },
{ "type": "Feature", "properties": { "value": 0.6632 }, "geometry": { "type": "Point", "coordinates": [ 129.317764, 35.489639, 225.0 ] } },
{ "type": "Feature", "properties": { "value": 0.4547 }, "geometry": { "type": "Point", "coordinates": [ 129.318878, 35.489635, 225.0 ] } },
{ "type": "Feature", "properties": { "value": 0.2798 }, "geometry": { "type": "Point", "coordinates": [ 129.319977, 35.489632, 225.0 ] } },
{ "type": "Feature", "properties": { "value": 0.1575 }, "geometry": { "type": "Point", "coordinates": [ 129.321075, 35.489632, 225.0 ] } },
{ "type": "Feature", "properties": { "value": 0.0714 }, "geometry": { "type": "Point", "coordinates": [ 129.322174, 35.489628, 225.0 ] } },
{ "type": "Feature", "properties": { "value": 0.0223 }, "geometry": { "type": "Point", "coordinates": [ 129.323273, 35.489624, 225.0 ] } },
{ "type": "Feature", "properties": { "value": 0.0091 }, "geometry": { "type": "Point", "coordinates": [ 129.302353, 35.490582, 225.0 ] } },
{ "type": "Feature", "properties": { "value": 0.0294 }, "geometry": { "type": "Point", "coordinates": [ 129.303452, 35.490578, 225.0 ] } },
{ "type": "Feature", "properties": { "value": 0.0756 }, "geometry": { "type": "Point", "coordinates": [ 129.30455, 35.490574, 225.0 ] } },
{ "type": "Feature", "properties": { "value": 0.1378 }, "geometry": { "type": "Point", "coordinates": [ 129.305649, 35.49057, 225.0 ] } },
{ "type": "Feature", "properties": { "value": 0.2291 }, "geometry": { "type": "Point", "coordinates": [ 129.306747, 35.49057, 225.0 ] } },
{ "type": "Feature", "properties": { "value": 0.3403 }, "geometry": { "type": "Point", "coordinates": [ 129.307861, 35.490566, 225.0 ] } },
{ "type": "Feature", "properties": { "value": 0.4799 }, "geometry": { "type": "Point", "coordinates": [ 129.30896, 35.490562, 225.0 ] } },
{ "type": "Feature", "properties": { "value": 0.6233 }, "geometry": { "type": "Point", "coordinates": [ 129.310059, 35.490559, 225.0 ] } },
{ "type": "Feature", "properties": { "value": 0.7398 }, "geometry": { "type": "Point", "coordinates": [ 129.311157, 35.490559, 225.0 ] } },
{ "type": "Feature", "properties": { "value": 0.8128 }, "geometry": { "type": "Point", "coordinates": [ 129.312271, 35.490555, 225.0 ] } },
{ "type": "Feature", "properties": { "value": 0.826 }, "geometry": { "type": "Point", "coordinates": [ 129.31337, 35.490551, 225.0 ] } },
{ "type": "Feature", "properties": { "value": 0.7763 }, "geometry": { "type": "Point", "coordinates": [ 129.314468, 35.490547, 225.0 ] } },
{ "type": "Feature", "properties": { "value": 0.6746 }, "geometry": { "type": "Point", "coordinates": [ 129.315567, 35.490547, 225.0 ] } },
{ "type": "Feature", "properties": { "value": 0.5418 }, "geometry": { "type": "Point", "coordinates": [ 129.316666, 35.490543, 225.0 ] } },
{ "type": "Feature", "properties": { "value": 0.3937 }, "geometry": { "type": "Point", "coordinates": [ 129.31778, 35.49054, 225.0 ] } },
{ "type": "Feature", "properties": { "value": 0.2614 }, "geometry": { "type": "Point", "coordinates": [ 129.318878, 35.490536, 225.0 ] } },
{ "type": "Feature", "properties": { "value": 0.1662 }, "geometry": { "type": "Point", "coordinates": [ 129.319977, 35.490536, 225.0 ] } },
{ "type": "Feature", "properties": { "value": 0.0836 }, "geometry": { "type": "Point", "coordinates": [ 129.321075, 35.490532, 225.0 ] } },
{ "type": "Feature", "properties": { "value": 0.0383 }, "geometry": { "type": "Point", "coordinates": [ 129.322174, 35.490528, 225.0 ] } },
{ "type": "Feature", "properties": { "value": 0.0111 }, "geometry": { "type": "Point", "coordinates": [ 129.303452, 35.491478, 225.0 ] } },
{ "type": "Feature", "properties": { "value": 0.0331 }, "geometry": { "type": "Point", "coordinates": [ 129.30455, 35.491474, 225.0 ] } },
{ "type": "Feature", "properties": { "value": 0.0778 }, "geometry": { "type": "Point", "coordinates": [ 129.305649, 35.491474, 225.0 ] } },
{ "type": "Feature", "properties": { "value": 0.1231 }, "geometry": { "type": "Point", "coordinates": [ 129.306763, 35.49147, 225.0 ] } },
{ "type": "Feature", "properties": { "value": 0.1925 }, "geometry": { "type": "Point", "coordinates": [ 129.307861, 35.491467, 225.0 ] } },
{ "type": "Feature", "properties": { "value": 0.274 }, "geometry": { "type": "Point", "coordinates": [ 129.30896, 35.491463, 225.0 ] } },
{ "type": "Feature", "properties": { "value": 0.3487 }, "geometry": { "type": "Point", "coordinates": [ 129.310059, 35.491463, 225.0 ] } },
{ "type": "Feature", "properties": { "value": 0.4112 }, "geometry": { "type": "Point", "coordinates": [ 129.311172, 35.491459, 225.0 ] } },
{ "type": "Feature", "properties": { "value": 0.4593 }, "geometry": { "type": "Point", "coordinates": [ 129.312271, 35.491455, 225.0 ] } },
{ "type": "Feature", "properties": { "value": 0.4652 }, "geometry": { "type": "Point", "coordinates": [ 129.31337, 35.491451, 225.0 ] } },
{ "type": "Feature", "properties": { "value": 0.4361 }, "geometry": { "type": "Point", "coordinates": [ 129.314468, 35.491451, 225.0 ] } },
{ "type": "Feature", "properties": { "value": 0.3783 }, "geometry": { "type": "Point", "coordinates": [ 129.315567, 35.491447, 225.0 ] } },
{ "type": "Feature", "properties": { "value": 0.2961 }, "geometry": { "type": "Point", "coordinates": [ 129.316681, 35.491444, 225.0 ] } },
{ "type": "Feature", "properties": { "value": 0.2199 }, "geometry": { "type": "Point", "coordinates": [ 129.31778, 35.49144, 225.0 ] } },
{ "type": "Feature", "properties": { "value": 0.1433 }, "geometry": { "type": "Point", "coordinates": [ 129.318878, 35.49144, 225.0 ] } },
{ "type": "Feature", "properties": { "value": 0.0842 }, "geometry": { "type": "Point", "coordinates": [ 129.319977, 35.491436, 225.0 ] } },
{ "type": "Feature", "properties": { "value": 0.0424 }, "geometry": { "type": "Point", "coordinates": [ 129.321091, 35.491432, 225.0 ] } },
{ "type": "Feature", "properties": { "value": 0.0098 }, "geometry": { "type": "Point", "coordinates": [ 129.322189, 35.491428, 225.0 ] } },
{ "type": "Feature", "properties": { "value": 0.0192 }, "geometry": { "type": "Point", "coordinates": [ 129.30455, 35.492378, 225.0 ] } },
{ "type": "Feature", "properties": { "value": 0.0322 }, "geometry": { "type": "Point", "coordinates": [ 129.305664, 35.492374, 225.0 ] } },
{ "type": "Feature", "properties": { "value": 0.0616 }, "geometry": { "type": "Point", "coordinates": [ 129.306763, 35.492371, 225.0 ] } },
{ "type": "Feature", "properties": { "value": 0.1009 }, "geometry": { "type": "Point", "coordinates": [ 129.307861, 35.492367, 225.0 ] } },
{ "type": "Feature", "properties": { "value": 0.1372 }, "geometry": { "type": "Point", "coordinates": [ 129.30896, 35.492367, 225.0 ] } },
{ "type": "Feature", "properties": { "value": 0.1836 }, "geometry": { "type": "Point", "coordinates": [ 129.310074, 35.492363, 225.0 ] } },
{ "type": "Feature", "properties": { "value": 0.2155 }, "geometry": { "type": "Point", "coordinates": [ 129.311172, 35.492359, 225.0 ] } },
{ "type": "Feature", "properties": { "value": 0.2435 }, "geometry": { "type": "Point", "coordinates": [ 129.312271, 35.492355, 225.0 ] } },
{ "type": "Feature", "properties": { "value": 0.2459 }, "geometry": { "type": "Point", "coordinates": [ 129.31337, 35.492355, 225.0 ] } },
{ "type": "Feature", "properties": { "value": 0.23 }, "geometry": { "type": "Point", "coordinates": [ 129.314468, 35.492352, 225.0 ] } },
{ "type": "Feature", "properties": { "value": 0.1911 }, "geometry": { "type": "Point", "coordinates": [ 129.315582, 35.492348, 225.0 ] } },
{ "type": "Feature", "properties": { "value": 0.1532 }, "geometry": { "type": "Point", "coordinates": [ 129.316681, 35.492344, 225.0 ] } },
{ "type": "Feature", "properties": { "value": 0.1062 }, "geometry": { "type": "Point", "coordinates": [ 129.31778, 35.492344, 225.0 ] } },
{ "type": "Feature", "properties": { "value": 0.0732 }, "geometry": { "type": "Point", "coordinates": [ 129.318878, 35.49234, 225.0 ] } },
{ "type": "Feature", "properties": { "value": 0.0404 }, "geometry": { "type": "Point", "coordinates": [ 129.319992, 35.492336, 225.0 ] } },
{ "type": "Feature", "properties": { "value": 0.0189 }, "geometry": { "type": "Point", "coordinates": [ 129.321091, 35.492332, 225.0 ] } },
{ "type": "Feature", "properties": { "value": 0.0106 }, "geometry": { "type": "Point", "coordinates": [ 129.305664, 35.493275, 225.0 ] } },
{ "type": "Feature", "properties": { "value": 0.0269 }, "geometry": { "type": "Point", "coordinates": [ 129.306763, 35.493271, 225.0 ] } },
{ "type": "Feature", "properties": { "value": 0.0473 }, "geometry": { "type": "Point", "coordinates": [ 129.307861, 35.493271, 225.0 ] } },
{ "type": "Feature", "properties": { "value": 0.064 }, "geometry": { "type": "Point", "coordinates": [ 129.308975, 35.493267, 225.0 ] } },
{ "type": "Feature", "properties": { "value": 0.0897 }, "geometry": { "type": "Point", "coordinates": [ 129.310074, 35.493263, 225.0 ] } },
{ "type": "Feature", "properties": { "value": 0.1048 }, "geometry": { "type": "Point", "coordinates": [ 129.311172, 35.493259, 225.0 ] } },
{ "type": "Feature", "properties": { "value": 0.1136 }, "geometry": { "type": "Point", "coordinates": [ 129.312271, 35.493259, 225.0 ] } },
{ "type": "Feature", "properties": { "value": 0.1142 }, "geometry": { "type": "Point", "coordinates": [ 129.31337, 35.493256, 225.0 ] } },
{ "type": "Feature", "properties": { "value": 0.1065 }, "geometry": { "type": "Point", "coordinates": [ 129.314484, 35.493252, 225.0 ] } },
{ "type": "Feature", "properties": { "value": 0.092 }, "geometry": { "type": "Point", "coordinates": [ 129.315582, 35.493248, 225.0 ] } },
{ "type": "Feature", "properties": { "value": 0.0738 }, "geometry": { "type": "Point", "coordinates": [ 129.316681, 35.493248, 225.0 ] } },
{ "type": "Feature", "properties": { "value": 0.0482 }, "geometry": { "type": "Point", "coordinates": [ 129.31778, 35.493244, 225.0 ] } },
{ "type": "Feature", "properties": { "value": 0.0266 }, "geometry": { "type": "Point", "coordinates": [ 129.318893, 35.49324, 225.0 ] } },
{ "type": "Feature", "properties": { "value": 0.0097 }, "geometry": { "type": "Point", "coordinates": [ 129.319992, 35.493237, 225.0 ] } },
{ "type": "Feature", "properties": { "value": 0.0083 }, "geometry": { "type": "Point", "coordinates": [ 129.306763, 35.494175, 225.0 ] } },
{ "type": "Feature", "properties": { "value": 0.0194 }, "geometry": { "type": "Point", "coordinates": [ 129.307877, 35.494171, 225.0 ] } },
{ "type": "Feature", "properties": { "value": 0.0261 }, "geometry": { "type": "Point", "coordinates": [ 129.308975, 35.494167, 225.0 ] } },
{ "type": "Feature", "properties": { "value": 0.0325 }, "geometry": { "type": "Point", "coordinates": [ 129.310074, 35.494164, 225.0 ] } },
{ "type": "Feature", "properties": { "value": 0.0457 }, "geometry": { "type": "Point", "coordinates": [ 129.311172, 35.494164, 225.0 ] } },
{ "type": "Feature", "properties": { "value": 0.0493 }, "geometry": { "type": "Point", "coordinates": [ 129.312271, 35.49416, 225.0 ] } },
{ "type": "Feature", "properties": { "value": 0.0494 }, "geometry": { "type": "Point", "coordinates": [ 129.313385, 35.494156, 225.0 ] } },
{ "type": "Feature", "properties": { "value": 0.0459 }, "geometry": { "type": "Point", "coordinates": [ 129.314484, 35.494152, 225.0 ] } },
{ "type": "Feature", "properties": { "value": 0.0323 }, "geometry": { "type": "Point", "coordinates": [ 129.315582, 35.494152, 225.0 ] } },
{ "type": "Feature", "properties": { "value": 0.0259 }, "geometry": { "type": "Point", "coordinates": [ 129.316681, 35.494148, 225.0 ] } },
{ "type": "Feature", "properties": { "value": 0.0192 }, "geometry": { "type": "Point", "coordinates": [ 129.317795, 35.494144, 225.0 ] } },
{ "type": "Feature", "properties": { "value": 0.0075 }, "geometry": { "type": "Point", "coordinates": [ 129.308975, 35.495068, 225.0 ] } },
{ "type": "Feature", "properties": { "value": 0.0093 }, "geometry": { "type": "Point", "coordinates": [ 129.310074, 35.495068, 225.0 ] } },
{ "type": "Feature", "properties": { "value": 0.0106 }, "geometry": { "type": "Point", "coordinates": [ 129.311172, 35.495064, 225.0 ] } },
{ "type": "Feature", "properties": { "value": 0.0188 }, "geometry": { "type": "Point", "coordinates": [ 129.312286, 35.49506, 225.0 ] } },
{ "type": "Feature", "properties": { "value": 0.0188 }, "geometry": { "type": "Point", "coordinates": [ 129.313385, 35.495056, 225.0 ] } },
{ "type": "Feature", "properties": { "value": 0.0104 }, "geometry": { "type": "Point", "coordinates": [ 129.314484, 35.495056, 225.0 ] } },
{ "type": "Feature", "properties": { "value": 0.0089 }, "geometry": { "type": "Point", "coordinates": [ 129.315582, 35.495052, 225.0 ] } }
]
}
