{
"type": "FeatureCollection",
"features": [
{ "type": "Feature", "properties": { "value": 1.8649 }, "geometry": { "type": "Point", "coordinates": [ 129.32756, 35.458969, 30.0 ] } },
{ "type": "Feature", "properties": { "value": 50.244 }, "geometry": { "type": "Point", "coordinates": [ 129.32756, 35.459869, 30.0 ] } },
{ "type": "Feature", "properties": { "value": 88.703 }, "geometry": { "type": "Point", "coordinates": [ 129.327576, 35.46077, 30.0 ] } },
{ "type": "Feature", "properties": { "value": 81.737 }, "geometry": { "type": "Point", "coordinates": [ 129.327576, 35.461674, 30.0 ] } },
{ "type": "Feature", "properties": { "value": 74.818 }, "geometry": { "type": "Point", "coordinates": [ 129.327576, 35.462574, 30.0 ] } },
{ "type": "Feature", "properties": { "value": 60.029 }, "geometry": { "type": "Point", "coordinates": [ 129.327576, 35.463474, 30.0 ] } },
{ "type": "Feature", "properties": { "value": 1.3772 }, "geometry": { "type": "Point", "coordinates": [ 129.32869, 35.46347, 30.0 ] } },
{ "type": "Feature", "properties": { "value": 46.51 }, "geometry": { "type": "Point", "coordinates": [ 129.327591, 35.464375, 30.0 ] } },
{ "type": "Feature", "properties": { "value": 5.5987 }, "geometry": { "type": "Point", "coordinates": [ 129.32869, 35.464375, 30.0 ] } },
{ "type": "Feature", "properties": { "value": 32.087 }, "geometry": { "type": "Point", "coordinates": [ 129.327591, 35.465279, 30.0 ] } },
{ "type": "Feature", "properties": { "value": 10.023 }, "geometry": { "type": "Point", "coordinates": [ 129.32869, 35.465275, 30.0 ] } },
{ "type": "Feature", "properties": { "value": 21.668 }, "geometry": { "type": "Point", "coordinates": [ 129.327591, 35.466179, 30.0 ] } },
{ "type": "Feature", "properties": { "value": 12.255 }, "geometry": { "type": "Point", "coordinates": [ 129.32869, 35.466175, 30.0 ] } },
{ "type": "Feature", "properties": { "value": 138.23 }, "geometry": { "type": "Point", "coordinates": [ 129.317688, 35.467106, 30.0 ] } },
{ "type": "Feature", "properties": { "value": 17.105 }, "geometry": { "type": "Point", "coordinates": [ 129.327591, 35.467079, 30.0 ] } },
{ "type": "Feature", "properties": { "value": 14.635 }, "geometry": { "type": "Point", "coordinates": [ 129.328705, 35.467075, 30.0 ] } },
{ "type": "Feature", "properties": { "value": 993.45 }, "geometry": { "type": "Point", "coordinates": [ 129.317688, 35.468006, 30.0 ] } },
{ "type": "Feature", "properties": { "value": 14.661 }, "geometry": { "type": "Point", "coordinates": [ 129.327606, 35.467983, 30.0 ] } },
{ "type": "Feature", "properties": { "value": 16.385 }, "geometry": { "type": "Point", "coordinates": [ 129.328705, 35.467979, 30.0 ] } },
{ "type": "Feature", "properties": { "value": 1009.9 }, "geometry": { "type": "Point", "coordinates": [ 129.317688, 35.46891, 30.0 ] } },
{ "type": "Feature", "properties": { "value": 48.635 }, "geometry": { "type": "Point", "coordinates": [ 129.318787, 35.468906, 30.0 ] } },
{ "type": "Feature", "properties": { "value": 14.024 }, "geometry": { "type": "Point", "coordinates": [ 129.327606, 35.468884, 30.0 ] } },
{ "type": "Feature", "properties": { "value": 18.3 }, "geometry": { "type": "Point", "coordinates": [ 129.328705, 35.46888, 30.0 ] } },
{ "type": "Feature", "properties": { "value": 0.0639 }, "geometry": { "type": "Point", "coordinates": [ 129.329803, 35.468876, 30.0 ] } },
{ "type": "Feature", "properties": { "value": 16.203 }, "geometry": { "type": "Point", "coordinates": [ 129.316589, 35.469814, 30.0 ] } },
{ "type": "Feature", "properties": { "value": 900.06 }, "geometry": { "type": "Point", "coordinates": [ 129.317688, 35.46981, 30.0 ] } },
{ "type": "Feature", "properties": { "value": 131.99 }, "geometry": { "type": "Point", "coordinates": [ 129.318787, 35.469807, 30.0 ] } },
{ "type": "Feature", "properties": { "value": 15.002 }, "geometry": { "type": "Point", "coordinates": [ 129.327606, 35.469784, 30.0 ] } },
{ "type": "Feature", "properties": { "value": 21.323 }, "geometry": { "type": "Point", "coordinates": [ 129.328705, 35.46978, 30.0 ] } },
{ "type": "Feature", "properties": { "value": 0.5892 }, "geometry": { "type": "Point", "coordinates": [ 129.329819, 35.469776, 30.0 ] } },
{ "type": "Feature", "properties": { "value": 65.293 }, "geometry": { "type": "Point", "coordinates": [ 129.316589, 35.470715, 30.0 ] } },
{ "type": "Feature", "properties": { "value": 776.99 }, "geometry": { "type": "Point", "coordinates": [ 129.317688, 35.470711, 30.0 ] } },
{ "type": "Feature", "properties": { "value": 189.62 }, "geometry": { "type": "Point", "coordinates": [ 129.318802, 35.470707, 30.0 ] } },
{ "type": "Feature", "properties": { "value": 16.473 }, "geometry": { "type": "Point", "coordinates": [ 129.327606, 35.470684, 30.0 ] } },
{ "type": "Feature", "properties": { "value": 26.727 }, "geometry": { "type": "Point", "coordinates": [ 129.32872, 35.470684, 30.0 ] } },
{ "type": "Feature", "properties": { "value": 1.4234 }, "geometry": { "type": "Point", "coordinates": [ 129.329819, 35.47068, 30.0 ] } },
{ "type": "Feature", "properties": { "value": 137.18 }, "geometry": { "type": "Point", "coordinates": [ 129.316605, 35.471615, 30.0 ] } },
{ "type": "Feature", "properties": { "value": 656.26 }, "geometry": { "type": "Point", "coordinates": [ 129.317703, 35.471615, 30.0 ] } },
{ "type": "Feature", "properties": { "value": 189.97 }, "geometry": { "type": "Point", "coordinates": [ 129.318802, 35.471611, 30.0 ] } },
{ "type": "Feature", "properties": { "value": 0.1793 }, "geometry": { "type": "Point", "coordinates": [ 129.326508, 35.471588, 30.0 ] } },
{ "type": "Feature", "properties": { "value": 18.417 }, "geometry": { "type": "Point", "coordinates": [ 129.327621, 35.471588, 30.0 ] } },
{ "type": "Feature", "properties": { "value": 34.958 }, "geometry": { "type": "Point", "coordinates": [ 129.32872, 35.471584, 30.0 ] } },
{ "type": "Feature", "properties": { "value": 2.6956 }, "geometry": { "type": "Point", "coordinates": [ 129.329819, 35.471581, 30.0 ] } },
{ "type": "Feature", "properties": { "value": 11.396 }, "geometry": { "type": "Point", "coordinates": [ 129.315506, 35.472519, 30.0 ] } },
{ "type": "Feature", "properties": { "value": 208.08 }, "geometry": { "type": "Point", "coordinates": [ 129.316605, 35.472519, 30.0 ] } },
{ "type": "Feature", "properties": { "value": 535.85 }, "geometry": { "type": "Point", "coordinates": [ 129.317703, 35.472515, 30.0 ] } },
{ "type": "Feature", "properties": { "value": 160.28 }, "geometry": { "type": "Point", "coordinates": [ 129.318802, 35.472511, 30.0 ] } },
{ "type": "Feature", "properties": { "value": 0.4617 }, "geometry": { "type": "Point", "coordinates": [ 129.326523, 35.472492, 30.0 ] } },
{ "type": "Feature", "properties": { "value": 19.915 }, "geometry": { "type": "Point", "coordinates": [ 129.327621, 35.472488, 30.0 ] } },
{ "type": "Feature", "properties": { "value": 39.63 }, "geometry": { "type": "Point", "coordinates": [ 129.32872, 35.472485, 30.0 ] } },
{ "type": "Feature", "properties": { "value": 4.0834 }, "geometry": { "type": "Point", "coordinates": [ 129.329819, 35.472481, 30.0 ] } },
{ "type": "Feature", "properties": { "value": 29.743 }, "geometry": { "type": "Point", "coordinates": [ 129.315506, 35.473423, 30.0 ] } },
{ "type": "Feature", "properties": { "value": 250.74 }, "geometry": { "type": "Point", "coordinates": [ 129.316605, 35.473419, 30.0 ] } },
{ "type": "Feature", "properties": { "value": 436.41 }, "geometry": { "type": "Point", "coordinates": [ 129.317703, 35.473415, 30.0 ] } },
{ "type": "Feature", "properties": { "value": 137.27 }, "geometry": { "type": "Point", "coordinates": [ 129.318802, 35.473412, 30.0 ] } },
{ "type": "Feature", "properties": { "value": 5.6884 }, "geometry": { "type": "Point", "coordinates": [ 129.319916, 35.473412, 30.0 ] } },
{ "type": "Feature", "properties": { "value": 0.578 }, "geometry": { "type": "Point", "coordinates": [ 129.326523, 35.473392, 30.0 ] } },
{ "type": "Feature", "properties": { "value": 19.839 }, "geometry": { "type": "Point", "coordinates": [ 129.327621, 35.473389, 30.0 ] } },
{ "type": "Feature", "properties": { "value": 40.492 }, "geometry": { "type": "Point", "coordinates": [ 129.32872, 35.473385, 30.0 ] } },
{ "type": "Feature", "properties": { "value": 5.656 }, "geometry": { "type": "Point", "coordinates": [ 129.329819, 35.473385, 30.0 ] } },
{ "type": "Feature", "properties": { "value": 53.014 }, "geometry": { "type": "Point", "coordinates": [ 129.315506, 35.474323, 30.0 ] } },
{ "type": "Feature", "properties": { "value": 267.96 }, "geometry": { "type": "Point", "coordinates": [ 129.316605, 35.474319, 30.0 ] } },
{ "type": "Feature", "properties": { "value": 364.16 }, "geometry": { "type": "Point", "coordinates": [ 129.317703, 35.474316, 30.0 ] } },
{ "type": "Feature", "properties": { "value": 122.17 }, "geometry": { "type": "Point", "coordinates": [ 129.318817, 35.474316, 30.0 ] } },
{ "type": "Feature", "properties": { "value": 9.1354 }, "geometry": { "type": "Point", "coordinates": [ 129.319916, 35.474312, 30.0 ] } },
{ "type": "Feature", "properties": { "value": 0.6907 }, "geometry": { "type": "Point", "coordinates": [ 129.326523, 35.474293, 30.0 ] } },
{ "type": "Feature", "properties": { "value": 18.992 }, "geometry": { "type": "Point", "coordinates": [ 129.327621, 35.474289, 30.0 ] } },
{ "type": "Feature", "properties": { "value": 39.482 }, "geometry": { "type": "Point", "coordinates": [ 129.328735, 35.474289, 30.0 ] } },
{ "type": "Feature", "properties": { "value": 6.9416 }, "geometry": { "type": "Point", "coordinates": [ 129.329834, 35.474285, 30.0 ] } },
{ "type": "Feature", "properties": { "value": 6.6257 }, "geometry": { "type": "Point", "coordinates": [ 129.314407, 35.475227, 30.0 ] } },
{ "type": "Feature", "properties": { "value": 74.519 }, "geometry": { "type": "Point", "coordinates": [ 129.315506, 35.475224, 30.0 ] } },
{ "type": "Feature", "properties": { "value": 266.11 }, "geometry": { "type": "Point", "coordinates": [ 129.316605, 35.47522, 30.0 ] } },
{ "type": "Feature", "properties": { "value": 310.12 }, "geometry": { "type": "Point", "coordinates": [ 129.317719, 35.47522, 30.0 ] } },
{ "type": "Feature", "properties": { "value": 111.69 }, "geometry": { "type": "Point", "coordinates": [ 129.318817, 35.475216, 30.0 ] } },
{ "type": "Feature", "properties": { "value": 12.329 }, "geometry": { "type": "Point", "coordinates": [ 129.319916, 35.475212, 30.0 ] } },
{ "type": "Feature", "properties": { "value": 0.6463 }, "geometry": { "type": "Point", "coordinates": [ 129.326523, 35.475193, 30.0 ] } },
{ "type": "Feature", "properties": { "value": 14.355 }, "geometry": { "type": "Point", "coordinates": [ 129.327637, 35.475193, 30.0 ] } },
{ "type": "Feature", "properties": { "value": 29.672 }, "geometry": { "type": "Point", "coordinates": [ 129.328735, 35.475189, 30.0 ] } },
{ "type": "Feature", "properties": { "value": 5.9096 }, "geometry": { "type": "Point", "coordinates": [ 129.329834, 35.475185, 30.0 ] } },
{ "type": "Feature", "properties": { "value": 10.88 }, "geometry": { "type": "Point", "coordinates": [ 129.314407, 35.476128, 30.0 ] } },
{ "type": "Feature", "properties": { "value": 84.494 }, "geometry": { "type": "Point", "coordinates": [ 129.315506, 35.476124, 30.0 ] } },
{ "type": "Feature", "properties": { "value": 241.18 }, "geometry": { "type": "Point", "coordinates": [ 129.31662, 35.476124, 30.0 ] } },
{ "type": "Feature", "properties": { "value": 256.82 }, "geometry": { "type": "Point", "coordinates": [ 129.317719, 35.47612, 30.0 ] } },
{ "type": "Feature", "properties": { "value": 99.814 }, "geometry": { "type": "Point", "coordinates": [ 129.318817, 35.476116, 30.0 ] } },
{ "type": "Feature", "properties": { "value": 13.812 }, "geometry": { "type": "Point", "coordinates": [ 129.319916, 35.476112, 30.0 ] } },
{ "type": "Feature", "properties": { "value": 0.2388 }, "geometry": { "type": "Point", "coordinates": [ 129.326538, 35.476097, 30.0 ] } },
{ "type": "Feature", "properties": { "value": 4.9637 }, "geometry": { "type": "Point", "coordinates": [ 129.327637, 35.476093, 30.0 ] } },
{ "type": "Feature", "properties": { "value": 10.072 }, "geometry": { "type": "Point", "coordinates": [ 129.328735, 35.476089, 30.0 ] } },
{ "type": "Feature", "properties": { "value": 2.1775 }, "geometry": { "type": "Point", "coordinates": [ 129.329834, 35.476086, 30.0 ] } },
{ "type": "Feature", "properties": { "value": 11.735 }, "geometry": { "type": "Point", "coordinates": [ 129.314407, 35.477028, 30.0 ] } },
{ "type": "Feature", "properties": { "value": 72.612 }, "geometry": { "type": "Point", "coordinates": [ 129.315521, 35.477028, 30.0 ] } },
{ "type": "Feature", "properties": { "value": 179.54 }, "geometry": { "type": "Point", "coordinates": [ 129.31662, 35.477024, 30.0 ] } },
{ "type": "Feature", "properties": { "value": 182.52 }, "geometry": { "type": "Point", "coordinates": [ 129.317719, 35.47702, 30.0 ] } },
{ "type": "Feature", "properties": { "value": 75.101 }, "geometry": { "type": "Point", "coordinates": [ 129.318817, 35.477016, 30.0 ] } },
{ "type": "Feature", "properties": { "value": 12.504 }, "geometry": { "type": "Point", "coordinates": [ 129.319931, 35.477016, 30.0 ] } },
{ "type": "Feature", "properties": { "value": 0.4656 }, "geometry": { "type": "Point", "coordinates": [ 129.327637, 35.476994, 30.0 ] } },
{ "type": "Feature", "properties": { "value": 0.9602 }, "geometry": { "type": "Point", "coordinates": [ 129.328735, 35.47699, 30.0 ] } },
{ "type": "Feature", "properties": { "value": 0.2177 }, "geometry": { "type": "Point", "coordinates": [ 129.329834, 35.47699, 30.0 ] } },
{ "type": "Feature", "properties": { "value": 0.222 }, "geometry": { "type": "Point", "coordinates": [ 129.313324, 35.477932, 30.0 ] } },
{ "type": "Feature", "properties": { "value": 7.6641 }, "geometry": { "type": "Point", "coordinates": [ 129.314423, 35.477932, 30.0 ] } },
{ "type": "Feature", "properties": { "value": 40.858 }, "geometry": { "type": "Point", "coordinates": [ 129.315521, 35.477928, 30.0 ] } },
{ "type": "Feature", "properties": { "value": 93.032 }, "geometry": { "type": "Point", "coordinates": [ 129.31662, 35.477924, 30.0 ] } },
{ "type": "Feature", "properties": { "value": 92.281 }, "geometry": { "type": "Point", "coordinates": [ 129.317719, 35.477921, 30.0 ] } },
{ "type": "Feature", "properties": { "value": 39.956 }, "geometry": { "type": "Point", "coordinates": [ 129.318832, 35.477921, 30.0 ] } },
{ "type": "Feature", "properties": { "value": 7.2298 }, "geometry": { "type": "Point", "coordinates": [ 129.319931, 35.477917, 30.0 ] } },
{ "type": "Feature", "properties": { "value": 0.0169 }, "geometry": { "type": "Point", "coordinates": [ 129.328735, 35.477894, 30.0 ] } },
{ "type": "Feature", "properties": { "value": 2.7591 }, "geometry": { "type": "Point", "coordinates": [ 129.314423, 35.478832, 30.0 ] } },
{ "type": "Feature", "properties": { "value": 13.991 }, "geometry": { "type": "Point", "coordinates": [ 129.315521, 35.478828, 30.0 ] } },
{ "type": "Feature", "properties": { "value": 30.223 }, "geometry": { "type": "Point", "coordinates": [ 129.31662, 35.478825, 30.0 ] } },
{ "type": "Feature", "properties": { "value": 29.707 }, "geometry": { "type": "Point", "coordinates": [ 129.317734, 35.478825, 30.0 ] } },
{ "type": "Feature", "properties": { "value": 13.024 }, "geometry": { "type": "Point", "coordinates": [ 129.318832, 35.478821, 30.0 ] } },
{ "type": "Feature", "properties": { "value": 2.484 }, "geometry": { "type": "Point", "coordinates": [ 129.319931, 35.478817, 30.0 ] } },
{ "type": "Feature", "properties": { "value": 0.3297 }, "geometry": { "type": "Point", "coordinates": [ 129.314423, 35.479733, 30.0 ] } },
{ "type": "Feature", "properties": { "value": 2.4216 }, "geometry": { "type": "Point", "coordinates": [ 129.315521, 35.479729, 30.0 ] } },
{ "type": "Feature", "properties": { "value": 5.5962 }, "geometry": { "type": "Point", "coordinates": [ 129.316635, 35.479729, 30.0 ] } },
{ "type": "Feature", "properties": { "value": 5.4213 }, "geometry": { "type": "Point", "coordinates": [ 129.317734, 35.479725, 30.0 ] } },
{ "type": "Feature", "properties": { "value": 2.1766 }, "geometry": { "type": "Point", "coordinates": [ 129.318832, 35.479721, 30.0 ] } },
{ "type": "Feature", "properties": { "value": 0.2688 }, "geometry": { "type": "Point", "coordinates": [ 129.319931, 35.479717, 30.0 ] } },
{ "type": "Feature", "properties": { "value": 0.1872 }, "geometry": { "type": "Point", "coordinates": [ 129.315536, 35.480633, 30.0 ] } },
{ "type": "Feature", "properties": { "value": 0.3779 }, "geometry": { "type": "Point", "coordinates": [ 129.316635, 35.480629, 30.0 ] } },
{ "type": "Feature", "properties": { "value": 0.3613 }, "geometry": { "type": "Point", "coordinates": [ 129.317734, 35.480625, 30.0 ] } },
{ "type": "Feature", "properties": { "value": 0.1636 }, "geometry": { "type": "Point", "coordinates": [ 129.318832, 35.480621, 30.0 ] } }
]
}
