{
"type": "FeatureCollection",
"features": [
{ "type": "Feature", "properties": { "value": 7.464 }, "geometry": { "type": "Point", "coordinates": [ 129.32756, 35.458969, 30.0 ] } },
{ "type": "Feature", "properties": { "value": 188.54 }, "geometry": { "type": "Point", "coordinates": [ 129.32756, 35.459869, 30.0 ] } },
{ "type": "Feature", "properties": { "value": 299.85 }, "geometry": { "type": "Point", "coordinates": [ 129.327576, 35.46077, 30.0 ] } },
{ "type": "Feature", "properties": { "value": 245.48 }, "geometry": { "type": "Point", "coordinates": [ 129.327576, 35.461674, 30.0 ] } },
{ "type": "Feature", "properties": { "value": 187.69 }, "geometry": { "type": "Point", "coordinates": [ 129.327576, 35.462574, 30.0 ] } },
{ "type": "Feature", "properties": { "value": 1.8546 }, "geometry": { "type": "Point", "coordinates": [ 129.328674, 35.46257, 30.0 ] } },
{ "type": "Feature", "properties": { "value": 117.54 }, "geometry": { "type": "Point", "coordinates": [ 129.327576, 35.463474, 30.0 ] } },
{ "type": "Feature", "properties": { "value": 15.837 }, "geometry": { "type": "Point", "coordinates": [ 129.32869, 35.46347, 30.0 ] } },
{ "type": "Feature", "properties": { "value": 66.482 }, "geometry": { "type": "Point", "coordinates": [ 129.327591, 35.464375, 30.0 ] } },
{ "type": "Feature", "properties": { "value": 58.639 }, "geometry": { "type": "Point", "coordinates": [ 129.32869, 35.464375, 30.0 ] } },
{ "type": "Feature", "properties": { "value": 31.357 }, "geometry": { "type": "Point", "coordinates": [ 129.327591, 35.465279, 30.0 ] } },
{ "type": "Feature", "properties": { "value": 94.754 }, "geometry": { "type": "Point", "coordinates": [ 129.32869, 35.465275, 30.0 ] } },
{ "type": "Feature", "properties": { "value": 13.831 }, "geometry": { "type": "Point", "coordinates": [ 129.327591, 35.466179, 30.0 ] } },
{ "type": "Feature", "properties": { "value": 96.701 }, "geometry": { "type": "Point", "coordinates": [ 129.32869, 35.466175, 30.0 ] } },
{ "type": "Feature", "properties": { "value": 0.5871 }, "geometry": { "type": "Point", "coordinates": [ 129.329803, 35.466171, 30.0 ] } },
{ "type": "Feature", "properties": { "value": 6.4286 }, "geometry": { "type": "Point", "coordinates": [ 129.327591, 35.467079, 30.0 ] } },
{ "type": "Feature", "properties": { "value": 91.875 }, "geometry": { "type": "Point", "coordinates": [ 129.328705, 35.467075, 30.0 ] } },
{ "type": "Feature", "properties": { "value": 4.8856 }, "geometry": { "type": "Point", "coordinates": [ 129.329803, 35.467075, 30.0 ] } },
{ "type": "Feature", "properties": { "value": 2.8175 }, "geometry": { "type": "Point", "coordinates": [ 129.327606, 35.467983, 30.0 ] } },
{ "type": "Feature", "properties": { "value": 77.801 }, "geometry": { "type": "Point", "coordinates": [ 129.328705, 35.467979, 30.0 ] } },
{ "type": "Feature", "properties": { "value": 13.832 }, "geometry": { "type": "Point", "coordinates": [ 129.329803, 35.467976, 30.0 ] } },
{ "type": "Feature", "properties": { "value": 1.276 }, "geometry": { "type": "Point", "coordinates": [ 129.327606, 35.468884, 30.0 ] } },
{ "type": "Feature", "properties": { "value": 60.732 }, "geometry": { "type": "Point", "coordinates": [ 129.328705, 35.46888, 30.0 ] } },
{ "type": "Feature", "properties": { "value": 31.656 }, "geometry": { "type": "Point", "coordinates": [ 129.329803, 35.468876, 30.0 ] } },
{ "type": "Feature", "properties": { "value": 44.85 }, "geometry": { "type": "Point", "coordinates": [ 129.328705, 35.46978, 30.0 ] } },
{ "type": "Feature", "properties": { "value": 62.612 }, "geometry": { "type": "Point", "coordinates": [ 129.329819, 35.469776, 30.0 ] } },
{ "type": "Feature", "properties": { "value": 2.5308 }, "geometry": { "type": "Point", "coordinates": [ 129.330917, 35.469776, 30.0 ] } },
{ "type": "Feature", "properties": { "value": 32.837 }, "geometry": { "type": "Point", "coordinates": [ 129.32872, 35.470684, 30.0 ] } },
{ "type": "Feature", "properties": { "value": 106.8 }, "geometry": { "type": "Point", "coordinates": [ 129.329819, 35.47068, 30.0 ] } },
{ "type": "Feature", "properties": { "value": 13.169 }, "geometry": { "type": "Point", "coordinates": [ 129.330917, 35.470676, 30.0 ] } },
{ "type": "Feature", "properties": { "value": 22.526 }, "geometry": { "type": "Point", "coordinates": [ 129.32872, 35.471584, 30.0 ] } },
{ "type": "Feature", "properties": { "value": 132.79 }, "geometry": { "type": "Point", "coordinates": [ 129.329819, 35.471581, 30.0 ] } },
{ "type": "Feature", "properties": { "value": 37.645 }, "geometry": { "type": "Point", "coordinates": [ 129.330917, 35.471577, 30.0 ] } },
{ "type": "Feature", "properties": { "value": 11.465 }, "geometry": { "type": "Point", "coordinates": [ 129.32872, 35.472485, 30.0 ] } },
{ "type": "Feature", "properties": { "value": 113.96 }, "geometry": { "type": "Point", "coordinates": [ 129.329819, 35.472481, 30.0 ] } },
{ "type": "Feature", "properties": { "value": 72.722 }, "geometry": { "type": "Point", "coordinates": [ 129.330917, 35.472477, 30.0 ] } },
{ "type": "Feature", "properties": { "value": 3.6837 }, "geometry": { "type": "Point", "coordinates": [ 129.332031, 35.472477, 30.0 ] } },
{ "type": "Feature", "properties": { "value": 4.5669 }, "geometry": { "type": "Point", "coordinates": [ 129.32872, 35.473385, 30.0 ] } },
{ "type": "Feature", "properties": { "value": 77.226 }, "geometry": { "type": "Point", "coordinates": [ 129.329819, 35.473385, 30.0 ] } },
{ "type": "Feature", "properties": { "value": 100.76 }, "geometry": { "type": "Point", "coordinates": [ 129.330933, 35.473381, 30.0 ] } },
{ "type": "Feature", "properties": { "value": 12.761 }, "geometry": { "type": "Point", "coordinates": [ 129.332031, 35.473377, 30.0 ] } },
{ "type": "Feature", "properties": { "value": 1.4647 }, "geometry": { "type": "Point", "coordinates": [ 129.328735, 35.474289, 30.0 ] } },
{ "type": "Feature", "properties": { "value": 42.44 }, "geometry": { "type": "Point", "coordinates": [ 129.329834, 35.474285, 30.0 ] } },
{ "type": "Feature", "properties": { "value": 96.104 }, "geometry": { "type": "Point", "coordinates": [ 129.330933, 35.474281, 30.0 ] } },
{ "type": "Feature", "properties": { "value": 28.785 }, "geometry": { "type": "Point", "coordinates": [ 129.332031, 35.474277, 30.0 ] } },
{ "type": "Feature", "properties": { "value": 1.455 }, "geometry": { "type": "Point", "coordinates": [ 129.33313, 35.474274, 30.0 ] } },
{ "type": "Feature", "properties": { "value": 21.436 }, "geometry": { "type": "Point", "coordinates": [ 129.329834, 35.475185, 30.0 ] } },
{ "type": "Feature", "properties": { "value": 76.631 }, "geometry": { "type": "Point", "coordinates": [ 129.330933, 35.475182, 30.0 ] } },
{ "type": "Feature", "properties": { "value": 48.055 }, "geometry": { "type": "Point", "coordinates": [ 129.332031, 35.475178, 30.0 ] } },
{ "type": "Feature", "properties": { "value": 6.1275 }, "geometry": { "type": "Point", "coordinates": [ 129.333145, 35.475178, 30.0 ] } },
{ "type": "Feature", "properties": { "value": 9.8882 }, "geometry": { "type": "Point", "coordinates": [ 129.329834, 35.476086, 30.0 ] } },
{ "type": "Feature", "properties": { "value": 54.573 }, "geometry": { "type": "Point", "coordinates": [ 129.330933, 35.476086, 30.0 ] } },
{ "type": "Feature", "properties": { "value": 62.917 }, "geometry": { "type": "Point", "coordinates": [ 129.332047, 35.476082, 30.0 ] } },
{ "type": "Feature", "properties": { "value": 16.212 }, "geometry": { "type": "Point", "coordinates": [ 129.333145, 35.476078, 30.0 ] } },
{ "type": "Feature", "properties": { "value": 0.7582 }, "geometry": { "type": "Point", "coordinates": [ 129.334244, 35.476074, 30.0 ] } },
{ "type": "Feature", "properties": { "value": 3.8594 }, "geometry": { "type": "Point", "coordinates": [ 129.329834, 35.47699, 30.0 ] } },
{ "type": "Feature", "properties": { "value": 34.463 }, "geometry": { "type": "Point", "coordinates": [ 129.330948, 35.476986, 30.0 ] } },
{ "type": "Feature", "properties": { "value": 68.187 }, "geometry": { "type": "Point", "coordinates": [ 129.332047, 35.476982, 30.0 ] } },
{ "type": "Feature", "properties": { "value": 32.45 }, "geometry": { "type": "Point", "coordinates": [ 129.333145, 35.476978, 30.0 ] } },
{ "type": "Feature", "properties": { "value": 4.0096 }, "geometry": { "type": "Point", "coordinates": [ 129.334244, 35.476974, 30.0 ] } },
{ "type": "Feature", "properties": { "value": 1.2665 }, "geometry": { "type": "Point", "coordinates": [ 129.329849, 35.47789, 30.0 ] } },
{ "type": "Feature", "properties": { "value": 18.983 }, "geometry": { "type": "Point", "coordinates": [ 129.330948, 35.477886, 30.0 ] } },
{ "type": "Feature", "properties": { "value": 61.415 }, "geometry": { "type": "Point", "coordinates": [ 129.332047, 35.477882, 30.0 ] } },
{ "type": "Feature", "properties": { "value": 50.773 }, "geometry": { "type": "Point", "coordinates": [ 129.333145, 35.477879, 30.0 ] } },
{ "type": "Feature", "properties": { "value": 11.99 }, "geometry": { "type": "Point", "coordinates": [ 129.334259, 35.477879, 30.0 ] } },
{ "type": "Feature", "properties": { "value": 0.611 }, "geometry": { "type": "Point", "coordinates": [ 129.335358, 35.477875, 30.0 ] } },
{ "type": "Feature", "properties": { "value": 8.8484 }, "geometry": { "type": "Point", "coordinates": [ 129.330948, 35.478786, 30.0 ] } },
{ "type": "Feature", "properties": { "value": 44.888 }, "geometry": { "type": "Point", "coordinates": [ 129.332047, 35.478786, 30.0 ] } },
{ "type": "Feature", "properties": { "value": 62.022 }, "geometry": { "type": "Point", "coordinates": [ 129.33316, 35.478783, 30.0 ] } },
{ "type": "Feature", "properties": { "value": 26.332 }, "geometry": { "type": "Point", "coordinates": [ 129.334259, 35.478779, 30.0 ] } },
{ "type": "Feature", "properties": { "value": 3.9095 }, "geometry": { "type": "Point", "coordinates": [ 129.335358, 35.478775, 30.0 ] } },
{ "type": "Feature", "properties": { "value": 3.5122 }, "geometry": { "type": "Point", "coordinates": [ 129.330948, 35.479691, 30.0 ] } },
{ "type": "Feature", "properties": { "value": 27.135 }, "geometry": { "type": "Point", "coordinates": [ 129.332062, 35.479687, 30.0 ] } },
{ "type": "Feature", "properties": { "value": 60.457 }, "geometry": { "type": "Point", "coordinates": [ 129.33316, 35.479683, 30.0 ] } },
{ "type": "Feature", "properties": { "value": 44.443 }, "geometry": { "type": "Point", "coordinates": [ 129.334259, 35.479679, 30.0 ] } },
{ "type": "Feature", "properties": { "value": 12.352 }, "geometry": { "type": "Point", "coordinates": [ 129.335358, 35.479675, 30.0 ] } },
{ "type": "Feature", "properties": { "value": 1.3025 }, "geometry": { "type": "Point", "coordinates": [ 129.336456, 35.479675, 30.0 ] } },
{ "type": "Feature", "properties": { "value": 1.0413 }, "geometry": { "type": "Point", "coordinates": [ 129.330963, 35.480591, 30.0 ] } },
{ "type": "Feature", "properties": { "value": 13.808 }, "geometry": { "type": "Point", "coordinates": [ 129.332062, 35.480587, 30.0 ] } },
{ "type": "Feature", "properties": { "value": 47.993 }, "geometry": { "type": "Point", "coordinates": [ 129.33316, 35.480583, 30.0 ] } },
{ "type": "Feature", "properties": { "value": 57.845 }, "geometry": { "type": "Point", "coordinates": [ 129.334259, 35.480579, 30.0 ] } },
{ "type": "Feature", "properties": { "value": 27.638 }, "geometry": { "type": "Point", "coordinates": [ 129.335358, 35.480579, 30.0 ] } },
{ "type": "Feature", "properties": { "value": 6.0714 }, "geometry": { "type": "Point", "coordinates": [ 129.336472, 35.480576, 30.0 ] } },
{ "type": "Feature", "properties": { "value": 0.3955 }, "geometry": { "type": "Point", "coordinates": [ 129.33757, 35.480572, 30.0 ] } },
{ "type": "Feature", "properties": { "value": 5.9245 }, "geometry": { "type": "Point", "coordinates": [ 129.332062, 35.481487, 30.0 ] } },
{ "type": "Feature", "properties": { "value": 30.815 }, "geometry": { "type": "Point", "coordinates": [ 129.33316, 35.481487, 30.0 ] } },
{ "type": "Feature", "properties": { "value": 56.58 }, "geometry": { "type": "Point", "coordinates": [ 129.334259, 35.481483, 30.0 ] } },
{ "type": "Feature", "properties": { "value": 43.439 }, "geometry": { "type": "Point", "coordinates": [ 129.335373, 35.48148, 30.0 ] } },
{ "type": "Feature", "properties": { "value": 16.357 }, "geometry": { "type": "Point", "coordinates": [ 129.336472, 35.481476, 30.0 ] } },
{ "type": "Feature", "properties": { "value": 3.5023 }, "geometry": { "type": "Point", "coordinates": [ 129.33757, 35.481472, 30.0 ] } },
{ "type": "Feature", "properties": { "value": 0.1936 }, "geometry": { "type": "Point", "coordinates": [ 129.338669, 35.481472, 30.0 ] } },
{ "type": "Feature", "properties": { "value": 2.3258 }, "geometry": { "type": "Point", "coordinates": [ 129.332062, 35.482391, 30.0 ] } },
{ "type": "Feature", "properties": { "value": 16.791 }, "geometry": { "type": "Point", "coordinates": [ 129.333176, 35.482388, 30.0 ] } },
{ "type": "Feature", "properties": { "value": 44.089 }, "geometry": { "type": "Point", "coordinates": [ 129.334274, 35.482384, 30.0 ] } },
{ "type": "Feature", "properties": { "value": 51.38 }, "geometry": { "type": "Point", "coordinates": [ 129.335373, 35.48238, 30.0 ] } },
{ "type": "Feature", "properties": { "value": 30.561 }, "geometry": { "type": "Point", "coordinates": [ 129.336472, 35.482376, 30.0 ] } },
{ "type": "Feature", "properties": { "value": 10.668 }, "geometry": { "type": "Point", "coordinates": [ 129.33757, 35.482376, 30.0 ] } },
{ "type": "Feature", "properties": { "value": 2.4904 }, "geometry": { "type": "Point", "coordinates": [ 129.338684, 35.482372, 30.0 ] } },
{ "type": "Feature", "properties": { "value": 0.2513 }, "geometry": { "type": "Point", "coordinates": [ 129.339783, 35.482368, 30.0 ] } },
{ "type": "Feature", "properties": { "value": 0.8069 }, "geometry": { "type": "Point", "coordinates": [ 129.332077, 35.483292, 30.0 ] } },
{ "type": "Feature", "properties": { "value": 8.3544 }, "geometry": { "type": "Point", "coordinates": [ 129.333176, 35.483288, 30.0 ] } },
{ "type": "Feature", "properties": { "value": 29.198 }, "geometry": { "type": "Point", "coordinates": [ 129.334274, 35.483284, 30.0 ] } },
{ "type": "Feature", "properties": { "value": 47.57 }, "geometry": { "type": "Point", "coordinates": [ 129.335373, 35.48328, 30.0 ] } },
{ "type": "Feature", "properties": { "value": 41.338 }, "geometry": { "type": "Point", "coordinates": [ 129.336472, 35.48328, 30.0 ] } },
{ "type": "Feature", "properties": { "value": 21.618 }, "geometry": { "type": "Point", "coordinates": [ 129.337585, 35.483276, 30.0 ] } },
{ "type": "Feature", "properties": { "value": 7.7486 }, "geometry": { "type": "Point", "coordinates": [ 129.338684, 35.483273, 30.0 ] } },
{ "type": "Feature", "properties": { "value": 2.126 }, "geometry": { "type": "Point", "coordinates": [ 129.339783, 35.483269, 30.0 ] } },
{ "type": "Feature", "properties": { "value": 0.412 }, "geometry": { "type": "Point", "coordinates": [ 129.340881, 35.483265, 30.0 ] } },
{ "type": "Feature", "properties": { "value": 3.82 }, "geometry": { "type": "Point", "coordinates": [ 129.333176, 35.484188, 30.0 ] } },
{ "type": "Feature", "properties": { "value": 16.79 }, "geometry": { "type": "Point", "coordinates": [ 129.334274, 35.484188, 30.0 ] } },
{ "type": "Feature", "properties": { "value": 36.069 }, "geometry": { "type": "Point", "coordinates": [ 129.335373, 35.484184, 30.0 ] } },
{ "type": "Feature", "properties": { "value": 43.108 }, "geometry": { "type": "Point", "coordinates": [ 129.336487, 35.48418, 30.0 ] } },
{ "type": "Feature", "properties": { "value": 31.881 }, "geometry": { "type": "Point", "coordinates": [ 129.337585, 35.484177, 30.0 ] } },
{ "type": "Feature", "properties": { "value": 16.298 }, "geometry": { "type": "Point", "coordinates": [ 129.338684, 35.484173, 30.0 ] } },
{ "type": "Feature", "properties": { "value": 6.4061 }, "geometry": { "type": "Point", "coordinates": [ 129.339783, 35.484173, 30.0 ] } },
{ "type": "Feature", "properties": { "value": 2.0575 }, "geometry": { "type": "Point", "coordinates": [ 129.340897, 35.484169, 30.0 ] } },
{ "type": "Feature", "properties": { "value": 0.4746 }, "geometry": { "type": "Point", "coordinates": [ 129.341995, 35.484165, 30.0 ] } },
{ "type": "Feature", "properties": { "value": 1.5453 }, "geometry": { "type": "Point", "coordinates": [ 129.333176, 35.485092, 30.0 ] } },
{ "type": "Feature", "properties": { "value": 8.522 }, "geometry": { "type": "Point", "coordinates": [ 129.334274, 35.485088, 30.0 ] } },
{ "type": "Feature", "properties": { "value": 23.335 }, "geometry": { "type": "Point", "coordinates": [ 129.335388, 35.485085, 30.0 ] } },
{ "type": "Feature", "properties": { "value": 36.687 }, "geometry": { "type": "Point", "coordinates": [ 129.336487, 35.485081, 30.0 ] } },
{ "type": "Feature", "properties": { "value": 36.57 }, "geometry": { "type": "Point", "coordinates": [ 129.337585, 35.485077, 30.0 ] } },
{ "type": "Feature", "properties": { "value": 25.435 }, "geometry": { "type": "Point", "coordinates": [ 129.338684, 35.485077, 30.0 ] } },
{ "type": "Feature", "properties": { "value": 13.497 }, "geometry": { "type": "Point", "coordinates": [ 129.339798, 35.485073, 30.0 ] } },
{ "type": "Feature", "properties": { "value": 5.7977 }, "geometry": { "type": "Point", "coordinates": [ 129.340897, 35.485069, 30.0 ] } },
{ "type": "Feature", "properties": { "value": 2.094 }, "geometry": { "type": "Point", "coordinates": [ 129.341995, 35.485065, 30.0 ] } },
{ "type": "Feature", "properties": { "value": 0.6126 }, "geometry": { "type": "Point", "coordinates": [ 129.343094, 35.485062, 30.0 ] } },
{ "type": "Feature", "properties": { "value": 0.4795 }, "geometry": { "type": "Point", "coordinates": [ 129.333176, 35.485992, 30.0 ] } },
{ "type": "Feature", "properties": { "value": 3.8555 }, "geometry": { "type": "Point", "coordinates": [ 129.33429, 35.485989, 30.0 ] } },
{ "type": "Feature", "properties": { "value": 13.116 }, "geometry": { "type": "Point", "coordinates": [ 129.335388, 35.485985, 30.0 ] } },
{ "type": "Feature", "properties": { "value": 26.346 }, "geometry": { "type": "Point", "coordinates": [ 129.336487, 35.485981, 30.0 ] } },
{ "type": "Feature", "properties": { "value": 34.275 }, "geometry": { "type": "Point", "coordinates": [ 129.337585, 35.485981, 30.0 ] } },
{ "type": "Feature", "properties": { "value": 31.277 }, "geometry": { "type": "Point", "coordinates": [ 129.338699, 35.485977, 30.0 ] } },
{ "type": "Feature", "properties": { "value": 21.539 }, "geometry": { "type": "Point", "coordinates": [ 129.339798, 35.485973, 30.0 ] } },
{ "type": "Feature", "properties": { "value": 11.864 }, "geometry": { "type": "Point", "coordinates": [ 129.340897, 35.48597, 30.0 ] } },
{ "type": "Feature", "properties": { "value": 5.5045 }, "geometry": { "type": "Point", "coordinates": [ 129.341995, 35.485966, 30.0 ] } },
{ "type": "Feature", "properties": { "value": 2.2436 }, "geometry": { "type": "Point", "coordinates": [ 129.343094, 35.485966, 30.0 ] } },
{ "type": "Feature", "properties": { "value": 0.8124 }, "geometry": { "type": "Point", "coordinates": [ 129.344208, 35.485962, 30.0 ] } },
{ "type": "Feature", "properties": { "value": 0.1955 }, "geometry": { "type": "Point", "coordinates": [ 129.345306, 35.485958, 30.0 ] } },
{ "type": "Feature", "properties": { "value": 1.5473 }, "geometry": { "type": "Point", "coordinates": [ 129.33429, 35.486889, 30.0 ] } },
{ "type": "Feature", "properties": { "value": 6.5307 }, "geometry": { "type": "Point", "coordinates": [ 129.335388, 35.486889, 30.0 ] } },
{ "type": "Feature", "properties": { "value": 16.349 }, "geometry": { "type": "Point", "coordinates": [ 129.336487, 35.486885, 30.0 ] } },
{ "type": "Feature", "properties": { "value": 26.983 }, "geometry": { "type": "Point", "coordinates": [ 129.337601, 35.486881, 30.0 ] } },
{ "type": "Feature", "properties": { "value": 31.233 }, "geometry": { "type": "Point", "coordinates": [ 129.338699, 35.486877, 30.0 ] } },
{ "type": "Feature", "properties": { "value": 27.136 }, "geometry": { "type": "Point", "coordinates": [ 129.339798, 35.486874, 30.0 ] } },
{ "type": "Feature", "properties": { "value": 18.785 }, "geometry": { "type": "Point", "coordinates": [ 129.340897, 35.486874, 30.0 ] } },
{ "type": "Feature", "properties": { "value": 10.895 }, "geometry": { "type": "Point", "coordinates": [ 129.341995, 35.48687, 30.0 ] } },
{ "type": "Feature", "properties": { "value": 5.5546 }, "geometry": { "type": "Point", "coordinates": [ 129.343109, 35.486866, 30.0 ] } },
{ "type": "Feature", "properties": { "value": 2.5806 }, "geometry": { "type": "Point", "coordinates": [ 129.344208, 35.486862, 30.0 ] } },
{ "type": "Feature", "properties": { "value": 1.1007 }, "geometry": { "type": "Point", "coordinates": [ 129.345306, 35.486858, 30.0 ] } },
{ "type": "Feature", "properties": { "value": 0.4278 }, "geometry": { "type": "Point", "coordinates": [ 129.346405, 35.486855, 30.0 ] } },
{ "type": "Feature", "properties": { "value": 0.0387 }, "geometry": { "type": "Point", "coordinates": [ 129.347519, 35.486855, 30.0 ] } },
{ "type": "Feature", "properties": { "value": 0.5031 }, "geometry": { "type": "Point", "coordinates": [ 129.33429, 35.487793, 30.0 ] } },
{ "type": "Feature", "properties": { "value": 2.9313 }, "geometry": { "type": "Point", "coordinates": [ 129.335388, 35.487789, 30.0 ] } },
{ "type": "Feature", "properties": { "value": 8.9586 }, "geometry": { "type": "Point", "coordinates": [ 129.336502, 35.487785, 30.0 ] } },
{ "type": "Feature", "properties": { "value": 18.138 }, "geometry": { "type": "Point", "coordinates": [ 129.337601, 35.487782, 30.0 ] } },
{ "type": "Feature", "properties": { "value": 25.889 }, "geometry": { "type": "Point", "coordinates": [ 129.338699, 35.487778, 30.0 ] } },
{ "type": "Feature", "properties": { "value": 27.774 }, "geometry": { "type": "Point", "coordinates": [ 129.339798, 35.487778, 30.0 ] } },
{ "type": "Feature", "properties": { "value": 23.753 }, "geometry": { "type": "Point", "coordinates": [ 129.340912, 35.487774, 30.0 ] } },
{ "type": "Feature", "properties": { "value": 16.914 }, "geometry": { "type": "Point", "coordinates": [ 129.34201, 35.48777, 30.0 ] } },
{ "type": "Feature", "properties": { "value": 10.489 }, "geometry": { "type": "Point", "coordinates": [ 129.343109, 35.487766, 30.0 ] } },
{ "type": "Feature", "properties": { "value": 5.8708 }, "geometry": { "type": "Point", "coordinates": [ 129.344208, 35.487762, 30.0 ] } },
{ "type": "Feature", "properties": { "value": 3.0553 }, "geometry": { "type": "Point", "coordinates": [ 129.345306, 35.487759, 30.0 ] } },
{ "type": "Feature", "properties": { "value": 1.5056 }, "geometry": { "type": "Point", "coordinates": [ 129.34642, 35.487759, 30.0 ] } },
{ "type": "Feature", "properties": { "value": 0.6932 }, "geometry": { "type": "Point", "coordinates": [ 129.347519, 35.487755, 30.0 ] } },
{ "type": "Feature", "properties": { "value": 0.2615 }, "geometry": { "type": "Point", "coordinates": [ 129.348618, 35.487751, 30.0 ] } },
{ "type": "Feature", "properties": { "value": 0.0067 }, "geometry": { "type": "Point", "coordinates": [ 129.379471, 35.487659, 30.0 ] } },
{ "type": "Feature", "properties": { "value": 0.0123 }, "geometry": { "type": "Point", "coordinates": [ 129.380569, 35.487656, 30.0 ] } },
{ "type": "Feature", "properties": { "value": 0.0128 }, "geometry": { "type": "Point", "coordinates": [ 129.381683, 35.487652, 30.0 ] } },
{ "type": "Feature", "properties": { "value": 1.1758 }, "geometry": { "type": "Point", "coordinates": [ 129.335403, 35.488689, 30.0 ] } },
{ "type": "Feature", "properties": { "value": 4.3726 }, "geometry": { "type": "Point", "coordinates": [ 129.336502, 35.488686, 30.0 ] } },
{ "type": "Feature", "properties": { "value": 10.66 }, "geometry": { "type": "Point", "coordinates": [ 129.337601, 35.488682, 30.0 ] } },
{ "type": "Feature", "properties": { "value": 18.385 }, "geometry": { "type": "Point", "coordinates": [ 129.338699, 35.488682, 30.0 ] } },
{ "type": "Feature", "properties": { "value": 23.913 }, "geometry": { "type": "Point", "coordinates": [ 129.339813, 35.488678, 30.0 ] } },
{ "type": "Feature", "properties": { "value": 24.807 }, "geometry": { "type": "Point", "coordinates": [ 129.340912, 35.488674, 30.0 ] } },
{ "type": "Feature", "properties": { "value": 21.347 }, "geometry": { "type": "Point", "coordinates": [ 129.34201, 35.48867, 30.0 ] } },
{ "type": "Feature", "properties": { "value": 15.859 }, "geometry": { "type": "Point", "coordinates": [ 129.343109, 35.488667, 30.0 ] } },
{ "type": "Feature", "properties": { "value": 10.539 }, "geometry": { "type": "Point", "coordinates": [ 129.344208, 35.488667, 30.0 ] } },
{ "type": "Feature", "properties": { "value": 6.4526 }, "geometry": { "type": "Point", "coordinates": [ 129.345322, 35.488663, 30.0 ] } },
{ "type": "Feature", "properties": { "value": 3.702 }, "geometry": { "type": "Point", "coordinates": [ 129.34642, 35.488659, 30.0 ] } },
{ "type": "Feature", "properties": { "value": 1.9983 }, "geometry": { "type": "Point", "coordinates": [ 129.347519, 35.488655, 30.0 ] } },
{ "type": "Feature", "properties": { "value": 1.0188 }, "geometry": { "type": "Point", "coordinates": [ 129.348618, 35.488651, 30.0 ] } },
{ "type": "Feature", "properties": { "value": 0.4792 }, "geometry": { "type": "Point", "coordinates": [ 129.349731, 35.488647, 30.0 ] } },
{ "type": "Feature", "properties": { "value": 0.1761 }, "geometry": { "type": "Point", "coordinates": [ 129.35083, 35.488647, 30.0 ] } },
{ "type": "Feature", "properties": { "value": 0.0062 }, "geometry": { "type": "Point", "coordinates": [ 129.376175, 35.488571, 30.0 ] } },
{ "type": "Feature", "properties": { "value": 0.0367 }, "geometry": { "type": "Point", "coordinates": [ 129.377274, 35.488567, 30.0 ] } },
{ "type": "Feature", "properties": { "value": 0.0488 }, "geometry": { "type": "Point", "coordinates": [ 129.378372, 35.488564, 30.0 ] } },
{ "type": "Feature", "properties": { "value": 0.0539 }, "geometry": { "type": "Point", "coordinates": [ 129.379471, 35.48856, 30.0 ] } },
{ "type": "Feature", "properties": { "value": 0.0567 }, "geometry": { "type": "Point", "coordinates": [ 129.380585, 35.488556, 30.0 ] } },
{ "type": "Feature", "properties": { "value": 0.0513 }, "geometry": { "type": "Point", "coordinates": [ 129.381683, 35.488552, 30.0 ] } },
{ "type": "Feature", "properties": { "value": 0.3522 }, "geometry": { "type": "Point", "coordinates": [ 129.335403, 35.48959, 30.0 ] } },
{ "type": "Feature", "properties": { "value": 1.9088 }, "geometry": { "type": "Point", "coordinates": [ 129.336502, 35.48959, 30.0 ] } },
{ "type": "Feature", "properties": { "value": 5.5546 }, "geometry": { "type": "Point", "coordinates": [ 129.337601, 35.489586, 30.0 ] } },
{ "type": "Feature", "properties": { "value": 11.444 }, "geometry": { "type": "Point", "coordinates": [ 129.338715, 35.489582, 30.0 ] } },
{ "type": "Feature", "properties": { "value": 17.769 }, "geometry": { "type": "Point", "coordinates": [ 129.339813, 35.489578, 30.0 ] } },
{ "type": "Feature", "properties": { "value": 22.055 }, "geometry": { "type": "Point", "coordinates": [ 129.340912, 35.489574, 30.0 ] } },
{ "type": "Feature", "properties": { "value": 22.719 }, "geometry": { "type": "Point", "coordinates": [ 129.34201, 35.489571, 30.0 ] } },
{ "type": "Feature", "properties": { "value": 20.015 }, "geometry": { "type": "Point", "coordinates": [ 129.343109, 35.489571, 30.0 ] } },
{ "type": "Feature", "properties": { "value": 15.6 }, "geometry": { "type": "Point", "coordinates": [ 129.344223, 35.489567, 30.0 ] } },
{ "type": "Feature", "properties": { "value": 11.085 }, "geometry": { "type": "Point", "coordinates": [ 129.345322, 35.489563, 30.0 ] } },
{ "type": "Feature", "properties": { "value": 7.2773 }, "geometry": { "type": "Point", "coordinates": [ 129.34642, 35.489559, 30.0 ] } },
{ "type": "Feature", "properties": { "value": 4.4565 }, "geometry": { "type": "Point", "coordinates": [ 129.347519, 35.489555, 30.0 ] } },
{ "type": "Feature", "properties": { "value": 2.5878 }, "geometry": { "type": "Point", "coordinates": [ 129.348633, 35.489555, 30.0 ] } },
{ "type": "Feature", "properties": { "value": 1.4429 }, "geometry": { "type": "Point", "coordinates": [ 129.349731, 35.489552, 30.0 ] } },
{ "type": "Feature", "properties": { "value": 0.7799 }, "geometry": { "type": "Point", "coordinates": [ 129.35083, 35.489548, 30.0 ] } },
{ "type": "Feature", "properties": { "value": 0.3924 }, "geometry": { "type": "Point", "coordinates": [ 129.351929, 35.489544, 30.0 ] } },
{ "type": "Feature", "properties": { "value": 0.1618 }, "geometry": { "type": "Point", "coordinates": [ 129.353027, 35.48954, 30.0 ] } },
{ "type": "Feature", "properties": { "value": 0.0271 }, "geometry": { "type": "Point", "coordinates": [ 129.373978, 35.489479, 30.0 ] } },
{ "type": "Feature", "properties": { "value": 0.0789 }, "geometry": { "type": "Point", "coordinates": [ 129.375076, 35.489475, 30.0 ] } },
{ "type": "Feature", "properties": { "value": 0.1035 }, "geometry": { "type": "Point", "coordinates": [ 129.376175, 35.489471, 30.0 ] } },
{ "type": "Feature", "properties": { "value": 0.121 }, "geometry": { "type": "Point", "coordinates": [ 129.377274, 35.489468, 30.0 ] } },
{ "type": "Feature", "properties": { "value": 0.1359 }, "geometry": { "type": "Point", "coordinates": [ 129.378387, 35.489464, 30.0 ] } },
{ "type": "Feature", "properties": { "value": 0.1426 }, "geometry": { "type": "Point", "coordinates": [ 129.379486, 35.48946, 30.0 ] } },
{ "type": "Feature", "properties": { "value": 0.139 }, "geometry": { "type": "Point", "coordinates": [ 129.380585, 35.489456, 30.0 ] } },
{ "type": "Feature", "properties": { "value": 0.1274 }, "geometry": { "type": "Point", "coordinates": [ 129.381683, 35.489452, 30.0 ] } },
{ "type": "Feature", "properties": { "value": 0.707 }, "geometry": { "type": "Point", "coordinates": [ 129.336502, 35.49049, 30.0 ] } },
{ "type": "Feature", "properties": { "value": 2.5616 }, "geometry": { "type": "Point", "coordinates": [ 129.337616, 35.490486, 30.0 ] } },
{ "type": "Feature", "properties": { "value": 6.2464 }, "geometry": { "type": "Point", "coordinates": [ 129.338715, 35.490482, 30.0 ] } },
{ "type": "Feature", "properties": { "value": 11.489 }, "geometry": { "type": "Point", "coordinates": [ 129.339813, 35.490479, 30.0 ] } },
{ "type": "Feature", "properties": { "value": 16.937 }, "geometry": { "type": "Point", "coordinates": [ 129.340912, 35.490479, 30.0 ] } },
{ "type": "Feature", "properties": { "value": 20.606 }, "geometry": { "type": "Point", "coordinates": [ 129.34201, 35.490475, 30.0 ] } },
{ "type": "Feature", "properties": { "value": 21.3 }, "geometry": { "type": "Point", "coordinates": [ 129.343124, 35.490471, 30.0 ] } },
{ "type": "Feature", "properties": { "value": 19.357 }, "geometry": { "type": "Point", "coordinates": [ 129.344223, 35.490467, 30.0 ] } },
{ "type": "Feature", "properties": { "value": 15.851 }, "geometry": { "type": "Point", "coordinates": [ 129.345322, 35.490463, 30.0 ] } },
{ "type": "Feature", "properties": { "value": 11.887 }, "geometry": { "type": "Point", "coordinates": [ 129.34642, 35.490459, 30.0 ] } },
{ "type": "Feature", "properties": { "value": 8.2474 }, "geometry": { "type": "Point", "coordinates": [ 129.347534, 35.490459, 30.0 ] } },
{ "type": "Feature", "properties": { "value": 5.365 }, "geometry": { "type": "Point", "coordinates": [ 129.348633, 35.490456, 30.0 ] } },
{ "type": "Feature", "properties": { "value": 3.3344 }, "geometry": { "type": "Point", "coordinates": [ 129.349731, 35.490452, 30.0 ] } },
{ "type": "Feature", "properties": { "value": 2.0237 }, "geometry": { "type": "Point", "coordinates": [ 129.35083, 35.490448, 30.0 ] } },
{ "type": "Feature", "properties": { "value": 1.2176 }, "geometry": { "type": "Point", "coordinates": [ 129.351929, 35.490444, 30.0 ] } },
{ "type": "Feature", "properties": { "value": 0.7188 }, "geometry": { "type": "Point", "coordinates": [ 129.353043, 35.49044, 30.0 ] } },
{ "type": "Feature", "properties": { "value": 0.4261 }, "geometry": { "type": "Point", "coordinates": [ 129.354141, 35.49044, 30.0 ] } },
{ "type": "Feature", "properties": { "value": 0.2393 }, "geometry": { "type": "Point", "coordinates": [ 129.35524, 35.490437, 30.0 ] } },
{ "type": "Feature", "properties": { "value": 0.1168 }, "geometry": { "type": "Point", "coordinates": [ 129.356339, 35.490433, 30.0 ] } },
{ "type": "Feature", "properties": { "value": 0.0229 }, "geometry": { "type": "Point", "coordinates": [ 129.357452, 35.490429, 30.0 ] } },
{ "type": "Feature", "properties": { "value": 0.0486 }, "geometry": { "type": "Point", "coordinates": [ 129.370667, 35.490391, 30.0 ] } },
{ "type": "Feature", "properties": { "value": 0.0915 }, "geometry": { "type": "Point", "coordinates": [ 129.371765, 35.490387, 30.0 ] } },
{ "type": "Feature", "properties": { "value": 0.1366 }, "geometry": { "type": "Point", "coordinates": [ 129.372879, 35.490383, 30.0 ] } },
{ "type": "Feature", "properties": { "value": 0.1787 }, "geometry": { "type": "Point", "coordinates": [ 129.373978, 35.490379, 30.0 ] } },
{ "type": "Feature", "properties": { "value": 0.2141 }, "geometry": { "type": "Point", "coordinates": [ 129.375076, 35.490376, 30.0 ] } },
{ "type": "Feature", "properties": { "value": 0.2483 }, "geometry": { "type": "Point", "coordinates": [ 129.376175, 35.490372, 30.0 ] } },
{ "type": "Feature", "properties": { "value": 0.2769 }, "geometry": { "type": "Point", "coordinates": [ 129.377289, 35.490368, 30.0 ] } },
{ "type": "Feature", "properties": { "value": 0.2959 }, "geometry": { "type": "Point", "coordinates": [ 129.378387, 35.490364, 30.0 ] } },
{ "type": "Feature", "properties": { "value": 0.3029 }, "geometry": { "type": "Point", "coordinates": [ 129.379486, 35.49036, 30.0 ] } },
{ "type": "Feature", "properties": { "value": 0.2892 }, "geometry": { "type": "Point", "coordinates": [ 129.380585, 35.490356, 30.0 ] } },
{ "type": "Feature", "properties": { "value": 0.2638 }, "geometry": { "type": "Point", "coordinates": [ 129.381683, 35.490356, 30.0 ] } },
{ "type": "Feature", "properties": { "value": 0.117 }, "geometry": { "type": "Point", "coordinates": [ 129.336517, 35.49139, 30.0 ] } },
{ "type": "Feature", "properties": { "value": 1.0429 }, "geometry": { "type": "Point", "coordinates": [ 129.337616, 35.491386, 30.0 ] } },
{ "type": "Feature", "properties": { "value": 3.0217 }, "geometry": { "type": "Point", "coordinates": [ 129.338715, 35.491383, 30.0 ] } },
{ "type": "Feature", "properties": { "value": 6.5057 }, "geometry": { "type": "Point", "coordinates": [ 129.339813, 35.491383, 30.0 ] } },
{ "type": "Feature", "properties": { "value": 11.232 }, "geometry": { "type": "Point", "coordinates": [ 129.340927, 35.491379, 30.0 ] } },
{ "type": "Feature", "properties": { "value": 15.963 }, "geometry": { "type": "Point", "coordinates": [ 129.342026, 35.491375, 30.0 ] } },
{ "type": "Feature", "properties": { "value": 19.21 }, "geometry": { "type": "Point", "coordinates": [ 129.343124, 35.491371, 30.0 ] } },
{ "type": "Feature", "properties": { "value": 20.17 }, "geometry": { "type": "Point", "coordinates": [ 129.344223, 35.491367, 30.0 ] } },
{ "type": "Feature", "properties": { "value": 18.936 }, "geometry": { "type": "Point", "coordinates": [ 129.345322, 35.491367, 30.0 ] } },
{ "type": "Feature", "properties": { "value": 16.163 }, "geometry": { "type": "Point", "coordinates": [ 129.346436, 35.491364, 30.0 ] } },
{ "type": "Feature", "properties": { "value": 12.684 }, "geometry": { "type": "Point", "coordinates": [ 129.347534, 35.49136, 30.0 ] } },
{ "type": "Feature", "properties": { "value": 9.2241 }, "geometry": { "type": "Point", "coordinates": [ 129.348633, 35.491356, 30.0 ] } },
{ "type": "Feature", "properties": { "value": 6.355 }, "geometry": { "type": "Point", "coordinates": [ 129.349731, 35.491352, 30.0 ] } },
{ "type": "Feature", "properties": { "value": 4.2693 }, "geometry": { "type": "Point", "coordinates": [ 129.350845, 35.491348, 30.0 ] } },
{ "type": "Feature", "properties": { "value": 2.8326 }, "geometry": { "type": "Point", "coordinates": [ 129.351944, 35.491348, 30.0 ] } },
{ "type": "Feature", "properties": { "value": 1.8548 }, "geometry": { "type": "Point", "coordinates": [ 129.353043, 35.491344, 30.0 ] } },
{ "type": "Feature", "properties": { "value": 1.2296 }, "geometry": { "type": "Point", "coordinates": [ 129.354141, 35.491341, 30.0 ] } },
{ "type": "Feature", "properties": { "value": 0.8336 }, "geometry": { "type": "Point", "coordinates": [ 129.35524, 35.491337, 30.0 ] } },
{ "type": "Feature", "properties": { "value": 0.5728 }, "geometry": { "type": "Point", "coordinates": [ 129.356354, 35.491333, 30.0 ] } },
{ "type": "Feature", "properties": { "value": 0.4025 }, "geometry": { "type": "Point", "coordinates": [ 129.357452, 35.491329, 30.0 ] } },
{ "type": "Feature", "properties": { "value": 0.2939 }, "geometry": { "type": "Point", "coordinates": [ 129.358551, 35.491325, 30.0 ] } },
{ "type": "Feature", "properties": { "value": 0.2223 }, "geometry": { "type": "Point", "coordinates": [ 129.35965, 35.491325, 30.0 ] } },
{ "type": "Feature", "properties": { "value": 0.1706 }, "geometry": { "type": "Point", "coordinates": [ 129.360764, 35.491322, 30.0 ] } },
{ "type": "Feature", "properties": { "value": 0.1456 }, "geometry": { "type": "Point", "coordinates": [ 129.361862, 35.491318, 30.0 ] } },
{ "type": "Feature", "properties": { "value": 0.1214 }, "geometry": { "type": "Point", "coordinates": [ 129.362961, 35.491314, 30.0 ] } },
{ "type": "Feature", "properties": { "value": 0.1103 }, "geometry": { "type": "Point", "coordinates": [ 129.364059, 35.49131, 30.0 ] } },
{ "type": "Feature", "properties": { "value": 0.106 }, "geometry": { "type": "Point", "coordinates": [ 129.365158, 35.491306, 30.0 ] } },
{ "type": "Feature", "properties": { "value": 0.1168 }, "geometry": { "type": "Point", "coordinates": [ 129.366272, 35.491302, 30.0 ] } },
{ "type": "Feature", "properties": { "value": 0.1318 }, "geometry": { "type": "Point", "coordinates": [ 129.367371, 35.491299, 30.0 ] } },
{ "type": "Feature", "properties": { "value": 0.1561 }, "geometry": { "type": "Point", "coordinates": [ 129.368469, 35.491299, 30.0 ] } },
{ "type": "Feature", "properties": { "value": 0.1826 }, "geometry": { "type": "Point", "coordinates": [ 129.369568, 35.491295, 30.0 ] } },
{ "type": "Feature", "properties": { "value": 0.2285 }, "geometry": { "type": "Point", "coordinates": [ 129.370682, 35.491291, 30.0 ] } },
{ "type": "Feature", "properties": { "value": 0.2779 }, "geometry": { "type": "Point", "coordinates": [ 129.37178, 35.491287, 30.0 ] } },
{ "type": "Feature", "properties": { "value": 0.3402 }, "geometry": { "type": "Point", "coordinates": [ 129.372879, 35.491283, 30.0 ] } },
{ "type": "Feature", "properties": { "value": 0.399 }, "geometry": { "type": "Point", "coordinates": [ 129.373978, 35.49128, 30.0 ] } },
{ "type": "Feature", "properties": { "value": 0.4554 }, "geometry": { "type": "Point", "coordinates": [ 129.375076, 35.491276, 30.0 ] } },
{ "type": "Feature", "properties": { "value": 0.511 }, "geometry": { "type": "Point", "coordinates": [ 129.37619, 35.491272, 30.0 ] } },
{ "type": "Feature", "properties": { "value": 0.5546 }, "geometry": { "type": "Point", "coordinates": [ 129.377289, 35.491268, 30.0 ] } },
{ "type": "Feature", "properties": { "value": 0.5775 }, "geometry": { "type": "Point", "coordinates": [ 129.378387, 35.491268, 30.0 ] } },
{ "type": "Feature", "properties": { "value": 0.574 }, "geometry": { "type": "Point", "coordinates": [ 129.379486, 35.491264, 30.0 ] } },
{ "type": "Feature", "properties": { "value": 0.547 }, "geometry": { "type": "Point", "coordinates": [ 129.3806, 35.491261, 30.0 ] } },
{ "type": "Feature", "properties": { "value": 0.4922 }, "geometry": { "type": "Point", "coordinates": [ 129.381699, 35.491257, 30.0 ] } },
{ "type": "Feature", "properties": { "value": 0.3366 }, "geometry": { "type": "Point", "coordinates": [ 129.337616, 35.49229, 30.0 ] } },
{ "type": "Feature", "properties": { "value": 1.2898 }, "geometry": { "type": "Point", "coordinates": [ 129.338715, 35.492287, 30.0 ] } },
{ "type": "Feature", "properties": { "value": 3.2668 }, "geometry": { "type": "Point", "coordinates": [ 129.339828, 35.492283, 30.0 ] } },
{ "type": "Feature", "properties": { "value": 6.5272 }, "geometry": { "type": "Point", "coordinates": [ 129.340927, 35.492279, 30.0 ] } },
{ "type": "Feature", "properties": { "value": 10.71 }, "geometry": { "type": "Point", "coordinates": [ 129.342026, 35.492275, 30.0 ] } },
{ "type": "Feature", "properties": { "value": 14.851 }, "geometry": { "type": "Point", "coordinates": [ 129.343124, 35.492271, 30.0 ] } },
{ "type": "Feature", "properties": { "value": 17.853 }, "geometry": { "type": "Point", "coordinates": [ 129.344223, 35.492271, 30.0 ] } },
{ "type": "Feature", "properties": { "value": 19.044 }, "geometry": { "type": "Point", "coordinates": [ 129.345337, 35.492268, 30.0 ] } },
{ "type": "Feature", "properties": { "value": 18.381 }, "geometry": { "type": "Point", "coordinates": [ 129.346436, 35.492264, 30.0 ] } },
{ "type": "Feature", "properties": { "value": 16.199 }, "geometry": { "type": "Point", "coordinates": [ 129.347534, 35.49226, 30.0 ] } },
{ "type": "Feature", "properties": { "value": 13.178 }, "geometry": { "type": "Point", "coordinates": [ 129.348633, 35.492256, 30.0 ] } },
{ "type": "Feature", "properties": { "value": 10.125 }, "geometry": { "type": "Point", "coordinates": [ 129.349747, 35.492252, 30.0 ] } },
{ "type": "Feature", "properties": { "value": 7.5095 }, "geometry": { "type": "Point", "coordinates": [ 129.350845, 35.492252, 30.0 ] } },
{ "type": "Feature", "properties": { "value": 5.4397 }, "geometry": { "type": "Point", "coordinates": [ 129.351944, 35.492249, 30.0 ] } },
{ "type": "Feature", "properties": { "value": 3.888 }, "geometry": { "type": "Point", "coordinates": [ 129.353043, 35.492245, 30.0 ] } },
{ "type": "Feature", "properties": { "value": 2.785 }, "geometry": { "type": "Point", "coordinates": [ 129.354141, 35.492241, 30.0 ] } },
{ "type": "Feature", "properties": { "value": 2.0173 }, "geometry": { "type": "Point", "coordinates": [ 129.355255, 35.492237, 30.0 ] } },
{ "type": "Feature", "properties": { "value": 1.4867 }, "geometry": { "type": "Point", "coordinates": [ 129.356354, 35.492233, 30.0 ] } },
{ "type": "Feature", "properties": { "value": 1.1249 }, "geometry": { "type": "Point", "coordinates": [ 129.357452, 35.492233, 30.0 ] } },
{ "type": "Feature", "properties": { "value": 0.8743 }, "geometry": { "type": "Point", "coordinates": [ 129.358551, 35.492229, 30.0 ] } },
{ "type": "Feature", "properties": { "value": 0.6997 }, "geometry": { "type": "Point", "coordinates": [ 129.359665, 35.492226, 30.0 ] } },
{ "type": "Feature", "properties": { "value": 0.5799 }, "geometry": { "type": "Point", "coordinates": [ 129.360764, 35.492222, 30.0 ] } },
{ "type": "Feature", "properties": { "value": 0.4951 }, "geometry": { "type": "Point", "coordinates": [ 129.361862, 35.492218, 30.0 ] } },
{ "type": "Feature", "properties": { "value": 0.4342 }, "geometry": { "type": "Point", "coordinates": [ 129.362961, 35.492214, 30.0 ] } },
{ "type": "Feature", "properties": { "value": 0.4039 }, "geometry": { "type": "Point", "coordinates": [ 129.364059, 35.49221, 30.0 ] } },
{ "type": "Feature", "properties": { "value": 0.3832 }, "geometry": { "type": "Point", "coordinates": [ 129.365173, 35.49221, 30.0 ] } },
{ "type": "Feature", "properties": { "value": 0.3849 }, "geometry": { "type": "Point", "coordinates": [ 129.366272, 35.492207, 30.0 ] } },
{ "type": "Feature", "properties": { "value": 0.3976 }, "geometry": { "type": "Point", "coordinates": [ 129.367371, 35.492203, 30.0 ] } },
{ "type": "Feature", "properties": { "value": 0.4254 }, "geometry": { "type": "Point", "coordinates": [ 129.368469, 35.492199, 30.0 ] } },
{ "type": "Feature", "properties": { "value": 0.4717 }, "geometry": { "type": "Point", "coordinates": [ 129.369583, 35.492195, 30.0 ] } },
{ "type": "Feature", "properties": { "value": 0.5326 }, "geometry": { "type": "Point", "coordinates": [ 129.370682, 35.492191, 30.0 ] } },
{ "type": "Feature", "properties": { "value": 0.6114 }, "geometry": { "type": "Point", "coordinates": [ 129.37178, 35.492188, 30.0 ] } },
{ "type": "Feature", "properties": { "value": 0.6962 }, "geometry": { "type": "Point", "coordinates": [ 129.372879, 35.492184, 30.0 ] } },
{ "type": "Feature", "properties": { "value": 0.7816 }, "geometry": { "type": "Point", "coordinates": [ 129.373978, 35.49218, 30.0 ] } },
{ "type": "Feature", "properties": { "value": 0.871 }, "geometry": { "type": "Point", "coordinates": [ 129.375092, 35.49218, 30.0 ] } },
{ "type": "Feature", "properties": { "value": 0.9492 }, "geometry": { "type": "Point", "coordinates": [ 129.37619, 35.492176, 30.0 ] } },
{ "type": "Feature", "properties": { "value": 1.0052 }, "geometry": { "type": "Point", "coordinates": [ 129.377289, 35.492172, 30.0 ] } },
{ "type": "Feature", "properties": { "value": 1.0295 }, "geometry": { "type": "Point", "coordinates": [ 129.378387, 35.492168, 30.0 ] } },
{ "type": "Feature", "properties": { "value": 1.0089 }, "geometry": { "type": "Point", "coordinates": [ 129.379501, 35.492165, 30.0 ] } },
{ "type": "Feature", "properties": { "value": 0.9461 }, "geometry": { "type": "Point", "coordinates": [ 129.3806, 35.492161, 30.0 ] } },
{ "type": "Feature", "properties": { "value": 0.8435 }, "geometry": { "type": "Point", "coordinates": [ 129.381699, 35.492157, 30.0 ] } },
{ "type": "Feature", "properties": { "value": 0.4625 }, "geometry": { "type": "Point", "coordinates": [ 129.33873, 35.493187, 30.0 ] } },
{ "type": "Feature", "properties": { "value": 1.4548 }, "geometry": { "type": "Point", "coordinates": [ 129.339828, 35.493183, 30.0 ] } },
{ "type": "Feature", "properties": { "value": 3.3688 }, "geometry": { "type": "Point", "coordinates": [ 129.340927, 35.493179, 30.0 ] } },
{ "type": "Feature", "properties": { "value": 6.3226 }, "geometry": { "type": "Point", "coordinates": [ 129.342026, 35.493179, 30.0 ] } },
{ "type": "Feature", "properties": { "value": 10.033 }, "geometry": { "type": "Point", "coordinates": [ 129.343124, 35.493176, 30.0 ] } },
{ "type": "Feature", "properties": { "value": 13.708 }, "geometry": { "type": "Point", "coordinates": [ 129.344238, 35.493172, 30.0 ] } },
{ "type": "Feature", "properties": { "value": 16.5 }, "geometry": { "type": "Point", "coordinates": [ 129.345337, 35.493168, 30.0 ] } },
{ "type": "Feature", "properties": { "value": 17.832 }, "geometry": { "type": "Point", "coordinates": [ 129.346436, 35.493164, 30.0 ] } },
{ "type": "Feature", "properties": { "value": 17.569 }, "geometry": { "type": "Point", "coordinates": [ 129.347534, 35.49316, 30.0 ] } },
{ "type": "Feature", "properties": { "value": 16.004 }, "geometry": { "type": "Point", "coordinates": [ 129.348648, 35.49316, 30.0 ] } },
{ "type": "Feature", "properties": { "value": 13.703 }, "geometry": { "type": "Point", "coordinates": [ 129.349747, 35.493156, 30.0 ] } },
{ "type": "Feature", "properties": { "value": 11.196 }, "geometry": { "type": "Point", "coordinates": [ 129.350845, 35.493153, 30.0 ] } },
{ "type": "Feature", "properties": { "value": 8.8365 }, "geometry": { "type": "Point", "coordinates": [ 129.351944, 35.493149, 30.0 ] } },
{ "type": "Feature", "properties": { "value": 6.8433 }, "geometry": { "type": "Point", "coordinates": [ 129.353043, 35.493145, 30.0 ] } },
{ "type": "Feature", "properties": { "value": 5.2594 }, "geometry": { "type": "Point", "coordinates": [ 129.354156, 35.493141, 30.0 ] } },
{ "type": "Feature", "properties": { "value": 4.0451 }, "geometry": { "type": "Point", "coordinates": [ 129.355255, 35.493141, 30.0 ] } },
{ "type": "Feature", "properties": { "value": 3.1307 }, "geometry": { "type": "Point", "coordinates": [ 129.356354, 35.493137, 30.0 ] } },
{ "type": "Feature", "properties": { "value": 2.465 }, "geometry": { "type": "Point", "coordinates": [ 129.357452, 35.493134, 30.0 ] } },
{ "type": "Feature", "properties": { "value": 1.9764 }, "geometry": { "type": "Point", "coordinates": [ 129.358566, 35.49313, 30.0 ] } },
{ "type": "Feature", "properties": { "value": 1.6298 }, "geometry": { "type": "Point", "coordinates": [ 129.359665, 35.493126, 30.0 ] } },
{ "type": "Feature", "properties": { "value": 1.3739 }, "geometry": { "type": "Point", "coordinates": [ 129.360764, 35.493122, 30.0 ] } },
{ "type": "Feature", "properties": { "value": 1.1838 }, "geometry": { "type": "Point", "coordinates": [ 129.361862, 35.493118, 30.0 ] } },
{ "type": "Feature", "properties": { "value": 1.0474 }, "geometry": { "type": "Point", "coordinates": [ 129.362961, 35.493118, 30.0 ] } },
{ "type": "Feature", "properties": { "value": 0.9604 }, "geometry": { "type": "Point", "coordinates": [ 129.364075, 35.493114, 30.0 ] } },
{ "type": "Feature", "properties": { "value": 0.9102 }, "geometry": { "type": "Point", "coordinates": [ 129.365173, 35.493111, 30.0 ] } },
{ "type": "Feature", "properties": { "value": 0.8868 }, "geometry": { "type": "Point", "coordinates": [ 129.366272, 35.493107, 30.0 ] } },
{ "type": "Feature", "properties": { "value": 0.8919 }, "geometry": { "type": "Point", "coordinates": [ 129.367371, 35.493103, 30.0 ] } },
{ "type": "Feature", "properties": { "value": 0.9239 }, "geometry": { "type": "Point", "coordinates": [ 129.368484, 35.493099, 30.0 ] } },
{ "type": "Feature", "properties": { "value": 0.9837 }, "geometry": { "type": "Point", "coordinates": [ 129.369583, 35.493095, 30.0 ] } },
{ "type": "Feature", "properties": { "value": 1.0694 }, "geometry": { "type": "Point", "coordinates": [ 129.370682, 35.493092, 30.0 ] } },
{ "type": "Feature", "properties": { "value": 1.1692 }, "geometry": { "type": "Point", "coordinates": [ 129.37178, 35.493088, 30.0 ] } },
{ "type": "Feature", "properties": { "value": 1.2854 }, "geometry": { "type": "Point", "coordinates": [ 129.372894, 35.493088, 30.0 ] } },
{ "type": "Feature", "properties": { "value": 1.4074 }, "geometry": { "type": "Point", "coordinates": [ 129.373993, 35.493084, 30.0 ] } },
{ "type": "Feature", "properties": { "value": 1.5245 }, "geometry": { "type": "Point", "coordinates": [ 129.375092, 35.49308, 30.0 ] } },
{ "type": "Feature", "properties": { "value": 1.6239 }, "geometry": { "type": "Point", "coordinates": [ 129.37619, 35.493076, 30.0 ] } },
{ "type": "Feature", "properties": { "value": 1.687 }, "geometry": { "type": "Point", "coordinates": [ 129.377289, 35.493073, 30.0 ] } },
{ "type": "Feature", "properties": { "value": 1.6932 }, "geometry": { "type": "Point", "coordinates": [ 129.378403, 35.493069, 30.0 ] } },
{ "type": "Feature", "properties": { "value": 1.6373 }, "geometry": { "type": "Point", "coordinates": [ 129.379501, 35.493065, 30.0 ] } },
{ "type": "Feature", "properties": { "value": 1.5137 }, "geometry": { "type": "Point", "coordinates": [ 129.3806, 35.493061, 30.0 ] } },
{ "type": "Feature", "properties": { "value": 1.3358 }, "geometry": { "type": "Point", "coordinates": [ 129.381699, 35.493057, 30.0 ] } },
{ "type": "Feature", "properties": { "value": 0.5569 }, "geometry": { "type": "Point", "coordinates": [ 129.339828, 35.494083, 30.0 ] } },
{ "type": "Feature", "properties": { "value": 1.5564 }, "geometry": { "type": "Point", "coordinates": [ 129.340927, 35.494083, 30.0 ] } },
{ "type": "Feature", "properties": { "value": 3.3435 }, "geometry": { "type": "Point", "coordinates": [ 129.342026, 35.49408, 30.0 ] } },
{ "type": "Feature", "properties": { "value": 6.0008 }, "geometry": { "type": "Point", "coordinates": [ 129.34314, 35.494076, 30.0 ] } },
{ "type": "Feature", "properties": { "value": 9.262 }, "geometry": { "type": "Point", "coordinates": [ 129.344238, 35.494072, 30.0 ] } },
{ "type": "Feature", "properties": { "value": 12.533 }, "geometry": { "type": "Point", "coordinates": [ 129.345337, 35.494068, 30.0 ] } },
{ "type": "Feature", "properties": { "value": 15.121 }, "geometry": { "type": "Point", "coordinates": [ 129.346436, 35.494068, 30.0 ] } },
{ "type": "Feature", "properties": { "value": 16.61 }, "geometry": { "type": "Point", "coordinates": [ 129.347549, 35.494064, 30.0 ] } },
{ "type": "Feature", "properties": { "value": 16.857 }, "geometry": { "type": "Point", "coordinates": [ 129.348648, 35.494061, 30.0 ] } },
{ "type": "Feature", "properties": { "value": 15.925 }, "geometry": { "type": "Point", "coordinates": [ 129.349747, 35.494057, 30.0 ] } },
{ "type": "Feature", "properties": { "value": 14.276 }, "geometry": { "type": "Point", "coordinates": [ 129.350845, 35.494053, 30.0 ] } },
{ "type": "Feature", "properties": { "value": 12.299 }, "geometry": { "type": "Point", "coordinates": [ 129.351959, 35.494049, 30.0 ] } },
{ "type": "Feature", "properties": { "value": 10.257 }, "geometry": { "type": "Point", "coordinates": [ 129.353058, 35.494049, 30.0 ] } },
{ "type": "Feature", "properties": { "value": 8.406 }, "geometry": { "type": "Point", "coordinates": [ 129.354156, 35.494045, 30.0 ] } },
{ "type": "Feature", "properties": { "value": 6.8425 }, "geometry": { "type": "Point", "coordinates": [ 129.355255, 35.494041, 30.0 ] } },
{ "type": "Feature", "properties": { "value": 5.5701 }, "geometry": { "type": "Point", "coordinates": [ 129.356354, 35.494038, 30.0 ] } },
{ "type": "Feature", "properties": { "value": 4.5588 }, "geometry": { "type": "Point", "coordinates": [ 129.357468, 35.494034, 30.0 ] } },
{ "type": "Feature", "properties": { "value": 3.7792 }, "geometry": { "type": "Point", "coordinates": [ 129.358566, 35.49403, 30.0 ] } },
{ "type": "Feature", "properties": { "value": 3.1904 }, "geometry": { "type": "Point", "coordinates": [ 129.359665, 35.494026, 30.0 ] } },
{ "type": "Feature", "properties": { "value": 2.7402 }, "geometry": { "type": "Point", "coordinates": [ 129.360764, 35.494026, 30.0 ] } },
{ "type": "Feature", "properties": { "value": 2.394 }, "geometry": { "type": "Point", "coordinates": [ 129.361877, 35.494022, 30.0 ] } },
{ "type": "Feature", "properties": { "value": 2.1312 }, "geometry": { "type": "Point", "coordinates": [ 129.362976, 35.494019, 30.0 ] } },
{ "type": "Feature", "properties": { "value": 1.9462 }, "geometry": { "type": "Point", "coordinates": [ 129.364075, 35.494015, 30.0 ] } },
{ "type": "Feature", "properties": { "value": 1.8294 }, "geometry": { "type": "Point", "coordinates": [ 129.365173, 35.494011, 30.0 ] } },
{ "type": "Feature", "properties": { "value": 1.7586 }, "geometry": { "type": "Point", "coordinates": [ 129.366272, 35.494007, 30.0 ] } },
{ "type": "Feature", "properties": { "value": 1.7376 }, "geometry": { "type": "Point", "coordinates": [ 129.367386, 35.494003, 30.0 ] } },
{ "type": "Feature", "properties": { "value": 1.7582 }, "geometry": { "type": "Point", "coordinates": [ 129.368484, 35.493999, 30.0 ] } },
{ "type": "Feature", "properties": { "value": 1.8146 }, "geometry": { "type": "Point", "coordinates": [ 129.369583, 35.493999, 30.0 ] } },
{ "type": "Feature", "properties": { "value": 1.9158 }, "geometry": { "type": "Point", "coordinates": [ 129.370682, 35.493996, 30.0 ] } },
{ "type": "Feature", "properties": { "value": 2.0366 }, "geometry": { "type": "Point", "coordinates": [ 129.371796, 35.493992, 30.0 ] } },
{ "type": "Feature", "properties": { "value": 2.1768 }, "geometry": { "type": "Point", "coordinates": [ 129.372894, 35.493988, 30.0 ] } },
{ "type": "Feature", "properties": { "value": 2.3215 }, "geometry": { "type": "Point", "coordinates": [ 129.373993, 35.493984, 30.0 ] } },
{ "type": "Feature", "properties": { "value": 2.4615 }, "geometry": { "type": "Point", "coordinates": [ 129.375092, 35.49398, 30.0 ] } },
{ "type": "Feature", "properties": { "value": 2.5616 }, "geometry": { "type": "Point", "coordinates": [ 129.37619, 35.493977, 30.0 ] } },
{ "type": "Feature", "properties": { "value": 2.6107 }, "geometry": { "type": "Point", "coordinates": [ 129.377304, 35.493973, 30.0 ] } },
{ "type": "Feature", "properties": { "value": 2.578 }, "geometry": { "type": "Point", "coordinates": [ 129.378403, 35.493969, 30.0 ] } },
{ "type": "Feature", "properties": { "value": 2.457 }, "geometry": { "type": "Point", "coordinates": [ 129.379501, 35.493965, 30.0 ] } },
{ "type": "Feature", "properties": { "value": 2.2458 }, "geometry": { "type": "Point", "coordinates": [ 129.3806, 35.493965, 30.0 ] } },
{ "type": "Feature", "properties": { "value": 1.9608 }, "geometry": { "type": "Point", "coordinates": [ 129.381714, 35.493961, 30.0 ] } },
{ "type": "Feature", "properties": { "value": 0.0766 }, "geometry": { "type": "Point", "coordinates": [ 129.339828, 35.494987, 30.0 ] } },
{ "type": "Feature", "properties": { "value": 0.6227 }, "geometry": { "type": "Point", "coordinates": [ 129.340942, 35.494984, 30.0 ] } },
{ "type": "Feature", "properties": { "value": 1.5719 }, "geometry": { "type": "Point", "coordinates": [ 129.342041, 35.49498, 30.0 ] } },
{ "type": "Feature", "properties": { "value": 3.1837 }, "geometry": { "type": "Point", "coordinates": [ 129.34314, 35.494976, 30.0 ] } },
{ "type": "Feature", "properties": { "value": 5.5161 }, "geometry": { "type": "Point", "coordinates": [ 129.344238, 35.494972, 30.0 ] } },
{ "type": "Feature", "properties": { "value": 8.3587 }, "geometry": { "type": "Point", "coordinates": [ 129.345337, 35.494972, 30.0 ] } },
{ "type": "Feature", "properties": { "value": 11.231 }, "geometry": { "type": "Point", "coordinates": [ 129.346451, 35.494968, 30.0 ] } },
{ "type": "Feature", "properties": { "value": 13.704 }, "geometry": { "type": "Point", "coordinates": [ 129.347549, 35.494965, 30.0 ] } },
{ "type": "Feature", "properties": { "value": 15.391 }, "geometry": { "type": "Point", "coordinates": [ 129.348648, 35.494961, 30.0 ] } },
{ "type": "Feature", "properties": { "value": 15.998 }, "geometry": { "type": "Point", "coordinates": [ 129.349747, 35.494957, 30.0 ] } },
{ "type": "Feature", "properties": { "value": 15.642 }, "geometry": { "type": "Point", "coordinates": [ 129.350861, 35.494953, 30.0 ] } },
{ "type": "Feature", "properties": { "value": 14.607 }, "geometry": { "type": "Point", "coordinates": [ 129.351959, 35.494953, 30.0 ] } },
{ "type": "Feature", "properties": { "value": 13.088 }, "geometry": { "type": "Point", "coordinates": [ 129.353058, 35.494949, 30.0 ] } },
{ "type": "Feature", "properties": { "value": 11.444 }, "geometry": { "type": "Point", "coordinates": [ 129.354156, 35.494946, 30.0 ] } },
{ "type": "Feature", "properties": { "value": 9.871 }, "geometry": { "type": "Point", "coordinates": [ 129.355255, 35.494942, 30.0 ] } },
{ "type": "Feature", "properties": { "value": 8.4516 }, "geometry": { "type": "Point", "coordinates": [ 129.356369, 35.494938, 30.0 ] } },
{ "type": "Feature", "properties": { "value": 7.2223 }, "geometry": { "type": "Point", "coordinates": [ 129.357468, 35.494934, 30.0 ] } },
{ "type": "Feature", "properties": { "value": 6.1962 }, "geometry": { "type": "Point", "coordinates": [ 129.358566, 35.494934, 30.0 ] } },
{ "type": "Feature", "properties": { "value": 5.3717 }, "geometry": { "type": "Point", "coordinates": [ 129.359665, 35.49493, 30.0 ] } },
{ "type": "Feature", "properties": { "value": 4.7007 }, "geometry": { "type": "Point", "coordinates": [ 129.360779, 35.494926, 30.0 ] } },
{ "type": "Feature", "properties": { "value": 4.1637 }, "geometry": { "type": "Point", "coordinates": [ 129.361877, 35.494923, 30.0 ] } },
{ "type": "Feature", "properties": { "value": 3.7442 }, "geometry": { "type": "Point", "coordinates": [ 129.362976, 35.494919, 30.0 ] } },
{ "type": "Feature", "properties": { "value": 3.4354 }, "geometry": { "type": "Point", "coordinates": [ 129.364075, 35.494915, 30.0 ] } },
{ "type": "Feature", "properties": { "value": 3.2152 }, "geometry": { "type": "Point", "coordinates": [ 129.365173, 35.494911, 30.0 ] } },
{ "type": "Feature", "properties": { "value": 3.0729 }, "geometry": { "type": "Point", "coordinates": [ 129.366287, 35.494907, 30.0 ] } },
{ "type": "Feature", "properties": { "value": 2.9963 }, "geometry": { "type": "Point", "coordinates": [ 129.367386, 35.494907, 30.0 ] } },
{ "type": "Feature", "properties": { "value": 2.9815 }, "geometry": { "type": "Point", "coordinates": [ 129.368484, 35.494904, 30.0 ] } },
{ "type": "Feature", "properties": { "value": 3.0189 }, "geometry": { "type": "Point", "coordinates": [ 129.369583, 35.4949, 30.0 ] } },
{ "type": "Feature", "properties": { "value": 3.1125 }, "geometry": { "type": "Point", "coordinates": [ 129.370697, 35.494896, 30.0 ] } },
{ "type": "Feature", "properties": { "value": 3.2344 }, "geometry": { "type": "Point", "coordinates": [ 129.371796, 35.494892, 30.0 ] } },
{ "type": "Feature", "properties": { "value": 3.3772 }, "geometry": { "type": "Point", "coordinates": [ 129.372894, 35.494888, 30.0 ] } },
{ "type": "Feature", "properties": { "value": 3.5259 }, "geometry": { "type": "Point", "coordinates": [ 129.373993, 35.494884, 30.0 ] } },
{ "type": "Feature", "properties": { "value": 3.6566 }, "geometry": { "type": "Point", "coordinates": [ 129.375107, 35.494881, 30.0 ] } },
{ "type": "Feature", "properties": { "value": 3.7337 }, "geometry": { "type": "Point", "coordinates": [ 129.376205, 35.494877, 30.0 ] } },
{ "type": "Feature", "properties": { "value": 3.7377 }, "geometry": { "type": "Point", "coordinates": [ 129.377304, 35.494877, 30.0 ] } },
{ "type": "Feature", "properties": { "value": 3.6351 }, "geometry": { "type": "Point", "coordinates": [ 129.378403, 35.494873, 30.0 ] } },
{ "type": "Feature", "properties": { "value": 3.4175 }, "geometry": { "type": "Point", "coordinates": [ 129.379501, 35.494869, 30.0 ] } },
{ "type": "Feature", "properties": { "value": 3.0853 }, "geometry": { "type": "Point", "coordinates": [ 129.380615, 35.494865, 30.0 ] } },
{ "type": "Feature", "properties": { "value": 2.665 }, "geometry": { "type": "Point", "coordinates": [ 129.381714, 35.494862, 30.0 ] } },
{ "type": "Feature", "properties": { "value": 0.1666 }, "geometry": { "type": "Point", "coordinates": [ 129.340942, 35.495884, 30.0 ] } },
{ "type": "Feature", "properties": { "value": 0.6428 }, "geometry": { "type": "Point", "coordinates": [ 129.342041, 35.49588, 30.0 ] } },
{ "type": "Feature", "properties": { "value": 1.4911 }, "geometry": { "type": "Point", "coordinates": [ 129.34314, 35.49588, 30.0 ] } },
{ "type": "Feature", "properties": { "value": 2.8976 }, "geometry": { "type": "Point", "coordinates": [ 129.344238, 35.495876, 30.0 ] } },
{ "type": "Feature", "properties": { "value": 4.8925 }, "geometry": { "type": "Point", "coordinates": [ 129.345352, 35.495872, 30.0 ] } },
{ "type": "Feature", "properties": { "value": 7.2966 }, "geometry": { "type": "Point", "coordinates": [ 129.346451, 35.495869, 30.0 ] } },
{ "type": "Feature", "properties": { "value": 9.8178 }, "geometry": { "type": "Point", "coordinates": [ 129.347549, 35.495865, 30.0 ] } },
{ "type": "Feature", "properties": { "value": 12.143 }, "geometry": { "type": "Point", "coordinates": [ 129.348648, 35.495861, 30.0 ] } },
{ "type": "Feature", "properties": { "value": 13.894 }, "geometry": { "type": "Point", "coordinates": [ 129.349762, 35.495861, 30.0 ] } },
{ "type": "Feature", "properties": { "value": 14.791 }, "geometry": { "type": "Point", "coordinates": [ 129.350861, 35.495857, 30.0 ] } },
{ "type": "Feature", "properties": { "value": 14.849 }, "geometry": { "type": "Point", "coordinates": [ 129.351959, 35.495853, 30.0 ] } },
{ "type": "Feature", "properties": { "value": 14.292 }, "geometry": { "type": "Point", "coordinates": [ 129.353058, 35.49585, 30.0 ] } },
{ "type": "Feature", "properties": { "value": 13.355 }, "geometry": { "type": "Point", "coordinates": [ 129.354156, 35.495846, 30.0 ] } },
{ "type": "Feature", "properties": { "value": 12.22 }, "geometry": { "type": "Point", "coordinates": [ 129.35527, 35.495842, 30.0 ] } },
{ "type": "Feature", "properties": { "value": 11.013 }, "geometry": { "type": "Point", "coordinates": [ 129.356369, 35.495838, 30.0 ] } },
{ "type": "Feature", "properties": { "value": 9.8403 }, "geometry": { "type": "Point", "coordinates": [ 129.357468, 35.495838, 30.0 ] } },
{ "type": "Feature", "properties": { "value": 8.7642 }, "geometry": { "type": "Point", "coordinates": [ 129.358566, 35.495834, 30.0 ] } },
{ "type": "Feature", "properties": { "value": 7.8202 }, "geometry": { "type": "Point", "coordinates": [ 129.35968, 35.495831, 30.0 ] } },
{ "type": "Feature", "properties": { "value": 7.0036 }, "geometry": { "type": "Point", "coordinates": [ 129.360779, 35.495827, 30.0 ] } },
{ "type": "Feature", "properties": { "value": 6.3246 }, "geometry": { "type": "Point", "coordinates": [ 129.361877, 35.495823, 30.0 ] } },
{ "type": "Feature", "properties": { "value": 5.7696 }, "geometry": { "type": "Point", "coordinates": [ 129.362976, 35.495819, 30.0 ] } },
{ "type": "Feature", "properties": { "value": 5.3349 }, "geometry": { "type": "Point", "coordinates": [ 129.36409, 35.495815, 30.0 ] } },
{ "type": "Feature", "properties": { "value": 5.006 }, "geometry": { "type": "Point", "coordinates": [ 129.365189, 35.495815, 30.0 ] } },
{ "type": "Feature", "properties": { "value": 4.7669 }, "geometry": { "type": "Point", "coordinates": [ 129.366287, 35.495811, 30.0 ] } },
{ "type": "Feature", "properties": { "value": 4.6164 }, "geometry": { "type": "Point", "coordinates": [ 129.367386, 35.495808, 30.0 ] } },
{ "type": "Feature", "properties": { "value": 4.5398 }, "geometry": { "type": "Point", "coordinates": [ 129.368484, 35.495804, 30.0 ] } },
{ "type": "Feature", "properties": { "value": 4.5353 }, "geometry": { "type": "Point", "coordinates": [ 129.369598, 35.4958, 30.0 ] } },
{ "type": "Feature", "properties": { "value": 4.5869 }, "geometry": { "type": "Point", "coordinates": [ 129.370697, 35.495796, 30.0 ] } },
{ "type": "Feature", "properties": { "value": 4.6795 }, "geometry": { "type": "Point", "coordinates": [ 129.371796, 35.495792, 30.0 ] } },
{ "type": "Feature", "properties": { "value": 4.7967 }, "geometry": { "type": "Point", "coordinates": [ 129.372894, 35.495789, 30.0 ] } },
{ "type": "Feature", "properties": { "value": 4.9115 }, "geometry": { "type": "Point", "coordinates": [ 129.374008, 35.495785, 30.0 ] } },
{ "type": "Feature", "properties": { "value": 5.0017 }, "geometry": { "type": "Point", "coordinates": [ 129.375107, 35.495785, 30.0 ] } },
{ "type": "Feature", "properties": { "value": 5.0207 }, "geometry": { "type": "Point", "coordinates": [ 129.376205, 35.495781, 30.0 ] } },
{ "type": "Feature", "properties": { "value": 4.9433 }, "geometry": { "type": "Point", "coordinates": [ 129.377304, 35.495777, 30.0 ] } },
{ "type": "Feature", "properties": { "value": 4.7396 }, "geometry": { "type": "Point", "coordinates": [ 129.378403, 35.495773, 30.0 ] } },
{ "type": "Feature", "properties": { "value": 4.3997 }, "geometry": { "type": "Point", "coordinates": [ 129.379517, 35.49577, 30.0 ] } },
{ "type": "Feature", "properties": { "value": 3.9289 }, "geometry": { "type": "Point", "coordinates": [ 129.380615, 35.495766, 30.0 ] } },
{ "type": "Feature", "properties": { "value": 3.362 }, "geometry": { "type": "Point", "coordinates": [ 129.381714, 35.495762, 30.0 ] } },
{ "type": "Feature", "properties": { "value": 0.1909 }, "geometry": { "type": "Point", "coordinates": [ 129.342041, 35.496784, 30.0 ] } },
{ "type": "Feature", "properties": { "value": 0.6003 }, "geometry": { "type": "Point", "coordinates": [ 129.34314, 35.49678, 30.0 ] } },
{ "type": "Feature", "properties": { "value": 1.3313 }, "geometry": { "type": "Point", "coordinates": [ 129.344254, 35.496777, 30.0 ] } },
{ "type": "Feature", "properties": { "value": 2.5095 }, "geometry": { "type": "Point", "coordinates": [ 129.345352, 35.496773, 30.0 ] } },
{ "type": "Feature", "properties": { "value": 4.1314 }, "geometry": { "type": "Point", "coordinates": [ 129.346451, 35.496769, 30.0 ] } },
{ "type": "Feature", "properties": { "value": 6.1307 }, "geometry": { "type": "Point", "coordinates": [ 129.347549, 35.496765, 30.0 ] } },
{ "type": "Feature", "properties": { "value": 8.3168 }, "geometry": { "type": "Point", "coordinates": [ 129.348663, 35.496765, 30.0 ] } },
{ "type": "Feature", "properties": { "value": 10.421 }, "geometry": { "type": "Point", "coordinates": [ 129.349762, 35.496761, 30.0 ] } },
{ "type": "Feature", "properties": { "value": 12.058 }, "geometry": { "type": "Point", "coordinates": [ 129.350861, 35.496758, 30.0 ] } },
{ "type": "Feature", "properties": { "value": 13.034 }, "geometry": { "type": "Point", "coordinates": [ 129.351959, 35.496754, 30.0 ] } },
{ "type": "Feature", "properties": { "value": 13.46 }, "geometry": { "type": "Point", "coordinates": [ 129.353073, 35.49675, 30.0 ] } },
{ "type": "Feature", "properties": { "value": 13.441 }, "geometry": { "type": "Point", "coordinates": [ 129.354172, 35.496746, 30.0 ] } },
{ "type": "Feature", "properties": { "value": 13.06 }, "geometry": { "type": "Point", "coordinates": [ 129.35527, 35.496746, 30.0 ] } },
{ "type": "Feature", "properties": { "value": 12.418 }, "geometry": { "type": "Point", "coordinates": [ 129.356369, 35.496742, 30.0 ] } },
{ "type": "Feature", "properties": { "value": 11.608 }, "geometry": { "type": "Point", "coordinates": [ 129.357468, 35.496738, 30.0 ] } },
{ "type": "Feature", "properties": { "value": 10.752 }, "geometry": { "type": "Point", "coordinates": [ 129.358582, 35.496735, 30.0 ] } },
{ "type": "Feature", "properties": { "value": 9.9175 }, "geometry": { "type": "Point", "coordinates": [ 129.35968, 35.496731, 30.0 ] } },
{ "type": "Feature", "properties": { "value": 9.1314 }, "geometry": { "type": "Point", "coordinates": [ 129.360779, 35.496727, 30.0 ] } },
{ "type": "Feature", "properties": { "value": 8.4305 }, "geometry": { "type": "Point", "coordinates": [ 129.361877, 35.496723, 30.0 ] } },
{ "type": "Feature", "properties": { "value": 7.8211 }, "geometry": { "type": "Point", "coordinates": [ 129.362991, 35.496723, 30.0 ] } },
{ "type": "Feature", "properties": { "value": 7.313 }, "geometry": { "type": "Point", "coordinates": [ 129.36409, 35.496719, 30.0 ] } },
{ "type": "Feature", "properties": { "value": 6.9054 }, "geometry": { "type": "Point", "coordinates": [ 129.365189, 35.496716, 30.0 ] } },
{ "type": "Feature", "properties": { "value": 6.589 }, "geometry": { "type": "Point", "coordinates": [ 129.366287, 35.496712, 30.0 ] } },
{ "type": "Feature", "properties": { "value": 6.3575 }, "geometry": { "type": "Point", "coordinates": [ 129.367386, 35.496708, 30.0 ] } },
{ "type": "Feature", "properties": { "value": 6.2129 }, "geometry": { "type": "Point", "coordinates": [ 129.3685, 35.496704, 30.0 ] } },
{ "type": "Feature", "properties": { "value": 6.1425 }, "geometry": { "type": "Point", "coordinates": [ 129.369598, 35.4967, 30.0 ] } },
{ "type": "Feature", "properties": { "value": 6.1339 }, "geometry": { "type": "Point", "coordinates": [ 129.370697, 35.496696, 30.0 ] } },
{ "type": "Feature", "properties": { "value": 6.1658 }, "geometry": { "type": "Point", "coordinates": [ 129.371796, 35.496696, 30.0 ] } },
{ "type": "Feature", "properties": { "value": 6.2248 }, "geometry": { "type": "Point", "coordinates": [ 129.37291, 35.496693, 30.0 ] } },
{ "type": "Feature", "properties": { "value": 6.2757 }, "geometry": { "type": "Point", "coordinates": [ 129.374008, 35.496689, 30.0 ] } },
{ "type": "Feature", "properties": { "value": 6.2838 }, "geometry": { "type": "Point", "coordinates": [ 129.375107, 35.496685, 30.0 ] } },
{ "type": "Feature", "properties": { "value": 6.2165 }, "geometry": { "type": "Point", "coordinates": [ 129.376205, 35.496681, 30.0 ] } },
{ "type": "Feature", "properties": { "value": 6.0331 }, "geometry": { "type": "Point", "coordinates": [ 129.377319, 35.496677, 30.0 ] } },
{ "type": "Feature", "properties": { "value": 5.7096 }, "geometry": { "type": "Point", "coordinates": [ 129.378418, 35.496674, 30.0 ] } },
{ "type": "Feature", "properties": { "value": 5.2391 }, "geometry": { "type": "Point", "coordinates": [ 129.379517, 35.49667, 30.0 ] } },
{ "type": "Feature", "properties": { "value": 4.6328 }, "geometry": { "type": "Point", "coordinates": [ 129.380615, 35.496666, 30.0 ] } },
{ "type": "Feature", "properties": { "value": 3.9262 }, "geometry": { "type": "Point", "coordinates": [ 129.381714, 35.496662, 30.0 ] } },
{ "type": "Feature", "properties": { "value": 0.1668 }, "geometry": { "type": "Point", "coordinates": [ 129.343155, 35.497681, 30.0 ] } },
{ "type": "Feature", "properties": { "value": 0.5104 }, "geometry": { "type": "Point", "coordinates": [ 129.344254, 35.497677, 30.0 ] } },
{ "type": "Feature", "properties": { "value": 1.1151 }, "geometry": { "type": "Point", "coordinates": [ 129.345352, 35.497673, 30.0 ] } },
{ "type": "Feature", "properties": { "value": 2.0369 }, "geometry": { "type": "Point", "coordinates": [ 129.346451, 35.497673, 30.0 ] } },
{ "type": "Feature", "properties": { "value": 3.3339 }, "geometry": { "type": "Point", "coordinates": [ 129.347565, 35.497669, 30.0 ] } },
{ "type": "Feature", "properties": { "value": 4.9419 }, "geometry": { "type": "Point", "coordinates": [ 129.348663, 35.497665, 30.0 ] } },
{ "type": "Feature", "properties": { "value": 6.726 }, "geometry": { "type": "Point", "coordinates": [ 129.349762, 35.497662, 30.0 ] } },
{ "type": "Feature", "properties": { "value": 8.4513 }, "geometry": { "type": "Point", "coordinates": [ 129.350861, 35.497658, 30.0 ] } },
{ "type": "Feature", "properties": { "value": 9.8891 }, "geometry": { "type": "Point", "coordinates": [ 129.351974, 35.497654, 30.0 ] } },
{ "type": "Feature", "properties": { "value": 11.016 }, "geometry": { "type": "Point", "coordinates": [ 129.353073, 35.497654, 30.0 ] } },
{ "type": "Feature", "properties": { "value": 11.781 }, "geometry": { "type": "Point", "coordinates": [ 129.354172, 35.49765, 30.0 ] } },
{ "type": "Feature", "properties": { "value": 12.157 }, "geometry": { "type": "Point", "coordinates": [ 129.35527, 35.497646, 30.0 ] } },
{ "type": "Feature", "properties": { "value": 12.174 }, "geometry": { "type": "Point", "coordinates": [ 129.356369, 35.497643, 30.0 ] } },
{ "type": "Feature", "properties": { "value": 11.901 }, "geometry": { "type": "Point", "coordinates": [ 129.357483, 35.497639, 30.0 ] } },
{ "type": "Feature", "properties": { "value": 11.484 }, "geometry": { "type": "Point", "coordinates": [ 129.358582, 35.497635, 30.0 ] } },
{ "type": "Feature", "properties": { "value": 10.976 }, "geometry": { "type": "Point", "coordinates": [ 129.35968, 35.497631, 30.0 ] } },
{ "type": "Feature", "properties": { "value": 10.422 }, "geometry": { "type": "Point", "coordinates": [ 129.360779, 35.497631, 30.0 ] } },
{ "type": "Feature", "properties": { "value": 9.8662 }, "geometry": { "type": "Point", "coordinates": [ 129.361893, 35.497627, 30.0 ] } },
{ "type": "Feature", "properties": { "value": 9.3404 }, "geometry": { "type": "Point", "coordinates": [ 129.362991, 35.497623, 30.0 ] } },
{ "type": "Feature", "properties": { "value": 8.8658 }, "geometry": { "type": "Point", "coordinates": [ 129.36409, 35.49762, 30.0 ] } },
{ "type": "Feature", "properties": { "value": 8.4512 }, "geometry": { "type": "Point", "coordinates": [ 129.365189, 35.497616, 30.0 ] } },
{ "type": "Feature", "properties": { "value": 8.1059 }, "geometry": { "type": "Point", "coordinates": [ 129.366302, 35.497612, 30.0 ] } },
{ "type": "Feature", "properties": { "value": 7.8342 }, "geometry": { "type": "Point", "coordinates": [ 129.367401, 35.497608, 30.0 ] } },
{ "type": "Feature", "properties": { "value": 7.6364 }, "geometry": { "type": "Point", "coordinates": [ 129.3685, 35.497604, 30.0 ] } },
{ "type": "Feature", "properties": { "value": 7.5056 }, "geometry": { "type": "Point", "coordinates": [ 129.369598, 35.497604, 30.0 ] } },
{ "type": "Feature", "properties": { "value": 7.4286 }, "geometry": { "type": "Point", "coordinates": [ 129.370697, 35.497601, 30.0 ] } },
{ "type": "Feature", "properties": { "value": 7.3933 }, "geometry": { "type": "Point", "coordinates": [ 129.371811, 35.497597, 30.0 ] } },
{ "type": "Feature", "properties": { "value": 7.3723 }, "geometry": { "type": "Point", "coordinates": [ 129.37291, 35.497593, 30.0 ] } },
{ "type": "Feature", "properties": { "value": 7.3354 }, "geometry": { "type": "Point", "coordinates": [ 129.374008, 35.497589, 30.0 ] } },
{ "type": "Feature", "properties": { "value": 7.2534 }, "geometry": { "type": "Point", "coordinates": [ 129.375107, 35.497585, 30.0 ] } },
{ "type": "Feature", "properties": { "value": 7.0817 }, "geometry": { "type": "Point", "coordinates": [ 129.376221, 35.497581, 30.0 ] } },
{ "type": "Feature", "properties": { "value": 6.7899 }, "geometry": { "type": "Point", "coordinates": [ 129.377319, 35.497578, 30.0 ] } },
{ "type": "Feature", "properties": { "value": 6.3532 }, "geometry": { "type": "Point", "coordinates": [ 129.378418, 35.497574, 30.0 ] } },
{ "type": "Feature", "properties": { "value": 5.7674 }, "geometry": { "type": "Point", "coordinates": [ 129.379517, 35.497574, 30.0 ] } },
{ "type": "Feature", "properties": { "value": 5.0535 }, "geometry": { "type": "Point", "coordinates": [ 129.380615, 35.49757, 30.0 ] } },
{ "type": "Feature", "properties": { "value": 4.2484 }, "geometry": { "type": "Point", "coordinates": [ 129.381729, 35.497566, 30.0 ] } },
{ "type": "Feature", "properties": { "value": 0.1274 }, "geometry": { "type": "Point", "coordinates": [ 129.344254, 35.498581, 30.0 ] } },
{ "type": "Feature", "properties": { "value": 0.4062 }, "geometry": { "type": "Point", "coordinates": [ 129.345352, 35.498577, 30.0 ] } },
{ "type": "Feature", "properties": { "value": 0.8625 }, "geometry": { "type": "Point", "coordinates": [ 129.346466, 35.498573, 30.0 ] } },
{ "type": "Feature", "properties": { "value": 1.5701 }, "geometry": { "type": "Point", "coordinates": [ 129.347565, 35.498569, 30.0 ] } },
{ "type": "Feature", "properties": { "value": 2.5444 }, "geometry": { "type": "Point", "coordinates": [ 129.348663, 35.498566, 30.0 ] } },
{ "type": "Feature", "properties": { "value": 3.7551 }, "geometry": { "type": "Point", "coordinates": [ 129.349762, 35.498562, 30.0 ] } },
{ "type": "Feature", "properties": { "value": 5.1168 }, "geometry": { "type": "Point", "coordinates": [ 129.350876, 35.498562, 30.0 ] } },
{ "type": "Feature", "properties": { "value": 6.5094 }, "geometry": { "type": "Point", "coordinates": [ 129.351974, 35.498558, 30.0 ] } },
{ "type": "Feature", "properties": { "value": 7.8331 }, "geometry": { "type": "Point", "coordinates": [ 129.353073, 35.498554, 30.0 ] } },
{ "type": "Feature", "properties": { "value": 8.9647 }, "geometry": { "type": "Point", "coordinates": [ 129.354172, 35.49855, 30.0 ] } },
{ "type": "Feature", "properties": { "value": 9.8089 }, "geometry": { "type": "Point", "coordinates": [ 129.35527, 35.498547, 30.0 ] } },
{ "type": "Feature", "properties": { "value": 10.361 }, "geometry": { "type": "Point", "coordinates": [ 129.356384, 35.498543, 30.0 ] } },
{ "type": "Feature", "properties": { "value": 10.636 }, "geometry": { "type": "Point", "coordinates": [ 129.357483, 35.498539, 30.0 ] } },
{ "type": "Feature", "properties": { "value": 10.715 }, "geometry": { "type": "Point", "coordinates": [ 129.358582, 35.498539, 30.0 ] } },
{ "type": "Feature", "properties": { "value": 10.644 }, "geometry": { "type": "Point", "coordinates": [ 129.35968, 35.498535, 30.0 ] } },
{ "type": "Feature", "properties": { "value": 10.446 }, "geometry": { "type": "Point", "coordinates": [ 129.360794, 35.498531, 30.0 ] } },
{ "type": "Feature", "properties": { "value": 10.166 }, "geometry": { "type": "Point", "coordinates": [ 129.361893, 35.498528, 30.0 ] } },
{ "type": "Feature", "properties": { "value": 9.8468 }, "geometry": { "type": "Point", "coordinates": [ 129.362991, 35.498524, 30.0 ] } },
{ "type": "Feature", "properties": { "value": 9.5114 }, "geometry": { "type": "Point", "coordinates": [ 129.36409, 35.49852, 30.0 ] } },
{ "type": "Feature", "properties": { "value": 9.1898 }, "geometry": { "type": "Point", "coordinates": [ 129.365204, 35.498516, 30.0 ] } },
{ "type": "Feature", "properties": { "value": 8.8931 }, "geometry": { "type": "Point", "coordinates": [ 129.366302, 35.498512, 30.0 ] } },
{ "type": "Feature", "properties": { "value": 8.6382 }, "geometry": { "type": "Point", "coordinates": [ 129.367401, 35.498512, 30.0 ] } },
{ "type": "Feature", "properties": { "value": 8.4308 }, "geometry": { "type": "Point", "coordinates": [ 129.3685, 35.498508, 30.0 ] } },
{ "type": "Feature", "properties": { "value": 8.2701 }, "geometry": { "type": "Point", "coordinates": [ 129.369598, 35.498505, 30.0 ] } },
{ "type": "Feature", "properties": { "value": 8.1466 }, "geometry": { "type": "Point", "coordinates": [ 129.370712, 35.498501, 30.0 ] } },
{ "type": "Feature", "properties": { "value": 8.0514 }, "geometry": { "type": "Point", "coordinates": [ 129.371811, 35.498497, 30.0 ] } },
{ "type": "Feature", "properties": { "value": 7.9594 }, "geometry": { "type": "Point", "coordinates": [ 129.37291, 35.498493, 30.0 ] } },
{ "type": "Feature", "properties": { "value": 7.8443 }, "geometry": { "type": "Point", "coordinates": [ 129.374008, 35.498489, 30.0 ] } },
{ "type": "Feature", "properties": { "value": 7.6763 }, "geometry": { "type": "Point", "coordinates": [ 129.375122, 35.498486, 30.0 ] } },
{ "type": "Feature", "properties": { "value": 7.4129 }, "geometry": { "type": "Point", "coordinates": [ 129.376221, 35.498482, 30.0 ] } },
{ "type": "Feature", "properties": { "value": 7.0364 }, "geometry": { "type": "Point", "coordinates": [ 129.377319, 35.498482, 30.0 ] } },
{ "type": "Feature", "properties": { "value": 6.5173 }, "geometry": { "type": "Point", "coordinates": [ 129.378418, 35.498478, 30.0 ] } },
{ "type": "Feature", "properties": { "value": 5.8629 }, "geometry": { "type": "Point", "coordinates": [ 129.379532, 35.498474, 30.0 ] } },
{ "type": "Feature", "properties": { "value": 5.0955 }, "geometry": { "type": "Point", "coordinates": [ 129.38063, 35.49847, 30.0 ] } },
{ "type": "Feature", "properties": { "value": 4.2549 }, "geometry": { "type": "Point", "coordinates": [ 129.381729, 35.498466, 30.0 ] } },
{ "type": "Feature", "properties": { "value": 0.2874 }, "geometry": { "type": "Point", "coordinates": [ 129.346466, 35.499474, 30.0 ] } },
{ "type": "Feature", "properties": { "value": 0.629 }, "geometry": { "type": "Point", "coordinates": [ 129.347565, 35.49947, 30.0 ] } },
{ "type": "Feature", "properties": { "value": 1.132 }, "geometry": { "type": "Point", "coordinates": [ 129.348663, 35.499466, 30.0 ] } },
{ "type": "Feature", "properties": { "value": 1.8308 }, "geometry": { "type": "Point", "coordinates": [ 129.349777, 35.499466, 30.0 ] } },
{ "type": "Feature", "properties": { "value": 2.7103 }, "geometry": { "type": "Point", "coordinates": [ 129.350876, 35.499462, 30.0 ] } },
{ "type": "Feature", "properties": { "value": 3.7351 }, "geometry": { "type": "Point", "coordinates": [ 129.351974, 35.499458, 30.0 ] } },
{ "type": "Feature", "properties": { "value": 4.8373 }, "geometry": { "type": "Point", "coordinates": [ 129.353073, 35.499454, 30.0 ] } },
{ "type": "Feature", "properties": { "value": 5.9103 }, "geometry": { "type": "Point", "coordinates": [ 129.354187, 35.499451, 30.0 ] } },
{ "type": "Feature", "properties": { "value": 6.8773 }, "geometry": { "type": "Point", "coordinates": [ 129.355286, 35.499447, 30.0 ] } },
{ "type": "Feature", "properties": { "value": 7.6759 }, "geometry": { "type": "Point", "coordinates": [ 129.356384, 35.499447, 30.0 ] } },
{ "type": "Feature", "properties": { "value": 8.3017 }, "geometry": { "type": "Point", "coordinates": [ 129.357483, 35.499443, 30.0 ] } },
{ "type": "Feature", "properties": { "value": 8.7577 }, "geometry": { "type": "Point", "coordinates": [ 129.358582, 35.499439, 30.0 ] } },
{ "type": "Feature", "properties": { "value": 9.0581 }, "geometry": { "type": "Point", "coordinates": [ 129.359695, 35.499435, 30.0 ] } },
{ "type": "Feature", "properties": { "value": 9.2073 }, "geometry": { "type": "Point", "coordinates": [ 129.360794, 35.499432, 30.0 ] } },
{ "type": "Feature", "properties": { "value": 9.2375 }, "geometry": { "type": "Point", "coordinates": [ 129.361893, 35.499428, 30.0 ] } },
{ "type": "Feature", "properties": { "value": 9.1741 }, "geometry": { "type": "Point", "coordinates": [ 129.362991, 35.499424, 30.0 ] } },
{ "type": "Feature", "properties": { "value": 9.0502 }, "geometry": { "type": "Point", "coordinates": [ 129.364105, 35.499424, 30.0 ] } },
{ "type": "Feature", "properties": { "value": 8.8846 }, "geometry": { "type": "Point", "coordinates": [ 129.365204, 35.49942, 30.0 ] } },
{ "type": "Feature", "properties": { "value": 8.705 }, "geometry": { "type": "Point", "coordinates": [ 129.366302, 35.499416, 30.0 ] } },
{ "type": "Feature", "properties": { "value": 8.526 }, "geometry": { "type": "Point", "coordinates": [ 129.367401, 35.499413, 30.0 ] } },
{ "type": "Feature", "properties": { "value": 8.3586 }, "geometry": { "type": "Point", "coordinates": [ 129.368515, 35.499409, 30.0 ] } },
{ "type": "Feature", "properties": { "value": 8.2149 }, "geometry": { "type": "Point", "coordinates": [ 129.369614, 35.499405, 30.0 ] } },
{ "type": "Feature", "properties": { "value": 8.0846 }, "geometry": { "type": "Point", "coordinates": [ 129.370712, 35.499401, 30.0 ] } },
{ "type": "Feature", "properties": { "value": 7.9619 }, "geometry": { "type": "Point", "coordinates": [ 129.371811, 35.499397, 30.0 ] } },
{ "type": "Feature", "properties": { "value": 7.8286 }, "geometry": { "type": "Point", "coordinates": [ 129.37291, 35.499393, 30.0 ] } },
{ "type": "Feature", "properties": { "value": 7.6608 }, "geometry": { "type": "Point", "coordinates": [ 129.374023, 35.499393, 30.0 ] } },
{ "type": "Feature", "properties": { "value": 7.4403 }, "geometry": { "type": "Point", "coordinates": [ 129.375122, 35.49939, 30.0 ] } },
{ "type": "Feature", "properties": { "value": 7.1259 }, "geometry": { "type": "Point", "coordinates": [ 129.376221, 35.499386, 30.0 ] } },
{ "type": "Feature", "properties": { "value": 6.7076 }, "geometry": { "type": "Point", "coordinates": [ 129.377319, 35.499382, 30.0 ] } },
{ "type": "Feature", "properties": { "value": 6.1623 }, "geometry": { "type": "Point", "coordinates": [ 129.378433, 35.499378, 30.0 ] } },
{ "type": "Feature", "properties": { "value": 5.5008 }, "geometry": { "type": "Point", "coordinates": [ 129.379532, 35.499374, 30.0 ] } },
{ "type": "Feature", "properties": { "value": 4.7471 }, "geometry": { "type": "Point", "coordinates": [ 129.38063, 35.499371, 30.0 ] } },
{ "type": "Feature", "properties": { "value": 3.9396 }, "geometry": { "type": "Point", "coordinates": [ 129.381729, 35.499367, 30.0 ] } },
{ "type": "Feature", "properties": { "value": 0.1823 }, "geometry": { "type": "Point", "coordinates": [ 129.347565, 35.500374, 30.0 ] } },
{ "type": "Feature", "properties": { "value": 0.4166 }, "geometry": { "type": "Point", "coordinates": [ 129.348679, 35.50037, 30.0 ] } },
{ "type": "Feature", "properties": { "value": 0.7703 }, "geometry": { "type": "Point", "coordinates": [ 129.349777, 35.500366, 30.0 ] } },
{ "type": "Feature", "properties": { "value": 1.258 }, "geometry": { "type": "Point", "coordinates": [ 129.350876, 35.500362, 30.0 ] } },
{ "type": "Feature", "properties": { "value": 1.8729 }, "geometry": { "type": "Point", "coordinates": [ 129.351974, 35.500359, 30.0 ] } },
{ "type": "Feature", "properties": { "value": 2.6115 }, "geometry": { "type": "Point", "coordinates": [ 129.353088, 35.500355, 30.0 ] } },
{ "type": "Feature", "properties": { "value": 3.4124 }, "geometry": { "type": "Point", "coordinates": [ 129.354187, 35.500355, 30.0 ] } },
{ "type": "Feature", "properties": { "value": 4.2257 }, "geometry": { "type": "Point", "coordinates": [ 129.355286, 35.500351, 30.0 ] } },
{ "type": "Feature", "properties": { "value": 4.989 }, "geometry": { "type": "Point", "coordinates": [ 129.356384, 35.500347, 30.0 ] } },
{ "type": "Feature", "properties": { "value": 5.6832 }, "geometry": { "type": "Point", "coordinates": [ 129.357483, 35.500343, 30.0 ] } },
{ "type": "Feature", "properties": { "value": 6.2949 }, "geometry": { "type": "Point", "coordinates": [ 129.358597, 35.50034, 30.0 ] } },
{ "type": "Feature", "properties": { "value": 6.7894 }, "geometry": { "type": "Point", "coordinates": [ 129.359695, 35.500336, 30.0 ] } },
{ "type": "Feature", "properties": { "value": 7.1663 }, "geometry": { "type": "Point", "coordinates": [ 129.360794, 35.500332, 30.0 ] } },
{ "type": "Feature", "properties": { "value": 7.4225 }, "geometry": { "type": "Point", "coordinates": [ 129.361893, 35.500332, 30.0 ] } },
{ "type": "Feature", "properties": { "value": 7.576 }, "geometry": { "type": "Point", "coordinates": [ 129.363007, 35.500328, 30.0 ] } },
{ "type": "Feature", "properties": { "value": 7.6423 }, "geometry": { "type": "Point", "coordinates": [ 129.364105, 35.500324, 30.0 ] } },
{ "type": "Feature", "properties": { "value": 7.6507 }, "geometry": { "type": "Point", "coordinates": [ 129.365204, 35.50032, 30.0 ] } },
{ "type": "Feature", "properties": { "value": 7.6085 }, "geometry": { "type": "Point", "coordinates": [ 129.366302, 35.500317, 30.0 ] } },
{ "type": "Feature", "properties": { "value": 7.5378 }, "geometry": { "type": "Point", "coordinates": [ 129.367416, 35.500313, 30.0 ] } },
{ "type": "Feature", "properties": { "value": 7.449 }, "geometry": { "type": "Point", "coordinates": [ 129.368515, 35.500309, 30.0 ] } },
{ "type": "Feature", "properties": { "value": 7.3541 }, "geometry": { "type": "Point", "coordinates": [ 129.369614, 35.500305, 30.0 ] } },
{ "type": "Feature", "properties": { "value": 7.2562 }, "geometry": { "type": "Point", "coordinates": [ 129.370712, 35.500301, 30.0 ] } },
{ "type": "Feature", "properties": { "value": 7.1421 }, "geometry": { "type": "Point", "coordinates": [ 129.371811, 35.500301, 30.0 ] } },
{ "type": "Feature", "properties": { "value": 7.0083 }, "geometry": { "type": "Point", "coordinates": [ 129.372925, 35.500298, 30.0 ] } },
{ "type": "Feature", "properties": { "value": 6.8327 }, "geometry": { "type": "Point", "coordinates": [ 129.374023, 35.500294, 30.0 ] } },
{ "type": "Feature", "properties": { "value": 6.5997 }, "geometry": { "type": "Point", "coordinates": [ 129.375122, 35.50029, 30.0 ] } },
{ "type": "Feature", "properties": { "value": 6.2853 }, "geometry": { "type": "Point", "coordinates": [ 129.376221, 35.500286, 30.0 ] } },
{ "type": "Feature", "properties": { "value": 5.877 }, "geometry": { "type": "Point", "coordinates": [ 129.377335, 35.500282, 30.0 ] } },
{ "type": "Feature", "properties": { "value": 5.3656 }, "geometry": { "type": "Point", "coordinates": [ 129.378433, 35.500278, 30.0 ] } },
{ "type": "Feature", "properties": { "value": 4.7602 }, "geometry": { "type": "Point", "coordinates": [ 129.379532, 35.500275, 30.0 ] } },
{ "type": "Feature", "properties": { "value": 4.0844 }, "geometry": { "type": "Point", "coordinates": [ 129.38063, 35.500271, 30.0 ] } },
{ "type": "Feature", "properties": { "value": 3.3721 }, "geometry": { "type": "Point", "coordinates": [ 129.381744, 35.500267, 30.0 ] } },
{ "type": "Feature", "properties": { "value": 0.0642 }, "geometry": { "type": "Point", "coordinates": [ 129.348679, 35.50127, 30.0 ] } },
{ "type": "Feature", "properties": { "value": 0.2585 }, "geometry": { "type": "Point", "coordinates": [ 129.349777, 35.501266, 30.0 ] } },
{ "type": "Feature", "properties": { "value": 0.493 }, "geometry": { "type": "Point", "coordinates": [ 129.350876, 35.501263, 30.0 ] } },
{ "type": "Feature", "properties": { "value": 0.8141 }, "geometry": { "type": "Point", "coordinates": [ 129.35199, 35.501259, 30.0 ] } },
{ "type": "Feature", "properties": { "value": 1.2243 }, "geometry": { "type": "Point", "coordinates": [ 129.353088, 35.501259, 30.0 ] } },
{ "type": "Feature", "properties": { "value": 1.7286 }, "geometry": { "type": "Point", "coordinates": [ 129.354187, 35.501255, 30.0 ] } },
{ "type": "Feature", "properties": { "value": 2.2794 }, "geometry": { "type": "Point", "coordinates": [ 129.355286, 35.501251, 30.0 ] } },
{ "type": "Feature", "properties": { "value": 2.8619 }, "geometry": { "type": "Point", "coordinates": [ 129.3564, 35.501247, 30.0 ] } },
{ "type": "Feature", "properties": { "value": 3.4501 }, "geometry": { "type": "Point", "coordinates": [ 129.357498, 35.501244, 30.0 ] } },
{ "type": "Feature", "properties": { "value": 4.0145 }, "geometry": { "type": "Point", "coordinates": [ 129.358597, 35.50124, 30.0 ] } },
{ "type": "Feature", "properties": { "value": 4.5292 }, "geometry": { "type": "Point", "coordinates": [ 129.359695, 35.50124, 30.0 ] } },
{ "type": "Feature", "properties": { "value": 4.9554 }, "geometry": { "type": "Point", "coordinates": [ 129.360794, 35.501236, 30.0 ] } },
{ "type": "Feature", "properties": { "value": 5.2957 }, "geometry": { "type": "Point", "coordinates": [ 129.361908, 35.501232, 30.0 ] } },
{ "type": "Feature", "properties": { "value": 5.554 }, "geometry": { "type": "Point", "coordinates": [ 129.363007, 35.501228, 30.0 ] } },
{ "type": "Feature", "properties": { "value": 5.7418 }, "geometry": { "type": "Point", "coordinates": [ 129.364105, 35.501225, 30.0 ] } },
{ "type": "Feature", "properties": { "value": 5.8692 }, "geometry": { "type": "Point", "coordinates": [ 129.365204, 35.501221, 30.0 ] } },
{ "type": "Feature", "properties": { "value": 5.9388 }, "geometry": { "type": "Point", "coordinates": [ 129.366318, 35.501217, 30.0 ] } },
{ "type": "Feature", "properties": { "value": 5.9677 }, "geometry": { "type": "Point", "coordinates": [ 129.367416, 35.501213, 30.0 ] } },
{ "type": "Feature", "properties": { "value": 5.9629 }, "geometry": { "type": "Point", "coordinates": [ 129.368515, 35.501213, 30.0 ] } },
{ "type": "Feature", "properties": { "value": 5.9375 }, "geometry": { "type": "Point", "coordinates": [ 129.369614, 35.501209, 30.0 ] } },
{ "type": "Feature", "properties": { "value": 5.8896 }, "geometry": { "type": "Point", "coordinates": [ 129.370728, 35.501205, 30.0 ] } },
{ "type": "Feature", "properties": { "value": 5.8151 }, "geometry": { "type": "Point", "coordinates": [ 129.371826, 35.501202, 30.0 ] } },
{ "type": "Feature", "properties": { "value": 5.7075 }, "geometry": { "type": "Point", "coordinates": [ 129.372925, 35.501198, 30.0 ] } },
{ "type": "Feature", "properties": { "value": 5.5613 }, "geometry": { "type": "Point", "coordinates": [ 129.374023, 35.501194, 30.0 ] } },
{ "type": "Feature", "properties": { "value": 5.3541 }, "geometry": { "type": "Point", "coordinates": [ 129.375122, 35.50119, 30.0 ] } },
{ "type": "Feature", "properties": { "value": 5.0817 }, "geometry": { "type": "Point", "coordinates": [ 129.376236, 35.501186, 30.0 ] } },
{ "type": "Feature", "properties": { "value": 4.7289 }, "geometry": { "type": "Point", "coordinates": [ 129.377335, 35.501183, 30.0 ] } },
{ "type": "Feature", "properties": { "value": 4.2984 }, "geometry": { "type": "Point", "coordinates": [ 129.378433, 35.501179, 30.0 ] } },
{ "type": "Feature", "properties": { "value": 3.7957 }, "geometry": { "type": "Point", "coordinates": [ 129.379532, 35.501179, 30.0 ] } },
{ "type": "Feature", "properties": { "value": 3.2418 }, "geometry": { "type": "Point", "coordinates": [ 129.380646, 35.501175, 30.0 ] } },
{ "type": "Feature", "properties": { "value": 2.6637 }, "geometry": { "type": "Point", "coordinates": [ 129.381744, 35.501171, 30.0 ] } }
]
}
