{
"type": "FeatureCollection",
"features": [
{ "type": "Feature", "properties": { "value": 14.791 }, "geometry": { "type": "Point", "coordinates": [ 129.32756, 35.458969, 10.0 ] } },
{ "type": "Feature", "properties": { "value": 106.7 }, "geometry": { "type": "Point", "coordinates": [ 129.32756, 35.459869, 10.0 ] } },
{ "type": "Feature", "properties": { "value": 61.599 }, "geometry": { "type": "Point", "coordinates": [ 129.327576, 35.46077, 10.0 ] } },
{ "type": "Feature", "properties": { "value": 47.903 }, "geometry": { "type": "Point", "coordinates": [ 129.327576, 35.461674, 10.0 ] } },
{ "type": "Feature", "properties": { "value": 48.147 }, "geometry": { "type": "Point", "coordinates": [ 129.327576, 35.462574, 10.0 ] } },
{ "type": "Feature", "properties": { "value": 0.289 }, "geometry": { "type": "Point", "coordinates": [ 129.328674, 35.46257, 10.0 ] } },
{ "type": "Feature", "properties": { "value": 37.937 }, "geometry": { "type": "Point", "coordinates": [ 129.327576, 35.463474, 10.0 ] } },
{ "type": "Feature", "properties": { "value": 3.966 }, "geometry": { "type": "Point", "coordinates": [ 129.32869, 35.46347, 10.0 ] } },
{ "type": "Feature", "properties": { "value": 24.536 }, "geometry": { "type": "Point", "coordinates": [ 129.327591, 35.464375, 10.0 ] } },
{ "type": "Feature", "properties": { "value": 21.696 }, "geometry": { "type": "Point", "coordinates": [ 129.32869, 35.464375, 10.0 ] } },
{ "type": "Feature", "properties": { "value": 10.809 }, "geometry": { "type": "Point", "coordinates": [ 129.327591, 35.465279, 10.0 ] } },
{ "type": "Feature", "properties": { "value": 32.413 }, "geometry": { "type": "Point", "coordinates": [ 129.32869, 35.465275, 10.0 ] } },
{ "type": "Feature", "properties": { "value": 4.431 }, "geometry": { "type": "Point", "coordinates": [ 129.327591, 35.466179, 10.0 ] } },
{ "type": "Feature", "properties": { "value": 28.807 }, "geometry": { "type": "Point", "coordinates": [ 129.32869, 35.466175, 10.0 ] } },
{ "type": "Feature", "properties": { "value": 0.1756 }, "geometry": { "type": "Point", "coordinates": [ 129.329803, 35.466171, 10.0 ] } },
{ "type": "Feature", "properties": { "value": 2.0933 }, "geometry": { "type": "Point", "coordinates": [ 129.327591, 35.467079, 10.0 ] } },
{ "type": "Feature", "properties": { "value": 28.168 }, "geometry": { "type": "Point", "coordinates": [ 129.328705, 35.467075, 10.0 ] } },
{ "type": "Feature", "properties": { "value": 1.4945 }, "geometry": { "type": "Point", "coordinates": [ 129.329803, 35.467075, 10.0 ] } },
{ "type": "Feature", "properties": { "value": 0.9662 }, "geometry": { "type": "Point", "coordinates": [ 129.327606, 35.467983, 10.0 ] } },
{ "type": "Feature", "properties": { "value": 25.95 }, "geometry": { "type": "Point", "coordinates": [ 129.328705, 35.467979, 10.0 ] } },
{ "type": "Feature", "properties": { "value": 4.4981 }, "geometry": { "type": "Point", "coordinates": [ 129.329803, 35.467976, 10.0 ] } },
{ "type": "Feature", "properties": { "value": 0.484 }, "geometry": { "type": "Point", "coordinates": [ 129.327606, 35.468884, 10.0 ] } },
{ "type": "Feature", "properties": { "value": 22.774 }, "geometry": { "type": "Point", "coordinates": [ 129.328705, 35.46888, 10.0 ] } },
{ "type": "Feature", "properties": { "value": 11.952 }, "geometry": { "type": "Point", "coordinates": [ 129.329803, 35.468876, 10.0 ] } },
{ "type": "Feature", "properties": { "value": 19.402 }, "geometry": { "type": "Point", "coordinates": [ 129.328705, 35.46978, 10.0 ] } },
{ "type": "Feature", "properties": { "value": 29.676 }, "geometry": { "type": "Point", "coordinates": [ 129.329819, 35.469776, 10.0 ] } },
{ "type": "Feature", "properties": { "value": 1.5315 }, "geometry": { "type": "Point", "coordinates": [ 129.330917, 35.469776, 10.0 ] } },
{ "type": "Feature", "properties": { "value": 17.378 }, "geometry": { "type": "Point", "coordinates": [ 129.32872, 35.470684, 10.0 ] } },
{ "type": "Feature", "properties": { "value": 71.783 }, "geometry": { "type": "Point", "coordinates": [ 129.329819, 35.47068, 10.0 ] } },
{ "type": "Feature", "properties": { "value": 12.787 }, "geometry": { "type": "Point", "coordinates": [ 129.330917, 35.470676, 10.0 ] } },
{ "type": "Feature", "properties": { "value": 16.861 }, "geometry": { "type": "Point", "coordinates": [ 129.32872, 35.471584, 10.0 ] } },
{ "type": "Feature", "properties": { "value": 134.71 }, "geometry": { "type": "Point", "coordinates": [ 129.329819, 35.471581, 10.0 ] } },
{ "type": "Feature", "properties": { "value": 49.765 }, "geometry": { "type": "Point", "coordinates": [ 129.330917, 35.471577, 10.0 ] } },
{ "type": "Feature", "properties": { "value": 11.63 }, "geometry": { "type": "Point", "coordinates": [ 129.32872, 35.472485, 10.0 ] } },
{ "type": "Feature", "properties": { "value": 139.79 }, "geometry": { "type": "Point", "coordinates": [ 129.329819, 35.472481, 10.0 ] } },
{ "type": "Feature", "properties": { "value": 97.119 }, "geometry": { "type": "Point", "coordinates": [ 129.330917, 35.472477, 10.0 ] } },
{ "type": "Feature", "properties": { "value": 4.9904 }, "geometry": { "type": "Point", "coordinates": [ 129.332031, 35.472477, 10.0 ] } },
{ "type": "Feature", "properties": { "value": 5.0227 }, "geometry": { "type": "Point", "coordinates": [ 129.32872, 35.473385, 10.0 ] } },
{ "type": "Feature", "properties": { "value": 90.488 }, "geometry": { "type": "Point", "coordinates": [ 129.329819, 35.473385, 10.0 ] } },
{ "type": "Feature", "properties": { "value": 114.63 }, "geometry": { "type": "Point", "coordinates": [ 129.330933, 35.473381, 10.0 ] } },
{ "type": "Feature", "properties": { "value": 13.232 }, "geometry": { "type": "Point", "coordinates": [ 129.332031, 35.473377, 10.0 ] } },
{ "type": "Feature", "properties": { "value": 1.3147 }, "geometry": { "type": "Point", "coordinates": [ 129.328735, 35.474289, 10.0 ] } },
{ "type": "Feature", "properties": { "value": 42.842 }, "geometry": { "type": "Point", "coordinates": [ 129.329834, 35.474285, 10.0 ] } },
{ "type": "Feature", "properties": { "value": 92.965 }, "geometry": { "type": "Point", "coordinates": [ 129.330933, 35.474281, 10.0 ] } },
{ "type": "Feature", "properties": { "value": 27.121 }, "geometry": { "type": "Point", "coordinates": [ 129.332031, 35.474277, 10.0 ] } },
{ "type": "Feature", "properties": { "value": 1.4211 }, "geometry": { "type": "Point", "coordinates": [ 129.33313, 35.474274, 10.0 ] } },
{ "type": "Feature", "properties": { "value": 20.195 }, "geometry": { "type": "Point", "coordinates": [ 129.329834, 35.475185, 10.0 ] } },
{ "type": "Feature", "properties": { "value": 69.282 }, "geometry": { "type": "Point", "coordinates": [ 129.330933, 35.475182, 10.0 ] } },
{ "type": "Feature", "properties": { "value": 44.349 }, "geometry": { "type": "Point", "coordinates": [ 129.332031, 35.475178, 10.0 ] } },
{ "type": "Feature", "properties": { "value": 6.079 }, "geometry": { "type": "Point", "coordinates": [ 129.333145, 35.475178, 10.0 ] } },
{ "type": "Feature", "properties": { "value": 8.8509 }, "geometry": { "type": "Point", "coordinates": [ 129.329834, 35.476086, 10.0 ] } },
{ "type": "Feature", "properties": { "value": 47.009 }, "geometry": { "type": "Point", "coordinates": [ 129.330933, 35.476086, 10.0 ] } },
{ "type": "Feature", "properties": { "value": 56.791 }, "geometry": { "type": "Point", "coordinates": [ 129.332047, 35.476082, 10.0 ] } },
{ "type": "Feature", "properties": { "value": 15.85 }, "geometry": { "type": "Point", "coordinates": [ 129.333145, 35.476078, 10.0 ] } },
{ "type": "Feature", "properties": { "value": 0.9093 }, "geometry": { "type": "Point", "coordinates": [ 129.334244, 35.476074, 10.0 ] } },
{ "type": "Feature", "properties": { "value": 3.2257 }, "geometry": { "type": "Point", "coordinates": [ 129.329834, 35.47699, 10.0 ] } },
{ "type": "Feature", "properties": { "value": 28.975 }, "geometry": { "type": "Point", "coordinates": [ 129.330948, 35.476986, 10.0 ] } },
{ "type": "Feature", "properties": { "value": 60.95 }, "geometry": { "type": "Point", "coordinates": [ 129.332047, 35.476982, 10.0 ] } },
{ "type": "Feature", "properties": { "value": 31.392 }, "geometry": { "type": "Point", "coordinates": [ 129.333145, 35.476978, 10.0 ] } },
{ "type": "Feature", "properties": { "value": 4.2107 }, "geometry": { "type": "Point", "coordinates": [ 129.334244, 35.476974, 10.0 ] } },
{ "type": "Feature", "properties": { "value": 0.8686 }, "geometry": { "type": "Point", "coordinates": [ 129.329849, 35.47789, 10.0 ] } },
{ "type": "Feature", "properties": { "value": 15.666 }, "geometry": { "type": "Point", "coordinates": [ 129.330948, 35.477886, 10.0 ] } },
{ "type": "Feature", "properties": { "value": 54.618 }, "geometry": { "type": "Point", "coordinates": [ 129.332047, 35.477882, 10.0 ] } },
{ "type": "Feature", "properties": { "value": 48.743 }, "geometry": { "type": "Point", "coordinates": [ 129.333145, 35.477879, 10.0 ] } },
{ "type": "Feature", "properties": { "value": 12.471 }, "geometry": { "type": "Point", "coordinates": [ 129.334259, 35.477879, 10.0 ] } },
{ "type": "Feature", "properties": { "value": 0.8184 }, "geometry": { "type": "Point", "coordinates": [ 129.335358, 35.477875, 10.0 ] } },
{ "type": "Feature", "properties": { "value": 7.1565 }, "geometry": { "type": "Point", "coordinates": [ 129.330948, 35.478786, 10.0 ] } },
{ "type": "Feature", "properties": { "value": 39.229 }, "geometry": { "type": "Point", "coordinates": [ 129.332047, 35.478786, 10.0 ] } },
{ "type": "Feature", "properties": { "value": 58.546 }, "geometry": { "type": "Point", "coordinates": [ 129.33316, 35.478783, 10.0 ] } },
{ "type": "Feature", "properties": { "value": 26.915 }, "geometry": { "type": "Point", "coordinates": [ 129.334259, 35.478779, 10.0 ] } },
{ "type": "Feature", "properties": { "value": 4.4406 }, "geometry": { "type": "Point", "coordinates": [ 129.335358, 35.478775, 10.0 ] } },
{ "type": "Feature", "properties": { "value": 2.7913 }, "geometry": { "type": "Point", "coordinates": [ 129.330948, 35.479691, 10.0 ] } },
{ "type": "Feature", "properties": { "value": 23.341 }, "geometry": { "type": "Point", "coordinates": [ 129.332062, 35.479687, 10.0 ] } },
{ "type": "Feature", "properties": { "value": 56.033 }, "geometry": { "type": "Point", "coordinates": [ 129.33316, 35.479683, 10.0 ] } },
{ "type": "Feature", "properties": { "value": 44.554 }, "geometry": { "type": "Point", "coordinates": [ 129.334259, 35.479679, 10.0 ] } },
{ "type": "Feature", "properties": { "value": 13.709 }, "geometry": { "type": "Point", "coordinates": [ 129.335358, 35.479675, 10.0 ] } },
{ "type": "Feature", "properties": { "value": 1.7601 }, "geometry": { "type": "Point", "coordinates": [ 129.336456, 35.479675, 10.0 ] } },
{ "type": "Feature", "properties": { "value": 0.7546 }, "geometry": { "type": "Point", "coordinates": [ 129.330963, 35.480591, 10.0 ] } },
{ "type": "Feature", "properties": { "value": 11.841 }, "geometry": { "type": "Point", "coordinates": [ 129.332062, 35.480587, 10.0 ] } },
{ "type": "Feature", "properties": { "value": 43.607 }, "geometry": { "type": "Point", "coordinates": [ 129.33316, 35.480583, 10.0 ] } },
{ "type": "Feature", "properties": { "value": 56.305 }, "geometry": { "type": "Point", "coordinates": [ 129.334259, 35.480579, 10.0 ] } },
{ "type": "Feature", "properties": { "value": 29.484 }, "geometry": { "type": "Point", "coordinates": [ 129.335358, 35.480579, 10.0 ] } },
{ "type": "Feature", "properties": { "value": 7.2175 }, "geometry": { "type": "Point", "coordinates": [ 129.336472, 35.480576, 10.0 ] } },
{ "type": "Feature", "properties": { "value": 0.8594 }, "geometry": { "type": "Point", "coordinates": [ 129.33757, 35.480572, 10.0 ] } },
{ "type": "Feature", "properties": { "value": 5.1818 }, "geometry": { "type": "Point", "coordinates": [ 129.332062, 35.481487, 10.0 ] } },
{ "type": "Feature", "properties": { "value": 27.918 }, "geometry": { "type": "Point", "coordinates": [ 129.33316, 35.481487, 10.0 ] } },
{ "type": "Feature", "properties": { "value": 54.127 }, "geometry": { "type": "Point", "coordinates": [ 129.334259, 35.481483, 10.0 ] } },
{ "type": "Feature", "properties": { "value": 44.722 }, "geometry": { "type": "Point", "coordinates": [ 129.335373, 35.48148, 10.0 ] } },
{ "type": "Feature", "properties": { "value": 18.374 }, "geometry": { "type": "Point", "coordinates": [ 129.336472, 35.481476, 10.0 ] } },
{ "type": "Feature", "properties": { "value": 4.3389 }, "geometry": { "type": "Point", "coordinates": [ 129.33757, 35.481472, 10.0 ] } },
{ "type": "Feature", "properties": { "value": 0.48 }, "geometry": { "type": "Point", "coordinates": [ 129.338669, 35.481472, 10.0 ] } },
{ "type": "Feature", "properties": { "value": 2.0519 }, "geometry": { "type": "Point", "coordinates": [ 129.332062, 35.482391, 10.0 ] } },
{ "type": "Feature", "properties": { "value": 15.328 }, "geometry": { "type": "Point", "coordinates": [ 129.333176, 35.482388, 10.0 ] } },
{ "type": "Feature", "properties": { "value": 41.702 }, "geometry": { "type": "Point", "coordinates": [ 129.334274, 35.482384, 10.0 ] } },
{ "type": "Feature", "properties": { "value": 51.237 }, "geometry": { "type": "Point", "coordinates": [ 129.335373, 35.48238, 10.0 ] } },
{ "type": "Feature", "properties": { "value": 32.748 }, "geometry": { "type": "Point", "coordinates": [ 129.336472, 35.482376, 10.0 ] } },
{ "type": "Feature", "properties": { "value": 12.357 }, "geometry": { "type": "Point", "coordinates": [ 129.33757, 35.482376, 10.0 ] } },
{ "type": "Feature", "properties": { "value": 3.1751 }, "geometry": { "type": "Point", "coordinates": [ 129.338684, 35.482372, 10.0 ] } },
{ "type": "Feature", "properties": { "value": 0.4999 }, "geometry": { "type": "Point", "coordinates": [ 129.339783, 35.482368, 10.0 ] } },
{ "type": "Feature", "properties": { "value": 0.7668 }, "geometry": { "type": "Point", "coordinates": [ 129.332077, 35.483292, 10.0 ] } },
{ "type": "Feature", "properties": { "value": 7.7358 }, "geometry": { "type": "Point", "coordinates": [ 129.333176, 35.483288, 10.0 ] } },
{ "type": "Feature", "properties": { "value": 27.47 }, "geometry": { "type": "Point", "coordinates": [ 129.334274, 35.483284, 10.0 ] } },
{ "type": "Feature", "properties": { "value": 46.463 }, "geometry": { "type": "Point", "coordinates": [ 129.335373, 35.48328, 10.0 ] } },
{ "type": "Feature", "properties": { "value": 42.723 }, "geometry": { "type": "Point", "coordinates": [ 129.336472, 35.48328, 10.0 ] } },
{ "type": "Feature", "properties": { "value": 23.791 }, "geometry": { "type": "Point", "coordinates": [ 129.337585, 35.483276, 10.0 ] } },
{ "type": "Feature", "properties": { "value": 9.0551 }, "geometry": { "type": "Point", "coordinates": [ 129.338684, 35.483273, 10.0 ] } },
{ "type": "Feature", "properties": { "value": 2.6449 }, "geometry": { "type": "Point", "coordinates": [ 129.339783, 35.483269, 10.0 ] } },
{ "type": "Feature", "properties": { "value": 0.5521 }, "geometry": { "type": "Point", "coordinates": [ 129.340881, 35.483265, 10.0 ] } },
{ "type": "Feature", "properties": { "value": 3.5583 }, "geometry": { "type": "Point", "coordinates": [ 129.333176, 35.484188, 10.0 ] } },
{ "type": "Feature", "properties": { "value": 15.719 }, "geometry": { "type": "Point", "coordinates": [ 129.334274, 35.484188, 10.0 ] } },
{ "type": "Feature", "properties": { "value": 34.691 }, "geometry": { "type": "Point", "coordinates": [ 129.335373, 35.484184, 10.0 ] } },
{ "type": "Feature", "properties": { "value": 43.302 }, "geometry": { "type": "Point", "coordinates": [ 129.336487, 35.48418, 10.0 ] } },
{ "type": "Feature", "properties": { "value": 33.714 }, "geometry": { "type": "Point", "coordinates": [ 129.337585, 35.484177, 10.0 ] } },
{ "type": "Feature", "properties": { "value": 18.13 }, "geometry": { "type": "Point", "coordinates": [ 129.338684, 35.484173, 10.0 ] } },
{ "type": "Feature", "properties": { "value": 7.4471 }, "geometry": { "type": "Point", "coordinates": [ 129.339783, 35.484173, 10.0 ] } },
{ "type": "Feature", "properties": { "value": 2.4822 }, "geometry": { "type": "Point", "coordinates": [ 129.340897, 35.484169, 10.0 ] } },
{ "type": "Feature", "properties": { "value": 0.6472 }, "geometry": { "type": "Point", "coordinates": [ 129.341995, 35.484165, 10.0 ] } },
{ "type": "Feature", "properties": { "value": 1.4326 }, "geometry": { "type": "Point", "coordinates": [ 129.333176, 35.485092, 10.0 ] } },
{ "type": "Feature", "properties": { "value": 7.9389 }, "geometry": { "type": "Point", "coordinates": [ 129.334274, 35.485088, 10.0 ] } },
{ "type": "Feature", "properties": { "value": 22.199 }, "geometry": { "type": "Point", "coordinates": [ 129.335388, 35.485085, 10.0 ] } },
{ "type": "Feature", "properties": { "value": 36.163 }, "geometry": { "type": "Point", "coordinates": [ 129.336487, 35.485081, 10.0 ] } },
{ "type": "Feature", "properties": { "value": 37.552 }, "geometry": { "type": "Point", "coordinates": [ 129.337585, 35.485077, 10.0 ] } },
{ "type": "Feature", "properties": { "value": 27.211 }, "geometry": { "type": "Point", "coordinates": [ 129.338684, 35.485077, 10.0 ] } },
{ "type": "Feature", "properties": { "value": 14.96 }, "geometry": { "type": "Point", "coordinates": [ 129.339798, 35.485073, 10.0 ] } },
{ "type": "Feature", "properties": { "value": 6.6364 }, "geometry": { "type": "Point", "coordinates": [ 129.340897, 35.485069, 10.0 ] } },
{ "type": "Feature", "properties": { "value": 2.486 }, "geometry": { "type": "Point", "coordinates": [ 129.341995, 35.485065, 10.0 ] } },
{ "type": "Feature", "properties": { "value": 0.775 }, "geometry": { "type": "Point", "coordinates": [ 129.343094, 35.485062, 10.0 ] } },
{ "type": "Feature", "properties": { "value": 0.0206 }, "geometry": { "type": "Point", "coordinates": [ 129.344193, 35.485062, 10.0 ] } },
{ "type": "Feature", "properties": { "value": 0.3985 }, "geometry": { "type": "Point", "coordinates": [ 129.333176, 35.485992, 10.0 ] } },
{ "type": "Feature", "properties": { "value": 3.5649 }, "geometry": { "type": "Point", "coordinates": [ 129.33429, 35.485989, 10.0 ] } },
{ "type": "Feature", "properties": { "value": 12.351 }, "geometry": { "type": "Point", "coordinates": [ 129.335388, 35.485985, 10.0 ] } },
{ "type": "Feature", "properties": { "value": 25.554 }, "geometry": { "type": "Point", "coordinates": [ 129.336487, 35.485981, 10.0 ] } },
{ "type": "Feature", "properties": { "value": 34.354 }, "geometry": { "type": "Point", "coordinates": [ 129.337585, 35.485981, 10.0 ] } },
{ "type": "Feature", "properties": { "value": 32.419 }, "geometry": { "type": "Point", "coordinates": [ 129.338699, 35.485977, 10.0 ] } },
{ "type": "Feature", "properties": { "value": 23.047 }, "geometry": { "type": "Point", "coordinates": [ 129.339798, 35.485973, 10.0 ] } },
{ "type": "Feature", "properties": { "value": 13.118 }, "geometry": { "type": "Point", "coordinates": [ 129.340897, 35.48597, 10.0 ] } },
{ "type": "Feature", "properties": { "value": 6.2682 }, "geometry": { "type": "Point", "coordinates": [ 129.341995, 35.485966, 10.0 ] } },
{ "type": "Feature", "properties": { "value": 2.655 }, "geometry": { "type": "Point", "coordinates": [ 129.343094, 35.485966, 10.0 ] } },
{ "type": "Feature", "properties": { "value": 1.0124 }, "geometry": { "type": "Point", "coordinates": [ 129.344208, 35.485962, 10.0 ] } },
{ "type": "Feature", "properties": { "value": 0.2955 }, "geometry": { "type": "Point", "coordinates": [ 129.345306, 35.485958, 10.0 ] } },
{ "type": "Feature", "properties": { "value": 1.4007 }, "geometry": { "type": "Point", "coordinates": [ 129.33429, 35.486889, 10.0 ] } },
{ "type": "Feature", "properties": { "value": 6.0659 }, "geometry": { "type": "Point", "coordinates": [ 129.335388, 35.486889, 10.0 ] } },
{ "type": "Feature", "properties": { "value": 15.607 }, "geometry": { "type": "Point", "coordinates": [ 129.336487, 35.486885, 10.0 ] } },
{ "type": "Feature", "properties": { "value": 26.456 }, "geometry": { "type": "Point", "coordinates": [ 129.337601, 35.486881, 10.0 ] } },
{ "type": "Feature", "properties": { "value": 31.515 }, "geometry": { "type": "Point", "coordinates": [ 129.338699, 35.486877, 10.0 ] } },
{ "type": "Feature", "properties": { "value": 28.202 }, "geometry": { "type": "Point", "coordinates": [ 129.339798, 35.486874, 10.0 ] } },
{ "type": "Feature", "properties": { "value": 20.14 }, "geometry": { "type": "Point", "coordinates": [ 129.340897, 35.486874, 10.0 ] } },
{ "type": "Feature", "properties": { "value": 12.039 }, "geometry": { "type": "Point", "coordinates": [ 129.341995, 35.48687, 10.0 ] } },
{ "type": "Feature", "properties": { "value": 6.3243 }, "geometry": { "type": "Point", "coordinates": [ 129.343109, 35.486866, 10.0 ] } },
{ "type": "Feature", "properties": { "value": 3.001 }, "geometry": { "type": "Point", "coordinates": [ 129.344208, 35.486862, 10.0 ] } },
{ "type": "Feature", "properties": { "value": 1.3376 }, "geometry": { "type": "Point", "coordinates": [ 129.345306, 35.486858, 10.0 ] } },
{ "type": "Feature", "properties": { "value": 0.5394 }, "geometry": { "type": "Point", "coordinates": [ 129.346405, 35.486855, 10.0 ] } },
{ "type": "Feature", "properties": { "value": 0.131 }, "geometry": { "type": "Point", "coordinates": [ 129.347519, 35.486855, 10.0 ] } },
{ "type": "Feature", "properties": { "value": 0.4072 }, "geometry": { "type": "Point", "coordinates": [ 129.33429, 35.487793, 10.0 ] } },
{ "type": "Feature", "properties": { "value": 2.6844 }, "geometry": { "type": "Point", "coordinates": [ 129.335388, 35.487789, 10.0 ] } },
{ "type": "Feature", "properties": { "value": 8.4104 }, "geometry": { "type": "Point", "coordinates": [ 129.336502, 35.487785, 10.0 ] } },
{ "type": "Feature", "properties": { "value": 17.438 }, "geometry": { "type": "Point", "coordinates": [ 129.337601, 35.487782, 10.0 ] } },
{ "type": "Feature", "properties": { "value": 25.525 }, "geometry": { "type": "Point", "coordinates": [ 129.338699, 35.487778, 10.0 ] } },
{ "type": "Feature", "properties": { "value": 28.158 }, "geometry": { "type": "Point", "coordinates": [ 129.339798, 35.487778, 10.0 ] } },
{ "type": "Feature", "properties": { "value": 24.817 }, "geometry": { "type": "Point", "coordinates": [ 129.340912, 35.487774, 10.0 ] } },
{ "type": "Feature", "properties": { "value": 18.205 }, "geometry": { "type": "Point", "coordinates": [ 129.34201, 35.48777, 10.0 ] } },
{ "type": "Feature", "properties": { "value": 11.603 }, "geometry": { "type": "Point", "coordinates": [ 129.343109, 35.487766, 10.0 ] } },
{ "type": "Feature", "properties": { "value": 6.6453 }, "geometry": { "type": "Point", "coordinates": [ 129.344208, 35.487762, 10.0 ] } },
{ "type": "Feature", "properties": { "value": 3.5453 }, "geometry": { "type": "Point", "coordinates": [ 129.345306, 35.487759, 10.0 ] } },
{ "type": "Feature", "properties": { "value": 1.8076 }, "geometry": { "type": "Point", "coordinates": [ 129.34642, 35.487759, 10.0 ] } },
{ "type": "Feature", "properties": { "value": 0.8652 }, "geometry": { "type": "Point", "coordinates": [ 129.347519, 35.487755, 10.0 ] } },
{ "type": "Feature", "properties": { "value": 0.3629 }, "geometry": { "type": "Point", "coordinates": [ 129.348618, 35.487751, 10.0 ] } },
{ "type": "Feature", "properties": { "value": 0.0324 }, "geometry": { "type": "Point", "coordinates": [ 129.349716, 35.487747, 10.0 ] } },
{ "type": "Feature", "properties": { "value": 0.0191 }, "geometry": { "type": "Point", "coordinates": [ 129.378372, 35.487663, 10.0 ] } },
{ "type": "Feature", "properties": { "value": 0.0264 }, "geometry": { "type": "Point", "coordinates": [ 129.379471, 35.487659, 10.0 ] } },
{ "type": "Feature", "properties": { "value": 0.0304 }, "geometry": { "type": "Point", "coordinates": [ 129.380569, 35.487656, 10.0 ] } },
{ "type": "Feature", "properties": { "value": 0.0279 }, "geometry": { "type": "Point", "coordinates": [ 129.381683, 35.487652, 10.0 ] } },
{ "type": "Feature", "properties": { "value": 1.0464 }, "geometry": { "type": "Point", "coordinates": [ 129.335403, 35.488689, 10.0 ] } },
{ "type": "Feature", "properties": { "value": 4.0207 }, "geometry": { "type": "Point", "coordinates": [ 129.336502, 35.488686, 10.0 ] } },
{ "type": "Feature", "properties": { "value": 10.049 }, "geometry": { "type": "Point", "coordinates": [ 129.337601, 35.488682, 10.0 ] } },
{ "type": "Feature", "properties": { "value": 17.758 }, "geometry": { "type": "Point", "coordinates": [ 129.338699, 35.488682, 10.0 ] } },
{ "type": "Feature", "properties": { "value": 23.719 }, "geometry": { "type": "Point", "coordinates": [ 129.339813, 35.488678, 10.0 ] } },
{ "type": "Feature", "properties": { "value": 25.308 }, "geometry": { "type": "Point", "coordinates": [ 129.340912, 35.488674, 10.0 ] } },
{ "type": "Feature", "properties": { "value": 22.398 }, "geometry": { "type": "Point", "coordinates": [ 129.34201, 35.48867, 10.0 ] } },
{ "type": "Feature", "properties": { "value": 17.058 }, "geometry": { "type": "Point", "coordinates": [ 129.343109, 35.488667, 10.0 ] } },
{ "type": "Feature", "properties": { "value": 11.612 }, "geometry": { "type": "Point", "coordinates": [ 129.344208, 35.488667, 10.0 ] } },
{ "type": "Feature", "properties": { "value": 7.2757 }, "geometry": { "type": "Point", "coordinates": [ 129.345322, 35.488663, 10.0 ] } },
{ "type": "Feature", "properties": { "value": 4.2835 }, "geometry": { "type": "Point", "coordinates": [ 129.34642, 35.488659, 10.0 ] } },
{ "type": "Feature", "properties": { "value": 2.3872 }, "geometry": { "type": "Point", "coordinates": [ 129.347519, 35.488655, 10.0 ] } },
{ "type": "Feature", "properties": { "value": 1.2517 }, "geometry": { "type": "Point", "coordinates": [ 129.348618, 35.488651, 10.0 ] } },
{ "type": "Feature", "properties": { "value": 0.6355 }, "geometry": { "type": "Point", "coordinates": [ 129.349731, 35.488647, 10.0 ] } },
{ "type": "Feature", "properties": { "value": 0.2817 }, "geometry": { "type": "Point", "coordinates": [ 129.35083, 35.488647, 10.0 ] } },
{ "type": "Feature", "properties": { "value": 0.0341 }, "geometry": { "type": "Point", "coordinates": [ 129.351929, 35.488644, 10.0 ] } },
{ "type": "Feature", "properties": { "value": 0.0064 }, "geometry": { "type": "Point", "coordinates": [ 129.375076, 35.488571, 10.0 ] } },
{ "type": "Feature", "properties": { "value": 0.0502 }, "geometry": { "type": "Point", "coordinates": [ 129.376175, 35.488571, 10.0 ] } },
{ "type": "Feature", "properties": { "value": 0.0695 }, "geometry": { "type": "Point", "coordinates": [ 129.377274, 35.488567, 10.0 ] } },
{ "type": "Feature", "properties": { "value": 0.0787 }, "geometry": { "type": "Point", "coordinates": [ 129.378372, 35.488564, 10.0 ] } },
{ "type": "Feature", "properties": { "value": 0.0874 }, "geometry": { "type": "Point", "coordinates": [ 129.379471, 35.48856, 10.0 ] } },
{ "type": "Feature", "properties": { "value": 0.0857 }, "geometry": { "type": "Point", "coordinates": [ 129.380585, 35.488556, 10.0 ] } },
{ "type": "Feature", "properties": { "value": 0.0819 }, "geometry": { "type": "Point", "coordinates": [ 129.381683, 35.488552, 10.0 ] } },
{ "type": "Feature", "properties": { "value": 0.2887 }, "geometry": { "type": "Point", "coordinates": [ 129.335403, 35.48959, 10.0 ] } },
{ "type": "Feature", "properties": { "value": 1.7085 }, "geometry": { "type": "Point", "coordinates": [ 129.336502, 35.48959, 10.0 ] } },
{ "type": "Feature", "properties": { "value": 5.135 }, "geometry": { "type": "Point", "coordinates": [ 129.337601, 35.489586, 10.0 ] } },
{ "type": "Feature", "properties": { "value": 10.838 }, "geometry": { "type": "Point", "coordinates": [ 129.338715, 35.489582, 10.0 ] } },
{ "type": "Feature", "properties": { "value": 17.267 }, "geometry": { "type": "Point", "coordinates": [ 129.339813, 35.489578, 10.0 ] } },
{ "type": "Feature", "properties": { "value": 21.999 }, "geometry": { "type": "Point", "coordinates": [ 129.340912, 35.489574, 10.0 ] } },
{ "type": "Feature", "properties": { "value": 23.255 }, "geometry": { "type": "Point", "coordinates": [ 129.34201, 35.489571, 10.0 ] } },
{ "type": "Feature", "properties": { "value": 20.984 }, "geometry": { "type": "Point", "coordinates": [ 129.343109, 35.489571, 10.0 ] } },
{ "type": "Feature", "properties": { "value": 16.731 }, "geometry": { "type": "Point", "coordinates": [ 129.344223, 35.489567, 10.0 ] } },
{ "type": "Feature", "properties": { "value": 12.16 }, "geometry": { "type": "Point", "coordinates": [ 129.345322, 35.489563, 10.0 ] } },
{ "type": "Feature", "properties": { "value": 8.2037 }, "geometry": { "type": "Point", "coordinates": [ 129.34642, 35.489559, 10.0 ] } },
{ "type": "Feature", "properties": { "value": 5.1687 }, "geometry": { "type": "Point", "coordinates": [ 129.347519, 35.489555, 10.0 ] } },
{ "type": "Feature", "properties": { "value": 3.0925 }, "geometry": { "type": "Point", "coordinates": [ 129.348633, 35.489555, 10.0 ] } },
{ "type": "Feature", "properties": { "value": 1.7854 }, "geometry": { "type": "Point", "coordinates": [ 129.349731, 35.489552, 10.0 ] } },
{ "type": "Feature", "properties": { "value": 1.0116 }, "geometry": { "type": "Point", "coordinates": [ 129.35083, 35.489548, 10.0 ] } },
{ "type": "Feature", "properties": { "value": 0.5536 }, "geometry": { "type": "Point", "coordinates": [ 129.351929, 35.489544, 10.0 ] } },
{ "type": "Feature", "properties": { "value": 0.3013 }, "geometry": { "type": "Point", "coordinates": [ 129.353027, 35.48954, 10.0 ] } },
{ "type": "Feature", "properties": { "value": 0.1114 }, "geometry": { "type": "Point", "coordinates": [ 129.354141, 35.489536, 10.0 ] } },
{ "type": "Feature", "properties": { "value": 0.041 }, "geometry": { "type": "Point", "coordinates": [ 129.372864, 35.489483, 10.0 ] } },
{ "type": "Feature", "properties": { "value": 0.1004 }, "geometry": { "type": "Point", "coordinates": [ 129.373978, 35.489479, 10.0 ] } },
{ "type": "Feature", "properties": { "value": 0.1276 }, "geometry": { "type": "Point", "coordinates": [ 129.375076, 35.489475, 10.0 ] } },
{ "type": "Feature", "properties": { "value": 0.1552 }, "geometry": { "type": "Point", "coordinates": [ 129.376175, 35.489471, 10.0 ] } },
{ "type": "Feature", "properties": { "value": 0.178 }, "geometry": { "type": "Point", "coordinates": [ 129.377274, 35.489468, 10.0 ] } },
{ "type": "Feature", "properties": { "value": 0.193 }, "geometry": { "type": "Point", "coordinates": [ 129.378387, 35.489464, 10.0 ] } },
{ "type": "Feature", "properties": { "value": 0.1992 }, "geometry": { "type": "Point", "coordinates": [ 129.379486, 35.48946, 10.0 ] } },
{ "type": "Feature", "properties": { "value": 0.1947 }, "geometry": { "type": "Point", "coordinates": [ 129.380585, 35.489456, 10.0 ] } },
{ "type": "Feature", "properties": { "value": 0.1794 }, "geometry": { "type": "Point", "coordinates": [ 129.381683, 35.489452, 10.0 ] } },
{ "type": "Feature", "properties": { "value": 0.6322 }, "geometry": { "type": "Point", "coordinates": [ 129.336502, 35.49049, 10.0 ] } },
{ "type": "Feature", "properties": { "value": 2.3291 }, "geometry": { "type": "Point", "coordinates": [ 129.337616, 35.490486, 10.0 ] } },
{ "type": "Feature", "properties": { "value": 5.7885 }, "geometry": { "type": "Point", "coordinates": [ 129.338715, 35.490482, 10.0 ] } },
{ "type": "Feature", "properties": { "value": 10.92 }, "geometry": { "type": "Point", "coordinates": [ 129.339813, 35.490479, 10.0 ] } },
{ "type": "Feature", "properties": { "value": 16.495 }, "geometry": { "type": "Point", "coordinates": [ 129.340912, 35.490479, 10.0 ] } },
{ "type": "Feature", "properties": { "value": 20.552 }, "geometry": { "type": "Point", "coordinates": [ 129.34201, 35.490475, 10.0 ] } },
{ "type": "Feature", "properties": { "value": 21.728 }, "geometry": { "type": "Point", "coordinates": [ 129.343124, 35.490471, 10.0 ] } },
{ "type": "Feature", "properties": { "value": 20.202 }, "geometry": { "type": "Point", "coordinates": [ 129.344223, 35.490467, 10.0 ] } },
{ "type": "Feature", "properties": { "value": 16.949 }, "geometry": { "type": "Point", "coordinates": [ 129.345322, 35.490463, 10.0 ] } },
{ "type": "Feature", "properties": { "value": 13.021 }, "geometry": { "type": "Point", "coordinates": [ 129.34642, 35.490459, 10.0 ] } },
{ "type": "Feature", "properties": { "value": 9.2816 }, "geometry": { "type": "Point", "coordinates": [ 129.347534, 35.490459, 10.0 ] } },
{ "type": "Feature", "properties": { "value": 6.2215 }, "geometry": { "type": "Point", "coordinates": [ 129.348633, 35.490456, 10.0 ] } },
{ "type": "Feature", "properties": { "value": 3.9943 }, "geometry": { "type": "Point", "coordinates": [ 129.349731, 35.490452, 10.0 ] } },
{ "type": "Feature", "properties": { "value": 2.5124 }, "geometry": { "type": "Point", "coordinates": [ 129.35083, 35.490448, 10.0 ] } },
{ "type": "Feature", "properties": { "value": 1.5757 }, "geometry": { "type": "Point", "coordinates": [ 129.351929, 35.490444, 10.0 ] } },
{ "type": "Feature", "properties": { "value": 0.9878 }, "geometry": { "type": "Point", "coordinates": [ 129.353043, 35.49044, 10.0 ] } },
{ "type": "Feature", "properties": { "value": 0.6152 }, "geometry": { "type": "Point", "coordinates": [ 129.354141, 35.49044, 10.0 ] } },
{ "type": "Feature", "properties": { "value": 0.3892 }, "geometry": { "type": "Point", "coordinates": [ 129.35524, 35.490437, 10.0 ] } },
{ "type": "Feature", "properties": { "value": 0.2506 }, "geometry": { "type": "Point", "coordinates": [ 129.356339, 35.490433, 10.0 ] } },
{ "type": "Feature", "properties": { "value": 0.157 }, "geometry": { "type": "Point", "coordinates": [ 129.357452, 35.490429, 10.0 ] } },
{ "type": "Feature", "properties": { "value": 0.082 }, "geometry": { "type": "Point", "coordinates": [ 129.358551, 35.490425, 10.0 ] } },
{ "type": "Feature", "properties": { "value": 0.0345 }, "geometry": { "type": "Point", "coordinates": [ 129.35965, 35.490421, 10.0 ] } },
{ "type": "Feature", "properties": { "value": 0.009 }, "geometry": { "type": "Point", "coordinates": [ 129.360748, 35.490417, 10.0 ] } },
{ "type": "Feature", "properties": { "value": 0.0176 }, "geometry": { "type": "Point", "coordinates": [ 129.367371, 35.490398, 10.0 ] } },
{ "type": "Feature", "properties": { "value": 0.0374 }, "geometry": { "type": "Point", "coordinates": [ 129.368469, 35.490395, 10.0 ] } },
{ "type": "Feature", "properties": { "value": 0.0706 }, "geometry": { "type": "Point", "coordinates": [ 129.369568, 35.490391, 10.0 ] } },
{ "type": "Feature", "properties": { "value": 0.1094 }, "geometry": { "type": "Point", "coordinates": [ 129.370667, 35.490391, 10.0 ] } },
{ "type": "Feature", "properties": { "value": 0.1533 }, "geometry": { "type": "Point", "coordinates": [ 129.371765, 35.490387, 10.0 ] } },
{ "type": "Feature", "properties": { "value": 0.2049 }, "geometry": { "type": "Point", "coordinates": [ 129.372879, 35.490383, 10.0 ] } },
{ "type": "Feature", "properties": { "value": 0.2521 }, "geometry": { "type": "Point", "coordinates": [ 129.373978, 35.490379, 10.0 ] } },
{ "type": "Feature", "properties": { "value": 0.2974 }, "geometry": { "type": "Point", "coordinates": [ 129.375076, 35.490376, 10.0 ] } },
{ "type": "Feature", "properties": { "value": 0.3401 }, "geometry": { "type": "Point", "coordinates": [ 129.376175, 35.490372, 10.0 ] } },
{ "type": "Feature", "properties": { "value": 0.3754 }, "geometry": { "type": "Point", "coordinates": [ 129.377289, 35.490368, 10.0 ] } },
{ "type": "Feature", "properties": { "value": 0.3977 }, "geometry": { "type": "Point", "coordinates": [ 129.378387, 35.490364, 10.0 ] } },
{ "type": "Feature", "properties": { "value": 0.4027 }, "geometry": { "type": "Point", "coordinates": [ 129.379486, 35.49036, 10.0 ] } },
{ "type": "Feature", "properties": { "value": 0.3865 }, "geometry": { "type": "Point", "coordinates": [ 129.380585, 35.490356, 10.0 ] } },
{ "type": "Feature", "properties": { "value": 0.3499 }, "geometry": { "type": "Point", "coordinates": [ 129.381683, 35.490356, 10.0 ] } },
{ "type": "Feature", "properties": { "value": 0.021 }, "geometry": { "type": "Point", "coordinates": [ 129.336517, 35.49139, 10.0 ] } },
{ "type": "Feature", "properties": { "value": 0.9104 }, "geometry": { "type": "Point", "coordinates": [ 129.337616, 35.491386, 10.0 ] } },
{ "type": "Feature", "properties": { "value": 2.729 }, "geometry": { "type": "Point", "coordinates": [ 129.338715, 35.491383, 10.0 ] } },
{ "type": "Feature", "properties": { "value": 6.0176 }, "geometry": { "type": "Point", "coordinates": [ 129.339813, 35.491383, 10.0 ] } },
{ "type": "Feature", "properties": { "value": 10.648 }, "geometry": { "type": "Point", "coordinates": [ 129.340927, 35.491379, 10.0 ] } },
{ "type": "Feature", "properties": { "value": 15.478 }, "geometry": { "type": "Point", "coordinates": [ 129.342026, 35.491375, 10.0 ] } },
{ "type": "Feature", "properties": { "value": 19.044 }, "geometry": { "type": "Point", "coordinates": [ 129.343124, 35.491371, 10.0 ] } },
{ "type": "Feature", "properties": { "value": 20.47 }, "geometry": { "type": "Point", "coordinates": [ 129.344223, 35.491367, 10.0 ] } },
{ "type": "Feature", "properties": { "value": 19.67 }, "geometry": { "type": "Point", "coordinates": [ 129.345322, 35.491367, 10.0 ] } },
{ "type": "Feature", "properties": { "value": 17.22 }, "geometry": { "type": "Point", "coordinates": [ 129.346436, 35.491364, 10.0 ] } },
{ "type": "Feature", "properties": { "value": 13.863 }, "geometry": { "type": "Point", "coordinates": [ 129.347534, 35.49136, 10.0 ] } },
{ "type": "Feature", "properties": { "value": 10.35 }, "geometry": { "type": "Point", "coordinates": [ 129.348633, 35.491356, 10.0 ] } },
{ "type": "Feature", "properties": { "value": 7.3254 }, "geometry": { "type": "Point", "coordinates": [ 129.349731, 35.491352, 10.0 ] } },
{ "type": "Feature", "properties": { "value": 5.0694 }, "geometry": { "type": "Point", "coordinates": [ 129.350845, 35.491348, 10.0 ] } },
{ "type": "Feature", "properties": { "value": 3.4726 }, "geometry": { "type": "Point", "coordinates": [ 129.351944, 35.491348, 10.0 ] } },
{ "type": "Feature", "properties": { "value": 2.3615 }, "geometry": { "type": "Point", "coordinates": [ 129.353043, 35.491344, 10.0 ] } },
{ "type": "Feature", "properties": { "value": 1.6107 }, "geometry": { "type": "Point", "coordinates": [ 129.354141, 35.491341, 10.0 ] } },
{ "type": "Feature", "properties": { "value": 1.1282 }, "geometry": { "type": "Point", "coordinates": [ 129.35524, 35.491337, 10.0 ] } },
{ "type": "Feature", "properties": { "value": 0.8085 }, "geometry": { "type": "Point", "coordinates": [ 129.356354, 35.491333, 10.0 ] } },
{ "type": "Feature", "properties": { "value": 0.5914 }, "geometry": { "type": "Point", "coordinates": [ 129.357452, 35.491329, 10.0 ] } },
{ "type": "Feature", "properties": { "value": 0.4492 }, "geometry": { "type": "Point", "coordinates": [ 129.358551, 35.491325, 10.0 ] } },
{ "type": "Feature", "properties": { "value": 0.354 }, "geometry": { "type": "Point", "coordinates": [ 129.35965, 35.491325, 10.0 ] } },
{ "type": "Feature", "properties": { "value": 0.2885 }, "geometry": { "type": "Point", "coordinates": [ 129.360764, 35.491322, 10.0 ] } },
{ "type": "Feature", "properties": { "value": 0.2418 }, "geometry": { "type": "Point", "coordinates": [ 129.361862, 35.491318, 10.0 ] } },
{ "type": "Feature", "properties": { "value": 0.214 }, "geometry": { "type": "Point", "coordinates": [ 129.362961, 35.491314, 10.0 ] } },
{ "type": "Feature", "properties": { "value": 0.1972 }, "geometry": { "type": "Point", "coordinates": [ 129.364059, 35.49131, 10.0 ] } },
{ "type": "Feature", "properties": { "value": 0.1903 }, "geometry": { "type": "Point", "coordinates": [ 129.365158, 35.491306, 10.0 ] } },
{ "type": "Feature", "properties": { "value": 0.1957 }, "geometry": { "type": "Point", "coordinates": [ 129.366272, 35.491302, 10.0 ] } },
{ "type": "Feature", "properties": { "value": 0.2098 }, "geometry": { "type": "Point", "coordinates": [ 129.367371, 35.491299, 10.0 ] } },
{ "type": "Feature", "properties": { "value": 0.2362 }, "geometry": { "type": "Point", "coordinates": [ 129.368469, 35.491299, 10.0 ] } },
{ "type": "Feature", "properties": { "value": 0.2747 }, "geometry": { "type": "Point", "coordinates": [ 129.369568, 35.491295, 10.0 ] } },
{ "type": "Feature", "properties": { "value": 0.3227 }, "geometry": { "type": "Point", "coordinates": [ 129.370682, 35.491291, 10.0 ] } },
{ "type": "Feature", "properties": { "value": 0.3888 }, "geometry": { "type": "Point", "coordinates": [ 129.37178, 35.491287, 10.0 ] } },
{ "type": "Feature", "properties": { "value": 0.4527 }, "geometry": { "type": "Point", "coordinates": [ 129.372879, 35.491283, 10.0 ] } },
{ "type": "Feature", "properties": { "value": 0.5256 }, "geometry": { "type": "Point", "coordinates": [ 129.373978, 35.49128, 10.0 ] } },
{ "type": "Feature", "properties": { "value": 0.5971 }, "geometry": { "type": "Point", "coordinates": [ 129.375076, 35.491276, 10.0 ] } },
{ "type": "Feature", "properties": { "value": 0.6598 }, "geometry": { "type": "Point", "coordinates": [ 129.37619, 35.491272, 10.0 ] } },
{ "type": "Feature", "properties": { "value": 0.7111 }, "geometry": { "type": "Point", "coordinates": [ 129.377289, 35.491268, 10.0 ] } },
{ "type": "Feature", "properties": { "value": 0.7383 }, "geometry": { "type": "Point", "coordinates": [ 129.378387, 35.491268, 10.0 ] } },
{ "type": "Feature", "properties": { "value": 0.7348 }, "geometry": { "type": "Point", "coordinates": [ 129.379486, 35.491264, 10.0 ] } },
{ "type": "Feature", "properties": { "value": 0.6967 }, "geometry": { "type": "Point", "coordinates": [ 129.3806, 35.491261, 10.0 ] } },
{ "type": "Feature", "properties": { "value": 0.6263 }, "geometry": { "type": "Point", "coordinates": [ 129.381699, 35.491257, 10.0 ] } },
{ "type": "Feature", "properties": { "value": 0.2599 }, "geometry": { "type": "Point", "coordinates": [ 129.337616, 35.49229, 10.0 ] } },
{ "type": "Feature", "properties": { "value": 1.1268 }, "geometry": { "type": "Point", "coordinates": [ 129.338715, 35.492287, 10.0 ] } },
{ "type": "Feature", "properties": { "value": 2.9315 }, "geometry": { "type": "Point", "coordinates": [ 129.339828, 35.492283, 10.0 ] } },
{ "type": "Feature", "properties": { "value": 5.9926 }, "geometry": { "type": "Point", "coordinates": [ 129.340927, 35.492279, 10.0 ] } },
{ "type": "Feature", "properties": { "value": 10.058 }, "geometry": { "type": "Point", "coordinates": [ 129.342026, 35.492275, 10.0 ] } },
{ "type": "Feature", "properties": { "value": 14.286 }, "geometry": { "type": "Point", "coordinates": [ 129.343124, 35.492271, 10.0 ] } },
{ "type": "Feature", "properties": { "value": 17.566 }, "geometry": { "type": "Point", "coordinates": [ 129.344223, 35.492271, 10.0 ] } },
{ "type": "Feature", "properties": { "value": 19.182 }, "geometry": { "type": "Point", "coordinates": [ 129.345337, 35.492268, 10.0 ] } },
{ "type": "Feature", "properties": { "value": 18.97 }, "geometry": { "type": "Point", "coordinates": [ 129.346436, 35.492264, 10.0 ] } },
{ "type": "Feature", "properties": { "value": 17.131 }, "geometry": { "type": "Point", "coordinates": [ 129.347534, 35.49226, 10.0 ] } },
{ "type": "Feature", "properties": { "value": 14.275 }, "geometry": { "type": "Point", "coordinates": [ 129.348633, 35.492256, 10.0 ] } },
{ "type": "Feature", "properties": { "value": 11.241 }, "geometry": { "type": "Point", "coordinates": [ 129.349747, 35.492252, 10.0 ] } },
{ "type": "Feature", "properties": { "value": 8.5449 }, "geometry": { "type": "Point", "coordinates": [ 129.350845, 35.492252, 10.0 ] } },
{ "type": "Feature", "properties": { "value": 6.3441 }, "geometry": { "type": "Point", "coordinates": [ 129.351944, 35.492249, 10.0 ] } },
{ "type": "Feature", "properties": { "value": 4.6598 }, "geometry": { "type": "Point", "coordinates": [ 129.353043, 35.492245, 10.0 ] } },
{ "type": "Feature", "properties": { "value": 3.4296 }, "geometry": { "type": "Point", "coordinates": [ 129.354141, 35.492241, 10.0 ] } },
{ "type": "Feature", "properties": { "value": 2.5467 }, "geometry": { "type": "Point", "coordinates": [ 129.355255, 35.492237, 10.0 ] } },
{ "type": "Feature", "properties": { "value": 1.918 }, "geometry": { "type": "Point", "coordinates": [ 129.356354, 35.492233, 10.0 ] } },
{ "type": "Feature", "properties": { "value": 1.4817 }, "geometry": { "type": "Point", "coordinates": [ 129.357452, 35.492233, 10.0 ] } },
{ "type": "Feature", "properties": { "value": 1.1696 }, "geometry": { "type": "Point", "coordinates": [ 129.358551, 35.492229, 10.0 ] } },
{ "type": "Feature", "properties": { "value": 0.9524 }, "geometry": { "type": "Point", "coordinates": [ 129.359665, 35.492226, 10.0 ] } },
{ "type": "Feature", "properties": { "value": 0.7927 }, "geometry": { "type": "Point", "coordinates": [ 129.360764, 35.492222, 10.0 ] } },
{ "type": "Feature", "properties": { "value": 0.6868 }, "geometry": { "type": "Point", "coordinates": [ 129.361862, 35.492218, 10.0 ] } },
{ "type": "Feature", "properties": { "value": 0.6052 }, "geometry": { "type": "Point", "coordinates": [ 129.362961, 35.492214, 10.0 ] } },
{ "type": "Feature", "properties": { "value": 0.5563 }, "geometry": { "type": "Point", "coordinates": [ 129.364059, 35.49221, 10.0 ] } },
{ "type": "Feature", "properties": { "value": 0.5337 }, "geometry": { "type": "Point", "coordinates": [ 129.365173, 35.49221, 10.0 ] } },
{ "type": "Feature", "properties": { "value": 0.5282 }, "geometry": { "type": "Point", "coordinates": [ 129.366272, 35.492207, 10.0 ] } },
{ "type": "Feature", "properties": { "value": 0.543 }, "geometry": { "type": "Point", "coordinates": [ 129.367371, 35.492203, 10.0 ] } },
{ "type": "Feature", "properties": { "value": 0.5752 }, "geometry": { "type": "Point", "coordinates": [ 129.368469, 35.492199, 10.0 ] } },
{ "type": "Feature", "properties": { "value": 0.6254 }, "geometry": { "type": "Point", "coordinates": [ 129.369583, 35.492195, 10.0 ] } },
{ "type": "Feature", "properties": { "value": 0.7022 }, "geometry": { "type": "Point", "coordinates": [ 129.370682, 35.492191, 10.0 ] } },
{ "type": "Feature", "properties": { "value": 0.7892 }, "geometry": { "type": "Point", "coordinates": [ 129.37178, 35.492188, 10.0 ] } },
{ "type": "Feature", "properties": { "value": 0.8889 }, "geometry": { "type": "Point", "coordinates": [ 129.372879, 35.492184, 10.0 ] } },
{ "type": "Feature", "properties": { "value": 0.99 }, "geometry": { "type": "Point", "coordinates": [ 129.373978, 35.49218, 10.0 ] } },
{ "type": "Feature", "properties": { "value": 1.0951 }, "geometry": { "type": "Point", "coordinates": [ 129.375092, 35.49218, 10.0 ] } },
{ "type": "Feature", "properties": { "value": 1.1806 }, "geometry": { "type": "Point", "coordinates": [ 129.37619, 35.492176, 10.0 ] } },
{ "type": "Feature", "properties": { "value": 1.2439 }, "geometry": { "type": "Point", "coordinates": [ 129.377289, 35.492172, 10.0 ] } },
{ "type": "Feature", "properties": { "value": 1.2648 }, "geometry": { "type": "Point", "coordinates": [ 129.378387, 35.492168, 10.0 ] } },
{ "type": "Feature", "properties": { "value": 1.2353 }, "geometry": { "type": "Point", "coordinates": [ 129.379501, 35.492165, 10.0 ] } },
{ "type": "Feature", "properties": { "value": 1.1577 }, "geometry": { "type": "Point", "coordinates": [ 129.3806, 35.492161, 10.0 ] } },
{ "type": "Feature", "properties": { "value": 1.0325 }, "geometry": { "type": "Point", "coordinates": [ 129.381699, 35.492157, 10.0 ] } },
{ "type": "Feature", "properties": { "value": 0.3726 }, "geometry": { "type": "Point", "coordinates": [ 129.33873, 35.493187, 10.0 ] } },
{ "type": "Feature", "properties": { "value": 1.2703 }, "geometry": { "type": "Point", "coordinates": [ 129.339828, 35.493183, 10.0 ] } },
{ "type": "Feature", "properties": { "value": 2.9943 }, "geometry": { "type": "Point", "coordinates": [ 129.340927, 35.493179, 10.0 ] } },
{ "type": "Feature", "properties": { "value": 5.7582 }, "geometry": { "type": "Point", "coordinates": [ 129.342026, 35.493179, 10.0 ] } },
{ "type": "Feature", "properties": { "value": 9.3362 }, "geometry": { "type": "Point", "coordinates": [ 129.343124, 35.493176, 10.0 ] } },
{ "type": "Feature", "properties": { "value": 13.049 }, "geometry": { "type": "Point", "coordinates": [ 129.344238, 35.493172, 10.0 ] } },
{ "type": "Feature", "properties": { "value": 16.082 }, "geometry": { "type": "Point", "coordinates": [ 129.345337, 35.493168, 10.0 ] } },
{ "type": "Feature", "properties": { "value": 17.785 }, "geometry": { "type": "Point", "coordinates": [ 129.346436, 35.493164, 10.0 ] } },
{ "type": "Feature", "properties": { "value": 17.923 }, "geometry": { "type": "Point", "coordinates": [ 129.347534, 35.49316, 10.0 ] } },
{ "type": "Feature", "properties": { "value": 16.679 }, "geometry": { "type": "Point", "coordinates": [ 129.348648, 35.49316, 10.0 ] } },
{ "type": "Feature", "properties": { "value": 14.59 }, "geometry": { "type": "Point", "coordinates": [ 129.349747, 35.493156, 10.0 ] } },
{ "type": "Feature", "properties": { "value": 12.166 }, "geometry": { "type": "Point", "coordinates": [ 129.350845, 35.493153, 10.0 ] } },
{ "type": "Feature", "properties": { "value": 9.811 }, "geometry": { "type": "Point", "coordinates": [ 129.351944, 35.493149, 10.0 ] } },
{ "type": "Feature", "properties": { "value": 7.7709 }, "geometry": { "type": "Point", "coordinates": [ 129.353043, 35.493145, 10.0 ] } },
{ "type": "Feature", "properties": { "value": 6.1065 }, "geometry": { "type": "Point", "coordinates": [ 129.354156, 35.493141, 10.0 ] } },
{ "type": "Feature", "properties": { "value": 4.7944 }, "geometry": { "type": "Point", "coordinates": [ 129.355255, 35.493141, 10.0 ] } },
{ "type": "Feature", "properties": { "value": 3.7907 }, "geometry": { "type": "Point", "coordinates": [ 129.356354, 35.493137, 10.0 ] } },
{ "type": "Feature", "properties": { "value": 3.0346 }, "geometry": { "type": "Point", "coordinates": [ 129.357452, 35.493134, 10.0 ] } },
{ "type": "Feature", "properties": { "value": 2.4741 }, "geometry": { "type": "Point", "coordinates": [ 129.358566, 35.49313, 10.0 ] } },
{ "type": "Feature", "properties": { "value": 2.065 }, "geometry": { "type": "Point", "coordinates": [ 129.359665, 35.493126, 10.0 ] } },
{ "type": "Feature", "properties": { "value": 1.7549 }, "geometry": { "type": "Point", "coordinates": [ 129.360764, 35.493122, 10.0 ] } },
{ "type": "Feature", "properties": { "value": 1.5245 }, "geometry": { "type": "Point", "coordinates": [ 129.361862, 35.493118, 10.0 ] } },
{ "type": "Feature", "properties": { "value": 1.356 }, "geometry": { "type": "Point", "coordinates": [ 129.362961, 35.493118, 10.0 ] } },
{ "type": "Feature", "properties": { "value": 1.2389 }, "geometry": { "type": "Point", "coordinates": [ 129.364075, 35.493114, 10.0 ] } },
{ "type": "Feature", "properties": { "value": 1.1735 }, "geometry": { "type": "Point", "coordinates": [ 129.365173, 35.493111, 10.0 ] } },
{ "type": "Feature", "properties": { "value": 1.1411 }, "geometry": { "type": "Point", "coordinates": [ 129.366272, 35.493107, 10.0 ] } },
{ "type": "Feature", "properties": { "value": 1.1428 }, "geometry": { "type": "Point", "coordinates": [ 129.367371, 35.493103, 10.0 ] } },
{ "type": "Feature", "properties": { "value": 1.1765 }, "geometry": { "type": "Point", "coordinates": [ 129.368484, 35.493099, 10.0 ] } },
{ "type": "Feature", "properties": { "value": 1.2384 }, "geometry": { "type": "Point", "coordinates": [ 129.369583, 35.493095, 10.0 ] } },
{ "type": "Feature", "properties": { "value": 1.3374 }, "geometry": { "type": "Point", "coordinates": [ 129.370682, 35.493092, 10.0 ] } },
{ "type": "Feature", "properties": { "value": 1.4496 }, "geometry": { "type": "Point", "coordinates": [ 129.37178, 35.493088, 10.0 ] } },
{ "type": "Feature", "properties": { "value": 1.5762 }, "geometry": { "type": "Point", "coordinates": [ 129.372894, 35.493088, 10.0 ] } },
{ "type": "Feature", "properties": { "value": 1.716 }, "geometry": { "type": "Point", "coordinates": [ 129.373993, 35.493084, 10.0 ] } },
{ "type": "Feature", "properties": { "value": 1.8426 }, "geometry": { "type": "Point", "coordinates": [ 129.375092, 35.49308, 10.0 ] } },
{ "type": "Feature", "properties": { "value": 1.9495 }, "geometry": { "type": "Point", "coordinates": [ 129.37619, 35.493076, 10.0 ] } },
{ "type": "Feature", "properties": { "value": 2.0066 }, "geometry": { "type": "Point", "coordinates": [ 129.377289, 35.493073, 10.0 ] } },
{ "type": "Feature", "properties": { "value": 2.0074 }, "geometry": { "type": "Point", "coordinates": [ 129.378403, 35.493069, 10.0 ] } },
{ "type": "Feature", "properties": { "value": 1.9333 }, "geometry": { "type": "Point", "coordinates": [ 129.379501, 35.493065, 10.0 ] } },
{ "type": "Feature", "properties": { "value": 1.7842 }, "geometry": { "type": "Point", "coordinates": [ 129.3806, 35.493061, 10.0 ] } },
{ "type": "Feature", "properties": { "value": 1.5755 }, "geometry": { "type": "Point", "coordinates": [ 129.381699, 35.493057, 10.0 ] } },
{ "type": "Feature", "properties": { "value": 0.4535 }, "geometry": { "type": "Point", "coordinates": [ 129.339828, 35.494083, 10.0 ] } },
{ "type": "Feature", "properties": { "value": 1.3348 }, "geometry": { "type": "Point", "coordinates": [ 129.340927, 35.494083, 10.0 ] } },
{ "type": "Feature", "properties": { "value": 2.9331 }, "geometry": { "type": "Point", "coordinates": [ 129.342026, 35.49408, 10.0 ] } },
{ "type": "Feature", "properties": { "value": 5.3966 }, "geometry": { "type": "Point", "coordinates": [ 129.34314, 35.494076, 10.0 ] } },
{ "type": "Feature", "properties": { "value": 8.5144 }, "geometry": { "type": "Point", "coordinates": [ 129.344238, 35.494072, 10.0 ] } },
{ "type": "Feature", "properties": { "value": 11.78 }, "geometry": { "type": "Point", "coordinates": [ 129.345337, 35.494068, 10.0 ] } },
{ "type": "Feature", "properties": { "value": 14.534 }, "geometry": { "type": "Point", "coordinates": [ 129.346436, 35.494068, 10.0 ] } },
{ "type": "Feature", "properties": { "value": 16.297 }, "geometry": { "type": "Point", "coordinates": [ 129.347549, 35.494064, 10.0 ] } },
{ "type": "Feature", "properties": { "value": 16.871 }, "geometry": { "type": "Point", "coordinates": [ 129.348648, 35.494061, 10.0 ] } },
{ "type": "Feature", "properties": { "value": 16.246 }, "geometry": { "type": "Point", "coordinates": [ 129.349747, 35.494057, 10.0 ] } },
{ "type": "Feature", "properties": { "value": 14.811 }, "geometry": { "type": "Point", "coordinates": [ 129.350845, 35.494053, 10.0 ] } },
{ "type": "Feature", "properties": { "value": 13.002 }, "geometry": { "type": "Point", "coordinates": [ 129.351959, 35.494049, 10.0 ] } },
{ "type": "Feature", "properties": { "value": 11.051 }, "geometry": { "type": "Point", "coordinates": [ 129.353058, 35.494049, 10.0 ] } },
{ "type": "Feature", "properties": { "value": 9.2398 }, "geometry": { "type": "Point", "coordinates": [ 129.354156, 35.494045, 10.0 ] } },
{ "type": "Feature", "properties": { "value": 7.6675 }, "geometry": { "type": "Point", "coordinates": [ 129.355255, 35.494041, 10.0 ] } },
{ "type": "Feature", "properties": { "value": 6.3522 }, "geometry": { "type": "Point", "coordinates": [ 129.356354, 35.494038, 10.0 ] } },
{ "type": "Feature", "properties": { "value": 5.2934 }, "geometry": { "type": "Point", "coordinates": [ 129.357468, 35.494034, 10.0 ] } },
{ "type": "Feature", "properties": { "value": 4.4568 }, "geometry": { "type": "Point", "coordinates": [ 129.358566, 35.49403, 10.0 ] } },
{ "type": "Feature", "properties": { "value": 3.8101 }, "geometry": { "type": "Point", "coordinates": [ 129.359665, 35.494026, 10.0 ] } },
{ "type": "Feature", "properties": { "value": 3.3042 }, "geometry": { "type": "Point", "coordinates": [ 129.360764, 35.494026, 10.0 ] } },
{ "type": "Feature", "properties": { "value": 2.9035 }, "geometry": { "type": "Point", "coordinates": [ 129.361877, 35.494022, 10.0 ] } },
{ "type": "Feature", "properties": { "value": 2.5984 }, "geometry": { "type": "Point", "coordinates": [ 129.362976, 35.494019, 10.0 ] } },
{ "type": "Feature", "properties": { "value": 2.3782 }, "geometry": { "type": "Point", "coordinates": [ 129.364075, 35.494015, 10.0 ] } },
{ "type": "Feature", "properties": { "value": 2.2307 }, "geometry": { "type": "Point", "coordinates": [ 129.365173, 35.494011, 10.0 ] } },
{ "type": "Feature", "properties": { "value": 2.1483 }, "geometry": { "type": "Point", "coordinates": [ 129.366272, 35.494007, 10.0 ] } },
{ "type": "Feature", "properties": { "value": 2.1149 }, "geometry": { "type": "Point", "coordinates": [ 129.367386, 35.494003, 10.0 ] } },
{ "type": "Feature", "properties": { "value": 2.1335 }, "geometry": { "type": "Point", "coordinates": [ 129.368484, 35.493999, 10.0 ] } },
{ "type": "Feature", "properties": { "value": 2.1975 }, "geometry": { "type": "Point", "coordinates": [ 129.369583, 35.493999, 10.0 ] } },
{ "type": "Feature", "properties": { "value": 2.2979 }, "geometry": { "type": "Point", "coordinates": [ 129.370682, 35.493996, 10.0 ] } },
{ "type": "Feature", "properties": { "value": 2.4242 }, "geometry": { "type": "Point", "coordinates": [ 129.371796, 35.493992, 10.0 ] } },
{ "type": "Feature", "properties": { "value": 2.5777 }, "geometry": { "type": "Point", "coordinates": [ 129.372894, 35.493988, 10.0 ] } },
{ "type": "Feature", "properties": { "value": 2.73 }, "geometry": { "type": "Point", "coordinates": [ 129.373993, 35.493984, 10.0 ] } },
{ "type": "Feature", "properties": { "value": 2.8682 }, "geometry": { "type": "Point", "coordinates": [ 129.375092, 35.49398, 10.0 ] } },
{ "type": "Feature", "properties": { "value": 2.9686 }, "geometry": { "type": "Point", "coordinates": [ 129.37619, 35.493977, 10.0 ] } },
{ "type": "Feature", "properties": { "value": 2.9998 }, "geometry": { "type": "Point", "coordinates": [ 129.377304, 35.493973, 10.0 ] } },
{ "type": "Feature", "properties": { "value": 2.9509 }, "geometry": { "type": "Point", "coordinates": [ 129.378403, 35.493969, 10.0 ] } },
{ "type": "Feature", "properties": { "value": 2.7996 }, "geometry": { "type": "Point", "coordinates": [ 129.379501, 35.493965, 10.0 ] } },
{ "type": "Feature", "properties": { "value": 2.5536 }, "geometry": { "type": "Point", "coordinates": [ 129.3806, 35.493965, 10.0 ] } },
{ "type": "Feature", "properties": { "value": 2.2294 }, "geometry": { "type": "Point", "coordinates": [ 129.381714, 35.493961, 10.0 ] } },
{ "type": "Feature", "properties": { "value": 0.5031 }, "geometry": { "type": "Point", "coordinates": [ 129.340942, 35.494984, 10.0 ] } },
{ "type": "Feature", "properties": { "value": 1.3129 }, "geometry": { "type": "Point", "coordinates": [ 129.342041, 35.49498, 10.0 ] } },
{ "type": "Feature", "properties": { "value": 2.7548 }, "geometry": { "type": "Point", "coordinates": [ 129.34314, 35.494976, 10.0 ] } },
{ "type": "Feature", "properties": { "value": 4.8834 }, "geometry": { "type": "Point", "coordinates": [ 129.344238, 35.494972, 10.0 ] } },
{ "type": "Feature", "properties": { "value": 7.5713 }, "geometry": { "type": "Point", "coordinates": [ 129.345337, 35.494972, 10.0 ] } },
{ "type": "Feature", "properties": { "value": 10.384 }, "geometry": { "type": "Point", "coordinates": [ 129.346451, 35.494968, 10.0 ] } },
{ "type": "Feature", "properties": { "value": 12.913 }, "geometry": { "type": "Point", "coordinates": [ 129.347549, 35.494965, 10.0 ] } },
{ "type": "Feature", "properties": { "value": 14.772 }, "geometry": { "type": "Point", "coordinates": [ 129.348648, 35.494961, 10.0 ] } },
{ "type": "Feature", "properties": { "value": 15.595 }, "geometry": { "type": "Point", "coordinates": [ 129.349747, 35.494957, 10.0 ] } },
{ "type": "Feature", "properties": { "value": 15.496 }, "geometry": { "type": "Point", "coordinates": [ 129.350861, 35.494953, 10.0 ] } },
{ "type": "Feature", "properties": { "value": 14.718 }, "geometry": { "type": "Point", "coordinates": [ 129.351959, 35.494953, 10.0 ] } },
{ "type": "Feature", "properties": { "value": 13.427 }, "geometry": { "type": "Point", "coordinates": [ 129.353058, 35.494949, 10.0 ] } },
{ "type": "Feature", "properties": { "value": 11.957 }, "geometry": { "type": "Point", "coordinates": [ 129.354156, 35.494946, 10.0 ] } },
{ "type": "Feature", "properties": { "value": 10.497 }, "geometry": { "type": "Point", "coordinates": [ 129.355255, 35.494942, 10.0 ] } },
{ "type": "Feature", "properties": { "value": 9.1437 }, "geometry": { "type": "Point", "coordinates": [ 129.356369, 35.494938, 10.0 ] } },
{ "type": "Feature", "properties": { "value": 7.946 }, "geometry": { "type": "Point", "coordinates": [ 129.357468, 35.494934, 10.0 ] } },
{ "type": "Feature", "properties": { "value": 6.9265 }, "geometry": { "type": "Point", "coordinates": [ 129.358566, 35.494934, 10.0 ] } },
{ "type": "Feature", "properties": { "value": 6.0803 }, "geometry": { "type": "Point", "coordinates": [ 129.359665, 35.49493, 10.0 ] } },
{ "type": "Feature", "properties": { "value": 5.3802 }, "geometry": { "type": "Point", "coordinates": [ 129.360779, 35.494926, 10.0 ] } },
{ "type": "Feature", "properties": { "value": 4.8023 }, "geometry": { "type": "Point", "coordinates": [ 129.361877, 35.494923, 10.0 ] } },
{ "type": "Feature", "properties": { "value": 4.3437 }, "geometry": { "type": "Point", "coordinates": [ 129.362976, 35.494919, 10.0 ] } },
{ "type": "Feature", "properties": { "value": 3.9949 }, "geometry": { "type": "Point", "coordinates": [ 129.364075, 35.494915, 10.0 ] } },
{ "type": "Feature", "properties": { "value": 3.7504 }, "geometry": { "type": "Point", "coordinates": [ 129.365173, 35.494911, 10.0 ] } },
{ "type": "Feature", "properties": { "value": 3.5846 }, "geometry": { "type": "Point", "coordinates": [ 129.366287, 35.494907, 10.0 ] } },
{ "type": "Feature", "properties": { "value": 3.492 }, "geometry": { "type": "Point", "coordinates": [ 129.367386, 35.494907, 10.0 ] } },
{ "type": "Feature", "properties": { "value": 3.4668 }, "geometry": { "type": "Point", "coordinates": [ 129.368484, 35.494904, 10.0 ] } },
{ "type": "Feature", "properties": { "value": 3.5045 }, "geometry": { "type": "Point", "coordinates": [ 129.369583, 35.4949, 10.0 ] } },
{ "type": "Feature", "properties": { "value": 3.5893 }, "geometry": { "type": "Point", "coordinates": [ 129.370697, 35.494896, 10.0 ] } },
{ "type": "Feature", "properties": { "value": 3.7076 }, "geometry": { "type": "Point", "coordinates": [ 129.371796, 35.494892, 10.0 ] } },
{ "type": "Feature", "properties": { "value": 3.8548 }, "geometry": { "type": "Point", "coordinates": [ 129.372894, 35.494888, 10.0 ] } },
{ "type": "Feature", "properties": { "value": 3.9972 }, "geometry": { "type": "Point", "coordinates": [ 129.373993, 35.494884, 10.0 ] } },
{ "type": "Feature", "properties": { "value": 4.1149 }, "geometry": { "type": "Point", "coordinates": [ 129.375107, 35.494881, 10.0 ] } },
{ "type": "Feature", "properties": { "value": 4.178 }, "geometry": { "type": "Point", "coordinates": [ 129.376205, 35.494877, 10.0 ] } },
{ "type": "Feature", "properties": { "value": 4.1527 }, "geometry": { "type": "Point", "coordinates": [ 129.377304, 35.494877, 10.0 ] } },
{ "type": "Feature", "properties": { "value": 4.0191 }, "geometry": { "type": "Point", "coordinates": [ 129.378403, 35.494873, 10.0 ] } },
{ "type": "Feature", "properties": { "value": 3.7625 }, "geometry": { "type": "Point", "coordinates": [ 129.379501, 35.494869, 10.0 ] } },
{ "type": "Feature", "properties": { "value": 3.3915 }, "geometry": { "type": "Point", "coordinates": [ 129.380615, 35.494865, 10.0 ] } },
{ "type": "Feature", "properties": { "value": 2.9261 }, "geometry": { "type": "Point", "coordinates": [ 129.381714, 35.494862, 10.0 ] } },
{ "type": "Feature", "properties": { "value": 0.0574 }, "geometry": { "type": "Point", "coordinates": [ 129.340942, 35.495884, 10.0 ] } },
{ "type": "Feature", "properties": { "value": 0.4974 }, "geometry": { "type": "Point", "coordinates": [ 129.342041, 35.49588, 10.0 ] } },
{ "type": "Feature", "properties": { "value": 1.2343 }, "geometry": { "type": "Point", "coordinates": [ 129.34314, 35.49588, 10.0 ] } },
{ "type": "Feature", "properties": { "value": 2.4615 }, "geometry": { "type": "Point", "coordinates": [ 129.344238, 35.495876, 10.0 ] } },
{ "type": "Feature", "properties": { "value": 4.2573 }, "geometry": { "type": "Point", "coordinates": [ 129.345352, 35.495872, 10.0 ] } },
{ "type": "Feature", "properties": { "value": 6.4766 }, "geometry": { "type": "Point", "coordinates": [ 129.346451, 35.495869, 10.0 ] } },
{ "type": "Feature", "properties": { "value": 8.8843 }, "geometry": { "type": "Point", "coordinates": [ 129.347549, 35.495865, 10.0 ] } },
{ "type": "Feature", "properties": { "value": 11.171 }, "geometry": { "type": "Point", "coordinates": [ 129.348648, 35.495861, 10.0 ] } },
{ "type": "Feature", "properties": { "value": 12.961 }, "geometry": { "type": "Point", "coordinates": [ 129.349762, 35.495861, 10.0 ] } },
{ "type": "Feature", "properties": { "value": 14.007 }, "geometry": { "type": "Point", "coordinates": [ 129.350861, 35.495857, 10.0 ] } },
{ "type": "Feature", "properties": { "value": 14.284 }, "geometry": { "type": "Point", "coordinates": [ 129.351959, 35.495853, 10.0 ] } },
{ "type": "Feature", "properties": { "value": 13.978 }, "geometry": { "type": "Point", "coordinates": [ 129.353058, 35.49585, 10.0 ] } },
{ "type": "Feature", "properties": { "value": 13.289 }, "geometry": { "type": "Point", "coordinates": [ 129.354156, 35.495846, 10.0 ] } },
{ "type": "Feature", "properties": { "value": 12.366 }, "geometry": { "type": "Point", "coordinates": [ 129.35527, 35.495842, 10.0 ] } },
{ "type": "Feature", "properties": { "value": 11.344 }, "geometry": { "type": "Point", "coordinates": [ 129.356369, 35.495838, 10.0 ] } },
{ "type": "Feature", "properties": { "value": 10.311 }, "geometry": { "type": "Point", "coordinates": [ 129.357468, 35.495838, 10.0 ] } },
{ "type": "Feature", "properties": { "value": 9.3261 }, "geometry": { "type": "Point", "coordinates": [ 129.358566, 35.495834, 10.0 ] } },
{ "type": "Feature", "properties": { "value": 8.4313 }, "geometry": { "type": "Point", "coordinates": [ 129.35968, 35.495831, 10.0 ] } },
{ "type": "Feature", "properties": { "value": 7.638 }, "geometry": { "type": "Point", "coordinates": [ 129.360779, 35.495827, 10.0 ] } },
{ "type": "Feature", "properties": { "value": 6.9583 }, "geometry": { "type": "Point", "coordinates": [ 129.361877, 35.495823, 10.0 ] } },
{ "type": "Feature", "properties": { "value": 6.3887 }, "geometry": { "type": "Point", "coordinates": [ 129.362976, 35.495819, 10.0 ] } },
{ "type": "Feature", "properties": { "value": 5.9286 }, "geometry": { "type": "Point", "coordinates": [ 129.36409, 35.495815, 10.0 ] } },
{ "type": "Feature", "properties": { "value": 5.5755 }, "geometry": { "type": "Point", "coordinates": [ 129.365189, 35.495815, 10.0 ] } },
{ "type": "Feature", "properties": { "value": 5.3267 }, "geometry": { "type": "Point", "coordinates": [ 129.366287, 35.495811, 10.0 ] } },
{ "type": "Feature", "properties": { "value": 5.1573 }, "geometry": { "type": "Point", "coordinates": [ 129.367386, 35.495808, 10.0 ] } },
{ "type": "Feature", "properties": { "value": 5.0705 }, "geometry": { "type": "Point", "coordinates": [ 129.368484, 35.495804, 10.0 ] } },
{ "type": "Feature", "properties": { "value": 5.0533 }, "geometry": { "type": "Point", "coordinates": [ 129.369598, 35.4958, 10.0 ] } },
{ "type": "Feature", "properties": { "value": 5.0961 }, "geometry": { "type": "Point", "coordinates": [ 129.370697, 35.495796, 10.0 ] } },
{ "type": "Feature", "properties": { "value": 5.174 }, "geometry": { "type": "Point", "coordinates": [ 129.371796, 35.495792, 10.0 ] } },
{ "type": "Feature", "properties": { "value": 5.2763 }, "geometry": { "type": "Point", "coordinates": [ 129.372894, 35.495789, 10.0 ] } },
{ "type": "Feature", "properties": { "value": 5.3762 }, "geometry": { "type": "Point", "coordinates": [ 129.374008, 35.495785, 10.0 ] } },
{ "type": "Feature", "properties": { "value": 5.4346 }, "geometry": { "type": "Point", "coordinates": [ 129.375107, 35.495785, 10.0 ] } },
{ "type": "Feature", "properties": { "value": 5.4229 }, "geometry": { "type": "Point", "coordinates": [ 129.376205, 35.495781, 10.0 ] } },
{ "type": "Feature", "properties": { "value": 5.3088 }, "geometry": { "type": "Point", "coordinates": [ 129.377304, 35.495777, 10.0 ] } },
{ "type": "Feature", "properties": { "value": 5.0637 }, "geometry": { "type": "Point", "coordinates": [ 129.378403, 35.495773, 10.0 ] } },
{ "type": "Feature", "properties": { "value": 4.6829 }, "geometry": { "type": "Point", "coordinates": [ 129.379517, 35.49577, 10.0 ] } },
{ "type": "Feature", "properties": { "value": 4.1725 }, "geometry": { "type": "Point", "coordinates": [ 129.380615, 35.495766, 10.0 ] } },
{ "type": "Feature", "properties": { "value": 3.5676 }, "geometry": { "type": "Point", "coordinates": [ 129.381714, 35.495762, 10.0 ] } },
{ "type": "Feature", "properties": { "value": 0.1062 }, "geometry": { "type": "Point", "coordinates": [ 129.342041, 35.496784, 10.0 ] } },
{ "type": "Feature", "properties": { "value": 0.4635 }, "geometry": { "type": "Point", "coordinates": [ 129.34314, 35.49678, 10.0 ] } },
{ "type": "Feature", "properties": { "value": 1.0854 }, "geometry": { "type": "Point", "coordinates": [ 129.344254, 35.496777, 10.0 ] } },
{ "type": "Feature", "properties": { "value": 2.0983 }, "geometry": { "type": "Point", "coordinates": [ 129.345352, 35.496773, 10.0 ] } },
{ "type": "Feature", "properties": { "value": 3.5214 }, "geometry": { "type": "Point", "coordinates": [ 129.346451, 35.496769, 10.0 ] } },
{ "type": "Feature", "properties": { "value": 5.326 }, "geometry": { "type": "Point", "coordinates": [ 129.347549, 35.496765, 10.0 ] } },
{ "type": "Feature", "properties": { "value": 7.3299 }, "geometry": { "type": "Point", "coordinates": [ 129.348663, 35.496765, 10.0 ] } },
{ "type": "Feature", "properties": { "value": 9.3279 }, "geometry": { "type": "Point", "coordinates": [ 129.349762, 35.496761, 10.0 ] } },
{ "type": "Feature", "properties": { "value": 10.951 }, "geometry": { "type": "Point", "coordinates": [ 129.350861, 35.496758, 10.0 ] } },
{ "type": "Feature", "properties": { "value": 12.013 }, "geometry": { "type": "Point", "coordinates": [ 129.351959, 35.496754, 10.0 ] } },
{ "type": "Feature", "properties": { "value": 12.605 }, "geometry": { "type": "Point", "coordinates": [ 129.353073, 35.49675, 10.0 ] } },
{ "type": "Feature", "properties": { "value": 12.792 }, "geometry": { "type": "Point", "coordinates": [ 129.354172, 35.496746, 10.0 ] } },
{ "type": "Feature", "properties": { "value": 12.644 }, "geometry": { "type": "Point", "coordinates": [ 129.35527, 35.496746, 10.0 ] } },
{ "type": "Feature", "properties": { "value": 12.223 }, "geometry": { "type": "Point", "coordinates": [ 129.356369, 35.496742, 10.0 ] } },
{ "type": "Feature", "properties": { "value": 11.62 }, "geometry": { "type": "Point", "coordinates": [ 129.357468, 35.496738, 10.0 ] } },
{ "type": "Feature", "properties": { "value": 10.936 }, "geometry": { "type": "Point", "coordinates": [ 129.358582, 35.496735, 10.0 ] } },
{ "type": "Feature", "properties": { "value": 10.225 }, "geometry": { "type": "Point", "coordinates": [ 129.35968, 35.496731, 10.0 ] } },
{ "type": "Feature", "properties": { "value": 9.5244 }, "geometry": { "type": "Point", "coordinates": [ 129.360779, 35.496727, 10.0 ] } },
{ "type": "Feature", "properties": { "value": 8.8695 }, "geometry": { "type": "Point", "coordinates": [ 129.361877, 35.496723, 10.0 ] } },
{ "type": "Feature", "properties": { "value": 8.2836 }, "geometry": { "type": "Point", "coordinates": [ 129.362991, 35.496723, 10.0 ] } },
{ "type": "Feature", "properties": { "value": 7.7821 }, "geometry": { "type": "Point", "coordinates": [ 129.36409, 35.496719, 10.0 ] } },
{ "type": "Feature", "properties": { "value": 7.3753 }, "geometry": { "type": "Point", "coordinates": [ 129.365189, 35.496716, 10.0 ] } },
{ "type": "Feature", "properties": { "value": 7.0549 }, "geometry": { "type": "Point", "coordinates": [ 129.366287, 35.496712, 10.0 ] } },
{ "type": "Feature", "properties": { "value": 6.8213 }, "geometry": { "type": "Point", "coordinates": [ 129.367386, 35.496708, 10.0 ] } },
{ "type": "Feature", "properties": { "value": 6.6659 }, "geometry": { "type": "Point", "coordinates": [ 129.3685, 35.496704, 10.0 ] } },
{ "type": "Feature", "properties": { "value": 6.5863 }, "geometry": { "type": "Point", "coordinates": [ 129.369598, 35.4967, 10.0 ] } },
{ "type": "Feature", "properties": { "value": 6.5605 }, "geometry": { "type": "Point", "coordinates": [ 129.370697, 35.496696, 10.0 ] } },
{ "type": "Feature", "properties": { "value": 6.574 }, "geometry": { "type": "Point", "coordinates": [ 129.371796, 35.496696, 10.0 ] } },
{ "type": "Feature", "properties": { "value": 6.6079 }, "geometry": { "type": "Point", "coordinates": [ 129.37291, 35.496693, 10.0 ] } },
{ "type": "Feature", "properties": { "value": 6.6262 }, "geometry": { "type": "Point", "coordinates": [ 129.374008, 35.496689, 10.0 ] } },
{ "type": "Feature", "properties": { "value": 6.6006 }, "geometry": { "type": "Point", "coordinates": [ 129.375107, 35.496685, 10.0 ] } },
{ "type": "Feature", "properties": { "value": 6.4902 }, "geometry": { "type": "Point", "coordinates": [ 129.376205, 35.496681, 10.0 ] } },
{ "type": "Feature", "properties": { "value": 6.2637 }, "geometry": { "type": "Point", "coordinates": [ 129.377319, 35.496677, 10.0 ] } },
{ "type": "Feature", "properties": { "value": 5.9009 }, "geometry": { "type": "Point", "coordinates": [ 129.378418, 35.496674, 10.0 ] } },
{ "type": "Feature", "properties": { "value": 5.393 }, "geometry": { "type": "Point", "coordinates": [ 129.379517, 35.49667, 10.0 ] } },
{ "type": "Feature", "properties": { "value": 4.7587 }, "geometry": { "type": "Point", "coordinates": [ 129.380615, 35.496666, 10.0 ] } },
{ "type": "Feature", "properties": { "value": 4.031 }, "geometry": { "type": "Point", "coordinates": [ 129.381714, 35.496662, 10.0 ] } },
{ "type": "Feature", "properties": { "value": 0.0919 }, "geometry": { "type": "Point", "coordinates": [ 129.343155, 35.497681, 10.0 ] } },
{ "type": "Feature", "properties": { "value": 0.3972 }, "geometry": { "type": "Point", "coordinates": [ 129.344254, 35.497677, 10.0 ] } },
{ "type": "Feature", "properties": { "value": 0.8832 }, "geometry": { "type": "Point", "coordinates": [ 129.345352, 35.497673, 10.0 ] } },
{ "type": "Feature", "properties": { "value": 1.6687 }, "geometry": { "type": "Point", "coordinates": [ 129.346451, 35.497673, 10.0 ] } },
{ "type": "Feature", "properties": { "value": 2.7873 }, "geometry": { "type": "Point", "coordinates": [ 129.347565, 35.497669, 10.0 ] } },
{ "type": "Feature", "properties": { "value": 4.1887 }, "geometry": { "type": "Point", "coordinates": [ 129.348663, 35.497665, 10.0 ] } },
{ "type": "Feature", "properties": { "value": 5.7917 }, "geometry": { "type": "Point", "coordinates": [ 129.349762, 35.497662, 10.0 ] } },
{ "type": "Feature", "properties": { "value": 7.3777 }, "geometry": { "type": "Point", "coordinates": [ 129.350861, 35.497658, 10.0 ] } },
{ "type": "Feature", "properties": { "value": 8.7606 }, "geometry": { "type": "Point", "coordinates": [ 129.351974, 35.497654, 10.0 ] } },
{ "type": "Feature", "properties": { "value": 9.8978 }, "geometry": { "type": "Point", "coordinates": [ 129.353073, 35.497654, 10.0 ] } },
{ "type": "Feature", "properties": { "value": 10.759 }, "geometry": { "type": "Point", "coordinates": [ 129.354172, 35.49765, 10.0 ] } },
{ "type": "Feature", "properties": { "value": 11.286 }, "geometry": { "type": "Point", "coordinates": [ 129.35527, 35.497646, 10.0 ] } },
{ "type": "Feature", "properties": { "value": 11.493 }, "geometry": { "type": "Point", "coordinates": [ 129.356369, 35.497643, 10.0 ] } },
{ "type": "Feature", "properties": { "value": 11.434 }, "geometry": { "type": "Point", "coordinates": [ 129.357483, 35.497639, 10.0 ] } },
{ "type": "Feature", "properties": { "value": 11.208 }, "geometry": { "type": "Point", "coordinates": [ 129.358582, 35.497635, 10.0 ] } },
{ "type": "Feature", "properties": { "value": 10.862 }, "geometry": { "type": "Point", "coordinates": [ 129.35968, 35.497631, 10.0 ] } },
{ "type": "Feature", "properties": { "value": 10.432 }, "geometry": { "type": "Point", "coordinates": [ 129.360779, 35.497631, 10.0 ] } },
{ "type": "Feature", "properties": { "value": 9.9618 }, "geometry": { "type": "Point", "coordinates": [ 129.361893, 35.497627, 10.0 ] } },
{ "type": "Feature", "properties": { "value": 9.497 }, "geometry": { "type": "Point", "coordinates": [ 129.362991, 35.497623, 10.0 ] } },
{ "type": "Feature", "properties": { "value": 9.0541 }, "geometry": { "type": "Point", "coordinates": [ 129.36409, 35.49762, 10.0 ] } },
{ "type": "Feature", "properties": { "value": 8.6641 }, "geometry": { "type": "Point", "coordinates": [ 129.365189, 35.497616, 10.0 ] } },
{ "type": "Feature", "properties": { "value": 8.341 }, "geometry": { "type": "Point", "coordinates": [ 129.366302, 35.497612, 10.0 ] } },
{ "type": "Feature", "properties": { "value": 8.0803 }, "geometry": { "type": "Point", "coordinates": [ 129.367401, 35.497608, 10.0 ] } },
{ "type": "Feature", "properties": { "value": 7.8842 }, "geometry": { "type": "Point", "coordinates": [ 129.3685, 35.497604, 10.0 ] } },
{ "type": "Feature", "properties": { "value": 7.7489 }, "geometry": { "type": "Point", "coordinates": [ 129.369598, 35.497604, 10.0 ] } },
{ "type": "Feature", "properties": { "value": 7.662 }, "geometry": { "type": "Point", "coordinates": [ 129.370697, 35.497601, 10.0 ] } },
{ "type": "Feature", "properties": { "value": 7.6022 }, "geometry": { "type": "Point", "coordinates": [ 129.371811, 35.497597, 10.0 ] } },
{ "type": "Feature", "properties": { "value": 7.5528 }, "geometry": { "type": "Point", "coordinates": [ 129.37291, 35.497593, 10.0 ] } },
{ "type": "Feature", "properties": { "value": 7.4835 }, "geometry": { "type": "Point", "coordinates": [ 129.374008, 35.497589, 10.0 ] } },
{ "type": "Feature", "properties": { "value": 7.361 }, "geometry": { "type": "Point", "coordinates": [ 129.375107, 35.497585, 10.0 ] } },
{ "type": "Feature", "properties": { "value": 7.148 }, "geometry": { "type": "Point", "coordinates": [ 129.376221, 35.497581, 10.0 ] } },
{ "type": "Feature", "properties": { "value": 6.8179 }, "geometry": { "type": "Point", "coordinates": [ 129.377319, 35.497578, 10.0 ] } },
{ "type": "Feature", "properties": { "value": 6.3498 }, "geometry": { "type": "Point", "coordinates": [ 129.378418, 35.497574, 10.0 ] } },
{ "type": "Feature", "properties": { "value": 5.7453 }, "geometry": { "type": "Point", "coordinates": [ 129.379517, 35.497574, 10.0 ] } },
{ "type": "Feature", "properties": { "value": 5.0226 }, "geometry": { "type": "Point", "coordinates": [ 129.380615, 35.49757, 10.0 ] } },
{ "type": "Feature", "properties": { "value": 4.2228 }, "geometry": { "type": "Point", "coordinates": [ 129.381729, 35.497566, 10.0 ] } },
{ "type": "Feature", "properties": { "value": 0.294 }, "geometry": { "type": "Point", "coordinates": [ 129.345352, 35.498577, 10.0 ] } },
{ "type": "Feature", "properties": { "value": 0.6754 }, "geometry": { "type": "Point", "coordinates": [ 129.346466, 35.498573, 10.0 ] } },
{ "type": "Feature", "properties": { "value": 1.2617 }, "geometry": { "type": "Point", "coordinates": [ 129.347565, 35.498569, 10.0 ] } },
{ "type": "Feature", "properties": { "value": 2.0773 }, "geometry": { "type": "Point", "coordinates": [ 129.348663, 35.498566, 10.0 ] } },
{ "type": "Feature", "properties": { "value": 3.1164 }, "geometry": { "type": "Point", "coordinates": [ 129.349762, 35.498562, 10.0 ] } },
{ "type": "Feature", "properties": { "value": 4.3092 }, "geometry": { "type": "Point", "coordinates": [ 129.350876, 35.498562, 10.0 ] } },
{ "type": "Feature", "properties": { "value": 5.5564 }, "geometry": { "type": "Point", "coordinates": [ 129.351974, 35.498558, 10.0 ] } },
{ "type": "Feature", "properties": { "value": 6.7846 }, "geometry": { "type": "Point", "coordinates": [ 129.353073, 35.498554, 10.0 ] } },
{ "type": "Feature", "properties": { "value": 7.8849 }, "geometry": { "type": "Point", "coordinates": [ 129.354172, 35.49855, 10.0 ] } },
{ "type": "Feature", "properties": { "value": 8.7794 }, "geometry": { "type": "Point", "coordinates": [ 129.35527, 35.498547, 10.0 ] } },
{ "type": "Feature", "properties": { "value": 9.4241 }, "geometry": { "type": "Point", "coordinates": [ 129.356384, 35.498543, 10.0 ] } },
{ "type": "Feature", "properties": { "value": 9.837 }, "geometry": { "type": "Point", "coordinates": [ 129.357483, 35.498539, 10.0 ] } },
{ "type": "Feature", "properties": { "value": 10.067 }, "geometry": { "type": "Point", "coordinates": [ 129.358582, 35.498539, 10.0 ] } },
{ "type": "Feature", "properties": { "value": 10.137 }, "geometry": { "type": "Point", "coordinates": [ 129.35968, 35.498535, 10.0 ] } },
{ "type": "Feature", "properties": { "value": 10.058 }, "geometry": { "type": "Point", "coordinates": [ 129.360794, 35.498531, 10.0 ] } },
{ "type": "Feature", "properties": { "value": 9.8762 }, "geometry": { "type": "Point", "coordinates": [ 129.361893, 35.498528, 10.0 ] } },
{ "type": "Feature", "properties": { "value": 9.6212 }, "geometry": { "type": "Point", "coordinates": [ 129.362991, 35.498524, 10.0 ] } },
{ "type": "Feature", "properties": { "value": 9.3469 }, "geometry": { "type": "Point", "coordinates": [ 129.36409, 35.49852, 10.0 ] } },
{ "type": "Feature", "properties": { "value": 9.0628 }, "geometry": { "type": "Point", "coordinates": [ 129.365204, 35.498516, 10.0 ] } },
{ "type": "Feature", "properties": { "value": 8.8047 }, "geometry": { "type": "Point", "coordinates": [ 129.366302, 35.498512, 10.0 ] } },
{ "type": "Feature", "properties": { "value": 8.578 }, "geometry": { "type": "Point", "coordinates": [ 129.367401, 35.498512, 10.0 ] } },
{ "type": "Feature", "properties": { "value": 8.383 }, "geometry": { "type": "Point", "coordinates": [ 129.3685, 35.498508, 10.0 ] } },
{ "type": "Feature", "properties": { "value": 8.2304 }, "geometry": { "type": "Point", "coordinates": [ 129.369598, 35.498505, 10.0 ] } },
{ "type": "Feature", "properties": { "value": 8.1047 }, "geometry": { "type": "Point", "coordinates": [ 129.370712, 35.498501, 10.0 ] } },
{ "type": "Feature", "properties": { "value": 7.9908 }, "geometry": { "type": "Point", "coordinates": [ 129.371811, 35.498497, 10.0 ] } },
{ "type": "Feature", "properties": { "value": 7.8748 }, "geometry": { "type": "Point", "coordinates": [ 129.37291, 35.498493, 10.0 ] } },
{ "type": "Feature", "properties": { "value": 7.7304 }, "geometry": { "type": "Point", "coordinates": [ 129.374008, 35.498489, 10.0 ] } },
{ "type": "Feature", "properties": { "value": 7.5285 }, "geometry": { "type": "Point", "coordinates": [ 129.375122, 35.498486, 10.0 ] } },
{ "type": "Feature", "properties": { "value": 7.2364 }, "geometry": { "type": "Point", "coordinates": [ 129.376221, 35.498482, 10.0 ] } },
{ "type": "Feature", "properties": { "value": 6.8333 }, "geometry": { "type": "Point", "coordinates": [ 129.377319, 35.498482, 10.0 ] } },
{ "type": "Feature", "properties": { "value": 6.3032 }, "geometry": { "type": "Point", "coordinates": [ 129.378418, 35.498478, 10.0 ] } },
{ "type": "Feature", "properties": { "value": 5.6536 }, "geometry": { "type": "Point", "coordinates": [ 129.379532, 35.498474, 10.0 ] } },
{ "type": "Feature", "properties": { "value": 4.9029 }, "geometry": { "type": "Point", "coordinates": [ 129.38063, 35.49847, 10.0 ] } },
{ "type": "Feature", "properties": { "value": 4.0929 }, "geometry": { "type": "Point", "coordinates": [ 129.381729, 35.498466, 10.0 ] } },
{ "type": "Feature", "properties": { "value": 0.1976 }, "geometry": { "type": "Point", "coordinates": [ 129.346466, 35.499474, 10.0 ] } },
{ "type": "Feature", "properties": { "value": 0.481 }, "geometry": { "type": "Point", "coordinates": [ 129.347565, 35.49947, 10.0 ] } },
{ "type": "Feature", "properties": { "value": 0.8924 }, "geometry": { "type": "Point", "coordinates": [ 129.348663, 35.499466, 10.0 ] } },
{ "type": "Feature", "properties": { "value": 1.4707 }, "geometry": { "type": "Point", "coordinates": [ 129.349777, 35.499466, 10.0 ] } },
{ "type": "Feature", "properties": { "value": 2.2037 }, "geometry": { "type": "Point", "coordinates": [ 129.350876, 35.499462, 10.0 ] } },
{ "type": "Feature", "properties": { "value": 3.0854 }, "geometry": { "type": "Point", "coordinates": [ 129.351974, 35.499458, 10.0 ] } },
{ "type": "Feature", "properties": { "value": 4.0528 }, "geometry": { "type": "Point", "coordinates": [ 129.353073, 35.499454, 10.0 ] } },
{ "type": "Feature", "properties": { "value": 5.0231 }, "geometry": { "type": "Point", "coordinates": [ 129.354187, 35.499451, 10.0 ] } },
{ "type": "Feature", "properties": { "value": 5.9436 }, "geometry": { "type": "Point", "coordinates": [ 129.355286, 35.499447, 10.0 ] } },
{ "type": "Feature", "properties": { "value": 6.75 }, "geometry": { "type": "Point", "coordinates": [ 129.356384, 35.499447, 10.0 ] } },
{ "type": "Feature", "properties": { "value": 7.4175 }, "geometry": { "type": "Point", "coordinates": [ 129.357483, 35.499443, 10.0 ] } },
{ "type": "Feature", "properties": { "value": 7.9463 }, "geometry": { "type": "Point", "coordinates": [ 129.358582, 35.499439, 10.0 ] } },
{ "type": "Feature", "properties": { "value": 8.3239 }, "geometry": { "type": "Point", "coordinates": [ 129.359695, 35.499435, 10.0 ] } },
{ "type": "Feature", "properties": { "value": 8.5523 }, "geometry": { "type": "Point", "coordinates": [ 129.360794, 35.499432, 10.0 ] } },
{ "type": "Feature", "properties": { "value": 8.6474 }, "geometry": { "type": "Point", "coordinates": [ 129.361893, 35.499428, 10.0 ] } },
{ "type": "Feature", "properties": { "value": 8.6473 }, "geometry": { "type": "Point", "coordinates": [ 129.362991, 35.499424, 10.0 ] } },
{ "type": "Feature", "properties": { "value": 8.567 }, "geometry": { "type": "Point", "coordinates": [ 129.364105, 35.499424, 10.0 ] } },
{ "type": "Feature", "properties": { "value": 8.45 }, "geometry": { "type": "Point", "coordinates": [ 129.365204, 35.49942, 10.0 ] } },
{ "type": "Feature", "properties": { "value": 8.3041 }, "geometry": { "type": "Point", "coordinates": [ 129.366302, 35.499416, 10.0 ] } },
{ "type": "Feature", "properties": { "value": 8.1583 }, "geometry": { "type": "Point", "coordinates": [ 129.367401, 35.499413, 10.0 ] } },
{ "type": "Feature", "properties": { "value": 8.0176 }, "geometry": { "type": "Point", "coordinates": [ 129.368515, 35.499409, 10.0 ] } },
{ "type": "Feature", "properties": { "value": 7.8895 }, "geometry": { "type": "Point", "coordinates": [ 129.369614, 35.499405, 10.0 ] } },
{ "type": "Feature", "properties": { "value": 7.763 }, "geometry": { "type": "Point", "coordinates": [ 129.370712, 35.499401, 10.0 ] } },
{ "type": "Feature", "properties": { "value": 7.6287 }, "geometry": { "type": "Point", "coordinates": [ 129.371811, 35.499397, 10.0 ] } },
{ "type": "Feature", "properties": { "value": 7.4828 }, "geometry": { "type": "Point", "coordinates": [ 129.37291, 35.499393, 10.0 ] } },
{ "type": "Feature", "properties": { "value": 7.2987 }, "geometry": { "type": "Point", "coordinates": [ 129.374023, 35.499393, 10.0 ] } },
{ "type": "Feature", "properties": { "value": 7.056 }, "geometry": { "type": "Point", "coordinates": [ 129.375122, 35.49939, 10.0 ] } },
{ "type": "Feature", "properties": { "value": 6.7289 }, "geometry": { "type": "Point", "coordinates": [ 129.376221, 35.499386, 10.0 ] } },
{ "type": "Feature", "properties": { "value": 6.3036 }, "geometry": { "type": "Point", "coordinates": [ 129.377319, 35.499382, 10.0 ] } },
{ "type": "Feature", "properties": { "value": 5.7695 }, "geometry": { "type": "Point", "coordinates": [ 129.378433, 35.499378, 10.0 ] } },
{ "type": "Feature", "properties": { "value": 5.1366 }, "geometry": { "type": "Point", "coordinates": [ 129.379532, 35.499374, 10.0 ] } },
{ "type": "Feature", "properties": { "value": 4.4241 }, "geometry": { "type": "Point", "coordinates": [ 129.38063, 35.499371, 10.0 ] } },
{ "type": "Feature", "properties": { "value": 3.6713 }, "geometry": { "type": "Point", "coordinates": [ 129.381729, 35.499367, 10.0 ] } },
{ "type": "Feature", "properties": { "value": 0.1045 }, "geometry": { "type": "Point", "coordinates": [ 129.347565, 35.500374, 10.0 ] } },
{ "type": "Feature", "properties": { "value": 0.3062 }, "geometry": { "type": "Point", "coordinates": [ 129.348679, 35.50037, 10.0 ] } },
{ "type": "Feature", "properties": { "value": 0.5987 }, "geometry": { "type": "Point", "coordinates": [ 129.349777, 35.500366, 10.0 ] } },
{ "type": "Feature", "properties": { "value": 0.989 }, "geometry": { "type": "Point", "coordinates": [ 129.350876, 35.500362, 10.0 ] } },
{ "type": "Feature", "properties": { "value": 1.4974 }, "geometry": { "type": "Point", "coordinates": [ 129.351974, 35.500359, 10.0 ] } },
{ "type": "Feature", "properties": { "value": 2.1246 }, "geometry": { "type": "Point", "coordinates": [ 129.353088, 35.500355, 10.0 ] } },
{ "type": "Feature", "properties": { "value": 2.8158 }, "geometry": { "type": "Point", "coordinates": [ 129.354187, 35.500355, 10.0 ] } },
{ "type": "Feature", "properties": { "value": 3.5418 }, "geometry": { "type": "Point", "coordinates": [ 129.355286, 35.500351, 10.0 ] } },
{ "type": "Feature", "properties": { "value": 4.2519 }, "geometry": { "type": "Point", "coordinates": [ 129.356384, 35.500347, 10.0 ] } },
{ "type": "Feature", "properties": { "value": 4.9276 }, "geometry": { "type": "Point", "coordinates": [ 129.357483, 35.500343, 10.0 ] } },
{ "type": "Feature", "properties": { "value": 5.528 }, "geometry": { "type": "Point", "coordinates": [ 129.358597, 35.50034, 10.0 ] } },
{ "type": "Feature", "properties": { "value": 6.0377 }, "geometry": { "type": "Point", "coordinates": [ 129.359695, 35.500336, 10.0 ] } },
{ "type": "Feature", "properties": { "value": 6.4352 }, "geometry": { "type": "Point", "coordinates": [ 129.360794, 35.500332, 10.0 ] } },
{ "type": "Feature", "properties": { "value": 6.7141 }, "geometry": { "type": "Point", "coordinates": [ 129.361893, 35.500332, 10.0 ] } },
{ "type": "Feature", "properties": { "value": 6.8917 }, "geometry": { "type": "Point", "coordinates": [ 129.363007, 35.500328, 10.0 ] } },
{ "type": "Feature", "properties": { "value": 6.9888 }, "geometry": { "type": "Point", "coordinates": [ 129.364105, 35.500324, 10.0 ] } },
{ "type": "Feature", "properties": { "value": 7.0203 }, "geometry": { "type": "Point", "coordinates": [ 129.365204, 35.50032, 10.0 ] } },
{ "type": "Feature", "properties": { "value": 7.0081 }, "geometry": { "type": "Point", "coordinates": [ 129.366302, 35.500317, 10.0 ] } },
{ "type": "Feature", "properties": { "value": 6.9621 }, "geometry": { "type": "Point", "coordinates": [ 129.367416, 35.500313, 10.0 ] } },
{ "type": "Feature", "properties": { "value": 6.8979 }, "geometry": { "type": "Point", "coordinates": [ 129.368515, 35.500309, 10.0 ] } },
{ "type": "Feature", "properties": { "value": 6.8182 }, "geometry": { "type": "Point", "coordinates": [ 129.369614, 35.500305, 10.0 ] } },
{ "type": "Feature", "properties": { "value": 6.7293 }, "geometry": { "type": "Point", "coordinates": [ 129.370712, 35.500301, 10.0 ] } },
{ "type": "Feature", "properties": { "value": 6.6153 }, "geometry": { "type": "Point", "coordinates": [ 129.371811, 35.500301, 10.0 ] } },
{ "type": "Feature", "properties": { "value": 6.4759 }, "geometry": { "type": "Point", "coordinates": [ 129.372925, 35.500298, 10.0 ] } },
{ "type": "Feature", "properties": { "value": 6.2936 }, "geometry": { "type": "Point", "coordinates": [ 129.374023, 35.500294, 10.0 ] } },
{ "type": "Feature", "properties": { "value": 6.0518 }, "geometry": { "type": "Point", "coordinates": [ 129.375122, 35.50029, 10.0 ] } },
{ "type": "Feature", "properties": { "value": 5.7431 }, "geometry": { "type": "Point", "coordinates": [ 129.376221, 35.500286, 10.0 ] } },
{ "type": "Feature", "properties": { "value": 5.3448 }, "geometry": { "type": "Point", "coordinates": [ 129.377335, 35.500282, 10.0 ] } },
{ "type": "Feature", "properties": { "value": 4.8633 }, "geometry": { "type": "Point", "coordinates": [ 129.378433, 35.500278, 10.0 ] } },
{ "type": "Feature", "properties": { "value": 4.3031 }, "geometry": { "type": "Point", "coordinates": [ 129.379532, 35.500275, 10.0 ] } },
{ "type": "Feature", "properties": { "value": 3.687 }, "geometry": { "type": "Point", "coordinates": [ 129.38063, 35.500271, 10.0 ] } },
{ "type": "Feature", "properties": { "value": 3.044 }, "geometry": { "type": "Point", "coordinates": [ 129.381744, 35.500267, 10.0 ] } },
{ "type": "Feature", "properties": { "value": 0.1711 }, "geometry": { "type": "Point", "coordinates": [ 129.349777, 35.501266, 10.0 ] } },
{ "type": "Feature", "properties": { "value": 0.3692 }, "geometry": { "type": "Point", "coordinates": [ 129.350876, 35.501263, 10.0 ] } },
{ "type": "Feature", "properties": { "value": 0.6302 }, "geometry": { "type": "Point", "coordinates": [ 129.35199, 35.501259, 10.0 ] } },
{ "type": "Feature", "properties": { "value": 0.9679 }, "geometry": { "type": "Point", "coordinates": [ 129.353088, 35.501259, 10.0 ] } },
{ "type": "Feature", "properties": { "value": 1.3855 }, "geometry": { "type": "Point", "coordinates": [ 129.354187, 35.501255, 10.0 ] } },
{ "type": "Feature", "properties": { "value": 1.8634 }, "geometry": { "type": "Point", "coordinates": [ 129.355286, 35.501251, 10.0 ] } },
{ "type": "Feature", "properties": { "value": 2.3738 }, "geometry": { "type": "Point", "coordinates": [ 129.3564, 35.501247, 10.0 ] } },
{ "type": "Feature", "properties": { "value": 2.9037 }, "geometry": { "type": "Point", "coordinates": [ 129.357498, 35.501244, 10.0 ] } },
{ "type": "Feature", "properties": { "value": 3.4265 }, "geometry": { "type": "Point", "coordinates": [ 129.358597, 35.50124, 10.0 ] } },
{ "type": "Feature", "properties": { "value": 3.9079 }, "geometry": { "type": "Point", "coordinates": [ 129.359695, 35.50124, 10.0 ] } },
{ "type": "Feature", "properties": { "value": 4.3178 }, "geometry": { "type": "Point", "coordinates": [ 129.360794, 35.501236, 10.0 ] } },
{ "type": "Feature", "properties": { "value": 4.636 }, "geometry": { "type": "Point", "coordinates": [ 129.361908, 35.501232, 10.0 ] } },
{ "type": "Feature", "properties": { "value": 4.8903 }, "geometry": { "type": "Point", "coordinates": [ 129.363007, 35.501228, 10.0 ] } },
{ "type": "Feature", "properties": { "value": 5.0809 }, "geometry": { "type": "Point", "coordinates": [ 129.364105, 35.501225, 10.0 ] } },
{ "type": "Feature", "properties": { "value": 5.2067 }, "geometry": { "type": "Point", "coordinates": [ 129.365204, 35.501221, 10.0 ] } },
{ "type": "Feature", "properties": { "value": 5.2905 }, "geometry": { "type": "Point", "coordinates": [ 129.366318, 35.501217, 10.0 ] } },
{ "type": "Feature", "properties": { "value": 5.3261 }, "geometry": { "type": "Point", "coordinates": [ 129.367416, 35.501213, 10.0 ] } },
{ "type": "Feature", "properties": { "value": 5.3374 }, "geometry": { "type": "Point", "coordinates": [ 129.368515, 35.501213, 10.0 ] } },
{ "type": "Feature", "properties": { "value": 5.319 }, "geometry": { "type": "Point", "coordinates": [ 129.369614, 35.501209, 10.0 ] } },
{ "type": "Feature", "properties": { "value": 5.2756 }, "geometry": { "type": "Point", "coordinates": [ 129.370728, 35.501205, 10.0 ] } },
{ "type": "Feature", "properties": { "value": 5.2041 }, "geometry": { "type": "Point", "coordinates": [ 129.371826, 35.501202, 10.0 ] } },
{ "type": "Feature", "properties": { "value": 5.0995 }, "geometry": { "type": "Point", "coordinates": [ 129.372925, 35.501198, 10.0 ] } },
{ "type": "Feature", "properties": { "value": 4.9529 }, "geometry": { "type": "Point", "coordinates": [ 129.374023, 35.501194, 10.0 ] } },
{ "type": "Feature", "properties": { "value": 4.7533 }, "geometry": { "type": "Point", "coordinates": [ 129.375122, 35.50119, 10.0 ] } },
{ "type": "Feature", "properties": { "value": 4.4947 }, "geometry": { "type": "Point", "coordinates": [ 129.376236, 35.501186, 10.0 ] } },
{ "type": "Feature", "properties": { "value": 4.1679 }, "geometry": { "type": "Point", "coordinates": [ 129.377335, 35.501183, 10.0 ] } },
{ "type": "Feature", "properties": { "value": 3.7764 }, "geometry": { "type": "Point", "coordinates": [ 129.378433, 35.501179, 10.0 ] } },
{ "type": "Feature", "properties": { "value": 3.325 }, "geometry": { "type": "Point", "coordinates": [ 129.379532, 35.501179, 10.0 ] } },
{ "type": "Feature", "properties": { "value": 2.8367 }, "geometry": { "type": "Point", "coordinates": [ 129.380646, 35.501175, 10.0 ] } },
{ "type": "Feature", "properties": { "value": 2.333 }, "geometry": { "type": "Point", "coordinates": [ 129.381744, 35.501171, 10.0 ] } }
]
}
