{
"type": "FeatureCollection",
"features": [
{ "type": "Feature", "properties": { "value": 0.0 }, "geometry": { "type": "Point", "coordinates": [ 129.328705, 35.467979, 225.0 ] } },
{ "type": "Feature", "properties": { "value": 0.0 }, "geometry": { "type": "Point", "coordinates": [ 129.329803, 35.467976, 225.0 ] } },
{ "type": "Feature", "properties": { "value": 0.0 }, "geometry": { "type": "Point", "coordinates": [ 129.327606, 35.468884, 225.0 ] } },
{ "type": "Feature", "properties": { "value": 0.0 }, "geometry": { "type": "Point", "coordinates": [ 129.328705, 35.46888, 225.0 ] } },
{ "type": "Feature", "properties": { "value": 0.0 }, "geometry": { "type": "Point", "coordinates": [ 129.329803, 35.468876, 225.0 ] } },
{ "type": "Feature", "properties": { "value": 0.0 }, "geometry": { "type": "Point", "coordinates": [ 129.327606, 35.469784, 225.0 ] } },
{ "type": "Feature", "properties": { "value": 0.0 }, "geometry": { "type": "Point", "coordinates": [ 129.328705, 35.46978, 225.0 ] } },
{ "type": "Feature", "properties": { "value": 0.0 }, "geometry": { "type": "Point", "coordinates": [ 129.329819, 35.469776, 225.0 ] } },
{ "type": "Feature", "properties": { "value": 0.0 }, "geometry": { "type": "Point", "coordinates": [ 129.327606, 35.470684, 225.0 ] } },
{ "type": "Feature", "properties": { "value": 0.0 }, "geometry": { "type": "Point", "coordinates": [ 129.32872, 35.470684, 225.0 ] } },
{ "type": "Feature", "properties": { "value": 0.0 }, "geometry": { "type": "Point", "coordinates": [ 129.329819, 35.47068, 225.0 ] } },
{ "type": "Feature", "properties": { "value": 0.0 }, "geometry": { "type": "Point", "coordinates": [ 129.329819, 35.473385, 225.0 ] } },
{ "type": "Feature", "properties": { "value": 0.0 }, "geometry": { "type": "Point", "coordinates": [ 129.330933, 35.473381, 225.0 ] } },
{ "type": "Feature", "properties": { "value": 0.0 }, "geometry": { "type": "Point", "coordinates": [ 129.332031, 35.473377, 225.0 ] } },
{ "type": "Feature", "properties": { "value": 0.0 }, "geometry": { "type": "Point", "coordinates": [ 129.328735, 35.474289, 225.0 ] } },
{ "type": "Feature", "properties": { "value": 0.0 }, "geometry": { "type": "Point", "coordinates": [ 129.329834, 35.474285, 225.0 ] } },
{ "type": "Feature", "properties": { "value": 0.0 }, "geometry": { "type": "Point", "coordinates": [ 129.330933, 35.474281, 225.0 ] } },
{ "type": "Feature", "properties": { "value": 0.0 }, "geometry": { "type": "Point", "coordinates": [ 129.332031, 35.474277, 225.0 ] } },
{ "type": "Feature", "properties": { "value": 0.0 }, "geometry": { "type": "Point", "coordinates": [ 129.328735, 35.475189, 225.0 ] } },
{ "type": "Feature", "properties": { "value": 0.0 }, "geometry": { "type": "Point", "coordinates": [ 129.329834, 35.475185, 225.0 ] } },
{ "type": "Feature", "properties": { "value": 0.0003 }, "geometry": { "type": "Point", "coordinates": [ 129.330933, 35.475182, 225.0 ] } },
{ "type": "Feature", "properties": { "value": 0.0002 }, "geometry": { "type": "Point", "coordinates": [ 129.332031, 35.475178, 225.0 ] } },
{ "type": "Feature", "properties": { "value": 0.0 }, "geometry": { "type": "Point", "coordinates": [ 129.328735, 35.476089, 225.0 ] } },
{ "type": "Feature", "properties": { "value": 0.0002 }, "geometry": { "type": "Point", "coordinates": [ 129.329834, 35.476086, 225.0 ] } },
{ "type": "Feature", "properties": { "value": 0.0018 }, "geometry": { "type": "Point", "coordinates": [ 129.330933, 35.476086, 225.0 ] } },
{ "type": "Feature", "properties": { "value": 0.0013 }, "geometry": { "type": "Point", "coordinates": [ 129.332047, 35.476082, 225.0 ] } },
{ "type": "Feature", "properties": { "value": 0.0001 }, "geometry": { "type": "Point", "coordinates": [ 129.333145, 35.476078, 225.0 ] } },
{ "type": "Feature", "properties": { "value": 0.0 }, "geometry": { "type": "Point", "coordinates": [ 129.328735, 35.47699, 225.0 ] } },
{ "type": "Feature", "properties": { "value": 0.0006 }, "geometry": { "type": "Point", "coordinates": [ 129.329834, 35.47699, 225.0 ] } },
{ "type": "Feature", "properties": { "value": 0.0058 }, "geometry": { "type": "Point", "coordinates": [ 129.330948, 35.476986, 225.0 ] } },
{ "type": "Feature", "properties": { "value": 0.0057 }, "geometry": { "type": "Point", "coordinates": [ 129.332047, 35.476982, 225.0 ] } },
{ "type": "Feature", "properties": { "value": 0.001 }, "geometry": { "type": "Point", "coordinates": [ 129.333145, 35.476978, 225.0 ] } },
{ "type": "Feature", "properties": { "value": 0.0015 }, "geometry": { "type": "Point", "coordinates": [ 129.329849, 35.47789, 225.0 ] } },
{ "type": "Feature", "properties": { "value": 0.0113 }, "geometry": { "type": "Point", "coordinates": [ 129.330948, 35.477886, 225.0 ] } },
{ "type": "Feature", "properties": { "value": 0.0149 }, "geometry": { "type": "Point", "coordinates": [ 129.332047, 35.477882, 225.0 ] } },
{ "type": "Feature", "properties": { "value": 0.0045 }, "geometry": { "type": "Point", "coordinates": [ 129.333145, 35.477879, 225.0 ] } },
{ "type": "Feature", "properties": { "value": 0.0001 }, "geometry": { "type": "Point", "coordinates": [ 129.334259, 35.477879, 225.0 ] } },
{ "type": "Feature", "properties": { "value": 0.0019 }, "geometry": { "type": "Point", "coordinates": [ 129.329849, 35.47879, 225.0 ] } },
{ "type": "Feature", "properties": { "value": 0.0167 }, "geometry": { "type": "Point", "coordinates": [ 129.330948, 35.478786, 225.0 ] } },
{ "type": "Feature", "properties": { "value": 0.0315 }, "geometry": { "type": "Point", "coordinates": [ 129.332047, 35.478786, 225.0 ] } },
{ "type": "Feature", "properties": { "value": 0.0156 }, "geometry": { "type": "Point", "coordinates": [ 129.33316, 35.478783, 225.0 ] } },
{ "type": "Feature", "properties": { "value": 0.0021 }, "geometry": { "type": "Point", "coordinates": [ 129.334259, 35.478779, 225.0 ] } },
{ "type": "Feature", "properties": { "value": 0.0015 }, "geometry": { "type": "Point", "coordinates": [ 129.329849, 35.479691, 225.0 ] } },
{ "type": "Feature", "properties": { "value": 0.0191 }, "geometry": { "type": "Point", "coordinates": [ 129.330948, 35.479691, 225.0 ] } },
{ "type": "Feature", "properties": { "value": 0.0524 }, "geometry": { "type": "Point", "coordinates": [ 129.332062, 35.479687, 225.0 ] } },
{ "type": "Feature", "properties": { "value": 0.0416 }, "geometry": { "type": "Point", "coordinates": [ 129.33316, 35.479683, 225.0 ] } },
{ "type": "Feature", "properties": { "value": 0.0097 }, "geometry": { "type": "Point", "coordinates": [ 129.334259, 35.479679, 225.0 ] } },
{ "type": "Feature", "properties": { "value": 0.0008 }, "geometry": { "type": "Point", "coordinates": [ 129.329849, 35.480595, 225.0 ] } },
{ "type": "Feature", "properties": { "value": 0.0167 }, "geometry": { "type": "Point", "coordinates": [ 129.330963, 35.480591, 225.0 ] } },
{ "type": "Feature", "properties": { "value": 0.0658 }, "geometry": { "type": "Point", "coordinates": [ 129.332062, 35.480587, 225.0 ] } },
{ "type": "Feature", "properties": { "value": 0.0818 }, "geometry": { "type": "Point", "coordinates": [ 129.33316, 35.480583, 225.0 ] } },
{ "type": "Feature", "properties": { "value": 0.0322 }, "geometry": { "type": "Point", "coordinates": [ 129.334259, 35.480579, 225.0 ] } },
{ "type": "Feature", "properties": { "value": 0.0039 }, "geometry": { "type": "Point", "coordinates": [ 129.335358, 35.480579, 225.0 ] } },
{ "type": "Feature", "properties": { "value": 0.0121 }, "geometry": { "type": "Point", "coordinates": [ 129.330963, 35.481491, 225.0 ] } },
{ "type": "Feature", "properties": { "value": 0.0668 }, "geometry": { "type": "Point", "coordinates": [ 129.332062, 35.481487, 225.0 ] } },
{ "type": "Feature", "properties": { "value": 0.1262 }, "geometry": { "type": "Point", "coordinates": [ 129.33316, 35.481487, 225.0 ] } },
{ "type": "Feature", "properties": { "value": 0.0828 }, "geometry": { "type": "Point", "coordinates": [ 129.334259, 35.481483, 225.0 ] } },
{ "type": "Feature", "properties": { "value": 0.0189 }, "geometry": { "type": "Point", "coordinates": [ 129.335373, 35.48148, 225.0 ] } },
{ "type": "Feature", "properties": { "value": 0.0072 }, "geometry": { "type": "Point", "coordinates": [ 129.330963, 35.482391, 225.0 ] } },
{ "type": "Feature", "properties": { "value": 0.0573 }, "geometry": { "type": "Point", "coordinates": [ 129.332062, 35.482391, 225.0 ] } },
{ "type": "Feature", "properties": { "value": 0.1604 }, "geometry": { "type": "Point", "coordinates": [ 129.333176, 35.482388, 225.0 ] } },
{ "type": "Feature", "properties": { "value": 0.1662 }, "geometry": { "type": "Point", "coordinates": [ 129.334274, 35.482384, 225.0 ] } },
{ "type": "Feature", "properties": { "value": 0.0643 }, "geometry": { "type": "Point", "coordinates": [ 129.335373, 35.48238, 225.0 ] } },
{ "type": "Feature", "properties": { "value": 0.0098 }, "geometry": { "type": "Point", "coordinates": [ 129.336472, 35.482376, 225.0 ] } },
{ "type": "Feature", "properties": { "value": 0.0036 }, "geometry": { "type": "Point", "coordinates": [ 129.330963, 35.483295, 225.0 ] } },
{ "type": "Feature", "properties": { "value": 0.0426 }, "geometry": { "type": "Point", "coordinates": [ 129.332077, 35.483292, 225.0 ] } },
{ "type": "Feature", "properties": { "value": 0.172 }, "geometry": { "type": "Point", "coordinates": [ 129.333176, 35.483288, 225.0 ] } },
{ "type": "Feature", "properties": { "value": 0.2677 }, "geometry": { "type": "Point", "coordinates": [ 129.334274, 35.483284, 225.0 ] } },
{ "type": "Feature", "properties": { "value": 0.1689 }, "geometry": { "type": "Point", "coordinates": [ 129.335373, 35.48328, 225.0 ] } },
{ "type": "Feature", "properties": { "value": 0.0477 }, "geometry": { "type": "Point", "coordinates": [ 129.336472, 35.48328, 225.0 ] } },
{ "type": "Feature", "properties": { "value": 0.0047 }, "geometry": { "type": "Point", "coordinates": [ 129.337585, 35.483276, 225.0 ] } },
{ "type": "Feature", "properties": { "value": 0.0266 }, "geometry": { "type": "Point", "coordinates": [ 129.332077, 35.484192, 225.0 ] } },
{ "type": "Feature", "properties": { "value": 0.1508 }, "geometry": { "type": "Point", "coordinates": [ 129.333176, 35.484188, 225.0 ] } },
{ "type": "Feature", "properties": { "value": 0.3472 }, "geometry": { "type": "Point", "coordinates": [ 129.334274, 35.484188, 225.0 ] } },
{ "type": "Feature", "properties": { "value": 0.348 }, "geometry": { "type": "Point", "coordinates": [ 129.335373, 35.484184, 225.0 ] } },
{ "type": "Feature", "properties": { "value": 0.1717 }, "geometry": { "type": "Point", "coordinates": [ 129.336487, 35.48418, 225.0 ] } },
{ "type": "Feature", "properties": { "value": 0.0515 }, "geometry": { "type": "Point", "coordinates": [ 129.337585, 35.484177, 225.0 ] } },
{ "type": "Feature", "properties": { "value": 0.005 }, "geometry": { "type": "Point", "coordinates": [ 129.338684, 35.484173, 225.0 ] } },
{ "type": "Feature", "properties": { "value": 0.014 }, "geometry": { "type": "Point", "coordinates": [ 129.332077, 35.485092, 225.0 ] } },
{ "type": "Feature", "properties": { "value": 0.1115 }, "geometry": { "type": "Point", "coordinates": [ 129.333176, 35.485092, 225.0 ] } },
{ "type": "Feature", "properties": { "value": 0.3652 }, "geometry": { "type": "Point", "coordinates": [ 129.334274, 35.485088, 225.0 ] } },
{ "type": "Feature", "properties": { "value": 0.5551 }, "geometry": { "type": "Point", "coordinates": [ 129.335388, 35.485085, 225.0 ] } },
{ "type": "Feature", "properties": { "value": 0.4378 }, "geometry": { "type": "Point", "coordinates": [ 129.336487, 35.485081, 225.0 ] } },
{ "type": "Feature", "properties": { "value": 0.2063 }, "geometry": { "type": "Point", "coordinates": [ 129.337585, 35.485077, 225.0 ] } },
{ "type": "Feature", "properties": { "value": 0.063 }, "geometry": { "type": "Point", "coordinates": [ 129.338684, 35.485077, 225.0 ] } },
{ "type": "Feature", "properties": { "value": 0.0016 }, "geometry": { "type": "Point", "coordinates": [ 129.339798, 35.485073, 225.0 ] } },
{ "type": "Feature", "properties": { "value": 0.0066 }, "geometry": { "type": "Point", "coordinates": [ 129.332077, 35.485996, 225.0 ] } },
{ "type": "Feature", "properties": { "value": 0.0817 }, "geometry": { "type": "Point", "coordinates": [ 129.333176, 35.485992, 225.0 ] } },
{ "type": "Feature", "properties": { "value": 0.3466 }, "geometry": { "type": "Point", "coordinates": [ 129.33429, 35.485989, 225.0 ] } },
{ "type": "Feature", "properties": { "value": 0.7123 }, "geometry": { "type": "Point", "coordinates": [ 129.335388, 35.485985, 225.0 ] } },
{ "type": "Feature", "properties": { "value": 0.7974 }, "geometry": { "type": "Point", "coordinates": [ 129.336487, 35.485981, 225.0 ] } },
{ "type": "Feature", "properties": { "value": 0.5343 }, "geometry": { "type": "Point", "coordinates": [ 129.337585, 35.485981, 225.0 ] } },
{ "type": "Feature", "properties": { "value": 0.235 }, "geometry": { "type": "Point", "coordinates": [ 129.338699, 35.485977, 225.0 ] } },
{ "type": "Feature", "properties": { "value": 0.0698 }, "geometry": { "type": "Point", "coordinates": [ 129.339798, 35.485973, 225.0 ] } },
{ "type": "Feature", "properties": { "value": 0.0591 }, "geometry": { "type": "Point", "coordinates": [ 129.333191, 35.486893, 225.0 ] } },
{ "type": "Feature", "properties": { "value": 0.2997 }, "geometry": { "type": "Point", "coordinates": [ 129.33429, 35.486889, 225.0 ] } },
{ "type": "Feature", "properties": { "value": 0.7799 }, "geometry": { "type": "Point", "coordinates": [ 129.335388, 35.486889, 225.0 ] } },
{ "type": "Feature", "properties": { "value": 1.1387 }, "geometry": { "type": "Point", "coordinates": [ 129.336487, 35.486885, 225.0 ] } },
{ "type": "Feature", "properties": { "value": 1.0108 }, "geometry": { "type": "Point", "coordinates": [ 129.337601, 35.486881, 225.0 ] } },
{ "type": "Feature", "properties": { "value": 0.6066 }, "geometry": { "type": "Point", "coordinates": [ 129.338699, 35.486877, 225.0 ] } },
{ "type": "Feature", "properties": { "value": 0.2575 }, "geometry": { "type": "Point", "coordinates": [ 129.339798, 35.486874, 225.0 ] } },
{ "type": "Feature", "properties": { "value": 0.0786 }, "geometry": { "type": "Point", "coordinates": [ 129.340897, 35.486874, 225.0 ] } },
{ "type": "Feature", "properties": { "value": 0.0395 }, "geometry": { "type": "Point", "coordinates": [ 129.333191, 35.487793, 225.0 ] } },
{ "type": "Feature", "properties": { "value": 0.2359 }, "geometry": { "type": "Point", "coordinates": [ 129.33429, 35.487793, 225.0 ] } },
{ "type": "Feature", "properties": { "value": 0.7377 }, "geometry": { "type": "Point", "coordinates": [ 129.335388, 35.487789, 225.0 ] } },
{ "type": "Feature", "properties": { "value": 1.3399 }, "geometry": { "type": "Point", "coordinates": [ 129.336502, 35.487785, 225.0 ] } },
{ "type": "Feature", "properties": { "value": 1.5328 }, "geometry": { "type": "Point", "coordinates": [ 129.337601, 35.487782, 225.0 ] } },
{ "type": "Feature", "properties": { "value": 1.2156 }, "geometry": { "type": "Point", "coordinates": [ 129.338699, 35.487778, 225.0 ] } },
{ "type": "Feature", "properties": { "value": 0.6837 }, "geometry": { "type": "Point", "coordinates": [ 129.339798, 35.487778, 225.0 ] } },
{ "type": "Feature", "properties": { "value": 0.2799 }, "geometry": { "type": "Point", "coordinates": [ 129.340912, 35.487774, 225.0 ] } },
{ "type": "Feature", "properties": { "value": 0.0853 }, "geometry": { "type": "Point", "coordinates": [ 129.34201, 35.48777, 225.0 ] } },
{ "type": "Feature", "properties": { "value": 0.0214 }, "geometry": { "type": "Point", "coordinates": [ 129.333191, 35.488697, 225.0 ] } },
{ "type": "Feature", "properties": { "value": 0.1676 }, "geometry": { "type": "Point", "coordinates": [ 129.33429, 35.488693, 225.0 ] } },
{ "type": "Feature", "properties": { "value": 0.6157 }, "geometry": { "type": "Point", "coordinates": [ 129.335403, 35.488689, 225.0 ] } },
{ "type": "Feature", "properties": { "value": 1.3465 }, "geometry": { "type": "Point", "coordinates": [ 129.336502, 35.488686, 225.0 ] } },
{ "type": "Feature", "properties": { "value": 1.9108 }, "geometry": { "type": "Point", "coordinates": [ 129.337601, 35.488682, 225.0 ] } },
{ "type": "Feature", "properties": { "value": 1.9149 }, "geometry": { "type": "Point", "coordinates": [ 129.338699, 35.488682, 225.0 ] } },
{ "type": "Feature", "properties": { "value": 1.3697 }, "geometry": { "type": "Point", "coordinates": [ 129.339813, 35.488678, 225.0 ] } },
{ "type": "Feature", "properties": { "value": 0.717 }, "geometry": { "type": "Point", "coordinates": [ 129.340912, 35.488674, 225.0 ] } },
{ "type": "Feature", "properties": { "value": 0.2927 }, "geometry": { "type": "Point", "coordinates": [ 129.34201, 35.48867, 225.0 ] } },
{ "type": "Feature", "properties": { "value": 0.0921 }, "geometry": { "type": "Point", "coordinates": [ 129.343109, 35.488667, 225.0 ] } },
{ "type": "Feature", "properties": { "value": 0.0007 }, "geometry": { "type": "Point", "coordinates": [ 129.333191, 35.489597, 225.0 ] } },
{ "type": "Feature", "properties": { "value": 0.1091 }, "geometry": { "type": "Point", "coordinates": [ 129.334305, 35.489594, 225.0 ] } },
{ "type": "Feature", "properties": { "value": 0.4577 }, "geometry": { "type": "Point", "coordinates": [ 129.335403, 35.48959, 225.0 ] } },
{ "type": "Feature", "properties": { "value": 1.1648 }, "geometry": { "type": "Point", "coordinates": [ 129.336502, 35.48959, 225.0 ] } },
{ "type": "Feature", "properties": { "value": 1.9733 }, "geometry": { "type": "Point", "coordinates": [ 129.337601, 35.489586, 225.0 ] } },
{ "type": "Feature", "properties": { "value": 2.3925 }, "geometry": { "type": "Point", "coordinates": [ 129.338715, 35.489582, 225.0 ] } },
{ "type": "Feature", "properties": { "value": 2.1246 }, "geometry": { "type": "Point", "coordinates": [ 129.339813, 35.489578, 225.0 ] } },
{ "type": "Feature", "properties": { "value": 1.3874 }, "geometry": { "type": "Point", "coordinates": [ 129.340912, 35.489574, 225.0 ] } },
{ "type": "Feature", "properties": { "value": 0.702 }, "geometry": { "type": "Point", "coordinates": [ 129.34201, 35.489571, 225.0 ] } },
{ "type": "Feature", "properties": { "value": 0.287 }, "geometry": { "type": "Point", "coordinates": [ 129.343109, 35.489571, 225.0 ] } },
{ "type": "Feature", "properties": { "value": 0.0897 }, "geometry": { "type": "Point", "coordinates": [ 129.344223, 35.489567, 225.0 ] } },
{ "type": "Feature", "properties": { "value": 0.0622 }, "geometry": { "type": "Point", "coordinates": [ 129.334305, 35.490494, 225.0 ] } },
{ "type": "Feature", "properties": { "value": 0.3022 }, "geometry": { "type": "Point", "coordinates": [ 129.335403, 35.490494, 225.0 ] } },
{ "type": "Feature", "properties": { "value": 0.8766 }, "geometry": { "type": "Point", "coordinates": [ 129.336502, 35.49049, 225.0 ] } },
{ "type": "Feature", "properties": { "value": 1.7478 }, "geometry": { "type": "Point", "coordinates": [ 129.337616, 35.490486, 225.0 ] } },
{ "type": "Feature", "properties": { "value": 2.551 }, "geometry": { "type": "Point", "coordinates": [ 129.338715, 35.490482, 225.0 ] } },
{ "type": "Feature", "properties": { "value": 2.7269 }, "geometry": { "type": "Point", "coordinates": [ 129.339813, 35.490479, 225.0 ] } },
{ "type": "Feature", "properties": { "value": 2.1462 }, "geometry": { "type": "Point", "coordinates": [ 129.340912, 35.490479, 225.0 ] } },
{ "type": "Feature", "properties": { "value": 1.3241 }, "geometry": { "type": "Point", "coordinates": [ 129.34201, 35.490475, 225.0 ] } },
{ "type": "Feature", "properties": { "value": 0.6688 }, "geometry": { "type": "Point", "coordinates": [ 129.343124, 35.490471, 225.0 ] } },
{ "type": "Feature", "properties": { "value": 0.273 }, "geometry": { "type": "Point", "coordinates": [ 129.344223, 35.490467, 225.0 ] } },
{ "type": "Feature", "properties": { "value": 0.0832 }, "geometry": { "type": "Point", "coordinates": [ 129.345322, 35.490463, 225.0 ] } },
{ "type": "Feature", "properties": { "value": 0.027 }, "geometry": { "type": "Point", "coordinates": [ 129.334305, 35.491398, 225.0 ] } },
{ "type": "Feature", "properties": { "value": 0.1756 }, "geometry": { "type": "Point", "coordinates": [ 129.335403, 35.491394, 225.0 ] } },
{ "type": "Feature", "properties": { "value": 0.5828 }, "geometry": { "type": "Point", "coordinates": [ 129.336517, 35.49139, 225.0 ] } },
{ "type": "Feature", "properties": { "value": 1.3544 }, "geometry": { "type": "Point", "coordinates": [ 129.337616, 35.491386, 225.0 ] } },
{ "type": "Feature", "properties": { "value": 2.3642 }, "geometry": { "type": "Point", "coordinates": [ 129.338715, 35.491383, 225.0 ] } },
{ "type": "Feature", "properties": { "value": 3.0262 }, "geometry": { "type": "Point", "coordinates": [ 129.339813, 35.491383, 225.0 ] } },
{ "type": "Feature", "properties": { "value": 2.8654 }, "geometry": { "type": "Point", "coordinates": [ 129.340927, 35.491379, 225.0 ] } },
{ "type": "Feature", "properties": { "value": 2.1487 }, "geometry": { "type": "Point", "coordinates": [ 129.342026, 35.491375, 225.0 ] } },
{ "type": "Feature", "properties": { "value": 1.3146 }, "geometry": { "type": "Point", "coordinates": [ 129.343124, 35.491371, 225.0 ] } },
{ "type": "Feature", "properties": { "value": 0.6557 }, "geometry": { "type": "Point", "coordinates": [ 129.344223, 35.491367, 225.0 ] } },
{ "type": "Feature", "properties": { "value": 0.2676 }, "geometry": { "type": "Point", "coordinates": [ 129.345322, 35.491367, 225.0 ] } },
{ "type": "Feature", "properties": { "value": 0.0837 }, "geometry": { "type": "Point", "coordinates": [ 129.346436, 35.491364, 225.0 ] } },
{ "type": "Feature", "properties": { "value": 0.0874 }, "geometry": { "type": "Point", "coordinates": [ 129.335419, 35.492294, 225.0 ] } },
{ "type": "Feature", "properties": { "value": 0.346 }, "geometry": { "type": "Point", "coordinates": [ 129.336517, 35.49229, 225.0 ] } },
{ "type": "Feature", "properties": { "value": 0.9303 }, "geometry": { "type": "Point", "coordinates": [ 129.337616, 35.49229, 225.0 ] } },
{ "type": "Feature", "properties": { "value": 1.8866 }, "geometry": { "type": "Point", "coordinates": [ 129.338715, 35.492287, 225.0 ] } },
{ "type": "Feature", "properties": { "value": 2.8837 }, "geometry": { "type": "Point", "coordinates": [ 129.339828, 35.492283, 225.0 ] } },
{ "type": "Feature", "properties": { "value": 3.3353 }, "geometry": { "type": "Point", "coordinates": [ 129.340927, 35.492279, 225.0 ] } },
{ "type": "Feature", "properties": { "value": 3.0263 }, "geometry": { "type": "Point", "coordinates": [ 129.342026, 35.492275, 225.0 ] } },
{ "type": "Feature", "properties": { "value": 2.2214 }, "geometry": { "type": "Point", "coordinates": [ 129.343124, 35.492271, 225.0 ] } },
{ "type": "Feature", "properties": { "value": 1.3418 }, "geometry": { "type": "Point", "coordinates": [ 129.344223, 35.492271, 225.0 ] } },
{ "type": "Feature", "properties": { "value": 0.6718 }, "geometry": { "type": "Point", "coordinates": [ 129.345337, 35.492268, 225.0 ] } },
{ "type": "Feature", "properties": { "value": 0.2788 }, "geometry": { "type": "Point", "coordinates": [ 129.346436, 35.492264, 225.0 ] } },
{ "type": "Feature", "properties": { "value": 0.0921 }, "geometry": { "type": "Point", "coordinates": [ 129.347534, 35.49226, 225.0 ] } },
{ "type": "Feature", "properties": { "value": 0.0319 }, "geometry": { "type": "Point", "coordinates": [ 129.335419, 35.493195, 225.0 ] } },
{ "type": "Feature", "properties": { "value": 0.1793 }, "geometry": { "type": "Point", "coordinates": [ 129.336517, 35.493195, 225.0 ] } },
{ "type": "Feature", "properties": { "value": 0.5652 }, "geometry": { "type": "Point", "coordinates": [ 129.337616, 35.493191, 225.0 ] } },
{ "type": "Feature", "properties": { "value": 1.318 }, "geometry": { "type": "Point", "coordinates": [ 129.33873, 35.493187, 225.0 ] } },
{ "type": "Feature", "properties": { "value": 2.374 }, "geometry": { "type": "Point", "coordinates": [ 129.339828, 35.493183, 225.0 ] } },
{ "type": "Feature", "properties": { "value": 3.3256 }, "geometry": { "type": "Point", "coordinates": [ 129.340927, 35.493179, 225.0 ] } },
{ "type": "Feature", "properties": { "value": 3.644 }, "geometry": { "type": "Point", "coordinates": [ 129.342026, 35.493179, 225.0 ] } },
{ "type": "Feature", "properties": { "value": 3.2004 }, "geometry": { "type": "Point", "coordinates": [ 129.343124, 35.493176, 225.0 ] } },
{ "type": "Feature", "properties": { "value": 2.3094 }, "geometry": { "type": "Point", "coordinates": [ 129.344238, 35.493172, 225.0 ] } },
{ "type": "Feature", "properties": { "value": 1.3865 }, "geometry": { "type": "Point", "coordinates": [ 129.345337, 35.493168, 225.0 ] } },
{ "type": "Feature", "properties": { "value": 0.7028 }, "geometry": { "type": "Point", "coordinates": [ 129.346436, 35.493164, 225.0 ] } },
{ "type": "Feature", "properties": { "value": 0.306 }, "geometry": { "type": "Point", "coordinates": [ 129.347534, 35.49316, 225.0 ] } },
{ "type": "Feature", "properties": { "value": 0.1099 }, "geometry": { "type": "Point", "coordinates": [ 129.348648, 35.49316, 225.0 ] } },
{ "type": "Feature", "properties": { "value": 0.0017 }, "geometry": { "type": "Point", "coordinates": [ 129.349747, 35.493156, 225.0 ] } },
{ "type": "Feature", "properties": { "value": 0.0769 }, "geometry": { "type": "Point", "coordinates": [ 129.336517, 35.494095, 225.0 ] } },
{ "type": "Feature", "properties": { "value": 0.2969 }, "geometry": { "type": "Point", "coordinates": [ 129.337631, 35.494091, 225.0 ] } },
{ "type": "Feature", "properties": { "value": 0.8151 }, "geometry": { "type": "Point", "coordinates": [ 129.33873, 35.494087, 225.0 ] } },
{ "type": "Feature", "properties": { "value": 1.7234 }, "geometry": { "type": "Point", "coordinates": [ 129.339828, 35.494083, 225.0 ] } },
{ "type": "Feature", "properties": { "value": 2.8563 }, "geometry": { "type": "Point", "coordinates": [ 129.340927, 35.494083, 225.0 ] } },
{ "type": "Feature", "properties": { "value": 3.7286 }, "geometry": { "type": "Point", "coordinates": [ 129.342026, 35.49408, 225.0 ] } },
{ "type": "Feature", "properties": { "value": 3.8946 }, "geometry": { "type": "Point", "coordinates": [ 129.34314, 35.494076, 225.0 ] } },
{ "type": "Feature", "properties": { "value": 3.3229 }, "geometry": { "type": "Point", "coordinates": [ 129.344238, 35.494072, 225.0 ] } },
{ "type": "Feature", "properties": { "value": 2.3623 }, "geometry": { "type": "Point", "coordinates": [ 129.345337, 35.494068, 225.0 ] } },
{ "type": "Feature", "properties": { "value": 1.4265 }, "geometry": { "type": "Point", "coordinates": [ 129.346436, 35.494068, 225.0 ] } },
{ "type": "Feature", "properties": { "value": 0.7435 }, "geometry": { "type": "Point", "coordinates": [ 129.347549, 35.494064, 225.0 ] } },
{ "type": "Feature", "properties": { "value": 0.3417 }, "geometry": { "type": "Point", "coordinates": [ 129.348648, 35.494061, 225.0 ] } },
{ "type": "Feature", "properties": { "value": 0.1331 }, "geometry": { "type": "Point", "coordinates": [ 129.349747, 35.494057, 225.0 ] } },
{ "type": "Feature", "properties": { "value": 0.0267 }, "geometry": { "type": "Point", "coordinates": [ 129.350845, 35.494053, 225.0 ] } },
{ "type": "Feature", "properties": { "value": 0.0165 }, "geometry": { "type": "Point", "coordinates": [ 129.336533, 35.494995, 225.0 ] } },
{ "type": "Feature", "properties": { "value": 0.1365 }, "geometry": { "type": "Point", "coordinates": [ 129.337631, 35.494991, 225.0 ] } },
{ "type": "Feature", "properties": { "value": 0.4488 }, "geometry": { "type": "Point", "coordinates": [ 129.33873, 35.494991, 225.0 ] } },
{ "type": "Feature", "properties": { "value": 1.1054 }, "geometry": { "type": "Point", "coordinates": [ 129.339828, 35.494987, 225.0 ] } },
{ "type": "Feature", "properties": { "value": 2.1279 }, "geometry": { "type": "Point", "coordinates": [ 129.340942, 35.494984, 225.0 ] } },
{ "type": "Feature", "properties": { "value": 3.2752 }, "geometry": { "type": "Point", "coordinates": [ 129.342041, 35.49498, 225.0 ] } },
{ "type": "Feature", "properties": { "value": 4.0684 }, "geometry": { "type": "Point", "coordinates": [ 129.34314, 35.494976, 225.0 ] } },
{ "type": "Feature", "properties": { "value": 4.076 }, "geometry": { "type": "Point", "coordinates": [ 129.344238, 35.494972, 225.0 ] } },
{ "type": "Feature", "properties": { "value": 3.3844 }, "geometry": { "type": "Point", "coordinates": [ 129.345337, 35.494972, 225.0 ] } },
{ "type": "Feature", "properties": { "value": 2.4018 }, "geometry": { "type": "Point", "coordinates": [ 129.346451, 35.494968, 225.0 ] } },
{ "type": "Feature", "properties": { "value": 1.4737 }, "geometry": { "type": "Point", "coordinates": [ 129.347549, 35.494965, 225.0 ] } },
{ "type": "Feature", "properties": { "value": 0.8004 }, "geometry": { "type": "Point", "coordinates": [ 129.348648, 35.494961, 225.0 ] } },
{ "type": "Feature", "properties": { "value": 0.3953 }, "geometry": { "type": "Point", "coordinates": [ 129.349747, 35.494957, 225.0 ] } },
{ "type": "Feature", "properties": { "value": 0.1743 }, "geometry": { "type": "Point", "coordinates": [ 129.350861, 35.494953, 225.0 ] } },
{ "type": "Feature", "properties": { "value": 0.0593 }, "geometry": { "type": "Point", "coordinates": [ 129.351959, 35.494953, 225.0 ] } },
{ "type": "Feature", "properties": { "value": 0.0476 }, "geometry": { "type": "Point", "coordinates": [ 129.337631, 35.495895, 225.0 ] } },
{ "type": "Feature", "properties": { "value": 0.2152 }, "geometry": { "type": "Point", "coordinates": [ 129.33873, 35.495892, 225.0 ] } },
{ "type": "Feature", "properties": { "value": 0.6246 }, "geometry": { "type": "Point", "coordinates": [ 129.339844, 35.495888, 225.0 ] } },
{ "type": "Feature", "properties": { "value": 1.3888 }, "geometry": { "type": "Point", "coordinates": [ 129.340942, 35.495884, 225.0 ] } },
{ "type": "Feature", "properties": { "value": 2.5001 }, "geometry": { "type": "Point", "coordinates": [ 129.342041, 35.49588, 225.0 ] } },
{ "type": "Feature", "properties": { "value": 3.6625 }, "geometry": { "type": "Point", "coordinates": [ 129.34314, 35.49588, 225.0 ] } },
{ "type": "Feature", "properties": { "value": 4.2868 }, "geometry": { "type": "Point", "coordinates": [ 129.344238, 35.495876, 225.0 ] } },
{ "type": "Feature", "properties": { "value": 4.1326 }, "geometry": { "type": "Point", "coordinates": [ 129.345352, 35.495872, 225.0 ] } },
{ "type": "Feature", "properties": { "value": 3.4185 }, "geometry": { "type": "Point", "coordinates": [ 129.346451, 35.495869, 225.0 ] } },
{ "type": "Feature", "properties": { "value": 2.4583 }, "geometry": { "type": "Point", "coordinates": [ 129.347549, 35.495865, 225.0 ] } },
{ "type": "Feature", "properties": { "value": 1.5554 }, "geometry": { "type": "Point", "coordinates": [ 129.348648, 35.495861, 225.0 ] } },
{ "type": "Feature", "properties": { "value": 0.8978 }, "geometry": { "type": "Point", "coordinates": [ 129.349762, 35.495861, 225.0 ] } },
{ "type": "Feature", "properties": { "value": 0.481 }, "geometry": { "type": "Point", "coordinates": [ 129.350861, 35.495857, 225.0 ] } },
{ "type": "Feature", "properties": { "value": 0.2366 }, "geometry": { "type": "Point", "coordinates": [ 129.351959, 35.495853, 225.0 ] } },
{ "type": "Feature", "properties": { "value": 0.0995 }, "geometry": { "type": "Point", "coordinates": [ 129.353058, 35.49585, 225.0 ] } },
{ "type": "Feature", "properties": { "value": 0.0122 }, "geometry": { "type": "Point", "coordinates": [ 129.354156, 35.495846, 225.0 ] } },
{ "type": "Feature", "properties": { "value": 0.0853 }, "geometry": { "type": "Point", "coordinates": [ 129.338745, 35.496792, 225.0 ] } },
{ "type": "Feature", "properties": { "value": 0.3081 }, "geometry": { "type": "Point", "coordinates": [ 129.339844, 35.496788, 225.0 ] } },
{ "type": "Feature", "properties": { "value": 0.7979 }, "geometry": { "type": "Point", "coordinates": [ 129.340942, 35.496784, 225.0 ] } },
{ "type": "Feature", "properties": { "value": 1.6625 }, "geometry": { "type": "Point", "coordinates": [ 129.342041, 35.496784, 225.0 ] } },
{ "type": "Feature", "properties": { "value": 2.826 }, "geometry": { "type": "Point", "coordinates": [ 129.34314, 35.49678, 225.0 ] } },
{ "type": "Feature", "properties": { "value": 3.8558 }, "geometry": { "type": "Point", "coordinates": [ 129.344254, 35.496777, 225.0 ] } },
{ "type": "Feature", "properties": { "value": 4.3249 }, "geometry": { "type": "Point", "coordinates": [ 129.345352, 35.496773, 225.0 ] } },
{ "type": "Feature", "properties": { "value": 4.1541 }, "geometry": { "type": "Point", "coordinates": [ 129.346451, 35.496769, 225.0 ] } },
{ "type": "Feature", "properties": { "value": 3.4663 }, "geometry": { "type": "Point", "coordinates": [ 129.347549, 35.496765, 225.0 ] } },
{ "type": "Feature", "properties": { "value": 2.5503 }, "geometry": { "type": "Point", "coordinates": [ 129.348663, 35.496765, 225.0 ] } },
{ "type": "Feature", "properties": { "value": 1.6931 }, "geometry": { "type": "Point", "coordinates": [ 129.349762, 35.496761, 225.0 ] } },
{ "type": "Feature", "properties": { "value": 1.0498 }, "geometry": { "type": "Point", "coordinates": [ 129.350861, 35.496758, 225.0 ] } },
{ "type": "Feature", "properties": { "value": 0.6066 }, "geometry": { "type": "Point", "coordinates": [ 129.351959, 35.496754, 225.0 ] } },
{ "type": "Feature", "properties": { "value": 0.3157 }, "geometry": { "type": "Point", "coordinates": [ 129.353073, 35.49675, 225.0 ] } },
{ "type": "Feature", "properties": { "value": 0.1446 }, "geometry": { "type": "Point", "coordinates": [ 129.354172, 35.496746, 225.0 ] } },
{ "type": "Feature", "properties": { "value": 0.0544 }, "geometry": { "type": "Point", "coordinates": [ 129.35527, 35.496746, 225.0 ] } },
{ "type": "Feature", "properties": { "value": 0.0045 }, "geometry": { "type": "Point", "coordinates": [ 129.338745, 35.497692, 225.0 ] } },
{ "type": "Feature", "properties": { "value": 0.1285 }, "geometry": { "type": "Point", "coordinates": [ 129.339844, 35.497692, 225.0 ] } },
{ "type": "Feature", "properties": { "value": 0.4054 }, "geometry": { "type": "Point", "coordinates": [ 129.340942, 35.497688, 225.0 ] } },
{ "type": "Feature", "properties": { "value": 0.9782 }, "geometry": { "type": "Point", "coordinates": [ 129.342041, 35.497684, 225.0 ] } },
{ "type": "Feature", "properties": { "value": 1.9128 }, "geometry": { "type": "Point", "coordinates": [ 129.343155, 35.497681, 225.0 ] } },
{ "type": "Feature", "properties": { "value": 3.0022 }, "geometry": { "type": "Point", "coordinates": [ 129.344254, 35.497677, 225.0 ] } },
{ "type": "Feature", "properties": { "value": 3.8928 }, "geometry": { "type": "Point", "coordinates": [ 129.345352, 35.497673, 225.0 ] } },
{ "type": "Feature", "properties": { "value": 4.31 }, "geometry": { "type": "Point", "coordinates": [ 129.346451, 35.497673, 225.0 ] } },
{ "type": "Feature", "properties": { "value": 4.14 }, "geometry": { "type": "Point", "coordinates": [ 129.347565, 35.497669, 225.0 ] } },
{ "type": "Feature", "properties": { "value": 3.5344 }, "geometry": { "type": "Point", "coordinates": [ 129.348663, 35.497665, 225.0 ] } },
{ "type": "Feature", "properties": { "value": 2.7167 }, "geometry": { "type": "Point", "coordinates": [ 129.349762, 35.497662, 225.0 ] } },
{ "type": "Feature", "properties": { "value": 1.9177 }, "geometry": { "type": "Point", "coordinates": [ 129.350861, 35.497658, 225.0 ] } },
{ "type": "Feature", "properties": { "value": 1.2447 }, "geometry": { "type": "Point", "coordinates": [ 129.351974, 35.497654, 225.0 ] } },
{ "type": "Feature", "properties": { "value": 0.7203 }, "geometry": { "type": "Point", "coordinates": [ 129.353073, 35.497654, 225.0 ] } },
{ "type": "Feature", "properties": { "value": 0.3673 }, "geometry": { "type": "Point", "coordinates": [ 129.354172, 35.49765, 225.0 ] } },
{ "type": "Feature", "properties": { "value": 0.1618 }, "geometry": { "type": "Point", "coordinates": [ 129.35527, 35.497646, 225.0 ] } },
{ "type": "Feature", "properties": { "value": 0.0561 }, "geometry": { "type": "Point", "coordinates": [ 129.356369, 35.497643, 225.0 ] } },
{ "type": "Feature", "properties": { "value": 0.0096 }, "geometry": { "type": "Point", "coordinates": [ 129.357483, 35.497639, 225.0 ] } },
{ "type": "Feature", "properties": { "value": 0.0327 }, "geometry": { "type": "Point", "coordinates": [ 129.339844, 35.498592, 225.0 ] } },
{ "type": "Feature", "properties": { "value": 0.1797 }, "geometry": { "type": "Point", "coordinates": [ 129.340958, 35.498589, 225.0 ] } },
{ "type": "Feature", "properties": { "value": 0.5139 }, "geometry": { "type": "Point", "coordinates": [ 129.342056, 35.498585, 225.0 ] } },
{ "type": "Feature", "properties": { "value": 1.1394 }, "geometry": { "type": "Point", "coordinates": [ 129.343155, 35.498581, 225.0 ] } },
{ "type": "Feature", "properties": { "value": 2.0374 }, "geometry": { "type": "Point", "coordinates": [ 129.344254, 35.498581, 225.0 ] } },
{ "type": "Feature", "properties": { "value": 3.0221 }, "geometry": { "type": "Point", "coordinates": [ 129.345352, 35.498577, 225.0 ] } },
{ "type": "Feature", "properties": { "value": 3.8359 }, "geometry": { "type": "Point", "coordinates": [ 129.346466, 35.498573, 225.0 ] } },
{ "type": "Feature", "properties": { "value": 4.2448 }, "geometry": { "type": "Point", "coordinates": [ 129.347565, 35.498569, 225.0 ] } },
{ "type": "Feature", "properties": { "value": 4.1817 }, "geometry": { "type": "Point", "coordinates": [ 129.348663, 35.498566, 225.0 ] } },
{ "type": "Feature", "properties": { "value": 3.7048 }, "geometry": { "type": "Point", "coordinates": [ 129.349762, 35.498562, 225.0 ] } },
{ "type": "Feature", "properties": { "value": 2.9574 }, "geometry": { "type": "Point", "coordinates": [ 129.350876, 35.498562, 225.0 ] } },
{ "type": "Feature", "properties": { "value": 2.113 }, "geometry": { "type": "Point", "coordinates": [ 129.351974, 35.498558, 225.0 ] } },
{ "type": "Feature", "properties": { "value": 1.3319 }, "geometry": { "type": "Point", "coordinates": [ 129.353073, 35.498554, 225.0 ] } },
{ "type": "Feature", "properties": { "value": 0.7348 }, "geometry": { "type": "Point", "coordinates": [ 129.354172, 35.49855, 225.0 ] } },
{ "type": "Feature", "properties": { "value": 0.3508 }, "geometry": { "type": "Point", "coordinates": [ 129.35527, 35.498547, 225.0 ] } },
{ "type": "Feature", "properties": { "value": 0.14 }, "geometry": { "type": "Point", "coordinates": [ 129.356384, 35.498543, 225.0 ] } },
{ "type": "Feature", "properties": { "value": 0.0419 }, "geometry": { "type": "Point", "coordinates": [ 129.357483, 35.498539, 225.0 ] } },
{ "type": "Feature", "properties": { "value": 0.0045 }, "geometry": { "type": "Point", "coordinates": [ 129.358582, 35.498539, 225.0 ] } },
{ "type": "Feature", "properties": { "value": 0.0594 }, "geometry": { "type": "Point", "coordinates": [ 129.340958, 35.499489, 225.0 ] } },
{ "type": "Feature", "properties": { "value": 0.23 }, "geometry": { "type": "Point", "coordinates": [ 129.342056, 35.499485, 225.0 ] } },
{ "type": "Feature", "properties": { "value": 0.5852 }, "geometry": { "type": "Point", "coordinates": [ 129.343155, 35.499485, 225.0 ] } },
{ "type": "Feature", "properties": { "value": 1.189 }, "geometry": { "type": "Point", "coordinates": [ 129.344254, 35.499481, 225.0 ] } },
{ "type": "Feature", "properties": { "value": 2.0196 }, "geometry": { "type": "Point", "coordinates": [ 129.345367, 35.499477, 225.0 ] } },
{ "type": "Feature", "properties": { "value": 2.9407 }, "geometry": { "type": "Point", "coordinates": [ 129.346466, 35.499474, 225.0 ] } },
{ "type": "Feature", "properties": { "value": 3.7261 }, "geometry": { "type": "Point", "coordinates": [ 129.347565, 35.49947, 225.0 ] } },
{ "type": "Feature", "properties": { "value": 4.1951 }, "geometry": { "type": "Point", "coordinates": [ 129.348663, 35.499466, 225.0 ] } },
{ "type": "Feature", "properties": { "value": 4.2252 }, "geometry": { "type": "Point", "coordinates": [ 129.349777, 35.499466, 225.0 ] } },
{ "type": "Feature", "properties": { "value": 3.7754 }, "geometry": { "type": "Point", "coordinates": [ 129.350876, 35.499462, 225.0 ] } },
{ "type": "Feature", "properties": { "value": 2.9596 }, "geometry": { "type": "Point", "coordinates": [ 129.351974, 35.499458, 225.0 ] } },
{ "type": "Feature", "properties": { "value": 2.021 }, "geometry": { "type": "Point", "coordinates": [ 129.353073, 35.499454, 225.0 ] } },
{ "type": "Feature", "properties": { "value": 1.1947 }, "geometry": { "type": "Point", "coordinates": [ 129.354187, 35.499451, 225.0 ] } },
{ "type": "Feature", "properties": { "value": 0.6023 }, "geometry": { "type": "Point", "coordinates": [ 129.355286, 35.499447, 225.0 ] } },
{ "type": "Feature", "properties": { "value": 0.2527 }, "geometry": { "type": "Point", "coordinates": [ 129.356384, 35.499447, 225.0 ] } },
{ "type": "Feature", "properties": { "value": 0.0855 }, "geometry": { "type": "Point", "coordinates": [ 129.357483, 35.499443, 225.0 ] } },
{ "type": "Feature", "properties": { "value": 0.0187 }, "geometry": { "type": "Point", "coordinates": [ 129.358582, 35.499439, 225.0 ] } },
{ "type": "Feature", "properties": { "value": 0.079 }, "geometry": { "type": "Point", "coordinates": [ 129.342056, 35.500389, 225.0 ] } },
{ "type": "Feature", "properties": { "value": 0.2535 }, "geometry": { "type": "Point", "coordinates": [ 129.343155, 35.500385, 225.0 ] } },
{ "type": "Feature", "properties": { "value": 0.5908 }, "geometry": { "type": "Point", "coordinates": [ 129.344269, 35.500381, 225.0 ] } },
{ "type": "Feature", "properties": { "value": 1.1498 }, "geometry": { "type": "Point", "coordinates": [ 129.345367, 35.500378, 225.0 ] } },
{ "type": "Feature", "properties": { "value": 1.9238 }, "geometry": { "type": "Point", "coordinates": [ 129.346466, 35.500374, 225.0 ] } },
{ "type": "Feature", "properties": { "value": 2.7695 }, "geometry": { "type": "Point", "coordinates": [ 129.347565, 35.500374, 225.0 ] } },
{ "type": "Feature", "properties": { "value": 3.5308 }, "geometry": { "type": "Point", "coordinates": [ 129.348679, 35.50037, 225.0 ] } },
{ "type": "Feature", "properties": { "value": 4.0076 }, "geometry": { "type": "Point", "coordinates": [ 129.349777, 35.500366, 225.0 ] } },
{ "type": "Feature", "properties": { "value": 3.9778 }, "geometry": { "type": "Point", "coordinates": [ 129.350876, 35.500362, 225.0 ] } },
{ "type": "Feature", "properties": { "value": 3.4122 }, "geometry": { "type": "Point", "coordinates": [ 129.351974, 35.500359, 225.0 ] } },
{ "type": "Feature", "properties": { "value": 2.5106 }, "geometry": { "type": "Point", "coordinates": [ 129.353088, 35.500355, 225.0 ] } },
{ "type": "Feature", "properties": { "value": 1.5706 }, "geometry": { "type": "Point", "coordinates": [ 129.354187, 35.500355, 225.0 ] } },
{ "type": "Feature", "properties": { "value": 0.8277 }, "geometry": { "type": "Point", "coordinates": [ 129.355286, 35.500351, 225.0 ] } },
{ "type": "Feature", "properties": { "value": 0.3614 }, "geometry": { "type": "Point", "coordinates": [ 129.356384, 35.500347, 225.0 ] } },
{ "type": "Feature", "properties": { "value": 0.1273 }, "geometry": { "type": "Point", "coordinates": [ 129.357483, 35.500343, 225.0 ] } },
{ "type": "Feature", "properties": { "value": 0.0322 }, "geometry": { "type": "Point", "coordinates": [ 129.358597, 35.50034, 225.0 ] } },
{ "type": "Feature", "properties": { "value": 0.0028 }, "geometry": { "type": "Point", "coordinates": [ 129.359695, 35.500336, 225.0 ] } },
{ "type": "Feature", "properties": { "value": 0.0838 }, "geometry": { "type": "Point", "coordinates": [ 129.34317, 35.501286, 225.0 ] } },
{ "type": "Feature", "properties": { "value": 0.2501 }, "geometry": { "type": "Point", "coordinates": [ 129.344269, 35.501282, 225.0 ] } },
{ "type": "Feature", "properties": { "value": 0.5652 }, "geometry": { "type": "Point", "coordinates": [ 129.345367, 35.501278, 225.0 ] } },
{ "type": "Feature", "properties": { "value": 1.0832 }, "geometry": { "type": "Point", "coordinates": [ 129.346466, 35.501278, 225.0 ] } },
{ "type": "Feature", "properties": { "value": 1.7754 }, "geometry": { "type": "Point", "coordinates": [ 129.34758, 35.501274, 225.0 ] } },
{ "type": "Feature", "properties": { "value": 2.5451 }, "geometry": { "type": "Point", "coordinates": [ 129.348679, 35.50127, 225.0 ] } },
{ "type": "Feature", "properties": { "value": 3.1988 }, "geometry": { "type": "Point", "coordinates": [ 129.349777, 35.501266, 225.0 ] } },
{ "type": "Feature", "properties": { "value": 3.4775 }, "geometry": { "type": "Point", "coordinates": [ 129.350876, 35.501263, 225.0 ] } },
{ "type": "Feature", "properties": { "value": 3.2246 }, "geometry": { "type": "Point", "coordinates": [ 129.35199, 35.501259, 225.0 ] } },
{ "type": "Feature", "properties": { "value": 2.5259 }, "geometry": { "type": "Point", "coordinates": [ 129.353088, 35.501259, 225.0 ] } },
{ "type": "Feature", "properties": { "value": 1.6559 }, "geometry": { "type": "Point", "coordinates": [ 129.354187, 35.501255, 225.0 ] } },
{ "type": "Feature", "properties": { "value": 0.9044 }, "geometry": { "type": "Point", "coordinates": [ 129.355286, 35.501251, 225.0 ] } },
{ "type": "Feature", "properties": { "value": 0.4067 }, "geometry": { "type": "Point", "coordinates": [ 129.3564, 35.501247, 225.0 ] } },
{ "type": "Feature", "properties": { "value": 0.1461 }, "geometry": { "type": "Point", "coordinates": [ 129.357498, 35.501244, 225.0 ] } },
{ "type": "Feature", "properties": { "value": 0.0398 }, "geometry": { "type": "Point", "coordinates": [ 129.358597, 35.50124, 225.0 ] } },
{ "type": "Feature", "properties": { "value": 0.0061 }, "geometry": { "type": "Point", "coordinates": [ 129.359695, 35.50124, 225.0 ] } }
]
}
