{
"type": "FeatureCollection",
"features": [
{ "type": "Feature", "properties": { "value": 0.005 }, "geometry": { "type": "Point", "coordinates": [ 129.32756, 35.458969, 60.0 ] } },
{ "type": "Feature", "properties": { "value": 5.2188 }, "geometry": { "type": "Point", "coordinates": [ 129.32756, 35.459869, 60.0 ] } },
{ "type": "Feature", "properties": { "value": 119.92 }, "geometry": { "type": "Point", "coordinates": [ 129.327576, 35.46077, 60.0 ] } },
{ "type": "Feature", "properties": { "value": 192.61 }, "geometry": { "type": "Point", "coordinates": [ 129.327576, 35.461674, 60.0 ] } },
{ "type": "Feature", "properties": { "value": 143.93 }, "geometry": { "type": "Point", "coordinates": [ 129.327576, 35.462574, 60.0 ] } },
{ "type": "Feature", "properties": { "value": 91.763 }, "geometry": { "type": "Point", "coordinates": [ 129.327576, 35.463474, 60.0 ] } },
{ "type": "Feature", "properties": { "value": 13.821 }, "geometry": { "type": "Point", "coordinates": [ 129.32869, 35.46347, 60.0 ] } },
{ "type": "Feature", "properties": { "value": 59.635 }, "geometry": { "type": "Point", "coordinates": [ 129.327591, 35.464375, 60.0 ] } },
{ "type": "Feature", "properties": { "value": 39.162 }, "geometry": { "type": "Point", "coordinates": [ 129.32869, 35.464375, 60.0 ] } },
{ "type": "Feature", "properties": { "value": 42.181 }, "geometry": { "type": "Point", "coordinates": [ 129.327591, 35.465279, 60.0 ] } },
{ "type": "Feature", "properties": { "value": 91.65 }, "geometry": { "type": "Point", "coordinates": [ 129.32869, 35.465275, 60.0 ] } },
{ "type": "Feature", "properties": { "value": 28.079 }, "geometry": { "type": "Point", "coordinates": [ 129.327591, 35.466179, 60.0 ] } },
{ "type": "Feature", "properties": { "value": 146.46 }, "geometry": { "type": "Point", "coordinates": [ 129.32869, 35.466175, 60.0 ] } },
{ "type": "Feature", "properties": { "value": 17.282 }, "geometry": { "type": "Point", "coordinates": [ 129.327591, 35.467079, 60.0 ] } },
{ "type": "Feature", "properties": { "value": 171.52 }, "geometry": { "type": "Point", "coordinates": [ 129.328705, 35.467075, 60.0 ] } },
{ "type": "Feature", "properties": { "value": 5.4686 }, "geometry": { "type": "Point", "coordinates": [ 129.329803, 35.467075, 60.0 ] } },
{ "type": "Feature", "properties": { "value": 9.9129 }, "geometry": { "type": "Point", "coordinates": [ 129.327606, 35.467983, 60.0 ] } },
{ "type": "Feature", "properties": { "value": 164.78 }, "geometry": { "type": "Point", "coordinates": [ 129.328705, 35.467979, 60.0 ] } },
{ "type": "Feature", "properties": { "value": 18.233 }, "geometry": { "type": "Point", "coordinates": [ 129.329803, 35.467976, 60.0 ] } },
{ "type": "Feature", "properties": { "value": 5.3501 }, "geometry": { "type": "Point", "coordinates": [ 129.327606, 35.468884, 60.0 ] } },
{ "type": "Feature", "properties": { "value": 138.86 }, "geometry": { "type": "Point", "coordinates": [ 129.328705, 35.46888, 60.0 ] } },
{ "type": "Feature", "properties": { "value": 41.155 }, "geometry": { "type": "Point", "coordinates": [ 129.329803, 35.468876, 60.0 ] } },
{ "type": "Feature", "properties": { "value": 2.7437 }, "geometry": { "type": "Point", "coordinates": [ 129.327606, 35.469784, 60.0 ] } },
{ "type": "Feature", "properties": { "value": 104.67 }, "geometry": { "type": "Point", "coordinates": [ 129.328705, 35.46978, 60.0 ] } },
{ "type": "Feature", "properties": { "value": 71.46 }, "geometry": { "type": "Point", "coordinates": [ 129.329819, 35.469776, 60.0 ] } },
{ "type": "Feature", "properties": { "value": 0.8831 }, "geometry": { "type": "Point", "coordinates": [ 129.327606, 35.470684, 60.0 ] } },
{ "type": "Feature", "properties": { "value": 69.001 }, "geometry": { "type": "Point", "coordinates": [ 129.32872, 35.470684, 60.0 ] } },
{ "type": "Feature", "properties": { "value": 89.111 }, "geometry": { "type": "Point", "coordinates": [ 129.329819, 35.47068, 60.0 ] } },
{ "type": "Feature", "properties": { "value": 3.5319 }, "geometry": { "type": "Point", "coordinates": [ 129.330917, 35.470676, 60.0 ] } },
{ "type": "Feature", "properties": { "value": 34.643 }, "geometry": { "type": "Point", "coordinates": [ 129.32872, 35.471584, 60.0 ] } },
{ "type": "Feature", "properties": { "value": 70.519 }, "geometry": { "type": "Point", "coordinates": [ 129.329819, 35.471581, 60.0 ] } },
{ "type": "Feature", "properties": { "value": 6.9169 }, "geometry": { "type": "Point", "coordinates": [ 129.330917, 35.471577, 60.0 ] } },
{ "type": "Feature", "properties": { "value": 13.475 }, "geometry": { "type": "Point", "coordinates": [ 129.32872, 35.472485, 60.0 ] } },
{ "type": "Feature", "properties": { "value": 50.745 }, "geometry": { "type": "Point", "coordinates": [ 129.329819, 35.472481, 60.0 ] } },
{ "type": "Feature", "properties": { "value": 15.257 }, "geometry": { "type": "Point", "coordinates": [ 129.330917, 35.472477, 60.0 ] } },
{ "type": "Feature", "properties": { "value": 5.949 }, "geometry": { "type": "Point", "coordinates": [ 129.32872, 35.473385, 60.0 ] } },
{ "type": "Feature", "properties": { "value": 46.728 }, "geometry": { "type": "Point", "coordinates": [ 129.329819, 35.473385, 60.0 ] } },
{ "type": "Feature", "properties": { "value": 35.917 }, "geometry": { "type": "Point", "coordinates": [ 129.330933, 35.473381, 60.0 ] } },
{ "type": "Feature", "properties": { "value": 2.8454 }, "geometry": { "type": "Point", "coordinates": [ 129.332031, 35.473377, 60.0 ] } },
{ "type": "Feature", "properties": { "value": 3.2962 }, "geometry": { "type": "Point", "coordinates": [ 129.328735, 35.474289, 60.0 ] } },
{ "type": "Feature", "properties": { "value": 45.742 }, "geometry": { "type": "Point", "coordinates": [ 129.329834, 35.474285, 60.0 ] } },
{ "type": "Feature", "properties": { "value": 63.853 }, "geometry": { "type": "Point", "coordinates": [ 129.330933, 35.474281, 60.0 ] } },
{ "type": "Feature", "properties": { "value": 10.647 }, "geometry": { "type": "Point", "coordinates": [ 129.332031, 35.474277, 60.0 ] } },
{ "type": "Feature", "properties": { "value": 1.9518 }, "geometry": { "type": "Point", "coordinates": [ 129.328735, 35.475189, 60.0 ] } },
{ "type": "Feature", "properties": { "value": 35.201 }, "geometry": { "type": "Point", "coordinates": [ 129.329834, 35.475185, 60.0 ] } },
{ "type": "Feature", "properties": { "value": 76.749 }, "geometry": { "type": "Point", "coordinates": [ 129.330933, 35.475182, 60.0 ] } },
{ "type": "Feature", "properties": { "value": 24.103 }, "geometry": { "type": "Point", "coordinates": [ 129.332031, 35.475178, 60.0 ] } },
{ "type": "Feature", "properties": { "value": 1.0645 }, "geometry": { "type": "Point", "coordinates": [ 129.333145, 35.475178, 60.0 ] } },
{ "type": "Feature", "properties": { "value": 0.9193 }, "geometry": { "type": "Point", "coordinates": [ 129.328735, 35.476089, 60.0 ] } },
{ "type": "Feature", "properties": { "value": 23.994 }, "geometry": { "type": "Point", "coordinates": [ 129.329834, 35.476086, 60.0 ] } },
{ "type": "Feature", "properties": { "value": 76.784 }, "geometry": { "type": "Point", "coordinates": [ 129.330933, 35.476086, 60.0 ] } },
{ "type": "Feature", "properties": { "value": 41.328 }, "geometry": { "type": "Point", "coordinates": [ 129.332047, 35.476082, 60.0 ] } },
{ "type": "Feature", "properties": { "value": 4.3619 }, "geometry": { "type": "Point", "coordinates": [ 129.333145, 35.476078, 60.0 ] } },
{ "type": "Feature", "properties": { "value": 14.635 }, "geometry": { "type": "Point", "coordinates": [ 129.329834, 35.47699, 60.0 ] } },
{ "type": "Feature", "properties": { "value": 65.82 }, "geometry": { "type": "Point", "coordinates": [ 129.330948, 35.476986, 60.0 ] } },
{ "type": "Feature", "properties": { "value": 58.027 }, "geometry": { "type": "Point", "coordinates": [ 129.332047, 35.476982, 60.0 ] } },
{ "type": "Feature", "properties": { "value": 11.344 }, "geometry": { "type": "Point", "coordinates": [ 129.333145, 35.476978, 60.0 ] } },
{ "type": "Feature", "properties": { "value": 7.877 }, "geometry": { "type": "Point", "coordinates": [ 129.329849, 35.47789, 60.0 ] } },
{ "type": "Feature", "properties": { "value": 49.79 }, "geometry": { "type": "Point", "coordinates": [ 129.330948, 35.477886, 60.0 ] } },
{ "type": "Feature", "properties": { "value": 69.001 }, "geometry": { "type": "Point", "coordinates": [ 129.332047, 35.477882, 60.0 ] } },
{ "type": "Feature", "properties": { "value": 23.35 }, "geometry": { "type": "Point", "coordinates": [ 129.333145, 35.477879, 60.0 ] } },
{ "type": "Feature", "properties": { "value": 2.0078 }, "geometry": { "type": "Point", "coordinates": [ 129.334259, 35.477879, 60.0 ] } },
{ "type": "Feature", "properties": { "value": 3.7416 }, "geometry": { "type": "Point", "coordinates": [ 129.329849, 35.47879, 60.0 ] } },
{ "type": "Feature", "properties": { "value": 33.239 }, "geometry": { "type": "Point", "coordinates": [ 129.330948, 35.478786, 60.0 ] } },
{ "type": "Feature", "properties": { "value": 69.941 }, "geometry": { "type": "Point", "coordinates": [ 129.332047, 35.478786, 60.0 ] } },
{ "type": "Feature", "properties": { "value": 39.186 }, "geometry": { "type": "Point", "coordinates": [ 129.33316, 35.478783, 60.0 ] } },
{ "type": "Feature", "properties": { "value": 6.3768 }, "geometry": { "type": "Point", "coordinates": [ 129.334259, 35.478779, 60.0 ] } },
{ "type": "Feature", "properties": { "value": 1.4853 }, "geometry": { "type": "Point", "coordinates": [ 129.329849, 35.479691, 60.0 ] } },
{ "type": "Feature", "properties": { "value": 19.573 }, "geometry": { "type": "Point", "coordinates": [ 129.330948, 35.479691, 60.0 ] } },
{ "type": "Feature", "properties": { "value": 60.868 }, "geometry": { "type": "Point", "coordinates": [ 129.332062, 35.479687, 60.0 ] } },
{ "type": "Feature", "properties": { "value": 54.493 }, "geometry": { "type": "Point", "coordinates": [ 129.33316, 35.479683, 60.0 ] } },
{ "type": "Feature", "properties": { "value": 15.418 }, "geometry": { "type": "Point", "coordinates": [ 129.334259, 35.479679, 60.0 ] } },
{ "type": "Feature", "properties": { "value": 1.3268 }, "geometry": { "type": "Point", "coordinates": [ 129.335358, 35.479675, 60.0 ] } },
{ "type": "Feature", "properties": { "value": 0.0509 }, "geometry": { "type": "Point", "coordinates": [ 129.329849, 35.480595, 60.0 ] } },
{ "type": "Feature", "properties": { "value": 10.115 }, "geometry": { "type": "Point", "coordinates": [ 129.330963, 35.480591, 60.0 ] } },
{ "type": "Feature", "properties": { "value": 45.607 }, "geometry": { "type": "Point", "coordinates": [ 129.332062, 35.480587, 60.0 ] } },
{ "type": "Feature", "properties": { "value": 63.138 }, "geometry": { "type": "Point", "coordinates": [ 129.33316, 35.480583, 60.0 ] } },
{ "type": "Feature", "properties": { "value": 29.419 }, "geometry": { "type": "Point", "coordinates": [ 129.334259, 35.480579, 60.0 ] } },
{ "type": "Feature", "properties": { "value": 5.0137 }, "geometry": { "type": "Point", "coordinates": [ 129.335358, 35.480579, 60.0 ] } },
{ "type": "Feature", "properties": { "value": 4.5629 }, "geometry": { "type": "Point", "coordinates": [ 129.330963, 35.481491, 60.0 ] } },
{ "type": "Feature", "properties": { "value": 29.292 }, "geometry": { "type": "Point", "coordinates": [ 129.332062, 35.481487, 60.0 ] } },
{ "type": "Feature", "properties": { "value": 60.983 }, "geometry": { "type": "Point", "coordinates": [ 129.33316, 35.481487, 60.0 ] } },
{ "type": "Feature", "properties": { "value": 45.068 }, "geometry": { "type": "Point", "coordinates": [ 129.334259, 35.481483, 60.0 ] } },
{ "type": "Feature", "properties": { "value": 12.93 }, "geometry": { "type": "Point", "coordinates": [ 129.335373, 35.48148, 60.0 ] } },
{ "type": "Feature", "properties": { "value": 1.4006 }, "geometry": { "type": "Point", "coordinates": [ 129.336472, 35.481476, 60.0 ] } },
{ "type": "Feature", "properties": { "value": 1.6768 }, "geometry": { "type": "Point", "coordinates": [ 129.330963, 35.482391, 60.0 ] } },
{ "type": "Feature", "properties": { "value": 16.194 }, "geometry": { "type": "Point", "coordinates": [ 129.332062, 35.482391, 60.0 ] } },
{ "type": "Feature", "properties": { "value": 49.386 }, "geometry": { "type": "Point", "coordinates": [ 129.333176, 35.482388, 60.0 ] } },
{ "type": "Feature", "properties": { "value": 56.274 }, "geometry": { "type": "Point", "coordinates": [ 129.334274, 35.482384, 60.0 ] } },
{ "type": "Feature", "properties": { "value": 26.134 }, "geometry": { "type": "Point", "coordinates": [ 129.335373, 35.48238, 60.0 ] } },
{ "type": "Feature", "properties": { "value": 5.4028 }, "geometry": { "type": "Point", "coordinates": [ 129.336472, 35.482376, 60.0 ] } },
{ "type": "Feature", "properties": { "value": 0.0601 }, "geometry": { "type": "Point", "coordinates": [ 129.33757, 35.482376, 60.0 ] } },
{ "type": "Feature", "properties": { "value": 0.1854 }, "geometry": { "type": "Point", "coordinates": [ 129.330963, 35.483295, 60.0 ] } },
{ "type": "Feature", "properties": { "value": 7.6716 }, "geometry": { "type": "Point", "coordinates": [ 129.332077, 35.483292, 60.0 ] } },
{ "type": "Feature", "properties": { "value": 33.829 }, "geometry": { "type": "Point", "coordinates": [ 129.333176, 35.483288, 60.0 ] } },
{ "type": "Feature", "properties": { "value": 57.621 }, "geometry": { "type": "Point", "coordinates": [ 129.334274, 35.483284, 60.0 ] } },
{ "type": "Feature", "properties": { "value": 41.752 }, "geometry": { "type": "Point", "coordinates": [ 129.335373, 35.48328, 60.0 ] } },
{ "type": "Feature", "properties": { "value": 14.261 }, "geometry": { "type": "Point", "coordinates": [ 129.336472, 35.48328, 60.0 ] } },
{ "type": "Feature", "properties": { "value": 2.6477 }, "geometry": { "type": "Point", "coordinates": [ 129.337585, 35.483276, 60.0 ] } },
{ "type": "Feature", "properties": { "value": 3.1461 }, "geometry": { "type": "Point", "coordinates": [ 129.332077, 35.484192, 60.0 ] } },
{ "type": "Feature", "properties": { "value": 19.646 }, "geometry": { "type": "Point", "coordinates": [ 129.333176, 35.484188, 60.0 ] } },
{ "type": "Feature", "properties": { "value": 47.977 }, "geometry": { "type": "Point", "coordinates": [ 129.334274, 35.484188, 60.0 ] } },
{ "type": "Feature", "properties": { "value": 51.126 }, "geometry": { "type": "Point", "coordinates": [ 129.335373, 35.484184, 60.0 ] } },
{ "type": "Feature", "properties": { "value": 27.264 }, "geometry": { "type": "Point", "coordinates": [ 129.336487, 35.48418, 60.0 ] } },
{ "type": "Feature", "properties": { "value": 8.4763 }, "geometry": { "type": "Point", "coordinates": [ 129.337585, 35.484177, 60.0 ] } },
{ "type": "Feature", "properties": { "value": 1.7138 }, "geometry": { "type": "Point", "coordinates": [ 129.338684, 35.484173, 60.0 ] } },
{ "type": "Feature", "properties": { "value": 1.0556 }, "geometry": { "type": "Point", "coordinates": [ 129.332077, 35.485092, 60.0 ] } },
{ "type": "Feature", "properties": { "value": 9.8044 }, "geometry": { "type": "Point", "coordinates": [ 129.333176, 35.485092, 60.0 ] } },
{ "type": "Feature", "properties": { "value": 32.221 }, "geometry": { "type": "Point", "coordinates": [ 129.334274, 35.485088, 60.0 ] } },
{ "type": "Feature", "properties": { "value": 48.663 }, "geometry": { "type": "Point", "coordinates": [ 129.335388, 35.485085, 60.0 ] } },
{ "type": "Feature", "properties": { "value": 38.45 }, "geometry": { "type": "Point", "coordinates": [ 129.336487, 35.485081, 60.0 ] } },
{ "type": "Feature", "properties": { "value": 18.086 }, "geometry": { "type": "Point", "coordinates": [ 129.337585, 35.485077, 60.0 ] } },
{ "type": "Feature", "properties": { "value": 5.7074 }, "geometry": { "type": "Point", "coordinates": [ 129.338684, 35.485077, 60.0 ] } },
{ "type": "Feature", "properties": { "value": 1.259 }, "geometry": { "type": "Point", "coordinates": [ 129.339798, 35.485073, 60.0 ] } },
{ "type": "Feature", "properties": { "value": 0.0278 }, "geometry": { "type": "Point", "coordinates": [ 129.332077, 35.485996, 60.0 ] } },
{ "type": "Feature", "properties": { "value": 4.4521 }, "geometry": { "type": "Point", "coordinates": [ 129.333176, 35.485992, 60.0 ] } },
{ "type": "Feature", "properties": { "value": 18.84 }, "geometry": { "type": "Point", "coordinates": [ 129.33429, 35.485989, 60.0 ] } },
{ "type": "Feature", "properties": { "value": 38.394 }, "geometry": { "type": "Point", "coordinates": [ 129.335388, 35.485985, 60.0 ] } },
{ "type": "Feature", "properties": { "value": 42.468 }, "geometry": { "type": "Point", "coordinates": [ 129.336487, 35.485981, 60.0 ] } },
{ "type": "Feature", "properties": { "value": 28.456 }, "geometry": { "type": "Point", "coordinates": [ 129.337585, 35.485981, 60.0 ] } },
{ "type": "Feature", "properties": { "value": 12.781 }, "geometry": { "type": "Point", "coordinates": [ 129.338699, 35.485977, 60.0 ] } },
{ "type": "Feature", "properties": { "value": 4.2013 }, "geometry": { "type": "Point", "coordinates": [ 129.339798, 35.485973, 60.0 ] } },
{ "type": "Feature", "properties": { "value": 1.0494 }, "geometry": { "type": "Point", "coordinates": [ 129.340897, 35.48597, 60.0 ] } },
{ "type": "Feature", "properties": { "value": 1.9162 }, "geometry": { "type": "Point", "coordinates": [ 129.333191, 35.486893, 60.0 ] } },
{ "type": "Feature", "properties": { "value": 10.074 }, "geometry": { "type": "Point", "coordinates": [ 129.33429, 35.486889, 60.0 ] } },
{ "type": "Feature", "properties": { "value": 26.273 }, "geometry": { "type": "Point", "coordinates": [ 129.335388, 35.486889, 60.0 ] } },
{ "type": "Feature", "properties": { "value": 38.629 }, "geometry": { "type": "Point", "coordinates": [ 129.336487, 35.486885, 60.0 ] } },
{ "type": "Feature", "properties": { "value": 35.093 }, "geometry": { "type": "Point", "coordinates": [ 129.337601, 35.486881, 60.0 ] } },
{ "type": "Feature", "properties": { "value": 21.448 }, "geometry": { "type": "Point", "coordinates": [ 129.338699, 35.486877, 60.0 ] } },
{ "type": "Feature", "properties": { "value": 9.6164 }, "geometry": { "type": "Point", "coordinates": [ 129.339798, 35.486874, 60.0 ] } },
{ "type": "Feature", "properties": { "value": 3.3968 }, "geometry": { "type": "Point", "coordinates": [ 129.340897, 35.486874, 60.0 ] } },
{ "type": "Feature", "properties": { "value": 0.9428 }, "geometry": { "type": "Point", "coordinates": [ 129.341995, 35.48687, 60.0 ] } },
{ "type": "Feature", "properties": { "value": 0.7248 }, "geometry": { "type": "Point", "coordinates": [ 129.333191, 35.487793, 60.0 ] } },
{ "type": "Feature", "properties": { "value": 5.0323 }, "geometry": { "type": "Point", "coordinates": [ 129.33429, 35.487793, 60.0 ] } },
{ "type": "Feature", "properties": { "value": 16.115 }, "geometry": { "type": "Point", "coordinates": [ 129.335388, 35.487789, 60.0 ] } },
{ "type": "Feature", "properties": { "value": 30.126 }, "geometry": { "type": "Point", "coordinates": [ 129.336502, 35.487785, 60.0 ] } },
{ "type": "Feature", "properties": { "value": 35.54 }, "geometry": { "type": "Point", "coordinates": [ 129.337601, 35.487782, 60.0 ] } },
{ "type": "Feature", "properties": { "value": 28.445 }, "geometry": { "type": "Point", "coordinates": [ 129.338699, 35.487778, 60.0 ] } },
{ "type": "Feature", "properties": { "value": 16.717 }, "geometry": { "type": "Point", "coordinates": [ 129.339798, 35.487778, 60.0 ] } },
{ "type": "Feature", "properties": { "value": 7.7353 }, "geometry": { "type": "Point", "coordinates": [ 129.340912, 35.487774, 60.0 ] } },
{ "type": "Feature", "properties": { "value": 2.9497 }, "geometry": { "type": "Point", "coordinates": [ 129.34201, 35.48777, 60.0 ] } },
{ "type": "Feature", "properties": { "value": 0.9236 }, "geometry": { "type": "Point", "coordinates": [ 129.343109, 35.487766, 60.0 ] } },
{ "type": "Feature", "properties": { "value": 0.0639 }, "geometry": { "type": "Point", "coordinates": [ 129.344208, 35.487762, 60.0 ] } },
{ "type": "Feature", "properties": { "value": 0.0161 }, "geometry": { "type": "Point", "coordinates": [ 129.333191, 35.488697, 60.0 ] } },
{ "type": "Feature", "properties": { "value": 2.3516 }, "geometry": { "type": "Point", "coordinates": [ 129.33429, 35.488693, 60.0 ] } },
{ "type": "Feature", "properties": { "value": 9.0541 }, "geometry": { "type": "Point", "coordinates": [ 129.335403, 35.488689, 60.0 ] } },
{ "type": "Feature", "properties": { "value": 20.764 }, "geometry": { "type": "Point", "coordinates": [ 129.336502, 35.488686, 60.0 ] } },
{ "type": "Feature", "properties": { "value": 30.76 }, "geometry": { "type": "Point", "coordinates": [ 129.337601, 35.488682, 60.0 ] } },
{ "type": "Feature", "properties": { "value": 31.268 }, "geometry": { "type": "Point", "coordinates": [ 129.338699, 35.488682, 60.0 ] } },
{ "type": "Feature", "properties": { "value": 23.402 }, "geometry": { "type": "Point", "coordinates": [ 129.339813, 35.488678, 60.0 ] } },
{ "type": "Feature", "properties": { "value": 13.73 }, "geometry": { "type": "Point", "coordinates": [ 129.340912, 35.488674, 60.0 ] } },
{ "type": "Feature", "properties": { "value": 6.5961 }, "geometry": { "type": "Point", "coordinates": [ 129.34201, 35.48867, 60.0 ] } },
{ "type": "Feature", "properties": { "value": 2.6943 }, "geometry": { "type": "Point", "coordinates": [ 129.343109, 35.488667, 60.0 ] } },
{ "type": "Feature", "properties": { "value": 0.9351 }, "geometry": { "type": "Point", "coordinates": [ 129.344208, 35.488667, 60.0 ] } },
{ "type": "Feature", "properties": { "value": 0.2027 }, "geometry": { "type": "Point", "coordinates": [ 129.345322, 35.488663, 60.0 ] } },
{ "type": "Feature", "properties": { "value": 0.9995 }, "geometry": { "type": "Point", "coordinates": [ 129.334305, 35.489594, 60.0 ] } },
{ "type": "Feature", "properties": { "value": 4.6891 }, "geometry": { "type": "Point", "coordinates": [ 129.335403, 35.48959, 60.0 ] } },
{ "type": "Feature", "properties": { "value": 12.917 }, "geometry": { "type": "Point", "coordinates": [ 129.336502, 35.48959, 60.0 ] } },
{ "type": "Feature", "properties": { "value": 23.397 }, "geometry": { "type": "Point", "coordinates": [ 129.337601, 35.489586, 60.0 ] } },
{ "type": "Feature", "properties": { "value": 29.504 }, "geometry": { "type": "Point", "coordinates": [ 129.338715, 35.489582, 60.0 ] } },
{ "type": "Feature", "properties": { "value": 27.428 }, "geometry": { "type": "Point", "coordinates": [ 129.339813, 35.489578, 60.0 ] } },
{ "type": "Feature", "properties": { "value": 19.943 }, "geometry": { "type": "Point", "coordinates": [ 129.340912, 35.489574, 60.0 ] } },
{ "type": "Feature", "properties": { "value": 11.856 }, "geometry": { "type": "Point", "coordinates": [ 129.34201, 35.489571, 60.0 ] } },
{ "type": "Feature", "properties": { "value": 5.9458 }, "geometry": { "type": "Point", "coordinates": [ 129.343109, 35.489571, 60.0 ] } },
{ "type": "Feature", "properties": { "value": 2.5774 }, "geometry": { "type": "Point", "coordinates": [ 129.344223, 35.489567, 60.0 ] } },
{ "type": "Feature", "properties": { "value": 0.9812 }, "geometry": { "type": "Point", "coordinates": [ 129.345322, 35.489563, 60.0 ] } },
{ "type": "Feature", "properties": { "value": 0.2765 }, "geometry": { "type": "Point", "coordinates": [ 129.34642, 35.489559, 60.0 ] } },
{ "type": "Feature", "properties": { "value": 0.3109 }, "geometry": { "type": "Point", "coordinates": [ 129.334305, 35.490494, 60.0 ] } },
{ "type": "Feature", "properties": { "value": 2.2585 }, "geometry": { "type": "Point", "coordinates": [ 129.335403, 35.490494, 60.0 ] } },
{ "type": "Feature", "properties": { "value": 7.3315 }, "geometry": { "type": "Point", "coordinates": [ 129.336502, 35.49049, 60.0 ] } },
{ "type": "Feature", "properties": { "value": 15.88 }, "geometry": { "type": "Point", "coordinates": [ 129.337616, 35.490486, 60.0 ] } },
{ "type": "Feature", "properties": { "value": 24.17 }, "geometry": { "type": "Point", "coordinates": [ 129.338715, 35.490482, 60.0 ] } },
{ "type": "Feature", "properties": { "value": 27.374 }, "geometry": { "type": "Point", "coordinates": [ 129.339813, 35.490479, 60.0 ] } },
{ "type": "Feature", "properties": { "value": 24.32 }, "geometry": { "type": "Point", "coordinates": [ 129.340912, 35.490479, 60.0 ] } },
{ "type": "Feature", "properties": { "value": 17.545 }, "geometry": { "type": "Point", "coordinates": [ 129.34201, 35.490475, 60.0 ] } },
{ "type": "Feature", "properties": { "value": 10.601 }, "geometry": { "type": "Point", "coordinates": [ 129.343124, 35.490471, 60.0 ] } },
{ "type": "Feature", "properties": { "value": 5.5471 }, "geometry": { "type": "Point", "coordinates": [ 129.344223, 35.490467, 60.0 ] } },
{ "type": "Feature", "properties": { "value": 2.581 }, "geometry": { "type": "Point", "coordinates": [ 129.345322, 35.490463, 60.0 ] } },
{ "type": "Feature", "properties": { "value": 1.0568 }, "geometry": { "type": "Point", "coordinates": [ 129.34642, 35.490459, 60.0 ] } },
{ "type": "Feature", "properties": { "value": 0.3435 }, "geometry": { "type": "Point", "coordinates": [ 129.347534, 35.490459, 60.0 ] } },
{ "type": "Feature", "properties": { "value": 0.0059 }, "geometry": { "type": "Point", "coordinates": [ 129.348633, 35.490456, 60.0 ] } },
{ "type": "Feature", "properties": { "value": 0.9751 }, "geometry": { "type": "Point", "coordinates": [ 129.335403, 35.491394, 60.0 ] } },
{ "type": "Feature", "properties": { "value": 3.811 }, "geometry": { "type": "Point", "coordinates": [ 129.336517, 35.49139, 60.0 ] } },
{ "type": "Feature", "properties": { "value": 9.6931 }, "geometry": { "type": "Point", "coordinates": [ 129.337616, 35.491386, 60.0 ] } },
{ "type": "Feature", "properties": { "value": 17.437 }, "geometry": { "type": "Point", "coordinates": [ 129.338715, 35.491383, 60.0 ] } },
{ "type": "Feature", "properties": { "value": 23.591 }, "geometry": { "type": "Point", "coordinates": [ 129.339813, 35.491383, 60.0 ] } },
{ "type": "Feature", "properties": { "value": 25.139 }, "geometry": { "type": "Point", "coordinates": [ 129.340927, 35.491379, 60.0 ] } },
{ "type": "Feature", "properties": { "value": 21.701 }, "geometry": { "type": "Point", "coordinates": [ 129.342026, 35.491375, 60.0 ] } },
{ "type": "Feature", "properties": { "value": 15.625 }, "geometry": { "type": "Point", "coordinates": [ 129.343124, 35.491371, 60.0 ] } },
{ "type": "Feature", "properties": { "value": 9.6908 }, "geometry": { "type": "Point", "coordinates": [ 129.344223, 35.491367, 60.0 ] } },
{ "type": "Feature", "properties": { "value": 5.3069 }, "geometry": { "type": "Point", "coordinates": [ 129.345322, 35.491367, 60.0 ] } },
{ "type": "Feature", "properties": { "value": 2.6043 }, "geometry": { "type": "Point", "coordinates": [ 129.346436, 35.491364, 60.0 ] } },
{ "type": "Feature", "properties": { "value": 1.1377 }, "geometry": { "type": "Point", "coordinates": [ 129.347534, 35.49136, 60.0 ] } },
{ "type": "Feature", "properties": { "value": 0.4213 }, "geometry": { "type": "Point", "coordinates": [ 129.348633, 35.491356, 60.0 ] } },
{ "type": "Feature", "properties": { "value": 0.0378 }, "geometry": { "type": "Point", "coordinates": [ 129.349731, 35.491352, 60.0 ] } },
{ "type": "Feature", "properties": { "value": 0.3312 }, "geometry": { "type": "Point", "coordinates": [ 129.335419, 35.492294, 60.0 ] } },
{ "type": "Feature", "properties": { "value": 1.7952 }, "geometry": { "type": "Point", "coordinates": [ 129.336517, 35.49229, 60.0 ] } },
{ "type": "Feature", "properties": { "value": 5.3466 }, "geometry": { "type": "Point", "coordinates": [ 129.337616, 35.49229, 60.0 ] } },
{ "type": "Feature", "properties": { "value": 11.276 }, "geometry": { "type": "Point", "coordinates": [ 129.338715, 35.492287, 60.0 ] } },
{ "type": "Feature", "properties": { "value": 17.926 }, "geometry": { "type": "Point", "coordinates": [ 129.339828, 35.492283, 60.0 ] } },
{ "type": "Feature", "properties": { "value": 22.463 }, "geometry": { "type": "Point", "coordinates": [ 129.340927, 35.492279, 60.0 ] } },
{ "type": "Feature", "properties": { "value": 22.858 }, "geometry": { "type": "Point", "coordinates": [ 129.342026, 35.492275, 60.0 ] } },
{ "type": "Feature", "properties": { "value": 19.433 }, "geometry": { "type": "Point", "coordinates": [ 129.343124, 35.492271, 60.0 ] } },
{ "type": "Feature", "properties": { "value": 14.139 }, "geometry": { "type": "Point", "coordinates": [ 129.344223, 35.492271, 60.0 ] } },
{ "type": "Feature", "properties": { "value": 9.0322 }, "geometry": { "type": "Point", "coordinates": [ 129.345337, 35.492268, 60.0 ] } },
{ "type": "Feature", "properties": { "value": 5.1655 }, "geometry": { "type": "Point", "coordinates": [ 129.346436, 35.492264, 60.0 ] } },
{ "type": "Feature", "properties": { "value": 2.6638 }, "geometry": { "type": "Point", "coordinates": [ 129.347534, 35.49226, 60.0 ] } },
{ "type": "Feature", "properties": { "value": 1.2437 }, "geometry": { "type": "Point", "coordinates": [ 129.348633, 35.492256, 60.0 ] } },
{ "type": "Feature", "properties": { "value": 0.5156 }, "geometry": { "type": "Point", "coordinates": [ 129.349747, 35.492252, 60.0 ] } },
{ "type": "Feature", "properties": { "value": 0.1122 }, "geometry": { "type": "Point", "coordinates": [ 129.350845, 35.492252, 60.0 ] } },
{ "type": "Feature", "properties": { "value": 0.7538 }, "geometry": { "type": "Point", "coordinates": [ 129.336517, 35.493195, 60.0 ] } },
{ "type": "Feature", "properties": { "value": 2.6738 }, "geometry": { "type": "Point", "coordinates": [ 129.337616, 35.493191, 60.0 ] } },
{ "type": "Feature", "properties": { "value": 6.5712 }, "geometry": { "type": "Point", "coordinates": [ 129.33873, 35.493187, 60.0 ] } },
{ "type": "Feature", "properties": { "value": 12.158 }, "geometry": { "type": "Point", "coordinates": [ 129.339828, 35.493183, 60.0 ] } },
{ "type": "Feature", "properties": { "value": 17.706 }, "geometry": { "type": "Point", "coordinates": [ 129.340927, 35.493179, 60.0 ] } },
{ "type": "Feature", "properties": { "value": 21.02 }, "geometry": { "type": "Point", "coordinates": [ 129.342026, 35.493179, 60.0 ] } },
{ "type": "Feature", "properties": { "value": 20.83 }, "geometry": { "type": "Point", "coordinates": [ 129.343124, 35.493176, 60.0 ] } },
{ "type": "Feature", "properties": { "value": 17.638 }, "geometry": { "type": "Point", "coordinates": [ 129.344238, 35.493172, 60.0 ] } },
{ "type": "Feature", "properties": { "value": 13.072 }, "geometry": { "type": "Point", "coordinates": [ 129.345337, 35.493168, 60.0 ] } },
{ "type": "Feature", "properties": { "value": 8.6121 }, "geometry": { "type": "Point", "coordinates": [ 129.346436, 35.493164, 60.0 ] } },
{ "type": "Feature", "properties": { "value": 5.1355 }, "geometry": { "type": "Point", "coordinates": [ 129.347534, 35.49316, 60.0 ] } },
{ "type": "Feature", "properties": { "value": 2.8033 }, "geometry": { "type": "Point", "coordinates": [ 129.348648, 35.49316, 60.0 ] } },
{ "type": "Feature", "properties": { "value": 1.4289 }, "geometry": { "type": "Point", "coordinates": [ 129.349747, 35.493156, 60.0 ] } },
{ "type": "Feature", "properties": { "value": 0.6641 }, "geometry": { "type": "Point", "coordinates": [ 129.350845, 35.493153, 60.0 ] } },
{ "type": "Feature", "properties": { "value": 0.2628 }, "geometry": { "type": "Point", "coordinates": [ 129.351944, 35.493149, 60.0 ] } },
{ "type": "Feature", "properties": { "value": 0.0455 }, "geometry": { "type": "Point", "coordinates": [ 129.353043, 35.493145, 60.0 ] } },
{ "type": "Feature", "properties": { "value": 0.2135 }, "geometry": { "type": "Point", "coordinates": [ 129.336517, 35.494095, 60.0 ] } },
{ "type": "Feature", "properties": { "value": 1.2073 }, "geometry": { "type": "Point", "coordinates": [ 129.337631, 35.494091, 60.0 ] } },
{ "type": "Feature", "properties": { "value": 3.4628 }, "geometry": { "type": "Point", "coordinates": [ 129.33873, 35.494087, 60.0 ] } },
{ "type": "Feature", "properties": { "value": 7.4092 }, "geometry": { "type": "Point", "coordinates": [ 129.339828, 35.494083, 60.0 ] } },
{ "type": "Feature", "properties": { "value": 12.466 }, "geometry": { "type": "Point", "coordinates": [ 129.340927, 35.494083, 60.0 ] } },
{ "type": "Feature", "properties": { "value": 17.086 }, "geometry": { "type": "Point", "coordinates": [ 129.342026, 35.49408, 60.0 ] } },
{ "type": "Feature", "properties": { "value": 19.594 }, "geometry": { "type": "Point", "coordinates": [ 129.34314, 35.494076, 60.0 ] } },
{ "type": "Feature", "properties": { "value": 19.207 }, "geometry": { "type": "Point", "coordinates": [ 129.344238, 35.494072, 60.0 ] } },
{ "type": "Feature", "properties": { "value": 16.409 }, "geometry": { "type": "Point", "coordinates": [ 129.345337, 35.494068, 60.0 ] } },
{ "type": "Feature", "properties": { "value": 12.454 }, "geometry": { "type": "Point", "coordinates": [ 129.346436, 35.494068, 60.0 ] } },
{ "type": "Feature", "properties": { "value": 8.5483 }, "geometry": { "type": "Point", "coordinates": [ 129.347549, 35.494064, 60.0 ] } },
{ "type": "Feature", "properties": { "value": 5.3807 }, "geometry": { "type": "Point", "coordinates": [ 129.348648, 35.494061, 60.0 ] } },
{ "type": "Feature", "properties": { "value": 3.146 }, "geometry": { "type": "Point", "coordinates": [ 129.349747, 35.494057, 60.0 ] } },
{ "type": "Feature", "properties": { "value": 1.7403 }, "geometry": { "type": "Point", "coordinates": [ 129.350845, 35.494053, 60.0 ] } },
{ "type": "Feature", "properties": { "value": 0.9308 }, "geometry": { "type": "Point", "coordinates": [ 129.351959, 35.494049, 60.0 ] } },
{ "type": "Feature", "properties": { "value": 0.4686 }, "geometry": { "type": "Point", "coordinates": [ 129.353058, 35.494049, 60.0 ] } },
{ "type": "Feature", "properties": { "value": 0.2096 }, "geometry": { "type": "Point", "coordinates": [ 129.354156, 35.494045, 60.0 ] } },
{ "type": "Feature", "properties": { "value": 0.0375 }, "geometry": { "type": "Point", "coordinates": [ 129.355255, 35.494041, 60.0 ] } },
{ "type": "Feature", "properties": { "value": 0.4594 }, "geometry": { "type": "Point", "coordinates": [ 129.337631, 35.494991, 60.0 ] } },
{ "type": "Feature", "properties": { "value": 1.6449 }, "geometry": { "type": "Point", "coordinates": [ 129.33873, 35.494991, 60.0 ] } },
{ "type": "Feature", "properties": { "value": 4.0644 }, "geometry": { "type": "Point", "coordinates": [ 129.339828, 35.494987, 60.0 ] } },
{ "type": "Feature", "properties": { "value": 7.877 }, "geometry": { "type": "Point", "coordinates": [ 129.340942, 35.494984, 60.0 ] } },
{ "type": "Feature", "properties": { "value": 12.408 }, "geometry": { "type": "Point", "coordinates": [ 129.342041, 35.49498, 60.0 ] } },
{ "type": "Feature", "properties": { "value": 16.304 }, "geometry": { "type": "Point", "coordinates": [ 129.34314, 35.494976, 60.0 ] } },
{ "type": "Feature", "properties": { "value": 18.371 }, "geometry": { "type": "Point", "coordinates": [ 129.344238, 35.494972, 60.0 ] } },
{ "type": "Feature", "properties": { "value": 18.065 }, "geometry": { "type": "Point", "coordinates": [ 129.345337, 35.494972, 60.0 ] } },
{ "type": "Feature", "properties": { "value": 15.714 }, "geometry": { "type": "Point", "coordinates": [ 129.346451, 35.494968, 60.0 ] } },
{ "type": "Feature", "properties": { "value": 12.319 }, "geometry": { "type": "Point", "coordinates": [ 129.347549, 35.494965, 60.0 ] } },
{ "type": "Feature", "properties": { "value": 8.8438 }, "geometry": { "type": "Point", "coordinates": [ 129.348648, 35.494961, 60.0 ] } },
{ "type": "Feature", "properties": { "value": 5.8806 }, "geometry": { "type": "Point", "coordinates": [ 129.349747, 35.494957, 60.0 ] } },
{ "type": "Feature", "properties": { "value": 3.7035 }, "geometry": { "type": "Point", "coordinates": [ 129.350861, 35.494953, 60.0 ] } },
{ "type": "Feature", "properties": { "value": 2.2373 }, "geometry": { "type": "Point", "coordinates": [ 129.351959, 35.494953, 60.0 ] } },
{ "type": "Feature", "properties": { "value": 1.3233 }, "geometry": { "type": "Point", "coordinates": [ 129.353058, 35.494949, 60.0 ] } },
{ "type": "Feature", "properties": { "value": 0.7784 }, "geometry": { "type": "Point", "coordinates": [ 129.354156, 35.494946, 60.0 ] } },
{ "type": "Feature", "properties": { "value": 0.4491 }, "geometry": { "type": "Point", "coordinates": [ 129.355255, 35.494942, 60.0 ] } },
{ "type": "Feature", "properties": { "value": 0.2543 }, "geometry": { "type": "Point", "coordinates": [ 129.356369, 35.494938, 60.0 ] } },
{ "type": "Feature", "properties": { "value": 0.1176 }, "geometry": { "type": "Point", "coordinates": [ 129.357468, 35.494934, 60.0 ] } },
{ "type": "Feature", "properties": { "value": 0.03 }, "geometry": { "type": "Point", "coordinates": [ 129.358566, 35.494934, 60.0 ] } },
{ "type": "Feature", "properties": { "value": 0.0077 }, "geometry": { "type": "Point", "coordinates": [ 129.337631, 35.495895, 60.0 ] } },
{ "type": "Feature", "properties": { "value": 0.6911 }, "geometry": { "type": "Point", "coordinates": [ 129.33873, 35.495892, 60.0 ] } },
{ "type": "Feature", "properties": { "value": 2.0258 }, "geometry": { "type": "Point", "coordinates": [ 129.339844, 35.495888, 60.0 ] } },
{ "type": "Feature", "properties": { "value": 4.4904 }, "geometry": { "type": "Point", "coordinates": [ 129.340942, 35.495884, 60.0 ] } },
{ "type": "Feature", "properties": { "value": 8.0686 }, "geometry": { "type": "Point", "coordinates": [ 129.342041, 35.49588, 60.0 ] } },
{ "type": "Feature", "properties": { "value": 12.08 }, "geometry": { "type": "Point", "coordinates": [ 129.34314, 35.49588, 60.0 ] } },
{ "type": "Feature", "properties": { "value": 15.553 }, "geometry": { "type": "Point", "coordinates": [ 129.344238, 35.495876, 60.0 ] } },
{ "type": "Feature", "properties": { "value": 17.479 }, "geometry": { "type": "Point", "coordinates": [ 129.345352, 35.495872, 60.0 ] } },
{ "type": "Feature", "properties": { "value": 17.306 }, "geometry": { "type": "Point", "coordinates": [ 129.346451, 35.495869, 60.0 ] } },
{ "type": "Feature", "properties": { "value": 15.386 }, "geometry": { "type": "Point", "coordinates": [ 129.347549, 35.495865, 60.0 ] } },
{ "type": "Feature", "properties": { "value": 12.511 }, "geometry": { "type": "Point", "coordinates": [ 129.348648, 35.495861, 60.0 ] } },
{ "type": "Feature", "properties": { "value": 9.4123 }, "geometry": { "type": "Point", "coordinates": [ 129.349762, 35.495861, 60.0 ] } },
{ "type": "Feature", "properties": { "value": 6.6328 }, "geometry": { "type": "Point", "coordinates": [ 129.350861, 35.495857, 60.0 ] } },
{ "type": "Feature", "properties": { "value": 4.4689 }, "geometry": { "type": "Point", "coordinates": [ 129.351959, 35.495853, 60.0 ] } },
{ "type": "Feature", "properties": { "value": 2.9325 }, "geometry": { "type": "Point", "coordinates": [ 129.353058, 35.49585, 60.0 ] } },
{ "type": "Feature", "properties": { "value": 1.8832 }, "geometry": { "type": "Point", "coordinates": [ 129.354156, 35.495846, 60.0 ] } },
{ "type": "Feature", "properties": { "value": 1.1918 }, "geometry": { "type": "Point", "coordinates": [ 129.35527, 35.495842, 60.0 ] } },
{ "type": "Feature", "properties": { "value": 0.7392 }, "geometry": { "type": "Point", "coordinates": [ 129.356369, 35.495838, 60.0 ] } },
{ "type": "Feature", "properties": { "value": 0.4359 }, "geometry": { "type": "Point", "coordinates": [ 129.357468, 35.495838, 60.0 ] } },
{ "type": "Feature", "properties": { "value": 0.2385 }, "geometry": { "type": "Point", "coordinates": [ 129.358566, 35.495834, 60.0 ] } },
{ "type": "Feature", "properties": { "value": 0.1169 }, "geometry": { "type": "Point", "coordinates": [ 129.35968, 35.495831, 60.0 ] } },
{ "type": "Feature", "properties": { "value": 0.0379 }, "geometry": { "type": "Point", "coordinates": [ 129.360779, 35.495827, 60.0 ] } },
{ "type": "Feature", "properties": { "value": 0.0064 }, "geometry": { "type": "Point", "coordinates": [ 129.361877, 35.495823, 60.0 ] } },
{ "type": "Feature", "properties": { "value": 0.2033 }, "geometry": { "type": "Point", "coordinates": [ 129.338745, 35.496792, 60.0 ] } },
{ "type": "Feature", "properties": { "value": 0.8881 }, "geometry": { "type": "Point", "coordinates": [ 129.339844, 35.496788, 60.0 ] } },
{ "type": "Feature", "properties": { "value": 2.3088 }, "geometry": { "type": "Point", "coordinates": [ 129.340942, 35.496784, 60.0 ] } },
{ "type": "Feature", "properties": { "value": 4.7129 }, "geometry": { "type": "Point", "coordinates": [ 129.342041, 35.496784, 60.0 ] } },
{ "type": "Feature", "properties": { "value": 8.0133 }, "geometry": { "type": "Point", "coordinates": [ 129.34314, 35.49678, 60.0 ] } },
{ "type": "Feature", "properties": { "value": 11.671 }, "geometry": { "type": "Point", "coordinates": [ 129.344254, 35.496777, 60.0 ] } },
{ "type": "Feature", "properties": { "value": 14.841 }, "geometry": { "type": "Point", "coordinates": [ 129.345352, 35.496773, 60.0 ] } },
{ "type": "Feature", "properties": { "value": 16.612 }, "geometry": { "type": "Point", "coordinates": [ 129.346451, 35.496769, 60.0 ] } },
{ "type": "Feature", "properties": { "value": 16.675 }, "geometry": { "type": "Point", "coordinates": [ 129.347549, 35.496765, 60.0 ] } },
{ "type": "Feature", "properties": { "value": 15.25 }, "geometry": { "type": "Point", "coordinates": [ 129.348663, 35.496765, 60.0 ] } },
{ "type": "Feature", "properties": { "value": 12.894 }, "geometry": { "type": "Point", "coordinates": [ 129.349762, 35.496761, 60.0 ] } },
{ "type": "Feature", "properties": { "value": 10.143 }, "geometry": { "type": "Point", "coordinates": [ 129.350861, 35.496758, 60.0 ] } },
{ "type": "Feature", "properties": { "value": 7.5391 }, "geometry": { "type": "Point", "coordinates": [ 129.351959, 35.496754, 60.0 ] } },
{ "type": "Feature", "properties": { "value": 5.4032 }, "geometry": { "type": "Point", "coordinates": [ 129.353073, 35.49675, 60.0 ] } },
{ "type": "Feature", "properties": { "value": 3.7615 }, "geometry": { "type": "Point", "coordinates": [ 129.354172, 35.496746, 60.0 ] } },
{ "type": "Feature", "properties": { "value": 2.5522 }, "geometry": { "type": "Point", "coordinates": [ 129.35527, 35.496746, 60.0 ] } },
{ "type": "Feature", "properties": { "value": 1.6697 }, "geometry": { "type": "Point", "coordinates": [ 129.356369, 35.496742, 60.0 ] } },
{ "type": "Feature", "properties": { "value": 1.0363 }, "geometry": { "type": "Point", "coordinates": [ 129.357468, 35.496738, 60.0 ] } },
{ "type": "Feature", "properties": { "value": 0.6079 }, "geometry": { "type": "Point", "coordinates": [ 129.358582, 35.496735, 60.0 ] } },
{ "type": "Feature", "properties": { "value": 0.3217 }, "geometry": { "type": "Point", "coordinates": [ 129.35968, 35.496731, 60.0 ] } },
{ "type": "Feature", "properties": { "value": 0.1501 }, "geometry": { "type": "Point", "coordinates": [ 129.360779, 35.496727, 60.0 ] } },
{ "type": "Feature", "properties": { "value": 0.055 }, "geometry": { "type": "Point", "coordinates": [ 129.361877, 35.496723, 60.0 ] } },
{ "type": "Feature", "properties": { "value": 0.0077 }, "geometry": { "type": "Point", "coordinates": [ 129.362991, 35.496723, 60.0 ] } },
{ "type": "Feature", "properties": { "value": 0.3283 }, "geometry": { "type": "Point", "coordinates": [ 129.339844, 35.497692, 60.0 ] } },
{ "type": "Feature", "properties": { "value": 1.0482 }, "geometry": { "type": "Point", "coordinates": [ 129.340942, 35.497688, 60.0 ] } },
{ "type": "Feature", "properties": { "value": 2.4569 }, "geometry": { "type": "Point", "coordinates": [ 129.342041, 35.497684, 60.0 ] } },
{ "type": "Feature", "properties": { "value": 4.7084 }, "geometry": { "type": "Point", "coordinates": [ 129.343155, 35.497681, 60.0 ] } },
{ "type": "Feature", "properties": { "value": 7.7292 }, "geometry": { "type": "Point", "coordinates": [ 129.344254, 35.497677, 60.0 ] } },
{ "type": "Feature", "properties": { "value": 11.058 }, "geometry": { "type": "Point", "coordinates": [ 129.345352, 35.497673, 60.0 ] } },
{ "type": "Feature", "properties": { "value": 13.928 }, "geometry": { "type": "Point", "coordinates": [ 129.346451, 35.497673, 60.0 ] } },
{ "type": "Feature", "properties": { "value": 15.705 }, "geometry": { "type": "Point", "coordinates": [ 129.347565, 35.497669, 60.0 ] } },
{ "type": "Feature", "properties": { "value": 16.06 }, "geometry": { "type": "Point", "coordinates": [ 129.348663, 35.497665, 60.0 ] } },
{ "type": "Feature", "properties": { "value": 15.113 }, "geometry": { "type": "Point", "coordinates": [ 129.349762, 35.497662, 60.0 ] } },
{ "type": "Feature", "properties": { "value": 13.202 }, "geometry": { "type": "Point", "coordinates": [ 129.350861, 35.497658, 60.0 ] } },
{ "type": "Feature", "properties": { "value": 10.817 }, "geometry": { "type": "Point", "coordinates": [ 129.351974, 35.497654, 60.0 ] } },
{ "type": "Feature", "properties": { "value": 8.4722 }, "geometry": { "type": "Point", "coordinates": [ 129.353073, 35.497654, 60.0 ] } },
{ "type": "Feature", "properties": { "value": 6.3726 }, "geometry": { "type": "Point", "coordinates": [ 129.354172, 35.49765, 60.0 ] } },
{ "type": "Feature", "properties": { "value": 4.5957 }, "geometry": { "type": "Point", "coordinates": [ 129.35527, 35.497646, 60.0 ] } },
{ "type": "Feature", "properties": { "value": 3.1567 }, "geometry": { "type": "Point", "coordinates": [ 129.356369, 35.497643, 60.0 ] } },
{ "type": "Feature", "properties": { "value": 2.0428 }, "geometry": { "type": "Point", "coordinates": [ 129.357483, 35.497639, 60.0 ] } },
{ "type": "Feature", "properties": { "value": 1.2318 }, "geometry": { "type": "Point", "coordinates": [ 129.358582, 35.497635, 60.0 ] } },
{ "type": "Feature", "properties": { "value": 0.6773 }, "geometry": { "type": "Point", "coordinates": [ 129.35968, 35.497631, 60.0 ] } },
{ "type": "Feature", "properties": { "value": 0.3307 }, "geometry": { "type": "Point", "coordinates": [ 129.360779, 35.497631, 60.0 ] } },
{ "type": "Feature", "properties": { "value": 0.1396 }, "geometry": { "type": "Point", "coordinates": [ 129.361893, 35.497627, 60.0 ] } },
{ "type": "Feature", "properties": { "value": 0.0459 }, "geometry": { "type": "Point", "coordinates": [ 129.362991, 35.497623, 60.0 ] } },
{ "type": "Feature", "properties": { "value": 0.0068 }, "geometry": { "type": "Point", "coordinates": [ 129.36409, 35.49762, 60.0 ] } },
{ "type": "Feature", "properties": { "value": 0.3902 }, "geometry": { "type": "Point", "coordinates": [ 129.340958, 35.498589, 60.0 ] } },
{ "type": "Feature", "properties": { "value": 1.1117 }, "geometry": { "type": "Point", "coordinates": [ 129.342056, 35.498585, 60.0 ] } },
{ "type": "Feature", "properties": { "value": 2.4326 }, "geometry": { "type": "Point", "coordinates": [ 129.343155, 35.498581, 60.0 ] } },
{ "type": "Feature", "properties": { "value": 4.4922 }, "geometry": { "type": "Point", "coordinates": [ 129.344254, 35.498581, 60.0 ] } },
{ "type": "Feature", "properties": { "value": 7.2118 }, "geometry": { "type": "Point", "coordinates": [ 129.345352, 35.498577, 60.0 ] } },
{ "type": "Feature", "properties": { "value": 10.178 }, "geometry": { "type": "Point", "coordinates": [ 129.346466, 35.498573, 60.0 ] } },
{ "type": "Feature", "properties": { "value": 12.832 }, "geometry": { "type": "Point", "coordinates": [ 129.347565, 35.498569, 60.0 ] } },
{ "type": "Feature", "properties": { "value": 14.623 }, "geometry": { "type": "Point", "coordinates": [ 129.348663, 35.498566, 60.0 ] } },
{ "type": "Feature", "properties": { "value": 15.249 }, "geometry": { "type": "Point", "coordinates": [ 129.349762, 35.498562, 60.0 ] } },
{ "type": "Feature", "properties": { "value": 14.713 }, "geometry": { "type": "Point", "coordinates": [ 129.350876, 35.498562, 60.0 ] } },
{ "type": "Feature", "properties": { "value": 13.291 }, "geometry": { "type": "Point", "coordinates": [ 129.351974, 35.498558, 60.0 ] } },
{ "type": "Feature", "properties": { "value": 11.341 }, "geometry": { "type": "Point", "coordinates": [ 129.353073, 35.498554, 60.0 ] } },
{ "type": "Feature", "properties": { "value": 9.1687 }, "geometry": { "type": "Point", "coordinates": [ 129.354172, 35.49855, 60.0 ] } },
{ "type": "Feature", "properties": { "value": 7.0096 }, "geometry": { "type": "Point", "coordinates": [ 129.35527, 35.498547, 60.0 ] } },
{ "type": "Feature", "properties": { "value": 5.0426 }, "geometry": { "type": "Point", "coordinates": [ 129.356384, 35.498543, 60.0 ] } },
{ "type": "Feature", "properties": { "value": 3.3793 }, "geometry": { "type": "Point", "coordinates": [ 129.357483, 35.498539, 60.0 ] } },
{ "type": "Feature", "properties": { "value": 2.0928 }, "geometry": { "type": "Point", "coordinates": [ 129.358582, 35.498539, 60.0 ] } },
{ "type": "Feature", "properties": { "value": 1.1825 }, "geometry": { "type": "Point", "coordinates": [ 129.35968, 35.498535, 60.0 ] } },
{ "type": "Feature", "properties": { "value": 0.5968 }, "geometry": { "type": "Point", "coordinates": [ 129.360794, 35.498531, 60.0 ] } },
{ "type": "Feature", "properties": { "value": 0.2664 }, "geometry": { "type": "Point", "coordinates": [ 129.361893, 35.498528, 60.0 ] } },
{ "type": "Feature", "properties": { "value": 0.0957 }, "geometry": { "type": "Point", "coordinates": [ 129.362991, 35.498524, 60.0 ] } },
{ "type": "Feature", "properties": { "value": 0.026 }, "geometry": { "type": "Point", "coordinates": [ 129.36409, 35.49852, 60.0 ] } },
{ "type": "Feature", "properties": { "value": 0.0027 }, "geometry": { "type": "Point", "coordinates": [ 129.365204, 35.498516, 60.0 ] } },
{ "type": "Feature", "properties": { "value": 0.0238 }, "geometry": { "type": "Point", "coordinates": [ 129.340958, 35.499489, 60.0 ] } },
{ "type": "Feature", "properties": { "value": 0.4192 }, "geometry": { "type": "Point", "coordinates": [ 129.342056, 35.499485, 60.0 ] } },
{ "type": "Feature", "properties": { "value": 1.0896 }, "geometry": { "type": "Point", "coordinates": [ 129.343155, 35.499485, 60.0 ] } },
{ "type": "Feature", "properties": { "value": 2.2926 }, "geometry": { "type": "Point", "coordinates": [ 129.344254, 35.499481, 60.0 ] } },
{ "type": "Feature", "properties": { "value": 4.1257 }, "geometry": { "type": "Point", "coordinates": [ 129.345367, 35.499477, 60.0 ] } },
{ "type": "Feature", "properties": { "value": 6.5045 }, "geometry": { "type": "Point", "coordinates": [ 129.346466, 35.499474, 60.0 ] } },
{ "type": "Feature", "properties": { "value": 9.1472 }, "geometry": { "type": "Point", "coordinates": [ 129.347565, 35.49947, 60.0 ] } },
{ "type": "Feature", "properties": { "value": 11.593 }, "geometry": { "type": "Point", "coordinates": [ 129.348663, 35.499466, 60.0 ] } },
{ "type": "Feature", "properties": { "value": 13.373 }, "geometry": { "type": "Point", "coordinates": [ 129.349777, 35.499466, 60.0 ] } },
{ "type": "Feature", "properties": { "value": 14.208 }, "geometry": { "type": "Point", "coordinates": [ 129.350876, 35.499462, 60.0 ] } },
{ "type": "Feature", "properties": { "value": 14.042 }, "geometry": { "type": "Point", "coordinates": [ 129.351974, 35.499458, 60.0 ] } },
{ "type": "Feature", "properties": { "value": 12.984 }, "geometry": { "type": "Point", "coordinates": [ 129.353073, 35.499454, 60.0 ] } },
{ "type": "Feature", "properties": { "value": 11.226 }, "geometry": { "type": "Point", "coordinates": [ 129.354187, 35.499451, 60.0 ] } },
{ "type": "Feature", "properties": { "value": 9.0846 }, "geometry": { "type": "Point", "coordinates": [ 129.355286, 35.499447, 60.0 ] } },
{ "type": "Feature", "properties": { "value": 6.8399 }, "geometry": { "type": "Point", "coordinates": [ 129.356384, 35.499447, 60.0 ] } },
{ "type": "Feature", "properties": { "value": 4.7563 }, "geometry": { "type": "Point", "coordinates": [ 129.357483, 35.499443, 60.0 ] } },
{ "type": "Feature", "properties": { "value": 3.0283 }, "geometry": { "type": "Point", "coordinates": [ 129.358582, 35.499439, 60.0 ] } },
{ "type": "Feature", "properties": { "value": 1.7471 }, "geometry": { "type": "Point", "coordinates": [ 129.359695, 35.499435, 60.0 ] } },
{ "type": "Feature", "properties": { "value": 0.9009 }, "geometry": { "type": "Point", "coordinates": [ 129.360794, 35.499432, 60.0 ] } },
{ "type": "Feature", "properties": { "value": 0.4096 }, "geometry": { "type": "Point", "coordinates": [ 129.361893, 35.499428, 60.0 ] } },
{ "type": "Feature", "properties": { "value": 0.1599 }, "geometry": { "type": "Point", "coordinates": [ 129.362991, 35.499424, 60.0 ] } },
{ "type": "Feature", "properties": { "value": 0.0502 }, "geometry": { "type": "Point", "coordinates": [ 129.364105, 35.499424, 60.0 ] } },
{ "type": "Feature", "properties": { "value": 0.0071 }, "geometry": { "type": "Point", "coordinates": [ 129.365204, 35.49942, 60.0 ] } },
{ "type": "Feature", "properties": { "value": 0.041 }, "geometry": { "type": "Point", "coordinates": [ 129.342056, 35.500389, 60.0 ] } },
{ "type": "Feature", "properties": { "value": 0.41 }, "geometry": { "type": "Point", "coordinates": [ 129.343155, 35.500385, 60.0 ] } },
{ "type": "Feature", "properties": { "value": 1.0179 }, "geometry": { "type": "Point", "coordinates": [ 129.344269, 35.500381, 60.0 ] } },
{ "type": "Feature", "properties": { "value": 2.0745 }, "geometry": { "type": "Point", "coordinates": [ 129.345367, 35.500378, 60.0 ] } },
{ "type": "Feature", "properties": { "value": 3.6585 }, "geometry": { "type": "Point", "coordinates": [ 129.346466, 35.500374, 60.0 ] } },
{ "type": "Feature", "properties": { "value": 5.7401 }, "geometry": { "type": "Point", "coordinates": [ 129.347565, 35.500374, 60.0 ] } },
{ "type": "Feature", "properties": { "value": 8.079 }, "geometry": { "type": "Point", "coordinates": [ 129.348679, 35.50037, 60.0 ] } },
{ "type": "Feature", "properties": { "value": 10.264 }, "geometry": { "type": "Point", "coordinates": [ 129.349777, 35.500366, 60.0 ] } },
{ "type": "Feature", "properties": { "value": 11.946 }, "geometry": { "type": "Point", "coordinates": [ 129.350876, 35.500362, 60.0 ] } },
{ "type": "Feature", "properties": { "value": 12.831 }, "geometry": { "type": "Point", "coordinates": [ 129.351974, 35.500359, 60.0 ] } },
{ "type": "Feature", "properties": { "value": 12.773 }, "geometry": { "type": "Point", "coordinates": [ 129.353088, 35.500355, 60.0 ] } },
{ "type": "Feature", "properties": { "value": 11.796 }, "geometry": { "type": "Point", "coordinates": [ 129.354187, 35.500355, 60.0 ] } },
{ "type": "Feature", "properties": { "value": 10.08 }, "geometry": { "type": "Point", "coordinates": [ 129.355286, 35.500351, 60.0 ] } },
{ "type": "Feature", "properties": { "value": 7.9239 }, "geometry": { "type": "Point", "coordinates": [ 129.356384, 35.500347, 60.0 ] } },
{ "type": "Feature", "properties": { "value": 5.7193 }, "geometry": { "type": "Point", "coordinates": [ 129.357483, 35.500343, 60.0 ] } },
{ "type": "Feature", "properties": { "value": 3.7454 }, "geometry": { "type": "Point", "coordinates": [ 129.358597, 35.50034, 60.0 ] } },
{ "type": "Feature", "properties": { "value": 2.2078 }, "geometry": { "type": "Point", "coordinates": [ 129.359695, 35.500336, 60.0 ] } },
{ "type": "Feature", "properties": { "value": 1.158 }, "geometry": { "type": "Point", "coordinates": [ 129.360794, 35.500332, 60.0 ] } },
{ "type": "Feature", "properties": { "value": 0.5337 }, "geometry": { "type": "Point", "coordinates": [ 129.361893, 35.500332, 60.0 ] } },
{ "type": "Feature", "properties": { "value": 0.211 }, "geometry": { "type": "Point", "coordinates": [ 129.363007, 35.500328, 60.0 ] } },
{ "type": "Feature", "properties": { "value": 0.0672 }, "geometry": { "type": "Point", "coordinates": [ 129.364105, 35.500324, 60.0 ] } },
{ "type": "Feature", "properties": { "value": 0.0129 }, "geometry": { "type": "Point", "coordinates": [ 129.365204, 35.50032, 60.0 ] } },
{ "type": "Feature", "properties": { "value": 0.0107 }, "geometry": { "type": "Point", "coordinates": [ 129.34317, 35.501286, 60.0 ] } },
{ "type": "Feature", "properties": { "value": 0.3711 }, "geometry": { "type": "Point", "coordinates": [ 129.344269, 35.501282, 60.0 ] } },
{ "type": "Feature", "properties": { "value": 0.9047 }, "geometry": { "type": "Point", "coordinates": [ 129.345367, 35.501278, 60.0 ] } },
{ "type": "Feature", "properties": { "value": 1.8103 }, "geometry": { "type": "Point", "coordinates": [ 129.346466, 35.501278, 60.0 ] } },
{ "type": "Feature", "properties": { "value": 3.1597 }, "geometry": { "type": "Point", "coordinates": [ 129.34758, 35.501274, 60.0 ] } },
{ "type": "Feature", "properties": { "value": 4.9357 }, "geometry": { "type": "Point", "coordinates": [ 129.348679, 35.50127, 60.0 ] } },
{ "type": "Feature", "properties": { "value": 6.898 }, "geometry": { "type": "Point", "coordinates": [ 129.349777, 35.501266, 60.0 ] } },
{ "type": "Feature", "properties": { "value": 8.7614 }, "geometry": { "type": "Point", "coordinates": [ 129.350876, 35.501263, 60.0 ] } },
{ "type": "Feature", "properties": { "value": 10.187 }, "geometry": { "type": "Point", "coordinates": [ 129.35199, 35.501259, 60.0 ] } },
{ "type": "Feature", "properties": { "value": 10.881 }, "geometry": { "type": "Point", "coordinates": [ 129.353088, 35.501259, 60.0 ] } },
{ "type": "Feature", "properties": { "value": 10.695 }, "geometry": { "type": "Point", "coordinates": [ 129.354187, 35.501255, 60.0 ] } },
{ "type": "Feature", "properties": { "value": 9.6328 }, "geometry": { "type": "Point", "coordinates": [ 129.355286, 35.501251, 60.0 ] } },
{ "type": "Feature", "properties": { "value": 7.9118 }, "geometry": { "type": "Point", "coordinates": [ 129.3564, 35.501247, 60.0 ] } },
{ "type": "Feature", "properties": { "value": 5.9111 }, "geometry": { "type": "Point", "coordinates": [ 129.357498, 35.501244, 60.0 ] } },
{ "type": "Feature", "properties": { "value": 3.9866 }, "geometry": { "type": "Point", "coordinates": [ 129.358597, 35.50124, 60.0 ] } },
{ "type": "Feature", "properties": { "value": 2.4038 }, "geometry": { "type": "Point", "coordinates": [ 129.359695, 35.50124, 60.0 ] } },
{ "type": "Feature", "properties": { "value": 1.28 }, "geometry": { "type": "Point", "coordinates": [ 129.360794, 35.501236, 60.0 ] } },
{ "type": "Feature", "properties": { "value": 0.5967 }, "geometry": { "type": "Point", "coordinates": [ 129.361908, 35.501232, 60.0 ] } },
{ "type": "Feature", "properties": { "value": 0.2387 }, "geometry": { "type": "Point", "coordinates": [ 129.363007, 35.501228, 60.0 ] } },
{ "type": "Feature", "properties": { "value": 0.0799 }, "geometry": { "type": "Point", "coordinates": [ 129.364105, 35.501225, 60.0 ] } },
{ "type": "Feature", "properties": { "value": 0.015 }, "geometry": { "type": "Point", "coordinates": [ 129.365204, 35.501221, 60.0 ] } }
]
}
