{
"type": "FeatureCollection",
"features": [
{ "type": "Feature", "properties": { "value": 0.0 }, "geometry": { "type": "Point", "coordinates": [ 129.328705, 35.467979, 225.0 ] } },
{ "type": "Feature", "properties": { "value": 0.0 }, "geometry": { "type": "Point", "coordinates": [ 129.327606, 35.468884, 225.0 ] } },
{ "type": "Feature", "properties": { "value": 0.0 }, "geometry": { "type": "Point", "coordinates": [ 129.328705, 35.46888, 225.0 ] } },
{ "type": "Feature", "properties": { "value": 0.0 }, "geometry": { "type": "Point", "coordinates": [ 129.327606, 35.469784, 225.0 ] } },
{ "type": "Feature", "properties": { "value": 0.0 }, "geometry": { "type": "Point", "coordinates": [ 129.328705, 35.46978, 225.0 ] } },
{ "type": "Feature", "properties": { "value": 0.0 }, "geometry": { "type": "Point", "coordinates": [ 129.326508, 35.470688, 225.0 ] } },
{ "type": "Feature", "properties": { "value": 0.0 }, "geometry": { "type": "Point", "coordinates": [ 129.327606, 35.470684, 225.0 ] } },
{ "type": "Feature", "properties": { "value": 0.0 }, "geometry": { "type": "Point", "coordinates": [ 129.32872, 35.470684, 225.0 ] } },
{ "type": "Feature", "properties": { "value": 0.0 }, "geometry": { "type": "Point", "coordinates": [ 129.326508, 35.471588, 225.0 ] } },
{ "type": "Feature", "properties": { "value": 0.0 }, "geometry": { "type": "Point", "coordinates": [ 129.327621, 35.471588, 225.0 ] } },
{ "type": "Feature", "properties": { "value": 0.0 }, "geometry": { "type": "Point", "coordinates": [ 129.32872, 35.471584, 225.0 ] } },
{ "type": "Feature", "properties": { "value": 0.0 }, "geometry": { "type": "Point", "coordinates": [ 129.326523, 35.472492, 225.0 ] } },
{ "type": "Feature", "properties": { "value": 0.0 }, "geometry": { "type": "Point", "coordinates": [ 129.327621, 35.472488, 225.0 ] } },
{ "type": "Feature", "properties": { "value": 0.0 }, "geometry": { "type": "Point", "coordinates": [ 129.32872, 35.472485, 225.0 ] } },
{ "type": "Feature", "properties": { "value": 0.0 }, "geometry": { "type": "Point", "coordinates": [ 129.326523, 35.473392, 225.0 ] } },
{ "type": "Feature", "properties": { "value": 0.0 }, "geometry": { "type": "Point", "coordinates": [ 129.327621, 35.473389, 225.0 ] } },
{ "type": "Feature", "properties": { "value": 0.0 }, "geometry": { "type": "Point", "coordinates": [ 129.32872, 35.473385, 225.0 ] } },
{ "type": "Feature", "properties": { "value": 0.0 }, "geometry": { "type": "Point", "coordinates": [ 129.329819, 35.473385, 225.0 ] } },
{ "type": "Feature", "properties": { "value": 0.0 }, "geometry": { "type": "Point", "coordinates": [ 129.326523, 35.474293, 225.0 ] } },
{ "type": "Feature", "properties": { "value": 0.0 }, "geometry": { "type": "Point", "coordinates": [ 129.327621, 35.474289, 225.0 ] } },
{ "type": "Feature", "properties": { "value": 0.0 }, "geometry": { "type": "Point", "coordinates": [ 129.328735, 35.474289, 225.0 ] } },
{ "type": "Feature", "properties": { "value": 0.0 }, "geometry": { "type": "Point", "coordinates": [ 129.329834, 35.474285, 225.0 ] } },
{ "type": "Feature", "properties": { "value": 0.0 }, "geometry": { "type": "Point", "coordinates": [ 129.326523, 35.475193, 225.0 ] } },
{ "type": "Feature", "properties": { "value": 0.0 }, "geometry": { "type": "Point", "coordinates": [ 129.327637, 35.475193, 225.0 ] } },
{ "type": "Feature", "properties": { "value": 0.0 }, "geometry": { "type": "Point", "coordinates": [ 129.328735, 35.475189, 225.0 ] } },
{ "type": "Feature", "properties": { "value": 0.0 }, "geometry": { "type": "Point", "coordinates": [ 129.329834, 35.475185, 225.0 ] } },
{ "type": "Feature", "properties": { "value": 0.0 }, "geometry": { "type": "Point", "coordinates": [ 129.326538, 35.476097, 225.0 ] } },
{ "type": "Feature", "properties": { "value": 0.0002 }, "geometry": { "type": "Point", "coordinates": [ 129.327637, 35.476093, 225.0 ] } },
{ "type": "Feature", "properties": { "value": 0.0002 }, "geometry": { "type": "Point", "coordinates": [ 129.328735, 35.476089, 225.0 ] } },
{ "type": "Feature", "properties": { "value": 0.0001 }, "geometry": { "type": "Point", "coordinates": [ 129.329834, 35.476086, 225.0 ] } },
{ "type": "Feature", "properties": { "value": 0.0 }, "geometry": { "type": "Point", "coordinates": [ 129.325439, 35.477001, 225.0 ] } },
{ "type": "Feature", "properties": { "value": 0.0003 }, "geometry": { "type": "Point", "coordinates": [ 129.326538, 35.476997, 225.0 ] } },
{ "type": "Feature", "properties": { "value": 0.0021 }, "geometry": { "type": "Point", "coordinates": [ 129.327637, 35.476994, 225.0 ] } },
{ "type": "Feature", "properties": { "value": 0.0021 }, "geometry": { "type": "Point", "coordinates": [ 129.328735, 35.47699, 225.0 ] } },
{ "type": "Feature", "properties": { "value": 0.0007 }, "geometry": { "type": "Point", "coordinates": [ 129.329834, 35.47699, 225.0 ] } },
{ "type": "Feature", "properties": { "value": 0.0001 }, "geometry": { "type": "Point", "coordinates": [ 129.325439, 35.477901, 225.0 ] } },
{ "type": "Feature", "properties": { "value": 0.0028 }, "geometry": { "type": "Point", "coordinates": [ 129.326538, 35.477898, 225.0 ] } },
{ "type": "Feature", "properties": { "value": 0.0164 }, "geometry": { "type": "Point", "coordinates": [ 129.327637, 35.477894, 225.0 ] } },
{ "type": "Feature", "properties": { "value": 0.0132 }, "geometry": { "type": "Point", "coordinates": [ 129.328735, 35.477894, 225.0 ] } },
{ "type": "Feature", "properties": { "value": 0.0026 }, "geometry": { "type": "Point", "coordinates": [ 129.329849, 35.47789, 225.0 ] } },
{ "type": "Feature", "properties": { "value": 0.001 }, "geometry": { "type": "Point", "coordinates": [ 129.325439, 35.478802, 225.0 ] } },
{ "type": "Feature", "properties": { "value": 0.0149 }, "geometry": { "type": "Point", "coordinates": [ 129.326538, 35.478798, 225.0 ] } },
{ "type": "Feature", "properties": { "value": 0.0513 }, "geometry": { "type": "Point", "coordinates": [ 129.327637, 35.478798, 225.0 ] } },
{ "type": "Feature", "properties": { "value": 0.0354 }, "geometry": { "type": "Point", "coordinates": [ 129.328751, 35.478794, 225.0 ] } },
{ "type": "Feature", "properties": { "value": 0.0057 }, "geometry": { "type": "Point", "coordinates": [ 129.329849, 35.47879, 225.0 ] } },
{ "type": "Feature", "properties": { "value": 0.0032 }, "geometry": { "type": "Point", "coordinates": [ 129.325439, 35.479706, 225.0 ] } },
{ "type": "Feature", "properties": { "value": 0.0256 }, "geometry": { "type": "Point", "coordinates": [ 129.326553, 35.479702, 225.0 ] } },
{ "type": "Feature", "properties": { "value": 0.0533 }, "geometry": { "type": "Point", "coordinates": [ 129.327652, 35.479698, 225.0 ] } },
{ "type": "Feature", "properties": { "value": 0.037 }, "geometry": { "type": "Point", "coordinates": [ 129.328751, 35.479694, 225.0 ] } },
{ "type": "Feature", "properties": { "value": 0.0073 }, "geometry": { "type": "Point", "coordinates": [ 129.329849, 35.479691, 225.0 ] } },
{ "type": "Feature", "properties": { "value": 0.0032 }, "geometry": { "type": "Point", "coordinates": [ 129.325455, 35.480606, 225.0 ] } },
{ "type": "Feature", "properties": { "value": 0.016 }, "geometry": { "type": "Point", "coordinates": [ 129.326553, 35.480602, 225.0 ] } },
{ "type": "Feature", "properties": { "value": 0.0277 }, "geometry": { "type": "Point", "coordinates": [ 129.327652, 35.480598, 225.0 ] } },
{ "type": "Feature", "properties": { "value": 0.0232 }, "geometry": { "type": "Point", "coordinates": [ 129.328751, 35.480595, 225.0 ] } },
{ "type": "Feature", "properties": { "value": 0.0062 }, "geometry": { "type": "Point", "coordinates": [ 129.329849, 35.480595, 225.0 ] } },
{ "type": "Feature", "properties": { "value": 0.0001 }, "geometry": { "type": "Point", "coordinates": [ 129.324356, 35.48151, 225.0 ] } },
{ "type": "Feature", "properties": { "value": 0.0018 }, "geometry": { "type": "Point", "coordinates": [ 129.325455, 35.481506, 225.0 ] } },
{ "type": "Feature", "properties": { "value": 0.0093 }, "geometry": { "type": "Point", "coordinates": [ 129.326553, 35.481503, 225.0 ] } },
{ "type": "Feature", "properties": { "value": 0.0215 }, "geometry": { "type": "Point", "coordinates": [ 129.327652, 35.481503, 225.0 ] } },
{ "type": "Feature", "properties": { "value": 0.0208 }, "geometry": { "type": "Point", "coordinates": [ 129.328751, 35.481499, 225.0 ] } },
{ "type": "Feature", "properties": { "value": 0.0054 }, "geometry": { "type": "Point", "coordinates": [ 129.329865, 35.481495, 225.0 ] } },
{ "type": "Feature", "properties": { "value": 0.0001 }, "geometry": { "type": "Point", "coordinates": [ 129.324356, 35.48241, 225.0 ] } },
{ "type": "Feature", "properties": { "value": 0.0016 }, "geometry": { "type": "Point", "coordinates": [ 129.325455, 35.482407, 225.0 ] } },
{ "type": "Feature", "properties": { "value": 0.0105 }, "geometry": { "type": "Point", "coordinates": [ 129.326553, 35.482407, 225.0 ] } },
{ "type": "Feature", "properties": { "value": 0.0294 }, "geometry": { "type": "Point", "coordinates": [ 129.327652, 35.482403, 225.0 ] } },
{ "type": "Feature", "properties": { "value": 0.0247 }, "geometry": { "type": "Point", "coordinates": [ 129.328766, 35.482399, 225.0 ] } },
{ "type": "Feature", "properties": { "value": 0.005 }, "geometry": { "type": "Point", "coordinates": [ 129.329865, 35.482395, 225.0 ] } },
{ "type": "Feature", "properties": { "value": 0.0002 }, "geometry": { "type": "Point", "coordinates": [ 129.324356, 35.483311, 225.0 ] } },
{ "type": "Feature", "properties": { "value": 0.0025 }, "geometry": { "type": "Point", "coordinates": [ 129.325455, 35.483311, 225.0 ] } },
{ "type": "Feature", "properties": { "value": 0.0156 }, "geometry": { "type": "Point", "coordinates": [ 129.326553, 35.483307, 225.0 ] } },
{ "type": "Feature", "properties": { "value": 0.0321 }, "geometry": { "type": "Point", "coordinates": [ 129.327667, 35.483303, 225.0 ] } },
{ "type": "Feature", "properties": { "value": 0.0194 }, "geometry": { "type": "Point", "coordinates": [ 129.328766, 35.483299, 225.0 ] } },
{ "type": "Feature", "properties": { "value": 0.0038 }, "geometry": { "type": "Point", "coordinates": [ 129.329865, 35.483295, 225.0 ] } },
{ "type": "Feature", "properties": { "value": 0.0005 }, "geometry": { "type": "Point", "coordinates": [ 129.324356, 35.484215, 225.0 ] } },
{ "type": "Feature", "properties": { "value": 0.0046 }, "geometry": { "type": "Point", "coordinates": [ 129.325455, 35.484211, 225.0 ] } },
{ "type": "Feature", "properties": { "value": 0.0195 }, "geometry": { "type": "Point", "coordinates": [ 129.326569, 35.484207, 225.0 ] } },
{ "type": "Feature", "properties": { "value": 0.0249 }, "geometry": { "type": "Point", "coordinates": [ 129.327667, 35.484203, 225.0 ] } },
{ "type": "Feature", "properties": { "value": 0.0123 }, "geometry": { "type": "Point", "coordinates": [ 129.328766, 35.484203, 225.0 ] } },
{ "type": "Feature", "properties": { "value": 0.0028 }, "geometry": { "type": "Point", "coordinates": [ 129.329865, 35.4842, 225.0 ] } },
{ "type": "Feature", "properties": { "value": 0.0001 }, "geometry": { "type": "Point", "coordinates": [ 129.323257, 35.485119, 225.0 ] } },
{ "type": "Feature", "properties": { "value": 0.0017 }, "geometry": { "type": "Point", "coordinates": [ 129.324371, 35.485115, 225.0 ] } },
{ "type": "Feature", "properties": { "value": 0.0101 }, "geometry": { "type": "Point", "coordinates": [ 129.32547, 35.485111, 225.0 ] } },
{ "type": "Feature", "properties": { "value": 0.0282 }, "geometry": { "type": "Point", "coordinates": [ 129.326569, 35.485107, 225.0 ] } },
{ "type": "Feature", "properties": { "value": 0.0269 }, "geometry": { "type": "Point", "coordinates": [ 129.327667, 35.485107, 225.0 ] } },
{ "type": "Feature", "properties": { "value": 0.0127 }, "geometry": { "type": "Point", "coordinates": [ 129.328766, 35.485104, 225.0 ] } },
{ "type": "Feature", "properties": { "value": 0.0024 }, "geometry": { "type": "Point", "coordinates": [ 129.32988, 35.4851, 225.0 ] } },
{ "type": "Feature", "properties": { "value": 0.0007 }, "geometry": { "type": "Point", "coordinates": [ 129.323273, 35.486019, 225.0 ] } },
{ "type": "Feature", "properties": { "value": 0.0074 }, "geometry": { "type": "Point", "coordinates": [ 129.324371, 35.486015, 225.0 ] } },
{ "type": "Feature", "properties": { "value": 0.0315 }, "geometry": { "type": "Point", "coordinates": [ 129.32547, 35.486012, 225.0 ] } },
{ "type": "Feature", "properties": { "value": 0.058 }, "geometry": { "type": "Point", "coordinates": [ 129.326569, 35.486012, 225.0 ] } },
{ "type": "Feature", "properties": { "value": 0.0453 }, "geometry": { "type": "Point", "coordinates": [ 129.327667, 35.486008, 225.0 ] } },
{ "type": "Feature", "properties": { "value": 0.0179 }, "geometry": { "type": "Point", "coordinates": [ 129.328781, 35.486004, 225.0 ] } },
{ "type": "Feature", "properties": { "value": 0.0022 }, "geometry": { "type": "Point", "coordinates": [ 129.32988, 35.486, 225.0 ] } },
{ "type": "Feature", "properties": { "value": 0.0032 }, "geometry": { "type": "Point", "coordinates": [ 129.323273, 35.486919, 225.0 ] } },
{ "type": "Feature", "properties": { "value": 0.0297 }, "geometry": { "type": "Point", "coordinates": [ 129.324371, 35.486916, 225.0 ] } },
{ "type": "Feature", "properties": { "value": 0.0988 }, "geometry": { "type": "Point", "coordinates": [ 129.32547, 35.486916, 225.0 ] } },
{ "type": "Feature", "properties": { "value": 0.1243 }, "geometry": { "type": "Point", "coordinates": [ 129.326569, 35.486912, 225.0 ] } },
{ "type": "Feature", "properties": { "value": 0.0727 }, "geometry": { "type": "Point", "coordinates": [ 129.327682, 35.486908, 225.0 ] } },
{ "type": "Feature", "properties": { "value": 0.0214 }, "geometry": { "type": "Point", "coordinates": [ 129.328781, 35.486904, 225.0 ] } },
{ "type": "Feature", "properties": { "value": 0.0013 }, "geometry": { "type": "Point", "coordinates": [ 129.32988, 35.486904, 225.0 ] } },
{ "type": "Feature", "properties": { "value": 0.001 }, "geometry": { "type": "Point", "coordinates": [ 129.322174, 35.487823, 225.0 ] } },
{ "type": "Feature", "properties": { "value": 0.0105 }, "geometry": { "type": "Point", "coordinates": [ 129.323273, 35.48782, 225.0 ] } },
{ "type": "Feature", "properties": { "value": 0.0749 }, "geometry": { "type": "Point", "coordinates": [ 129.324371, 35.48782, 225.0 ] } },
{ "type": "Feature", "properties": { "value": 0.1927 }, "geometry": { "type": "Point", "coordinates": [ 129.32547, 35.487816, 225.0 ] } },
{ "type": "Feature", "properties": { "value": 0.1908 }, "geometry": { "type": "Point", "coordinates": [ 129.326584, 35.487812, 225.0 ] } },
{ "type": "Feature", "properties": { "value": 0.0918 }, "geometry": { "type": "Point", "coordinates": [ 129.327682, 35.487808, 225.0 ] } },
{ "type": "Feature", "properties": { "value": 0.022 }, "geometry": { "type": "Point", "coordinates": [ 129.328781, 35.487808, 225.0 ] } },
{ "type": "Feature", "properties": { "value": 0.0007 }, "geometry": { "type": "Point", "coordinates": [ 129.32988, 35.487804, 225.0 ] } },
{ "type": "Feature", "properties": { "value": 0.0016 }, "geometry": { "type": "Point", "coordinates": [ 129.322174, 35.488728, 225.0 ] } },
{ "type": "Feature", "properties": { "value": 0.0183 }, "geometry": { "type": "Point", "coordinates": [ 129.323273, 35.488724, 225.0 ] } },
{ "type": "Feature", "properties": { "value": 0.0941 }, "geometry": { "type": "Point", "coordinates": [ 129.324371, 35.48872, 225.0 ] } },
{ "type": "Feature", "properties": { "value": 0.1963 }, "geometry": { "type": "Point", "coordinates": [ 129.325485, 35.488716, 225.0 ] } },
{ "type": "Feature", "properties": { "value": 0.1797 }, "geometry": { "type": "Point", "coordinates": [ 129.326584, 35.488712, 225.0 ] } },
{ "type": "Feature", "properties": { "value": 0.083 }, "geometry": { "type": "Point", "coordinates": [ 129.327682, 35.488712, 225.0 ] } },
{ "type": "Feature", "properties": { "value": 0.019 }, "geometry": { "type": "Point", "coordinates": [ 129.328781, 35.488708, 225.0 ] } },
{ "type": "Feature", "properties": { "value": 0.0034 }, "geometry": { "type": "Point", "coordinates": [ 129.322174, 35.489628, 225.0 ] } },
{ "type": "Feature", "properties": { "value": 0.0183 }, "geometry": { "type": "Point", "coordinates": [ 129.323273, 35.489624, 225.0 ] } },
{ "type": "Feature", "properties": { "value": 0.0611 }, "geometry": { "type": "Point", "coordinates": [ 129.324387, 35.48962, 225.0 ] } },
{ "type": "Feature", "properties": { "value": 0.1102 }, "geometry": { "type": "Point", "coordinates": [ 129.325485, 35.489616, 225.0 ] } },
{ "type": "Feature", "properties": { "value": 0.109 }, "geometry": { "type": "Point", "coordinates": [ 129.326584, 35.489616, 225.0 ] } },
{ "type": "Feature", "properties": { "value": 0.0543 }, "geometry": { "type": "Point", "coordinates": [ 129.327682, 35.489613, 225.0 ] } },
{ "type": "Feature", "properties": { "value": 0.0129 }, "geometry": { "type": "Point", "coordinates": [ 129.328796, 35.489609, 225.0 ] } },
{ "type": "Feature", "properties": { "value": 0.0008 }, "geometry": { "type": "Point", "coordinates": [ 129.321075, 35.490532, 225.0 ] } },
{ "type": "Feature", "properties": { "value": 0.0068 }, "geometry": { "type": "Point", "coordinates": [ 129.322174, 35.490528, 225.0 ] } },
{ "type": "Feature", "properties": { "value": 0.0248 }, "geometry": { "type": "Point", "coordinates": [ 129.323288, 35.490524, 225.0 ] } },
{ "type": "Feature", "properties": { "value": 0.0512 }, "geometry": { "type": "Point", "coordinates": [ 129.324387, 35.490524, 225.0 ] } },
{ "type": "Feature", "properties": { "value": 0.0643 }, "geometry": { "type": "Point", "coordinates": [ 129.325485, 35.49052, 225.0 ] } },
{ "type": "Feature", "properties": { "value": 0.0587 }, "geometry": { "type": "Point", "coordinates": [ 129.326584, 35.490517, 225.0 ] } },
{ "type": "Feature", "properties": { "value": 0.0312 }, "geometry": { "type": "Point", "coordinates": [ 129.327698, 35.490513, 225.0 ] } },
{ "type": "Feature", "properties": { "value": 0.0075 }, "geometry": { "type": "Point", "coordinates": [ 129.328796, 35.490509, 225.0 ] } },
{ "type": "Feature", "properties": { "value": 0.0026 }, "geometry": { "type": "Point", "coordinates": [ 129.321091, 35.491432, 225.0 ] } },
{ "type": "Feature", "properties": { "value": 0.0126 }, "geometry": { "type": "Point", "coordinates": [ 129.322189, 35.491428, 225.0 ] } },
{ "type": "Feature", "properties": { "value": 0.0349 }, "geometry": { "type": "Point", "coordinates": [ 129.323288, 35.491428, 225.0 ] } },
{ "type": "Feature", "properties": { "value": 0.0593 }, "geometry": { "type": "Point", "coordinates": [ 129.324387, 35.491425, 225.0 ] } },
{ "type": "Feature", "properties": { "value": 0.0694 }, "geometry": { "type": "Point", "coordinates": [ 129.325485, 35.491421, 225.0 ] } },
{ "type": "Feature", "properties": { "value": 0.0421 }, "geometry": { "type": "Point", "coordinates": [ 129.326599, 35.491417, 225.0 ] } },
{ "type": "Feature", "properties": { "value": 0.0187 }, "geometry": { "type": "Point", "coordinates": [ 129.327698, 35.491413, 225.0 ] } },
{ "type": "Feature", "properties": { "value": 0.0038 }, "geometry": { "type": "Point", "coordinates": [ 129.328796, 35.491413, 225.0 ] } },
{ "type": "Feature", "properties": { "value": 0.0009 }, "geometry": { "type": "Point", "coordinates": [ 129.319992, 35.492336, 225.0 ] } },
{ "type": "Feature", "properties": { "value": 0.0062 }, "geometry": { "type": "Point", "coordinates": [ 129.321091, 35.492332, 225.0 ] } },
{ "type": "Feature", "properties": { "value": 0.0215 }, "geometry": { "type": "Point", "coordinates": [ 129.322189, 35.492332, 225.0 ] } },
{ "type": "Feature", "properties": { "value": 0.0458 }, "geometry": { "type": "Point", "coordinates": [ 129.323288, 35.492329, 225.0 ] } },
{ "type": "Feature", "properties": { "value": 0.0913 }, "geometry": { "type": "Point", "coordinates": [ 129.324387, 35.492325, 225.0 ] } },
{ "type": "Feature", "properties": { "value": 0.1021 }, "geometry": { "type": "Point", "coordinates": [ 129.3255, 35.492321, 225.0 ] } },
{ "type": "Feature", "properties": { "value": 0.0423 }, "geometry": { "type": "Point", "coordinates": [ 129.326599, 35.492317, 225.0 ] } },
{ "type": "Feature", "properties": { "value": 0.0116 }, "geometry": { "type": "Point", "coordinates": [ 129.327698, 35.492317, 225.0 ] } },
{ "type": "Feature", "properties": { "value": 0.0008 }, "geometry": { "type": "Point", "coordinates": [ 129.328796, 35.492313, 225.0 ] } },
{ "type": "Feature", "properties": { "value": 0.0032 }, "geometry": { "type": "Point", "coordinates": [ 129.319992, 35.493237, 225.0 ] } },
{ "type": "Feature", "properties": { "value": 0.0128 }, "geometry": { "type": "Point", "coordinates": [ 129.321091, 35.493237, 225.0 ] } },
{ "type": "Feature", "properties": { "value": 0.0333 }, "geometry": { "type": "Point", "coordinates": [ 129.322189, 35.493233, 225.0 ] } },
{ "type": "Feature", "properties": { "value": 0.0551 }, "geometry": { "type": "Point", "coordinates": [ 129.323288, 35.493229, 225.0 ] } },
{ "type": "Feature", "properties": { "value": 0.0869 }, "geometry": { "type": "Point", "coordinates": [ 129.324402, 35.493225, 225.0 ] } },
{ "type": "Feature", "properties": { "value": 0.0953 }, "geometry": { "type": "Point", "coordinates": [ 129.3255, 35.493225, 225.0 ] } },
{ "type": "Feature", "properties": { "value": 0.034 }, "geometry": { "type": "Point", "coordinates": [ 129.326599, 35.493221, 225.0 ] } },
{ "type": "Feature", "properties": { "value": 0.006 }, "geometry": { "type": "Point", "coordinates": [ 129.327698, 35.493217, 225.0 ] } },
{ "type": "Feature", "properties": { "value": 0.0017 }, "geometry": { "type": "Point", "coordinates": [ 129.318893, 35.494141, 225.0 ] } },
{ "type": "Feature", "properties": { "value": 0.0081 }, "geometry": { "type": "Point", "coordinates": [ 129.319992, 35.494141, 225.0 ] } },
{ "type": "Feature", "properties": { "value": 0.0236 }, "geometry": { "type": "Point", "coordinates": [ 129.321091, 35.494137, 225.0 ] } },
{ "type": "Feature", "properties": { "value": 0.0466 }, "geometry": { "type": "Point", "coordinates": [ 129.322189, 35.494133, 225.0 ] } },
{ "type": "Feature", "properties": { "value": 0.0604 }, "geometry": { "type": "Point", "coordinates": [ 129.323303, 35.494129, 225.0 ] } },
{ "type": "Feature", "properties": { "value": 0.0613 }, "geometry": { "type": "Point", "coordinates": [ 129.324402, 35.494129, 225.0 ] } },
{ "type": "Feature", "properties": { "value": 0.0527 }, "geometry": { "type": "Point", "coordinates": [ 129.3255, 35.494125, 225.0 ] } },
{ "type": "Feature", "properties": { "value": 0.0174 }, "geometry": { "type": "Point", "coordinates": [ 129.326599, 35.494122, 225.0 ] } },
{ "type": "Feature", "properties": { "value": 0.0024 }, "geometry": { "type": "Point", "coordinates": [ 129.327713, 35.494118, 225.0 ] } },
{ "type": "Feature", "properties": { "value": 0.0011 }, "geometry": { "type": "Point", "coordinates": [ 129.317795, 35.495045, 225.0 ] } },
{ "type": "Feature", "properties": { "value": 0.0059 }, "geometry": { "type": "Point", "coordinates": [ 129.318893, 35.495045, 225.0 ] } },
{ "type": "Feature", "properties": { "value": 0.0182 }, "geometry": { "type": "Point", "coordinates": [ 129.319992, 35.495041, 225.0 ] } },
{ "type": "Feature", "properties": { "value": 0.0393 }, "geometry": { "type": "Point", "coordinates": [ 129.321091, 35.495037, 225.0 ] } },
{ "type": "Feature", "properties": { "value": 0.0592 }, "geometry": { "type": "Point", "coordinates": [ 129.322205, 35.495033, 225.0 ] } },
{ "type": "Feature", "properties": { "value": 0.06 }, "geometry": { "type": "Point", "coordinates": [ 129.323303, 35.495033, 225.0 ] } },
{ "type": "Feature", "properties": { "value": 0.0526 }, "geometry": { "type": "Point", "coordinates": [ 129.324402, 35.495029, 225.0 ] } },
{ "type": "Feature", "properties": { "value": 0.0309 }, "geometry": { "type": "Point", "coordinates": [ 129.3255, 35.495026, 225.0 ] } },
{ "type": "Feature", "properties": { "value": 0.0089 }, "geometry": { "type": "Point", "coordinates": [ 129.326614, 35.495022, 225.0 ] } },
{ "type": "Feature", "properties": { "value": 0.0005 }, "geometry": { "type": "Point", "coordinates": [ 129.327713, 35.495022, 225.0 ] } },
{ "type": "Feature", "properties": { "value": 0.0006 }, "geometry": { "type": "Point", "coordinates": [ 129.316696, 35.495949, 225.0 ] } },
{ "type": "Feature", "properties": { "value": 0.0054 }, "geometry": { "type": "Point", "coordinates": [ 129.317795, 35.495949, 225.0 ] } },
{ "type": "Feature", "properties": { "value": 0.0163 }, "geometry": { "type": "Point", "coordinates": [ 129.318893, 35.495945, 225.0 ] } },
{ "type": "Feature", "properties": { "value": 0.036 }, "geometry": { "type": "Point", "coordinates": [ 129.319992, 35.495941, 225.0 ] } },
{ "type": "Feature", "properties": { "value": 0.0586 }, "geometry": { "type": "Point", "coordinates": [ 129.321106, 35.495937, 225.0 ] } },
{ "type": "Feature", "properties": { "value": 0.068 }, "geometry": { "type": "Point", "coordinates": [ 129.322205, 35.495937, 225.0 ] } },
{ "type": "Feature", "properties": { "value": 0.0775 }, "geometry": { "type": "Point", "coordinates": [ 129.323303, 35.495934, 225.0 ] } },
{ "type": "Feature", "properties": { "value": 0.0498 }, "geometry": { "type": "Point", "coordinates": [ 129.324402, 35.49593, 225.0 ] } },
{ "type": "Feature", "properties": { "value": 0.0208 }, "geometry": { "type": "Point", "coordinates": [ 129.325516, 35.495926, 225.0 ] } },
{ "type": "Feature", "properties": { "value": 0.0051 }, "geometry": { "type": "Point", "coordinates": [ 129.326614, 35.495926, 225.0 ] } },
{ "type": "Feature", "properties": { "value": 0.0008 }, "geometry": { "type": "Point", "coordinates": [ 129.315598, 35.496857, 225.0 ] } },
{ "type": "Feature", "properties": { "value": 0.0076 }, "geometry": { "type": "Point", "coordinates": [ 129.316696, 35.496853, 225.0 ] } },
{ "type": "Feature", "properties": { "value": 0.0193 }, "geometry": { "type": "Point", "coordinates": [ 129.317795, 35.496849, 225.0 ] } },
{ "type": "Feature", "properties": { "value": 0.0393 }, "geometry": { "type": "Point", "coordinates": [ 129.318893, 35.496845, 225.0 ] } },
{ "type": "Feature", "properties": { "value": 0.0639 }, "geometry": { "type": "Point", "coordinates": [ 129.320007, 35.496841, 225.0 ] } },
{ "type": "Feature", "properties": { "value": 0.0788 }, "geometry": { "type": "Point", "coordinates": [ 129.321106, 35.496841, 225.0 ] } },
{ "type": "Feature", "properties": { "value": 0.0962 }, "geometry": { "type": "Point", "coordinates": [ 129.322205, 35.496838, 225.0 ] } },
{ "type": "Feature", "properties": { "value": 0.0895 }, "geometry": { "type": "Point", "coordinates": [ 129.323303, 35.496834, 225.0 ] } },
{ "type": "Feature", "properties": { "value": 0.0307 }, "geometry": { "type": "Point", "coordinates": [ 129.324417, 35.49683, 225.0 ] } },
{ "type": "Feature", "properties": { "value": 0.0091 }, "geometry": { "type": "Point", "coordinates": [ 129.325516, 35.49683, 225.0 ] } },
{ "type": "Feature", "properties": { "value": 0.0014 }, "geometry": { "type": "Point", "coordinates": [ 129.326614, 35.496826, 225.0 ] } },
{ "type": "Feature", "properties": { "value": 0.0052 }, "geometry": { "type": "Point", "coordinates": [ 129.314499, 35.497761, 225.0 ] } },
{ "type": "Feature", "properties": { "value": 0.0151 }, "geometry": { "type": "Point", "coordinates": [ 129.315598, 35.497757, 225.0 ] } },
{ "type": "Feature", "properties": { "value": 0.0277 }, "geometry": { "type": "Point", "coordinates": [ 129.316696, 35.497753, 225.0 ] } },
{ "type": "Feature", "properties": { "value": 0.0535 }, "geometry": { "type": "Point", "coordinates": [ 129.317795, 35.497749, 225.0 ] } },
{ "type": "Feature", "properties": { "value": 0.0871 }, "geometry": { "type": "Point", "coordinates": [ 129.318909, 35.497749, 225.0 ] } },
{ "type": "Feature", "properties": { "value": 0.1023 }, "geometry": { "type": "Point", "coordinates": [ 129.320007, 35.497746, 225.0 ] } },
{ "type": "Feature", "properties": { "value": 0.1041 }, "geometry": { "type": "Point", "coordinates": [ 129.321106, 35.497742, 225.0 ] } },
{ "type": "Feature", "properties": { "value": 0.1424 }, "geometry": { "type": "Point", "coordinates": [ 129.322205, 35.497738, 225.0 ] } },
{ "type": "Feature", "properties": { "value": 0.0636 }, "geometry": { "type": "Point", "coordinates": [ 129.323318, 35.497734, 225.0 ] } },
{ "type": "Feature", "properties": { "value": 0.0126 }, "geometry": { "type": "Point", "coordinates": [ 129.324417, 35.497734, 225.0 ] } },
{ "type": "Feature", "properties": { "value": 0.0028 }, "geometry": { "type": "Point", "coordinates": [ 129.325516, 35.49773, 225.0 ] } },
{ "type": "Feature", "properties": { "value": 0.0094 }, "geometry": { "type": "Point", "coordinates": [ 129.3134, 35.498665, 225.0 ] } },
{ "type": "Feature", "properties": { "value": 0.027 }, "geometry": { "type": "Point", "coordinates": [ 129.314499, 35.498661, 225.0 ] } },
{ "type": "Feature", "properties": { "value": 0.0445 }, "geometry": { "type": "Point", "coordinates": [ 129.315598, 35.498657, 225.0 ] } },
{ "type": "Feature", "properties": { "value": 0.0731 }, "geometry": { "type": "Point", "coordinates": [ 129.316696, 35.498653, 225.0 ] } },
{ "type": "Feature", "properties": { "value": 0.1176 }, "geometry": { "type": "Point", "coordinates": [ 129.31781, 35.498653, 225.0 ] } },
{ "type": "Feature", "properties": { "value": 0.2778 }, "geometry": { "type": "Point", "coordinates": [ 129.318909, 35.49865, 225.0 ] } },
{ "type": "Feature", "properties": { "value": 0.1448 }, "geometry": { "type": "Point", "coordinates": [ 129.320007, 35.498646, 225.0 ] } },
{ "type": "Feature", "properties": { "value": 0.2187 }, "geometry": { "type": "Point", "coordinates": [ 129.321106, 35.498642, 225.0 ] } },
{ "type": "Feature", "properties": { "value": 0.1612 }, "geometry": { "type": "Point", "coordinates": [ 129.32222, 35.498638, 225.0 ] } },
{ "type": "Feature", "properties": { "value": 0.0375 }, "geometry": { "type": "Point", "coordinates": [ 129.323318, 35.498638, 225.0 ] } },
{ "type": "Feature", "properties": { "value": 0.0063 }, "geometry": { "type": "Point", "coordinates": [ 129.324417, 35.498634, 225.0 ] } },
{ "type": "Feature", "properties": { "value": 0.0008 }, "geometry": { "type": "Point", "coordinates": [ 129.325516, 35.498631, 225.0 ] } },
{ "type": "Feature", "properties": { "value": 0.0047 }, "geometry": { "type": "Point", "coordinates": [ 129.312302, 35.499569, 225.0 ] } },
{ "type": "Feature", "properties": { "value": 0.0289 }, "geometry": { "type": "Point", "coordinates": [ 129.3134, 35.499565, 225.0 ] } },
{ "type": "Feature", "properties": { "value": 0.0649 }, "geometry": { "type": "Point", "coordinates": [ 129.314499, 35.499561, 225.0 ] } },
{ "type": "Feature", "properties": { "value": 0.1017 }, "geometry": { "type": "Point", "coordinates": [ 129.315598, 35.499557, 225.0 ] } },
{ "type": "Feature", "properties": { "value": 0.1639 }, "geometry": { "type": "Point", "coordinates": [ 129.316711, 35.499557, 225.0 ] } },
{ "type": "Feature", "properties": { "value": 0.3322 }, "geometry": { "type": "Point", "coordinates": [ 129.31781, 35.499554, 225.0 ] } },
{ "type": "Feature", "properties": { "value": 0.6152 }, "geometry": { "type": "Point", "coordinates": [ 129.318909, 35.49955, 225.0 ] } },
{ "type": "Feature", "properties": { "value": 0.3084 }, "geometry": { "type": "Point", "coordinates": [ 129.320007, 35.499546, 225.0 ] } },
{ "type": "Feature", "properties": { "value": 0.3329 }, "geometry": { "type": "Point", "coordinates": [ 129.321121, 35.499546, 225.0 ] } },
{ "type": "Feature", "properties": { "value": 0.1307 }, "geometry": { "type": "Point", "coordinates": [ 129.32222, 35.499542, 225.0 ] } },
{ "type": "Feature", "properties": { "value": 0.0219 }, "geometry": { "type": "Point", "coordinates": [ 129.323318, 35.499538, 225.0 ] } },
{ "type": "Feature", "properties": { "value": 0.0035 }, "geometry": { "type": "Point", "coordinates": [ 129.324417, 35.499535, 225.0 ] } },
{ "type": "Feature", "properties": { "value": 0.0115 }, "geometry": { "type": "Point", "coordinates": [ 129.312302, 35.500469, 225.0 ] } },
{ "type": "Feature", "properties": { "value": 0.0442 }, "geometry": { "type": "Point", "coordinates": [ 129.3134, 35.500465, 225.0 ] } },
{ "type": "Feature", "properties": { "value": 0.1128 }, "geometry": { "type": "Point", "coordinates": [ 129.314499, 35.500462, 225.0 ] } },
{ "type": "Feature", "properties": { "value": 0.2245 }, "geometry": { "type": "Point", "coordinates": [ 129.315613, 35.500462, 225.0 ] } },
{ "type": "Feature", "properties": { "value": 0.4114 }, "geometry": { "type": "Point", "coordinates": [ 129.316711, 35.500458, 225.0 ] } },
{ "type": "Feature", "properties": { "value": 0.7582 }, "geometry": { "type": "Point", "coordinates": [ 129.31781, 35.500454, 225.0 ] } },
{ "type": "Feature", "properties": { "value": 0.8895 }, "geometry": { "type": "Point", "coordinates": [ 129.318909, 35.50045, 225.0 ] } },
{ "type": "Feature", "properties": { "value": 0.5559 }, "geometry": { "type": "Point", "coordinates": [ 129.320023, 35.50045, 225.0 ] } },
{ "type": "Feature", "properties": { "value": 0.3477 }, "geometry": { "type": "Point", "coordinates": [ 129.321121, 35.500446, 225.0 ] } },
{ "type": "Feature", "properties": { "value": 0.0809 }, "geometry": { "type": "Point", "coordinates": [ 129.32222, 35.500443, 225.0 ] } },
{ "type": "Feature", "properties": { "value": 0.0112 }, "geometry": { "type": "Point", "coordinates": [ 129.323318, 35.500439, 225.0 ] } },
{ "type": "Feature", "properties": { "value": 0.0009 }, "geometry": { "type": "Point", "coordinates": [ 129.324432, 35.500435, 225.0 ] } },
{ "type": "Feature", "properties": { "value": 0.0011 }, "geometry": { "type": "Point", "coordinates": [ 129.311203, 35.501373, 225.0 ] } },
{ "type": "Feature", "properties": { "value": 0.0157 }, "geometry": { "type": "Point", "coordinates": [ 129.312302, 35.501369, 225.0 ] } },
{ "type": "Feature", "properties": { "value": 0.0565 }, "geometry": { "type": "Point", "coordinates": [ 129.3134, 35.501366, 225.0 ] } },
{ "type": "Feature", "properties": { "value": 0.152 }, "geometry": { "type": "Point", "coordinates": [ 129.314514, 35.501366, 225.0 ] } },
{ "type": "Feature", "properties": { "value": 0.3351 }, "geometry": { "type": "Point", "coordinates": [ 129.315613, 35.501362, 225.0 ] } },
{ "type": "Feature", "properties": { "value": 0.6738 }, "geometry": { "type": "Point", "coordinates": [ 129.316711, 35.501358, 225.0 ] } },
{ "type": "Feature", "properties": { "value": 1.0304 }, "geometry": { "type": "Point", "coordinates": [ 129.31781, 35.501354, 225.0 ] } },
{ "type": "Feature", "properties": { "value": 0.7819 }, "geometry": { "type": "Point", "coordinates": [ 129.318924, 35.501354, 225.0 ] } },
{ "type": "Feature", "properties": { "value": 0.6093 }, "geometry": { "type": "Point", "coordinates": [ 129.320023, 35.50135, 225.0 ] } },
{ "type": "Feature", "properties": { "value": 0.2371 }, "geometry": { "type": "Point", "coordinates": [ 129.321121, 35.501347, 225.0 ] } },
{ "type": "Feature", "properties": { "value": 0.0413 }, "geometry": { "type": "Point", "coordinates": [ 129.32222, 35.501343, 225.0 ] } },
{ "type": "Feature", "properties": { "value": 0.0053 }, "geometry": { "type": "Point", "coordinates": [ 129.323334, 35.501339, 225.0 ] } }
]
}
