{
"type": "FeatureCollection",
"features": [
{ "type": "Feature", "properties": { "value": 0.0053 }, "geometry": { "type": "Point", "coordinates": [ 129.32756, 35.458969, 60.0 ] } },
{ "type": "Feature", "properties": { "value": 5.4517 }, "geometry": { "type": "Point", "coordinates": [ 129.32756, 35.459869, 60.0 ] } },
{ "type": "Feature", "properties": { "value": 122.57 }, "geometry": { "type": "Point", "coordinates": [ 129.327576, 35.46077, 60.0 ] } },
{ "type": "Feature", "properties": { "value": 191.76 }, "geometry": { "type": "Point", "coordinates": [ 129.327576, 35.461674, 60.0 ] } },
{ "type": "Feature", "properties": { "value": 137.76 }, "geometry": { "type": "Point", "coordinates": [ 129.327576, 35.462574, 60.0 ] } },
{ "type": "Feature", "properties": { "value": 3.0365 }, "geometry": { "type": "Point", "coordinates": [ 129.328674, 35.46257, 60.0 ] } },
{ "type": "Feature", "properties": { "value": 83.175 }, "geometry": { "type": "Point", "coordinates": [ 129.327576, 35.463474, 60.0 ] } },
{ "type": "Feature", "properties": { "value": 17.327 }, "geometry": { "type": "Point", "coordinates": [ 129.32869, 35.46347, 60.0 ] } },
{ "type": "Feature", "properties": { "value": 50.278 }, "geometry": { "type": "Point", "coordinates": [ 129.327591, 35.464375, 60.0 ] } },
{ "type": "Feature", "properties": { "value": 48.156 }, "geometry": { "type": "Point", "coordinates": [ 129.32869, 35.464375, 60.0 ] } },
{ "type": "Feature", "properties": { "value": 32.548 }, "geometry": { "type": "Point", "coordinates": [ 129.327591, 35.465279, 60.0 ] } },
{ "type": "Feature", "properties": { "value": 108.3 }, "geometry": { "type": "Point", "coordinates": [ 129.32869, 35.465275, 60.0 ] } },
{ "type": "Feature", "properties": { "value": 19.435 }, "geometry": { "type": "Point", "coordinates": [ 129.327591, 35.466179, 60.0 ] } },
{ "type": "Feature", "properties": { "value": 163.58 }, "geometry": { "type": "Point", "coordinates": [ 129.32869, 35.466175, 60.0 ] } },
{ "type": "Feature", "properties": { "value": 1.0907 }, "geometry": { "type": "Point", "coordinates": [ 129.329803, 35.466171, 60.0 ] } },
{ "type": "Feature", "properties": { "value": 10.471 }, "geometry": { "type": "Point", "coordinates": [ 129.327591, 35.467079, 60.0 ] } },
{ "type": "Feature", "properties": { "value": 177.47 }, "geometry": { "type": "Point", "coordinates": [ 129.328705, 35.467075, 60.0 ] } },
{ "type": "Feature", "properties": { "value": 10.437 }, "geometry": { "type": "Point", "coordinates": [ 129.329803, 35.467075, 60.0 ] } },
{ "type": "Feature", "properties": { "value": 4.8966 }, "geometry": { "type": "Point", "coordinates": [ 129.327606, 35.467983, 60.0 ] } },
{ "type": "Feature", "properties": { "value": 154.4 }, "geometry": { "type": "Point", "coordinates": [ 129.328705, 35.467979, 60.0 ] } },
{ "type": "Feature", "properties": { "value": 31.508 }, "geometry": { "type": "Point", "coordinates": [ 129.329803, 35.467976, 60.0 ] } },
{ "type": "Feature", "properties": { "value": 2.1432 }, "geometry": { "type": "Point", "coordinates": [ 129.327606, 35.468884, 60.0 ] } },
{ "type": "Feature", "properties": { "value": 114.41 }, "geometry": { "type": "Point", "coordinates": [ 129.328705, 35.46888, 60.0 ] } },
{ "type": "Feature", "properties": { "value": 65.709 }, "geometry": { "type": "Point", "coordinates": [ 129.329803, 35.468876, 60.0 ] } },
{ "type": "Feature", "properties": { "value": 73.778 }, "geometry": { "type": "Point", "coordinates": [ 129.328705, 35.46978, 60.0 ] } },
{ "type": "Feature", "properties": { "value": 101.9 }, "geometry": { "type": "Point", "coordinates": [ 129.329819, 35.469776, 60.0 ] } },
{ "type": "Feature", "properties": { "value": 3.3663 }, "geometry": { "type": "Point", "coordinates": [ 129.330917, 35.469776, 60.0 ] } },
{ "type": "Feature", "properties": { "value": 41.332 }, "geometry": { "type": "Point", "coordinates": [ 129.32872, 35.470684, 60.0 ] } },
{ "type": "Feature", "properties": { "value": 110.45 }, "geometry": { "type": "Point", "coordinates": [ 129.329819, 35.47068, 60.0 ] } },
{ "type": "Feature", "properties": { "value": 9.2882 }, "geometry": { "type": "Point", "coordinates": [ 129.330917, 35.470676, 60.0 ] } },
{ "type": "Feature", "properties": { "value": 17.136 }, "geometry": { "type": "Point", "coordinates": [ 129.32872, 35.471584, 60.0 ] } },
{ "type": "Feature", "properties": { "value": 74.194 }, "geometry": { "type": "Point", "coordinates": [ 129.329819, 35.471581, 60.0 ] } },
{ "type": "Feature", "properties": { "value": 15.821 }, "geometry": { "type": "Point", "coordinates": [ 129.330917, 35.471577, 60.0 ] } },
{ "type": "Feature", "properties": { "value": 5.2049 }, "geometry": { "type": "Point", "coordinates": [ 129.32872, 35.472485, 60.0 ] } },
{ "type": "Feature", "properties": { "value": 44.05 }, "geometry": { "type": "Point", "coordinates": [ 129.329819, 35.472481, 60.0 ] } },
{ "type": "Feature", "properties": { "value": 29.685 }, "geometry": { "type": "Point", "coordinates": [ 129.330917, 35.472477, 60.0 ] } },
{ "type": "Feature", "properties": { "value": 1.8635 }, "geometry": { "type": "Point", "coordinates": [ 129.332031, 35.472477, 60.0 ] } },
{ "type": "Feature", "properties": { "value": 1.7433 }, "geometry": { "type": "Point", "coordinates": [ 129.32872, 35.473385, 60.0 ] } },
{ "type": "Feature", "properties": { "value": 32.853 }, "geometry": { "type": "Point", "coordinates": [ 129.329819, 35.473385, 60.0 ] } },
{ "type": "Feature", "properties": { "value": 57.492 }, "geometry": { "type": "Point", "coordinates": [ 129.330933, 35.473381, 60.0 ] } },
{ "type": "Feature", "properties": { "value": 10.672 }, "geometry": { "type": "Point", "coordinates": [ 129.332031, 35.473377, 60.0 ] } },
{ "type": "Feature", "properties": { "value": 0.616 }, "geometry": { "type": "Point", "coordinates": [ 129.328735, 35.474289, 60.0 ] } },
{ "type": "Feature", "properties": { "value": 24.778 }, "geometry": { "type": "Point", "coordinates": [ 129.329834, 35.474285, 60.0 ] } },
{ "type": "Feature", "properties": { "value": 75.962 }, "geometry": { "type": "Point", "coordinates": [ 129.330933, 35.474281, 60.0 ] } },
{ "type": "Feature", "properties": { "value": 29.257 }, "geometry": { "type": "Point", "coordinates": [ 129.332031, 35.474277, 60.0 ] } },
{ "type": "Feature", "properties": { "value": 1.6959 }, "geometry": { "type": "Point", "coordinates": [ 129.33313, 35.474274, 60.0 ] } },
{ "type": "Feature", "properties": { "value": 14.732 }, "geometry": { "type": "Point", "coordinates": [ 129.329834, 35.475185, 60.0 ] } },
{ "type": "Feature", "properties": { "value": 69.696 }, "geometry": { "type": "Point", "coordinates": [ 129.330933, 35.475182, 60.0 ] } },
{ "type": "Feature", "properties": { "value": 50.983 }, "geometry": { "type": "Point", "coordinates": [ 129.332031, 35.475178, 60.0 ] } },
{ "type": "Feature", "properties": { "value": 7.0335 }, "geometry": { "type": "Point", "coordinates": [ 129.333145, 35.475178, 60.0 ] } },
{ "type": "Feature", "properties": { "value": 7.416 }, "geometry": { "type": "Point", "coordinates": [ 129.329834, 35.476086, 60.0 ] } },
{ "type": "Feature", "properties": { "value": 53.492 }, "geometry": { "type": "Point", "coordinates": [ 129.330933, 35.476086, 60.0 ] } },
{ "type": "Feature", "properties": { "value": 68.293 }, "geometry": { "type": "Point", "coordinates": [ 129.332047, 35.476082, 60.0 ] } },
{ "type": "Feature", "properties": { "value": 18.384 }, "geometry": { "type": "Point", "coordinates": [ 129.333145, 35.476078, 60.0 ] } },
{ "type": "Feature", "properties": { "value": 1.0123 }, "geometry": { "type": "Point", "coordinates": [ 129.334244, 35.476074, 60.0 ] } },
{ "type": "Feature", "properties": { "value": 3.2075 }, "geometry": { "type": "Point", "coordinates": [ 129.329834, 35.47699, 60.0 ] } },
{ "type": "Feature", "properties": { "value": 34.283 }, "geometry": { "type": "Point", "coordinates": [ 129.330948, 35.476986, 60.0 ] } },
{ "type": "Feature", "properties": { "value": 72.855 }, "geometry": { "type": "Point", "coordinates": [ 129.332047, 35.476982, 60.0 ] } },
{ "type": "Feature", "properties": { "value": 36.082 }, "geometry": { "type": "Point", "coordinates": [ 129.333145, 35.476978, 60.0 ] } },
{ "type": "Feature", "properties": { "value": 4.6283 }, "geometry": { "type": "Point", "coordinates": [ 129.334244, 35.476974, 60.0 ] } },
{ "type": "Feature", "properties": { "value": 0.9871 }, "geometry": { "type": "Point", "coordinates": [ 129.329849, 35.47789, 60.0 ] } },
{ "type": "Feature", "properties": { "value": 18.617 }, "geometry": { "type": "Point", "coordinates": [ 129.330948, 35.477886, 60.0 ] } },
{ "type": "Feature", "properties": { "value": 63.31 }, "geometry": { "type": "Point", "coordinates": [ 129.332047, 35.477882, 60.0 ] } },
{ "type": "Feature", "properties": { "value": 54.704 }, "geometry": { "type": "Point", "coordinates": [ 129.333145, 35.477879, 60.0 ] } },
{ "type": "Feature", "properties": { "value": 13.485 }, "geometry": { "type": "Point", "coordinates": [ 129.334259, 35.477879, 60.0 ] } },
{ "type": "Feature", "properties": { "value": 0.8307 }, "geometry": { "type": "Point", "coordinates": [ 129.335358, 35.477875, 60.0 ] } },
{ "type": "Feature", "properties": { "value": 8.5652 }, "geometry": { "type": "Point", "coordinates": [ 129.330948, 35.478786, 60.0 ] } },
{ "type": "Feature", "properties": { "value": 45.307 }, "geometry": { "type": "Point", "coordinates": [ 129.332047, 35.478786, 60.0 ] } },
{ "type": "Feature", "properties": { "value": 65.442 }, "geometry": { "type": "Point", "coordinates": [ 129.33316, 35.478783, 60.0 ] } },
{ "type": "Feature", "properties": { "value": 28.889 }, "geometry": { "type": "Point", "coordinates": [ 129.334259, 35.478779, 60.0 ] } },
{ "type": "Feature", "properties": { "value": 4.3115 }, "geometry": { "type": "Point", "coordinates": [ 129.335358, 35.478775, 60.0 ] } },
{ "type": "Feature", "properties": { "value": 3.2954 }, "geometry": { "type": "Point", "coordinates": [ 129.330948, 35.479691, 60.0 ] } },
{ "type": "Feature", "properties": { "value": 26.734 }, "geometry": { "type": "Point", "coordinates": [ 129.332062, 35.479687, 60.0 ] } },
{ "type": "Feature", "properties": { "value": 62.18 }, "geometry": { "type": "Point", "coordinates": [ 129.33316, 35.479683, 60.0 ] } },
{ "type": "Feature", "properties": { "value": 47.167 }, "geometry": { "type": "Point", "coordinates": [ 129.334259, 35.479679, 60.0 ] } },
{ "type": "Feature", "properties": { "value": 13.081 }, "geometry": { "type": "Point", "coordinates": [ 129.335358, 35.479675, 60.0 ] } },
{ "type": "Feature", "properties": { "value": 1.3771 }, "geometry": { "type": "Point", "coordinates": [ 129.336456, 35.479675, 60.0 ] } },
{ "type": "Feature", "properties": { "value": 0.8637 }, "geometry": { "type": "Point", "coordinates": [ 129.330963, 35.480591, 60.0 ] } },
{ "type": "Feature", "properties": { "value": 13.105 }, "geometry": { "type": "Point", "coordinates": [ 129.332062, 35.480587, 60.0 ] } },
{ "type": "Feature", "properties": { "value": 47.562 }, "geometry": { "type": "Point", "coordinates": [ 129.33316, 35.480583, 60.0 ] } },
{ "type": "Feature", "properties": { "value": 59.196 }, "geometry": { "type": "Point", "coordinates": [ 129.334259, 35.480579, 60.0 ] } },
{ "type": "Feature", "properties": { "value": 28.487 }, "geometry": { "type": "Point", "coordinates": [ 129.335358, 35.480579, 60.0 ] } },
{ "type": "Feature", "properties": { "value": 6.274 }, "geometry": { "type": "Point", "coordinates": [ 129.336472, 35.480576, 60.0 ] } },
{ "type": "Feature", "properties": { "value": 0.6053 }, "geometry": { "type": "Point", "coordinates": [ 129.33757, 35.480572, 60.0 ] } },
{ "type": "Feature", "properties": { "value": 5.4436 }, "geometry": { "type": "Point", "coordinates": [ 129.332062, 35.481487, 60.0 ] } },
{ "type": "Feature", "properties": { "value": 29.409 }, "geometry": { "type": "Point", "coordinates": [ 129.33316, 35.481487, 60.0 ] } },
{ "type": "Feature", "properties": { "value": 55.5 }, "geometry": { "type": "Point", "coordinates": [ 129.334259, 35.481483, 60.0 ] } },
{ "type": "Feature", "properties": { "value": 42.879 }, "geometry": { "type": "Point", "coordinates": [ 129.335373, 35.48148, 60.0 ] } },
{ "type": "Feature", "properties": { "value": 16.386 }, "geometry": { "type": "Point", "coordinates": [ 129.336472, 35.481476, 60.0 ] } },
{ "type": "Feature", "properties": { "value": 3.6927 }, "geometry": { "type": "Point", "coordinates": [ 129.33757, 35.481472, 60.0 ] } },
{ "type": "Feature", "properties": { "value": 0.3809 }, "geometry": { "type": "Point", "coordinates": [ 129.338669, 35.481472, 60.0 ] } },
{ "type": "Feature", "properties": { "value": 2.0417 }, "geometry": { "type": "Point", "coordinates": [ 129.332062, 35.482391, 60.0 ] } },
{ "type": "Feature", "properties": { "value": 15.302 }, "geometry": { "type": "Point", "coordinates": [ 129.333176, 35.482388, 60.0 ] } },
{ "type": "Feature", "properties": { "value": 40.694 }, "geometry": { "type": "Point", "coordinates": [ 129.334274, 35.482384, 60.0 ] } },
{ "type": "Feature", "properties": { "value": 47.696 }, "geometry": { "type": "Point", "coordinates": [ 129.335373, 35.48238, 60.0 ] } },
{ "type": "Feature", "properties": { "value": 28.919 }, "geometry": { "type": "Point", "coordinates": [ 129.336472, 35.482376, 60.0 ] } },
{ "type": "Feature", "properties": { "value": 10.566 }, "geometry": { "type": "Point", "coordinates": [ 129.33757, 35.482376, 60.0 ] } },
{ "type": "Feature", "properties": { "value": 2.6617 }, "geometry": { "type": "Point", "coordinates": [ 129.338684, 35.482372, 60.0 ] } },
{ "type": "Feature", "properties": { "value": 0.3453 }, "geometry": { "type": "Point", "coordinates": [ 129.339783, 35.482368, 60.0 ] } },
{ "type": "Feature", "properties": { "value": 0.7318 }, "geometry": { "type": "Point", "coordinates": [ 129.332077, 35.483292, 60.0 ] } },
{ "type": "Feature", "properties": { "value": 7.4295 }, "geometry": { "type": "Point", "coordinates": [ 129.333176, 35.483288, 60.0 ] } },
{ "type": "Feature", "properties": { "value": 25.866 }, "geometry": { "type": "Point", "coordinates": [ 129.334274, 35.483284, 60.0 ] } },
{ "type": "Feature", "properties": { "value": 42.469 }, "geometry": { "type": "Point", "coordinates": [ 129.335373, 35.48328, 60.0 ] } },
{ "type": "Feature", "properties": { "value": 37.653 }, "geometry": { "type": "Point", "coordinates": [ 129.336472, 35.48328, 60.0 ] } },
{ "type": "Feature", "properties": { "value": 20.447 }, "geometry": { "type": "Point", "coordinates": [ 129.337585, 35.483276, 60.0 ] } },
{ "type": "Feature", "properties": { "value": 7.6871 }, "geometry": { "type": "Point", "coordinates": [ 129.338684, 35.483273, 60.0 ] } },
{ "type": "Feature", "properties": { "value": 2.219 }, "geometry": { "type": "Point", "coordinates": [ 129.339783, 35.483269, 60.0 ] } },
{ "type": "Feature", "properties": { "value": 0.4413 }, "geometry": { "type": "Point", "coordinates": [ 129.340881, 35.483265, 60.0 ] } },
{ "type": "Feature", "properties": { "value": 3.3628 }, "geometry": { "type": "Point", "coordinates": [ 129.333176, 35.484188, 60.0 ] } },
{ "type": "Feature", "properties": { "value": 14.609 }, "geometry": { "type": "Point", "coordinates": [ 129.334274, 35.484188, 60.0 ] } },
{ "type": "Feature", "properties": { "value": 31.562 }, "geometry": { "type": "Point", "coordinates": [ 129.335373, 35.484184, 60.0 ] } },
{ "type": "Feature", "properties": { "value": 38.424 }, "geometry": { "type": "Point", "coordinates": [ 129.336487, 35.48418, 60.0 ] } },
{ "type": "Feature", "properties": { "value": 29.35 }, "geometry": { "type": "Point", "coordinates": [ 129.337585, 35.484177, 60.0 ] } },
{ "type": "Feature", "properties": { "value": 15.592 }, "geometry": { "type": "Point", "coordinates": [ 129.338684, 35.484173, 60.0 ] } },
{ "type": "Feature", "properties": { "value": 6.3294 }, "geometry": { "type": "Point", "coordinates": [ 129.339783, 35.484173, 60.0 ] } },
{ "type": "Feature", "properties": { "value": 2.0796 }, "geometry": { "type": "Point", "coordinates": [ 129.340897, 35.484169, 60.0 ] } },
{ "type": "Feature", "properties": { "value": 0.5409 }, "geometry": { "type": "Point", "coordinates": [ 129.341995, 35.484165, 60.0 ] } },
{ "type": "Feature", "properties": { "value": 1.3567 }, "geometry": { "type": "Point", "coordinates": [ 129.333176, 35.485092, 60.0 ] } },
{ "type": "Feature", "properties": { "value": 7.3256 }, "geometry": { "type": "Point", "coordinates": [ 129.334274, 35.485088, 60.0 ] } },
{ "type": "Feature", "properties": { "value": 20.129 }, "geometry": { "type": "Point", "coordinates": [ 129.335388, 35.485085, 60.0 ] } },
{ "type": "Feature", "properties": { "value": 32.259 }, "geometry": { "type": "Point", "coordinates": [ 129.336487, 35.485081, 60.0 ] } },
{ "type": "Feature", "properties": { "value": 33.078 }, "geometry": { "type": "Point", "coordinates": [ 129.337585, 35.485077, 60.0 ] } },
{ "type": "Feature", "properties": { "value": 23.73 }, "geometry": { "type": "Point", "coordinates": [ 129.338684, 35.485077, 60.0 ] } },
{ "type": "Feature", "properties": { "value": 12.902 }, "geometry": { "type": "Point", "coordinates": [ 129.339798, 35.485073, 60.0 ] } },
{ "type": "Feature", "properties": { "value": 5.6633 }, "geometry": { "type": "Point", "coordinates": [ 129.340897, 35.485069, 60.0 ] } },
{ "type": "Feature", "properties": { "value": 2.0936 }, "geometry": { "type": "Point", "coordinates": [ 129.341995, 35.485065, 60.0 ] } },
{ "type": "Feature", "properties": { "value": 0.6527 }, "geometry": { "type": "Point", "coordinates": [ 129.343094, 35.485062, 60.0 ] } },
{ "type": "Feature", "properties": { "value": 0.4033 }, "geometry": { "type": "Point", "coordinates": [ 129.333176, 35.485992, 60.0 ] } },
{ "type": "Feature", "properties": { "value": 3.2876 }, "geometry": { "type": "Point", "coordinates": [ 129.33429, 35.485989, 60.0 ] } },
{ "type": "Feature", "properties": { "value": 11.231 }, "geometry": { "type": "Point", "coordinates": [ 129.335388, 35.485985, 60.0 ] } },
{ "type": "Feature", "properties": { "value": 22.947 }, "geometry": { "type": "Point", "coordinates": [ 129.336487, 35.485981, 60.0 ] } },
{ "type": "Feature", "properties": { "value": 30.552 }, "geometry": { "type": "Point", "coordinates": [ 129.337585, 35.485981, 60.0 ] } },
{ "type": "Feature", "properties": { "value": 28.581 }, "geometry": { "type": "Point", "coordinates": [ 129.338699, 35.485977, 60.0 ] } },
{ "type": "Feature", "properties": { "value": 20.141 }, "geometry": { "type": "Point", "coordinates": [ 129.339798, 35.485973, 60.0 ] } },
{ "type": "Feature", "properties": { "value": 11.356 }, "geometry": { "type": "Point", "coordinates": [ 129.340897, 35.48597, 60.0 ] } },
{ "type": "Feature", "properties": { "value": 5.3828 }, "geometry": { "type": "Point", "coordinates": [ 129.341995, 35.485966, 60.0 ] } },
{ "type": "Feature", "properties": { "value": 2.2487 }, "geometry": { "type": "Point", "coordinates": [ 129.343094, 35.485966, 60.0 ] } },
{ "type": "Feature", "properties": { "value": 0.8335 }, "geometry": { "type": "Point", "coordinates": [ 129.344208, 35.485962, 60.0 ] } },
{ "type": "Feature", "properties": { "value": 0.2326 }, "geometry": { "type": "Point", "coordinates": [ 129.345306, 35.485958, 60.0 ] } },
{ "type": "Feature", "properties": { "value": 1.3022 }, "geometry": { "type": "Point", "coordinates": [ 129.33429, 35.486889, 60.0 ] } },
{ "type": "Feature", "properties": { "value": 5.5908 }, "geometry": { "type": "Point", "coordinates": [ 129.335388, 35.486889, 60.0 ] } },
{ "type": "Feature", "properties": { "value": 14.163 }, "geometry": { "type": "Point", "coordinates": [ 129.336487, 35.486885, 60.0 ] } },
{ "type": "Feature", "properties": { "value": 23.781 }, "geometry": { "type": "Point", "coordinates": [ 129.337601, 35.486881, 60.0 ] } },
{ "type": "Feature", "properties": { "value": 28.143 }, "geometry": { "type": "Point", "coordinates": [ 129.338699, 35.486877, 60.0 ] } },
{ "type": "Feature", "properties": { "value": 25.018 }, "geometry": { "type": "Point", "coordinates": [ 129.339798, 35.486874, 60.0 ] } },
{ "type": "Feature", "properties": { "value": 17.701 }, "geometry": { "type": "Point", "coordinates": [ 129.340897, 35.486874, 60.0 ] } },
{ "type": "Feature", "properties": { "value": 10.482 }, "geometry": { "type": "Point", "coordinates": [ 129.341995, 35.48687, 60.0 ] } },
{ "type": "Feature", "properties": { "value": 5.4434 }, "geometry": { "type": "Point", "coordinates": [ 129.343109, 35.486866, 60.0 ] } },
{ "type": "Feature", "properties": { "value": 2.5729 }, "geometry": { "type": "Point", "coordinates": [ 129.344208, 35.486862, 60.0 ] } },
{ "type": "Feature", "properties": { "value": 1.1181 }, "geometry": { "type": "Point", "coordinates": [ 129.345306, 35.486858, 60.0 ] } },
{ "type": "Feature", "properties": { "value": 0.4462 }, "geometry": { "type": "Point", "coordinates": [ 129.346405, 35.486855, 60.0 ] } },
{ "type": "Feature", "properties": { "value": 0.0769 }, "geometry": { "type": "Point", "coordinates": [ 129.347519, 35.486855, 60.0 ] } },
{ "type": "Feature", "properties": { "value": 0.4133 }, "geometry": { "type": "Point", "coordinates": [ 129.33429, 35.487793, 60.0 ] } },
{ "type": "Feature", "properties": { "value": 2.4941 }, "geometry": { "type": "Point", "coordinates": [ 129.335388, 35.487789, 60.0 ] } },
{ "type": "Feature", "properties": { "value": 7.7331 }, "geometry": { "type": "Point", "coordinates": [ 129.336502, 35.487785, 60.0 ] } },
{ "type": "Feature", "properties": { "value": 15.901 }, "geometry": { "type": "Point", "coordinates": [ 129.337601, 35.487782, 60.0 ] } },
{ "type": "Feature", "properties": { "value": 23.172 }, "geometry": { "type": "Point", "coordinates": [ 129.338699, 35.487778, 60.0 ] } },
{ "type": "Feature", "properties": { "value": 25.423 }, "geometry": { "type": "Point", "coordinates": [ 129.339798, 35.487778, 60.0 ] } },
{ "type": "Feature", "properties": { "value": 22.192 }, "geometry": { "type": "Point", "coordinates": [ 129.340912, 35.487774, 60.0 ] } },
{ "type": "Feature", "properties": { "value": 16.128 }, "geometry": { "type": "Point", "coordinates": [ 129.34201, 35.48777, 60.0 ] } },
{ "type": "Feature", "properties": { "value": 10.185 }, "geometry": { "type": "Point", "coordinates": [ 129.343109, 35.487766, 60.0 ] } },
{ "type": "Feature", "properties": { "value": 5.787 }, "geometry": { "type": "Point", "coordinates": [ 129.344208, 35.487762, 60.0 ] } },
{ "type": "Feature", "properties": { "value": 3.0543 }, "geometry": { "type": "Point", "coordinates": [ 129.345306, 35.487759, 60.0 ] } },
{ "type": "Feature", "properties": { "value": 1.5305 }, "geometry": { "type": "Point", "coordinates": [ 129.34642, 35.487759, 60.0 ] } },
{ "type": "Feature", "properties": { "value": 0.7217 }, "geometry": { "type": "Point", "coordinates": [ 129.347519, 35.487755, 60.0 ] } },
{ "type": "Feature", "properties": { "value": 0.3005 }, "geometry": { "type": "Point", "coordinates": [ 129.348618, 35.487751, 60.0 ] } },
{ "type": "Feature", "properties": { "value": 0.0046 }, "geometry": { "type": "Point", "coordinates": [ 129.378372, 35.487663, 60.0 ] } },
{ "type": "Feature", "properties": { "value": 0.0162 }, "geometry": { "type": "Point", "coordinates": [ 129.379471, 35.487659, 60.0 ] } },
{ "type": "Feature", "properties": { "value": 0.0197 }, "geometry": { "type": "Point", "coordinates": [ 129.380569, 35.487656, 60.0 ] } },
{ "type": "Feature", "properties": { "value": 0.0204 }, "geometry": { "type": "Point", "coordinates": [ 129.381683, 35.487652, 60.0 ] } },
{ "type": "Feature", "properties": { "value": 0.9952 }, "geometry": { "type": "Point", "coordinates": [ 129.335403, 35.488689, 60.0 ] } },
{ "type": "Feature", "properties": { "value": 3.7745 }, "geometry": { "type": "Point", "coordinates": [ 129.336502, 35.488686, 60.0 ] } },
{ "type": "Feature", "properties": { "value": 9.3107 }, "geometry": { "type": "Point", "coordinates": [ 129.337601, 35.488682, 60.0 ] } },
{ "type": "Feature", "properties": { "value": 16.385 }, "geometry": { "type": "Point", "coordinates": [ 129.338699, 35.488682, 60.0 ] } },
{ "type": "Feature", "properties": { "value": 21.775 }, "geometry": { "type": "Point", "coordinates": [ 129.339813, 35.488678, 60.0 ] } },
{ "type": "Feature", "properties": { "value": 23.041 }, "geometry": { "type": "Point", "coordinates": [ 129.340912, 35.488674, 60.0 ] } },
{ "type": "Feature", "properties": { "value": 20.203 }, "geometry": { "type": "Point", "coordinates": [ 129.34201, 35.48867, 60.0 ] } },
{ "type": "Feature", "properties": { "value": 15.254 }, "geometry": { "type": "Point", "coordinates": [ 129.343109, 35.488667, 60.0 ] } },
{ "type": "Feature", "properties": { "value": 10.296 }, "geometry": { "type": "Point", "coordinates": [ 129.344208, 35.488667, 60.0 ] } },
{ "type": "Feature", "properties": { "value": 6.3872 }, "geometry": { "type": "Point", "coordinates": [ 129.345322, 35.488663, 60.0 ] } },
{ "type": "Feature", "properties": { "value": 3.713 }, "geometry": { "type": "Point", "coordinates": [ 129.34642, 35.488659, 60.0 ] } },
{ "type": "Feature", "properties": { "value": 2.0216 }, "geometry": { "type": "Point", "coordinates": [ 129.347519, 35.488655, 60.0 ] } },
{ "type": "Feature", "properties": { "value": 1.0521 }, "geometry": { "type": "Point", "coordinates": [ 129.348618, 35.488651, 60.0 ] } },
{ "type": "Feature", "properties": { "value": 0.5053 }, "geometry": { "type": "Point", "coordinates": [ 129.349731, 35.488647, 60.0 ] } },
{ "type": "Feature", "properties": { "value": 0.2032 }, "geometry": { "type": "Point", "coordinates": [ 129.35083, 35.488647, 60.0 ] } },
{ "type": "Feature", "properties": { "value": 0.0278 }, "geometry": { "type": "Point", "coordinates": [ 129.376175, 35.488571, 60.0 ] } },
{ "type": "Feature", "properties": { "value": 0.0501 }, "geometry": { "type": "Point", "coordinates": [ 129.377274, 35.488567, 60.0 ] } },
{ "type": "Feature", "properties": { "value": 0.0625 }, "geometry": { "type": "Point", "coordinates": [ 129.378372, 35.488564, 60.0 ] } },
{ "type": "Feature", "properties": { "value": 0.0702 }, "geometry": { "type": "Point", "coordinates": [ 129.379471, 35.48856, 60.0 ] } },
{ "type": "Feature", "properties": { "value": 0.0703 }, "geometry": { "type": "Point", "coordinates": [ 129.380585, 35.488556, 60.0 ] } },
{ "type": "Feature", "properties": { "value": 0.0646 }, "geometry": { "type": "Point", "coordinates": [ 129.381683, 35.488552, 60.0 ] } },
{ "type": "Feature", "properties": { "value": 0.3001 }, "geometry": { "type": "Point", "coordinates": [ 129.335403, 35.48959, 60.0 ] } },
{ "type": "Feature", "properties": { "value": 1.6285 }, "geometry": { "type": "Point", "coordinates": [ 129.336502, 35.48959, 60.0 ] } },
{ "type": "Feature", "properties": { "value": 4.8374 }, "geometry": { "type": "Point", "coordinates": [ 129.337601, 35.489586, 60.0 ] } },
{ "type": "Feature", "properties": { "value": 10.14 }, "geometry": { "type": "Point", "coordinates": [ 129.338715, 35.489582, 60.0 ] } },
{ "type": "Feature", "properties": { "value": 16.074 }, "geometry": { "type": "Point", "coordinates": [ 129.339813, 35.489578, 60.0 ] } },
{ "type": "Feature", "properties": { "value": 20.316 }, "geometry": { "type": "Point", "coordinates": [ 129.340912, 35.489574, 60.0 ] } },
{ "type": "Feature", "properties": { "value": 21.28 }, "geometry": { "type": "Point", "coordinates": [ 129.34201, 35.489571, 60.0 ] } },
{ "type": "Feature", "properties": { "value": 19.03 }, "geometry": { "type": "Point", "coordinates": [ 129.343109, 35.489571, 60.0 ] } },
{ "type": "Feature", "properties": { "value": 15.04 }, "geometry": { "type": "Point", "coordinates": [ 129.344223, 35.489567, 60.0 ] } },
{ "type": "Feature", "properties": { "value": 10.815 }, "geometry": { "type": "Point", "coordinates": [ 129.345322, 35.489563, 60.0 ] } },
{ "type": "Feature", "properties": { "value": 7.1951 }, "geometry": { "type": "Point", "coordinates": [ 129.34642, 35.489559, 60.0 ] } },
{ "type": "Feature", "properties": { "value": 4.469 }, "geometry": { "type": "Point", "coordinates": [ 129.347519, 35.489555, 60.0 ] } },
{ "type": "Feature", "properties": { "value": 2.6201 }, "geometry": { "type": "Point", "coordinates": [ 129.348633, 35.489555, 60.0 ] } },
{ "type": "Feature", "properties": { "value": 1.4907 }, "geometry": { "type": "Point", "coordinates": [ 129.349731, 35.489552, 60.0 ] } },
{ "type": "Feature", "properties": { "value": 0.8211 }, "geometry": { "type": "Point", "coordinates": [ 129.35083, 35.489548, 60.0 ] } },
{ "type": "Feature", "properties": { "value": 0.4353 }, "geometry": { "type": "Point", "coordinates": [ 129.351929, 35.489544, 60.0 ] } },
{ "type": "Feature", "properties": { "value": 0.2117 }, "geometry": { "type": "Point", "coordinates": [ 129.353027, 35.48954, 60.0 ] } },
{ "type": "Feature", "properties": { "value": 0.0103 }, "geometry": { "type": "Point", "coordinates": [ 129.372864, 35.489483, 60.0 ] } },
{ "type": "Feature", "properties": { "value": 0.0652 }, "geometry": { "type": "Point", "coordinates": [ 129.373978, 35.489479, 60.0 ] } },
{ "type": "Feature", "properties": { "value": 0.1013 }, "geometry": { "type": "Point", "coordinates": [ 129.375076, 35.489475, 60.0 ] } },
{ "type": "Feature", "properties": { "value": 0.1237 }, "geometry": { "type": "Point", "coordinates": [ 129.376175, 35.489471, 60.0 ] } },
{ "type": "Feature", "properties": { "value": 0.1474 }, "geometry": { "type": "Point", "coordinates": [ 129.377274, 35.489468, 60.0 ] } },
{ "type": "Feature", "properties": { "value": 0.1626 }, "geometry": { "type": "Point", "coordinates": [ 129.378387, 35.489464, 60.0 ] } },
{ "type": "Feature", "properties": { "value": 0.1685 }, "geometry": { "type": "Point", "coordinates": [ 129.379486, 35.48946, 60.0 ] } },
{ "type": "Feature", "properties": { "value": 0.165 }, "geometry": { "type": "Point", "coordinates": [ 129.380585, 35.489456, 60.0 ] } },
{ "type": "Feature", "properties": { "value": 0.1523 }, "geometry": { "type": "Point", "coordinates": [ 129.381683, 35.489452, 60.0 ] } },
{ "type": "Feature", "properties": { "value": 0.6174 }, "geometry": { "type": "Point", "coordinates": [ 129.336502, 35.49049, 60.0 ] } },
{ "type": "Feature", "properties": { "value": 2.2325 }, "geometry": { "type": "Point", "coordinates": [ 129.337616, 35.490486, 60.0 ] } },
{ "type": "Feature", "properties": { "value": 5.5063 }, "geometry": { "type": "Point", "coordinates": [ 129.338715, 35.490482, 60.0 ] } },
{ "type": "Feature", "properties": { "value": 10.313 }, "geometry": { "type": "Point", "coordinates": [ 129.339813, 35.490479, 60.0 ] } },
{ "type": "Feature", "properties": { "value": 15.434 }, "geometry": { "type": "Point", "coordinates": [ 129.340912, 35.490479, 60.0 ] } },
{ "type": "Feature", "properties": { "value": 19.05 }, "geometry": { "type": "Point", "coordinates": [ 129.34201, 35.490475, 60.0 ] } },
{ "type": "Feature", "properties": { "value": 19.977 }, "geometry": { "type": "Point", "coordinates": [ 129.343124, 35.490471, 60.0 ] } },
{ "type": "Feature", "properties": { "value": 18.392 }, "geometry": { "type": "Point", "coordinates": [ 129.344223, 35.490467, 60.0 ] } },
{ "type": "Feature", "properties": { "value": 15.24 }, "geometry": { "type": "Point", "coordinates": [ 129.345322, 35.490463, 60.0 ] } },
{ "type": "Feature", "properties": { "value": 11.545 }, "geometry": { "type": "Point", "coordinates": [ 129.34642, 35.490459, 60.0 ] } },
{ "type": "Feature", "properties": { "value": 8.1029 }, "geometry": { "type": "Point", "coordinates": [ 129.347534, 35.490459, 60.0 ] } },
{ "type": "Feature", "properties": { "value": 5.3446 }, "geometry": { "type": "Point", "coordinates": [ 129.348633, 35.490456, 60.0 ] } },
{ "type": "Feature", "properties": { "value": 3.3781 }, "geometry": { "type": "Point", "coordinates": [ 129.349731, 35.490452, 60.0 ] } },
{ "type": "Feature", "properties": { "value": 2.1026 }, "geometry": { "type": "Point", "coordinates": [ 129.35083, 35.490448, 60.0 ] } },
{ "type": "Feature", "properties": { "value": 1.283 }, "geometry": { "type": "Point", "coordinates": [ 129.351929, 35.490444, 60.0 ] } },
{ "type": "Feature", "properties": { "value": 0.7892 }, "geometry": { "type": "Point", "coordinates": [ 129.353043, 35.49044, 60.0 ] } },
{ "type": "Feature", "properties": { "value": 0.4781 }, "geometry": { "type": "Point", "coordinates": [ 129.354141, 35.49044, 60.0 ] } },
{ "type": "Feature", "properties": { "value": 0.2947 }, "geometry": { "type": "Point", "coordinates": [ 129.35524, 35.490437, 60.0 ] } },
{ "type": "Feature", "properties": { "value": 0.1725 }, "geometry": { "type": "Point", "coordinates": [ 129.356339, 35.490433, 60.0 ] } },
{ "type": "Feature", "properties": { "value": 0.0926 }, "geometry": { "type": "Point", "coordinates": [ 129.357452, 35.490429, 60.0 ] } },
{ "type": "Feature", "properties": { "value": 0.0171 }, "geometry": { "type": "Point", "coordinates": [ 129.358551, 35.490425, 60.0 ] } },
{ "type": "Feature", "properties": { "value": 0.0314 }, "geometry": { "type": "Point", "coordinates": [ 129.369568, 35.490391, 60.0 ] } },
{ "type": "Feature", "properties": { "value": 0.0727 }, "geometry": { "type": "Point", "coordinates": [ 129.370667, 35.490391, 60.0 ] } },
{ "type": "Feature", "properties": { "value": 0.1174 }, "geometry": { "type": "Point", "coordinates": [ 129.371765, 35.490387, 60.0 ] } },
{ "type": "Feature", "properties": { "value": 0.1642 }, "geometry": { "type": "Point", "coordinates": [ 129.372879, 35.490383, 60.0 ] } },
{ "type": "Feature", "properties": { "value": 0.2076 }, "geometry": { "type": "Point", "coordinates": [ 129.373978, 35.490379, 60.0 ] } },
{ "type": "Feature", "properties": { "value": 0.2497 }, "geometry": { "type": "Point", "coordinates": [ 129.375076, 35.490376, 60.0 ] } },
{ "type": "Feature", "properties": { "value": 0.2884 }, "geometry": { "type": "Point", "coordinates": [ 129.376175, 35.490372, 60.0 ] } },
{ "type": "Feature", "properties": { "value": 0.3207 }, "geometry": { "type": "Point", "coordinates": [ 129.377289, 35.490368, 60.0 ] } },
{ "type": "Feature", "properties": { "value": 0.3419 }, "geometry": { "type": "Point", "coordinates": [ 129.378387, 35.490364, 60.0 ] } },
{ "type": "Feature", "properties": { "value": 0.3482 }, "geometry": { "type": "Point", "coordinates": [ 129.379486, 35.49036, 60.0 ] } },
{ "type": "Feature", "properties": { "value": 0.3338 }, "geometry": { "type": "Point", "coordinates": [ 129.380585, 35.490356, 60.0 ] } },
{ "type": "Feature", "properties": { "value": 0.3041 }, "geometry": { "type": "Point", "coordinates": [ 129.381683, 35.490356, 60.0 ] } },
{ "type": "Feature", "properties": { "value": 0.0831 }, "geometry": { "type": "Point", "coordinates": [ 129.336517, 35.49139, 60.0 ] } },
{ "type": "Feature", "properties": { "value": 0.8914 }, "geometry": { "type": "Point", "coordinates": [ 129.337616, 35.491386, 60.0 ] } },
{ "type": "Feature", "properties": { "value": 2.6372 }, "geometry": { "type": "Point", "coordinates": [ 129.338715, 35.491383, 60.0 ] } },
{ "type": "Feature", "properties": { "value": 5.7801 }, "geometry": { "type": "Point", "coordinates": [ 129.339813, 35.491383, 60.0 ] } },
{ "type": "Feature", "properties": { "value": 10.116 }, "geometry": { "type": "Point", "coordinates": [ 129.340927, 35.491379, 60.0 ] } },
{ "type": "Feature", "properties": { "value": 14.572 }, "geometry": { "type": "Point", "coordinates": [ 129.342026, 35.491375, 60.0 ] } },
{ "type": "Feature", "properties": { "value": 17.769 }, "geometry": { "type": "Point", "coordinates": [ 129.343124, 35.491371, 60.0 ] } },
{ "type": "Feature", "properties": { "value": 18.898 }, "geometry": { "type": "Point", "coordinates": [ 129.344223, 35.491367, 60.0 ] } },
{ "type": "Feature", "properties": { "value": 17.928 }, "geometry": { "type": "Point", "coordinates": [ 129.345322, 35.491367, 60.0 ] } },
{ "type": "Feature", "properties": { "value": 15.453 }, "geometry": { "type": "Point", "coordinates": [ 129.346436, 35.491364, 60.0 ] } },
{ "type": "Feature", "properties": { "value": 12.258 }, "geometry": { "type": "Point", "coordinates": [ 129.347534, 35.49136, 60.0 ] } },
{ "type": "Feature", "properties": { "value": 9.0399 }, "geometry": { "type": "Point", "coordinates": [ 129.348633, 35.491356, 60.0 ] } },
{ "type": "Feature", "properties": { "value": 6.3347 }, "geometry": { "type": "Point", "coordinates": [ 129.349731, 35.491352, 60.0 ] } },
{ "type": "Feature", "properties": { "value": 4.334 }, "geometry": { "type": "Point", "coordinates": [ 129.350845, 35.491348, 60.0 ] } },
{ "type": "Feature", "properties": { "value": 2.9354 }, "geometry": { "type": "Point", "coordinates": [ 129.351944, 35.491348, 60.0 ] } },
{ "type": "Feature", "properties": { "value": 1.9714 }, "geometry": { "type": "Point", "coordinates": [ 129.353043, 35.491344, 60.0 ] } },
{ "type": "Feature", "properties": { "value": 1.3314 }, "geometry": { "type": "Point", "coordinates": [ 129.354141, 35.491341, 60.0 ] } },
{ "type": "Feature", "properties": { "value": 0.9166 }, "geometry": { "type": "Point", "coordinates": [ 129.35524, 35.491337, 60.0 ] } },
{ "type": "Feature", "properties": { "value": 0.6487 }, "geometry": { "type": "Point", "coordinates": [ 129.356354, 35.491333, 60.0 ] } },
{ "type": "Feature", "properties": { "value": 0.4758 }, "geometry": { "type": "Point", "coordinates": [ 129.357452, 35.491329, 60.0 ] } },
{ "type": "Feature", "properties": { "value": 0.3573 }, "geometry": { "type": "Point", "coordinates": [ 129.358551, 35.491325, 60.0 ] } },
{ "type": "Feature", "properties": { "value": 0.2801 }, "geometry": { "type": "Point", "coordinates": [ 129.35965, 35.491325, 60.0 ] } },
{ "type": "Feature", "properties": { "value": 0.2232 }, "geometry": { "type": "Point", "coordinates": [ 129.360764, 35.491322, 60.0 ] } },
{ "type": "Feature", "properties": { "value": 0.1887 }, "geometry": { "type": "Point", "coordinates": [ 129.361862, 35.491318, 60.0 ] } },
{ "type": "Feature", "properties": { "value": 0.1657 }, "geometry": { "type": "Point", "coordinates": [ 129.362961, 35.491314, 60.0 ] } },
{ "type": "Feature", "properties": { "value": 0.1497 }, "geometry": { "type": "Point", "coordinates": [ 129.364059, 35.49131, 60.0 ] } },
{ "type": "Feature", "properties": { "value": 0.1436 }, "geometry": { "type": "Point", "coordinates": [ 129.365158, 35.491306, 60.0 ] } },
{ "type": "Feature", "properties": { "value": 0.1463 }, "geometry": { "type": "Point", "coordinates": [ 129.366272, 35.491302, 60.0 ] } },
{ "type": "Feature", "properties": { "value": 0.1626 }, "geometry": { "type": "Point", "coordinates": [ 129.367371, 35.491299, 60.0 ] } },
{ "type": "Feature", "properties": { "value": 0.1847 }, "geometry": { "type": "Point", "coordinates": [ 129.368469, 35.491299, 60.0 ] } },
{ "type": "Feature", "properties": { "value": 0.2208 }, "geometry": { "type": "Point", "coordinates": [ 129.369568, 35.491295, 60.0 ] } },
{ "type": "Feature", "properties": { "value": 0.2621 }, "geometry": { "type": "Point", "coordinates": [ 129.370682, 35.491291, 60.0 ] } },
{ "type": "Feature", "properties": { "value": 0.3211 }, "geometry": { "type": "Point", "coordinates": [ 129.37178, 35.491287, 60.0 ] } },
{ "type": "Feature", "properties": { "value": 0.3809 }, "geometry": { "type": "Point", "coordinates": [ 129.372879, 35.491283, 60.0 ] } },
{ "type": "Feature", "properties": { "value": 0.4472 }, "geometry": { "type": "Point", "coordinates": [ 129.373978, 35.49128, 60.0 ] } },
{ "type": "Feature", "properties": { "value": 0.5143 }, "geometry": { "type": "Point", "coordinates": [ 129.375076, 35.491276, 60.0 ] } },
{ "type": "Feature", "properties": { "value": 0.5723 }, "geometry": { "type": "Point", "coordinates": [ 129.37619, 35.491272, 60.0 ] } },
{ "type": "Feature", "properties": { "value": 0.6193 }, "geometry": { "type": "Point", "coordinates": [ 129.377289, 35.491268, 60.0 ] } },
{ "type": "Feature", "properties": { "value": 0.647 }, "geometry": { "type": "Point", "coordinates": [ 129.378387, 35.491268, 60.0 ] } },
{ "type": "Feature", "properties": { "value": 0.6474 }, "geometry": { "type": "Point", "coordinates": [ 129.379486, 35.491264, 60.0 ] } },
{ "type": "Feature", "properties": { "value": 0.616 }, "geometry": { "type": "Point", "coordinates": [ 129.3806, 35.491261, 60.0 ] } },
{ "type": "Feature", "properties": { "value": 0.5552 }, "geometry": { "type": "Point", "coordinates": [ 129.381699, 35.491257, 60.0 ] } },
{ "type": "Feature", "properties": { "value": 0.2641 }, "geometry": { "type": "Point", "coordinates": [ 129.337616, 35.49229, 60.0 ] } },
{ "type": "Feature", "properties": { "value": 1.1068 }, "geometry": { "type": "Point", "coordinates": [ 129.338715, 35.492287, 60.0 ] } },
{ "type": "Feature", "properties": { "value": 2.8639 }, "geometry": { "type": "Point", "coordinates": [ 129.339828, 35.492283, 60.0 ] } },
{ "type": "Feature", "properties": { "value": 5.7998 }, "geometry": { "type": "Point", "coordinates": [ 129.340927, 35.492279, 60.0 ] } },
{ "type": "Feature", "properties": { "value": 9.6393 }, "geometry": { "type": "Point", "coordinates": [ 129.342026, 35.492275, 60.0 ] } },
{ "type": "Feature", "properties": { "value": 13.559 }, "geometry": { "type": "Point", "coordinates": [ 129.343124, 35.492271, 60.0 ] } },
{ "type": "Feature", "properties": { "value": 16.497 }, "geometry": { "type": "Point", "coordinates": [ 129.344223, 35.492271, 60.0 ] } },
{ "type": "Feature", "properties": { "value": 17.785 }, "geometry": { "type": "Point", "coordinates": [ 129.345337, 35.492268, 60.0 ] } },
{ "type": "Feature", "properties": { "value": 17.33 }, "geometry": { "type": "Point", "coordinates": [ 129.346436, 35.492264, 60.0 ] } },
{ "type": "Feature", "properties": { "value": 15.436 }, "geometry": { "type": "Point", "coordinates": [ 129.347534, 35.49226, 60.0 ] } },
{ "type": "Feature", "properties": { "value": 12.726 }, "geometry": { "type": "Point", "coordinates": [ 129.348633, 35.492256, 60.0 ] } },
{ "type": "Feature", "properties": { "value": 9.9283 }, "geometry": { "type": "Point", "coordinates": [ 129.349747, 35.492252, 60.0 ] } },
{ "type": "Feature", "properties": { "value": 7.4931 }, "geometry": { "type": "Point", "coordinates": [ 129.350845, 35.492252, 60.0 ] } },
{ "type": "Feature", "properties": { "value": 5.5209 }, "geometry": { "type": "Point", "coordinates": [ 129.351944, 35.492249, 60.0 ] } },
{ "type": "Feature", "properties": { "value": 4.0169 }, "geometry": { "type": "Point", "coordinates": [ 129.353043, 35.492245, 60.0 ] } },
{ "type": "Feature", "properties": { "value": 2.9335 }, "geometry": { "type": "Point", "coordinates": [ 129.354141, 35.492241, 60.0 ] } },
{ "type": "Feature", "properties": { "value": 2.1566 }, "geometry": { "type": "Point", "coordinates": [ 129.355255, 35.492237, 60.0 ] } },
{ "type": "Feature", "properties": { "value": 1.6213 }, "geometry": { "type": "Point", "coordinates": [ 129.356354, 35.492233, 60.0 ] } },
{ "type": "Feature", "properties": { "value": 1.2394 }, "geometry": { "type": "Point", "coordinates": [ 129.357452, 35.492233, 60.0 ] } },
{ "type": "Feature", "properties": { "value": 0.9771 }, "geometry": { "type": "Point", "coordinates": [ 129.358551, 35.492229, 60.0 ] } },
{ "type": "Feature", "properties": { "value": 0.7934 }, "geometry": { "type": "Point", "coordinates": [ 129.359665, 35.492226, 60.0 ] } },
{ "type": "Feature", "properties": { "value": 0.6612 }, "geometry": { "type": "Point", "coordinates": [ 129.360764, 35.492222, 60.0 ] } },
{ "type": "Feature", "properties": { "value": 0.5688 }, "geometry": { "type": "Point", "coordinates": [ 129.361862, 35.492218, 60.0 ] } },
{ "type": "Feature", "properties": { "value": 0.4978 }, "geometry": { "type": "Point", "coordinates": [ 129.362961, 35.492214, 60.0 ] } },
{ "type": "Feature", "properties": { "value": 0.4592 }, "geometry": { "type": "Point", "coordinates": [ 129.364059, 35.49221, 60.0 ] } },
{ "type": "Feature", "properties": { "value": 0.4376 }, "geometry": { "type": "Point", "coordinates": [ 129.365173, 35.49221, 60.0 ] } },
{ "type": "Feature", "properties": { "value": 0.4343 }, "geometry": { "type": "Point", "coordinates": [ 129.366272, 35.492207, 60.0 ] } },
{ "type": "Feature", "properties": { "value": 0.446 }, "geometry": { "type": "Point", "coordinates": [ 129.367371, 35.492203, 60.0 ] } },
{ "type": "Feature", "properties": { "value": 0.4766 }, "geometry": { "type": "Point", "coordinates": [ 129.368469, 35.492199, 60.0 ] } },
{ "type": "Feature", "properties": { "value": 0.5267 }, "geometry": { "type": "Point", "coordinates": [ 129.369583, 35.492195, 60.0 ] } },
{ "type": "Feature", "properties": { "value": 0.59 }, "geometry": { "type": "Point", "coordinates": [ 129.370682, 35.492191, 60.0 ] } },
{ "type": "Feature", "properties": { "value": 0.674 }, "geometry": { "type": "Point", "coordinates": [ 129.37178, 35.492188, 60.0 ] } },
{ "type": "Feature", "properties": { "value": 0.7645 }, "geometry": { "type": "Point", "coordinates": [ 129.372879, 35.492184, 60.0 ] } },
{ "type": "Feature", "properties": { "value": 0.859 }, "geometry": { "type": "Point", "coordinates": [ 129.373978, 35.49218, 60.0 ] } },
{ "type": "Feature", "properties": { "value": 0.9587 }, "geometry": { "type": "Point", "coordinates": [ 129.375092, 35.49218, 60.0 ] } },
{ "type": "Feature", "properties": { "value": 1.0443 }, "geometry": { "type": "Point", "coordinates": [ 129.37619, 35.492176, 60.0 ] } },
{ "type": "Feature", "properties": { "value": 1.1042 }, "geometry": { "type": "Point", "coordinates": [ 129.377289, 35.492172, 60.0 ] } },
{ "type": "Feature", "properties": { "value": 1.1309 }, "geometry": { "type": "Point", "coordinates": [ 129.378387, 35.492168, 60.0 ] } },
{ "type": "Feature", "properties": { "value": 1.1111 }, "geometry": { "type": "Point", "coordinates": [ 129.379501, 35.492165, 60.0 ] } },
{ "type": "Feature", "properties": { "value": 1.0424 }, "geometry": { "type": "Point", "coordinates": [ 129.3806, 35.492161, 60.0 ] } },
{ "type": "Feature", "properties": { "value": 0.9338 }, "geometry": { "type": "Point", "coordinates": [ 129.381699, 35.492157, 60.0 ] } },
{ "type": "Feature", "properties": { "value": 0.387 }, "geometry": { "type": "Point", "coordinates": [ 129.33873, 35.493187, 60.0 ] } },
{ "type": "Feature", "properties": { "value": 1.2585 }, "geometry": { "type": "Point", "coordinates": [ 129.339828, 35.493183, 60.0 ] } },
{ "type": "Feature", "properties": { "value": 2.9474 }, "geometry": { "type": "Point", "coordinates": [ 129.340927, 35.493179, 60.0 ] } },
{ "type": "Feature", "properties": { "value": 5.6246 }, "geometry": { "type": "Point", "coordinates": [ 129.342026, 35.493179, 60.0 ] } },
{ "type": "Feature", "properties": { "value": 9.0259 }, "geometry": { "type": "Point", "coordinates": [ 129.343124, 35.493176, 60.0 ] } },
{ "type": "Feature", "properties": { "value": 12.483 }, "geometry": { "type": "Point", "coordinates": [ 129.344238, 35.493172, 60.0 ] } },
{ "type": "Feature", "properties": { "value": 15.194 }, "geometry": { "type": "Point", "coordinates": [ 129.345337, 35.493168, 60.0 ] } },
{ "type": "Feature", "properties": { "value": 16.592 }, "geometry": { "type": "Point", "coordinates": [ 129.346436, 35.493164, 60.0 ] } },
{ "type": "Feature", "properties": { "value": 16.511 }, "geometry": { "type": "Point", "coordinates": [ 129.347534, 35.49316, 60.0 ] } },
{ "type": "Feature", "properties": { "value": 15.211 }, "geometry": { "type": "Point", "coordinates": [ 129.348648, 35.49316, 60.0 ] } },
{ "type": "Feature", "properties": { "value": 13.205 }, "geometry": { "type": "Point", "coordinates": [ 129.349747, 35.493156, 60.0 ] } },
{ "type": "Feature", "properties": { "value": 10.952 }, "geometry": { "type": "Point", "coordinates": [ 129.350845, 35.493153, 60.0 ] } },
{ "type": "Feature", "properties": { "value": 8.7863 }, "geometry": { "type": "Point", "coordinates": [ 129.351944, 35.493149, 60.0 ] } },
{ "type": "Feature", "properties": { "value": 6.9138 }, "geometry": { "type": "Point", "coordinates": [ 129.353043, 35.493145, 60.0 ] } },
{ "type": "Feature", "properties": { "value": 5.3925 }, "geometry": { "type": "Point", "coordinates": [ 129.354156, 35.493141, 60.0 ] } },
{ "type": "Feature", "properties": { "value": 4.2073 }, "geometry": { "type": "Point", "coordinates": [ 129.355255, 35.493141, 60.0 ] } },
{ "type": "Feature", "properties": { "value": 3.3096 }, "geometry": { "type": "Point", "coordinates": [ 129.356354, 35.493137, 60.0 ] } },
{ "type": "Feature", "properties": { "value": 2.6335 }, "geometry": { "type": "Point", "coordinates": [ 129.357452, 35.493134, 60.0 ] } },
{ "type": "Feature", "properties": { "value": 2.1394 }, "geometry": { "type": "Point", "coordinates": [ 129.358566, 35.49313, 60.0 ] } },
{ "type": "Feature", "properties": { "value": 1.774 }, "geometry": { "type": "Point", "coordinates": [ 129.359665, 35.493126, 60.0 ] } },
{ "type": "Feature", "properties": { "value": 1.5056 }, "geometry": { "type": "Point", "coordinates": [ 129.360764, 35.493122, 60.0 ] } },
{ "type": "Feature", "properties": { "value": 1.2967 }, "geometry": { "type": "Point", "coordinates": [ 129.361862, 35.493118, 60.0 ] } },
{ "type": "Feature", "properties": { "value": 1.1506 }, "geometry": { "type": "Point", "coordinates": [ 129.362961, 35.493118, 60.0 ] } },
{ "type": "Feature", "properties": { "value": 1.0506 }, "geometry": { "type": "Point", "coordinates": [ 129.364075, 35.493114, 60.0 ] } },
{ "type": "Feature", "properties": { "value": 0.992 }, "geometry": { "type": "Point", "coordinates": [ 129.365173, 35.493111, 60.0 ] } },
{ "type": "Feature", "properties": { "value": 0.967 }, "geometry": { "type": "Point", "coordinates": [ 129.366272, 35.493107, 60.0 ] } },
{ "type": "Feature", "properties": { "value": 0.9685 }, "geometry": { "type": "Point", "coordinates": [ 129.367371, 35.493103, 60.0 ] } },
{ "type": "Feature", "properties": { "value": 1.0036 }, "geometry": { "type": "Point", "coordinates": [ 129.368484, 35.493099, 60.0 ] } },
{ "type": "Feature", "properties": { "value": 1.0644 }, "geometry": { "type": "Point", "coordinates": [ 129.369583, 35.493095, 60.0 ] } },
{ "type": "Feature", "properties": { "value": 1.1551 }, "geometry": { "type": "Point", "coordinates": [ 129.370682, 35.493092, 60.0 ] } },
{ "type": "Feature", "properties": { "value": 1.2636 }, "geometry": { "type": "Point", "coordinates": [ 129.37178, 35.493088, 60.0 ] } },
{ "type": "Feature", "properties": { "value": 1.3888 }, "geometry": { "type": "Point", "coordinates": [ 129.372894, 35.493088, 60.0 ] } },
{ "type": "Feature", "properties": { "value": 1.5182 }, "geometry": { "type": "Point", "coordinates": [ 129.373993, 35.493084, 60.0 ] } },
{ "type": "Feature", "properties": { "value": 1.6463 }, "geometry": { "type": "Point", "coordinates": [ 129.375092, 35.49308, 60.0 ] } },
{ "type": "Feature", "properties": { "value": 1.7506 }, "geometry": { "type": "Point", "coordinates": [ 129.37619, 35.493076, 60.0 ] } },
{ "type": "Feature", "properties": { "value": 1.8163 }, "geometry": { "type": "Point", "coordinates": [ 129.377289, 35.493073, 60.0 ] } },
{ "type": "Feature", "properties": { "value": 1.8236 }, "geometry": { "type": "Point", "coordinates": [ 129.378403, 35.493069, 60.0 ] } },
{ "type": "Feature", "properties": { "value": 1.7663 }, "geometry": { "type": "Point", "coordinates": [ 129.379501, 35.493065, 60.0 ] } },
{ "type": "Feature", "properties": { "value": 1.636 }, "geometry": { "type": "Point", "coordinates": [ 129.3806, 35.493061, 60.0 ] } },
{ "type": "Feature", "properties": { "value": 1.4478 }, "geometry": { "type": "Point", "coordinates": [ 129.381699, 35.493057, 60.0 ] } },
{ "type": "Feature", "properties": { "value": 0.4678 }, "geometry": { "type": "Point", "coordinates": [ 129.339828, 35.494083, 60.0 ] } },
{ "type": "Feature", "properties": { "value": 1.3381 }, "geometry": { "type": "Point", "coordinates": [ 129.340927, 35.494083, 60.0 ] } },
{ "type": "Feature", "properties": { "value": 2.9171 }, "geometry": { "type": "Point", "coordinates": [ 129.342026, 35.49408, 60.0 ] } },
{ "type": "Feature", "properties": { "value": 5.3171 }, "geometry": { "type": "Point", "coordinates": [ 129.34314, 35.494076, 60.0 ] } },
{ "type": "Feature", "properties": { "value": 8.2983 }, "geometry": { "type": "Point", "coordinates": [ 129.344238, 35.494072, 60.0 ] } },
{ "type": "Feature", "properties": { "value": 11.349 }, "geometry": { "type": "Point", "coordinates": [ 129.345337, 35.494068, 60.0 ] } },
{ "type": "Feature", "properties": { "value": 13.833 }, "geometry": { "type": "Point", "coordinates": [ 129.346436, 35.494068, 60.0 ] } },
{ "type": "Feature", "properties": { "value": 15.339 }, "geometry": { "type": "Point", "coordinates": [ 129.347549, 35.494064, 60.0 ] } },
{ "type": "Feature", "properties": { "value": 15.734 }, "geometry": { "type": "Point", "coordinates": [ 129.348648, 35.494061, 60.0 ] } },
{ "type": "Feature", "properties": { "value": 15.066 }, "geometry": { "type": "Point", "coordinates": [ 129.349747, 35.494057, 60.0 ] } },
{ "type": "Feature", "properties": { "value": 13.688 }, "geometry": { "type": "Point", "coordinates": [ 129.350845, 35.494053, 60.0 ] } },
{ "type": "Feature", "properties": { "value": 11.959 }, "geometry": { "type": "Point", "coordinates": [ 129.351959, 35.494049, 60.0 ] } },
{ "type": "Feature", "properties": { "value": 10.119 }, "geometry": { "type": "Point", "coordinates": [ 129.353058, 35.494049, 60.0 ] } },
{ "type": "Feature", "properties": { "value": 8.4092 }, "geometry": { "type": "Point", "coordinates": [ 129.354156, 35.494045, 60.0 ] } },
{ "type": "Feature", "properties": { "value": 6.9384 }, "geometry": { "type": "Point", "coordinates": [ 129.355255, 35.494041, 60.0 ] } },
{ "type": "Feature", "properties": { "value": 5.7115 }, "geometry": { "type": "Point", "coordinates": [ 129.356354, 35.494038, 60.0 ] } },
{ "type": "Feature", "properties": { "value": 4.7318 }, "geometry": { "type": "Point", "coordinates": [ 129.357468, 35.494034, 60.0 ] } },
{ "type": "Feature", "properties": { "value": 3.9619 }, "geometry": { "type": "Point", "coordinates": [ 129.358566, 35.49403, 60.0 ] } },
{ "type": "Feature", "properties": { "value": 3.3666 }, "geometry": { "type": "Point", "coordinates": [ 129.359665, 35.494026, 60.0 ] } },
{ "type": "Feature", "properties": { "value": 2.902 }, "geometry": { "type": "Point", "coordinates": [ 129.360764, 35.494026, 60.0 ] } },
{ "type": "Feature", "properties": { "value": 2.5373 }, "geometry": { "type": "Point", "coordinates": [ 129.361877, 35.494022, 60.0 ] } },
{ "type": "Feature", "properties": { "value": 2.2618 }, "geometry": { "type": "Point", "coordinates": [ 129.362976, 35.494019, 60.0 ] } },
{ "type": "Feature", "properties": { "value": 2.0645 }, "geometry": { "type": "Point", "coordinates": [ 129.364075, 35.494015, 60.0 ] } },
{ "type": "Feature", "properties": { "value": 1.9358 }, "geometry": { "type": "Point", "coordinates": [ 129.365173, 35.494011, 60.0 ] } },
{ "type": "Feature", "properties": { "value": 1.8618 }, "geometry": { "type": "Point", "coordinates": [ 129.366272, 35.494007, 60.0 ] } },
{ "type": "Feature", "properties": { "value": 1.8386 }, "geometry": { "type": "Point", "coordinates": [ 129.367386, 35.494003, 60.0 ] } },
{ "type": "Feature", "properties": { "value": 1.8626 }, "geometry": { "type": "Point", "coordinates": [ 129.368484, 35.493999, 60.0 ] } },
{ "type": "Feature", "properties": { "value": 1.9258 }, "geometry": { "type": "Point", "coordinates": [ 129.369583, 35.493999, 60.0 ] } },
{ "type": "Feature", "properties": { "value": 2.029 }, "geometry": { "type": "Point", "coordinates": [ 129.370682, 35.493996, 60.0 ] } },
{ "type": "Feature", "properties": { "value": 2.1597 }, "geometry": { "type": "Point", "coordinates": [ 129.371796, 35.493992, 60.0 ] } },
{ "type": "Feature", "properties": { "value": 2.3068 }, "geometry": { "type": "Point", "coordinates": [ 129.372894, 35.493988, 60.0 ] } },
{ "type": "Feature", "properties": { "value": 2.4627 }, "geometry": { "type": "Point", "coordinates": [ 129.373993, 35.493984, 60.0 ] } },
{ "type": "Feature", "properties": { "value": 2.6074 }, "geometry": { "type": "Point", "coordinates": [ 129.375092, 35.49398, 60.0 ] } },
{ "type": "Feature", "properties": { "value": 2.7145 }, "geometry": { "type": "Point", "coordinates": [ 129.37619, 35.493977, 60.0 ] } },
{ "type": "Feature", "properties": { "value": 2.763 }, "geometry": { "type": "Point", "coordinates": [ 129.377304, 35.493973, 60.0 ] } },
{ "type": "Feature", "properties": { "value": 2.7287 }, "geometry": { "type": "Point", "coordinates": [ 129.378403, 35.493969, 60.0 ] } },
{ "type": "Feature", "properties": { "value": 2.6023 }, "geometry": { "type": "Point", "coordinates": [ 129.379501, 35.493965, 60.0 ] } },
{ "type": "Feature", "properties": { "value": 2.3823 }, "geometry": { "type": "Point", "coordinates": [ 129.3806, 35.493965, 60.0 ] } },
{ "type": "Feature", "properties": { "value": 2.0836 }, "geometry": { "type": "Point", "coordinates": [ 129.381714, 35.493961, 60.0 ] } },
{ "type": "Feature", "properties": { "value": 0.0063 }, "geometry": { "type": "Point", "coordinates": [ 129.339828, 35.494987, 60.0 ] } },
{ "type": "Feature", "properties": { "value": 0.5237 }, "geometry": { "type": "Point", "coordinates": [ 129.340942, 35.494984, 60.0 ] } },
{ "type": "Feature", "properties": { "value": 1.3442 }, "geometry": { "type": "Point", "coordinates": [ 129.342041, 35.49498, 60.0 ] } },
{ "type": "Feature", "properties": { "value": 2.7705 }, "geometry": { "type": "Point", "coordinates": [ 129.34314, 35.494976, 60.0 ] } },
{ "type": "Feature", "properties": { "value": 4.8562 }, "geometry": { "type": "Point", "coordinates": [ 129.344238, 35.494972, 60.0 ] } },
{ "type": "Feature", "properties": { "value": 7.4359 }, "geometry": { "type": "Point", "coordinates": [ 129.345337, 35.494972, 60.0 ] } },
{ "type": "Feature", "properties": { "value": 10.083 }, "geometry": { "type": "Point", "coordinates": [ 129.346451, 35.494968, 60.0 ] } },
{ "type": "Feature", "properties": { "value": 12.415 }, "geometry": { "type": "Point", "coordinates": [ 129.347549, 35.494965, 60.0 ] } },
{ "type": "Feature", "properties": { "value": 14.085 }, "geometry": { "type": "Point", "coordinates": [ 129.348648, 35.494961, 60.0 ] } },
{ "type": "Feature", "properties": { "value": 14.806 }, "geometry": { "type": "Point", "coordinates": [ 129.349747, 35.494957, 60.0 ] } },
{ "type": "Feature", "properties": { "value": 14.674 }, "geometry": { "type": "Point", "coordinates": [ 129.350861, 35.494953, 60.0 ] } },
{ "type": "Feature", "properties": { "value": 13.89 }, "geometry": { "type": "Point", "coordinates": [ 129.351959, 35.494953, 60.0 ] } },
{ "type": "Feature", "properties": { "value": 12.618 }, "geometry": { "type": "Point", "coordinates": [ 129.353058, 35.494949, 60.0 ] } },
{ "type": "Feature", "properties": { "value": 11.171 }, "geometry": { "type": "Point", "coordinates": [ 129.354156, 35.494946, 60.0 ] } },
{ "type": "Feature", "properties": { "value": 9.7546 }, "geometry": { "type": "Point", "coordinates": [ 129.355255, 35.494942, 60.0 ] } },
{ "type": "Feature", "properties": { "value": 8.4397 }, "geometry": { "type": "Point", "coordinates": [ 129.356369, 35.494938, 60.0 ] } },
{ "type": "Feature", "properties": { "value": 7.2868 }, "geometry": { "type": "Point", "coordinates": [ 129.357468, 35.494934, 60.0 ] } },
{ "type": "Feature", "properties": { "value": 6.3063 }, "geometry": { "type": "Point", "coordinates": [ 129.358566, 35.494934, 60.0 ] } },
{ "type": "Feature", "properties": { "value": 5.4969 }, "geometry": { "type": "Point", "coordinates": [ 129.359665, 35.49493, 60.0 ] } },
{ "type": "Feature", "properties": { "value": 4.8308 }, "geometry": { "type": "Point", "coordinates": [ 129.360779, 35.494926, 60.0 ] } },
{ "type": "Feature", "properties": { "value": 4.2902 }, "geometry": { "type": "Point", "coordinates": [ 129.361877, 35.494923, 60.0 ] } },
{ "type": "Feature", "properties": { "value": 3.8631 }, "geometry": { "type": "Point", "coordinates": [ 129.362976, 35.494919, 60.0 ] } },
{ "type": "Feature", "properties": { "value": 3.5431 }, "geometry": { "type": "Point", "coordinates": [ 129.364075, 35.494915, 60.0 ] } },
{ "type": "Feature", "properties": { "value": 3.3202 }, "geometry": { "type": "Point", "coordinates": [ 129.365173, 35.494911, 60.0 ] } },
{ "type": "Feature", "properties": { "value": 3.1723 }, "geometry": { "type": "Point", "coordinates": [ 129.366287, 35.494907, 60.0 ] } },
{ "type": "Feature", "properties": { "value": 3.1041 }, "geometry": { "type": "Point", "coordinates": [ 129.367386, 35.494907, 60.0 ] } },
{ "type": "Feature", "properties": { "value": 3.0922 }, "geometry": { "type": "Point", "coordinates": [ 129.368484, 35.494904, 60.0 ] } },
{ "type": "Feature", "properties": { "value": 3.1398 }, "geometry": { "type": "Point", "coordinates": [ 129.369583, 35.4949, 60.0 ] } },
{ "type": "Feature", "properties": { "value": 3.2344 }, "geometry": { "type": "Point", "coordinates": [ 129.370697, 35.494896, 60.0 ] } },
{ "type": "Feature", "properties": { "value": 3.3643 }, "geometry": { "type": "Point", "coordinates": [ 129.371796, 35.494892, 60.0 ] } },
{ "type": "Feature", "properties": { "value": 3.5189 }, "geometry": { "type": "Point", "coordinates": [ 129.372894, 35.494888, 60.0 ] } },
{ "type": "Feature", "properties": { "value": 3.6723 }, "geometry": { "type": "Point", "coordinates": [ 129.373993, 35.494884, 60.0 ] } },
{ "type": "Feature", "properties": { "value": 3.8066 }, "geometry": { "type": "Point", "coordinates": [ 129.375107, 35.494881, 60.0 ] } },
{ "type": "Feature", "properties": { "value": 3.8866 }, "geometry": { "type": "Point", "coordinates": [ 129.376205, 35.494877, 60.0 ] } },
{ "type": "Feature", "properties": { "value": 3.8864 }, "geometry": { "type": "Point", "coordinates": [ 129.377304, 35.494877, 60.0 ] } },
{ "type": "Feature", "properties": { "value": 3.7771 }, "geometry": { "type": "Point", "coordinates": [ 129.378403, 35.494873, 60.0 ] } },
{ "type": "Feature", "properties": { "value": 3.5544 }, "geometry": { "type": "Point", "coordinates": [ 129.379501, 35.494869, 60.0 ] } },
{ "type": "Feature", "properties": { "value": 3.2137 }, "geometry": { "type": "Point", "coordinates": [ 129.380615, 35.494865, 60.0 ] } },
{ "type": "Feature", "properties": { "value": 2.7828 }, "geometry": { "type": "Point", "coordinates": [ 129.381714, 35.494862, 60.0 ] } },
{ "type": "Feature", "properties": { "value": 0.114 }, "geometry": { "type": "Point", "coordinates": [ 129.340942, 35.495884, 60.0 ] } },
{ "type": "Feature", "properties": { "value": 0.5334 }, "geometry": { "type": "Point", "coordinates": [ 129.342041, 35.49588, 60.0 ] } },
{ "type": "Feature", "properties": { "value": 1.273 }, "geometry": { "type": "Point", "coordinates": [ 129.34314, 35.49588, 60.0 ] } },
{ "type": "Feature", "properties": { "value": 2.4996 }, "geometry": { "type": "Point", "coordinates": [ 129.344238, 35.495876, 60.0 ] } },
{ "type": "Feature", "properties": { "value": 4.2659 }, "geometry": { "type": "Point", "coordinates": [ 129.345352, 35.495872, 60.0 ] } },
{ "type": "Feature", "properties": { "value": 6.4201 }, "geometry": { "type": "Point", "coordinates": [ 129.346451, 35.495869, 60.0 ] } },
{ "type": "Feature", "properties": { "value": 8.7207 }, "geometry": { "type": "Point", "coordinates": [ 129.347549, 35.495865, 60.0 ] } },
{ "type": "Feature", "properties": { "value": 10.887 }, "geometry": { "type": "Point", "coordinates": [ 129.348648, 35.495861, 60.0 ] } },
{ "type": "Feature", "properties": { "value": 12.582 }, "geometry": { "type": "Point", "coordinates": [ 129.349762, 35.495861, 60.0 ] } },
{ "type": "Feature", "properties": { "value": 13.564 }, "geometry": { "type": "Point", "coordinates": [ 129.350861, 35.495857, 60.0 ] } },
{ "type": "Feature", "properties": { "value": 13.803 }, "geometry": { "type": "Point", "coordinates": [ 129.351959, 35.495853, 60.0 ] } },
{ "type": "Feature", "properties": { "value": 13.457 }, "geometry": { "type": "Point", "coordinates": [ 129.353058, 35.49585, 60.0 ] } },
{ "type": "Feature", "properties": { "value": 12.725 }, "geometry": { "type": "Point", "coordinates": [ 129.354156, 35.495846, 60.0 ] } },
{ "type": "Feature", "properties": { "value": 11.77 }, "geometry": { "type": "Point", "coordinates": [ 129.35527, 35.495842, 60.0 ] } },
{ "type": "Feature", "properties": { "value": 10.713 }, "geometry": { "type": "Point", "coordinates": [ 129.356369, 35.495838, 60.0 ] } },
{ "type": "Feature", "properties": { "value": 9.6636 }, "geometry": { "type": "Point", "coordinates": [ 129.357468, 35.495838, 60.0 ] } },
{ "type": "Feature", "properties": { "value": 8.6712 }, "geometry": { "type": "Point", "coordinates": [ 129.358566, 35.495834, 60.0 ] } },
{ "type": "Feature", "properties": { "value": 7.7833 }, "geometry": { "type": "Point", "coordinates": [ 129.35968, 35.495831, 60.0 ] } },
{ "type": "Feature", "properties": { "value": 7.0016 }, "geometry": { "type": "Point", "coordinates": [ 129.360779, 35.495827, 60.0 ] } },
{ "type": "Feature", "properties": { "value": 6.3381 }, "geometry": { "type": "Point", "coordinates": [ 129.361877, 35.495823, 60.0 ] } },
{ "type": "Feature", "properties": { "value": 5.799 }, "geometry": { "type": "Point", "coordinates": [ 129.362976, 35.495819, 60.0 ] } },
{ "type": "Feature", "properties": { "value": 5.368 }, "geometry": { "type": "Point", "coordinates": [ 129.36409, 35.495815, 60.0 ] } },
{ "type": "Feature", "properties": { "value": 5.0488 }, "geometry": { "type": "Point", "coordinates": [ 129.365189, 35.495815, 60.0 ] } },
{ "type": "Feature", "properties": { "value": 4.8184 }, "geometry": { "type": "Point", "coordinates": [ 129.366287, 35.495811, 60.0 ] } },
{ "type": "Feature", "properties": { "value": 4.681 }, "geometry": { "type": "Point", "coordinates": [ 129.367386, 35.495808, 60.0 ] } },
{ "type": "Feature", "properties": { "value": 4.6148 }, "geometry": { "type": "Point", "coordinates": [ 129.368484, 35.495804, 60.0 ] } },
{ "type": "Feature", "properties": { "value": 4.6202 }, "geometry": { "type": "Point", "coordinates": [ 129.369598, 35.4958, 60.0 ] } },
{ "type": "Feature", "properties": { "value": 4.6855 }, "geometry": { "type": "Point", "coordinates": [ 129.370697, 35.495796, 60.0 ] } },
{ "type": "Feature", "properties": { "value": 4.7846 }, "geometry": { "type": "Point", "coordinates": [ 129.371796, 35.495792, 60.0 ] } },
{ "type": "Feature", "properties": { "value": 4.9101 }, "geometry": { "type": "Point", "coordinates": [ 129.372894, 35.495789, 60.0 ] } },
{ "type": "Feature", "properties": { "value": 5.0303 }, "geometry": { "type": "Point", "coordinates": [ 129.374008, 35.495785, 60.0 ] } },
{ "type": "Feature", "properties": { "value": 5.116 }, "geometry": { "type": "Point", "coordinates": [ 129.375107, 35.495785, 60.0 ] } },
{ "type": "Feature", "properties": { "value": 5.1332 }, "geometry": { "type": "Point", "coordinates": [ 129.376205, 35.495781, 60.0 ] } },
{ "type": "Feature", "properties": { "value": 5.0492 }, "geometry": { "type": "Point", "coordinates": [ 129.377304, 35.495777, 60.0 ] } },
{ "type": "Feature", "properties": { "value": 4.8404 }, "geometry": { "type": "Point", "coordinates": [ 129.378403, 35.495773, 60.0 ] } },
{ "type": "Feature", "properties": { "value": 4.4933 }, "geometry": { "type": "Point", "coordinates": [ 129.379517, 35.49577, 60.0 ] } },
{ "type": "Feature", "properties": { "value": 4.0189 }, "geometry": { "type": "Point", "coordinates": [ 129.380615, 35.495766, 60.0 ] } },
{ "type": "Feature", "properties": { "value": 3.4458 }, "geometry": { "type": "Point", "coordinates": [ 129.381714, 35.495762, 60.0 ] } },
{ "type": "Feature", "properties": { "value": 0.1386 }, "geometry": { "type": "Point", "coordinates": [ 129.342041, 35.496784, 60.0 ] } },
{ "type": "Feature", "properties": { "value": 0.4944 }, "geometry": { "type": "Point", "coordinates": [ 129.34314, 35.49678, 60.0 ] } },
{ "type": "Feature", "properties": { "value": 1.1258 }, "geometry": { "type": "Point", "coordinates": [ 129.344254, 35.496777, 60.0 ] } },
{ "type": "Feature", "properties": { "value": 2.1437 }, "geometry": { "type": "Point", "coordinates": [ 129.345352, 35.496773, 60.0 ] } },
{ "type": "Feature", "properties": { "value": 3.5606 }, "geometry": { "type": "Point", "coordinates": [ 129.346451, 35.496769, 60.0 ] } },
{ "type": "Feature", "properties": { "value": 5.3319 }, "geometry": { "type": "Point", "coordinates": [ 129.347549, 35.496765, 60.0 ] } },
{ "type": "Feature", "properties": { "value": 7.2936 }, "geometry": { "type": "Point", "coordinates": [ 129.348663, 35.496765, 60.0 ] } },
{ "type": "Feature", "properties": { "value": 9.2331 }, "geometry": { "type": "Point", "coordinates": [ 129.349762, 35.496761, 60.0 ] } },
{ "type": "Feature", "properties": { "value": 10.813 }, "geometry": { "type": "Point", "coordinates": [ 129.350861, 35.496758, 60.0 ] } },
{ "type": "Feature", "properties": { "value": 11.842 }, "geometry": { "type": "Point", "coordinates": [ 129.351959, 35.496754, 60.0 ] } },
{ "type": "Feature", "properties": { "value": 12.379 }, "geometry": { "type": "Point", "coordinates": [ 129.353073, 35.49675, 60.0 ] } },
{ "type": "Feature", "properties": { "value": 12.503 }, "geometry": { "type": "Point", "coordinates": [ 129.354172, 35.496746, 60.0 ] } },
{ "type": "Feature", "properties": { "value": 12.267 }, "geometry": { "type": "Point", "coordinates": [ 129.35527, 35.496746, 60.0 ] } },
{ "type": "Feature", "properties": { "value": 11.777 }, "geometry": { "type": "Point", "coordinates": [ 129.356369, 35.496742, 60.0 ] } },
{ "type": "Feature", "properties": { "value": 11.1 }, "geometry": { "type": "Point", "coordinates": [ 129.357468, 35.496738, 60.0 ] } },
{ "type": "Feature", "properties": { "value": 10.361 }, "geometry": { "type": "Point", "coordinates": [ 129.358582, 35.496735, 60.0 ] } },
{ "type": "Feature", "properties": { "value": 9.6073 }, "geometry": { "type": "Point", "coordinates": [ 129.35968, 35.496731, 60.0 ] } },
{ "type": "Feature", "properties": { "value": 8.8891 }, "geometry": { "type": "Point", "coordinates": [ 129.360779, 35.496727, 60.0 ] } },
{ "type": "Feature", "properties": { "value": 8.2309 }, "geometry": { "type": "Point", "coordinates": [ 129.361877, 35.496723, 60.0 ] } },
{ "type": "Feature", "properties": { "value": 7.6665 }, "geometry": { "type": "Point", "coordinates": [ 129.362991, 35.496723, 60.0 ] } },
{ "type": "Feature", "properties": { "value": 7.1883 }, "geometry": { "type": "Point", "coordinates": [ 129.36409, 35.496719, 60.0 ] } },
{ "type": "Feature", "properties": { "value": 6.8013 }, "geometry": { "type": "Point", "coordinates": [ 129.365189, 35.496716, 60.0 ] } },
{ "type": "Feature", "properties": { "value": 6.513 }, "geometry": { "type": "Point", "coordinates": [ 129.366287, 35.496712, 60.0 ] } },
{ "type": "Feature", "properties": { "value": 6.3122 }, "geometry": { "type": "Point", "coordinates": [ 129.367386, 35.496708, 60.0 ] } },
{ "type": "Feature", "properties": { "value": 6.1941 }, "geometry": { "type": "Point", "coordinates": [ 129.3685, 35.496704, 60.0 ] } },
{ "type": "Feature", "properties": { "value": 6.1471 }, "geometry": { "type": "Point", "coordinates": [ 129.369598, 35.4967, 60.0 ] } },
{ "type": "Feature", "properties": { "value": 6.1547 }, "geometry": { "type": "Point", "coordinates": [ 129.370697, 35.496696, 60.0 ] } },
{ "type": "Feature", "properties": { "value": 6.2022 }, "geometry": { "type": "Point", "coordinates": [ 129.371796, 35.496696, 60.0 ] } },
{ "type": "Feature", "properties": { "value": 6.2637 }, "geometry": { "type": "Point", "coordinates": [ 129.37291, 35.496693, 60.0 ] } },
{ "type": "Feature", "properties": { "value": 6.3168 }, "geometry": { "type": "Point", "coordinates": [ 129.374008, 35.496689, 60.0 ] } },
{ "type": "Feature", "properties": { "value": 6.3233 }, "geometry": { "type": "Point", "coordinates": [ 129.375107, 35.496685, 60.0 ] } },
{ "type": "Feature", "properties": { "value": 6.2496 }, "geometry": { "type": "Point", "coordinates": [ 129.376205, 35.496681, 60.0 ] } },
{ "type": "Feature", "properties": { "value": 6.0581 }, "geometry": { "type": "Point", "coordinates": [ 129.377319, 35.496677, 60.0 ] } },
{ "type": "Feature", "properties": { "value": 5.7298 }, "geometry": { "type": "Point", "coordinates": [ 129.378418, 35.496674, 60.0 ] } },
{ "type": "Feature", "properties": { "value": 5.2586 }, "geometry": { "type": "Point", "coordinates": [ 129.379517, 35.49667, 60.0 ] } },
{ "type": "Feature", "properties": { "value": 4.6538 }, "geometry": { "type": "Point", "coordinates": [ 129.380615, 35.496666, 60.0 ] } },
{ "type": "Feature", "properties": { "value": 3.9546 }, "geometry": { "type": "Point", "coordinates": [ 129.381714, 35.496662, 60.0 ] } },
{ "type": "Feature", "properties": { "value": 0.1219 }, "geometry": { "type": "Point", "coordinates": [ 129.343155, 35.497681, 60.0 ] } },
{ "type": "Feature", "properties": { "value": 0.4205 }, "geometry": { "type": "Point", "coordinates": [ 129.344254, 35.497677, 60.0 ] } },
{ "type": "Feature", "properties": { "value": 0.9228 }, "geometry": { "type": "Point", "coordinates": [ 129.345352, 35.497673, 60.0 ] } },
{ "type": "Feature", "properties": { "value": 1.718 }, "geometry": { "type": "Point", "coordinates": [ 129.346451, 35.497673, 60.0 ] } },
{ "type": "Feature", "properties": { "value": 2.8376 }, "geometry": { "type": "Point", "coordinates": [ 129.347565, 35.497669, 60.0 ] } },
{ "type": "Feature", "properties": { "value": 4.242 }, "geometry": { "type": "Point", "coordinates": [ 129.348663, 35.497665, 60.0 ] } },
{ "type": "Feature", "properties": { "value": 5.8422 }, "geometry": { "type": "Point", "coordinates": [ 129.349762, 35.497662, 60.0 ] } },
{ "type": "Feature", "properties": { "value": 7.4168 }, "geometry": { "type": "Point", "coordinates": [ 129.350861, 35.497658, 60.0 ] } },
{ "type": "Feature", "properties": { "value": 8.789 }, "geometry": { "type": "Point", "coordinates": [ 129.351974, 35.497654, 60.0 ] } },
{ "type": "Feature", "properties": { "value": 9.8941 }, "geometry": { "type": "Point", "coordinates": [ 129.353073, 35.497654, 60.0 ] } },
{ "type": "Feature", "properties": { "value": 10.696 }, "geometry": { "type": "Point", "coordinates": [ 129.354172, 35.49765, 60.0 ] } },
{ "type": "Feature", "properties": { "value": 11.145 }, "geometry": { "type": "Point", "coordinates": [ 129.35527, 35.497646, 60.0 ] } },
{ "type": "Feature", "properties": { "value": 11.262 }, "geometry": { "type": "Point", "coordinates": [ 129.356369, 35.497643, 60.0 ] } },
{ "type": "Feature", "properties": { "value": 11.114 }, "geometry": { "type": "Point", "coordinates": [ 129.357483, 35.497639, 60.0 ] } },
{ "type": "Feature", "properties": { "value": 10.799 }, "geometry": { "type": "Point", "coordinates": [ 129.358582, 35.497635, 60.0 ] } },
{ "type": "Feature", "properties": { "value": 10.38 }, "geometry": { "type": "Point", "coordinates": [ 129.35968, 35.497631, 60.0 ] } },
{ "type": "Feature", "properties": { "value": 9.9075 }, "geometry": { "type": "Point", "coordinates": [ 129.360779, 35.497631, 60.0 ] } },
{ "type": "Feature", "properties": { "value": 9.4149 }, "geometry": { "type": "Point", "coordinates": [ 129.361893, 35.497627, 60.0 ] } },
{ "type": "Feature", "properties": { "value": 8.9444 }, "geometry": { "type": "Point", "coordinates": [ 129.362991, 35.497623, 60.0 ] } },
{ "type": "Feature", "properties": { "value": 8.5177 }, "geometry": { "type": "Point", "coordinates": [ 129.36409, 35.49762, 60.0 ] } },
{ "type": "Feature", "properties": { "value": 8.1509 }, "geometry": { "type": "Point", "coordinates": [ 129.365189, 35.497616, 60.0 ] } },
{ "type": "Feature", "properties": { "value": 7.8528 }, "geometry": { "type": "Point", "coordinates": [ 129.366302, 35.497612, 60.0 ] } },
{ "type": "Feature", "properties": { "value": 7.6324 }, "geometry": { "type": "Point", "coordinates": [ 129.367401, 35.497608, 60.0 ] } },
{ "type": "Feature", "properties": { "value": 7.4739 }, "geometry": { "type": "Point", "coordinates": [ 129.3685, 35.497604, 60.0 ] } },
{ "type": "Feature", "properties": { "value": 7.3802 }, "geometry": { "type": "Point", "coordinates": [ 129.369598, 35.497604, 60.0 ] } },
{ "type": "Feature", "properties": { "value": 7.3305 }, "geometry": { "type": "Point", "coordinates": [ 129.370697, 35.497601, 60.0 ] } },
{ "type": "Feature", "properties": { "value": 7.3092 }, "geometry": { "type": "Point", "coordinates": [ 129.371811, 35.497597, 60.0 ] } },
{ "type": "Feature", "properties": { "value": 7.2958 }, "geometry": { "type": "Point", "coordinates": [ 129.37291, 35.497593, 60.0 ] } },
{ "type": "Feature", "properties": { "value": 7.2634 }, "geometry": { "type": "Point", "coordinates": [ 129.374008, 35.497589, 60.0 ] } },
{ "type": "Feature", "properties": { "value": 7.173 }, "geometry": { "type": "Point", "coordinates": [ 129.375107, 35.497585, 60.0 ] } },
{ "type": "Feature", "properties": { "value": 6.9973 }, "geometry": { "type": "Point", "coordinates": [ 129.376221, 35.497581, 60.0 ] } },
{ "type": "Feature", "properties": { "value": 6.7006 }, "geometry": { "type": "Point", "coordinates": [ 129.377319, 35.497578, 60.0 ] } },
{ "type": "Feature", "properties": { "value": 6.2659 }, "geometry": { "type": "Point", "coordinates": [ 129.378418, 35.497574, 60.0 ] } },
{ "type": "Feature", "properties": { "value": 5.6888 }, "geometry": { "type": "Point", "coordinates": [ 129.379517, 35.497574, 60.0 ] } },
{ "type": "Feature", "properties": { "value": 4.9894 }, "geometry": { "type": "Point", "coordinates": [ 129.380615, 35.49757, 60.0 ] } },
{ "type": "Feature", "properties": { "value": 4.204 }, "geometry": { "type": "Point", "coordinates": [ 129.381729, 35.497566, 60.0 ] } },
{ "type": "Feature", "properties": { "value": 0.0708 }, "geometry": { "type": "Point", "coordinates": [ 129.344254, 35.498581, 60.0 ] } },
{ "type": "Feature", "properties": { "value": 0.3251 }, "geometry": { "type": "Point", "coordinates": [ 129.345352, 35.498577, 60.0 ] } },
{ "type": "Feature", "properties": { "value": 0.7075 }, "geometry": { "type": "Point", "coordinates": [ 129.346466, 35.498573, 60.0 ] } },
{ "type": "Feature", "properties": { "value": 1.3047 }, "geometry": { "type": "Point", "coordinates": [ 129.347565, 35.498569, 60.0 ] } },
{ "type": "Feature", "properties": { "value": 2.1332 }, "geometry": { "type": "Point", "coordinates": [ 129.348663, 35.498566, 60.0 ] } },
{ "type": "Feature", "properties": { "value": 3.1957 }, "geometry": { "type": "Point", "coordinates": [ 129.349762, 35.498562, 60.0 ] } },
{ "type": "Feature", "properties": { "value": 4.3999 }, "geometry": { "type": "Point", "coordinates": [ 129.350876, 35.498562, 60.0 ] } },
{ "type": "Feature", "properties": { "value": 5.6576 }, "geometry": { "type": "Point", "coordinates": [ 129.351974, 35.498558, 60.0 ] } },
{ "type": "Feature", "properties": { "value": 6.8812 }, "geometry": { "type": "Point", "coordinates": [ 129.353073, 35.498554, 60.0 ] } },
{ "type": "Feature", "properties": { "value": 7.9494 }, "geometry": { "type": "Point", "coordinates": [ 129.354172, 35.49855, 60.0 ] } },
{ "type": "Feature", "properties": { "value": 8.79 }, "geometry": { "type": "Point", "coordinates": [ 129.35527, 35.498547, 60.0 ] } },
{ "type": "Feature", "properties": { "value": 9.3663 }, "geometry": { "type": "Point", "coordinates": [ 129.356384, 35.498543, 60.0 ] } },
{ "type": "Feature", "properties": { "value": 9.6995 }, "geometry": { "type": "Point", "coordinates": [ 129.357483, 35.498539, 60.0 ] } },
{ "type": "Feature", "properties": { "value": 9.8441 }, "geometry": { "type": "Point", "coordinates": [ 129.358582, 35.498539, 60.0 ] } },
{ "type": "Feature", "properties": { "value": 9.8387 }, "geometry": { "type": "Point", "coordinates": [ 129.35968, 35.498535, 60.0 ] } },
{ "type": "Feature", "properties": { "value": 9.7048 }, "geometry": { "type": "Point", "coordinates": [ 129.360794, 35.498531, 60.0 ] } },
{ "type": "Feature", "properties": { "value": 9.4889 }, "geometry": { "type": "Point", "coordinates": [ 129.361893, 35.498528, 60.0 ] } },
{ "type": "Feature", "properties": { "value": 9.2245 }, "geometry": { "type": "Point", "coordinates": [ 129.362991, 35.498524, 60.0 ] } },
{ "type": "Feature", "properties": { "value": 8.9512 }, "geometry": { "type": "Point", "coordinates": [ 129.36409, 35.49852, 60.0 ] } },
{ "type": "Feature", "properties": { "value": 8.6917 }, "geometry": { "type": "Point", "coordinates": [ 129.365204, 35.498516, 60.0 ] } },
{ "type": "Feature", "properties": { "value": 8.4553 }, "geometry": { "type": "Point", "coordinates": [ 129.366302, 35.498512, 60.0 ] } },
{ "type": "Feature", "properties": { "value": 8.2595 }, "geometry": { "type": "Point", "coordinates": [ 129.367401, 35.498512, 60.0 ] } },
{ "type": "Feature", "properties": { "value": 8.1085 }, "geometry": { "type": "Point", "coordinates": [ 129.3685, 35.498508, 60.0 ] } },
{ "type": "Feature", "properties": { "value": 7.9928 }, "geometry": { "type": "Point", "coordinates": [ 129.369598, 35.498505, 60.0 ] } },
{ "type": "Feature", "properties": { "value": 7.9068 }, "geometry": { "type": "Point", "coordinates": [ 129.370712, 35.498501, 60.0 ] } },
{ "type": "Feature", "properties": { "value": 7.8304 }, "geometry": { "type": "Point", "coordinates": [ 129.371811, 35.498497, 60.0 ] } },
{ "type": "Feature", "properties": { "value": 7.7486 }, "geometry": { "type": "Point", "coordinates": [ 129.37291, 35.498493, 60.0 ] } },
{ "type": "Feature", "properties": { "value": 7.6383 }, "geometry": { "type": "Point", "coordinates": [ 129.374008, 35.498489, 60.0 ] } },
{ "type": "Feature", "properties": { "value": 7.4636 }, "geometry": { "type": "Point", "coordinates": [ 129.375122, 35.498486, 60.0 ] } },
{ "type": "Feature", "properties": { "value": 7.2044 }, "geometry": { "type": "Point", "coordinates": [ 129.376221, 35.498482, 60.0 ] } },
{ "type": "Feature", "properties": { "value": 6.8246 }, "geometry": { "type": "Point", "coordinates": [ 129.377319, 35.498482, 60.0 ] } },
{ "type": "Feature", "properties": { "value": 6.3184 }, "geometry": { "type": "Point", "coordinates": [ 129.378418, 35.498478, 60.0 ] } },
{ "type": "Feature", "properties": { "value": 5.6835 }, "geometry": { "type": "Point", "coordinates": [ 129.379532, 35.498474, 60.0 ] } },
{ "type": "Feature", "properties": { "value": 4.9438 }, "geometry": { "type": "Point", "coordinates": [ 129.38063, 35.49847, 60.0 ] } },
{ "type": "Feature", "properties": { "value": 4.1353 }, "geometry": { "type": "Point", "coordinates": [ 129.381729, 35.498466, 60.0 ] } },
{ "type": "Feature", "properties": { "value": 0.2261 }, "geometry": { "type": "Point", "coordinates": [ 129.346466, 35.499474, 60.0 ] } },
{ "type": "Feature", "properties": { "value": 0.504 }, "geometry": { "type": "Point", "coordinates": [ 129.347565, 35.49947, 60.0 ] } },
{ "type": "Feature", "properties": { "value": 0.9287 }, "geometry": { "type": "Point", "coordinates": [ 129.348663, 35.499466, 60.0 ] } },
{ "type": "Feature", "properties": { "value": 1.5218 }, "geometry": { "type": "Point", "coordinates": [ 129.349777, 35.499466, 60.0 ] } },
{ "type": "Feature", "properties": { "value": 2.2843 }, "geometry": { "type": "Point", "coordinates": [ 129.350876, 35.499462, 60.0 ] } },
{ "type": "Feature", "properties": { "value": 3.1772 }, "geometry": { "type": "Point", "coordinates": [ 129.351974, 35.499458, 60.0 ] } },
{ "type": "Feature", "properties": { "value": 4.1535 }, "geometry": { "type": "Point", "coordinates": [ 129.353073, 35.499454, 60.0 ] } },
{ "type": "Feature", "properties": { "value": 5.1305 }, "geometry": { "type": "Point", "coordinates": [ 129.354187, 35.499451, 60.0 ] } },
{ "type": "Feature", "properties": { "value": 6.03 }, "geometry": { "type": "Point", "coordinates": [ 129.355286, 35.499447, 60.0 ] } },
{ "type": "Feature", "properties": { "value": 6.7995 }, "geometry": { "type": "Point", "coordinates": [ 129.356384, 35.499447, 60.0 ] } },
{ "type": "Feature", "properties": { "value": 7.4128 }, "geometry": { "type": "Point", "coordinates": [ 129.357483, 35.499443, 60.0 ] } },
{ "type": "Feature", "properties": { "value": 7.8783 }, "geometry": { "type": "Point", "coordinates": [ 129.358582, 35.499439, 60.0 ] } },
{ "type": "Feature", "properties": { "value": 8.203 }, "geometry": { "type": "Point", "coordinates": [ 129.359695, 35.499435, 60.0 ] } },
{ "type": "Feature", "properties": { "value": 8.3852 }, "geometry": { "type": "Point", "coordinates": [ 129.360794, 35.499432, 60.0 ] } },
{ "type": "Feature", "properties": { "value": 8.4501 }, "geometry": { "type": "Point", "coordinates": [ 129.361893, 35.499428, 60.0 ] } },
{ "type": "Feature", "properties": { "value": 8.4314 }, "geometry": { "type": "Point", "coordinates": [ 129.362991, 35.499424, 60.0 ] } },
{ "type": "Feature", "properties": { "value": 8.3556 }, "geometry": { "type": "Point", "coordinates": [ 129.364105, 35.499424, 60.0 ] } },
{ "type": "Feature", "properties": { "value": 8.248 }, "geometry": { "type": "Point", "coordinates": [ 129.365204, 35.49942, 60.0 ] } },
{ "type": "Feature", "properties": { "value": 8.1348 }, "geometry": { "type": "Point", "coordinates": [ 129.366302, 35.499416, 60.0 ] } },
{ "type": "Feature", "properties": { "value": 8.0172 }, "geometry": { "type": "Point", "coordinates": [ 129.367401, 35.499413, 60.0 ] } },
{ "type": "Feature", "properties": { "value": 7.908 }, "geometry": { "type": "Point", "coordinates": [ 129.368515, 35.499409, 60.0 ] } },
{ "type": "Feature", "properties": { "value": 7.8101 }, "geometry": { "type": "Point", "coordinates": [ 129.369614, 35.499405, 60.0 ] } },
{ "type": "Feature", "properties": { "value": 7.7189 }, "geometry": { "type": "Point", "coordinates": [ 129.370712, 35.499401, 60.0 ] } },
{ "type": "Feature", "properties": { "value": 7.6198 }, "geometry": { "type": "Point", "coordinates": [ 129.371811, 35.499397, 60.0 ] } },
{ "type": "Feature", "properties": { "value": 7.4987 }, "geometry": { "type": "Point", "coordinates": [ 129.37291, 35.499393, 60.0 ] } },
{ "type": "Feature", "properties": { "value": 7.3404 }, "geometry": { "type": "Point", "coordinates": [ 129.374023, 35.499393, 60.0 ] } },
{ "type": "Feature", "properties": { "value": 7.1156 }, "geometry": { "type": "Point", "coordinates": [ 129.375122, 35.49939, 60.0 ] } },
{ "type": "Feature", "properties": { "value": 6.8106 }, "geometry": { "type": "Point", "coordinates": [ 129.376221, 35.499386, 60.0 ] } },
{ "type": "Feature", "properties": { "value": 6.3959 }, "geometry": { "type": "Point", "coordinates": [ 129.377319, 35.499382, 60.0 ] } },
{ "type": "Feature", "properties": { "value": 5.8729 }, "geometry": { "type": "Point", "coordinates": [ 129.378433, 35.499378, 60.0 ] } },
{ "type": "Feature", "properties": { "value": 5.2413 }, "geometry": { "type": "Point", "coordinates": [ 129.379532, 35.499374, 60.0 ] } },
{ "type": "Feature", "properties": { "value": 4.5273 }, "geometry": { "type": "Point", "coordinates": [ 129.38063, 35.499371, 60.0 ] } },
{ "type": "Feature", "properties": { "value": 3.7632 }, "geometry": { "type": "Point", "coordinates": [ 129.381729, 35.499367, 60.0 ] } },
{ "type": "Feature", "properties": { "value": 0.1224 }, "geometry": { "type": "Point", "coordinates": [ 129.347565, 35.500374, 60.0 ] } },
{ "type": "Feature", "properties": { "value": 0.3342 }, "geometry": { "type": "Point", "coordinates": [ 129.348679, 35.50037, 60.0 ] } },
{ "type": "Feature", "properties": { "value": 0.6239 }, "geometry": { "type": "Point", "coordinates": [ 129.349777, 35.500366, 60.0 ] } },
{ "type": "Feature", "properties": { "value": 1.0326 }, "geometry": { "type": "Point", "coordinates": [ 129.350876, 35.500362, 60.0 ] } },
{ "type": "Feature", "properties": { "value": 1.5577 }, "geometry": { "type": "Point", "coordinates": [ 129.351974, 35.500359, 60.0 ] } },
{ "type": "Feature", "properties": { "value": 2.1993 }, "geometry": { "type": "Point", "coordinates": [ 129.353088, 35.500355, 60.0 ] } },
{ "type": "Feature", "properties": { "value": 2.9019 }, "geometry": { "type": "Point", "coordinates": [ 129.354187, 35.500355, 60.0 ] } },
{ "type": "Feature", "properties": { "value": 3.629 }, "geometry": { "type": "Point", "coordinates": [ 129.355286, 35.500351, 60.0 ] } },
{ "type": "Feature", "properties": { "value": 4.3327 }, "geometry": { "type": "Point", "coordinates": [ 129.356384, 35.500347, 60.0 ] } },
{ "type": "Feature", "properties": { "value": 4.9833 }, "geometry": { "type": "Point", "coordinates": [ 129.357483, 35.500343, 60.0 ] } },
{ "type": "Feature", "properties": { "value": 5.5574 }, "geometry": { "type": "Point", "coordinates": [ 129.358597, 35.50034, 60.0 ] } },
{ "type": "Feature", "properties": { "value": 6.0348 }, "geometry": { "type": "Point", "coordinates": [ 129.359695, 35.500336, 60.0 ] } },
{ "type": "Feature", "properties": { "value": 6.4052 }, "geometry": { "type": "Point", "coordinates": [ 129.360794, 35.500332, 60.0 ] } },
{ "type": "Feature", "properties": { "value": 6.6654 }, "geometry": { "type": "Point", "coordinates": [ 129.361893, 35.500332, 60.0 ] } },
{ "type": "Feature", "properties": { "value": 6.837 }, "geometry": { "type": "Point", "coordinates": [ 129.363007, 35.500328, 60.0 ] } },
{ "type": "Feature", "properties": { "value": 6.936 }, "geometry": { "type": "Point", "coordinates": [ 129.364105, 35.500324, 60.0 ] } },
{ "type": "Feature", "properties": { "value": 6.9857 }, "geometry": { "type": "Point", "coordinates": [ 129.365204, 35.50032, 60.0 ] } },
{ "type": "Feature", "properties": { "value": 6.9891 }, "geometry": { "type": "Point", "coordinates": [ 129.366302, 35.500317, 60.0 ] } },
{ "type": "Feature", "properties": { "value": 6.9749 }, "geometry": { "type": "Point", "coordinates": [ 129.367416, 35.500313, 60.0 ] } },
{ "type": "Feature", "properties": { "value": 6.9374 }, "geometry": { "type": "Point", "coordinates": [ 129.368515, 35.500309, 60.0 ] } },
{ "type": "Feature", "properties": { "value": 6.8865 }, "geometry": { "type": "Point", "coordinates": [ 129.369614, 35.500305, 60.0 ] } },
{ "type": "Feature", "properties": { "value": 6.8202 }, "geometry": { "type": "Point", "coordinates": [ 129.370712, 35.500301, 60.0 ] } },
{ "type": "Feature", "properties": { "value": 6.7295 }, "geometry": { "type": "Point", "coordinates": [ 129.371811, 35.500301, 60.0 ] } },
{ "type": "Feature", "properties": { "value": 6.6062 }, "geometry": { "type": "Point", "coordinates": [ 129.372925, 35.500298, 60.0 ] } },
{ "type": "Feature", "properties": { "value": 6.4394 }, "geometry": { "type": "Point", "coordinates": [ 129.374023, 35.500294, 60.0 ] } },
{ "type": "Feature", "properties": { "value": 6.2105 }, "geometry": { "type": "Point", "coordinates": [ 129.375122, 35.50029, 60.0 ] } },
{ "type": "Feature", "properties": { "value": 5.9054 }, "geometry": { "type": "Point", "coordinates": [ 129.376221, 35.500286, 60.0 ] } },
{ "type": "Feature", "properties": { "value": 5.5115 }, "geometry": { "type": "Point", "coordinates": [ 129.377335, 35.500282, 60.0 ] } },
{ "type": "Feature", "properties": { "value": 5.0276 }, "geometry": { "type": "Point", "coordinates": [ 129.378433, 35.500278, 60.0 ] } },
{ "type": "Feature", "properties": { "value": 4.459 }, "geometry": { "type": "Point", "coordinates": [ 129.379532, 35.500275, 60.0 ] } },
{ "type": "Feature", "properties": { "value": 3.8289 }, "geometry": { "type": "Point", "coordinates": [ 129.38063, 35.500271, 60.0 ] } },
{ "type": "Feature", "properties": { "value": 3.1662 }, "geometry": { "type": "Point", "coordinates": [ 129.381744, 35.500267, 60.0 ] } },
{ "type": "Feature", "properties": { "value": 0.1892 }, "geometry": { "type": "Point", "coordinates": [ 129.349777, 35.501266, 60.0 ] } },
{ "type": "Feature", "properties": { "value": 0.3891 }, "geometry": { "type": "Point", "coordinates": [ 129.350876, 35.501263, 60.0 ] } },
{ "type": "Feature", "properties": { "value": 0.6612 }, "geometry": { "type": "Point", "coordinates": [ 129.35199, 35.501259, 60.0 ] } },
{ "type": "Feature", "properties": { "value": 1.0104 }, "geometry": { "type": "Point", "coordinates": [ 129.353088, 35.501259, 60.0 ] } },
{ "type": "Feature", "properties": { "value": 1.4415 }, "geometry": { "type": "Point", "coordinates": [ 129.354187, 35.501255, 60.0 ] } },
{ "type": "Feature", "properties": { "value": 1.9265 }, "geometry": { "type": "Point", "coordinates": [ 129.355286, 35.501251, 60.0 ] } },
{ "type": "Feature", "properties": { "value": 2.4418 }, "geometry": { "type": "Point", "coordinates": [ 129.3564, 35.501247, 60.0 ] } },
{ "type": "Feature", "properties": { "value": 2.9661 }, "geometry": { "type": "Point", "coordinates": [ 129.357498, 35.501244, 60.0 ] } },
{ "type": "Feature", "properties": { "value": 3.4799 }, "geometry": { "type": "Point", "coordinates": [ 129.358597, 35.50124, 60.0 ] } },
{ "type": "Feature", "properties": { "value": 3.9484 }, "geometry": { "type": "Point", "coordinates": [ 129.359695, 35.50124, 60.0 ] } },
{ "type": "Feature", "properties": { "value": 4.3516 }, "geometry": { "type": "Point", "coordinates": [ 129.360794, 35.501236, 60.0 ] } },
{ "type": "Feature", "properties": { "value": 4.6723 }, "geometry": { "type": "Point", "coordinates": [ 129.361908, 35.501232, 60.0 ] } },
{ "type": "Feature", "properties": { "value": 4.929 }, "geometry": { "type": "Point", "coordinates": [ 129.363007, 35.501228, 60.0 ] } },
{ "type": "Feature", "properties": { "value": 5.1297 }, "geometry": { "type": "Point", "coordinates": [ 129.364105, 35.501225, 60.0 ] } },
{ "type": "Feature", "properties": { "value": 5.2791 }, "geometry": { "type": "Point", "coordinates": [ 129.365204, 35.501221, 60.0 ] } },
{ "type": "Feature", "properties": { "value": 5.3821 }, "geometry": { "type": "Point", "coordinates": [ 129.366318, 35.501217, 60.0 ] } },
{ "type": "Feature", "properties": { "value": 5.443 }, "geometry": { "type": "Point", "coordinates": [ 129.367416, 35.501213, 60.0 ] } },
{ "type": "Feature", "properties": { "value": 5.4739 }, "geometry": { "type": "Point", "coordinates": [ 129.368515, 35.501213, 60.0 ] } },
{ "type": "Feature", "properties": { "value": 5.4747 }, "geometry": { "type": "Point", "coordinates": [ 129.369614, 35.501209, 60.0 ] } },
{ "type": "Feature", "properties": { "value": 5.4513 }, "geometry": { "type": "Point", "coordinates": [ 129.370728, 35.501205, 60.0 ] } },
{ "type": "Feature", "properties": { "value": 5.3924 }, "geometry": { "type": "Point", "coordinates": [ 129.371826, 35.501202, 60.0 ] } },
{ "type": "Feature", "properties": { "value": 5.2985 }, "geometry": { "type": "Point", "coordinates": [ 129.372925, 35.501198, 60.0 ] } },
{ "type": "Feature", "properties": { "value": 5.1538 }, "geometry": { "type": "Point", "coordinates": [ 129.374023, 35.501194, 60.0 ] } },
{ "type": "Feature", "properties": { "value": 4.957 }, "geometry": { "type": "Point", "coordinates": [ 129.375122, 35.50119, 60.0 ] } },
{ "type": "Feature", "properties": { "value": 4.6939 }, "geometry": { "type": "Point", "coordinates": [ 129.376236, 35.501186, 60.0 ] } },
{ "type": "Feature", "properties": { "value": 4.3621 }, "geometry": { "type": "Point", "coordinates": [ 129.377335, 35.501183, 60.0 ] } },
{ "type": "Feature", "properties": { "value": 3.959 }, "geometry": { "type": "Point", "coordinates": [ 129.378433, 35.501179, 60.0 ] } },
{ "type": "Feature", "properties": { "value": 3.4955 }, "geometry": { "type": "Point", "coordinates": [ 129.379532, 35.501179, 60.0 ] } },
{ "type": "Feature", "properties": { "value": 2.9866 }, "geometry": { "type": "Point", "coordinates": [ 129.380646, 35.501175, 60.0 ] } },
{ "type": "Feature", "properties": { "value": 2.4602 }, "geometry": { "type": "Point", "coordinates": [ 129.381744, 35.501171, 60.0 ] } }
]
}
