{
"type": "FeatureCollection",
"features": [
{ "type": "Feature", "properties": { "value": 2.6006 }, "geometry": { "type": "Point", "coordinates": [ 129.326462, 35.458069, 60.0 ] } },
{ "type": "Feature", "properties": { "value": 0.3331 }, "geometry": { "type": "Point", "coordinates": [ 129.32756, 35.458069, 60.0 ] } },
{ "type": "Feature", "properties": { "value": 26.913 }, "geometry": { "type": "Point", "coordinates": [ 129.326462, 35.458973, 60.0 ] } },
{ "type": "Feature", "properties": { "value": 6.8283 }, "geometry": { "type": "Point", "coordinates": [ 129.32756, 35.458969, 60.0 ] } },
{ "type": "Feature", "properties": { "value": 59.489 }, "geometry": { "type": "Point", "coordinates": [ 129.326462, 35.459873, 60.0 ] } },
{ "type": "Feature", "properties": { "value": 20.021 }, "geometry": { "type": "Point", "coordinates": [ 129.32756, 35.459869, 60.0 ] } },
{ "type": "Feature", "properties": { "value": 4.9092 }, "geometry": { "type": "Point", "coordinates": [ 129.325363, 35.460777, 60.0 ] } },
{ "type": "Feature", "properties": { "value": 88.183 }, "geometry": { "type": "Point", "coordinates": [ 129.326477, 35.460773, 60.0 ] } },
{ "type": "Feature", "properties": { "value": 34.252 }, "geometry": { "type": "Point", "coordinates": [ 129.327576, 35.46077, 60.0 ] } },
{ "type": "Feature", "properties": { "value": 12.55 }, "geometry": { "type": "Point", "coordinates": [ 129.325378, 35.461678, 60.0 ] } },
{ "type": "Feature", "properties": { "value": 85.099 }, "geometry": { "type": "Point", "coordinates": [ 129.326477, 35.461674, 60.0 ] } },
{ "type": "Feature", "properties": { "value": 36.981 }, "geometry": { "type": "Point", "coordinates": [ 129.327576, 35.461674, 60.0 ] } },
{ "type": "Feature", "properties": { "value": 1.2014 }, "geometry": { "type": "Point", "coordinates": [ 129.328674, 35.46167, 60.0 ] } },
{ "type": "Feature", "properties": { "value": 0.6481 }, "geometry": { "type": "Point", "coordinates": [ 129.32428, 35.462582, 60.0 ] } },
{ "type": "Feature", "properties": { "value": 20.221 }, "geometry": { "type": "Point", "coordinates": [ 129.325378, 35.462578, 60.0 ] } },
{ "type": "Feature", "properties": { "value": 74.024 }, "geometry": { "type": "Point", "coordinates": [ 129.326477, 35.462578, 60.0 ] } },
{ "type": "Feature", "properties": { "value": 35.354 }, "geometry": { "type": "Point", "coordinates": [ 129.327576, 35.462574, 60.0 ] } },
{ "type": "Feature", "properties": { "value": 2.4087 }, "geometry": { "type": "Point", "coordinates": [ 129.328674, 35.46257, 60.0 ] } },
{ "type": "Feature", "properties": { "value": 2.7112 }, "geometry": { "type": "Point", "coordinates": [ 129.32428, 35.463486, 60.0 ] } },
{ "type": "Feature", "properties": { "value": 26.419 }, "geometry": { "type": "Point", "coordinates": [ 129.325378, 35.463482, 60.0 ] } },
{ "type": "Feature", "properties": { "value": 63.8 }, "geometry": { "type": "Point", "coordinates": [ 129.326477, 35.463478, 60.0 ] } },
{ "type": "Feature", "properties": { "value": 33.025 }, "geometry": { "type": "Point", "coordinates": [ 129.327576, 35.463474, 60.0 ] } },
{ "type": "Feature", "properties": { "value": 3.6698 }, "geometry": { "type": "Point", "coordinates": [ 129.32869, 35.46347, 60.0 ] } },
{ "type": "Feature", "properties": { "value": 5.3529 }, "geometry": { "type": "Point", "coordinates": [ 129.32428, 35.464386, 60.0 ] } },
{ "type": "Feature", "properties": { "value": 30.35 }, "geometry": { "type": "Point", "coordinates": [ 129.325378, 35.464382, 60.0 ] } },
{ "type": "Feature", "properties": { "value": 56.033 }, "geometry": { "type": "Point", "coordinates": [ 129.326477, 35.464378, 60.0 ] } },
{ "type": "Feature", "properties": { "value": 30.353 }, "geometry": { "type": "Point", "coordinates": [ 129.327591, 35.464375, 60.0 ] } },
{ "type": "Feature", "properties": { "value": 4.6535 }, "geometry": { "type": "Point", "coordinates": [ 129.32869, 35.464375, 60.0 ] } },
{ "type": "Feature", "properties": { "value": 0.8468 }, "geometry": { "type": "Point", "coordinates": [ 129.323181, 35.46529, 60.0 ] } },
{ "type": "Feature", "properties": { "value": 8.3494 }, "geometry": { "type": "Point", "coordinates": [ 129.32428, 35.465286, 60.0 ] } },
{ "type": "Feature", "properties": { "value": 32.41 }, "geometry": { "type": "Point", "coordinates": [ 129.325394, 35.465282, 60.0 ] } },
{ "type": "Feature", "properties": { "value": 49.359 }, "geometry": { "type": "Point", "coordinates": [ 129.326492, 35.465279, 60.0 ] } },
{ "type": "Feature", "properties": { "value": 27.572 }, "geometry": { "type": "Point", "coordinates": [ 129.327591, 35.465279, 60.0 ] } },
{ "type": "Feature", "properties": { "value": 5.5003 }, "geometry": { "type": "Point", "coordinates": [ 129.32869, 35.465275, 60.0 ] } },
{ "type": "Feature", "properties": { "value": 1.875 }, "geometry": { "type": "Point", "coordinates": [ 129.323181, 35.46619, 60.0 ] } },
{ "type": "Feature", "properties": { "value": 11.338 }, "geometry": { "type": "Point", "coordinates": [ 129.324295, 35.466187, 60.0 ] } },
{ "type": "Feature", "properties": { "value": 32.843 }, "geometry": { "type": "Point", "coordinates": [ 129.325394, 35.466187, 60.0 ] } },
{ "type": "Feature", "properties": { "value": 43.299 }, "geometry": { "type": "Point", "coordinates": [ 129.326492, 35.466183, 60.0 ] } },
{ "type": "Feature", "properties": { "value": 24.833 }, "geometry": { "type": "Point", "coordinates": [ 129.327591, 35.466179, 60.0 ] } },
{ "type": "Feature", "properties": { "value": 5.9974 }, "geometry": { "type": "Point", "coordinates": [ 129.32869, 35.466175, 60.0 ] } },
{ "type": "Feature", "properties": { "value": 0.4674 }, "geometry": { "type": "Point", "coordinates": [ 129.329803, 35.466171, 60.0 ] } },
{ "type": "Feature", "properties": { "value": 0.2347 }, "geometry": { "type": "Point", "coordinates": [ 129.322083, 35.467094, 60.0 ] } },
{ "type": "Feature", "properties": { "value": 3.1862 }, "geometry": { "type": "Point", "coordinates": [ 129.323196, 35.467091, 60.0 ] } },
{ "type": "Feature", "properties": { "value": 13.881 }, "geometry": { "type": "Point", "coordinates": [ 129.324295, 35.467091, 60.0 ] } },
{ "type": "Feature", "properties": { "value": 32.212 }, "geometry": { "type": "Point", "coordinates": [ 129.325394, 35.467087, 60.0 ] } },
{ "type": "Feature", "properties": { "value": 38.129 }, "geometry": { "type": "Point", "coordinates": [ 129.326492, 35.467083, 60.0 ] } },
{ "type": "Feature", "properties": { "value": 22.198 }, "geometry": { "type": "Point", "coordinates": [ 129.327591, 35.467079, 60.0 ] } },
{ "type": "Feature", "properties": { "value": 6.1877 }, "geometry": { "type": "Point", "coordinates": [ 129.328705, 35.467075, 60.0 ] } },
{ "type": "Feature", "properties": { "value": 0.6922 }, "geometry": { "type": "Point", "coordinates": [ 129.329803, 35.467075, 60.0 ] } },
{ "type": "Feature", "properties": { "value": 0.8055 }, "geometry": { "type": "Point", "coordinates": [ 129.322098, 35.467995, 60.0 ] } },
{ "type": "Feature", "properties": { "value": 4.6778 }, "geometry": { "type": "Point", "coordinates": [ 129.323196, 35.467995, 60.0 ] } },
{ "type": "Feature", "properties": { "value": 15.757 }, "geometry": { "type": "Point", "coordinates": [ 129.324295, 35.467991, 60.0 ] } },
{ "type": "Feature", "properties": { "value": 31.318 }, "geometry": { "type": "Point", "coordinates": [ 129.325394, 35.467987, 60.0 ] } },
{ "type": "Feature", "properties": { "value": 33.99 }, "geometry": { "type": "Point", "coordinates": [ 129.326492, 35.467983, 60.0 ] } },
{ "type": "Feature", "properties": { "value": 19.871 }, "geometry": { "type": "Point", "coordinates": [ 129.327606, 35.467983, 60.0 ] } },
{ "type": "Feature", "properties": { "value": 6.1639 }, "geometry": { "type": "Point", "coordinates": [ 129.328705, 35.467979, 60.0 ] } },
{ "type": "Feature", "properties": { "value": 0.941 }, "geometry": { "type": "Point", "coordinates": [ 129.329803, 35.467976, 60.0 ] } },
{ "type": "Feature", "properties": { "value": 1.4209 }, "geometry": { "type": "Point", "coordinates": [ 129.322098, 35.468899, 60.0 ] } },
{ "type": "Feature", "properties": { "value": 6.2326 }, "geometry": { "type": "Point", "coordinates": [ 129.323196, 35.468895, 60.0 ] } },
{ "type": "Feature", "properties": { "value": 17.218 }, "geometry": { "type": "Point", "coordinates": [ 129.324295, 35.468891, 60.0 ] } },
{ "type": "Feature", "properties": { "value": 29.653 }, "geometry": { "type": "Point", "coordinates": [ 129.325394, 35.468887, 60.0 ] } },
{ "type": "Feature", "properties": { "value": 30.1 }, "geometry": { "type": "Point", "coordinates": [ 129.326508, 35.468887, 60.0 ] } },
{ "type": "Feature", "properties": { "value": 17.771 }, "geometry": { "type": "Point", "coordinates": [ 129.327606, 35.468884, 60.0 ] } },
{ "type": "Feature", "properties": { "value": 6.0477 }, "geometry": { "type": "Point", "coordinates": [ 129.328705, 35.46888, 60.0 ] } },
{ "type": "Feature", "properties": { "value": 1.1502 }, "geometry": { "type": "Point", "coordinates": [ 129.329803, 35.468876, 60.0 ] } },
{ "type": "Feature", "properties": { "value": 0.3532 }, "geometry": { "type": "Point", "coordinates": [ 129.320999, 35.469803, 60.0 ] } },
{ "type": "Feature", "properties": { "value": 2.2022 }, "geometry": { "type": "Point", "coordinates": [ 129.322098, 35.469799, 60.0 ] } },
{ "type": "Feature", "properties": { "value": 7.7638 }, "geometry": { "type": "Point", "coordinates": [ 129.323196, 35.469795, 60.0 ] } },
{ "type": "Feature", "properties": { "value": 18.179 }, "geometry": { "type": "Point", "coordinates": [ 129.324295, 35.469791, 60.0 ] } },
{ "type": "Feature", "properties": { "value": 27.892 }, "geometry": { "type": "Point", "coordinates": [ 129.325409, 35.469791, 60.0 ] } },
{ "type": "Feature", "properties": { "value": 26.86 }, "geometry": { "type": "Point", "coordinates": [ 129.326508, 35.469788, 60.0 ] } },
{ "type": "Feature", "properties": { "value": 15.939 }, "geometry": { "type": "Point", "coordinates": [ 129.327606, 35.469784, 60.0 ] } },
{ "type": "Feature", "properties": { "value": 5.815 }, "geometry": { "type": "Point", "coordinates": [ 129.328705, 35.46978, 60.0 ] } },
{ "type": "Feature", "properties": { "value": 1.3052 }, "geometry": { "type": "Point", "coordinates": [ 129.329819, 35.469776, 60.0 ] } },
{ "type": "Feature", "properties": { "value": 0.7295 }, "geometry": { "type": "Point", "coordinates": [ 129.320999, 35.470703, 60.0 ] } },
{ "type": "Feature", "properties": { "value": 3.0695 }, "geometry": { "type": "Point", "coordinates": [ 129.322098, 35.470699, 60.0 ] } },
{ "type": "Feature", "properties": { "value": 9.071 }, "geometry": { "type": "Point", "coordinates": [ 129.323212, 35.470695, 60.0 ] } },
{ "type": "Feature", "properties": { "value": 18.58 }, "geometry": { "type": "Point", "coordinates": [ 129.32431, 35.470695, 60.0 ] } },
{ "type": "Feature", "properties": { "value": 25.995 }, "geometry": { "type": "Point", "coordinates": [ 129.325409, 35.470692, 60.0 ] } },
{ "type": "Feature", "properties": { "value": 23.919 }, "geometry": { "type": "Point", "coordinates": [ 129.326508, 35.470688, 60.0 ] } },
{ "type": "Feature", "properties": { "value": 14.363 }, "geometry": { "type": "Point", "coordinates": [ 129.327606, 35.470684, 60.0 ] } },
{ "type": "Feature", "properties": { "value": 5.6169 }, "geometry": { "type": "Point", "coordinates": [ 129.32872, 35.470684, 60.0 ] } },
{ "type": "Feature", "properties": { "value": 1.4133 }, "geometry": { "type": "Point", "coordinates": [ 129.329819, 35.47068, 60.0 ] } },
{ "type": "Feature", "properties": { "value": 0.116 }, "geometry": { "type": "Point", "coordinates": [ 129.319901, 35.471607, 60.0 ] } },
{ "type": "Feature", "properties": { "value": 1.1391 }, "geometry": { "type": "Point", "coordinates": [ 129.320999, 35.471603, 60.0 ] } },
{ "type": "Feature", "properties": { "value": 3.9862 }, "geometry": { "type": "Point", "coordinates": [ 129.322113, 35.4716, 60.0 ] } },
{ "type": "Feature", "properties": { "value": 10.099 }, "geometry": { "type": "Point", "coordinates": [ 129.323212, 35.4716, 60.0 ] } },
{ "type": "Feature", "properties": { "value": 18.45 }, "geometry": { "type": "Point", "coordinates": [ 129.32431, 35.471596, 60.0 ] } },
{ "type": "Feature", "properties": { "value": 24.003 }, "geometry": { "type": "Point", "coordinates": [ 129.325409, 35.471592, 60.0 ] } },
{ "type": "Feature", "properties": { "value": 21.295 }, "geometry": { "type": "Point", "coordinates": [ 129.326508, 35.471588, 60.0 ] } },
{ "type": "Feature", "properties": { "value": 12.935 }, "geometry": { "type": "Point", "coordinates": [ 129.327621, 35.471588, 60.0 ] } },
{ "type": "Feature", "properties": { "value": 5.379 }, "geometry": { "type": "Point", "coordinates": [ 129.32872, 35.471584, 60.0 ] } },
{ "type": "Feature", "properties": { "value": 1.5202 }, "geometry": { "type": "Point", "coordinates": [ 129.329819, 35.471581, 60.0 ] } },
{ "type": "Feature", "properties": { "value": 0.1357 }, "geometry": { "type": "Point", "coordinates": [ 129.330917, 35.471577, 60.0 ] } },
{ "type": "Feature", "properties": { "value": 0.3569 }, "geometry": { "type": "Point", "coordinates": [ 129.319901, 35.472507, 60.0 ] } },
{ "type": "Feature", "properties": { "value": 1.611 }, "geometry": { "type": "Point", "coordinates": [ 129.321014, 35.472507, 60.0 ] } },
{ "type": "Feature", "properties": { "value": 4.8409 }, "geometry": { "type": "Point", "coordinates": [ 129.322113, 35.472504, 60.0 ] } },
{ "type": "Feature", "properties": { "value": 10.898 }, "geometry": { "type": "Point", "coordinates": [ 129.323212, 35.4725, 60.0 ] } },
{ "type": "Feature", "properties": { "value": 18.054 }, "geometry": { "type": "Point", "coordinates": [ 129.32431, 35.472496, 60.0 ] } },
{ "type": "Feature", "properties": { "value": 22.055 }, "geometry": { "type": "Point", "coordinates": [ 129.325409, 35.472492, 60.0 ] } },
{ "type": "Feature", "properties": { "value": 18.975 }, "geometry": { "type": "Point", "coordinates": [ 129.326523, 35.472492, 60.0 ] } },
{ "type": "Feature", "properties": { "value": 11.704 }, "geometry": { "type": "Point", "coordinates": [ 129.327621, 35.472488, 60.0 ] } },
{ "type": "Feature", "properties": { "value": 5.1094 }, "geometry": { "type": "Point", "coordinates": [ 129.32872, 35.472485, 60.0 ] } },
{ "type": "Feature", "properties": { "value": 1.5283 }, "geometry": { "type": "Point", "coordinates": [ 129.329819, 35.472481, 60.0 ] } },
{ "type": "Feature", "properties": { "value": 0.2511 }, "geometry": { "type": "Point", "coordinates": [ 129.330917, 35.472477, 60.0 ] } },
{ "type": "Feature", "properties": { "value": 0.6224 }, "geometry": { "type": "Point", "coordinates": [ 129.319916, 35.473412, 60.0 ] } },
{ "type": "Feature", "properties": { "value": 2.1338 }, "geometry": { "type": "Point", "coordinates": [ 129.321014, 35.473408, 60.0 ] } },
{ "type": "Feature", "properties": { "value": 5.6086 }, "geometry": { "type": "Point", "coordinates": [ 129.322113, 35.473404, 60.0 ] } },
{ "type": "Feature", "properties": { "value": 11.334 }, "geometry": { "type": "Point", "coordinates": [ 129.323212, 35.4734, 60.0 ] } },
{ "type": "Feature", "properties": { "value": 17.37 }, "geometry": { "type": "Point", "coordinates": [ 129.32431, 35.473396, 60.0 ] } },
{ "type": "Feature", "properties": { "value": 20.032 }, "geometry": { "type": "Point", "coordinates": [ 129.325424, 35.473396, 60.0 ] } },
{ "type": "Feature", "properties": { "value": 16.949 }, "geometry": { "type": "Point", "coordinates": [ 129.326523, 35.473392, 60.0 ] } },
{ "type": "Feature", "properties": { "value": 10.529 }, "geometry": { "type": "Point", "coordinates": [ 129.327621, 35.473389, 60.0 ] } },
{ "type": "Feature", "properties": { "value": 4.7679 }, "geometry": { "type": "Point", "coordinates": [ 129.32872, 35.473385, 60.0 ] } },
{ "type": "Feature", "properties": { "value": 1.5595 }, "geometry": { "type": "Point", "coordinates": [ 129.329819, 35.473385, 60.0 ] } },
{ "type": "Feature", "properties": { "value": 0.3077 }, "geometry": { "type": "Point", "coordinates": [ 129.330933, 35.473381, 60.0 ] } },
{ "type": "Feature", "properties": { "value": 0.2074 }, "geometry": { "type": "Point", "coordinates": [ 129.318817, 35.474316, 60.0 ] } },
{ "type": "Feature", "properties": { "value": 0.9063 }, "geometry": { "type": "Point", "coordinates": [ 129.319916, 35.474312, 60.0 ] } },
{ "type": "Feature", "properties": { "value": 2.6915 }, "geometry": { "type": "Point", "coordinates": [ 129.321014, 35.474308, 60.0 ] } },
{ "type": "Feature", "properties": { "value": 6.27 }, "geometry": { "type": "Point", "coordinates": [ 129.322113, 35.474304, 60.0 ] } },
{ "type": "Feature", "properties": { "value": 11.564 }, "geometry": { "type": "Point", "coordinates": [ 129.323212, 35.4743, 60.0 ] } },
{ "type": "Feature", "properties": { "value": 16.589 }, "geometry": { "type": "Point", "coordinates": [ 129.324326, 35.4743, 60.0 ] } },
{ "type": "Feature", "properties": { "value": 18.203 }, "geometry": { "type": "Point", "coordinates": [ 129.325424, 35.474297, 60.0 ] } },
{ "type": "Feature", "properties": { "value": 15.139 }, "geometry": { "type": "Point", "coordinates": [ 129.326523, 35.474293, 60.0 ] } },
{ "type": "Feature", "properties": { "value": 9.4894 }, "geometry": { "type": "Point", "coordinates": [ 129.327621, 35.474289, 60.0 ] } },
{ "type": "Feature", "properties": { "value": 4.4643 }, "geometry": { "type": "Point", "coordinates": [ 129.328735, 35.474289, 60.0 ] } },
{ "type": "Feature", "properties": { "value": 1.5759 }, "geometry": { "type": "Point", "coordinates": [ 129.329834, 35.474285, 60.0 ] } },
{ "type": "Feature", "properties": { "value": 0.3681 }, "geometry": { "type": "Point", "coordinates": [ 129.330933, 35.474281, 60.0 ] } },
{ "type": "Feature", "properties": { "value": 0.3796 }, "geometry": { "type": "Point", "coordinates": [ 129.318817, 35.475216, 60.0 ] } },
{ "type": "Feature", "properties": { "value": 1.2563 }, "geometry": { "type": "Point", "coordinates": [ 129.319916, 35.475212, 60.0 ] } },
{ "type": "Feature", "properties": { "value": 3.2691 }, "geometry": { "type": "Point", "coordinates": [ 129.321014, 35.475208, 60.0 ] } },
{ "type": "Feature", "properties": { "value": 6.8848 }, "geometry": { "type": "Point", "coordinates": [ 129.322113, 35.475208, 60.0 ] } },
{ "type": "Feature", "properties": { "value": 11.688 }, "geometry": { "type": "Point", "coordinates": [ 129.323227, 35.475204, 60.0 ] } },
{ "type": "Feature", "properties": { "value": 15.748 }, "geometry": { "type": "Point", "coordinates": [ 129.324326, 35.475201, 60.0 ] } },
{ "type": "Feature", "properties": { "value": 16.6 }, "geometry": { "type": "Point", "coordinates": [ 129.325424, 35.475197, 60.0 ] } },
{ "type": "Feature", "properties": { "value": 13.588 }, "geometry": { "type": "Point", "coordinates": [ 129.326523, 35.475193, 60.0 ] } },
{ "type": "Feature", "properties": { "value": 8.566 }, "geometry": { "type": "Point", "coordinates": [ 129.327637, 35.475193, 60.0 ] } },
{ "type": "Feature", "properties": { "value": 4.1733 }, "geometry": { "type": "Point", "coordinates": [ 129.328735, 35.475189, 60.0 ] } },
{ "type": "Feature", "properties": { "value": 1.5349 }, "geometry": { "type": "Point", "coordinates": [ 129.329834, 35.475185, 60.0 ] } },
{ "type": "Feature", "properties": { "value": 0.4026 }, "geometry": { "type": "Point", "coordinates": [ 129.330933, 35.475182, 60.0 ] } },
{ "type": "Feature", "properties": { "value": 0.13 }, "geometry": { "type": "Point", "coordinates": [ 129.317719, 35.47612, 60.0 ] } },
{ "type": "Feature", "properties": { "value": 0.5809 }, "geometry": { "type": "Point", "coordinates": [ 129.318817, 35.476116, 60.0 ] } },
{ "type": "Feature", "properties": { "value": 1.6498 }, "geometry": { "type": "Point", "coordinates": [ 129.319916, 35.476112, 60.0 ] } },
{ "type": "Feature", "properties": { "value": 3.8542 }, "geometry": { "type": "Point", "coordinates": [ 129.32103, 35.476112, 60.0 ] } },
{ "type": "Feature", "properties": { "value": 7.4142 }, "geometry": { "type": "Point", "coordinates": [ 129.322128, 35.476109, 60.0 ] } },
{ "type": "Feature", "properties": { "value": 11.703 }, "geometry": { "type": "Point", "coordinates": [ 129.323227, 35.476105, 60.0 ] } },
{ "type": "Feature", "properties": { "value": 14.896 }, "geometry": { "type": "Point", "coordinates": [ 129.324326, 35.476101, 60.0 ] } },
{ "type": "Feature", "properties": { "value": 15.158 }, "geometry": { "type": "Point", "coordinates": [ 129.325424, 35.476097, 60.0 ] } },
{ "type": "Feature", "properties": { "value": 12.22 }, "geometry": { "type": "Point", "coordinates": [ 129.326538, 35.476097, 60.0 ] } },
{ "type": "Feature", "properties": { "value": 7.7705 }, "geometry": { "type": "Point", "coordinates": [ 129.327637, 35.476093, 60.0 ] } },
{ "type": "Feature", "properties": { "value": 3.8785 }, "geometry": { "type": "Point", "coordinates": [ 129.328735, 35.476089, 60.0 ] } },
{ "type": "Feature", "properties": { "value": 1.5059 }, "geometry": { "type": "Point", "coordinates": [ 129.329834, 35.476086, 60.0 ] } },
{ "type": "Feature", "properties": { "value": 0.4362 }, "geometry": { "type": "Point", "coordinates": [ 129.330933, 35.476086, 60.0 ] } },
{ "type": "Feature", "properties": { "value": 0.2546 }, "geometry": { "type": "Point", "coordinates": [ 129.317719, 35.47702, 60.0 ] } },
{ "type": "Feature", "properties": { "value": 0.8321 }, "geometry": { "type": "Point", "coordinates": [ 129.318817, 35.477016, 60.0 ] } },
{ "type": "Feature", "properties": { "value": 2.0931 }, "geometry": { "type": "Point", "coordinates": [ 129.319931, 35.477016, 60.0 ] } },
{ "type": "Feature", "properties": { "value": 4.4357 }, "geometry": { "type": "Point", "coordinates": [ 129.32103, 35.477013, 60.0 ] } },
{ "type": "Feature", "properties": { "value": 7.879 }, "geometry": { "type": "Point", "coordinates": [ 129.322128, 35.477009, 60.0 ] } },
{ "type": "Feature", "properties": { "value": 11.616 }, "geometry": { "type": "Point", "coordinates": [ 129.323227, 35.477005, 60.0 ] } },
{ "type": "Feature", "properties": { "value": 14.098 }, "geometry": { "type": "Point", "coordinates": [ 129.324326, 35.477005, 60.0 ] } },
{ "type": "Feature", "properties": { "value": 13.891 }, "geometry": { "type": "Point", "coordinates": [ 129.325439, 35.477001, 60.0 ] } },
{ "type": "Feature", "properties": { "value": 11.043 }, "geometry": { "type": "Point", "coordinates": [ 129.326538, 35.476997, 60.0 ] } },
{ "type": "Feature", "properties": { "value": 6.9926 }, "geometry": { "type": "Point", "coordinates": [ 129.327637, 35.476994, 60.0 ] } },
{ "type": "Feature", "properties": { "value": 3.5759 }, "geometry": { "type": "Point", "coordinates": [ 129.328735, 35.47699, 60.0 ] } },
{ "type": "Feature", "properties": { "value": 1.4315 }, "geometry": { "type": "Point", "coordinates": [ 129.329834, 35.47699, 60.0 ] } },
{ "type": "Feature", "properties": { "value": 0.4323 }, "geometry": { "type": "Point", "coordinates": [ 129.330948, 35.476986, 60.0 ] } },
{ "type": "Feature", "properties": { "value": 0.081 }, "geometry": { "type": "Point", "coordinates": [ 129.31662, 35.477924, 60.0 ] } },
{ "type": "Feature", "properties": { "value": 0.4277 }, "geometry": { "type": "Point", "coordinates": [ 129.317719, 35.477921, 60.0 ] } },
{ "type": "Feature", "properties": { "value": 1.1509 }, "geometry": { "type": "Point", "coordinates": [ 129.318832, 35.477921, 60.0 ] } },
{ "type": "Feature", "properties": { "value": 2.5741 }, "geometry": { "type": "Point", "coordinates": [ 129.319931, 35.477917, 60.0 ] } },
{ "type": "Feature", "properties": { "value": 5.0057 }, "geometry": { "type": "Point", "coordinates": [ 129.32103, 35.477913, 60.0 ] } },
{ "type": "Feature", "properties": { "value": 8.2457 }, "geometry": { "type": "Point", "coordinates": [ 129.322128, 35.477909, 60.0 ] } },
{ "type": "Feature", "properties": { "value": 11.48 }, "geometry": { "type": "Point", "coordinates": [ 129.323227, 35.477909, 60.0 ] } },
{ "type": "Feature", "properties": { "value": 13.301 }, "geometry": { "type": "Point", "coordinates": [ 129.324341, 35.477905, 60.0 ] } },
{ "type": "Feature", "properties": { "value": 12.732 }, "geometry": { "type": "Point", "coordinates": [ 129.325439, 35.477901, 60.0 ] } },
{ "type": "Feature", "properties": { "value": 9.9032 }, "geometry": { "type": "Point", "coordinates": [ 129.326538, 35.477898, 60.0 ] } },
{ "type": "Feature", "properties": { "value": 6.2907 }, "geometry": { "type": "Point", "coordinates": [ 129.327637, 35.477894, 60.0 ] } },
{ "type": "Feature", "properties": { "value": 3.2594 }, "geometry": { "type": "Point", "coordinates": [ 129.328735, 35.477894, 60.0 ] } },
{ "type": "Feature", "properties": { "value": 1.3681 }, "geometry": { "type": "Point", "coordinates": [ 129.329849, 35.47789, 60.0 ] } },
{ "type": "Feature", "properties": { "value": 0.4416 }, "geometry": { "type": "Point", "coordinates": [ 129.330948, 35.477886, 60.0 ] } },
{ "type": "Feature", "properties": { "value": 0.0245 }, "geometry": { "type": "Point", "coordinates": [ 129.332047, 35.477882, 60.0 ] } },
{ "type": "Feature", "properties": { "value": 0.2177 }, "geometry": { "type": "Point", "coordinates": [ 129.31662, 35.478825, 60.0 ] } },
{ "type": "Feature", "properties": { "value": 0.6279 }, "geometry": { "type": "Point", "coordinates": [ 129.317734, 35.478825, 60.0 ] } },
{ "type": "Feature", "properties": { "value": 1.5015 }, "geometry": { "type": "Point", "coordinates": [ 129.318832, 35.478821, 60.0 ] } },
{ "type": "Feature", "properties": { "value": 3.0807 }, "geometry": { "type": "Point", "coordinates": [ 129.319931, 35.478817, 60.0 ] } },
{ "type": "Feature", "properties": { "value": 5.5181 }, "geometry": { "type": "Point", "coordinates": [ 129.32103, 35.478813, 60.0 ] } },
{ "type": "Feature", "properties": { "value": 8.5112 }, "geometry": { "type": "Point", "coordinates": [ 129.322128, 35.478813, 60.0 ] } },
{ "type": "Feature", "properties": { "value": 11.185 }, "geometry": { "type": "Point", "coordinates": [ 129.323242, 35.478809, 60.0 ] } },
{ "type": "Feature", "properties": { "value": 12.478 }, "geometry": { "type": "Point", "coordinates": [ 129.324341, 35.478806, 60.0 ] } },
{ "type": "Feature", "properties": { "value": 11.56 }, "geometry": { "type": "Point", "coordinates": [ 129.325439, 35.478802, 60.0 ] } },
{ "type": "Feature", "properties": { "value": 8.898 }, "geometry": { "type": "Point", "coordinates": [ 129.326538, 35.478798, 60.0 ] } },
{ "type": "Feature", "properties": { "value": 5.6748 }, "geometry": { "type": "Point", "coordinates": [ 129.327637, 35.478798, 60.0 ] } },
{ "type": "Feature", "properties": { "value": 2.9921 }, "geometry": { "type": "Point", "coordinates": [ 129.328751, 35.478794, 60.0 ] } },
{ "type": "Feature", "properties": { "value": 1.2973 }, "geometry": { "type": "Point", "coordinates": [ 129.329849, 35.47879, 60.0 ] } },
{ "type": "Feature", "properties": { "value": 0.4481 }, "geometry": { "type": "Point", "coordinates": [ 129.330948, 35.478786, 60.0 ] } },
{ "type": "Feature", "properties": { "value": 0.0597 }, "geometry": { "type": "Point", "coordinates": [ 129.332047, 35.478786, 60.0 ] } },
{ "type": "Feature", "properties": { "value": 0.0962 }, "geometry": { "type": "Point", "coordinates": [ 129.315521, 35.479729, 60.0 ] } },
{ "type": "Feature", "properties": { "value": 0.3582 }, "geometry": { "type": "Point", "coordinates": [ 129.316635, 35.479729, 60.0 ] } },
{ "type": "Feature", "properties": { "value": 0.882 }, "geometry": { "type": "Point", "coordinates": [ 129.317734, 35.479725, 60.0 ] } },
{ "type": "Feature", "properties": { "value": 1.8905 }, "geometry": { "type": "Point", "coordinates": [ 129.318832, 35.479721, 60.0 ] } },
{ "type": "Feature", "properties": { "value": 3.588 }, "geometry": { "type": "Point", "coordinates": [ 129.319931, 35.479717, 60.0 ] } },
{ "type": "Feature", "properties": { "value": 5.9948 }, "geometry": { "type": "Point", "coordinates": [ 129.32103, 35.479717, 60.0 ] } },
{ "type": "Feature", "properties": { "value": 8.6999 }, "geometry": { "type": "Point", "coordinates": [ 129.322144, 35.479713, 60.0 ] } },
{ "type": "Feature", "properties": { "value": 10.859 }, "geometry": { "type": "Point", "coordinates": [ 129.323242, 35.47971, 60.0 ] } },
{ "type": "Feature", "properties": { "value": 11.692 }, "geometry": { "type": "Point", "coordinates": [ 129.324341, 35.479706, 60.0 ] } },
{ "type": "Feature", "properties": { "value": 10.551 }, "geometry": { "type": "Point", "coordinates": [ 129.325439, 35.479706, 60.0 ] } },
{ "type": "Feature", "properties": { "value": 8.0467 }, "geometry": { "type": "Point", "coordinates": [ 129.326553, 35.479702, 60.0 ] } },
{ "type": "Feature", "properties": { "value": 5.1427 }, "geometry": { "type": "Point", "coordinates": [ 129.327652, 35.479698, 60.0 ] } },
{ "type": "Feature", "properties": { "value": 2.7379 }, "geometry": { "type": "Point", "coordinates": [ 129.328751, 35.479694, 60.0 ] } },
{ "type": "Feature", "properties": { "value": 1.211 }, "geometry": { "type": "Point", "coordinates": [ 129.329849, 35.479691, 60.0 ] } },
{ "type": "Feature", "properties": { "value": 0.4257 }, "geometry": { "type": "Point", "coordinates": [ 129.330948, 35.479691, 60.0 ] } },
{ "type": "Feature", "properties": { "value": 0.066 }, "geometry": { "type": "Point", "coordinates": [ 129.332062, 35.479687, 60.0 ] } },
{ "type": "Feature", "properties": { "value": 0.0225 }, "geometry": { "type": "Point", "coordinates": [ 129.314423, 35.480633, 60.0 ] } },
{ "type": "Feature", "properties": { "value": 0.2065 }, "geometry": { "type": "Point", "coordinates": [ 129.315536, 35.480633, 60.0 ] } },
{ "type": "Feature", "properties": { "value": 0.5191 }, "geometry": { "type": "Point", "coordinates": [ 129.316635, 35.480629, 60.0 ] } },
{ "type": "Feature", "properties": { "value": 1.1548 }, "geometry": { "type": "Point", "coordinates": [ 129.317734, 35.480625, 60.0 ] } },
{ "type": "Feature", "properties": { "value": 2.291 }, "geometry": { "type": "Point", "coordinates": [ 129.318832, 35.480621, 60.0 ] } },
{ "type": "Feature", "properties": { "value": 4.0648 }, "geometry": { "type": "Point", "coordinates": [ 129.319931, 35.480621, 60.0 ] } },
{ "type": "Feature", "properties": { "value": 6.3926 }, "geometry": { "type": "Point", "coordinates": [ 129.321045, 35.480618, 60.0 ] } },
{ "type": "Feature", "properties": { "value": 8.8069 }, "geometry": { "type": "Point", "coordinates": [ 129.322144, 35.480614, 60.0 ] } },
{ "type": "Feature", "properties": { "value": 10.554 }, "geometry": { "type": "Point", "coordinates": [ 129.323242, 35.48061, 60.0 ] } },
{ "type": "Feature", "properties": { "value": 10.932 }, "geometry": { "type": "Point", "coordinates": [ 129.324341, 35.48061, 60.0 ] } },
{ "type": "Feature", "properties": { "value": 9.6666 }, "geometry": { "type": "Point", "coordinates": [ 129.325455, 35.480606, 60.0 ] } },
{ "type": "Feature", "properties": { "value": 7.2993 }, "geometry": { "type": "Point", "coordinates": [ 129.326553, 35.480602, 60.0 ] } },
{ "type": "Feature", "properties": { "value": 4.6743 }, "geometry": { "type": "Point", "coordinates": [ 129.327652, 35.480598, 60.0 ] } },
{ "type": "Feature", "properties": { "value": 2.5151 }, "geometry": { "type": "Point", "coordinates": [ 129.328751, 35.480595, 60.0 ] } },
{ "type": "Feature", "properties": { "value": 1.1381 }, "geometry": { "type": "Point", "coordinates": [ 129.329849, 35.480595, 60.0 ] } },
{ "type": "Feature", "properties": { "value": 0.4204 }, "geometry": { "type": "Point", "coordinates": [ 129.330963, 35.480591, 60.0 ] } },
{ "type": "Feature", "properties": { "value": 0.0867 }, "geometry": { "type": "Point", "coordinates": [ 129.332062, 35.480587, 60.0 ] } },
{ "type": "Feature", "properties": { "value": 0.1147 }, "geometry": { "type": "Point", "coordinates": [ 129.314438, 35.481537, 60.0 ] } },
{ "type": "Feature", "properties": { "value": 0.3147 }, "geometry": { "type": "Point", "coordinates": [ 129.315536, 35.481533, 60.0 ] } },
{ "type": "Feature", "properties": { "value": 0.7085 }, "geometry": { "type": "Point", "coordinates": [ 129.316635, 35.481529, 60.0 ] } },
{ "type": "Feature", "properties": { "value": 1.4439 }, "geometry": { "type": "Point", "coordinates": [ 129.317734, 35.481525, 60.0 ] } },
{ "type": "Feature", "properties": { "value": 2.6706 }, "geometry": { "type": "Point", "coordinates": [ 129.318848, 35.481525, 60.0 ] } },
{ "type": "Feature", "properties": { "value": 4.4793 }, "geometry": { "type": "Point", "coordinates": [ 129.319946, 35.481522, 60.0 ] } },
{ "type": "Feature", "properties": { "value": 6.6754 }, "geometry": { "type": "Point", "coordinates": [ 129.321045, 35.481518, 60.0 ] } },
{ "type": "Feature", "properties": { "value": 8.7897 }, "geometry": { "type": "Point", "coordinates": [ 129.322144, 35.481514, 60.0 ] } },
{ "type": "Feature", "properties": { "value": 10.153 }, "geometry": { "type": "Point", "coordinates": [ 129.323242, 35.481514, 60.0 ] } },
{ "type": "Feature", "properties": { "value": 10.186 }, "geometry": { "type": "Point", "coordinates": [ 129.324356, 35.48151, 60.0 ] } },
{ "type": "Feature", "properties": { "value": 8.8346 }, "geometry": { "type": "Point", "coordinates": [ 129.325455, 35.481506, 60.0 ] } },
{ "type": "Feature", "properties": { "value": 6.5856 }, "geometry": { "type": "Point", "coordinates": [ 129.326553, 35.481503, 60.0 ] } },
{ "type": "Feature", "properties": { "value": 4.1918 }, "geometry": { "type": "Point", "coordinates": [ 129.327652, 35.481503, 60.0 ] } },
{ "type": "Feature", "properties": { "value": 2.2863 }, "geometry": { "type": "Point", "coordinates": [ 129.328751, 35.481499, 60.0 ] } },
{ "type": "Feature", "properties": { "value": 1.0467 }, "geometry": { "type": "Point", "coordinates": [ 129.329865, 35.481495, 60.0 ] } },
{ "type": "Feature", "properties": { "value": 0.3976 }, "geometry": { "type": "Point", "coordinates": [ 129.330963, 35.481491, 60.0 ] } },
{ "type": "Feature", "properties": { "value": 0.0926 }, "geometry": { "type": "Point", "coordinates": [ 129.332062, 35.481487, 60.0 ] } },
{ "type": "Feature", "properties": { "value": 0.0558 }, "geometry": { "type": "Point", "coordinates": [ 129.313339, 35.482441, 60.0 ] } },
{ "type": "Feature", "properties": { "value": 0.1853 }, "geometry": { "type": "Point", "coordinates": [ 129.314438, 35.482437, 60.0 ] } },
{ "type": "Feature", "properties": { "value": 0.4284 }, "geometry": { "type": "Point", "coordinates": [ 129.315536, 35.482433, 60.0 ] } },
{ "type": "Feature", "properties": { "value": 0.9036 }, "geometry": { "type": "Point", "coordinates": [ 129.316635, 35.48243, 60.0 ] } },
{ "type": "Feature", "properties": { "value": 1.7307 }, "geometry": { "type": "Point", "coordinates": [ 129.317749, 35.48243, 60.0 ] } },
{ "type": "Feature", "properties": { "value": 3.0213 }, "geometry": { "type": "Point", "coordinates": [ 129.318848, 35.482426, 60.0 ] } },
{ "type": "Feature", "properties": { "value": 4.7859 }, "geometry": { "type": "Point", "coordinates": [ 129.319946, 35.482422, 60.0 ] } },
{ "type": "Feature", "properties": { "value": 6.8041 }, "geometry": { "type": "Point", "coordinates": [ 129.321045, 35.482418, 60.0 ] } },
{ "type": "Feature", "properties": { "value": 8.6007 }, "geometry": { "type": "Point", "coordinates": [ 129.322144, 35.482418, 60.0 ] } },
{ "type": "Feature", "properties": { "value": 9.5768 }, "geometry": { "type": "Point", "coordinates": [ 129.323257, 35.482414, 60.0 ] } },
{ "type": "Feature", "properties": { "value": 9.358 }, "geometry": { "type": "Point", "coordinates": [ 129.324356, 35.48241, 60.0 ] } },
{ "type": "Feature", "properties": { "value": 7.961 }, "geometry": { "type": "Point", "coordinates": [ 129.325455, 35.482407, 60.0 ] } },
{ "type": "Feature", "properties": { "value": 5.8642 }, "geometry": { "type": "Point", "coordinates": [ 129.326553, 35.482407, 60.0 ] } },
{ "type": "Feature", "properties": { "value": 3.7327 }, "geometry": { "type": "Point", "coordinates": [ 129.327652, 35.482403, 60.0 ] } },
{ "type": "Feature", "properties": { "value": 2.0471 }, "geometry": { "type": "Point", "coordinates": [ 129.328766, 35.482399, 60.0 ] } },
{ "type": "Feature", "properties": { "value": 0.9714 }, "geometry": { "type": "Point", "coordinates": [ 129.329865, 35.482395, 60.0 ] } },
{ "type": "Feature", "properties": { "value": 0.3866 }, "geometry": { "type": "Point", "coordinates": [ 129.330963, 35.482391, 60.0 ] } },
{ "type": "Feature", "properties": { "value": 0.1009 }, "geometry": { "type": "Point", "coordinates": [ 129.332062, 35.482391, 60.0 ] } },
{ "type": "Feature", "properties": { "value": 0.0283 }, "geometry": { "type": "Point", "coordinates": [ 129.312241, 35.483345, 60.0 ] } },
{ "type": "Feature", "properties": { "value": 0.1022 }, "geometry": { "type": "Point", "coordinates": [ 129.313339, 35.483341, 60.0 ] } },
{ "type": "Feature", "properties": { "value": 0.259 }, "geometry": { "type": "Point", "coordinates": [ 129.314438, 35.483337, 60.0 ] } },
{ "type": "Feature", "properties": { "value": 0.5502 }, "geometry": { "type": "Point", "coordinates": [ 129.315536, 35.483337, 60.0 ] } },
{ "type": "Feature", "properties": { "value": 1.0964 }, "geometry": { "type": "Point", "coordinates": [ 129.31665, 35.483334, 60.0 ] } },
{ "type": "Feature", "properties": { "value": 1.9879 }, "geometry": { "type": "Point", "coordinates": [ 129.317749, 35.48333, 60.0 ] } },
{ "type": "Feature", "properties": { "value": 3.2956 }, "geometry": { "type": "Point", "coordinates": [ 129.318848, 35.483326, 60.0 ] } },
{ "type": "Feature", "properties": { "value": 4.9742 }, "geometry": { "type": "Point", "coordinates": [ 129.319946, 35.483322, 60.0 ] } },
{ "type": "Feature", "properties": { "value": 6.7692 }, "geometry": { "type": "Point", "coordinates": [ 129.321045, 35.483322, 60.0 ] } },
{ "type": "Feature", "properties": { "value": 8.2374 }, "geometry": { "type": "Point", "coordinates": [ 129.322159, 35.483318, 60.0 ] } },
{ "type": "Feature", "properties": { "value": 8.8912 }, "geometry": { "type": "Point", "coordinates": [ 129.323257, 35.483315, 60.0 ] } },
{ "type": "Feature", "properties": { "value": 8.4697 }, "geometry": { "type": "Point", "coordinates": [ 129.324356, 35.483311, 60.0 ] } },
{ "type": "Feature", "properties": { "value": 7.0875 }, "geometry": { "type": "Point", "coordinates": [ 129.325455, 35.483311, 60.0 ] } },
{ "type": "Feature", "properties": { "value": 5.1822 }, "geometry": { "type": "Point", "coordinates": [ 129.326553, 35.483307, 60.0 ] } },
{ "type": "Feature", "properties": { "value": 3.2936 }, "geometry": { "type": "Point", "coordinates": [ 129.327667, 35.483303, 60.0 ] } },
{ "type": "Feature", "properties": { "value": 1.8359 }, "geometry": { "type": "Point", "coordinates": [ 129.328766, 35.483299, 60.0 ] } },
{ "type": "Feature", "properties": { "value": 0.8817 }, "geometry": { "type": "Point", "coordinates": [ 129.329865, 35.483295, 60.0 ] } },
{ "type": "Feature", "properties": { "value": 0.3626 }, "geometry": { "type": "Point", "coordinates": [ 129.330963, 35.483295, 60.0 ] } },
{ "type": "Feature", "properties": { "value": 0.1005 }, "geometry": { "type": "Point", "coordinates": [ 129.332077, 35.483292, 60.0 ] } },
{ "type": "Feature", "properties": { "value": 0.0083 }, "geometry": { "type": "Point", "coordinates": [ 129.311142, 35.484249, 60.0 ] } },
{ "type": "Feature", "properties": { "value": 0.0548 }, "geometry": { "type": "Point", "coordinates": [ 129.312241, 35.484245, 60.0 ] } },
{ "type": "Feature", "properties": { "value": 0.1471 }, "geometry": { "type": "Point", "coordinates": [ 129.313339, 35.484241, 60.0 ] } },
{ "type": "Feature", "properties": { "value": 0.3295 }, "geometry": { "type": "Point", "coordinates": [ 129.314438, 35.484241, 60.0 ] } },
{ "type": "Feature", "properties": { "value": 0.6764 }, "geometry": { "type": "Point", "coordinates": [ 129.315552, 35.484238, 60.0 ] } },
{ "type": "Feature", "properties": { "value": 1.2667 }, "geometry": { "type": "Point", "coordinates": [ 129.31665, 35.484234, 60.0 ] } },
{ "type": "Feature", "properties": { "value": 2.1795 }, "geometry": { "type": "Point", "coordinates": [ 129.317749, 35.48423, 60.0 ] } },
{ "type": "Feature", "properties": { "value": 3.4641 }, "geometry": { "type": "Point", "coordinates": [ 129.318848, 35.48423, 60.0 ] } },
{ "type": "Feature", "properties": { "value": 5.0085 }, "geometry": { "type": "Point", "coordinates": [ 129.319946, 35.484226, 60.0 ] } },
{ "type": "Feature", "properties": { "value": 6.5564 }, "geometry": { "type": "Point", "coordinates": [ 129.32106, 35.484222, 60.0 ] } },
{ "type": "Feature", "properties": { "value": 7.7057 }, "geometry": { "type": "Point", "coordinates": [ 129.322159, 35.484219, 60.0 ] } },
{ "type": "Feature", "properties": { "value": 8.101 }, "geometry": { "type": "Point", "coordinates": [ 129.323257, 35.484215, 60.0 ] } },
{ "type": "Feature", "properties": { "value": 7.5576 }, "geometry": { "type": "Point", "coordinates": [ 129.324356, 35.484215, 60.0 ] } },
{ "type": "Feature", "properties": { "value": 6.2387 }, "geometry": { "type": "Point", "coordinates": [ 129.325455, 35.484211, 60.0 ] } },
{ "type": "Feature", "properties": { "value": 4.5263 }, "geometry": { "type": "Point", "coordinates": [ 129.326569, 35.484207, 60.0 ] } },
{ "type": "Feature", "properties": { "value": 2.8976 }, "geometry": { "type": "Point", "coordinates": [ 129.327667, 35.484203, 60.0 ] } },
{ "type": "Feature", "properties": { "value": 1.627 }, "geometry": { "type": "Point", "coordinates": [ 129.328766, 35.484203, 60.0 ] } },
{ "type": "Feature", "properties": { "value": 0.8024 }, "geometry": { "type": "Point", "coordinates": [ 129.329865, 35.4842, 60.0 ] } },
{ "type": "Feature", "properties": { "value": 0.3355 }, "geometry": { "type": "Point", "coordinates": [ 129.330978, 35.484196, 60.0 ] } },
{ "type": "Feature", "properties": { "value": 0.1105 }, "geometry": { "type": "Point", "coordinates": [ 129.332077, 35.484192, 60.0 ] } },
{ "type": "Feature", "properties": { "value": 0.0261 }, "geometry": { "type": "Point", "coordinates": [ 129.311142, 35.485149, 60.0 ] } },
{ "type": "Feature", "properties": { "value": 0.0808 }, "geometry": { "type": "Point", "coordinates": [ 129.312241, 35.485146, 60.0 ] } },
{ "type": "Feature", "properties": { "value": 0.1892 }, "geometry": { "type": "Point", "coordinates": [ 129.313339, 35.485146, 60.0 ] } },
{ "type": "Feature", "properties": { "value": 0.4007 }, "geometry": { "type": "Point", "coordinates": [ 129.314453, 35.485142, 60.0 ] } },
{ "type": "Feature", "properties": { "value": 0.7756 }, "geometry": { "type": "Point", "coordinates": [ 129.315552, 35.485138, 60.0 ] } },
{ "type": "Feature", "properties": { "value": 1.3934 }, "geometry": { "type": "Point", "coordinates": [ 129.31665, 35.485134, 60.0 ] } },
{ "type": "Feature", "properties": { "value": 2.2995 }, "geometry": { "type": "Point", "coordinates": [ 129.317749, 35.485134, 60.0 ] } },
{ "type": "Feature", "properties": { "value": 3.4987 }, "geometry": { "type": "Point", "coordinates": [ 129.318848, 35.48513, 60.0 ] } },
{ "type": "Feature", "properties": { "value": 4.8731 }, "geometry": { "type": "Point", "coordinates": [ 129.319962, 35.485126, 60.0 ] } },
{ "type": "Feature", "properties": { "value": 6.1674 }, "geometry": { "type": "Point", "coordinates": [ 129.32106, 35.485123, 60.0 ] } },
{ "type": "Feature", "properties": { "value": 7.0485 }, "geometry": { "type": "Point", "coordinates": [ 129.322159, 35.485119, 60.0 ] } },
{ "type": "Feature", "properties": { "value": 7.2244 }, "geometry": { "type": "Point", "coordinates": [ 129.323257, 35.485119, 60.0 ] } },
{ "type": "Feature", "properties": { "value": 6.6199 }, "geometry": { "type": "Point", "coordinates": [ 129.324371, 35.485115, 60.0 ] } },
{ "type": "Feature", "properties": { "value": 5.4026 }, "geometry": { "type": "Point", "coordinates": [ 129.32547, 35.485111, 60.0 ] } },
{ "type": "Feature", "properties": { "value": 3.9121 }, "geometry": { "type": "Point", "coordinates": [ 129.326569, 35.485107, 60.0 ] } },
{ "type": "Feature", "properties": { "value": 2.5066 }, "geometry": { "type": "Point", "coordinates": [ 129.327667, 35.485107, 60.0 ] } },
{ "type": "Feature", "properties": { "value": 1.4209 }, "geometry": { "type": "Point", "coordinates": [ 129.328766, 35.485104, 60.0 ] } },
{ "type": "Feature", "properties": { "value": 0.7135 }, "geometry": { "type": "Point", "coordinates": [ 129.32988, 35.4851, 60.0 ] } },
{ "type": "Feature", "properties": { "value": 0.3136 }, "geometry": { "type": "Point", "coordinates": [ 129.330978, 35.485096, 60.0 ] } },
{ "type": "Feature", "properties": { "value": 0.1088 }, "geometry": { "type": "Point", "coordinates": [ 129.332077, 35.485092, 60.0 ] } },
{ "type": "Feature", "properties": { "value": 0.007 }, "geometry": { "type": "Point", "coordinates": [ 129.310043, 35.486053, 60.0 ] } },
{ "type": "Feature", "properties": { "value": 0.0394 }, "geometry": { "type": "Point", "coordinates": [ 129.311142, 35.48605, 60.0 ] } },
{ "type": "Feature", "properties": { "value": 0.1014 }, "geometry": { "type": "Point", "coordinates": [ 129.312241, 35.48605, 60.0 ] } },
{ "type": "Feature", "properties": { "value": 0.2203 }, "geometry": { "type": "Point", "coordinates": [ 129.313354, 35.486046, 60.0 ] } },
{ "type": "Feature", "properties": { "value": 0.4514 }, "geometry": { "type": "Point", "coordinates": [ 129.314453, 35.486042, 60.0 ] } },
{ "type": "Feature", "properties": { "value": 0.843 }, "geometry": { "type": "Point", "coordinates": [ 129.315552, 35.486038, 60.0 ] } },
{ "type": "Feature", "properties": { "value": 1.4599 }, "geometry": { "type": "Point", "coordinates": [ 129.31665, 35.486038, 60.0 ] } },
{ "type": "Feature", "properties": { "value": 2.3232 }, "geometry": { "type": "Point", "coordinates": [ 129.317749, 35.486034, 60.0 ] } },
{ "type": "Feature", "properties": { "value": 3.4117 }, "geometry": { "type": "Point", "coordinates": [ 129.318863, 35.486031, 60.0 ] } },
{ "type": "Feature", "properties": { "value": 4.5958 }, "geometry": { "type": "Point", "coordinates": [ 129.319962, 35.486027, 60.0 ] } },
{ "type": "Feature", "properties": { "value": 5.6439 }, "geometry": { "type": "Point", "coordinates": [ 129.32106, 35.486027, 60.0 ] } },
{ "type": "Feature", "properties": { "value": 6.2784 }, "geometry": { "type": "Point", "coordinates": [ 129.322159, 35.486023, 60.0 ] } },
{ "type": "Feature", "properties": { "value": 6.3111 }, "geometry": { "type": "Point", "coordinates": [ 129.323273, 35.486019, 60.0 ] } },
{ "type": "Feature", "properties": { "value": 5.697 }, "geometry": { "type": "Point", "coordinates": [ 129.324371, 35.486015, 60.0 ] } },
{ "type": "Feature", "properties": { "value": 4.6015 }, "geometry": { "type": "Point", "coordinates": [ 129.32547, 35.486012, 60.0 ] } },
{ "type": "Feature", "properties": { "value": 3.3167 }, "geometry": { "type": "Point", "coordinates": [ 129.326569, 35.486012, 60.0 ] } },
{ "type": "Feature", "properties": { "value": 2.1408 }, "geometry": { "type": "Point", "coordinates": [ 129.327667, 35.486008, 60.0 ] } },
{ "type": "Feature", "properties": { "value": 1.2293 }, "geometry": { "type": "Point", "coordinates": [ 129.328781, 35.486004, 60.0 ] } },
{ "type": "Feature", "properties": { "value": 0.6246 }, "geometry": { "type": "Point", "coordinates": [ 129.32988, 35.486, 60.0 ] } },
{ "type": "Feature", "properties": { "value": 0.2807 }, "geometry": { "type": "Point", "coordinates": [ 129.330978, 35.485996, 60.0 ] } },
{ "type": "Feature", "properties": { "value": 0.0999 }, "geometry": { "type": "Point", "coordinates": [ 129.332077, 35.485996, 60.0 ] } },
{ "type": "Feature", "properties": { "value": 0.0145 }, "geometry": { "type": "Point", "coordinates": [ 129.310043, 35.486954, 60.0 ] } },
{ "type": "Feature", "properties": { "value": 0.0474 }, "geometry": { "type": "Point", "coordinates": [ 129.311142, 35.486954, 60.0 ] } },
{ "type": "Feature", "properties": { "value": 0.1172 }, "geometry": { "type": "Point", "coordinates": [ 129.312256, 35.48695, 60.0 ] } },
{ "type": "Feature", "properties": { "value": 0.2468 }, "geometry": { "type": "Point", "coordinates": [ 129.313354, 35.486946, 60.0 ] } },
{ "type": "Feature", "properties": { "value": 0.4805 }, "geometry": { "type": "Point", "coordinates": [ 129.314453, 35.486942, 60.0 ] } },
{ "type": "Feature", "properties": { "value": 0.8684 }, "geometry": { "type": "Point", "coordinates": [ 129.315552, 35.486942, 60.0 ] } },
{ "type": "Feature", "properties": { "value": 1.4492 }, "geometry": { "type": "Point", "coordinates": [ 129.31665, 35.486938, 60.0 ] } },
{ "type": "Feature", "properties": { "value": 2.246 }, "geometry": { "type": "Point", "coordinates": [ 129.317764, 35.486935, 60.0 ] } },
{ "type": "Feature", "properties": { "value": 3.1989 }, "geometry": { "type": "Point", "coordinates": [ 129.318863, 35.486931, 60.0 ] } },
{ "type": "Feature", "properties": { "value": 4.1867 }, "geometry": { "type": "Point", "coordinates": [ 129.319962, 35.486931, 60.0 ] } },
{ "type": "Feature", "properties": { "value": 5.0032 }, "geometry": { "type": "Point", "coordinates": [ 129.32106, 35.486927, 60.0 ] } },
{ "type": "Feature", "properties": { "value": 5.4397 }, "geometry": { "type": "Point", "coordinates": [ 129.322174, 35.486923, 60.0 ] } },
{ "type": "Feature", "properties": { "value": 5.3781 }, "geometry": { "type": "Point", "coordinates": [ 129.323273, 35.486919, 60.0 ] } },
{ "type": "Feature", "properties": { "value": 4.7807 }, "geometry": { "type": "Point", "coordinates": [ 129.324371, 35.486916, 60.0 ] } },
{ "type": "Feature", "properties": { "value": 3.8318 }, "geometry": { "type": "Point", "coordinates": [ 129.32547, 35.486916, 60.0 ] } },
{ "type": "Feature", "properties": { "value": 2.7663 }, "geometry": { "type": "Point", "coordinates": [ 129.326569, 35.486912, 60.0 ] } },
{ "type": "Feature", "properties": { "value": 1.7911 }, "geometry": { "type": "Point", "coordinates": [ 129.327682, 35.486908, 60.0 ] } },
{ "type": "Feature", "properties": { "value": 1.0402 }, "geometry": { "type": "Point", "coordinates": [ 129.328781, 35.486904, 60.0 ] } },
{ "type": "Feature", "properties": { "value": 0.5365 }, "geometry": { "type": "Point", "coordinates": [ 129.32988, 35.486904, 60.0 ] } },
{ "type": "Feature", "properties": { "value": 0.246 }, "geometry": { "type": "Point", "coordinates": [ 129.330978, 35.4869, 60.0 ] } },
{ "type": "Feature", "properties": { "value": 0.0921 }, "geometry": { "type": "Point", "coordinates": [ 129.332092, 35.486897, 60.0 ] } },
{ "type": "Feature", "properties": { "value": 0.0083 }, "geometry": { "type": "Point", "coordinates": [ 129.333191, 35.486893, 60.0 ] } },
{ "type": "Feature", "properties": { "value": 0.0168 }, "geometry": { "type": "Point", "coordinates": [ 129.310043, 35.487858, 60.0 ] } },
{ "type": "Feature", "properties": { "value": 0.0526 }, "geometry": { "type": "Point", "coordinates": [ 129.311157, 35.487854, 60.0 ] } },
{ "type": "Feature", "properties": { "value": 0.1211 }, "geometry": { "type": "Point", "coordinates": [ 129.312256, 35.48785, 60.0 ] } },
{ "type": "Feature", "properties": { "value": 0.2525 }, "geometry": { "type": "Point", "coordinates": [ 129.313354, 35.487846, 60.0 ] } },
{ "type": "Feature", "properties": { "value": 0.4825 }, "geometry": { "type": "Point", "coordinates": [ 129.314453, 35.487846, 60.0 ] } },
{ "type": "Feature", "properties": { "value": 0.8487 }, "geometry": { "type": "Point", "coordinates": [ 129.315552, 35.487843, 60.0 ] } },
{ "type": "Feature", "properties": { "value": 1.3755 }, "geometry": { "type": "Point", "coordinates": [ 129.316666, 35.487839, 60.0 ] } },
{ "type": "Feature", "properties": { "value": 2.0684 }, "geometry": { "type": "Point", "coordinates": [ 129.317764, 35.487835, 60.0 ] } },
{ "type": "Feature", "properties": { "value": 2.8726 }, "geometry": { "type": "Point", "coordinates": [ 129.318863, 35.487835, 60.0 ] } },
{ "type": "Feature", "properties": { "value": 3.6715 }, "geometry": { "type": "Point", "coordinates": [ 129.319962, 35.487831, 60.0 ] } },
{ "type": "Feature", "properties": { "value": 4.2977 }, "geometry": { "type": "Point", "coordinates": [ 129.321075, 35.487827, 60.0 ] } },
{ "type": "Feature", "properties": { "value": 4.5732 }, "geometry": { "type": "Point", "coordinates": [ 129.322174, 35.487823, 60.0 ] } },
{ "type": "Feature", "properties": { "value": 4.4665 }, "geometry": { "type": "Point", "coordinates": [ 129.323273, 35.48782, 60.0 ] } },
{ "type": "Feature", "properties": { "value": 3.9268 }, "geometry": { "type": "Point", "coordinates": [ 129.324371, 35.48782, 60.0 ] } },
{ "type": "Feature", "properties": { "value": 3.1247 }, "geometry": { "type": "Point", "coordinates": [ 129.32547, 35.487816, 60.0 ] } },
{ "type": "Feature", "properties": { "value": 2.2573 }, "geometry": { "type": "Point", "coordinates": [ 129.326584, 35.487812, 60.0 ] } },
{ "type": "Feature", "properties": { "value": 1.4681 }, "geometry": { "type": "Point", "coordinates": [ 129.327682, 35.487808, 60.0 ] } },
{ "type": "Feature", "properties": { "value": 0.8612 }, "geometry": { "type": "Point", "coordinates": [ 129.328781, 35.487808, 60.0 ] } },
{ "type": "Feature", "properties": { "value": 0.457 }, "geometry": { "type": "Point", "coordinates": [ 129.32988, 35.487804, 60.0 ] } },
{ "type": "Feature", "properties": { "value": 0.209 }, "geometry": { "type": "Point", "coordinates": [ 129.330994, 35.487801, 60.0 ] } },
{ "type": "Feature", "properties": { "value": 0.0813 }, "geometry": { "type": "Point", "coordinates": [ 129.332092, 35.487797, 60.0 ] } },
{ "type": "Feature", "properties": { "value": 0.0156 }, "geometry": { "type": "Point", "coordinates": [ 129.333191, 35.487793, 60.0 ] } },
{ "type": "Feature", "properties": { "value": 0.0016 }, "geometry": { "type": "Point", "coordinates": [ 129.308945, 35.488762, 60.0 ] } },
{ "type": "Feature", "properties": { "value": 0.0182 }, "geometry": { "type": "Point", "coordinates": [ 129.310059, 35.488758, 60.0 ] } },
{ "type": "Feature", "properties": { "value": 0.0544 }, "geometry": { "type": "Point", "coordinates": [ 129.311157, 35.488754, 60.0 ] } },
{ "type": "Feature", "properties": { "value": 0.1218 }, "geometry": { "type": "Point", "coordinates": [ 129.312256, 35.48875, 60.0 ] } },
{ "type": "Feature", "properties": { "value": 0.2474 }, "geometry": { "type": "Point", "coordinates": [ 129.313354, 35.48875, 60.0 ] } },
{ "type": "Feature", "properties": { "value": 0.456 }, "geometry": { "type": "Point", "coordinates": [ 129.314453, 35.488747, 60.0 ] } },
{ "type": "Feature", "properties": { "value": 0.7846 }, "geometry": { "type": "Point", "coordinates": [ 129.315567, 35.488743, 60.0 ] } },
{ "type": "Feature", "properties": { "value": 1.2423 }, "geometry": { "type": "Point", "coordinates": [ 129.316666, 35.488739, 60.0 ] } },
{ "type": "Feature", "properties": { "value": 1.8242 }, "geometry": { "type": "Point", "coordinates": [ 129.317764, 35.488739, 60.0 ] } },
{ "type": "Feature", "properties": { "value": 2.4772 }, "geometry": { "type": "Point", "coordinates": [ 129.318863, 35.488735, 60.0 ] } },
{ "type": "Feature", "properties": { "value": 3.1017 }, "geometry": { "type": "Point", "coordinates": [ 129.319977, 35.488731, 60.0 ] } },
{ "type": "Feature", "properties": { "value": 3.5604 }, "geometry": { "type": "Point", "coordinates": [ 129.321075, 35.488728, 60.0 ] } },
{ "type": "Feature", "properties": { "value": 3.75 }, "geometry": { "type": "Point", "coordinates": [ 129.322174, 35.488728, 60.0 ] } },
{ "type": "Feature", "properties": { "value": 3.5998 }, "geometry": { "type": "Point", "coordinates": [ 129.323273, 35.488724, 60.0 ] } },
{ "type": "Feature", "properties": { "value": 3.1426 }, "geometry": { "type": "Point", "coordinates": [ 129.324371, 35.48872, 60.0 ] } },
{ "type": "Feature", "properties": { "value": 2.497 }, "geometry": { "type": "Point", "coordinates": [ 129.325485, 35.488716, 60.0 ] } },
{ "type": "Feature", "properties": { "value": 1.7986 }, "geometry": { "type": "Point", "coordinates": [ 129.326584, 35.488712, 60.0 ] } },
{ "type": "Feature", "properties": { "value": 1.1772 }, "geometry": { "type": "Point", "coordinates": [ 129.327682, 35.488712, 60.0 ] } },
{ "type": "Feature", "properties": { "value": 0.6938 }, "geometry": { "type": "Point", "coordinates": [ 129.328781, 35.488708, 60.0 ] } },
{ "type": "Feature", "properties": { "value": 0.3723 }, "geometry": { "type": "Point", "coordinates": [ 129.329895, 35.488705, 60.0 ] } },
{ "type": "Feature", "properties": { "value": 0.1747 }, "geometry": { "type": "Point", "coordinates": [ 129.330994, 35.488701, 60.0 ] } },
{ "type": "Feature", "properties": { "value": 0.0706 }, "geometry": { "type": "Point", "coordinates": [ 129.332092, 35.488697, 60.0 ] } },
{ "type": "Feature", "properties": { "value": 0.0145 }, "geometry": { "type": "Point", "coordinates": [ 129.333191, 35.488697, 60.0 ] } },
{ "type": "Feature", "properties": { "value": 0.0017 }, "geometry": { "type": "Point", "coordinates": [ 129.30896, 35.489662, 60.0 ] } },
{ "type": "Feature", "properties": { "value": 0.0182 }, "geometry": { "type": "Point", "coordinates": [ 129.310059, 35.489658, 60.0 ] } },
{ "type": "Feature", "properties": { "value": 0.049 }, "geometry": { "type": "Point", "coordinates": [ 129.311157, 35.489655, 60.0 ] } },
{ "type": "Feature", "properties": { "value": 0.1109 }, "geometry": { "type": "Point", "coordinates": [ 129.312256, 35.489655, 60.0 ] } },
{ "type": "Feature", "properties": { "value": 0.2236 }, "geometry": { "type": "Point", "coordinates": [ 129.313354, 35.489651, 60.0 ] } },
{ "type": "Feature", "properties": { "value": 0.4048 }, "geometry": { "type": "Point", "coordinates": [ 129.314468, 35.489647, 60.0 ] } },
{ "type": "Feature", "properties": { "value": 0.6854 }, "geometry": { "type": "Point", "coordinates": [ 129.315567, 35.489643, 60.0 ] } },
{ "type": "Feature", "properties": { "value": 1.0657 }, "geometry": { "type": "Point", "coordinates": [ 129.316666, 35.489643, 60.0 ] } },
{ "type": "Feature", "properties": { "value": 1.5356 }, "geometry": { "type": "Point", "coordinates": [ 129.317764, 35.489639, 60.0 ] } },
{ "type": "Feature", "properties": { "value": 2.0456 }, "geometry": { "type": "Point", "coordinates": [ 129.318878, 35.489635, 60.0 ] } },
{ "type": "Feature", "properties": { "value": 2.508 }, "geometry": { "type": "Point", "coordinates": [ 129.319977, 35.489632, 60.0 ] } },
{ "type": "Feature", "properties": { "value": 2.8403 }, "geometry": { "type": "Point", "coordinates": [ 129.321075, 35.489632, 60.0 ] } },
{ "type": "Feature", "properties": { "value": 2.9491 }, "geometry": { "type": "Point", "coordinates": [ 129.322174, 35.489628, 60.0 ] } },
{ "type": "Feature", "properties": { "value": 2.8035 }, "geometry": { "type": "Point", "coordinates": [ 129.323273, 35.489624, 60.0 ] } },
{ "type": "Feature", "properties": { "value": 2.4365 }, "geometry": { "type": "Point", "coordinates": [ 129.324387, 35.48962, 60.0 ] } },
{ "type": "Feature", "properties": { "value": 1.9338 }, "geometry": { "type": "Point", "coordinates": [ 129.325485, 35.489616, 60.0 ] } },
{ "type": "Feature", "properties": { "value": 1.3976 }, "geometry": { "type": "Point", "coordinates": [ 129.326584, 35.489616, 60.0 ] } },
{ "type": "Feature", "properties": { "value": 0.9169 }, "geometry": { "type": "Point", "coordinates": [ 129.327682, 35.489613, 60.0 ] } },
{ "type": "Feature", "properties": { "value": 0.5471 }, "geometry": { "type": "Point", "coordinates": [ 129.328796, 35.489609, 60.0 ] } },
{ "type": "Feature", "properties": { "value": 0.2927 }, "geometry": { "type": "Point", "coordinates": [ 129.329895, 35.489605, 60.0 ] } },
{ "type": "Feature", "properties": { "value": 0.1397 }, "geometry": { "type": "Point", "coordinates": [ 129.330994, 35.489605, 60.0 ] } },
{ "type": "Feature", "properties": { "value": 0.0562 }, "geometry": { "type": "Point", "coordinates": [ 129.332092, 35.489601, 60.0 ] } },
{ "type": "Feature", "properties": { "value": 0.0109 }, "geometry": { "type": "Point", "coordinates": [ 129.333191, 35.489597, 60.0 ] } },
{ "type": "Feature", "properties": { "value": 0.0017 }, "geometry": { "type": "Point", "coordinates": [ 129.30896, 35.490562, 60.0 ] } },
{ "type": "Feature", "properties": { "value": 0.017 }, "geometry": { "type": "Point", "coordinates": [ 129.310059, 35.490559, 60.0 ] } },
{ "type": "Feature", "properties": { "value": 0.0444 }, "geometry": { "type": "Point", "coordinates": [ 129.311157, 35.490559, 60.0 ] } },
{ "type": "Feature", "properties": { "value": 0.0962 }, "geometry": { "type": "Point", "coordinates": [ 129.312271, 35.490555, 60.0 ] } },
{ "type": "Feature", "properties": { "value": 0.1894 }, "geometry": { "type": "Point", "coordinates": [ 129.31337, 35.490551, 60.0 ] } },
{ "type": "Feature", "properties": { "value": 0.3383 }, "geometry": { "type": "Point", "coordinates": [ 129.314468, 35.490547, 60.0 ] } },
{ "type": "Feature", "properties": { "value": 0.5632 }, "geometry": { "type": "Point", "coordinates": [ 129.315567, 35.490547, 60.0 ] } },
{ "type": "Feature", "properties": { "value": 0.8665 }, "geometry": { "type": "Point", "coordinates": [ 129.316666, 35.490543, 60.0 ] } },
{ "type": "Feature", "properties": { "value": 1.2295 }, "geometry": { "type": "Point", "coordinates": [ 129.31778, 35.49054, 60.0 ] } },
{ "type": "Feature", "properties": { "value": 1.6083 }, "geometry": { "type": "Point", "coordinates": [ 129.318878, 35.490536, 60.0 ] } },
{ "type": "Feature", "properties": { "value": 1.9502 }, "geometry": { "type": "Point", "coordinates": [ 129.319977, 35.490536, 60.0 ] } },
{ "type": "Feature", "properties": { "value": 2.1726 }, "geometry": { "type": "Point", "coordinates": [ 129.321075, 35.490532, 60.0 ] } },
{ "type": "Feature", "properties": { "value": 2.2334 }, "geometry": { "type": "Point", "coordinates": [ 129.322174, 35.490528, 60.0 ] } },
{ "type": "Feature", "properties": { "value": 2.1058 }, "geometry": { "type": "Point", "coordinates": [ 129.323288, 35.490524, 60.0 ] } },
{ "type": "Feature", "properties": { "value": 1.8221 }, "geometry": { "type": "Point", "coordinates": [ 129.324387, 35.490524, 60.0 ] } },
{ "type": "Feature", "properties": { "value": 1.4378 }, "geometry": { "type": "Point", "coordinates": [ 129.325485, 35.49052, 60.0 ] } },
{ "type": "Feature", "properties": { "value": 1.0429 }, "geometry": { "type": "Point", "coordinates": [ 129.326584, 35.490517, 60.0 ] } },
{ "type": "Feature", "properties": { "value": 0.6857 }, "geometry": { "type": "Point", "coordinates": [ 129.327698, 35.490513, 60.0 ] } },
{ "type": "Feature", "properties": { "value": 0.411 }, "geometry": { "type": "Point", "coordinates": [ 129.328796, 35.490509, 60.0 ] } },
{ "type": "Feature", "properties": { "value": 0.2222 }, "geometry": { "type": "Point", "coordinates": [ 129.329895, 35.490509, 60.0 ] } },
{ "type": "Feature", "properties": { "value": 0.1086 }, "geometry": { "type": "Point", "coordinates": [ 129.330994, 35.490505, 60.0 ] } },
{ "type": "Feature", "properties": { "value": 0.0418 }, "geometry": { "type": "Point", "coordinates": [ 129.332092, 35.490501, 60.0 ] } },
{ "type": "Feature", "properties": { "value": 0.0069 }, "geometry": { "type": "Point", "coordinates": [ 129.333206, 35.490498, 60.0 ] } },
{ "type": "Feature", "properties": { "value": 0.0015 }, "geometry": { "type": "Point", "coordinates": [ 129.30896, 35.491463, 60.0 ] } },
{ "type": "Feature", "properties": { "value": 0.0121 }, "geometry": { "type": "Point", "coordinates": [ 129.310059, 35.491463, 60.0 ] } },
{ "type": "Feature", "properties": { "value": 0.0348 }, "geometry": { "type": "Point", "coordinates": [ 129.311172, 35.491459, 60.0 ] } },
{ "type": "Feature", "properties": { "value": 0.0782 }, "geometry": { "type": "Point", "coordinates": [ 129.312271, 35.491455, 60.0 ] } },
{ "type": "Feature", "properties": { "value": 0.15 }, "geometry": { "type": "Point", "coordinates": [ 129.31337, 35.491451, 60.0 ] } },
{ "type": "Feature", "properties": { "value": 0.2658 }, "geometry": { "type": "Point", "coordinates": [ 129.314468, 35.491451, 60.0 ] } },
{ "type": "Feature", "properties": { "value": 0.4382 }, "geometry": { "type": "Point", "coordinates": [ 129.315567, 35.491447, 60.0 ] } },
{ "type": "Feature", "properties": { "value": 0.6641 }, "geometry": { "type": "Point", "coordinates": [ 129.316681, 35.491444, 60.0 ] } },
{ "type": "Feature", "properties": { "value": 0.9295 }, "geometry": { "type": "Point", "coordinates": [ 129.31778, 35.49144, 60.0 ] } },
{ "type": "Feature", "properties": { "value": 1.2067 }, "geometry": { "type": "Point", "coordinates": [ 129.318878, 35.49144, 60.0 ] } },
{ "type": "Feature", "properties": { "value": 1.441 }, "geometry": { "type": "Point", "coordinates": [ 129.319977, 35.491436, 60.0 ] } },
{ "type": "Feature", "properties": { "value": 1.595 }, "geometry": { "type": "Point", "coordinates": [ 129.321091, 35.491432, 60.0 ] } },
{ "type": "Feature", "properties": { "value": 1.6208 }, "geometry": { "type": "Point", "coordinates": [ 129.322189, 35.491428, 60.0 ] } },
{ "type": "Feature", "properties": { "value": 1.516 }, "geometry": { "type": "Point", "coordinates": [ 129.323288, 35.491428, 60.0 ] } },
{ "type": "Feature", "properties": { "value": 1.3039 }, "geometry": { "type": "Point", "coordinates": [ 129.324387, 35.491425, 60.0 ] } },
{ "type": "Feature", "properties": { "value": 1.0313 }, "geometry": { "type": "Point", "coordinates": [ 129.325485, 35.491421, 60.0 ] } },
{ "type": "Feature", "properties": { "value": 0.7446 }, "geometry": { "type": "Point", "coordinates": [ 129.326599, 35.491417, 60.0 ] } },
{ "type": "Feature", "properties": { "value": 0.4931 }, "geometry": { "type": "Point", "coordinates": [ 129.327698, 35.491413, 60.0 ] } },
{ "type": "Feature", "properties": { "value": 0.2966 }, "geometry": { "type": "Point", "coordinates": [ 129.328796, 35.491413, 60.0 ] } },
{ "type": "Feature", "properties": { "value": 0.1608 }, "geometry": { "type": "Point", "coordinates": [ 129.329895, 35.491409, 60.0 ] } },
{ "type": "Feature", "properties": { "value": 0.076 }, "geometry": { "type": "Point", "coordinates": [ 129.331009, 35.491405, 60.0 ] } },
{ "type": "Feature", "properties": { "value": 0.0307 }, "geometry": { "type": "Point", "coordinates": [ 129.332108, 35.491402, 60.0 ] } },
{ "type": "Feature", "properties": { "value": 0.0032 }, "geometry": { "type": "Point", "coordinates": [ 129.333206, 35.491398, 60.0 ] } },
{ "type": "Feature", "properties": { "value": 0.0013 }, "geometry": { "type": "Point", "coordinates": [ 129.30896, 35.492367, 60.0 ] } },
{ "type": "Feature", "properties": { "value": 0.0085 }, "geometry": { "type": "Point", "coordinates": [ 129.310074, 35.492363, 60.0 ] } },
{ "type": "Feature", "properties": { "value": 0.0248 }, "geometry": { "type": "Point", "coordinates": [ 129.311172, 35.492359, 60.0 ] } },
{ "type": "Feature", "properties": { "value": 0.058 }, "geometry": { "type": "Point", "coordinates": [ 129.312271, 35.492355, 60.0 ] } },
{ "type": "Feature", "properties": { "value": 0.1111 }, "geometry": { "type": "Point", "coordinates": [ 129.31337, 35.492355, 60.0 ] } },
{ "type": "Feature", "properties": { "value": 0.1959 }, "geometry": { "type": "Point", "coordinates": [ 129.314468, 35.492352, 60.0 ] } },
{ "type": "Feature", "properties": { "value": 0.319 }, "geometry": { "type": "Point", "coordinates": [ 129.315582, 35.492348, 60.0 ] } },
{ "type": "Feature", "properties": { "value": 0.48 }, "geometry": { "type": "Point", "coordinates": [ 129.316681, 35.492344, 60.0 ] } },
{ "type": "Feature", "properties": { "value": 0.6679 }, "geometry": { "type": "Point", "coordinates": [ 129.31778, 35.492344, 60.0 ] } },
{ "type": "Feature", "properties": { "value": 0.8587 }, "geometry": { "type": "Point", "coordinates": [ 129.318878, 35.49234, 60.0 ] } },
{ "type": "Feature", "properties": { "value": 1.0159 }, "geometry": { "type": "Point", "coordinates": [ 129.319992, 35.492336, 60.0 ] } },
{ "type": "Feature", "properties": { "value": 1.1128 }, "geometry": { "type": "Point", "coordinates": [ 129.321091, 35.492332, 60.0 ] } },
{ "type": "Feature", "properties": { "value": 1.1255 }, "geometry": { "type": "Point", "coordinates": [ 129.322189, 35.492332, 60.0 ] } },
{ "type": "Feature", "properties": { "value": 1.0471 }, "geometry": { "type": "Point", "coordinates": [ 129.323288, 35.492329, 60.0 ] } },
{ "type": "Feature", "properties": { "value": 0.8951 }, "geometry": { "type": "Point", "coordinates": [ 129.324387, 35.492325, 60.0 ] } },
{ "type": "Feature", "properties": { "value": 0.7034 }, "geometry": { "type": "Point", "coordinates": [ 129.3255, 35.492321, 60.0 ] } },
{ "type": "Feature", "properties": { "value": 0.5113 }, "geometry": { "type": "Point", "coordinates": [ 129.326599, 35.492317, 60.0 ] } },
{ "type": "Feature", "properties": { "value": 0.3382 }, "geometry": { "type": "Point", "coordinates": [ 129.327698, 35.492317, 60.0 ] } },
{ "type": "Feature", "properties": { "value": 0.2041 }, "geometry": { "type": "Point", "coordinates": [ 129.328796, 35.492313, 60.0 ] } },
{ "type": "Feature", "properties": { "value": 0.1123 }, "geometry": { "type": "Point", "coordinates": [ 129.32991, 35.49231, 60.0 ] } },
{ "type": "Feature", "properties": { "value": 0.0531 }, "geometry": { "type": "Point", "coordinates": [ 129.331009, 35.492306, 60.0 ] } },
{ "type": "Feature", "properties": { "value": 0.0193 }, "geometry": { "type": "Point", "coordinates": [ 129.332108, 35.492306, 60.0 ] } },
{ "type": "Feature", "properties": { "value": 0.0054 }, "geometry": { "type": "Point", "coordinates": [ 129.310074, 35.493263, 60.0 ] } },
{ "type": "Feature", "properties": { "value": 0.017 }, "geometry": { "type": "Point", "coordinates": [ 129.311172, 35.493259, 60.0 ] } },
{ "type": "Feature", "properties": { "value": 0.0396 }, "geometry": { "type": "Point", "coordinates": [ 129.312271, 35.493259, 60.0 ] } },
{ "type": "Feature", "properties": { "value": 0.0764 }, "geometry": { "type": "Point", "coordinates": [ 129.31337, 35.493256, 60.0 ] } },
{ "type": "Feature", "properties": { "value": 0.135 }, "geometry": { "type": "Point", "coordinates": [ 129.314484, 35.493252, 60.0 ] } },
{ "type": "Feature", "properties": { "value": 0.2194 }, "geometry": { "type": "Point", "coordinates": [ 129.315582, 35.493248, 60.0 ] } },
{ "type": "Feature", "properties": { "value": 0.3281 }, "geometry": { "type": "Point", "coordinates": [ 129.316681, 35.493248, 60.0 ] } },
{ "type": "Feature", "properties": { "value": 0.4532 }, "geometry": { "type": "Point", "coordinates": [ 129.31778, 35.493244, 60.0 ] } },
{ "type": "Feature", "properties": { "value": 0.5762 }, "geometry": { "type": "Point", "coordinates": [ 129.318893, 35.49324, 60.0 ] } },
{ "type": "Feature", "properties": { "value": 0.6787 }, "geometry": { "type": "Point", "coordinates": [ 129.319992, 35.493237, 60.0 ] } },
{ "type": "Feature", "properties": { "value": 0.7367 }, "geometry": { "type": "Point", "coordinates": [ 129.321091, 35.493237, 60.0 ] } },
{ "type": "Feature", "properties": { "value": 0.7388 }, "geometry": { "type": "Point", "coordinates": [ 129.322189, 35.493233, 60.0 ] } },
{ "type": "Feature", "properties": { "value": 0.6841 }, "geometry": { "type": "Point", "coordinates": [ 129.323288, 35.493229, 60.0 ] } },
{ "type": "Feature", "properties": { "value": 0.5846 }, "geometry": { "type": "Point", "coordinates": [ 129.324402, 35.493225, 60.0 ] } },
{ "type": "Feature", "properties": { "value": 0.46 }, "geometry": { "type": "Point", "coordinates": [ 129.3255, 35.493225, 60.0 ] } },
{ "type": "Feature", "properties": { "value": 0.3304 }, "geometry": { "type": "Point", "coordinates": [ 129.326599, 35.493221, 60.0 ] } },
{ "type": "Feature", "properties": { "value": 0.2197 }, "geometry": { "type": "Point", "coordinates": [ 129.327698, 35.493217, 60.0 ] } },
{ "type": "Feature", "properties": { "value": 0.1326 }, "geometry": { "type": "Point", "coordinates": [ 129.328812, 35.493214, 60.0 ] } },
{ "type": "Feature", "properties": { "value": 0.0711 }, "geometry": { "type": "Point", "coordinates": [ 129.32991, 35.49321, 60.0 ] } },
{ "type": "Feature", "properties": { "value": 0.0333 }, "geometry": { "type": "Point", "coordinates": [ 129.331009, 35.49321, 60.0 ] } },
{ "type": "Feature", "properties": { "value": 0.0101 }, "geometry": { "type": "Point", "coordinates": [ 129.332108, 35.493206, 60.0 ] } },
{ "type": "Feature", "properties": { "value": 0.0017 }, "geometry": { "type": "Point", "coordinates": [ 129.310074, 35.494164, 60.0 ] } },
{ "type": "Feature", "properties": { "value": 0.0109 }, "geometry": { "type": "Point", "coordinates": [ 129.311172, 35.494164, 60.0 ] } },
{ "type": "Feature", "properties": { "value": 0.0247 }, "geometry": { "type": "Point", "coordinates": [ 129.312271, 35.49416, 60.0 ] } },
{ "type": "Feature", "properties": { "value": 0.0489 }, "geometry": { "type": "Point", "coordinates": [ 129.313385, 35.494156, 60.0 ] } },
{ "type": "Feature", "properties": { "value": 0.0871 }, "geometry": { "type": "Point", "coordinates": [ 129.314484, 35.494152, 60.0 ] } },
{ "type": "Feature", "properties": { "value": 0.1414 }, "geometry": { "type": "Point", "coordinates": [ 129.315582, 35.494152, 60.0 ] } },
{ "type": "Feature", "properties": { "value": 0.2109 }, "geometry": { "type": "Point", "coordinates": [ 129.316681, 35.494148, 60.0 ] } },
{ "type": "Feature", "properties": { "value": 0.2898 }, "geometry": { "type": "Point", "coordinates": [ 129.317795, 35.494144, 60.0 ] } },
{ "type": "Feature", "properties": { "value": 0.3644 }, "geometry": { "type": "Point", "coordinates": [ 129.318893, 35.494141, 60.0 ] } },
{ "type": "Feature", "properties": { "value": 0.4266 }, "geometry": { "type": "Point", "coordinates": [ 129.319992, 35.494141, 60.0 ] } },
{ "type": "Feature", "properties": { "value": 0.4627 }, "geometry": { "type": "Point", "coordinates": [ 129.321091, 35.494137, 60.0 ] } },
{ "type": "Feature", "properties": { "value": 0.4618 }, "geometry": { "type": "Point", "coordinates": [ 129.322189, 35.494133, 60.0 ] } },
{ "type": "Feature", "properties": { "value": 0.4261 }, "geometry": { "type": "Point", "coordinates": [ 129.323303, 35.494129, 60.0 ] } },
{ "type": "Feature", "properties": { "value": 0.3633 }, "geometry": { "type": "Point", "coordinates": [ 129.324402, 35.494129, 60.0 ] } },
{ "type": "Feature", "properties": { "value": 0.282 }, "geometry": { "type": "Point", "coordinates": [ 129.3255, 35.494125, 60.0 ] } },
{ "type": "Feature", "properties": { "value": 0.2051 }, "geometry": { "type": "Point", "coordinates": [ 129.326599, 35.494122, 60.0 ] } },
{ "type": "Feature", "properties": { "value": 0.1348 }, "geometry": { "type": "Point", "coordinates": [ 129.327713, 35.494118, 60.0 ] } },
{ "type": "Feature", "properties": { "value": 0.0807 }, "geometry": { "type": "Point", "coordinates": [ 129.328812, 35.494114, 60.0 ] } },
{ "type": "Feature", "properties": { "value": 0.0438 }, "geometry": { "type": "Point", "coordinates": [ 129.32991, 35.494114, 60.0 ] } },
{ "type": "Feature", "properties": { "value": 0.0186 }, "geometry": { "type": "Point", "coordinates": [ 129.331009, 35.49411, 60.0 ] } },
{ "type": "Feature", "properties": { "value": 0.0034 }, "geometry": { "type": "Point", "coordinates": [ 129.332108, 35.494106, 60.0 ] } },
{ "type": "Feature", "properties": { "value": 0.0053 }, "geometry": { "type": "Point", "coordinates": [ 129.311172, 35.495064, 60.0 ] } },
{ "type": "Feature", "properties": { "value": 0.0137 }, "geometry": { "type": "Point", "coordinates": [ 129.312286, 35.49506, 60.0 ] } },
{ "type": "Feature", "properties": { "value": 0.0287 }, "geometry": { "type": "Point", "coordinates": [ 129.313385, 35.495056, 60.0 ] } },
{ "type": "Feature", "properties": { "value": 0.0521 }, "geometry": { "type": "Point", "coordinates": [ 129.314484, 35.495056, 60.0 ] } },
{ "type": "Feature", "properties": { "value": 0.0852 }, "geometry": { "type": "Point", "coordinates": [ 129.315582, 35.495052, 60.0 ] } },
{ "type": "Feature", "properties": { "value": 0.1272 }, "geometry": { "type": "Point", "coordinates": [ 129.316696, 35.495049, 60.0 ] } },
{ "type": "Feature", "properties": { "value": 0.171 }, "geometry": { "type": "Point", "coordinates": [ 129.317795, 35.495045, 60.0 ] } },
{ "type": "Feature", "properties": { "value": 0.2179 }, "geometry": { "type": "Point", "coordinates": [ 129.318893, 35.495045, 60.0 ] } },
{ "type": "Feature", "properties": { "value": 0.2523 }, "geometry": { "type": "Point", "coordinates": [ 129.319992, 35.495041, 60.0 ] } },
{ "type": "Feature", "properties": { "value": 0.2726 }, "geometry": { "type": "Point", "coordinates": [ 129.321091, 35.495037, 60.0 ] } },
{ "type": "Feature", "properties": { "value": 0.2709 }, "geometry": { "type": "Point", "coordinates": [ 129.322205, 35.495033, 60.0 ] } },
{ "type": "Feature", "properties": { "value": 0.2491 }, "geometry": { "type": "Point", "coordinates": [ 129.323303, 35.495033, 60.0 ] } },
{ "type": "Feature", "properties": { "value": 0.2101 }, "geometry": { "type": "Point", "coordinates": [ 129.324402, 35.495029, 60.0 ] } },
{ "type": "Feature", "properties": { "value": 0.1653 }, "geometry": { "type": "Point", "coordinates": [ 129.3255, 35.495026, 60.0 ] } },
{ "type": "Feature", "properties": { "value": 0.1168 }, "geometry": { "type": "Point", "coordinates": [ 129.326614, 35.495022, 60.0 ] } },
{ "type": "Feature", "properties": { "value": 0.0769 }, "geometry": { "type": "Point", "coordinates": [ 129.327713, 35.495022, 60.0 ] } },
{ "type": "Feature", "properties": { "value": 0.0451 }, "geometry": { "type": "Point", "coordinates": [ 129.328812, 35.495018, 60.0 ] } },
{ "type": "Feature", "properties": { "value": 0.0221 }, "geometry": { "type": "Point", "coordinates": [ 129.32991, 35.495014, 60.0 ] } },
{ "type": "Feature", "properties": { "value": 0.0082 }, "geometry": { "type": "Point", "coordinates": [ 129.331009, 35.49501, 60.0 ] } },
{ "type": "Feature", "properties": { "value": 0.0015 }, "geometry": { "type": "Point", "coordinates": [ 129.311188, 35.495964, 60.0 ] } },
{ "type": "Feature", "properties": { "value": 0.0062 }, "geometry": { "type": "Point", "coordinates": [ 129.312286, 35.495964, 60.0 ] } },
{ "type": "Feature", "properties": { "value": 0.0149 }, "geometry": { "type": "Point", "coordinates": [ 129.313385, 35.49596, 60.0 ] } },
{ "type": "Feature", "properties": { "value": 0.0285 }, "geometry": { "type": "Point", "coordinates": [ 129.314484, 35.495956, 60.0 ] } },
{ "type": "Feature", "properties": { "value": 0.0477 }, "geometry": { "type": "Point", "coordinates": [ 129.315598, 35.495953, 60.0 ] } },
{ "type": "Feature", "properties": { "value": 0.0701 }, "geometry": { "type": "Point", "coordinates": [ 129.316696, 35.495949, 60.0 ] } },
{ "type": "Feature", "properties": { "value": 0.0958 }, "geometry": { "type": "Point", "coordinates": [ 129.317795, 35.495949, 60.0 ] } },
{ "type": "Feature", "properties": { "value": 0.1206 }, "geometry": { "type": "Point", "coordinates": [ 129.318893, 35.495945, 60.0 ] } },
{ "type": "Feature", "properties": { "value": 0.1409 }, "geometry": { "type": "Point", "coordinates": [ 129.319992, 35.495941, 60.0 ] } },
{ "type": "Feature", "properties": { "value": 0.1505 }, "geometry": { "type": "Point", "coordinates": [ 129.321106, 35.495937, 60.0 ] } },
{ "type": "Feature", "properties": { "value": 0.149 }, "geometry": { "type": "Point", "coordinates": [ 129.322205, 35.495937, 60.0 ] } },
{ "type": "Feature", "properties": { "value": 0.1366 }, "geometry": { "type": "Point", "coordinates": [ 129.323303, 35.495934, 60.0 ] } },
{ "type": "Feature", "properties": { "value": 0.116 }, "geometry": { "type": "Point", "coordinates": [ 129.324402, 35.49593, 60.0 ] } },
{ "type": "Feature", "properties": { "value": 0.0895 }, "geometry": { "type": "Point", "coordinates": [ 129.325516, 35.495926, 60.0 ] } },
{ "type": "Feature", "properties": { "value": 0.0638 }, "geometry": { "type": "Point", "coordinates": [ 129.326614, 35.495926, 60.0 ] } },
{ "type": "Feature", "properties": { "value": 0.0403 }, "geometry": { "type": "Point", "coordinates": [ 129.327713, 35.495922, 60.0 ] } },
{ "type": "Feature", "properties": { "value": 0.0226 }, "geometry": { "type": "Point", "coordinates": [ 129.328812, 35.495918, 60.0 ] } },
{ "type": "Feature", "properties": { "value": 0.0108 }, "geometry": { "type": "Point", "coordinates": [ 129.329926, 35.495914, 60.0 ] } },
{ "type": "Feature", "properties": { "value": 0.0016 }, "geometry": { "type": "Point", "coordinates": [ 129.331024, 35.495911, 60.0 ] } },
{ "type": "Feature", "properties": { "value": 0.0016 }, "geometry": { "type": "Point", "coordinates": [ 129.312286, 35.496864, 60.0 ] } },
{ "type": "Feature", "properties": { "value": 0.0064 }, "geometry": { "type": "Point", "coordinates": [ 129.313385, 35.496861, 60.0 ] } },
{ "type": "Feature", "properties": { "value": 0.0139 }, "geometry": { "type": "Point", "coordinates": [ 129.314499, 35.496857, 60.0 ] } },
{ "type": "Feature", "properties": { "value": 0.0245 }, "geometry": { "type": "Point", "coordinates": [ 129.315598, 35.496857, 60.0 ] } },
{ "type": "Feature", "properties": { "value": 0.0348 }, "geometry": { "type": "Point", "coordinates": [ 129.316696, 35.496853, 60.0 ] } },
{ "type": "Feature", "properties": { "value": 0.0499 }, "geometry": { "type": "Point", "coordinates": [ 129.317795, 35.496849, 60.0 ] } },
{ "type": "Feature", "properties": { "value": 0.0615 }, "geometry": { "type": "Point", "coordinates": [ 129.318893, 35.496845, 60.0 ] } },
{ "type": "Feature", "properties": { "value": 0.0721 }, "geometry": { "type": "Point", "coordinates": [ 129.320007, 35.496841, 60.0 ] } },
{ "type": "Feature", "properties": { "value": 0.0785 }, "geometry": { "type": "Point", "coordinates": [ 129.321106, 35.496841, 60.0 ] } },
{ "type": "Feature", "properties": { "value": 0.0774 }, "geometry": { "type": "Point", "coordinates": [ 129.322205, 35.496838, 60.0 ] } },
{ "type": "Feature", "properties": { "value": 0.0707 }, "geometry": { "type": "Point", "coordinates": [ 129.323303, 35.496834, 60.0 ] } },
{ "type": "Feature", "properties": { "value": 0.0569 }, "geometry": { "type": "Point", "coordinates": [ 129.324417, 35.49683, 60.0 ] } },
{ "type": "Feature", "properties": { "value": 0.0447 }, "geometry": { "type": "Point", "coordinates": [ 129.325516, 35.49683, 60.0 ] } },
{ "type": "Feature", "properties": { "value": 0.0311 }, "geometry": { "type": "Point", "coordinates": [ 129.326614, 35.496826, 60.0 ] } },
{ "type": "Feature", "properties": { "value": 0.0184 }, "geometry": { "type": "Point", "coordinates": [ 129.327713, 35.496822, 60.0 ] } },
{ "type": "Feature", "properties": { "value": 0.0091 }, "geometry": { "type": "Point", "coordinates": [ 129.328827, 35.496819, 60.0 ] } },
{ "type": "Feature", "properties": { "value": 0.0017 }, "geometry": { "type": "Point", "coordinates": [ 129.329926, 35.496815, 60.0 ] } },
{ "type": "Feature", "properties": { "value": 0.0016 }, "geometry": { "type": "Point", "coordinates": [ 129.3134, 35.497761, 60.0 ] } },
{ "type": "Feature", "properties": { "value": 0.0056 }, "geometry": { "type": "Point", "coordinates": [ 129.314499, 35.497761, 60.0 ] } },
{ "type": "Feature", "properties": { "value": 0.0099 }, "geometry": { "type": "Point", "coordinates": [ 129.315598, 35.497757, 60.0 ] } },
{ "type": "Feature", "properties": { "value": 0.0158 }, "geometry": { "type": "Point", "coordinates": [ 129.316696, 35.497753, 60.0 ] } },
{ "type": "Feature", "properties": { "value": 0.0239 }, "geometry": { "type": "Point", "coordinates": [ 129.317795, 35.497749, 60.0 ] } },
{ "type": "Feature", "properties": { "value": 0.0293 }, "geometry": { "type": "Point", "coordinates": [ 129.318909, 35.497749, 60.0 ] } },
{ "type": "Feature", "properties": { "value": 0.0334 }, "geometry": { "type": "Point", "coordinates": [ 129.320007, 35.497746, 60.0 ] } },
{ "type": "Feature", "properties": { "value": 0.0353 }, "geometry": { "type": "Point", "coordinates": [ 129.321106, 35.497742, 60.0 ] } },
{ "type": "Feature", "properties": { "value": 0.0346 }, "geometry": { "type": "Point", "coordinates": [ 129.322205, 35.497738, 60.0 ] } },
{ "type": "Feature", "properties": { "value": 0.0315 }, "geometry": { "type": "Point", "coordinates": [ 129.323318, 35.497734, 60.0 ] } },
{ "type": "Feature", "properties": { "value": 0.0267 }, "geometry": { "type": "Point", "coordinates": [ 129.324417, 35.497734, 60.0 ] } },
{ "type": "Feature", "properties": { "value": 0.0195 }, "geometry": { "type": "Point", "coordinates": [ 129.325516, 35.49773, 60.0 ] } },
{ "type": "Feature", "properties": { "value": 0.013 }, "geometry": { "type": "Point", "coordinates": [ 129.326614, 35.497726, 60.0 ] } },
{ "type": "Feature", "properties": { "value": 0.0063 }, "geometry": { "type": "Point", "coordinates": [ 129.327728, 35.497723, 60.0 ] } },
{ "type": "Feature", "properties": { "value": 0.0016 }, "geometry": { "type": "Point", "coordinates": [ 129.328827, 35.497723, 60.0 ] } },
{ "type": "Feature", "properties": { "value": 0.0013 }, "geometry": { "type": "Point", "coordinates": [ 129.314499, 35.498661, 60.0 ] } },
{ "type": "Feature", "properties": { "value": 0.0019 }, "geometry": { "type": "Point", "coordinates": [ 129.315598, 35.498657, 60.0 ] } },
{ "type": "Feature", "properties": { "value": 0.006 }, "geometry": { "type": "Point", "coordinates": [ 129.316696, 35.498653, 60.0 ] } },
{ "type": "Feature", "properties": { "value": 0.0078 }, "geometry": { "type": "Point", "coordinates": [ 129.31781, 35.498653, 60.0 ] } },
{ "type": "Feature", "properties": { "value": 0.0125 }, "geometry": { "type": "Point", "coordinates": [ 129.318909, 35.49865, 60.0 ] } },
{ "type": "Feature", "properties": { "value": 0.0141 }, "geometry": { "type": "Point", "coordinates": [ 129.320007, 35.498646, 60.0 ] } },
{ "type": "Feature", "properties": { "value": 0.0149 }, "geometry": { "type": "Point", "coordinates": [ 129.321106, 35.498642, 60.0 ] } },
{ "type": "Feature", "properties": { "value": 0.0145 }, "geometry": { "type": "Point", "coordinates": [ 129.32222, 35.498638, 60.0 ] } },
{ "type": "Feature", "properties": { "value": 0.0132 }, "geometry": { "type": "Point", "coordinates": [ 129.323318, 35.498638, 60.0 ] } },
{ "type": "Feature", "properties": { "value": 0.0098 }, "geometry": { "type": "Point", "coordinates": [ 129.324417, 35.498634, 60.0 ] } },
{ "type": "Feature", "properties": { "value": 0.0065 }, "geometry": { "type": "Point", "coordinates": [ 129.325516, 35.498631, 60.0 ] } },
{ "type": "Feature", "properties": { "value": 0.0034 }, "geometry": { "type": "Point", "coordinates": [ 129.32663, 35.498627, 60.0 ] } },
{ "type": "Feature", "properties": { "value": 0.0013 }, "geometry": { "type": "Point", "coordinates": [ 129.327728, 35.498627, 60.0 ] } },
{ "type": "Feature", "properties": { "value": 0.0013 }, "geometry": { "type": "Point", "coordinates": [ 129.316711, 35.499557, 60.0 ] } },
{ "type": "Feature", "properties": { "value": 0.0017 }, "geometry": { "type": "Point", "coordinates": [ 129.31781, 35.499554, 60.0 ] } },
{ "type": "Feature", "properties": { "value": 0.0033 }, "geometry": { "type": "Point", "coordinates": [ 129.318909, 35.49955, 60.0 ] } },
{ "type": "Feature", "properties": { "value": 0.0037 }, "geometry": { "type": "Point", "coordinates": [ 129.320007, 35.499546, 60.0 ] } },
{ "type": "Feature", "properties": { "value": 0.0052 }, "geometry": { "type": "Point", "coordinates": [ 129.321121, 35.499546, 60.0 ] } },
{ "type": "Feature", "properties": { "value": 0.0037 }, "geometry": { "type": "Point", "coordinates": [ 129.32222, 35.499542, 60.0 ] } },
{ "type": "Feature", "properties": { "value": 0.0034 }, "geometry": { "type": "Point", "coordinates": [ 129.323318, 35.499538, 60.0 ] } },
{ "type": "Feature", "properties": { "value": 0.0017 }, "geometry": { "type": "Point", "coordinates": [ 129.324417, 35.499535, 60.0 ] } },
{ "type": "Feature", "properties": { "value": 0.0013 }, "geometry": { "type": "Point", "coordinates": [ 129.325531, 35.499531, 60.0 ] } }
]
}
