{
"type": "FeatureCollection",
"features": [
{ "type": "Feature", "properties": { "value": 0.0044 }, "geometry": { "type": "Point", "coordinates": [ 129.327576, 35.46077, 115.0 ] } },
{ "type": "Feature", "properties": { "value": 0.0826 }, "geometry": { "type": "Point", "coordinates": [ 129.327576, 35.461674, 115.0 ] } },
{ "type": "Feature", "properties": { "value": 0.1773 }, "geometry": { "type": "Point", "coordinates": [ 129.327576, 35.462574, 115.0 ] } },
{ "type": "Feature", "properties": { "value": 0.3122 }, "geometry": { "type": "Point", "coordinates": [ 129.327576, 35.463474, 115.0 ] } },
{ "type": "Feature", "properties": { "value": 0.017 }, "geometry": { "type": "Point", "coordinates": [ 129.32869, 35.46347, 115.0 ] } },
{ "type": "Feature", "properties": { "value": 0.6586 }, "geometry": { "type": "Point", "coordinates": [ 129.327591, 35.464375, 115.0 ] } },
{ "type": "Feature", "properties": { "value": 0.0649 }, "geometry": { "type": "Point", "coordinates": [ 129.32869, 35.464375, 115.0 ] } },
{ "type": "Feature", "properties": { "value": 2.3252 }, "geometry": { "type": "Point", "coordinates": [ 129.327591, 35.465279, 115.0 ] } },
{ "type": "Feature", "properties": { "value": 0.5747 }, "geometry": { "type": "Point", "coordinates": [ 129.32869, 35.465275, 115.0 ] } },
{ "type": "Feature", "properties": { "value": 7.5345 }, "geometry": { "type": "Point", "coordinates": [ 129.327591, 35.466179, 115.0 ] } },
{ "type": "Feature", "properties": { "value": 3.9092 }, "geometry": { "type": "Point", "coordinates": [ 129.32869, 35.466175, 115.0 ] } },
{ "type": "Feature", "properties": { "value": 16.138 }, "geometry": { "type": "Point", "coordinates": [ 129.327591, 35.467079, 115.0 ] } },
{ "type": "Feature", "properties": { "value": 11.172 }, "geometry": { "type": "Point", "coordinates": [ 129.328705, 35.467075, 115.0 ] } },
{ "type": "Feature", "properties": { "value": 27.628 }, "geometry": { "type": "Point", "coordinates": [ 129.327606, 35.467983, 115.0 ] } },
{ "type": "Feature", "properties": { "value": 21.228 }, "geometry": { "type": "Point", "coordinates": [ 129.328705, 35.467979, 115.0 ] } },
{ "type": "Feature", "properties": { "value": 0.3449 }, "geometry": { "type": "Point", "coordinates": [ 129.326508, 35.468887, 115.0 ] } },
{ "type": "Feature", "properties": { "value": 36.577 }, "geometry": { "type": "Point", "coordinates": [ 129.327606, 35.468884, 115.0 ] } },
{ "type": "Feature", "properties": { "value": 29.206 }, "geometry": { "type": "Point", "coordinates": [ 129.328705, 35.46888, 115.0 ] } },
{ "type": "Feature", "properties": { "value": 0.6735 }, "geometry": { "type": "Point", "coordinates": [ 129.326508, 35.469788, 115.0 ] } },
{ "type": "Feature", "properties": { "value": 35.951 }, "geometry": { "type": "Point", "coordinates": [ 129.327606, 35.469784, 115.0 ] } },
{ "type": "Feature", "properties": { "value": 29.808 }, "geometry": { "type": "Point", "coordinates": [ 129.328705, 35.46978, 115.0 ] } },
{ "type": "Feature", "properties": { "value": 0.9242 }, "geometry": { "type": "Point", "coordinates": [ 129.326508, 35.470688, 115.0 ] } },
{ "type": "Feature", "properties": { "value": 29.777 }, "geometry": { "type": "Point", "coordinates": [ 129.327606, 35.470684, 115.0 ] } },
{ "type": "Feature", "properties": { "value": 20.598 }, "geometry": { "type": "Point", "coordinates": [ 129.32872, 35.470684, 115.0 ] } },
{ "type": "Feature", "properties": { "value": 1.0543 }, "geometry": { "type": "Point", "coordinates": [ 129.326508, 35.471588, 115.0 ] } },
{ "type": "Feature", "properties": { "value": 18.439 }, "geometry": { "type": "Point", "coordinates": [ 129.327621, 35.471588, 115.0 ] } },
{ "type": "Feature", "properties": { "value": 7.6547 }, "geometry": { "type": "Point", "coordinates": [ 129.32872, 35.471584, 115.0 ] } },
{ "type": "Feature", "properties": { "value": 0.0644 }, "geometry": { "type": "Point", "coordinates": [ 129.329819, 35.471581, 115.0 ] } },
{ "type": "Feature", "properties": { "value": 0.9536 }, "geometry": { "type": "Point", "coordinates": [ 129.326523, 35.472492, 115.0 ] } },
{ "type": "Feature", "properties": { "value": 9.0111 }, "geometry": { "type": "Point", "coordinates": [ 129.327621, 35.472488, 115.0 ] } },
{ "type": "Feature", "properties": { "value": 2.4852 }, "geometry": { "type": "Point", "coordinates": [ 129.32872, 35.472485, 115.0 ] } },
{ "type": "Feature", "properties": { "value": 0.0394 }, "geometry": { "type": "Point", "coordinates": [ 129.329819, 35.472481, 115.0 ] } },
{ "type": "Feature", "properties": { "value": 1.5731 }, "geometry": { "type": "Point", "coordinates": [ 129.326523, 35.473392, 115.0 ] } },
{ "type": "Feature", "properties": { "value": 7.6468 }, "geometry": { "type": "Point", "coordinates": [ 129.327621, 35.473389, 115.0 ] } },
{ "type": "Feature", "properties": { "value": 2.5983 }, "geometry": { "type": "Point", "coordinates": [ 129.32872, 35.473385, 115.0 ] } },
{ "type": "Feature", "properties": { "value": 0.1605 }, "geometry": { "type": "Point", "coordinates": [ 129.329819, 35.473385, 115.0 ] } },
{ "type": "Feature", "properties": { "value": 2.5613 }, "geometry": { "type": "Point", "coordinates": [ 129.326523, 35.474293, 115.0 ] } },
{ "type": "Feature", "properties": { "value": 8.2894 }, "geometry": { "type": "Point", "coordinates": [ 129.327621, 35.474289, 115.0 ] } },
{ "type": "Feature", "properties": { "value": 4.4858 }, "geometry": { "type": "Point", "coordinates": [ 129.328735, 35.474289, 115.0 ] } },
{ "type": "Feature", "properties": { "value": 0.6555 }, "geometry": { "type": "Point", "coordinates": [ 129.329834, 35.474285, 115.0 ] } },
{ "type": "Feature", "properties": { "value": 2.9625 }, "geometry": { "type": "Point", "coordinates": [ 129.326523, 35.475193, 115.0 ] } },
{ "type": "Feature", "properties": { "value": 9.2837 }, "geometry": { "type": "Point", "coordinates": [ 129.327637, 35.475193, 115.0 ] } },
{ "type": "Feature", "properties": { "value": 6.7693 }, "geometry": { "type": "Point", "coordinates": [ 129.328735, 35.475189, 115.0 ] } },
{ "type": "Feature", "properties": { "value": 1.4676 }, "geometry": { "type": "Point", "coordinates": [ 129.329834, 35.475185, 115.0 ] } },
{ "type": "Feature", "properties": { "value": 0.1063 }, "geometry": { "type": "Point", "coordinates": [ 129.325424, 35.476097, 115.0 ] } },
{ "type": "Feature", "properties": { "value": 4.3633 }, "geometry": { "type": "Point", "coordinates": [ 129.326538, 35.476097, 115.0 ] } },
{ "type": "Feature", "properties": { "value": 17.244 }, "geometry": { "type": "Point", "coordinates": [ 129.327637, 35.476093, 115.0 ] } },
{ "type": "Feature", "properties": { "value": 12.919 }, "geometry": { "type": "Point", "coordinates": [ 129.328735, 35.476089, 115.0 ] } },
{ "type": "Feature", "properties": { "value": 2.5846 }, "geometry": { "type": "Point", "coordinates": [ 129.329834, 35.476086, 115.0 ] } },
{ "type": "Feature", "properties": { "value": 0.441 }, "geometry": { "type": "Point", "coordinates": [ 129.325439, 35.477001, 115.0 ] } },
{ "type": "Feature", "properties": { "value": 9.5955 }, "geometry": { "type": "Point", "coordinates": [ 129.326538, 35.476997, 115.0 ] } },
{ "type": "Feature", "properties": { "value": 40.37 }, "geometry": { "type": "Point", "coordinates": [ 129.327637, 35.476994, 115.0 ] } },
{ "type": "Feature", "properties": { "value": 26.572 }, "geometry": { "type": "Point", "coordinates": [ 129.328735, 35.47699, 115.0 ] } },
{ "type": "Feature", "properties": { "value": 3.9907 }, "geometry": { "type": "Point", "coordinates": [ 129.329834, 35.47699, 115.0 ] } },
{ "type": "Feature", "properties": { "value": 1.6401 }, "geometry": { "type": "Point", "coordinates": [ 129.325439, 35.477901, 115.0 ] } },
{ "type": "Feature", "properties": { "value": 23.865 }, "geometry": { "type": "Point", "coordinates": [ 129.326538, 35.477898, 115.0 ] } },
{ "type": "Feature", "properties": { "value": 75.919 }, "geometry": { "type": "Point", "coordinates": [ 129.327637, 35.477894, 115.0 ] } },
{ "type": "Feature", "properties": { "value": 42.271 }, "geometry": { "type": "Point", "coordinates": [ 129.328735, 35.477894, 115.0 ] } },
{ "type": "Feature", "properties": { "value": 5.1407 }, "geometry": { "type": "Point", "coordinates": [ 129.329849, 35.47789, 115.0 ] } },
{ "type": "Feature", "properties": { "value": 5.2266 }, "geometry": { "type": "Point", "coordinates": [ 129.325439, 35.478802, 115.0 ] } },
{ "type": "Feature", "properties": { "value": 46.241 }, "geometry": { "type": "Point", "coordinates": [ 129.326538, 35.478798, 115.0 ] } },
{ "type": "Feature", "properties": { "value": 100.07 }, "geometry": { "type": "Point", "coordinates": [ 129.327637, 35.478798, 115.0 ] } },
{ "type": "Feature", "properties": { "value": 48.117 }, "geometry": { "type": "Point", "coordinates": [ 129.328751, 35.478794, 115.0 ] } },
{ "type": "Feature", "properties": { "value": 5.2169 }, "geometry": { "type": "Point", "coordinates": [ 129.329849, 35.47879, 115.0 ] } },
{ "type": "Feature", "properties": { "value": 10.346 }, "geometry": { "type": "Point", "coordinates": [ 129.325439, 35.479706, 115.0 ] } },
{ "type": "Feature", "properties": { "value": 59.093 }, "geometry": { "type": "Point", "coordinates": [ 129.326553, 35.479702, 115.0 ] } },
{ "type": "Feature", "properties": { "value": 90.8 }, "geometry": { "type": "Point", "coordinates": [ 129.327652, 35.479698, 115.0 ] } },
{ "type": "Feature", "properties": { "value": 40.263 }, "geometry": { "type": "Point", "coordinates": [ 129.328751, 35.479694, 115.0 ] } },
{ "type": "Feature", "properties": { "value": 4.4927 }, "geometry": { "type": "Point", "coordinates": [ 129.329849, 35.479691, 115.0 ] } },
{ "type": "Feature", "properties": { "value": 0.5635 }, "geometry": { "type": "Point", "coordinates": [ 129.324341, 35.48061, 115.0 ] } },
{ "type": "Feature", "properties": { "value": 13.059 }, "geometry": { "type": "Point", "coordinates": [ 129.325455, 35.480606, 115.0 ] } },
{ "type": "Feature", "properties": { "value": 51.519 }, "geometry": { "type": "Point", "coordinates": [ 129.326553, 35.480602, 115.0 ] } },
{ "type": "Feature", "properties": { "value": 64.695 }, "geometry": { "type": "Point", "coordinates": [ 129.327652, 35.480598, 115.0 ] } },
{ "type": "Feature", "properties": { "value": 28.788 }, "geometry": { "type": "Point", "coordinates": [ 129.328751, 35.480595, 115.0 ] } },
{ "type": "Feature", "properties": { "value": 3.5646 }, "geometry": { "type": "Point", "coordinates": [ 129.329849, 35.480595, 115.0 ] } },
{ "type": "Feature", "properties": { "value": 1.2305 }, "geometry": { "type": "Point", "coordinates": [ 129.324356, 35.48151, 115.0 ] } },
{ "type": "Feature", "properties": { "value": 12.508 }, "geometry": { "type": "Point", "coordinates": [ 129.325455, 35.481506, 115.0 ] } },
{ "type": "Feature", "properties": { "value": 42.683 }, "geometry": { "type": "Point", "coordinates": [ 129.326553, 35.481503, 115.0 ] } },
{ "type": "Feature", "properties": { "value": 54.089 }, "geometry": { "type": "Point", "coordinates": [ 129.327652, 35.481503, 115.0 ] } },
{ "type": "Feature", "properties": { "value": 23.724 }, "geometry": { "type": "Point", "coordinates": [ 129.328751, 35.481499, 115.0 ] } },
{ "type": "Feature", "properties": { "value": 2.7526 }, "geometry": { "type": "Point", "coordinates": [ 129.329865, 35.481495, 115.0 ] } },
{ "type": "Feature", "properties": { "value": 1.8068 }, "geometry": { "type": "Point", "coordinates": [ 129.324356, 35.48241, 115.0 ] } },
{ "type": "Feature", "properties": { "value": 14.053 }, "geometry": { "type": "Point", "coordinates": [ 129.325455, 35.482407, 115.0 ] } },
{ "type": "Feature", "properties": { "value": 45.732 }, "geometry": { "type": "Point", "coordinates": [ 129.326553, 35.482407, 115.0 ] } },
{ "type": "Feature", "properties": { "value": 55.744 }, "geometry": { "type": "Point", "coordinates": [ 129.327652, 35.482403, 115.0 ] } },
{ "type": "Feature", "properties": { "value": 21.132 }, "geometry": { "type": "Point", "coordinates": [ 129.328766, 35.482399, 115.0 ] } },
{ "type": "Feature", "properties": { "value": 1.9502 }, "geometry": { "type": "Point", "coordinates": [ 129.329865, 35.482395, 115.0 ] } },
{ "type": "Feature", "properties": { "value": 3.1867 }, "geometry": { "type": "Point", "coordinates": [ 129.324356, 35.483311, 115.0 ] } },
{ "type": "Feature", "properties": { "value": 19.484 }, "geometry": { "type": "Point", "coordinates": [ 129.325455, 35.483311, 115.0 ] } },
{ "type": "Feature", "properties": { "value": 53.114 }, "geometry": { "type": "Point", "coordinates": [ 129.326553, 35.483307, 115.0 ] } },
{ "type": "Feature", "properties": { "value": 50.269 }, "geometry": { "type": "Point", "coordinates": [ 129.327667, 35.483303, 115.0 ] } },
{ "type": "Feature", "properties": { "value": 15.393 }, "geometry": { "type": "Point", "coordinates": [ 129.328766, 35.483299, 115.0 ] } },
{ "type": "Feature", "properties": { "value": 1.1719 }, "geometry": { "type": "Point", "coordinates": [ 129.329865, 35.483295, 115.0 ] } },
{ "type": "Feature", "properties": { "value": 0.5145 }, "geometry": { "type": "Point", "coordinates": [ 129.323257, 35.484215, 115.0 ] } },
{ "type": "Feature", "properties": { "value": 5.88 }, "geometry": { "type": "Point", "coordinates": [ 129.324356, 35.484215, 115.0 ] } },
{ "type": "Feature", "properties": { "value": 26.797 }, "geometry": { "type": "Point", "coordinates": [ 129.325455, 35.484211, 115.0 ] } },
{ "type": "Feature", "properties": { "value": 53.926 }, "geometry": { "type": "Point", "coordinates": [ 129.326569, 35.484207, 115.0 ] } },
{ "type": "Feature", "properties": { "value": 37.456 }, "geometry": { "type": "Point", "coordinates": [ 129.327667, 35.484203, 115.0 ] } },
{ "type": "Feature", "properties": { "value": 9.7295 }, "geometry": { "type": "Point", "coordinates": [ 129.328766, 35.484203, 115.0 ] } },
{ "type": "Feature", "properties": { "value": 0.3153 }, "geometry": { "type": "Point", "coordinates": [ 129.329865, 35.4842, 115.0 ] } },
{ "type": "Feature", "properties": { "value": 1.6022 }, "geometry": { "type": "Point", "coordinates": [ 129.323257, 35.485119, 115.0 ] } },
{ "type": "Feature", "properties": { "value": 11.032 }, "geometry": { "type": "Point", "coordinates": [ 129.324371, 35.485115, 115.0 ] } },
{ "type": "Feature", "properties": { "value": 36.479 }, "geometry": { "type": "Point", "coordinates": [ 129.32547, 35.485111, 115.0 ] } },
{ "type": "Feature", "properties": { "value": 53.894 }, "geometry": { "type": "Point", "coordinates": [ 129.326569, 35.485107, 115.0 ] } },
{ "type": "Feature", "properties": { "value": 29.923 }, "geometry": { "type": "Point", "coordinates": [ 129.327667, 35.485107, 115.0 ] } },
{ "type": "Feature", "properties": { "value": 7.0279 }, "geometry": { "type": "Point", "coordinates": [ 129.328766, 35.485104, 115.0 ] } },
{ "type": "Feature", "properties": { "value": 0.0359 }, "geometry": { "type": "Point", "coordinates": [ 129.322159, 35.486023, 115.0 ] } },
{ "type": "Feature", "properties": { "value": 4.1531 }, "geometry": { "type": "Point", "coordinates": [ 129.323273, 35.486019, 115.0 ] } },
{ "type": "Feature", "properties": { "value": 22.34 }, "geometry": { "type": "Point", "coordinates": [ 129.324371, 35.486015, 115.0 ] } },
{ "type": "Feature", "properties": { "value": 54.429 }, "geometry": { "type": "Point", "coordinates": [ 129.32547, 35.486012, 115.0 ] } },
{ "type": "Feature", "properties": { "value": 58.782 }, "geometry": { "type": "Point", "coordinates": [ 129.326569, 35.486012, 115.0 ] } },
{ "type": "Feature", "properties": { "value": 26.915 }, "geometry": { "type": "Point", "coordinates": [ 129.327667, 35.486008, 115.0 ] } },
{ "type": "Feature", "properties": { "value": 5.356 }, "geometry": { "type": "Point", "coordinates": [ 129.328781, 35.486004, 115.0 ] } },
{ "type": "Feature", "properties": { "value": 1.6729 }, "geometry": { "type": "Point", "coordinates": [ 129.322174, 35.486923, 115.0 ] } },
{ "type": "Feature", "properties": { "value": 10.066 }, "geometry": { "type": "Point", "coordinates": [ 129.323273, 35.486919, 115.0 ] } },
{ "type": "Feature", "properties": { "value": 42.145 }, "geometry": { "type": "Point", "coordinates": [ 129.324371, 35.486916, 115.0 ] } },
{ "type": "Feature", "properties": { "value": 78.048 }, "geometry": { "type": "Point", "coordinates": [ 129.32547, 35.486916, 115.0 ] } },
{ "type": "Feature", "properties": { "value": 62.32 }, "geometry": { "type": "Point", "coordinates": [ 129.326569, 35.486912, 115.0 ] } },
{ "type": "Feature", "properties": { "value": 22.535 }, "geometry": { "type": "Point", "coordinates": [ 129.327682, 35.486908, 115.0 ] } },
{ "type": "Feature", "properties": { "value": 3.5534 }, "geometry": { "type": "Point", "coordinates": [ 129.328781, 35.486904, 115.0 ] } },
{ "type": "Feature", "properties": { "value": 5.1244 }, "geometry": { "type": "Point", "coordinates": [ 129.322174, 35.487823, 115.0 ] } },
{ "type": "Feature", "properties": { "value": 20.598 }, "geometry": { "type": "Point", "coordinates": [ 129.323273, 35.48782, 115.0 ] } },
{ "type": "Feature", "properties": { "value": 63.86 }, "geometry": { "type": "Point", "coordinates": [ 129.324371, 35.48782, 115.0 ] } },
{ "type": "Feature", "properties": { "value": 89.252 }, "geometry": { "type": "Point", "coordinates": [ 129.32547, 35.487816, 115.0 ] } },
{ "type": "Feature", "properties": { "value": 55.633 }, "geometry": { "type": "Point", "coordinates": [ 129.326584, 35.487812, 115.0 ] } },
{ "type": "Feature", "properties": { "value": 16.362 }, "geometry": { "type": "Point", "coordinates": [ 129.327682, 35.487808, 115.0 ] } },
{ "type": "Feature", "properties": { "value": 2.0043 }, "geometry": { "type": "Point", "coordinates": [ 129.328781, 35.487808, 115.0 ] } },
{ "type": "Feature", "properties": { "value": 1.1434 }, "geometry": { "type": "Point", "coordinates": [ 129.321075, 35.488728, 115.0 ] } },
{ "type": "Feature", "properties": { "value": 7.4461 }, "geometry": { "type": "Point", "coordinates": [ 129.322174, 35.488728, 115.0 ] } },
{ "type": "Feature", "properties": { "value": 31.488 }, "geometry": { "type": "Point", "coordinates": [ 129.323273, 35.488724, 115.0 ] } },
{ "type": "Feature", "properties": { "value": 71.054 }, "geometry": { "type": "Point", "coordinates": [ 129.324371, 35.48872, 115.0 ] } },
{ "type": "Feature", "properties": { "value": 76.939 }, "geometry": { "type": "Point", "coordinates": [ 129.325485, 35.488716, 115.0 ] } },
{ "type": "Feature", "properties": { "value": 39.866 }, "geometry": { "type": "Point", "coordinates": [ 129.326584, 35.488712, 115.0 ] } },
{ "type": "Feature", "properties": { "value": 10.054 }, "geometry": { "type": "Point", "coordinates": [ 129.327682, 35.488712, 115.0 ] } },
{ "type": "Feature", "properties": { "value": 0.6935 }, "geometry": { "type": "Point", "coordinates": [ 129.328781, 35.488708, 115.0 ] } },
{ "type": "Feature", "properties": { "value": 2.9415 }, "geometry": { "type": "Point", "coordinates": [ 129.321075, 35.489632, 115.0 ] } },
{ "type": "Feature", "properties": { "value": 13.592 }, "geometry": { "type": "Point", "coordinates": [ 129.322174, 35.489628, 115.0 ] } },
{ "type": "Feature", "properties": { "value": 37.088 }, "geometry": { "type": "Point", "coordinates": [ 129.323273, 35.489624, 115.0 ] } },
{ "type": "Feature", "properties": { "value": 58.963 }, "geometry": { "type": "Point", "coordinates": [ 129.324387, 35.48962, 115.0 ] } },
{ "type": "Feature", "properties": { "value": 50.902 }, "geometry": { "type": "Point", "coordinates": [ 129.325485, 35.489616, 115.0 ] } },
{ "type": "Feature", "properties": { "value": 23.259 }, "geometry": { "type": "Point", "coordinates": [ 129.326584, 35.489616, 115.0 ] } },
{ "type": "Feature", "properties": { "value": 5.2345 }, "geometry": { "type": "Point", "coordinates": [ 129.327682, 35.489613, 115.0 ] } },
{ "type": "Feature", "properties": { "value": 1.0572 }, "geometry": { "type": "Point", "coordinates": [ 129.319977, 35.490536, 115.0 ] } },
{ "type": "Feature", "properties": { "value": 6.7037 }, "geometry": { "type": "Point", "coordinates": [ 129.321075, 35.490532, 115.0 ] } },
{ "type": "Feature", "properties": { "value": 22.503 }, "geometry": { "type": "Point", "coordinates": [ 129.322174, 35.490528, 115.0 ] } },
{ "type": "Feature", "properties": { "value": 44.693 }, "geometry": { "type": "Point", "coordinates": [ 129.323288, 35.490524, 115.0 ] } },
{ "type": "Feature", "properties": { "value": 50.585 }, "geometry": { "type": "Point", "coordinates": [ 129.324387, 35.490524, 115.0 ] } },
{ "type": "Feature", "properties": { "value": 32.602 }, "geometry": { "type": "Point", "coordinates": [ 129.325485, 35.49052, 115.0 ] } },
{ "type": "Feature", "properties": { "value": 12.379 }, "geometry": { "type": "Point", "coordinates": [ 129.326584, 35.490517, 115.0 ] } },
{ "type": "Feature", "properties": { "value": 2.3724 }, "geometry": { "type": "Point", "coordinates": [ 129.327698, 35.490513, 115.0 ] } },
{ "type": "Feature", "properties": { "value": 0.1411 }, "geometry": { "type": "Point", "coordinates": [ 129.318878, 35.49144, 115.0 ] } },
{ "type": "Feature", "properties": { "value": 3.4065 }, "geometry": { "type": "Point", "coordinates": [ 129.319977, 35.491436, 115.0 ] } },
{ "type": "Feature", "properties": { "value": 13.492 }, "geometry": { "type": "Point", "coordinates": [ 129.321091, 35.491432, 115.0 ] } },
{ "type": "Feature", "properties": { "value": 33.388 }, "geometry": { "type": "Point", "coordinates": [ 129.322189, 35.491428, 115.0 ] } },
{ "type": "Feature", "properties": { "value": 50.218 }, "geometry": { "type": "Point", "coordinates": [ 129.323288, 35.491428, 115.0 ] } },
{ "type": "Feature", "properties": { "value": 44.869 }, "geometry": { "type": "Point", "coordinates": [ 129.324387, 35.491425, 115.0 ] } },
{ "type": "Feature", "properties": { "value": 24.089 }, "geometry": { "type": "Point", "coordinates": [ 129.325485, 35.491421, 115.0 ] } },
{ "type": "Feature", "properties": { "value": 6.888 }, "geometry": { "type": "Point", "coordinates": [ 129.326599, 35.491417, 115.0 ] } },
{ "type": "Feature", "properties": { "value": 0.8931 }, "geometry": { "type": "Point", "coordinates": [ 129.327698, 35.491413, 115.0 ] } },
{ "type": "Feature", "properties": { "value": 1.8216 }, "geometry": { "type": "Point", "coordinates": [ 129.318878, 35.49234, 115.0 ] } },
{ "type": "Feature", "properties": { "value": 8.2858 }, "geometry": { "type": "Point", "coordinates": [ 129.319992, 35.492336, 115.0 ] } },
{ "type": "Feature", "properties": { "value": 23.797 }, "geometry": { "type": "Point", "coordinates": [ 129.321091, 35.492332, 115.0 ] } },
{ "type": "Feature", "properties": { "value": 44.158 }, "geometry": { "type": "Point", "coordinates": [ 129.322189, 35.492332, 115.0 ] } },
{ "type": "Feature", "properties": { "value": 50.963 }, "geometry": { "type": "Point", "coordinates": [ 129.323288, 35.492329, 115.0 ] } },
{ "type": "Feature", "properties": { "value": 40.52 }, "geometry": { "type": "Point", "coordinates": [ 129.324387, 35.492325, 115.0 ] } },
{ "type": "Feature", "properties": { "value": 18.592 }, "geometry": { "type": "Point", "coordinates": [ 129.3255, 35.492321, 115.0 ] } },
{ "type": "Feature", "properties": { "value": 4.0126 }, "geometry": { "type": "Point", "coordinates": [ 129.326599, 35.492317, 115.0 ] } },
{ "type": "Feature", "properties": { "value": 1.0468 }, "geometry": { "type": "Point", "coordinates": [ 129.31778, 35.493244, 115.0 ] } },
{ "type": "Feature", "properties": { "value": 5.3488 }, "geometry": { "type": "Point", "coordinates": [ 129.318893, 35.49324, 115.0 ] } },
{ "type": "Feature", "properties": { "value": 16.92 }, "geometry": { "type": "Point", "coordinates": [ 129.319992, 35.493237, 115.0 ] } },
{ "type": "Feature", "properties": { "value": 36.366 }, "geometry": { "type": "Point", "coordinates": [ 129.321091, 35.493237, 115.0 ] } },
{ "type": "Feature", "properties": { "value": 51.613 }, "geometry": { "type": "Point", "coordinates": [ 129.322189, 35.493233, 115.0 ] } },
{ "type": "Feature", "properties": { "value": 46.415 }, "geometry": { "type": "Point", "coordinates": [ 129.323288, 35.493229, 115.0 ] } },
{ "type": "Feature", "properties": { "value": 29.089 }, "geometry": { "type": "Point", "coordinates": [ 129.324402, 35.493225, 115.0 ] } },
{ "type": "Feature", "properties": { "value": 11.428 }, "geometry": { "type": "Point", "coordinates": [ 129.3255, 35.493225, 115.0 ] } },
{ "type": "Feature", "properties": { "value": 1.9007 }, "geometry": { "type": "Point", "coordinates": [ 129.326599, 35.493221, 115.0 ] } },
{ "type": "Feature", "properties": { "value": 0.5789 }, "geometry": { "type": "Point", "coordinates": [ 129.316681, 35.494148, 115.0 ] } },
{ "type": "Feature", "properties": { "value": 3.6688 }, "geometry": { "type": "Point", "coordinates": [ 129.317795, 35.494144, 115.0 ] } },
{ "type": "Feature", "properties": { "value": 12.252 }, "geometry": { "type": "Point", "coordinates": [ 129.318893, 35.494141, 115.0 ] } },
{ "type": "Feature", "properties": { "value": 29.085 }, "geometry": { "type": "Point", "coordinates": [ 129.319992, 35.494141, 115.0 ] } },
{ "type": "Feature", "properties": { "value": 47.93 }, "geometry": { "type": "Point", "coordinates": [ 129.321091, 35.494137, 115.0 ] } },
{ "type": "Feature", "properties": { "value": 52.854 }, "geometry": { "type": "Point", "coordinates": [ 129.322189, 35.494133, 115.0 ] } },
{ "type": "Feature", "properties": { "value": 37.566 }, "geometry": { "type": "Point", "coordinates": [ 129.323303, 35.494129, 115.0 ] } },
{ "type": "Feature", "properties": { "value": 17.598 }, "geometry": { "type": "Point", "coordinates": [ 129.324402, 35.494129, 115.0 ] } },
{ "type": "Feature", "properties": { "value": 5.4532 }, "geometry": { "type": "Point", "coordinates": [ 129.3255, 35.494125, 115.0 ] } },
{ "type": "Feature", "properties": { "value": 0.4984 }, "geometry": { "type": "Point", "coordinates": [ 129.326599, 35.494122, 115.0 ] } },
{ "type": "Feature", "properties": { "value": 0.2134 }, "geometry": { "type": "Point", "coordinates": [ 129.315582, 35.495052, 115.0 ] } },
{ "type": "Feature", "properties": { "value": 2.2973 }, "geometry": { "type": "Point", "coordinates": [ 129.316696, 35.495049, 115.0 ] } },
{ "type": "Feature", "properties": { "value": 8.6864 }, "geometry": { "type": "Point", "coordinates": [ 129.317795, 35.495045, 115.0 ] } },
{ "type": "Feature", "properties": { "value": 22.745 }, "geometry": { "type": "Point", "coordinates": [ 129.318893, 35.495045, 115.0 ] } },
{ "type": "Feature", "properties": { "value": 42.059 }, "geometry": { "type": "Point", "coordinates": [ 129.319992, 35.495041, 115.0 ] } },
{ "type": "Feature", "properties": { "value": 54.127 }, "geometry": { "type": "Point", "coordinates": [ 129.321091, 35.495037, 115.0 ] } },
{ "type": "Feature", "properties": { "value": 47.143 }, "geometry": { "type": "Point", "coordinates": [ 129.322205, 35.495033, 115.0 ] } },
{ "type": "Feature", "properties": { "value": 26.816 }, "geometry": { "type": "Point", "coordinates": [ 129.323303, 35.495033, 115.0 ] } },
{ "type": "Feature", "properties": { "value": 10.401 }, "geometry": { "type": "Point", "coordinates": [ 129.324402, 35.495029, 115.0 ] } },
{ "type": "Feature", "properties": { "value": 2.4018 }, "geometry": { "type": "Point", "coordinates": [ 129.3255, 35.495026, 115.0 ] } },
{ "type": "Feature", "properties": { "value": 1.0057 }, "geometry": { "type": "Point", "coordinates": [ 129.315598, 35.495953, 115.0 ] } },
{ "type": "Feature", "properties": { "value": 4.9644 }, "geometry": { "type": "Point", "coordinates": [ 129.316696, 35.495949, 115.0 ] } },
{ "type": "Feature", "properties": { "value": 15.619 }, "geometry": { "type": "Point", "coordinates": [ 129.317795, 35.495949, 115.0 ] } },
{ "type": "Feature", "properties": { "value": 33.757 }, "geometry": { "type": "Point", "coordinates": [ 129.318893, 35.495945, 115.0 ] } },
{ "type": "Feature", "properties": { "value": 50.507 }, "geometry": { "type": "Point", "coordinates": [ 129.319992, 35.495941, 115.0 ] } },
{ "type": "Feature", "properties": { "value": 52.038 }, "geometry": { "type": "Point", "coordinates": [ 129.321106, 35.495937, 115.0 ] } },
{ "type": "Feature", "properties": { "value": 36.325 }, "geometry": { "type": "Point", "coordinates": [ 129.322205, 35.495937, 115.0 ] } },
{ "type": "Feature", "properties": { "value": 18.418 }, "geometry": { "type": "Point", "coordinates": [ 129.323303, 35.495934, 115.0 ] } },
{ "type": "Feature", "properties": { "value": 5.6897 }, "geometry": { "type": "Point", "coordinates": [ 129.324402, 35.49593, 115.0 ] } },
{ "type": "Feature", "properties": { "value": 0.8507 }, "geometry": { "type": "Point", "coordinates": [ 129.325516, 35.495926, 115.0 ] } },
{ "type": "Feature", "properties": { "value": 0.1969 }, "geometry": { "type": "Point", "coordinates": [ 129.314499, 35.496857, 115.0 ] } },
{ "type": "Feature", "properties": { "value": 1.7155 }, "geometry": { "type": "Point", "coordinates": [ 129.315598, 35.496857, 115.0 ] } },
{ "type": "Feature", "properties": { "value": 7.3381 }, "geometry": { "type": "Point", "coordinates": [ 129.316696, 35.496853, 115.0 ] } },
{ "type": "Feature", "properties": { "value": 20.525 }, "geometry": { "type": "Point", "coordinates": [ 129.317795, 35.496849, 115.0 ] } },
{ "type": "Feature", "properties": { "value": 38.43 }, "geometry": { "type": "Point", "coordinates": [ 129.318893, 35.496845, 115.0 ] } },
{ "type": "Feature", "properties": { "value": 48.62 }, "geometry": { "type": "Point", "coordinates": [ 129.320007, 35.496841, 115.0 ] } },
{ "type": "Feature", "properties": { "value": 41.536 }, "geometry": { "type": "Point", "coordinates": [ 129.321106, 35.496841, 115.0 ] } },
{ "type": "Feature", "properties": { "value": 25.77 }, "geometry": { "type": "Point", "coordinates": [ 129.322205, 35.496838, 115.0 ] } },
{ "type": "Feature", "properties": { "value": 10.918 }, "geometry": { "type": "Point", "coordinates": [ 129.323303, 35.496834, 115.0 ] } },
{ "type": "Feature", "properties": { "value": 2.3727 }, "geometry": { "type": "Point", "coordinates": [ 129.324417, 35.49683, 115.0 ] } },
{ "type": "Feature", "properties": { "value": 0.3027 }, "geometry": { "type": "Point", "coordinates": [ 129.314499, 35.497761, 115.0 ] } },
{ "type": "Feature", "properties": { "value": 2.0161 }, "geometry": { "type": "Point", "coordinates": [ 129.315598, 35.497757, 115.0 ] } },
{ "type": "Feature", "properties": { "value": 7.3908 }, "geometry": { "type": "Point", "coordinates": [ 129.316696, 35.497753, 115.0 ] } },
{ "type": "Feature", "properties": { "value": 18.972 }, "geometry": { "type": "Point", "coordinates": [ 129.317795, 35.497749, 115.0 ] } },
{ "type": "Feature", "properties": { "value": 32.416 }, "geometry": { "type": "Point", "coordinates": [ 129.318909, 35.497749, 115.0 ] } },
{ "type": "Feature", "properties": { "value": 35.777 }, "geometry": { "type": "Point", "coordinates": [ 129.320007, 35.497746, 115.0 ] } },
{ "type": "Feature", "properties": { "value": 26.957 }, "geometry": { "type": "Point", "coordinates": [ 129.321106, 35.497742, 115.0 ] } },
{ "type": "Feature", "properties": { "value": 15.782 }, "geometry": { "type": "Point", "coordinates": [ 129.322205, 35.497738, 115.0 ] } },
{ "type": "Feature", "properties": { "value": 4.8681 }, "geometry": { "type": "Point", "coordinates": [ 129.323318, 35.497734, 115.0 ] } },
{ "type": "Feature", "properties": { "value": 0.6501 }, "geometry": { "type": "Point", "coordinates": [ 129.324417, 35.497734, 115.0 ] } },
{ "type": "Feature", "properties": { "value": 0.2238 }, "geometry": { "type": "Point", "coordinates": [ 129.314499, 35.498661, 115.0 ] } },
{ "type": "Feature", "properties": { "value": 1.4101 }, "geometry": { "type": "Point", "coordinates": [ 129.315598, 35.498657, 115.0 ] } },
{ "type": "Feature", "properties": { "value": 4.9781 }, "geometry": { "type": "Point", "coordinates": [ 129.316696, 35.498653, 115.0 ] } },
{ "type": "Feature", "properties": { "value": 12.041 }, "geometry": { "type": "Point", "coordinates": [ 129.31781, 35.498653, 115.0 ] } },
{ "type": "Feature", "properties": { "value": 22.726 }, "geometry": { "type": "Point", "coordinates": [ 129.318909, 35.49865, 115.0 ] } },
{ "type": "Feature", "properties": { "value": 19.215 }, "geometry": { "type": "Point", "coordinates": [ 129.320007, 35.498646, 115.0 ] } },
{ "type": "Feature", "properties": { "value": 15.541 }, "geometry": { "type": "Point", "coordinates": [ 129.321106, 35.498642, 115.0 ] } },
{ "type": "Feature", "properties": { "value": 7.2741 }, "geometry": { "type": "Point", "coordinates": [ 129.32222, 35.498638, 115.0 ] } },
{ "type": "Feature", "properties": { "value": 1.6733 }, "geometry": { "type": "Point", "coordinates": [ 129.323318, 35.498638, 115.0 ] } },
{ "type": "Feature", "properties": { "value": 0.0677 }, "geometry": { "type": "Point", "coordinates": [ 129.314499, 35.499561, 115.0 ] } },
{ "type": "Feature", "properties": { "value": 0.64 }, "geometry": { "type": "Point", "coordinates": [ 129.315598, 35.499557, 115.0 ] } },
{ "type": "Feature", "properties": { "value": 2.2899 }, "geometry": { "type": "Point", "coordinates": [ 129.316711, 35.499557, 115.0 ] } },
{ "type": "Feature", "properties": { "value": 5.992 }, "geometry": { "type": "Point", "coordinates": [ 129.31781, 35.499554, 115.0 ] } },
{ "type": "Feature", "properties": { "value": 10.6 }, "geometry": { "type": "Point", "coordinates": [ 129.318909, 35.49955, 115.0 ] } },
{ "type": "Feature", "properties": { "value": 8.5633 }, "geometry": { "type": "Point", "coordinates": [ 129.320007, 35.499546, 115.0 ] } },
{ "type": "Feature", "properties": { "value": 6.2618 }, "geometry": { "type": "Point", "coordinates": [ 129.321121, 35.499546, 115.0 ] } },
{ "type": "Feature", "properties": { "value": 2.307 }, "geometry": { "type": "Point", "coordinates": [ 129.32222, 35.499542, 115.0 ] } },
{ "type": "Feature", "properties": { "value": 0.2619 }, "geometry": { "type": "Point", "coordinates": [ 129.323318, 35.499538, 115.0 ] } },
{ "type": "Feature", "properties": { "value": 0.1707 }, "geometry": { "type": "Point", "coordinates": [ 129.315613, 35.500462, 115.0 ] } },
{ "type": "Feature", "properties": { "value": 0.7751 }, "geometry": { "type": "Point", "coordinates": [ 129.316711, 35.500458, 115.0 ] } },
{ "type": "Feature", "properties": { "value": 2.0338 }, "geometry": { "type": "Point", "coordinates": [ 129.31781, 35.500454, 115.0 ] } },
{ "type": "Feature", "properties": { "value": 3.0848 }, "geometry": { "type": "Point", "coordinates": [ 129.318909, 35.50045, 115.0 ] } },
{ "type": "Feature", "properties": { "value": 2.6621 }, "geometry": { "type": "Point", "coordinates": [ 129.320023, 35.50045, 115.0 ] } },
{ "type": "Feature", "properties": { "value": 1.589 }, "geometry": { "type": "Point", "coordinates": [ 129.321121, 35.500446, 115.0 ] } },
{ "type": "Feature", "properties": { "value": 0.3841 }, "geometry": { "type": "Point", "coordinates": [ 129.32222, 35.500443, 115.0 ] } },
{ "type": "Feature", "properties": { "value": 0.1158 }, "geometry": { "type": "Point", "coordinates": [ 129.316711, 35.501358, 115.0 ] } },
{ "type": "Feature", "properties": { "value": 0.3627 }, "geometry": { "type": "Point", "coordinates": [ 129.31781, 35.501354, 115.0 ] } },
{ "type": "Feature", "properties": { "value": 0.484 }, "geometry": { "type": "Point", "coordinates": [ 129.318924, 35.501354, 115.0 ] } },
{ "type": "Feature", "properties": { "value": 0.4301 }, "geometry": { "type": "Point", "coordinates": [ 129.320023, 35.50135, 115.0 ] } },
{ "type": "Feature", "properties": { "value": 0.1244 }, "geometry": { "type": "Point", "coordinates": [ 129.321121, 35.501347, 115.0 ] } }
]
}
