{
"type": "FeatureCollection",
"features": [
{ "type": "Feature", "properties": { "value": 5.4207 }, "geometry": { "type": "Point", "coordinates": [ 129.32756, 35.458969, 30.0 ] } },
{ "type": "Feature", "properties": { "value": 147.09 }, "geometry": { "type": "Point", "coordinates": [ 129.32756, 35.459869, 30.0 ] } },
{ "type": "Feature", "properties": { "value": 262.35 }, "geometry": { "type": "Point", "coordinates": [ 129.327576, 35.46077, 30.0 ] } },
{ "type": "Feature", "properties": { "value": 243.93 }, "geometry": { "type": "Point", "coordinates": [ 129.327576, 35.461674, 30.0 ] } },
{ "type": "Feature", "properties": { "value": 226.49 }, "geometry": { "type": "Point", "coordinates": [ 129.327576, 35.462574, 30.0 ] } },
{ "type": "Feature", "properties": { "value": 185.05 }, "geometry": { "type": "Point", "coordinates": [ 129.327576, 35.463474, 30.0 ] } },
{ "type": "Feature", "properties": { "value": 3.5759 }, "geometry": { "type": "Point", "coordinates": [ 129.32869, 35.46347, 30.0 ] } },
{ "type": "Feature", "properties": { "value": 146.74 }, "geometry": { "type": "Point", "coordinates": [ 129.327591, 35.464375, 30.0 ] } },
{ "type": "Feature", "properties": { "value": 14.431 }, "geometry": { "type": "Point", "coordinates": [ 129.32869, 35.464375, 30.0 ] } },
{ "type": "Feature", "properties": { "value": 103.78 }, "geometry": { "type": "Point", "coordinates": [ 129.327591, 35.465279, 30.0 ] } },
{ "type": "Feature", "properties": { "value": 25.699 }, "geometry": { "type": "Point", "coordinates": [ 129.32869, 35.465275, 30.0 ] } },
{ "type": "Feature", "properties": { "value": 71.922 }, "geometry": { "type": "Point", "coordinates": [ 129.327591, 35.466179, 30.0 ] } },
{ "type": "Feature", "properties": { "value": 31.386 }, "geometry": { "type": "Point", "coordinates": [ 129.32869, 35.466175, 30.0 ] } },
{ "type": "Feature", "properties": { "value": 58.178 }, "geometry": { "type": "Point", "coordinates": [ 129.327591, 35.467079, 30.0 ] } },
{ "type": "Feature", "properties": { "value": 37.352 }, "geometry": { "type": "Point", "coordinates": [ 129.328705, 35.467075, 30.0 ] } },
{ "type": "Feature", "properties": { "value": 50.616 }, "geometry": { "type": "Point", "coordinates": [ 129.327606, 35.467983, 30.0 ] } },
{ "type": "Feature", "properties": { "value": 41.889 }, "geometry": { "type": "Point", "coordinates": [ 129.328705, 35.467979, 30.0 ] } },
{ "type": "Feature", "properties": { "value": 49.245 }, "geometry": { "type": "Point", "coordinates": [ 129.327606, 35.468884, 30.0 ] } },
{ "type": "Feature", "properties": { "value": 46.911 }, "geometry": { "type": "Point", "coordinates": [ 129.328705, 35.46888, 30.0 ] } },
{ "type": "Feature", "properties": { "value": 53.93 }, "geometry": { "type": "Point", "coordinates": [ 129.327606, 35.469784, 30.0 ] } },
{ "type": "Feature", "properties": { "value": 54.443 }, "geometry": { "type": "Point", "coordinates": [ 129.328705, 35.46978, 30.0 ] } },
{ "type": "Feature", "properties": { "value": 0.9416 }, "geometry": { "type": "Point", "coordinates": [ 129.329819, 35.469776, 30.0 ] } },
{ "type": "Feature", "properties": { "value": 1.259 }, "geometry": { "type": "Point", "coordinates": [ 129.326508, 35.470688, 30.0 ] } },
{ "type": "Feature", "properties": { "value": 60.203 }, "geometry": { "type": "Point", "coordinates": [ 129.327606, 35.470684, 30.0 ] } },
{ "type": "Feature", "properties": { "value": 68.308 }, "geometry": { "type": "Point", "coordinates": [ 129.32872, 35.470684, 30.0 ] } },
{ "type": "Feature", "properties": { "value": 2.3474 }, "geometry": { "type": "Point", "coordinates": [ 129.329819, 35.47068, 30.0 ] } },
{ "type": "Feature", "properties": { "value": 2.0916 }, "geometry": { "type": "Point", "coordinates": [ 129.326508, 35.471588, 30.0 ] } },
{ "type": "Feature", "properties": { "value": 68.801 }, "geometry": { "type": "Point", "coordinates": [ 129.327621, 35.471588, 30.0 ] } },
{ "type": "Feature", "properties": { "value": 89.898 }, "geometry": { "type": "Point", "coordinates": [ 129.32872, 35.471584, 30.0 ] } },
{ "type": "Feature", "properties": { "value": 4.5927 }, "geometry": { "type": "Point", "coordinates": [ 129.329819, 35.471581, 30.0 ] } },
{ "type": "Feature", "properties": { "value": 2.9774 }, "geometry": { "type": "Point", "coordinates": [ 129.326523, 35.472492, 30.0 ] } },
{ "type": "Feature", "properties": { "value": 76.622 }, "geometry": { "type": "Point", "coordinates": [ 129.327621, 35.472488, 30.0 ] } },
{ "type": "Feature", "properties": { "value": 102.19 }, "geometry": { "type": "Point", "coordinates": [ 129.32872, 35.472485, 30.0 ] } },
{ "type": "Feature", "properties": { "value": 6.9512 }, "geometry": { "type": "Point", "coordinates": [ 129.329819, 35.472481, 30.0 ] } },
{ "type": "Feature", "properties": { "value": 3.9826 }, "geometry": { "type": "Point", "coordinates": [ 129.326523, 35.473392, 30.0 ] } },
{ "type": "Feature", "properties": { "value": 78.645 }, "geometry": { "type": "Point", "coordinates": [ 129.327621, 35.473389, 30.0 ] } },
{ "type": "Feature", "properties": { "value": 104.7 }, "geometry": { "type": "Point", "coordinates": [ 129.32872, 35.473385, 30.0 ] } },
{ "type": "Feature", "properties": { "value": 9.4627 }, "geometry": { "type": "Point", "coordinates": [ 129.329819, 35.473385, 30.0 ] } },
{ "type": "Feature", "properties": { "value": 5.0401 }, "geometry": { "type": "Point", "coordinates": [ 129.326523, 35.474293, 30.0 ] } },
{ "type": "Feature", "properties": { "value": 79.293 }, "geometry": { "type": "Point", "coordinates": [ 129.327621, 35.474289, 30.0 ] } },
{ "type": "Feature", "properties": { "value": 104.78 }, "geometry": { "type": "Point", "coordinates": [ 129.328735, 35.474289, 30.0 ] } },
{ "type": "Feature", "properties": { "value": 11.657 }, "geometry": { "type": "Point", "coordinates": [ 129.329834, 35.474285, 30.0 ] } },
{ "type": "Feature", "properties": { "value": 6.4639 }, "geometry": { "type": "Point", "coordinates": [ 129.326523, 35.475193, 30.0 ] } },
{ "type": "Feature", "properties": { "value": 80.434 }, "geometry": { "type": "Point", "coordinates": [ 129.327637, 35.475193, 30.0 ] } },
{ "type": "Feature", "properties": { "value": 102.81 }, "geometry": { "type": "Point", "coordinates": [ 129.328735, 35.475189, 30.0 ] } },
{ "type": "Feature", "properties": { "value": 12.897 }, "geometry": { "type": "Point", "coordinates": [ 129.329834, 35.475185, 30.0 ] } },
{ "type": "Feature", "properties": { "value": 8.5664 }, "geometry": { "type": "Point", "coordinates": [ 129.326538, 35.476097, 30.0 ] } },
{ "type": "Feature", "properties": { "value": 80.202 }, "geometry": { "type": "Point", "coordinates": [ 129.327637, 35.476093, 30.0 ] } },
{ "type": "Feature", "properties": { "value": 95.502 }, "geometry": { "type": "Point", "coordinates": [ 129.328735, 35.476089, 30.0 ] } },
{ "type": "Feature", "properties": { "value": 13.053 }, "geometry": { "type": "Point", "coordinates": [ 129.329834, 35.476086, 30.0 ] } },
{ "type": "Feature", "properties": { "value": 11.313 }, "geometry": { "type": "Point", "coordinates": [ 129.326538, 35.476997, 30.0 ] } },
{ "type": "Feature", "properties": { "value": 75.887 }, "geometry": { "type": "Point", "coordinates": [ 129.327637, 35.476994, 30.0 ] } },
{ "type": "Feature", "properties": { "value": 81.522 }, "geometry": { "type": "Point", "coordinates": [ 129.328735, 35.47699, 30.0 ] } },
{ "type": "Feature", "properties": { "value": 12.216 }, "geometry": { "type": "Point", "coordinates": [ 129.329834, 35.47699, 30.0 ] } },
{ "type": "Feature", "properties": { "value": 14.01 }, "geometry": { "type": "Point", "coordinates": [ 129.326538, 35.477898, 30.0 ] } },
{ "type": "Feature", "properties": { "value": 69.616 }, "geometry": { "type": "Point", "coordinates": [ 129.327637, 35.477894, 30.0 ] } },
{ "type": "Feature", "properties": { "value": 66.935 }, "geometry": { "type": "Point", "coordinates": [ 129.328735, 35.477894, 30.0 ] } },
{ "type": "Feature", "properties": { "value": 10.949 }, "geometry": { "type": "Point", "coordinates": [ 129.329849, 35.47789, 30.0 ] } },
{ "type": "Feature", "properties": { "value": 17.014 }, "geometry": { "type": "Point", "coordinates": [ 129.326538, 35.478798, 30.0 ] } },
{ "type": "Feature", "properties": { "value": 68.838 }, "geometry": { "type": "Point", "coordinates": [ 129.327637, 35.478798, 30.0 ] } },
{ "type": "Feature", "properties": { "value": 58.917 }, "geometry": { "type": "Point", "coordinates": [ 129.328751, 35.478794, 30.0 ] } },
{ "type": "Feature", "properties": { "value": 9.9689 }, "geometry": { "type": "Point", "coordinates": [ 129.329849, 35.47879, 30.0 ] } },
{ "type": "Feature", "properties": { "value": 1.2192 }, "geometry": { "type": "Point", "coordinates": [ 129.325439, 35.479706, 30.0 ] } },
{ "type": "Feature", "properties": { "value": 22.494 }, "geometry": { "type": "Point", "coordinates": [ 129.326553, 35.479702, 30.0 ] } },
{ "type": "Feature", "properties": { "value": 78.566 }, "geometry": { "type": "Point", "coordinates": [ 129.327652, 35.479698, 30.0 ] } },
{ "type": "Feature", "properties": { "value": 58.604 }, "geometry": { "type": "Point", "coordinates": [ 129.328751, 35.479694, 30.0 ] } },
{ "type": "Feature", "properties": { "value": 9.2686 }, "geometry": { "type": "Point", "coordinates": [ 129.329849, 35.479691, 30.0 ] } },
{ "type": "Feature", "properties": { "value": 2.4735 }, "geometry": { "type": "Point", "coordinates": [ 129.325455, 35.480606, 30.0 ] } },
{ "type": "Feature", "properties": { "value": 31.981 }, "geometry": { "type": "Point", "coordinates": [ 129.326553, 35.480602, 30.0 ] } },
{ "type": "Feature", "properties": { "value": 91.953 }, "geometry": { "type": "Point", "coordinates": [ 129.327652, 35.480598, 30.0 ] } },
{ "type": "Feature", "properties": { "value": 59.218 }, "geometry": { "type": "Point", "coordinates": [ 129.328751, 35.480595, 30.0 ] } },
{ "type": "Feature", "properties": { "value": 8.6561 }, "geometry": { "type": "Point", "coordinates": [ 129.329849, 35.480595, 30.0 ] } },
{ "type": "Feature", "properties": { "value": 4.687 }, "geometry": { "type": "Point", "coordinates": [ 129.325455, 35.481506, 30.0 ] } },
{ "type": "Feature", "properties": { "value": 41.992 }, "geometry": { "type": "Point", "coordinates": [ 129.326553, 35.481503, 30.0 ] } },
{ "type": "Feature", "properties": { "value": 94.281 }, "geometry": { "type": "Point", "coordinates": [ 129.327652, 35.481503, 30.0 ] } },
{ "type": "Feature", "properties": { "value": 53.031 }, "geometry": { "type": "Point", "coordinates": [ 129.328751, 35.481499, 30.0 ] } },
{ "type": "Feature", "properties": { "value": 7.6336 }, "geometry": { "type": "Point", "coordinates": [ 129.329865, 35.481495, 30.0 ] } },
{ "type": "Feature", "properties": { "value": 7.6129 }, "geometry": { "type": "Point", "coordinates": [ 129.325455, 35.482407, 30.0 ] } },
{ "type": "Feature", "properties": { "value": 49.258 }, "geometry": { "type": "Point", "coordinates": [ 129.326553, 35.482407, 30.0 ] } },
{ "type": "Feature", "properties": { "value": 87.641 }, "geometry": { "type": "Point", "coordinates": [ 129.327652, 35.482403, 30.0 ] } },
{ "type": "Feature", "properties": { "value": 44.481 }, "geometry": { "type": "Point", "coordinates": [ 129.328766, 35.482399, 30.0 ] } },
{ "type": "Feature", "properties": { "value": 6.5878 }, "geometry": { "type": "Point", "coordinates": [ 129.329865, 35.482395, 30.0 ] } },
{ "type": "Feature", "properties": { "value": 11.394 }, "geometry": { "type": "Point", "coordinates": [ 129.325455, 35.483311, 30.0 ] } },
{ "type": "Feature", "properties": { "value": 55.401 }, "geometry": { "type": "Point", "coordinates": [ 129.326553, 35.483307, 30.0 ] } },
{ "type": "Feature", "properties": { "value": 84.596 }, "geometry": { "type": "Point", "coordinates": [ 129.327667, 35.483303, 30.0 ] } },
{ "type": "Feature", "properties": { "value": 40.886 }, "geometry": { "type": "Point", "coordinates": [ 129.328766, 35.483299, 30.0 ] } },
{ "type": "Feature", "properties": { "value": 5.9233 }, "geometry": { "type": "Point", "coordinates": [ 129.329865, 35.483295, 30.0 ] } },
{ "type": "Feature", "properties": { "value": 0.9098 }, "geometry": { "type": "Point", "coordinates": [ 129.324356, 35.484215, 30.0 ] } },
{ "type": "Feature", "properties": { "value": 16.454 }, "geometry": { "type": "Point", "coordinates": [ 129.325455, 35.484211, 30.0 ] } },
{ "type": "Feature", "properties": { "value": 63.684 }, "geometry": { "type": "Point", "coordinates": [ 129.326569, 35.484207, 30.0 ] } },
{ "type": "Feature", "properties": { "value": 86.469 }, "geometry": { "type": "Point", "coordinates": [ 129.327667, 35.484203, 30.0 ] } },
{ "type": "Feature", "properties": { "value": 38.901 }, "geometry": { "type": "Point", "coordinates": [ 129.328766, 35.484203, 30.0 ] } },
{ "type": "Feature", "properties": { "value": 5.283 }, "geometry": { "type": "Point", "coordinates": [ 129.329865, 35.4842, 30.0 ] } },
{ "type": "Feature", "properties": { "value": 2.5438 }, "geometry": { "type": "Point", "coordinates": [ 129.324371, 35.485115, 30.0 ] } },
{ "type": "Feature", "properties": { "value": 23.374 }, "geometry": { "type": "Point", "coordinates": [ 129.32547, 35.485111, 30.0 ] } },
{ "type": "Feature", "properties": { "value": 72.121 }, "geometry": { "type": "Point", "coordinates": [ 129.326569, 35.485107, 30.0 ] } },
{ "type": "Feature", "properties": { "value": 83.385 }, "geometry": { "type": "Point", "coordinates": [ 129.327667, 35.485107, 30.0 ] } },
{ "type": "Feature", "properties": { "value": 33.09 }, "geometry": { "type": "Point", "coordinates": [ 129.328766, 35.485104, 30.0 ] } },
{ "type": "Feature", "properties": { "value": 4.2418 }, "geometry": { "type": "Point", "coordinates": [ 129.32988, 35.4851, 30.0 ] } },
{ "type": "Feature", "properties": { "value": 4.857 }, "geometry": { "type": "Point", "coordinates": [ 129.324371, 35.486015, 30.0 ] } },
{ "type": "Feature", "properties": { "value": 31.029 }, "geometry": { "type": "Point", "coordinates": [ 129.32547, 35.486012, 30.0 ] } },
{ "type": "Feature", "properties": { "value": 76.696 }, "geometry": { "type": "Point", "coordinates": [ 129.326569, 35.486012, 30.0 ] } },
{ "type": "Feature", "properties": { "value": 73.723 }, "geometry": { "type": "Point", "coordinates": [ 129.327667, 35.486008, 30.0 ] } },
{ "type": "Feature", "properties": { "value": 25.665 }, "geometry": { "type": "Point", "coordinates": [ 129.328781, 35.486004, 30.0 ] } },
{ "type": "Feature", "properties": { "value": 3.1987 }, "geometry": { "type": "Point", "coordinates": [ 129.32988, 35.486, 30.0 ] } },
{ "type": "Feature", "properties": { "value": 7.8917 }, "geometry": { "type": "Point", "coordinates": [ 129.324371, 35.486916, 30.0 ] } },
{ "type": "Feature", "properties": { "value": 37.865 }, "geometry": { "type": "Point", "coordinates": [ 129.32547, 35.486916, 30.0 ] } },
{ "type": "Feature", "properties": { "value": 77.229 }, "geometry": { "type": "Point", "coordinates": [ 129.326569, 35.486912, 30.0 ] } },
{ "type": "Feature", "properties": { "value": 63.716 }, "geometry": { "type": "Point", "coordinates": [ 129.327682, 35.486908, 30.0 ] } },
{ "type": "Feature", "properties": { "value": 20.154 }, "geometry": { "type": "Point", "coordinates": [ 129.328781, 35.486904, 30.0 ] } },
{ "type": "Feature", "properties": { "value": 2.3192 }, "geometry": { "type": "Point", "coordinates": [ 129.32988, 35.486904, 30.0 ] } },
{ "type": "Feature", "properties": { "value": 0.9812 }, "geometry": { "type": "Point", "coordinates": [ 129.323273, 35.48782, 30.0 ] } },
{ "type": "Feature", "properties": { "value": 11.741 }, "geometry": { "type": "Point", "coordinates": [ 129.324371, 35.48782, 30.0 ] } },
{ "type": "Feature", "properties": { "value": 45.266 }, "geometry": { "type": "Point", "coordinates": [ 129.32547, 35.487816, 30.0 ] } },
{ "type": "Feature", "properties": { "value": 77.963 }, "geometry": { "type": "Point", "coordinates": [ 129.326584, 35.487812, 30.0 ] } },
{ "type": "Feature", "properties": { "value": 56.134 }, "geometry": { "type": "Point", "coordinates": [ 129.327682, 35.487808, 30.0 ] } },
{ "type": "Feature", "properties": { "value": 16.272 }, "geometry": { "type": "Point", "coordinates": [ 129.328781, 35.487808, 30.0 ] } },
{ "type": "Feature", "properties": { "value": 1.7152 }, "geometry": { "type": "Point", "coordinates": [ 129.32988, 35.487804, 30.0 ] } },
{ "type": "Feature", "properties": { "value": 2.195 }, "geometry": { "type": "Point", "coordinates": [ 129.323273, 35.488724, 30.0 ] } },
{ "type": "Feature", "properties": { "value": 17.213 }, "geometry": { "type": "Point", "coordinates": [ 129.324371, 35.48872, 30.0 ] } },
{ "type": "Feature", "properties": { "value": 55.699 }, "geometry": { "type": "Point", "coordinates": [ 129.325485, 35.488716, 30.0 ] } },
{ "type": "Feature", "properties": { "value": 81.347 }, "geometry": { "type": "Point", "coordinates": [ 129.326584, 35.488712, 30.0 ] } },
{ "type": "Feature", "properties": { "value": 51.294 }, "geometry": { "type": "Point", "coordinates": [ 129.327682, 35.488712, 30.0 ] } },
{ "type": "Feature", "properties": { "value": 13.55 }, "geometry": { "type": "Point", "coordinates": [ 129.328781, 35.488708, 30.0 ] } },
{ "type": "Feature", "properties": { "value": 1.3257 }, "geometry": { "type": "Point", "coordinates": [ 129.329895, 35.488705, 30.0 ] } },
{ "type": "Feature", "properties": { "value": 4.2329 }, "geometry": { "type": "Point", "coordinates": [ 129.323273, 35.489624, 30.0 ] } },
{ "type": "Feature", "properties": { "value": 25.494 }, "geometry": { "type": "Point", "coordinates": [ 129.324387, 35.48962, 30.0 ] } },
{ "type": "Feature", "properties": { "value": 69.187 }, "geometry": { "type": "Point", "coordinates": [ 129.325485, 35.489616, 30.0 ] } },
{ "type": "Feature", "properties": { "value": 85.468 }, "geometry": { "type": "Point", "coordinates": [ 129.326584, 35.489616, 30.0 ] } },
{ "type": "Feature", "properties": { "value": 47.26 }, "geometry": { "type": "Point", "coordinates": [ 129.327682, 35.489613, 30.0 ] } },
{ "type": "Feature", "properties": { "value": 11.381 }, "geometry": { "type": "Point", "coordinates": [ 129.328796, 35.489609, 30.0 ] } },
{ "type": "Feature", "properties": { "value": 0.9934 }, "geometry": { "type": "Point", "coordinates": [ 129.329895, 35.489605, 30.0 ] } },
{ "type": "Feature", "properties": { "value": 7.6074 }, "geometry": { "type": "Point", "coordinates": [ 129.323288, 35.490524, 30.0 ] } },
{ "type": "Feature", "properties": { "value": 35.119 }, "geometry": { "type": "Point", "coordinates": [ 129.324387, 35.490524, 30.0 ] } },
{ "type": "Feature", "properties": { "value": 79.654 }, "geometry": { "type": "Point", "coordinates": [ 129.325485, 35.49052, 30.0 ] } },
{ "type": "Feature", "properties": { "value": 84.774 }, "geometry": { "type": "Point", "coordinates": [ 129.326584, 35.490517, 30.0 ] } },
{ "type": "Feature", "properties": { "value": 41.307 }, "geometry": { "type": "Point", "coordinates": [ 129.327698, 35.490513, 30.0 ] } },
{ "type": "Feature", "properties": { "value": 8.9756 }, "geometry": { "type": "Point", "coordinates": [ 129.328796, 35.490509, 30.0 ] } },
{ "type": "Feature", "properties": { "value": 0.6492 }, "geometry": { "type": "Point", "coordinates": [ 129.329895, 35.490509, 30.0 ] } },
{ "type": "Feature", "properties": { "value": 1.7877 }, "geometry": { "type": "Point", "coordinates": [ 129.322189, 35.491428, 30.0 ] } },
{ "type": "Feature", "properties": { "value": 13.142 }, "geometry": { "type": "Point", "coordinates": [ 129.323288, 35.491428, 30.0 ] } },
{ "type": "Feature", "properties": { "value": 46.045 }, "geometry": { "type": "Point", "coordinates": [ 129.324387, 35.491425, 30.0 ] } },
{ "type": "Feature", "properties": { "value": 82.849 }, "geometry": { "type": "Point", "coordinates": [ 129.325485, 35.491421, 30.0 ] } },
{ "type": "Feature", "properties": { "value": 76.331 }, "geometry": { "type": "Point", "coordinates": [ 129.326599, 35.491417, 30.0 ] } },
{ "type": "Feature", "properties": { "value": 32.985 }, "geometry": { "type": "Point", "coordinates": [ 129.327698, 35.491413, 30.0 ] } },
{ "type": "Feature", "properties": { "value": 6.415 }, "geometry": { "type": "Point", "coordinates": [ 129.328796, 35.491413, 30.0 ] } },
{ "type": "Feature", "properties": { "value": 0.0955 }, "geometry": { "type": "Point", "coordinates": [ 129.329895, 35.491409, 30.0 ] } },
{ "type": "Feature", "properties": { "value": 3.8385 }, "geometry": { "type": "Point", "coordinates": [ 129.322189, 35.492332, 30.0 ] } },
{ "type": "Feature", "properties": { "value": 20.248 }, "geometry": { "type": "Point", "coordinates": [ 129.323288, 35.492329, 30.0 ] } },
{ "type": "Feature", "properties": { "value": 54.205 }, "geometry": { "type": "Point", "coordinates": [ 129.324387, 35.492325, 30.0 ] } },
{ "type": "Feature", "properties": { "value": 77.139 }, "geometry": { "type": "Point", "coordinates": [ 129.3255, 35.492321, 30.0 ] } },
{ "type": "Feature", "properties": { "value": 61.074 }, "geometry": { "type": "Point", "coordinates": [ 129.326599, 35.492317, 30.0 ] } },
{ "type": "Feature", "properties": { "value": 23.959 }, "geometry": { "type": "Point", "coordinates": [ 129.327698, 35.492317, 30.0 ] } },
{ "type": "Feature", "properties": { "value": 4.2397 }, "geometry": { "type": "Point", "coordinates": [ 129.328796, 35.492313, 30.0 ] } },
{ "type": "Feature", "properties": { "value": 0.4912 }, "geometry": { "type": "Point", "coordinates": [ 129.321091, 35.493237, 30.0 ] } },
{ "type": "Feature", "properties": { "value": 5.6945 }, "geometry": { "type": "Point", "coordinates": [ 129.322189, 35.493233, 30.0 ] } },
{ "type": "Feature", "properties": { "value": 24.929 }, "geometry": { "type": "Point", "coordinates": [ 129.323288, 35.493229, 30.0 ] } },
{ "type": "Feature", "properties": { "value": 56.388 }, "geometry": { "type": "Point", "coordinates": [ 129.324402, 35.493225, 30.0 ] } },
{ "type": "Feature", "properties": { "value": 66.044 }, "geometry": { "type": "Point", "coordinates": [ 129.3255, 35.493225, 30.0 ] } },
{ "type": "Feature", "properties": { "value": 44.547 }, "geometry": { "type": "Point", "coordinates": [ 129.326599, 35.493221, 30.0 ] } },
{ "type": "Feature", "properties": { "value": 15.899 }, "geometry": { "type": "Point", "coordinates": [ 129.327698, 35.493217, 30.0 ] } },
{ "type": "Feature", "properties": { "value": 2.6625 }, "geometry": { "type": "Point", "coordinates": [ 129.328812, 35.493214, 30.0 ] } },
{ "type": "Feature", "properties": { "value": 0.6531 }, "geometry": { "type": "Point", "coordinates": [ 129.321091, 35.494137, 30.0 ] } },
{ "type": "Feature", "properties": { "value": 5.6133 }, "geometry": { "type": "Point", "coordinates": [ 129.322189, 35.494133, 30.0 ] } },
{ "type": "Feature", "properties": { "value": 21.89 }, "geometry": { "type": "Point", "coordinates": [ 129.323303, 35.494129, 30.0 ] } },
{ "type": "Feature", "properties": { "value": 45.058 }, "geometry": { "type": "Point", "coordinates": [ 129.324402, 35.494129, 30.0 ] } },
{ "type": "Feature", "properties": { "value": 47.703 }, "geometry": { "type": "Point", "coordinates": [ 129.3255, 35.494125, 30.0 ] } },
{ "type": "Feature", "properties": { "value": 28.264 }, "geometry": { "type": "Point", "coordinates": [ 129.326599, 35.494122, 30.0 ] } },
{ "type": "Feature", "properties": { "value": 9.041 }, "geometry": { "type": "Point", "coordinates": [ 129.327713, 35.494118, 30.0 ] } },
{ "type": "Feature", "properties": { "value": 1.334 }, "geometry": { "type": "Point", "coordinates": [ 129.328812, 35.494114, 30.0 ] } },
{ "type": "Feature", "properties": { "value": 0.4067 }, "geometry": { "type": "Point", "coordinates": [ 129.321091, 35.495037, 30.0 ] } },
{ "type": "Feature", "properties": { "value": 3.4359 }, "geometry": { "type": "Point", "coordinates": [ 129.322205, 35.495033, 30.0 ] } },
{ "type": "Feature", "properties": { "value": 12.517 }, "geometry": { "type": "Point", "coordinates": [ 129.323303, 35.495033, 30.0 ] } },
{ "type": "Feature", "properties": { "value": 23.688 }, "geometry": { "type": "Point", "coordinates": [ 129.324402, 35.495029, 30.0 ] } },
{ "type": "Feature", "properties": { "value": 23.662 }, "geometry": { "type": "Point", "coordinates": [ 129.3255, 35.495026, 30.0 ] } },
{ "type": "Feature", "properties": { "value": 12.864 }, "geometry": { "type": "Point", "coordinates": [ 129.326614, 35.495022, 30.0 ] } },
{ "type": "Feature", "properties": { "value": 3.7247 }, "geometry": { "type": "Point", "coordinates": [ 129.327713, 35.495022, 30.0 ] } },
{ "type": "Feature", "properties": { "value": 0.3728 }, "geometry": { "type": "Point", "coordinates": [ 129.328812, 35.495018, 30.0 ] } },
{ "type": "Feature", "properties": { "value": 0.1281 }, "geometry": { "type": "Point", "coordinates": [ 129.321106, 35.495937, 30.0 ] } },
{ "type": "Feature", "properties": { "value": 1.2124 }, "geometry": { "type": "Point", "coordinates": [ 129.322205, 35.495937, 30.0 ] } },
{ "type": "Feature", "properties": { "value": 4.2083 }, "geometry": { "type": "Point", "coordinates": [ 129.323303, 35.495934, 30.0 ] } },
{ "type": "Feature", "properties": { "value": 7.6315 }, "geometry": { "type": "Point", "coordinates": [ 129.324402, 35.49593, 30.0 ] } },
{ "type": "Feature", "properties": { "value": 7.3302 }, "geometry": { "type": "Point", "coordinates": [ 129.325516, 35.495926, 30.0 ] } },
{ "type": "Feature", "properties": { "value": 3.7178 }, "geometry": { "type": "Point", "coordinates": [ 129.326614, 35.495926, 30.0 ] } },
{ "type": "Feature", "properties": { "value": 0.9549 }, "geometry": { "type": "Point", "coordinates": [ 129.327713, 35.495922, 30.0 ] } },
{ "type": "Feature", "properties": { "value": 0.1834 }, "geometry": { "type": "Point", "coordinates": [ 129.322205, 35.496838, 30.0 ] } },
{ "type": "Feature", "properties": { "value": 0.7944 }, "geometry": { "type": "Point", "coordinates": [ 129.323303, 35.496834, 30.0 ] } },
{ "type": "Feature", "properties": { "value": 1.4935 }, "geometry": { "type": "Point", "coordinates": [ 129.324417, 35.49683, 30.0 ] } },
{ "type": "Feature", "properties": { "value": 1.3918 }, "geometry": { "type": "Point", "coordinates": [ 129.325516, 35.49683, 30.0 ] } },
{ "type": "Feature", "properties": { "value": 0.6166 }, "geometry": { "type": "Point", "coordinates": [ 129.326614, 35.496826, 30.0 ] } },
{ "type": "Feature", "properties": { "value": 0.0651 }, "geometry": { "type": "Point", "coordinates": [ 129.327713, 35.496822, 30.0 ] } },
{ "type": "Feature", "properties": { "value": 0.0406 }, "geometry": { "type": "Point", "coordinates": [ 129.323318, 35.497734, 30.0 ] } },
{ "type": "Feature", "properties": { "value": 0.1315 }, "geometry": { "type": "Point", "coordinates": [ 129.324417, 35.497734, 30.0 ] } },
{ "type": "Feature", "properties": { "value": 0.0901 }, "geometry": { "type": "Point", "coordinates": [ 129.325516, 35.49773, 30.0 ] } }
]
}
